{
  "id": 16454,
  "share_type": {
    "id": 2,
    "name": "Bond (Obligation)"
  },
  "issuers": [
    {
      "id": 2764,
      "start_date": "1961-02-28",
      "end_date": "3999-12-31",
      "name": "STÉ MÉTALLURGIQUE DE MONTBARD-AULNOYE"
    }
  ],
  "types": [
    {
      "start_date": "1961-02-28",
      "end_date": "3999-12-31",
      "id": 1001,
      "name": "Obligation ordinaire ou classique",
      "stock_group": "B"
    }
  ],
  "is_mainstock": 0,
  "prices_period": [
    "1961-03-07",
    "1976-12-31"
  ],
  "stock_exchanges": {
    "1": {
      "id": 1,
      "name": "Paris (Official List)",
      "notations": {
        "28526": {
          "id": 28526,
          "sector_id": 517,
          "start_date": "1962-01-02",
          "end_date": "1963-03-04",
          "names": [
            {
              "name": "Vallourec 5% sept 1960, r à 240 NF (c 1/9/61 att) 1961-80",
              "start_date": "1961-02-28",
              "end_date": "3999-12-31"
            }
          ]
        },
        "31242": {
          "id": 31242,
          "sector_id": 111,
          "start_date": "1963-03-04",
          "end_date": "3999-12-31",
          "names": [
            {
              "name": "Vallourec 5% sept 1960, r à 240 NF (c 1/9/61 att) 1961-80",
              "start_date": "1961-02-28",
              "end_date": "3999-12-31"
            }
          ]
        },
        "147029": {
          "id": 147029,
          "sector_id": 111,
          "start_date": "1961-02-28",
          "end_date": "1962-01-02",
          "names": [
            {
              "name": "Vallourec 5% sept 1960, r à 240 NF (c 1/9/61 att) 1961-80",
              "start_date": "1961-02-28",
              "end_date": "3999-12-31"
            }
          ]
        }
      },
      "listings_stats": {
        "start_date": "1961-02-28"
      },
      "spot_prices_stats": {
        "start_date": "1961-03-07",
        "end_date": "1976-12-31"
      }
    }
  },
  "prices_count": 380,
  "name": "Vallourec 5% sept 1960, r à 240 NF (c 1/9/61 att) 1961-80"
}