{
  "id": 22072,
  "share_type": {
    "id": 1,
    "name": "Stock (Action)"
  },
  "issuers": [
    {
      "id": 1717,
      "start_date": "1961-07-13",
      "end_date": "3999-12-31",
      "name": "Entreprise générale d'engrais de vidanges et de produits chimiques (ancienne Compagnie Richer)"
    }
  ],
  "types": [
    {
      "start_date": "1961-07-13",
      "end_date": "3999-12-31",
      "id": 27,
      "name": "Promesse d'action",
      "stock_group": "S"
    }
  ],
  "is_mainstock": 0,
  "prices_period": [
    "1961-07-13",
    "1962-08-31"
  ],
  "stock_exchanges": {
    "1": {
      "id": 1,
      "name": "Paris (Official List)",
      "notations": {
        "152633": {
          "id": 152633,
          "sector_id": 414,
          "start_date": "1961-07-13",
          "end_date": "1962-09-03",
          "names": [
            {
              "name": "Richer (Anc. Cie), promesses (Jce 1/7/61)",
              "start_date": "1961-07-13",
              "end_date": "1962-09-03"
            },
            {
              "name": "Richer (Anc. Cie), act. nouv. (Jce 1/7/61)",
              "start_date": "1961-07-13",
              "end_date": "1962-09-03"
            },
            {
              "name": "Richer (Anc. Cie), act. (n°s 87817 à 96300) (c. 17 étoilé att.)",
              "start_date": "1961-07-13",
              "end_date": "1962-09-03"
            },
            {
              "name": "Richer (Anc.Cie), act.(n°84841 à 87090 et 87817 à 96300)(c.17 étoilé att.)",
              "start_date": "1961-07-13",
              "end_date": "3999-12-31"
            }
          ]
        }
      },
      "listings_stats": {
        "start_date": "1961-07-13"
      },
      "spot_prices_stats": {
        "start_date": "1961-07-13",
        "end_date": "1962-08-31"
      }
    }
  },
  "prices_count": 29,
  "name": "Richer (Anc. Cie), act. nouv. (Jce 1/7/61)"
}