{
  "id": 100992,
  "share_type": {
    "id": 4,
    "name": "Rights (Droits)"
  },
  "issuers": [
    {
      "id": 2493,
      "start_date": "1948-11-15",
      "end_date": "3999-12-31",
      "name": "STÉ MINIÈRE & MÉTALLURGIQUE DE PENARROYA"
    }
  ],
  "types": [
    {
      "start_date": "1948-11-15",
      "end_date": "3999-12-31",
      "id": 501,
      "name": "Droit de souscription",
      "stock_group": "R"
    }
  ],
  "is_mainstock": 0,
  "prices_period": [
    "1948-11-15",
    "1948-11-15"
  ],
  "stock_exchanges": {
    "1": {
      "id": 1,
      "name": "Paris (Official List)",
      "notations": {
        "201137": {
          "id": 201137,
          "sector_id": 657,
          "start_date": "1948-11-15",
          "end_date": "4000-01-01",
          "names": [
            {
              "name": "Penarroya (Sté Minière et Métallur. de) (dr. et c. 58) (1 act. nouv. émise à 300 fr. pour 1 act. Anc.)",
              "start_date": "1948-11-15",
              "end_date": "4000-01-01"
            }
          ]
        }
      },
      "listings_stats": {
        "start_date": "1948-11-15"
      },
      "spot_prices_stats": {
        "start_date": "1948-11-15",
        "end_date": "1948-11-15"
      }
    }
  },
  "prices_count": 2,
  "name": "Penarroya (Sté Minière et Métallur. de) (dr. et c. 58) (1 act. nouv. émise à 300 fr. pour 1 act. Anc.)"
}