{
  "id": 102797,
  "share_type": {
    "id": 4,
    "name": "Rights (Droits)"
  },
  "issuers": [
    {
      "id": 2315,
      "start_date": "1933-01-10",
      "end_date": "1933-01-23",
      "name": "Société anonyme d'imprimerie et Librairie administratives et des chemins de fer"
    }
  ],
  "types": [
    {
      "start_date": "1933-01-10",
      "end_date": "1933-01-23",
      "id": 501,
      "name": "Droit de souscription",
      "stock_group": "R"
    }
  ],
  "is_mainstock": 0,
  "prices_period": [
    "1933-01-10",
    "1933-01-16"
  ],
  "stock_exchanges": {
    "1": {
      "id": 1,
      "name": "Paris (Official List)",
      "notations": {
        "202979": {
          "id": 202979,
          "sector_id": 657,
          "start_date": "1933-01-10",
          "end_date": "1933-01-24",
          "names": [
            {
              "name": "Act. ord. et privil. Imprimerie et Librairie Administratives et des Chemins de fer (droit et coup. 81 ou 27). Pour 3 act. anc. ord. ou privil., 1 act. privil. nouv. émise à 470 francs",
              "start_date": "1933-01-10",
              "end_date": "1933-01-24"
            }
          ]
        }
      },
      "listings_stats": {
        "start_date": "1933-01-10"
      },
      "spot_prices_stats": {
        "start_date": "1933-01-10",
        "end_date": "1933-01-16"
      }
    }
  },
  "prices_count": 3,
  "name": "Act. ord. et privil. Imprimerie et Librairie Administratives et des Chemins de fer (droit et coup. 81 ou 27). Pour 3 act. anc. ord. ou privil., 1 act. privil. nouv. émise à 470 francs"
}