{
  "id": 40,
  "share_type": {
    "id": 2,
    "name": "Bond (Obligation)"
  },
  "issuers": [
    {
      "id": 100,
      "start_date": "1796-04-18",
      "end_date": "3999-12-31",
      "name": "RENTES FRANÇAISES"
    }
  ],
  "types": [
    {
      "start_date": "1796-04-18",
      "end_date": "3999-12-31",
      "id": 1001,
      "name": "Obligation ordinaire ou classique",
      "stock_group": "B"
    }
  ],
  "is_mainstock": 0,
  "prices_period": [
    "1796-04-20",
    "1996-11-01"
  ],
  "stock_exchanges": {
    "1": {
      "id": 1,
      "name": "Paris (Official List)",
      "notations": {
        "53": {
          "id": 53,
          "sector_id": 10,
          "start_date": "1796-04-18",
          "end_date": "1797-06-28",
          "names": [
            {
              "name": "Mandat",
              "start_date": "1796-04-18",
              "end_date": "3999-12-31"
            }
          ]
        }
      },
      "listings_stats": {
        "start_date": "1796-04-18"
      },
      "spot_prices_stats": {
        "start_date": "1796-04-20",
        "end_date": "1996-11-01"
      }
    }
  },
  "prices_count": 63,
  "name": "Mandat"
}