{
  "id": 105490,
  "share_type": {
    "id": 1,
    "name": "Stock (Action)"
  },
  "issuers": [
    {
      "id": 12266,
      "start_date": "1888-07-31",
      "end_date": "1896-01-04",
      "name": "Mine d'Or de l'Est-Oregon"
    }
  ],
  "types": [
    {
      "start_date": "1888-07-31",
      "end_date": "1892-05-19",
      "id": 18,
      "name": "Action",
      "stock_group": "S"
    },
    {
      "start_date": "1895-03-14",
      "end_date": "1896-01-04",
      "id": 18,
      "name": "Action",
      "stock_group": "S"
    }
  ],
  "is_mainstock": 1,
  "prices_period": [
    "1888-07-31",
    "1896-01-04"
  ],
  "stock_exchanges": {
    "2": {
      "id": 2,
      "name": "Paris OTC (Coulisse)",
      "notations": {
        "205774": {
          "id": 205774,
          "sector_id": 669,
          "start_date": "1888-07-31",
          "end_date": "1892-05-19",
          "names": [
            {
              "name": "Est-Oregon (mine d or) au port.",
              "start_date": "1888-07-31",
              "end_date": "1895-03-13"
            },
            {
              "name": "Est-Oregon",
              "start_date": "1888-07-31",
              "end_date": "1896-01-04"
            }
          ]
        },
        "206333": {
          "id": 206333,
          "sector_id": 669,
          "start_date": "1895-03-14",
          "end_date": "1896-01-04",
          "names": [
            {
              "name": "Est-Oregon (mine d or) au port.",
              "start_date": "1888-07-31",
              "end_date": "1896-01-04"
            },
            {
              "name": "Est-Oregon",
              "start_date": "1895-03-14",
              "end_date": "1896-01-04"
            }
          ]
        }
      },
      "listings_stats": {
        "start_date": "1888-07-31"
      },
      "spot_prices_stats": {
        "start_date": "1888-07-31",
        "end_date": "1896-01-04"
      }
    }
  },
  "prices_count": 177,
  "name": "Est-Oregon"
}