{
  "id": 11196,
  "share_type": {
    "id": 2,
    "name": "Bond (Obligation)"
  },
  "issuers": [
    {
      "id": 5464,
      "start_date": "1938-05-10",
      "end_date": "3999-12-31",
      "name": "Nestlé and Anglo-Swiss Condensed Milk Cy"
    }
  ],
  "types": [
    {
      "start_date": "1938-05-10",
      "end_date": "3999-12-31",
      "id": 1032,
      "name": "Bons d'amortissement",
      "stock_group": "B"
    }
  ],
  "is_mainstock": 0,
  "prices_period": [
    "1938-05-16",
    "1951-01-02"
  ],
  "stock_exchanges": {
    "1": {
      "id": 1,
      "name": "Paris (Official List)",
      "notations": {
        "22239": {
          "id": 22239,
          "sector_id": 208,
          "start_date": "1944-10-10",
          "end_date": "1945-04-03",
          "names": [
            {
              "name": "Nestlé and Anglo-Swiss Holding Cy Ltd, Bon d'amortissement Nestlé (c. 1 att), titres de 25",
              "start_date": "1938-05-10",
              "end_date": "1945-04-03"
            },
            {
              "name": "Nestlé and Anglo-Swiss Holding Cy Ltd, Bons d'amortissement Nestlé Titres de 25",
              "start_date": "1944-10-10",
              "end_date": "1949-01-30"
            },
            {
              "name": "Nestlé and Anglo-Swiss Holding Cy Ltd, Bon d'amortis. Nestlé Titres de 25",
              "start_date": "1944-10-10",
              "end_date": "1949-01-31"
            },
            {
              "name": "Nestlé Alimentana Cy Ltd, Bon d'amortis. Nestlé Titres de 25",
              "start_date": "1944-10-10",
              "end_date": "1951-02-22"
            },
            {
              "name": "Nestlé Alimentana Cy, bons d'amortis. Nestlé Titres de 25",
              "start_date": "1944-10-10",
              "end_date": "3999-12-31"
            }
          ]
        },
        "23539": {
          "id": 23539,
          "sector_id": 82,
          "start_date": "1945-04-03",
          "end_date": "1951-02-22",
          "names": [
            {
              "name": "Nestlé and Anglo-Swiss Holding Cy Ltd, Bon d'amortissement Nestlé (c. 1 att), titres de 25",
              "start_date": "1938-05-10",
              "end_date": "1951-02-22"
            },
            {
              "name": "Nestlé and Anglo-Swiss Holding Cy Ltd, Bons d'amortissement Nestlé Titres de 25",
              "start_date": "1944-10-10",
              "end_date": "1951-02-22"
            },
            {
              "name": "Nestlé and Anglo-Swiss Holding Cy Ltd, Bon d'amortis. Nestlé Titres de 25",
              "start_date": "1945-04-03",
              "end_date": "1951-02-22"
            },
            {
              "name": "Nestlé Alimentana Cy Ltd, Bon d'amortis. Nestlé Titres de 25",
              "start_date": "1945-04-03",
              "end_date": "1951-02-22"
            },
            {
              "name": "Nestlé Alimentana Cy, bons d'amortis. Nestlé Titres de 25",
              "start_date": "1945-04-03",
              "end_date": "3999-12-31"
            }
          ]
        },
        "141771": {
          "id": 141771,
          "sector_id": 208,
          "start_date": "1938-05-10",
          "end_date": "1940-06-11",
          "names": [
            {
              "name": "Nestlé and Anglo-Swiss Holding Cy Ltd, Bon d'amortissement Nestlé (c. 1 att), titres de 25",
              "start_date": "1938-05-10",
              "end_date": "1944-10-10"
            },
            {
              "name": "Nestlé and Anglo-Swiss Holding Cy Ltd, Bons d'amortissement Nestlé Titres de 25",
              "start_date": "1938-05-10",
              "end_date": "1949-01-30"
            },
            {
              "name": "Nestlé and Anglo-Swiss Holding Cy Ltd, Bon d'amortis. Nestlé Titres de 25",
              "start_date": "1938-05-10",
              "end_date": "1949-01-31"
            },
            {
              "name": "Nestlé Alimentana Cy Ltd, Bon d'amortis. Nestlé Titres de 25",
              "start_date": "1938-05-10",
              "end_date": "1951-02-22"
            },
            {
              "name": "Nestlé Alimentana Cy, bons d'amortis. Nestlé Titres de 25",
              "start_date": "1938-05-10",
              "end_date": "3999-12-31"
            }
          ]
        }
      },
      "listings_stats": {
        "start_date": "1938-05-10"
      },
      "spot_prices_stats": {
        "start_date": "1938-05-16",
        "end_date": "1951-01-02"
      }
    }
  },
  "prices_count": 166,
  "name": "Nestlé and Anglo-Swiss Holding Cy Ltd, Bon d'amortis. Nestlé Titres de 25"
}