{
  "id": 100550,
  "share_type": {
    "id": 4,
    "name": "Rights (Droits)"
  },
  "issuers": [
    {
      "id": 4130,
      "start_date": "1946-05-13",
      "end_date": "1946-06-07",
      "name": "USINES DU PIED-SELLE"
    }
  ],
  "types": [
    {
      "start_date": "1946-05-13",
      "end_date": "1946-06-07",
      "id": 501,
      "name": "Droit de souscription",
      "stock_group": "R"
    }
  ],
  "is_mainstock": 0,
  "prices_period": [
    "1946-05-13",
    "1946-05-31"
  ],
  "stock_exchanges": {
    "1": {
      "id": 1,
      "name": "Paris (Official List)",
      "notations": {
        "200612": {
          "id": 200612,
          "sector_id": 657,
          "start_date": "1946-05-13",
          "end_date": "1946-06-08",
          "names": [
            {
              "name": "Act. Pied-Selle (Usines du) (droit et coupon 13 ou bon de droit)",
              "start_date": "1946-05-13",
              "end_date": "1946-06-08"
            }
          ]
        }
      },
      "listings_stats": {
        "start_date": "1946-05-13"
      },
      "spot_prices_stats": {
        "start_date": "1946-05-13",
        "end_date": "1946-05-31"
      }
    }
  },
  "prices_count": 3,
  "name": "Act. Pied-Selle (Usines du) (droit et coupon 13 ou bon de droit)"
}