{
  "id": 17794,
  "share_type": {
    "id": 1,
    "name": "Stock (Action)"
  },
  "issuers": [
    {
      "id": 5356,
      "start_date": "1962-07-16",
      "end_date": "3999-12-31",
      "name": "Société Française des Laboratoires Labaz"
    }
  ],
  "types": [
    {
      "start_date": "1962-07-16",
      "end_date": "3999-12-31",
      "id": 27,
      "name": "Promesse d'action",
      "stock_group": "S"
    }
  ],
  "is_mainstock": 0,
  "prices_period": [
    "1962-07-17",
    "1963-05-31"
  ],
  "stock_exchanges": {
    "1": {
      "id": 1,
      "name": "Paris (Official List)",
      "notations": {
        "30483": {
          "id": 30483,
          "sector_id": 351,
          "start_date": "1963-03-04",
          "end_date": "1963-06-12",
          "names": [
            {
              "name": "Laboratoires Labaz (Franç. des), Promesses (Jce 1/7/62)",
              "start_date": "1962-07-16",
              "end_date": "1963-06-12"
            },
            {
              "name": "Laboratoires Labaz (Franç. des), Act.(n° 104611 à 146454) (c.16 spéc.att.)",
              "start_date": "1962-11-12",
              "end_date": "3999-12-31"
            }
          ]
        },
        "148369": {
          "id": 148369,
          "sector_id": 414,
          "start_date": "1962-07-16",
          "end_date": "1963-03-04",
          "names": [
            {
              "name": "Laboratoires Labaz (Franç. des), Promesses (Jce 1/7/62)",
              "start_date": "1962-07-16",
              "end_date": "1963-03-04"
            },
            {
              "name": "Laboratoires Labaz (Franç. des), Act.(n° 104611 à 146454) (c.16 spéc.att.)",
              "start_date": "1962-07-16",
              "end_date": "3999-12-31"
            }
          ]
        }
      },
      "listings_stats": {
        "start_date": "1962-07-16"
      },
      "spot_prices_stats": {
        "start_date": "1962-07-17",
        "end_date": "1963-05-31"
      }
    }
  },
  "prices_count": 22,
  "name": "Laboratoires Labaz (Franç. des), Promesses (Jce 1/7/62)"
}