{
  "id": 12539,
  "share_type": {
    "id": 2,
    "name": "Bond (Obligation)"
  },
  "issuers": [
    {
      "id": 5250,
      "start_date": "1947-11-12",
      "end_date": "3999-12-31",
      "name": "SOCIÉTÉ NATIONALE DES CHEMINS DE FER FRANÇAIS"
    }
  ],
  "types": [
    {
      "start_date": "1947-11-12",
      "end_date": "3999-12-31",
      "id": 1001,
      "name": "Obligation ordinaire ou classique",
      "stock_group": "B"
    }
  ],
  "is_mainstock": 0,
  "prices_period": [
    "1947-11-13",
    "1976-12-31"
  ],
  "stock_exchanges": {
    "1": {
      "id": 1,
      "name": "Paris (Official List)",
      "notations": {
        "25304": {
          "id": 25304,
          "sector_id": 57,
          "start_date": "1955-12-01",
          "end_date": "3999-12-31",
          "names": [
            {
              "name": "S.N.C.F. Société Nationale des Chemins de fer Français 4% 1947, remb. À 50000 fr.",
              "start_date": "1947-11-12",
              "end_date": "3999-12-31"
            },
            {
              "name": "S.N.C.F. 4% 1947 (Rach. ou Tir.)",
              "start_date": "1955-12-01",
              "end_date": "3999-12-31"
            },
            {
              "name": "S.N.C.F. 4% 1947 (Rach. ou Tir.) 1948-87",
              "start_date": "1955-12-01",
              "end_date": "3999-12-31"
            },
            {
              "name": "S.N.C.F. 4% 1947, TITRES NOUV [DE 500 FR] 1948-87",
              "start_date": "1955-12-01",
              "end_date": "3999-12-31"
            }
          ]
        },
        "143114": {
          "id": 143114,
          "sector_id": 209,
          "start_date": "1947-11-12",
          "end_date": "1955-12-01",
          "names": [
            {
              "name": "S.N.C.F. Société Nationale des Chemins de fer Français 4% 1947, remb. À 50000 fr.",
              "start_date": "1947-11-12",
              "end_date": "1955-12-01"
            },
            {
              "name": "S.N.C.F. 4% 1947 (Rach. ou Tir.)",
              "start_date": "1947-11-12",
              "end_date": "1967-05-02"
            },
            {
              "name": "S.N.C.F. 4% 1947 (Rach. ou Tir.) 1948-87",
              "start_date": "1947-11-12",
              "end_date": "1967-07-03"
            },
            {
              "name": "S.N.C.F. 4% 1947, TITRES NOUV [DE 500 FR] 1948-87",
              "start_date": "1947-11-12",
              "end_date": "3999-12-31"
            }
          ]
        }
      },
      "listings_stats": {
        "start_date": "1947-11-12"
      },
      "spot_prices_stats": {
        "start_date": "1947-11-13",
        "end_date": "1976-12-31"
      }
    }
  },
  "prices_count": 717,
  "name": "S.N.C.F. 4% 1947 (Rach. ou Tir.) 1948-87"
}