{
  "id": 8656,
  "share_type": {
    "id": 1,
    "name": "Stock (Action)"
  },
  "issuers": [
    {
      "id": 4356,
      "start_date": "1927-03-16",
      "end_date": "3999-12-31",
      "name": "ETABLISSEMENTS LEON LEVILLE"
    }
  ],
  "types": [
    {
      "start_date": "1927-03-16",
      "end_date": "3999-12-31",
      "id": 18,
      "name": "Action",
      "stock_group": "S"
    }
  ],
  "is_mainstock": 1,
  "prices_period": [
    "1927-03-16",
    "1935-03-15"
  ],
  "stock_exchanges": {
    "1": {
      "id": 1,
      "name": "Paris (Official List)",
      "notations": {
        "136103": {
          "id": 136103,
          "sector_id": 182,
          "start_date": "1927-03-16",
          "end_date": "1935-04-15",
          "names": [
            {
              "name": "Leville (Etabl. Léon), act. 100 fr., t. p.",
              "start_date": "1927-03-16",
              "end_date": "1935-04-15"
            },
            {
              "name": "Leville (Etabl. Léon, act. 100 fr., t.p.) (ex-droit, )",
              "start_date": "1927-03-16",
              "end_date": "3999-12-31"
            }
          ]
        }
      },
      "listings_stats": {
        "start_date": "1927-03-16"
      },
      "spot_prices_stats": {
        "start_date": "1927-03-16",
        "end_date": "1935-03-15"
      }
    }
  },
  "prices_count": 208,
  "name": "Leville (Etabl. Léon), act. 100 fr., t. p."
}