{
  "id": 100716,
  "share_type": {
    "id": 4,
    "name": "Rights (Droits)"
  },
  "issuers": [
    {
      "id": 3573,
      "start_date": "1947-02-14",
      "end_date": "1948-03-11",
      "name": "Société GÉNÉRALE FONCIÈRE"
    }
  ],
  "types": [
    {
      "start_date": "1947-02-14",
      "end_date": "1948-03-11",
      "id": 501,
      "name": "Droit de souscription",
      "stock_group": "R"
    }
  ],
  "is_mainstock": 0,
  "prices_period": [
    "1947-02-17",
    "1947-02-17"
  ],
  "stock_exchanges": {
    "1": {
      "id": 1,
      "name": "Paris (Official List)",
      "notations": {
        "200853": {
          "id": 200853,
          "sector_id": 657,
          "start_date": "1947-02-14",
          "end_date": "1947-03-12",
          "names": [
            {
              "name": "Générale Foncière (Sté) (droit et coupon 8). 1 action émise à 500 fr. pour 5 act. Anc. de 100 fr.",
              "start_date": "1947-02-14",
              "end_date": "1948-03-12"
            }
          ]
        },
        "200854": {
          "id": 200854,
          "sector_id": 659,
          "start_date": "1947-03-12",
          "end_date": "1948-03-12",
          "names": [
            {
              "name": "Générale Foncière (Sté) (droit et coupon 8). 1 action émise à 500 fr. pour 5 act. Anc. de 100 fr.",
              "start_date": "1947-02-14",
              "end_date": "1948-03-12"
            }
          ]
        }
      },
      "listings_stats": {
        "start_date": "1947-02-14"
      },
      "spot_prices_stats": {
        "start_date": "1947-02-17",
        "end_date": "1947-02-17"
      }
    }
  },
  "prices_count": 1,
  "name": "Générale Foncière (Sté) (droit et coupon 8). 1 action émise à 500 fr. pour 5 act. Anc. de 100 fr."
}