{
  "id": 102077,
  "share_type": {
    "id": 4,
    "name": "Rights (Droits)"
  },
  "issuers": [
    {
      "id": 4378,
      "start_date": "1944-05-05",
      "end_date": "3999-12-31",
      "name": "COMPAGNIE DE SIGNAUX ET D'ENTREPRISES ELECTRIQUES"
    }
  ],
  "types": [
    {
      "start_date": "1944-05-05",
      "end_date": "3999-12-31",
      "id": 501,
      "name": "Droit de souscription",
      "stock_group": "R"
    }
  ],
  "is_mainstock": 0,
  "prices_period": [
    "1944-05-05",
    "1946-03-15"
  ],
  "stock_exchanges": {
    "1": {
      "id": 1,
      "name": "Paris (Official List)",
      "notations": {
        "202259": {
          "id": 202259,
          "sector_id": 657,
          "start_date": "1944-05-05",
          "end_date": "4000-01-01",
          "names": [
            {
              "name": "Act. CIE DE SIGNAUX ET D'ENTREPRISES ELECTRIQUES (bon de souscription). Pour 3 bons, 1 act. nouv. de l'émission avril cédée au pair, plus une prime de 1000 fr., majorée de l'intérêt couru.",
              "start_date": "1944-05-05",
              "end_date": "4000-01-01"
            }
          ]
        }
      },
      "listings_stats": {
        "start_date": "1944-05-05"
      },
      "spot_prices_stats": {
        "start_date": "1944-05-05",
        "end_date": "1946-03-15"
      }
    }
  },
  "prices_count": 7,
  "name": "Act. CIE DE SIGNAUX ET D'ENTREPRISES ELECTRIQUES (bon de souscription). Pour 3 bons, 1 act. nouv. de l'émission avril cédée au pair, plus une prime de 1000 fr., majorée de l'intérêt couru."
}