{
  "id": 7579,
  "share_type": {
    "id": 2,
    "name": "Bond (Obligation)"
  },
  "issuers": [
    {
      "id": 4317,
      "start_date": "1922-09-07",
      "end_date": "3999-12-31",
      "name": "SOCIETE COMMERCIALE DE L'OUEST AFRICAIN"
    }
  ],
  "types": [
    {
      "start_date": "1922-09-07",
      "end_date": "3999-12-31",
      "id": 1001,
      "name": "Obligation ordinaire ou classique",
      "stock_group": "B"
    }
  ],
  "is_mainstock": 0,
  "prices_period": [
    "1922-09-07",
    "1931-03-16"
  ],
  "stock_exchanges": {
    "1": {
      "id": 1,
      "name": "Paris (Official List)",
      "notations": {
        "11122": {
          "id": 11122,
          "sector_id": 185,
          "start_date": "1922-12-01",
          "end_date": "1931-04-01",
          "names": [
            {
              "name": "Ouest-Africain (Sté Commerciale de l'). Bons décennaux 6,5%, r. à 500 fr.",
              "start_date": "1922-09-07",
              "end_date": "3999-12-31"
            }
          ]
        },
        "34449": {
          "id": 34449,
          "sector_id": 113,
          "start_date": "1922-09-07",
          "end_date": "1922-12-01",
          "names": [
            {
              "name": "Ouest-Africain (Sté Commerciale de l'). Bons décennaux 6,5%, r. à 500 fr.",
              "start_date": "1922-09-07",
              "end_date": "3999-12-31"
            }
          ]
        }
      },
      "listings_stats": {
        "start_date": "1922-09-07"
      },
      "spot_prices_stats": {
        "start_date": "1922-09-07",
        "end_date": "1931-03-16"
      }
    }
  },
  "prices_count": 160,
  "name": "Ouest-Africain (Sté Commerciale de l'). Bons décennaux 6,5%, r. à 500 fr."
}