{
  "id": 15400,
  "share_type": {
    "id": 1,
    "name": "Stock (Action)"
  },
  "issuers": [
    {
      "id": 2714,
      "start_date": "1956-12-13",
      "end_date": "3999-12-31",
      "name": "CIE GLE DE TRAVAUX D'ÉCLAIRAGE ET DE FORCE (Anciens Etablissements Clemançon)"
    }
  ],
  "types": [
    {
      "start_date": "1956-12-13",
      "end_date": "3999-12-31",
      "id": 27,
      "name": "Promesse d'action",
      "stock_group": "S"
    }
  ],
  "is_mainstock": 0,
  "prices_period": [
    null,
    null
  ],
  "stock_exchanges": {
    "1": {
      "id": 1,
      "name": "Paris (Official List)",
      "notations": {
        "145975": {
          "id": 145975,
          "sector_id": 393,
          "start_date": "1956-12-13",
          "end_date": "1957-04-08",
          "names": [
            {
              "name": "Travaux d'Eclairage et Force (Anc. Et. Clémançon), Promesses (Jce 1/1/56)",
              "start_date": "1956-12-13",
              "end_date": "3999-12-31"
            }
          ]
        }
      },
      "listings_stats": {
        "start_date": "1956-12-13"
      }
    }
  },
  "prices_count": 0,
  "name": "Travaux d'Eclairage et Force (Anc. Et. Clémançon), Promesses (Jce 1/1/56)"
}