{
  "id": 15631,
  "share_type": {
    "id": 2,
    "name": "Bond (Obligation)"
  },
  "issuers": [
    {
      "id": 4259,
      "start_date": "1958-05-23",
      "end_date": "3999-12-31",
      "name": "SOCIETE DES PAPETERIES DE FRANCE"
    }
  ],
  "types": [
    {
      "start_date": "1958-05-23",
      "end_date": "3999-12-31",
      "id": 1001,
      "name": "Obligation ordinaire ou classique",
      "stock_group": "B"
    }
  ],
  "is_mainstock": 0,
  "prices_period": [
    "1958-05-23",
    "1971-12-15"
  ],
  "stock_exchanges": {
    "1": {
      "id": 1,
      "name": "Paris (Official List)",
      "notations": {
        "28290": {
          "id": 28290,
          "sector_id": 515,
          "start_date": "1962-01-02",
          "end_date": "1963-03-04",
          "names": [
            {
              "name": "Papeteries de France 6% min.sept.1957, remb à 11000 fr.min à inf. suppl. et prime de remb. Variables (c.1/9/58 att.) (Cf Avis n°33842) 1958-75)",
              "start_date": "1958-05-23",
              "end_date": "1963-03-04"
            },
            {
              "name": "Papeteries de France 6% min. sept. 1957, remb. à 110 NF min. à int. suppl. et prime de remb. variables (Tir. 20/7/61) (Avis 33842) 1958-75",
              "start_date": "1962-01-02",
              "end_date": "1971-12-20"
            },
            {
              "name": "Papeteries de France 6% min.sept. 1957, remb.à 110 min.à intérêt suppl.et prime de rembours.var. (T. 30/7/71) (Avis 33842) emb.le 20/12/71",
              "start_date": "1962-01-02",
              "end_date": "3999-12-31"
            }
          ]
        },
        "30949": {
          "id": 30949,
          "sector_id": 367,
          "start_date": "1963-03-04",
          "end_date": "1971-12-20",
          "names": [
            {
              "name": "Papeteries de France 6% min.sept.1957, remb à 11000 fr.min à inf. suppl. et prime de remb. Variables (c.1/9/58 att.) (Cf Avis n°33842) 1958-75)",
              "start_date": "1958-05-23",
              "end_date": "1971-12-20"
            },
            {
              "name": "Papeteries de France 6% min. sept. 1957, remb. à 110 NF min. à int. suppl. et prime de remb. variables (Tir. 20/7/61) (Avis 33842) 1958-75",
              "start_date": "1962-01-02",
              "end_date": "1971-12-20"
            },
            {
              "name": "Papeteries de France 6% min.sept. 1957, remb.à 110 min.à intérêt suppl.et prime de rembours.var. (T. 30/7/71) (Avis 33842) emb.le 20/12/71",
              "start_date": "1963-03-04",
              "end_date": "3999-12-31"
            }
          ]
        },
        "146206": {
          "id": 146206,
          "sector_id": 367,
          "start_date": "1958-05-23",
          "end_date": "1962-01-02",
          "names": [
            {
              "name": "Papeteries de France 6% min.sept.1957, remb à 11000 fr.min à inf. suppl. et prime de remb. Variables (c.1/9/58 att.) (Cf Avis n°33842) 1958-75)",
              "start_date": "1958-05-23",
              "end_date": "1962-01-02"
            },
            {
              "name": "Papeteries de France 6% min. sept. 1957, remb. à 110 NF min. à int. suppl. et prime de remb. variables (Tir. 20/7/61) (Avis 33842) 1958-75",
              "start_date": "1958-05-23",
              "end_date": "1971-12-20"
            },
            {
              "name": "Papeteries de France 6% min.sept. 1957, remb.à 110 min.à intérêt suppl.et prime de rembours.var. (T. 30/7/71) (Avis 33842) emb.le 20/12/71",
              "start_date": "1958-05-23",
              "end_date": "3999-12-31"
            }
          ]
        }
      },
      "listings_stats": {
        "start_date": "1958-05-23"
      },
      "spot_prices_stats": {
        "start_date": "1958-05-23",
        "end_date": "1971-12-15"
      }
    }
  },
  "prices_count": 327,
  "name": "Papeteries de France 6% min. sept. 1957, remb. à 110 NF min. à int. suppl. et prime de remb. variables (Tir. 20/7/61) (Avis 33842) 1958-75"
}