{
  "id": 4785,
  "share_type": {
    "id": 2,
    "name": "Bond (Obligation)"
  },
  "issuers": [
    {
      "id": 1711,
      "start_date": "1899-08-01",
      "end_date": "3999-12-31",
      "name": "Compagnie Madrilène d'éclairage et de Chauffage par le gaz"
    }
  ],
  "types": [
    {
      "start_date": "1899-08-01",
      "end_date": "3999-12-31",
      "id": 1001,
      "name": "Obligation ordinaire ou classique",
      "stock_group": "B"
    }
  ],
  "is_mainstock": 0,
  "prices_period": [
    "1899-08-05",
    "1899-08-05"
  ],
  "stock_exchanges": {
    "1": {
      "id": 1,
      "name": "Paris (Official List)",
      "notations": {
        "5884": {
          "id": 5884,
          "sector_id": 83,
          "start_date": "1899-08-01",
          "end_date": "1903-02-02",
          "names": [
            {
              "name": "Cie Madrilène du Gaz 4%, remb. à 500 fr., non estampillées",
              "start_date": "1899-08-01",
              "end_date": "3999-12-31"
            }
          ]
        }
      },
      "listings_stats": {
        "start_date": "1899-08-01"
      },
      "spot_prices_stats": {
        "start_date": "1899-08-05",
        "end_date": "1899-08-05"
      }
    }
  },
  "prices_count": 1,
  "name": "Cie Madrilène du Gaz 4%, remb. à 500 fr., non estampillées"
}