{
  "id": 12238,
  "share_type": {
    "id": 2,
    "name": "Bond (Obligation)"
  },
  "issuers": [
    {
      "id": 3138,
      "start_date": "1945-10-11",
      "end_date": "3999-12-31",
      "name": "SOCIÉTÉ ANONYME DES HAUTS FOURNEAUX FORGES ET ACIÉRIES DE POMPEY"
    }
  ],
  "types": [
    {
      "start_date": "1945-10-11",
      "end_date": "3999-12-31",
      "id": 1001,
      "name": "Obligation ordinaire ou classique",
      "stock_group": "B"
    }
  ],
  "is_mainstock": 0,
  "prices_period": [
    "1945-10-11",
    "1973-08-31"
  ],
  "stock_exchanges": {
    "1": {
      "id": 1,
      "name": "Paris (Official List)",
      "notations": {
        "24912": {
          "id": 24912,
          "sector_id": 321,
          "start_date": "1954-02-17",
          "end_date": "1955-12-01",
          "names": [
            {
              "name": "Hauts-Fourneaux, Forges et Aciéries de Pompey 3,75% 1945, remb. À 5000 fr. 1946-75",
              "start_date": "1945-10-11",
              "end_date": "1955-12-01"
            },
            {
              "name": "Pompey (Cie Industrielle et Financière de) 3,75% 1945, remb. à 5000 fr. 1946-75",
              "start_date": "1954-02-17",
              "end_date": "1955-12-01"
            },
            {
              "name": "Pompey (Cie Industr. Et Financière de) 3,75% 1945 (n°s 20001 à 35590) (Rachats. Ou Tirages) 1946-75",
              "start_date": "1954-02-17",
              "end_date": "1973-09-17"
            },
            {
              "name": "Pompey (Cie Industr. Et Financière de) 3,75% 1945 (n° 20001 à 35590) (T. 12/3/73). 1946-75",
              "start_date": "1954-02-17",
              "end_date": "3999-12-31"
            }
          ]
        },
        "26790": {
          "id": 26790,
          "sector_id": 111,
          "start_date": "1955-12-01",
          "end_date": "1962-01-02",
          "names": [
            {
              "name": "Hauts-Fourneaux, Forges et Aciéries de Pompey 3,75% 1945, remb. À 5000 fr. 1946-75",
              "start_date": "1945-10-11",
              "end_date": "1962-01-02"
            },
            {
              "name": "Pompey (Cie Industrielle et Financière de) 3,75% 1945, remb. à 5000 fr. 1946-75",
              "start_date": "1954-02-17",
              "end_date": "1962-01-02"
            },
            {
              "name": "Pompey (Cie Industr. Et Financière de) 3,75% 1945 (n°s 20001 à 35590) (Rachats. Ou Tirages) 1946-75",
              "start_date": "1955-12-01",
              "end_date": "1973-09-17"
            },
            {
              "name": "Pompey (Cie Industr. Et Financière de) 3,75% 1945 (n° 20001 à 35590) (T. 12/3/73). 1946-75",
              "start_date": "1955-12-01",
              "end_date": "3999-12-31"
            }
          ]
        },
        "28479": {
          "id": 28479,
          "sector_id": 517,
          "start_date": "1962-01-02",
          "end_date": "1963-03-04",
          "names": [
            {
              "name": "Hauts-Fourneaux, Forges et Aciéries de Pompey 3,75% 1945, remb. À 5000 fr. 1946-75",
              "start_date": "1945-10-11",
              "end_date": "1963-03-04"
            },
            {
              "name": "Pompey (Cie Industrielle et Financière de) 3,75% 1945, remb. à 5000 fr. 1946-75",
              "start_date": "1954-02-17",
              "end_date": "1963-03-04"
            },
            {
              "name": "Pompey (Cie Industr. Et Financière de) 3,75% 1945 (n°s 20001 à 35590) (Rachats. Ou Tirages) 1946-75",
              "start_date": "1955-12-01",
              "end_date": "1973-09-17"
            },
            {
              "name": "Pompey (Cie Industr. Et Financière de) 3,75% 1945 (n° 20001 à 35590) (T. 12/3/73). 1946-75",
              "start_date": "1962-01-02",
              "end_date": "3999-12-31"
            }
          ]
        },
        "31159": {
          "id": 31159,
          "sector_id": 111,
          "start_date": "1963-03-04",
          "end_date": "1973-09-17",
          "names": [
            {
              "name": "Hauts-Fourneaux, Forges et Aciéries de Pompey 3,75% 1945, remb. À 5000 fr. 1946-75",
              "start_date": "1945-10-11",
              "end_date": "1973-09-17"
            },
            {
              "name": "Pompey (Cie Industrielle et Financière de) 3,75% 1945, remb. à 5000 fr. 1946-75",
              "start_date": "1954-02-17",
              "end_date": "1973-09-17"
            },
            {
              "name": "Pompey (Cie Industr. Et Financière de) 3,75% 1945 (n°s 20001 à 35590) (Rachats. Ou Tirages) 1946-75",
              "start_date": "1955-12-01",
              "end_date": "1973-09-17"
            },
            {
              "name": "Pompey (Cie Industr. Et Financière de) 3,75% 1945 (n° 20001 à 35590) (T. 12/3/73). 1946-75",
              "start_date": "1963-03-04",
              "end_date": "3999-12-31"
            }
          ]
        },
        "142813": {
          "id": 142813,
          "sector_id": 111,
          "start_date": "1945-10-11",
          "end_date": "1954-02-17",
          "names": [
            {
              "name": "Hauts-Fourneaux, Forges et Aciéries de Pompey 3,75% 1945, remb. À 5000 fr. 1946-75",
              "start_date": "1945-10-11",
              "end_date": "1954-02-17"
            },
            {
              "name": "Pompey (Cie Industrielle et Financière de) 3,75% 1945, remb. à 5000 fr. 1946-75",
              "start_date": "1945-10-11",
              "end_date": "1955-12-01"
            },
            {
              "name": "Pompey (Cie Industr. Et Financière de) 3,75% 1945 (n°s 20001 à 35590) (Rachats. Ou Tirages) 1946-75",
              "start_date": "1945-10-11",
              "end_date": "1973-09-17"
            },
            {
              "name": "Pompey (Cie Industr. Et Financière de) 3,75% 1945 (n° 20001 à 35590) (T. 12/3/73). 1946-75",
              "start_date": "1945-10-11",
              "end_date": "3999-12-31"
            }
          ]
        }
      },
      "listings_stats": {
        "start_date": "1945-10-11"
      },
      "spot_prices_stats": {
        "start_date": "1945-10-11",
        "end_date": "1973-08-31"
      }
    }
  },
  "prices_count": 684,
  "name": "Pompey (Cie Industrielle et Financière de) 3,75% 1945, remb. à 5000 fr. 1946-75"
}