{
  "id": 12989,
  "share_type": {
    "id": 2,
    "name": "Bond (Obligation)"
  },
  "issuers": [
    {
      "id": 4498,
      "start_date": "1948-12-13",
      "end_date": "3999-12-31",
      "name": "MINES DE BAZAILLES"
    }
  ],
  "types": [
    {
      "start_date": "1948-12-13",
      "end_date": "3999-12-31",
      "id": 1001,
      "name": "Obligation ordinaire ou classique",
      "stock_group": "B"
    }
  ],
  "is_mainstock": 0,
  "prices_period": [
    "1948-12-14",
    "1969-03-17"
  ],
  "stock_exchanges": {
    "1": {
      "id": 1,
      "name": "Paris (Official List)",
      "notations": {
        "26815": {
          "id": 26815,
          "sector_id": 442,
          "start_date": "1955-12-01",
          "end_date": "1963-03-04",
          "names": [
            {
              "name": "Bazailles (Mines de) 5,5% 1948, r. à 5000 fr. (Cf Avis n° 25206) (Jce 1/3/48) 1949-78",
              "start_date": "1948-12-13",
              "end_date": "1963-03-04"
            },
            {
              "name": "Bazailles (Mines de) 5,5% 48 (R. ou T.) (Cf Avis n° 25206) 1949-78",
              "start_date": "1955-12-01",
              "end_date": "1963-03-04"
            },
            {
              "name": "Bazaille (Mines de) 5,5 % 48 (Tir. 24/1/61) (Avis 25206) 1949-78",
              "start_date": "1955-12-01",
              "end_date": "3999-12-31"
            }
          ]
        },
        "31264": {
          "id": 31264,
          "sector_id": 370,
          "start_date": "1963-03-04",
          "end_date": "1969-03-31",
          "names": [
            {
              "name": "Bazailles (Mines de) 5,5% 1948, r. à 5000 fr. (Cf Avis n° 25206) (Jce 1/3/48) 1949-78",
              "start_date": "1948-12-13",
              "end_date": "1969-03-31"
            },
            {
              "name": "Bazailles (Mines de) 5,5% 48 (R. ou T.) (Cf Avis n° 25206) 1949-78",
              "start_date": "1955-12-01",
              "end_date": "1969-03-31"
            },
            {
              "name": "Bazaille (Mines de) 5,5 % 48 (Tir. 24/1/61) (Avis 25206) 1949-78",
              "start_date": "1962-01-02",
              "end_date": "3999-12-31"
            }
          ]
        },
        "143564": {
          "id": 143564,
          "sector_id": 137,
          "start_date": "1948-12-13",
          "end_date": "1955-12-01",
          "names": [
            {
              "name": "Bazailles (Mines de) 5,5% 1948, r. à 5000 fr. (Cf Avis n° 25206) (Jce 1/3/48) 1949-78",
              "start_date": "1948-12-13",
              "end_date": "1955-12-01"
            },
            {
              "name": "Bazailles (Mines de) 5,5% 48 (R. ou T.) (Cf Avis n° 25206) 1949-78",
              "start_date": "1948-12-13",
              "end_date": "1962-01-02"
            },
            {
              "name": "Bazaille (Mines de) 5,5 % 48 (Tir. 24/1/61) (Avis 25206) 1949-78",
              "start_date": "1948-12-13",
              "end_date": "3999-12-31"
            }
          ]
        }
      },
      "listings_stats": {
        "start_date": "1948-12-13"
      },
      "spot_prices_stats": {
        "start_date": "1948-12-14",
        "end_date": "1969-03-17"
      }
    }
  },
  "prices_count": 500,
  "name": "Bazailles (Mines de) 5,5% 48 (R. ou T.) (Cf Avis n° 25206) 1949-78"
}