{
  "id": 40098,
  "share_type": {
    "id": 1,
    "name": "Stock (Action)"
  },
  "issuers": [
    {
      "id": 3654,
      "start_date": "1946-05-07",
      "end_date": "1946-07-01",
      "name": "SOCIETE INDUSTRIELLE DE TRANSPORTS AUTOMOBILES (SITA)"
    }
  ],
  "types": [
    {
      "start_date": "1000-01-01",
      "end_date": "3999-12-31",
      "id": 18,
      "name": "Action",
      "stock_group": "S"
    }
  ],
  "is_mainstock": 0,
  "prices_period": [
    "1946-05-31",
    "1946-06-28"
  ],
  "stock_exchanges": {
    "1": {
      "id": 1,
      "name": "Paris (Official List)",
      "notations": {
        "155098": {
          "id": 155098,
          "sector_id": 105,
          "start_date": "1946-05-07",
          "end_date": "1946-07-01",
          "names": [
            {
              "name": "Transports automobiles industriels et commerciaux act 500 fr tp (nos 100001 à 153528) (ex-dr, )",
              "start_date": "1946-05-07",
              "end_date": "1946-07-01"
            }
          ]
        }
      },
      "listings_stats": {
        "start_date": "1946-05-07"
      },
      "spot_prices_stats": {
        "start_date": "1946-05-31",
        "end_date": "1946-06-28"
      }
    }
  },
  "prices_count": 1,
  "name": "Transports automobiles industriels et commerciaux act 500 fr tp (nos 100001 à 153528) (ex-dr, )"
}