{
  "id": 1509,
  "share_type": {
    "id": 2,
    "name": "Bond (Obligation)"
  },
  "issuers": [
    {
      "id": 556,
      "start_date": "1867-01-10",
      "end_date": "3999-12-31",
      "name": "Compagnie des Messageries Maritimes"
    }
  ],
  "types": [
    {
      "start_date": "1867-01-10",
      "end_date": "3999-12-31",
      "id": 1001,
      "name": "Obligation ordinaire ou classique",
      "stock_group": "B"
    }
  ],
  "is_mainstock": 0,
  "prices_period": [
    "1867-01-10",
    "1888-03-15"
  ],
  "stock_exchanges": {
    "1": {
      "id": 1,
      "name": "Paris (Official List)",
      "notations": {
        "2618": {
          "id": 2618,
          "sector_id": 70,
          "start_date": "1867-01-10",
          "end_date": "1888-04-03",
          "names": [
            {
              "name": "Messageries Imp., 1866, 5%, t. p., r. 500f",
              "start_date": "1867-01-10",
              "end_date": "1888-04-03"
            },
            {
              "name": "Messageries Nat, 1866, 5%, r. 500f",
              "start_date": "1867-01-10",
              "end_date": "1888-04-03"
            },
            {
              "name": "Messag. marit.1866,5%, emb.à 500f",
              "start_date": "1867-01-10",
              "end_date": "3999-12-31"
            }
          ]
        }
      },
      "listings_stats": {
        "start_date": "1867-01-10"
      },
      "spot_prices_stats": {
        "start_date": "1867-01-10",
        "end_date": "1888-03-15"
      }
    }
  },
  "prices_count": 212,
  "name": "Messageries Nat, 1866, 5%, r. 500f"
}