{
  "id": 5400,
  "share_type": {
    "id": 2,
    "name": "Bond (Obligation)"
  },
  "issuers": [
    {
      "id": 2590,
      "start_date": "1905-04-15",
      "end_date": "3999-12-31",
      "name": "COMPAGNIE FRANÇAISE DES CHEMINS DE FER DE LA PROVINCE DE SANTA-FÉ"
    }
  ],
  "types": [
    {
      "start_date": "1905-04-15",
      "end_date": "3999-12-31",
      "id": 1001,
      "name": "Obligation ordinaire ou classique",
      "stock_group": "B"
    }
  ],
  "is_mainstock": 0,
  "prices_period": [
    "1905-04-28",
    "1924-01-31"
  ],
  "stock_exchanges": {
    "1": {
      "id": 1,
      "name": "Paris (Official List)",
      "notations": {
        "7805": {
          "id": 7805,
          "sector_id": 107,
          "start_date": "1905-04-15",
          "end_date": "1914-08-03",
          "names": [
            {
              "name": "Santa-Fé (Cie Fse des ch. de fer), 3%, remb. à 20 £ ou 500 fr",
              "start_date": "1905-04-15",
              "end_date": "3999-12-31"
            }
          ]
        },
        "10304": {
          "id": 10304,
          "sector_id": 107,
          "start_date": "1914-12-15",
          "end_date": "1926-06-28",
          "names": [
            {
              "name": "Santa-Fé (Cie Fse des ch. de fer), 3%, remb. à 20 £ ou 500 fr",
              "start_date": "1905-04-15",
              "end_date": "3999-12-31"
            }
          ]
        }
      },
      "listings_stats": {
        "start_date": "1905-04-15"
      },
      "spot_prices_stats": {
        "start_date": "1905-04-28",
        "end_date": "1924-01-31"
      }
    }
  },
  "prices_count": 40,
  "name": "Santa-Fé (Cie Fse des ch. de fer), 3%, remb. à 20 £ ou 500 fr"
}