{
  "id": 101626,
  "share_type": {
    "id": 4,
    "name": "Rights (Droits)"
  },
  "issuers": [
    {
      "id": 2111,
      "start_date": "1943-02-08",
      "end_date": "1944-04-05",
      "name": "LE SOLEIL - SÉCURITÉ GÉNÉRALE ET RESPONSABILITÉ CIVILE RÉUNIES"
    }
  ],
  "types": [
    {
      "start_date": "1943-02-08",
      "end_date": "1944-04-05",
      "id": 501,
      "name": "Droit de souscription",
      "stock_group": "R"
    }
  ],
  "is_mainstock": 0,
  "prices_period": [
    "1943-02-09",
    "1943-04-15"
  ],
  "stock_exchanges": {
    "1": {
      "id": 1,
      "name": "Paris (Official List)",
      "notations": {
        "201781": {
          "id": 201781,
          "sector_id": 657,
          "start_date": "1943-02-08",
          "end_date": "1944-04-06",
          "names": [
            {
              "name": "Act. LE SOLEIL (ACCIDENTS) (droit et coupon 27 ou bon de droit). Pour 1 act. ancienne, 3 actions nouvelles émises à 105 francs",
              "start_date": "1943-02-08",
              "end_date": "1944-04-06"
            }
          ]
        }
      },
      "listings_stats": {
        "start_date": "1943-02-08"
      },
      "spot_prices_stats": {
        "start_date": "1943-02-09",
        "end_date": "1943-04-15"
      }
    }
  },
  "prices_count": 5,
  "name": "Act. LE SOLEIL (ACCIDENTS) (droit et coupon 27 ou bon de droit). Pour 1 act. ancienne, 3 actions nouvelles émises à 105 francs"
}