{
  "id": 104524,
  "share_type": {
    "id": 8,
    "name": "Droit d'attribution"
  },
  "issuers": [
    {
      "id": 566,
      "start_date": "1945-08-06",
      "end_date": "1946-07-26",
      "name": "Crédit Foncier de France"
    }
  ],
  "types": [
    {
      "start_date": "1945-08-06",
      "end_date": "1946-07-26",
      "id": 502,
      "name": "Droit d'attribution",
      "stock_group": "R"
    }
  ],
  "is_mainstock": 0,
  "prices_period": [
    "1945-08-16",
    "1946-07-16"
  ],
  "stock_exchanges": {
    "1": {
      "id": 1,
      "name": "Paris (Official List)",
      "notations": {
        "204927": {
          "id": 204927,
          "sector_id": 658,
          "start_date": "1945-08-06",
          "end_date": "1946-07-26",
          "names": [
            {
              "name": "Crédit foncier de France",
              "start_date": "1945-08-06",
              "end_date": "1946-07-26"
            }
          ]
        }
      },
      "listings_stats": {
        "start_date": "1945-08-06"
      },
      "spot_prices_stats": {
        "start_date": "1945-08-16",
        "end_date": "1946-07-16"
      }
    }
  },
  "prices_count": 15,
  "name": "Crédit foncier de France"
}