{
  "id": 6281,
  "share_type": {
    "id": 2,
    "name": "Bond (Obligation)"
  },
  "issuers": [
    {
      "id": 3457,
      "start_date": "1913-11-12",
      "end_date": "3999-12-31",
      "name": "CHEMIN DE FER DE LA MER NOIRE"
    }
  ],
  "types": [
    {
      "start_date": "1913-11-12",
      "end_date": "3999-12-31",
      "id": 1001,
      "name": "Obligation ordinaire ou classique",
      "stock_group": "B"
    }
  ],
  "is_mainstock": 0,
  "prices_period": [
    "1913-11-12",
    "1976-12-31"
  ],
  "stock_exchanges": {
    "1": {
      "id": 1,
      "name": "Paris (Official List)",
      "notations": {
        "8945": {
          "id": 8945,
          "sector_id": 68,
          "start_date": "1914-12-15",
          "end_date": "1918-04-02",
          "names": [
            {
              "name": "Mer Noire 4.5% 1913, remb. à 500 fr (Obligations de Chemins de fer garanties par le Gouvernement Impérial de Russie.)",
              "start_date": "1913-11-12",
              "end_date": "1920-01-02"
            },
            {
              "name": "Russie (Obl de Ch de fer gar par le Gouv Impérial) Mer Noire 4,50% 1913 remb à 500 fr",
              "start_date": "1914-12-15",
              "end_date": "1925-05-01"
            },
            {
              "name": "Mer Noire 4,5% 1913, remb. à 500 fr. (RUSSIE.-Obligations de Ch. de fer gar. par le Gouv. Impér.)",
              "start_date": "1914-12-15",
              "end_date": "1938-12-30"
            },
            {
              "name": "RUSSIE: Mer Noire 4,5% 1913, remb. à 500 fr. (RUSSIE.-Obligations de Ch. de fer gar. par le Gouv. Impér.)",
              "start_date": "1914-12-15",
              "end_date": "1939-12-01"
            },
            {
              "name": "Russie. Mer noire 4,5% 1913, r. à 500 fr. (Jce 1/9/18).",
              "start_date": "1914-12-15",
              "end_date": "1944-10-30"
            },
            {
              "name": "Mer Noire 4,5% 1913",
              "start_date": "1914-12-15",
              "end_date": "1945-01-08"
            },
            {
              "name": "Mer Noire 4,5%",
              "start_date": "1914-12-15",
              "end_date": "1948-01-15"
            },
            {
              "name": "RUSSIE - Obl. Ch. De fer, Mer Noire 4,5% 1913, remb. À 500 fr.",
              "start_date": "1914-12-15",
              "end_date": "1962-01-02"
            },
            {
              "name": "Mer Noire 4,5% 1913 (Jce 1/9/18) (RUSSIE-Obl.Ch.de fer)",
              "start_date": "1914-12-15",
              "end_date": "3999-12-31"
            }
          ]
        },
        "9182": {
          "id": 9182,
          "sector_id": 68,
          "start_date": "1913-11-12",
          "end_date": "1914-08-03",
          "names": [
            {
              "name": "Mer Noire 4.5% 1913, remb. à 500 fr (Obligations de Chemins de fer garanties par le Gouvernement Impérial de Russie.)",
              "start_date": "1913-11-12",
              "end_date": "1920-01-02"
            },
            {
              "name": "Russie (Obl de Ch de fer gar par le Gouv Impérial) Mer Noire 4,50% 1913 remb à 500 fr",
              "start_date": "1913-11-12",
              "end_date": "1925-05-01"
            },
            {
              "name": "Mer Noire 4,5% 1913, remb. à 500 fr. (RUSSIE.-Obligations de Ch. de fer gar. par le Gouv. Impér.)",
              "start_date": "1913-11-12",
              "end_date": "1938-12-30"
            },
            {
              "name": "RUSSIE: Mer Noire 4,5% 1913, remb. à 500 fr. (RUSSIE.-Obligations de Ch. de fer gar. par le Gouv. Impér.)",
              "start_date": "1913-11-12",
              "end_date": "1939-12-01"
            },
            {
              "name": "Russie. Mer noire 4,5% 1913, r. à 500 fr. (Jce 1/9/18).",
              "start_date": "1913-11-12",
              "end_date": "1944-10-30"
            },
            {
              "name": "Mer Noire 4,5% 1913",
              "start_date": "1913-11-12",
              "end_date": "1945-01-08"
            },
            {
              "name": "Mer Noire 4,5%",
              "start_date": "1913-11-12",
              "end_date": "1948-01-15"
            },
            {
              "name": "RUSSIE - Obl. Ch. De fer, Mer Noire 4,5% 1913, remb. À 500 fr.",
              "start_date": "1913-11-12",
              "end_date": "1962-01-02"
            },
            {
              "name": "Mer Noire 4,5% 1913 (Jce 1/9/18) (RUSSIE-Obl.Ch.de fer)",
              "start_date": "1913-11-12",
              "end_date": "3999-12-31"
            }
          ]
        },
        "9550": {
          "id": 9550,
          "sector_id": 144,
          "start_date": "1918-04-02",
          "end_date": "1925-05-01",
          "names": [
            {
              "name": "Mer Noire 4.5% 1913, remb. à 500 fr (Obligations de Chemins de fer garanties par le Gouvernement Impérial de Russie.)",
              "start_date": "1913-11-12",
              "end_date": "1925-05-01"
            },
            {
              "name": "Russie (Obl de Ch de fer gar par le Gouv Impérial) Mer Noire 4,50% 1913 remb à 500 fr",
              "start_date": "1918-04-02",
              "end_date": "1925-05-01"
            },
            {
              "name": "Mer Noire 4,5% 1913, remb. à 500 fr. (RUSSIE.-Obligations de Ch. de fer gar. par le Gouv. Impér.)",
              "start_date": "1918-04-02",
              "end_date": "1938-12-30"
            },
            {
              "name": "RUSSIE: Mer Noire 4,5% 1913, remb. à 500 fr. (RUSSIE.-Obligations de Ch. de fer gar. par le Gouv. Impér.)",
              "start_date": "1918-04-02",
              "end_date": "1939-12-01"
            },
            {
              "name": "Russie. Mer noire 4,5% 1913, r. à 500 fr. (Jce 1/9/18).",
              "start_date": "1918-04-02",
              "end_date": "1944-10-30"
            },
            {
              "name": "Mer Noire 4,5% 1913",
              "start_date": "1918-04-02",
              "end_date": "1945-01-08"
            },
            {
              "name": "Mer Noire 4,5%",
              "start_date": "1918-04-02",
              "end_date": "1948-01-15"
            },
            {
              "name": "RUSSIE - Obl. Ch. De fer, Mer Noire 4,5% 1913, remb. À 500 fr.",
              "start_date": "1918-04-02",
              "end_date": "1962-01-02"
            },
            {
              "name": "Mer Noire 4,5% 1913 (Jce 1/9/18) (RUSSIE-Obl.Ch.de fer)",
              "start_date": "1918-04-02",
              "end_date": "3999-12-31"
            }
          ]
        },
        "13650": {
          "id": 13650,
          "sector_id": 128,
          "start_date": "1925-05-01",
          "end_date": "1939-12-01",
          "names": [
            {
              "name": "Mer Noire 4.5% 1913, remb. à 500 fr (Obligations de Chemins de fer garanties par le Gouvernement Impérial de Russie.)",
              "start_date": "1913-11-12",
              "end_date": "1939-12-01"
            },
            {
              "name": "Russie (Obl de Ch de fer gar par le Gouv Impérial) Mer Noire 4,50% 1913 remb à 500 fr",
              "start_date": "1920-01-02",
              "end_date": "1939-12-01"
            },
            {
              "name": "Mer Noire 4,5% 1913, remb. à 500 fr. (RUSSIE.-Obligations de Ch. de fer gar. par le Gouv. Impér.)",
              "start_date": "1925-05-01",
              "end_date": "1939-12-01"
            },
            {
              "name": "RUSSIE: Mer Noire 4,5% 1913, remb. à 500 fr. (RUSSIE.-Obligations de Ch. de fer gar. par le Gouv. Impér.)",
              "start_date": "1925-05-01",
              "end_date": "1939-12-01"
            },
            {
              "name": "Russie. Mer noire 4,5% 1913, r. à 500 fr. (Jce 1/9/18).",
              "start_date": "1925-05-01",
              "end_date": "1944-10-30"
            },
            {
              "name": "Mer Noire 4,5% 1913",
              "start_date": "1925-05-01",
              "end_date": "1945-01-08"
            },
            {
              "name": "Mer Noire 4,5%",
              "start_date": "1925-05-01",
              "end_date": "1948-01-15"
            },
            {
              "name": "RUSSIE - Obl. Ch. De fer, Mer Noire 4,5% 1913, remb. À 500 fr.",
              "start_date": "1925-05-01",
              "end_date": "1962-01-02"
            },
            {
              "name": "Mer Noire 4,5% 1913 (Jce 1/9/18) (RUSSIE-Obl.Ch.de fer)",
              "start_date": "1925-05-01",
              "end_date": "3999-12-31"
            }
          ]
        },
        "21747": {
          "id": 21747,
          "sector_id": 237,
          "start_date": "1948-01-15",
          "end_date": "1962-01-02",
          "names": [
            {
              "name": "Mer Noire 4.5% 1913, remb. à 500 fr (Obligations de Chemins de fer garanties par le Gouvernement Impérial de Russie.)",
              "start_date": "1913-11-12",
              "end_date": "1962-01-02"
            },
            {
              "name": "Russie (Obl de Ch de fer gar par le Gouv Impérial) Mer Noire 4,50% 1913 remb à 500 fr",
              "start_date": "1920-01-02",
              "end_date": "1962-01-02"
            },
            {
              "name": "Mer Noire 4,5% 1913, remb. à 500 fr. (RUSSIE.-Obligations de Ch. de fer gar. par le Gouv. Impér.)",
              "start_date": "1925-05-01",
              "end_date": "1962-01-02"
            },
            {
              "name": "RUSSIE: Mer Noire 4,5% 1913, remb. à 500 fr. (RUSSIE.-Obligations de Ch. de fer gar. par le Gouv. Impér.)",
              "start_date": "1938-12-30",
              "end_date": "1962-01-02"
            },
            {
              "name": "Russie. Mer noire 4,5% 1913, r. à 500 fr. (Jce 1/9/18).",
              "start_date": "1939-12-01",
              "end_date": "1962-01-02"
            },
            {
              "name": "Mer Noire 4,5% 1913",
              "start_date": "1944-10-30",
              "end_date": "1962-01-02"
            },
            {
              "name": "Mer Noire 4,5%",
              "start_date": "1945-01-08",
              "end_date": "1962-01-02"
            },
            {
              "name": "RUSSIE - Obl. Ch. De fer, Mer Noire 4,5% 1913, remb. À 500 fr.",
              "start_date": "1948-01-15",
              "end_date": "1962-01-02"
            },
            {
              "name": "Mer Noire 4,5% 1913 (Jce 1/9/18) (RUSSIE-Obl.Ch.de fer)",
              "start_date": "1948-01-15",
              "end_date": "3999-12-31"
            }
          ]
        },
        "23007": {
          "id": 23007,
          "sector_id": 227,
          "start_date": "1944-10-30",
          "end_date": "1945-01-03",
          "names": [
            {
              "name": "Mer Noire 4.5% 1913, remb. à 500 fr (Obligations de Chemins de fer garanties par le Gouvernement Impérial de Russie.)",
              "start_date": "1913-11-12",
              "end_date": "1945-01-03"
            },
            {
              "name": "Russie (Obl de Ch de fer gar par le Gouv Impérial) Mer Noire 4,50% 1913 remb à 500 fr",
              "start_date": "1920-01-02",
              "end_date": "1945-01-03"
            },
            {
              "name": "Mer Noire 4,5% 1913, remb. à 500 fr. (RUSSIE.-Obligations de Ch. de fer gar. par le Gouv. Impér.)",
              "start_date": "1925-05-01",
              "end_date": "1945-01-03"
            },
            {
              "name": "RUSSIE: Mer Noire 4,5% 1913, remb. à 500 fr. (RUSSIE.-Obligations de Ch. de fer gar. par le Gouv. Impér.)",
              "start_date": "1938-12-30",
              "end_date": "1945-01-03"
            },
            {
              "name": "Russie. Mer noire 4,5% 1913, r. à 500 fr. (Jce 1/9/18).",
              "start_date": "1939-12-01",
              "end_date": "1945-01-03"
            },
            {
              "name": "Mer Noire 4,5% 1913",
              "start_date": "1944-10-30",
              "end_date": "1945-01-08"
            },
            {
              "name": "Mer Noire 4,5%",
              "start_date": "1944-10-30",
              "end_date": "1948-01-15"
            },
            {
              "name": "RUSSIE - Obl. Ch. De fer, Mer Noire 4,5% 1913, remb. À 500 fr.",
              "start_date": "1944-10-30",
              "end_date": "1962-01-02"
            },
            {
              "name": "Mer Noire 4,5% 1913 (Jce 1/9/18) (RUSSIE-Obl.Ch.de fer)",
              "start_date": "1944-10-30",
              "end_date": "3999-12-31"
            }
          ]
        },
        "23184": {
          "id": 23184,
          "sector_id": 227,
          "start_date": "1945-01-08",
          "end_date": "1948-01-02",
          "names": [
            {
              "name": "Mer Noire 4.5% 1913, remb. à 500 fr (Obligations de Chemins de fer garanties par le Gouvernement Impérial de Russie.)",
              "start_date": "1913-11-12",
              "end_date": "1948-01-02"
            },
            {
              "name": "Russie (Obl de Ch de fer gar par le Gouv Impérial) Mer Noire 4,50% 1913 remb à 500 fr",
              "start_date": "1920-01-02",
              "end_date": "1948-01-02"
            },
            {
              "name": "Mer Noire 4,5% 1913, remb. à 500 fr. (RUSSIE.-Obligations de Ch. de fer gar. par le Gouv. Impér.)",
              "start_date": "1925-05-01",
              "end_date": "1948-01-02"
            },
            {
              "name": "RUSSIE: Mer Noire 4,5% 1913, remb. à 500 fr. (RUSSIE.-Obligations de Ch. de fer gar. par le Gouv. Impér.)",
              "start_date": "1938-12-30",
              "end_date": "1948-01-02"
            },
            {
              "name": "Russie. Mer noire 4,5% 1913, r. à 500 fr. (Jce 1/9/18).",
              "start_date": "1939-12-01",
              "end_date": "1948-01-02"
            },
            {
              "name": "Mer Noire 4,5% 1913",
              "start_date": "1944-10-30",
              "end_date": "1948-01-02"
            },
            {
              "name": "Mer Noire 4,5%",
              "start_date": "1945-01-08",
              "end_date": "1948-01-15"
            },
            {
              "name": "RUSSIE - Obl. Ch. De fer, Mer Noire 4,5% 1913, remb. À 500 fr.",
              "start_date": "1945-01-08",
              "end_date": "1962-01-02"
            },
            {
              "name": "Mer Noire 4,5% 1913 (Jce 1/9/18) (RUSSIE-Obl.Ch.de fer)",
              "start_date": "1945-01-08",
              "end_date": "3999-12-31"
            }
          ]
        },
        "28926": {
          "id": 28926,
          "sector_id": 83,
          "start_date": "1962-01-02",
          "end_date": "3999-12-31",
          "names": [
            {
              "name": "Mer Noire 4.5% 1913, remb. à 500 fr (Obligations de Chemins de fer garanties par le Gouvernement Impérial de Russie.)",
              "start_date": "1913-11-12",
              "end_date": "3999-12-31"
            },
            {
              "name": "Russie (Obl de Ch de fer gar par le Gouv Impérial) Mer Noire 4,50% 1913 remb à 500 fr",
              "start_date": "1920-01-02",
              "end_date": "3999-12-31"
            },
            {
              "name": "Mer Noire 4,5% 1913, remb. à 500 fr. (RUSSIE.-Obligations de Ch. de fer gar. par le Gouv. Impér.)",
              "start_date": "1925-05-01",
              "end_date": "3999-12-31"
            },
            {
              "name": "RUSSIE: Mer Noire 4,5% 1913, remb. à 500 fr. (RUSSIE.-Obligations de Ch. de fer gar. par le Gouv. Impér.)",
              "start_date": "1938-12-30",
              "end_date": "3999-12-31"
            },
            {
              "name": "Russie. Mer noire 4,5% 1913, r. à 500 fr. (Jce 1/9/18).",
              "start_date": "1939-12-01",
              "end_date": "3999-12-31"
            },
            {
              "name": "Mer Noire 4,5% 1913",
              "start_date": "1944-10-30",
              "end_date": "3999-12-31"
            },
            {
              "name": "Mer Noire 4,5%",
              "start_date": "1945-01-08",
              "end_date": "3999-12-31"
            },
            {
              "name": "RUSSIE - Obl. Ch. De fer, Mer Noire 4,5% 1913, remb. À 500 fr.",
              "start_date": "1948-01-15",
              "end_date": "3999-12-31"
            },
            {
              "name": "Mer Noire 4,5% 1913 (Jce 1/9/18) (RUSSIE-Obl.Ch.de fer)",
              "start_date": "1962-01-02",
              "end_date": "3999-12-31"
            }
          ]
        }
      },
      "listings_stats": {
        "start_date": "1913-11-12"
      },
      "spot_prices_stats": {
        "start_date": "1913-11-12",
        "end_date": "1976-12-31"
      }
    }
  },
  "prices_count": 988,
  "name": "Mer Noire 4,5% 1913 (Jce 1/9/18) (RUSSIE-Obl.Ch.de fer)"
}