{
  "id": 5668,
  "share_type": {
    "id": 1,
    "name": "Stock (Action)"
  },
  "issuers": [
    {
      "id": 3024,
      "start_date": "1908-07-10",
      "end_date": "3999-12-31",
      "name": "STÉ CONCESSIONNAIRE DU PORT ET DES MAGASINS PUBLICS DE PARIS-AUSTERLITZ"
    }
  ],
  "types": [
    {
      "start_date": "1908-07-10",
      "end_date": "3999-12-31",
      "id": 18,
      "name": "Action",
      "stock_group": "S"
    }
  ],
  "is_mainstock": 1,
  "prices_period": [
    "1908-07-10",
    "1953-09-15"
  ],
  "stock_exchanges": {
    "1": {
      "id": 1,
      "name": "Paris (Official List)",
      "notations": {
        "8073": {
          "id": 8073,
          "sector_id": 106,
          "start_date": "1908-07-10",
          "end_date": "1914-08-03",
          "names": [
            {
              "name": "Port et des Magasins publics de Paris-Austerlitz (Sté conces. du), a. 250 fr., t.p.",
              "start_date": "1908-07-10",
              "end_date": "1918-08-08"
            },
            {
              "name": "Port et Magasins Publics de paris-Austerlitz, act.250fr., t.p.",
              "start_date": "1908-07-10",
              "end_date": "1925-03-04"
            },
            {
              "name": "Ports et Magasins Publics de Paris-Austerlitz, a. 200 fr., t. p. (nos 1 à 20000)",
              "start_date": "1908-07-10",
              "end_date": "1929-07-01"
            },
            {
              "name": "Port et Magasins Publics de Paris-Austerlitz, act. 150 fr., t.p. (titres nouv.) (c. 21 att.)",
              "start_date": "1908-07-10",
              "end_date": "1934-06-25"
            },
            {
              "name": "Port et Magasins Publics de Paris-Austerlitz, ac. 100 f., t. p., 25 f. remb.",
              "start_date": "1908-07-10",
              "end_date": "1941-03-19"
            },
            {
              "name": "Ports et Magasins Publics de Paris-Austerlitz, a. 100 f., t.p., 75 fr. remb.",
              "start_date": "1908-07-10",
              "end_date": "1952-01-17"
            },
            {
              "name": "Ports et Magasins Publics Paris-Austerlitz, a. 250 f., t.p., 75 fr. remb., remb. (sans val.)",
              "start_date": "1908-07-10",
              "end_date": "3999-12-31"
            }
          ]
        },
        "10211": {
          "id": 10211,
          "sector_id": 106,
          "start_date": "1914-12-15",
          "end_date": "1917-01-02",
          "names": [
            {
              "name": "Port et des Magasins publics de Paris-Austerlitz (Sté conces. du), a. 250 fr., t.p.",
              "start_date": "1908-07-10",
              "end_date": "1918-08-08"
            },
            {
              "name": "Port et Magasins Publics de paris-Austerlitz, act.250fr., t.p.",
              "start_date": "1914-12-15",
              "end_date": "1925-03-04"
            },
            {
              "name": "Ports et Magasins Publics de Paris-Austerlitz, a. 200 fr., t. p. (nos 1 à 20000)",
              "start_date": "1914-12-15",
              "end_date": "1929-07-01"
            },
            {
              "name": "Port et Magasins Publics de Paris-Austerlitz, act. 150 fr., t.p. (titres nouv.) (c. 21 att.)",
              "start_date": "1914-12-15",
              "end_date": "1934-06-25"
            },
            {
              "name": "Port et Magasins Publics de Paris-Austerlitz, ac. 100 f., t. p., 25 f. remb.",
              "start_date": "1914-12-15",
              "end_date": "1941-03-19"
            },
            {
              "name": "Ports et Magasins Publics de Paris-Austerlitz, a. 100 f., t.p., 75 fr. remb.",
              "start_date": "1914-12-15",
              "end_date": "1952-01-17"
            },
            {
              "name": "Ports et Magasins Publics Paris-Austerlitz, a. 250 f., t.p., 75 fr. remb., remb. (sans val.)",
              "start_date": "1914-12-15",
              "end_date": "3999-12-31"
            }
          ]
        },
        "10645": {
          "id": 10645,
          "sector_id": 136,
          "start_date": "1917-01-02",
          "end_date": "1953-09-16",
          "names": [
            {
              "name": "Port et des Magasins publics de Paris-Austerlitz (Sté conces. du), a. 250 fr., t.p.",
              "start_date": "1908-07-10",
              "end_date": "1953-09-16"
            },
            {
              "name": "Port et Magasins Publics de paris-Austerlitz, act.250fr., t.p.",
              "start_date": "1917-01-02",
              "end_date": "1953-09-16"
            },
            {
              "name": "Ports et Magasins Publics de Paris-Austerlitz, a. 200 fr., t. p. (nos 1 à 20000)",
              "start_date": "1917-01-02",
              "end_date": "1953-09-16"
            },
            {
              "name": "Port et Magasins Publics de Paris-Austerlitz, act. 150 fr., t.p. (titres nouv.) (c. 21 att.)",
              "start_date": "1917-01-02",
              "end_date": "1953-09-16"
            },
            {
              "name": "Port et Magasins Publics de Paris-Austerlitz, ac. 100 f., t. p., 25 f. remb.",
              "start_date": "1917-01-02",
              "end_date": "1953-09-16"
            },
            {
              "name": "Ports et Magasins Publics de Paris-Austerlitz, a. 100 f., t.p., 75 fr. remb.",
              "start_date": "1917-01-02",
              "end_date": "1953-09-16"
            },
            {
              "name": "Ports et Magasins Publics Paris-Austerlitz, a. 250 f., t.p., 75 fr. remb., remb. (sans val.)",
              "start_date": "1917-01-02",
              "end_date": "3999-12-31"
            }
          ]
        }
      },
      "listings_stats": {
        "start_date": "1908-07-10"
      },
      "spot_prices_stats": {
        "start_date": "1908-07-10",
        "end_date": "1953-09-15"
      }
    }
  },
  "prices_count": 994,
  "name": "Ports et Magasins Publics de Paris-Austerlitz, a. 100 f., t.p., 75 fr. remb."
}