{
  "id": 40224,
  "share_type": {
    "id": 2,
    "name": "Bond (Obligation)"
  },
  "issuers": [
    {
      "id": 7066,
      "start_date": "1000-01-01",
      "end_date": "3999-12-31",
      "name": "Tuileries du Berry"
    }
  ],
  "types": [
    {
      "start_date": "1000-01-01",
      "end_date": "3999-12-31",
      "id": 1001,
      "name": "Obligation ordinaire ou classique",
      "stock_group": "B"
    }
  ],
  "is_mainstock": 0,
  "prices_period": [
    "1881-05-16",
    "1898-12-31"
  ],
  "stock_exchanges": {
    "1": {
      "id": 1,
      "name": "Paris (Official List)",
      "notations": {
        "155226": {
          "id": 155226,
          "sector_id": 122,
          "start_date": "1892-06-01",
          "end_date": "1893-10-16",
          "names": [
            {
              "name": "Tuileries du Berry, obligations",
              "start_date": "1892-06-01",
              "end_date": "1893-10-16"
            }
          ]
        }
      },
      "listings_stats": {
        "start_date": "1892-06-01"
      }
    },
    "2": {
      "id": 2,
      "name": "Paris OTC (Coulisse)",
      "notations": {
        "204880": {
          "id": 204880,
          "sector_id": 673,
          "start_date": "1881-04-15",
          "end_date": "1895-04-05",
          "names": [
            {
              "name": "Gdes Tuil. du Berry",
              "start_date": "1881-01-15",
              "end_date": "1898-12-31"
            },
            {
              "name": "TUILERIES DU BERRY",
              "start_date": "1881-04-15",
              "end_date": "1899-01-16"
            }
          ]
        },
        "206177": {
          "id": 206177,
          "sector_id": 667,
          "start_date": "1895-04-06",
          "end_date": "1898-12-31",
          "names": [
            {
              "name": "Gdes Tuil. du Berry",
              "start_date": "1881-01-15",
              "end_date": "1898-12-31"
            },
            {
              "name": "TUILERIES DU BERRY",
              "start_date": "1895-04-06",
              "end_date": "1899-01-16"
            }
          ]
        },
        "207975": {
          "id": 207975,
          "sector_id": 689,
          "start_date": "1899-01-16",
          "end_date": "1899-01-16",
          "names": [
            {
              "name": "Gdes Tuil. du Berry",
              "start_date": "1881-01-15",
              "end_date": "1899-01-16"
            },
            {
              "name": "TUILERIES DU BERRY",
              "start_date": "1899-01-16",
              "end_date": "1899-01-16"
            }
          ]
        }
      },
      "listings_stats": {
        "start_date": "1881-04-15"
      },
      "spot_prices_stats": {
        "start_date": "1881-05-16",
        "end_date": "1898-12-31"
      }
    }
  },
  "prices_count": 362,
  "name": "Gdes Tuil. du Berry"
}