{
  "id": 3052,
  "share_type": {
    "id": 1,
    "name": "Stock (Action)"
  },
  "issuers": [
    {
      "id": 2321,
      "start_date": "1881-01-15",
      "end_date": "3999-12-31",
      "name": "Société générale de laiterie (Laiterie générale de Paris)"
    }
  ],
  "types": [
    {
      "start_date": "1881-01-15",
      "end_date": "3999-12-31",
      "id": 18,
      "name": "Action",
      "stock_group": "S"
    }
  ],
  "is_mainstock": 1,
  "prices_period": [
    "1881-04-15",
    "1919-05-31"
  ],
  "stock_exchanges": {
    "1": {
      "id": 1,
      "name": "Paris (Official List)",
      "notations": {
        "1819": {
          "id": 1819,
          "sector_id": 106,
          "start_date": "1902-05-26",
          "end_date": "1914-08-03",
          "names": [
            {
              "name": "Laiterie (Soc.générale de), act.500f.tout payé",
              "start_date": "1882-01-16",
              "end_date": "3999-12-31"
            }
          ]
        },
        "4151": {
          "id": 4151,
          "sector_id": 73,
          "start_date": "1882-01-16",
          "end_date": "1902-05-26",
          "names": [
            {
              "name": "Laiterie (Soc.générale de), act.500f.tout payé",
              "start_date": "1882-01-16",
              "end_date": "3999-12-31"
            }
          ]
        },
        "10196": {
          "id": 10196,
          "sector_id": 106,
          "start_date": "1914-12-15",
          "end_date": "1919-06-10",
          "names": [
            {
              "name": "Laiterie (Soc.générale de), act.500f.tout payé",
              "start_date": "1882-01-16",
              "end_date": "3999-12-31"
            }
          ]
        }
      },
      "listings_stats": {
        "start_date": "1882-01-16"
      },
      "spot_prices_stats": {
        "start_date": "1882-01-16",
        "end_date": "1919-05-31"
      }
    },
    "2": {
      "id": 2,
      "name": "Paris OTC (Coulisse)",
      "notations": {
        "204853": {
          "id": 204853,
          "sector_id": 672,
          "start_date": "1881-01-15",
          "end_date": "1882-12-31",
          "names": [
            {
              "name": "Ste Gle de Laiterie ex-c.",
              "start_date": "1881-01-15",
              "end_date": "1882-12-31"
            }
          ]
        }
      },
      "listings_stats": {
        "start_date": "1881-01-15"
      },
      "spot_prices_stats": {
        "start_date": "1881-04-15",
        "end_date": "1881-12-31"
      }
    }
  },
  "prices_count": 926,
  "name": "Ste Gle de Laiterie ex-c."
}