{
  "id": 16445,
  "share_type": {
    "id": 2,
    "name": "Bond (Obligation)"
  },
  "issuers": [
    {
      "id": 4859,
      "start_date": "1961-03-08",
      "end_date": "3999-12-31",
      "name": "LA CELLULOSE DU PIN"
    }
  ],
  "types": [
    {
      "start_date": "1961-03-08",
      "end_date": "3999-12-31",
      "id": 1001,
      "name": "Obligation ordinaire ou classique",
      "stock_group": "B"
    }
  ],
  "is_mainstock": 0,
  "prices_period": [
    "1961-03-08",
    "1961-12-15"
  ],
  "stock_exchanges": {
    "1": {
      "id": 1,
      "name": "Paris (Official List)",
      "notations": {
        "147020": {
          "id": 147020,
          "sector_id": 367,
          "start_date": "1961-03-08",
          "end_date": "1962-01-02",
          "names": [
            {
              "name": "Cellulose du pin (la)(ex-landaise des celluloses) 6,5% 1953, r à 105 NF min, (T 7/7/60) 1954-65",
              "start_date": "1961-03-08",
              "end_date": "3999-12-31"
            }
          ]
        }
      },
      "listings_stats": {
        "start_date": "1961-03-08"
      },
      "spot_prices_stats": {
        "start_date": "1961-03-08",
        "end_date": "1961-12-15"
      }
    }
  },
  "prices_count": 20,
  "name": "Cellulose du pin (la)(ex-landaise des celluloses) 6,5% 1953, r à 105 NF min, (T 7/7/60) 1954-65"
}