{
  "id": 9363,
  "share_type": {
    "id": 1,
    "name": "Stock (Action)"
  },
  "issuers": [
    {
      "id": 4570,
      "start_date": "1929-06-27",
      "end_date": "3999-12-31",
      "name": "COMPAGNIE FRANÇAISE DES PETROLES"
    }
  ],
  "types": [
    {
      "start_date": "1929-06-27",
      "end_date": "3999-12-31",
      "id": 11,
      "name": "Action ordinaire",
      "stock_group": "S"
    }
  ],
  "is_mainstock": 1,
  "prices_period": [
    "1929-06-27",
    "1935-01-15"
  ],
  "stock_exchanges": {
    "1": {
      "id": 1,
      "name": "Paris (Official List)",
      "notations": {
        "136810": {
          "id": 136810,
          "sector_id": 135,
          "start_date": "1929-06-27",
          "end_date": "1935-01-22",
          "names": [
            {
              "name": "Française des Pétroles, act. B 500 fr., t.p.",
              "start_date": "1929-06-27",
              "end_date": "3999-12-31"
            }
          ]
        }
      },
      "listings_stats": {
        "start_date": "1929-06-27"
      },
      "spot_prices_stats": {
        "start_date": "1929-06-27",
        "end_date": "1935-01-15"
      }
    }
  },
  "prices_count": 187,
  "name": "Française des Pétroles, act. B 500 fr., t.p."
}