{
  "id": 5040,
  "share_type": {
    "id": 2,
    "name": "Bond (Obligation)"
  },
  "issuers": [
    {
      "id": 2608,
      "start_date": "1901-07-15",
      "end_date": "3999-12-31",
      "name": "Société Ottomane du Chemin de fer de Damas-Hamah et prolongements"
    }
  ],
  "types": [
    {
      "start_date": "1901-07-15",
      "end_date": "3999-12-31",
      "id": 1001,
      "name": "Obligation ordinaire ou classique",
      "stock_group": "B"
    }
  ],
  "is_mainstock": 0,
  "prices_period": [
    "1901-07-15",
    "1901-08-31"
  ],
  "stock_exchanges": {
    "1": {
      "id": 1,
      "name": "Paris (Official List)",
      "notations": {
        "6139": {
          "id": 6139,
          "sector_id": 83,
          "start_date": "1901-07-15",
          "end_date": "1901-09-04",
          "names": [
            {
              "name": "Damas-Hamah, obl. privilégiées de 500fr., 225fr. payés",
              "start_date": "1901-07-15",
              "end_date": "3999-12-31"
            }
          ]
        }
      },
      "listings_stats": {
        "start_date": "1901-07-15"
      },
      "spot_prices_stats": {
        "start_date": "1901-07-15",
        "end_date": "1901-08-31"
      }
    }
  },
  "prices_count": 10,
  "name": "Damas-Hamah, obl. privilégiées de 500fr., 225fr. payés"
}