{
  "id": 102408,
  "share_type": {
    "id": 4,
    "name": "Rights (Droits)"
  },
  "issuers": [
    {
      "id": 3980,
      "start_date": "1946-10-01",
      "end_date": "1946-10-25",
      "name": "L'ELECTRO-ENTREPRISE"
    }
  ],
  "types": [
    {
      "start_date": "1946-10-01",
      "end_date": "1946-10-25",
      "id": 501,
      "name": "Droit de souscription",
      "stock_group": "R"
    }
  ],
  "is_mainstock": 0,
  "prices_period": [
    "1946-10-07",
    "1946-10-15"
  ],
  "stock_exchanges": {
    "1": {
      "id": 1,
      "name": "Paris (Official List)",
      "notations": {
        "202590": {
          "id": 202590,
          "sector_id": 657,
          "start_date": "1946-10-01",
          "end_date": "1946-10-26",
          "names": [
            {
              "name": "Act. Electro-Entreprise, non échang.",
              "start_date": "1946-10-01",
              "end_date": "1946-10-26"
            }
          ]
        }
      },
      "listings_stats": {
        "start_date": "1946-10-01"
      },
      "spot_prices_stats": {
        "start_date": "1946-10-07",
        "end_date": "1946-10-15"
      }
    }
  },
  "prices_count": 1,
  "name": "Act. Electro-Entreprise, non échang."
}