{
  "id": 104416,
  "share_type": {
    "id": 1,
    "name": "Stock (Action)"
  },
  "issuers": [
    {
      "id": 5478,
      "start_date": "1951-10-01",
      "end_date": "1952-01-02",
      "name": "SOCIÉTÉ INDO-CHINOISE D'ÉLECTRICITÉ"
    }
  ],
  "types": [
    {
      "start_date": "1951-10-01",
      "end_date": "1952-01-02",
      "id": 35,
      "name": "Action O",
      "stock_group": "S"
    }
  ],
  "is_mainstock": 0,
  "prices_period": [
    "1951-10-15",
    "1951-12-17"
  ],
  "stock_exchanges": {
    "1": {
      "id": 1,
      "name": "Paris (Official List)",
      "notations": {
        "204808": {
          "id": 204808,
          "sector_id": 116,
          "start_date": "1951-10-01",
          "end_date": "1952-01-02",
          "names": [
            {
              "name": "Indo-Chinoise d'Electricité, act. O nouv 5000 fr. (n°21968 à 45112) (c. 3 att.)",
              "start_date": "1951-10-01",
              "end_date": "1952-01-02"
            }
          ]
        }
      },
      "listings_stats": {
        "start_date": "1951-10-01"
      },
      "spot_prices_stats": {
        "start_date": "1951-10-15",
        "end_date": "1951-12-17"
      }
    }
  },
  "prices_count": 7,
  "name": "Indo-Chinoise d'Electricité, act. O nouv 5000 fr. (n°21968 à 45112) (c. 3 att.)"
}