{
  "id": 4949,
  "share_type": {
    "id": 2,
    "name": "Bond (Obligation)"
  },
  "issuers": [
    {
      "id": 2684,
      "start_date": "1906-09-12",
      "end_date": "3999-12-31",
      "name": "SUEDE"
    }
  ],
  "types": [
    {
      "start_date": "1906-01-31",
      "end_date": "3999-12-31",
      "id": 1001,
      "name": "Obligation ordinaire ou classique",
      "stock_group": "B"
    }
  ],
  "is_mainstock": 0,
  "prices_period": [
    "1906-01-31",
    "1935-02-28"
  ],
  "stock_exchanges": {
    "1": {
      "id": 1,
      "name": "Paris (Official List)",
      "notations": {
        "6048": {
          "id": 6048,
          "sector_id": 67,
          "start_date": "1906-01-31",
          "end_date": "1908-06-30",
          "names": [
            {
              "name": "Suède 1894 3%. Titres 375 fr.[de rente]",
              "start_date": "1906-01-31",
              "end_date": "1908-12-31"
            },
            {
              "name": "Suède 1894 3%. Titres de 375 fr",
              "start_date": "1906-01-31",
              "end_date": "1913-11-21"
            },
            {
              "name": "Suède 1894 3%, Coup. de 375",
              "start_date": "1906-01-31",
              "end_date": "1925-05-01"
            },
            {
              "name": "Suède 3% 1894 T. 375 fr. rente",
              "start_date": "1906-01-31",
              "end_date": "1931-08-03"
            },
            {
              "name": "Suède 3% 1894 T. 9000 c. ou 12500 fr. cap. (nég. ch. fixe 7 fr.)",
              "start_date": "1906-01-31",
              "end_date": "1936-11-30"
            },
            {
              "name": "Suède 3% 1894. T. 9000 c. ou 12500 f. cap. r. le 15 avr. 37.",
              "start_date": "1906-01-31",
              "end_date": "3999-12-31"
            }
          ]
        },
        "6917": {
          "id": 6917,
          "sector_id": 67,
          "start_date": "1914-12-15",
          "end_date": "1925-05-01",
          "names": [
            {
              "name": "Suède 1894 3%. Titres 375 fr.[de rente]",
              "start_date": "1906-09-12",
              "end_date": "1925-05-01"
            },
            {
              "name": "Suède 1894 3%. Titres de 375 fr",
              "start_date": "1908-12-31",
              "end_date": "1925-05-01"
            },
            {
              "name": "Suède 1894 3%, Coup. de 375",
              "start_date": "1913-11-21",
              "end_date": "1925-05-01"
            },
            {
              "name": "Suède 3% 1894 T. 375 fr. rente",
              "start_date": "1914-12-15",
              "end_date": "1931-08-03"
            },
            {
              "name": "Suède 3% 1894 T. 9000 c. ou 12500 fr. cap. (nég. ch. fixe 7 fr.)",
              "start_date": "1914-12-15",
              "end_date": "1936-11-30"
            },
            {
              "name": "Suède 3% 1894. T. 9000 c. ou 12500 f. cap. r. le 15 avr. 37.",
              "start_date": "1914-12-15",
              "end_date": "3999-12-31"
            }
          ]
        },
        "13454": {
          "id": 13454,
          "sector_id": 74,
          "start_date": "1925-05-01",
          "end_date": "1937-04-15",
          "names": [
            {
              "name": "Suède 1894 3%. Titres 375 fr.[de rente]",
              "start_date": "1906-09-12",
              "end_date": "1937-04-15"
            },
            {
              "name": "Suède 1894 3%. Titres de 375 fr",
              "start_date": "1908-12-31",
              "end_date": "1937-04-15"
            },
            {
              "name": "Suède 1894 3%, Coup. de 375",
              "start_date": "1913-11-21",
              "end_date": "1937-04-15"
            },
            {
              "name": "Suède 3% 1894 T. 375 fr. rente",
              "start_date": "1925-05-01",
              "end_date": "1937-04-15"
            },
            {
              "name": "Suède 3% 1894 T. 9000 c. ou 12500 fr. cap. (nég. ch. fixe 7 fr.)",
              "start_date": "1925-05-01",
              "end_date": "1937-04-15"
            },
            {
              "name": "Suède 3% 1894. T. 9000 c. ou 12500 f. cap. r. le 15 avr. 37.",
              "start_date": "1925-05-01",
              "end_date": "3999-12-31"
            }
          ]
        },
        "32135": {
          "id": 32135,
          "sector_id": 67,
          "start_date": "1908-12-31",
          "end_date": "1914-08-03",
          "names": [
            {
              "name": "Suède 1894 3%. Titres 375 fr.[de rente]",
              "start_date": "1906-09-12",
              "end_date": "1914-08-03"
            },
            {
              "name": "Suède 1894 3%. Titres de 375 fr",
              "start_date": "1908-12-31",
              "end_date": "1914-08-03"
            },
            {
              "name": "Suède 1894 3%, Coup. de 375",
              "start_date": "1908-12-31",
              "end_date": "1925-05-01"
            },
            {
              "name": "Suède 3% 1894 T. 375 fr. rente",
              "start_date": "1908-12-31",
              "end_date": "1931-08-03"
            },
            {
              "name": "Suède 3% 1894 T. 9000 c. ou 12500 fr. cap. (nég. ch. fixe 7 fr.)",
              "start_date": "1908-12-31",
              "end_date": "1936-11-30"
            },
            {
              "name": "Suède 3% 1894. T. 9000 c. ou 12500 f. cap. r. le 15 avr. 37.",
              "start_date": "1908-12-31",
              "end_date": "3999-12-31"
            }
          ]
        }
      },
      "listings_stats": {
        "start_date": "1906-01-31"
      },
      "spot_prices_stats": {
        "start_date": "1906-01-31",
        "end_date": "1935-02-28"
      }
    }
  },
  "prices_count": 80,
  "name": "Suède 3% 1894 T. 375 fr. rente"
}