{
  "id": 675,
  "share_type": {
    "id": 6,
    "name": "UNKNOWN"
  },
  "issuers": [
    {
      "id": 898,
      "start_date": "1851-09-01",
      "end_date": "3999-12-31",
      "name": "Salle Ventadour (Théâtre)"
    }
  ],
  "types": [
    {
      "start_date": "1851-09-01",
      "end_date": "3999-12-31",
      "id": 1,
      "name": "UNKNOWN",
      "stock_group": "U"
    }
  ],
  "is_mainstock": 0,
  "prices_period": [
    "1851-09-01",
    "1851-09-01"
  ],
  "stock_exchanges": {
    "1": {
      "id": 1,
      "name": "Paris (Official List)",
      "notations": {
        "904": {
          "id": 904,
          "sector_id": 576,
          "start_date": "1851-09-01",
          "end_date": "1851-12-26",
          "names": [
            {
              "name": "Salle Ventadour (Théâtre)",
              "start_date": "1851-09-01",
              "end_date": "3999-12-31"
            }
          ]
        }
      },
      "listings_stats": {
        "start_date": "1851-09-01"
      },
      "spot_prices_stats": {
        "start_date": "1851-09-01",
        "end_date": "1851-09-01"
      }
    }
  },
  "prices_count": 2,
  "name": "Salle Ventadour (Théâtre)"
}