{
  "id": 8577,
  "share_type": {
    "id": 1,
    "name": "Stock (Action)"
  },
  "issuers": [
    {
      "id": 2728,
      "start_date": "1927-04-22",
      "end_date": "3999-12-31",
      "name": "SOCIÉTÉ DES USINES A GAZ DU NORD ET DE L'EST"
    }
  ],
  "types": [
    {
      "start_date": "1927-04-22",
      "end_date": "3999-12-31",
      "id": 18,
      "name": "Action",
      "stock_group": "S"
    }
  ],
  "is_mainstock": 0,
  "prices_period": [
    "1927-04-23",
    "1927-09-30"
  ],
  "stock_exchanges": {
    "1": {
      "id": 1,
      "name": "Paris (Official List)",
      "notations": {
        "136024": {
          "id": 136024,
          "sector_id": 102,
          "start_date": "1927-04-22",
          "end_date": "1927-10-17",
          "names": [
            {
              "name": "Gaz du Nord et de l'Est (Usines à), Act. 500 fr., t. p. (nos 40001 à 60000)",
              "start_date": "1927-04-22",
              "end_date": "3999-12-31"
            }
          ]
        }
      },
      "listings_stats": {
        "start_date": "1927-04-22"
      },
      "spot_prices_stats": {
        "start_date": "1927-04-23",
        "end_date": "1927-09-30"
      }
    }
  },
  "prices_count": 19,
  "name": "Gaz du Nord et de l'Est (Usines à), Act. 500 fr., t. p. (nos 40001 à 60000)"
}