{
  "id": 102979,
  "share_type": {
    "id": 4,
    "name": "Rights (Droits)"
  },
  "issuers": [
    {
      "id": 3566,
      "start_date": "1000-01-01",
      "end_date": "1928-04-27",
      "name": "BANQUE LA HENIN"
    }
  ],
  "types": [
    {
      "start_date": "1000-01-01",
      "end_date": "1928-04-27",
      "id": 501,
      "name": "Droit de souscription",
      "stock_group": "R"
    }
  ],
  "is_mainstock": 0,
  "prices_period": [
    "1928-04-11",
    "1928-04-11"
  ],
  "stock_exchanges": {
    "1": {
      "id": 1,
      "name": "Paris (Official List)",
      "notations": {
        "203161": {
          "id": 203161,
          "sector_id": 657,
          "start_date": "1928-04-10",
          "end_date": "1928-04-28",
          "names": [
            {
              "name": "Act. Société Immobilia (droit et coupon 6). Pour 1 action anc. De 1000 fr., 2 act. Nouvelles de 500 francs émises à 575 francs.",
              "start_date": "1000-01-01",
              "end_date": "1928-04-28"
            }
          ]
        }
      },
      "listings_stats": {
        "start_date": "1928-04-10"
      },
      "spot_prices_stats": {
        "start_date": "1928-04-11",
        "end_date": "1928-04-11"
      }
    }
  },
  "prices_count": 0,
  "name": "Act. Société Immobilia (droit et coupon 6). Pour 1 action anc. De 1000 fr., 2 act. Nouvelles de 500 francs émises à 575 francs."
}