{
  "id": 13168,
  "share_type": {
    "id": 1,
    "name": "Stock (Action)"
  },
  "issuers": [
    {
      "id": 303,
      "start_date": "1852-09-21",
      "end_date": "3999-12-31",
      "name": "Cie DU CHEMIN DE FER DE PARIS A ORLEANS"
    }
  ],
  "types": [
    {
      "start_date": "1600-01-01",
      "end_date": "3999-12-31",
      "id": 1,
      "name": "UNKNOWN",
      "stock_group": "U"
    }
  ],
  "is_mainstock": 0,
  "prices_period": [
    "1853-01-15",
    "1863-05-15"
  ],
  "stock_exchanges": {
    "1": {
      "id": 1,
      "name": "Paris (Official List)",
      "notations": {
        "143743": {
          "id": 143743,
          "sector_id": 68,
          "start_date": "1852-09-21",
          "end_date": "1863-12-31",
          "names": [
            {
              "name": "Orleans nouvle, j. oct. 1852",
              "start_date": "1852-09-21",
              "end_date": "3999-12-31"
            }
          ]
        }
      },
      "forward_prices_stats": {
        "start_date": "1853-08-16",
        "end_date": "1853-08-16"
      },
      "listings_stats": {
        "start_date": "1852-09-21"
      },
      "options_prices_stats": {
        "start_date": "1853-01-15",
        "end_date": "1862-01-15"
      },
      "spot_prices_stats": {
        "start_date": "1853-01-15",
        "end_date": "1863-05-15"
      }
    }
  },
  "prices_count": 36,
  "name": "Orleans nouvle, j. oct. 1852"
}