{
  "id": 103188,
  "share_type": {
    "id": 4,
    "name": "Rights (Droits)"
  },
  "issuers": [
    {
      "id": 4570,
      "start_date": "1000-01-01",
      "end_date": "1941-10-29",
      "name": "COMPAGNIE FRANÇAISE DES PETROLES"
    }
  ],
  "types": [
    {
      "start_date": "1000-01-01",
      "end_date": "1941-10-29",
      "id": 501,
      "name": "Droit de souscription",
      "stock_group": "R"
    }
  ],
  "is_mainstock": 0,
  "prices_period": [
    "1941-09-30",
    "1941-10-15"
  ],
  "stock_exchanges": {
    "1": {
      "id": 1,
      "name": "Paris (Official List)",
      "notations": {
        "203370": {
          "id": 203370,
          "sector_id": 657,
          "start_date": "1941-09-30",
          "end_date": "1941-10-30",
          "names": [
            {
              "name": "Act.B.CIE FRANCAISE DE PETROLES (droit et coupon 9).Pour 3 act.B anc., 1 action B nouvelle émise à 550 francs.",
              "start_date": "1000-01-01",
              "end_date": "1941-10-30"
            }
          ]
        }
      },
      "listings_stats": {
        "start_date": "1941-09-30"
      },
      "spot_prices_stats": {
        "start_date": "1941-09-30",
        "end_date": "1941-10-15"
      }
    }
  },
  "prices_count": 3,
  "name": "Act.B.CIE FRANCAISE DE PETROLES (droit et coupon 9).Pour 3 act.B anc., 1 action B nouvelle émise à 550 francs."
}