{
  "id": 104765,
  "share_type": {
    "id": 5,
    "name": "Droits de souscription"
  },
  "issuers": [
    {
      "id": 4139,
      "start_date": "1946-12-23",
      "end_date": "1947-01-12",
      "name": "S. A. T. A. M. (Société anonyme pour tous appareillages mécaniques)"
    }
  ],
  "types": [
    {
      "start_date": "1946-12-23",
      "end_date": "1947-01-12",
      "id": 501,
      "name": "Droit de souscription",
      "stock_group": "R"
    }
  ],
  "is_mainstock": 0,
  "prices_period": [
    null,
    null
  ],
  "stock_exchanges": {
    "1": {
      "id": 1,
      "name": "Paris (Official List)",
      "notations": {
        "205168": {
          "id": 205168,
          "sector_id": 657,
          "start_date": "1946-12-23",
          "end_date": "1947-01-12",
          "names": [
            {
              "name": "S.A.T.A.M., coupon 27",
              "start_date": "1946-12-23",
              "end_date": "1947-01-12"
            }
          ]
        }
      },
      "listings_stats": {
        "start_date": "1946-12-23"
      }
    }
  },
  "prices_count": 0,
  "name": "S.A.T.A.M., coupon 27"
}