{
  "id": 102003,
  "share_type": {
    "id": 4,
    "name": "Rights (Droits)"
  },
  "issuers": [
    {
      "id": 3773,
      "start_date": "1929-03-06",
      "end_date": "1929-03-21",
      "name": "SOCIÉTÉ DES BRASSERIES DU MAROC"
    }
  ],
  "types": [
    {
      "start_date": "1929-03-06",
      "end_date": "1929-03-21",
      "id": 501,
      "name": "Droit de souscription",
      "stock_group": "R"
    }
  ],
  "is_mainstock": 0,
  "prices_period": [
    "1929-03-08",
    "1929-03-15"
  ],
  "stock_exchanges": {
    "1": {
      "id": 1,
      "name": "Paris (Official List)",
      "notations": {
        "202185": {
          "id": 202185,
          "sector_id": 657,
          "start_date": "1929-03-06",
          "end_date": "1929-03-22",
          "names": [
            {
              "name": "Act. Brasseries du Maroc (droit et c. 7). Pour 20 act. anc., 3 act. nouvelles B émises à 250 francs.",
              "start_date": "1929-03-06",
              "end_date": "1929-03-22"
            }
          ]
        }
      },
      "listings_stats": {
        "start_date": "1929-03-06"
      },
      "spot_prices_stats": {
        "start_date": "1929-03-08",
        "end_date": "1929-03-15"
      }
    }
  },
  "prices_count": 2,
  "name": "Act. Brasseries du Maroc (droit et c. 7). Pour 20 act. anc., 3 act. nouvelles B émises à 250 francs."
}