{
  "id": 4702,
  "share_type": {
    "id": 2,
    "name": "Bond (Obligation)"
  },
  "issuers": [
    {
      "id": 100,
      "start_date": "1902-11-03",
      "end_date": "3999-12-31",
      "name": "RENTES FRANÇAISES"
    }
  ],
  "types": [
    {
      "start_date": "1902-11-03",
      "end_date": "3999-12-31",
      "id": 1001,
      "name": "Obligation ordinaire ou classique",
      "stock_group": "B"
    }
  ],
  "is_mainstock": 0,
  "prices_period": [
    "1902-11-03",
    "1902-12-15"
  ],
  "stock_exchanges": {
    "1": {
      "id": 1,
      "name": "Paris (Official List)",
      "notations": {
        "5801": {
          "id": 5801,
          "sector_id": 10,
          "start_date": "1902-11-03",
          "end_date": "1902-12-16",
          "names": [
            {
              "name": "3% 1902",
              "start_date": "1902-11-03",
              "end_date": "3999-12-31"
            }
          ]
        }
      },
      "forward_prices_stats": {
        "start_date": "1902-11-03",
        "end_date": "1902-12-15"
      },
      "listings_stats": {
        "start_date": "1902-11-03"
      },
      "spot_prices_stats": {
        "start_date": "1902-11-03",
        "end_date": "1902-12-15"
      }
    }
  },
  "prices_count": 36,
  "name": "3% 1902"
}