{
  "id": 19870,
  "share_type": {
    "id": 2,
    "name": "Bond (Obligation)"
  },
  "issuers": [
    {
      "id": 566,
      "start_date": "1968-02-23",
      "end_date": "3999-12-31",
      "name": "Crédit Foncier de France"
    }
  ],
  "types": [
    {
      "start_date": "1968-02-23",
      "end_date": "3999-12-31",
      "id": 1001,
      "name": "Obligation ordinaire ou classique",
      "stock_group": "B"
    }
  ],
  "is_mainstock": 0,
  "prices_period": [
    "1968-02-23",
    "1976-12-31"
  ],
  "stock_exchanges": {
    "1": {
      "id": 1,
      "name": "Paris (Official List)",
      "notations": {
        "150445": {
          "id": 150445,
          "sector_id": 190,
          "start_date": "1968-02-23",
          "end_date": "3999-12-31",
          "names": [
            {
              "name": "Foncier et Communal 6,25% janvier 1968, à lots (c. 19/12/68 att.) I 1968-87",
              "start_date": "1968-02-23",
              "end_date": "3999-12-31"
            }
          ]
        }
      },
      "listings_stats": {
        "start_date": "1968-02-23"
      },
      "spot_prices_stats": {
        "start_date": "1968-02-23",
        "end_date": "1976-12-31"
      }
    }
  },
  "prices_count": 223,
  "name": "Foncier et Communal 6,25% janvier 1968, à lots (c. 19/12/68 att.) I 1968-87"
}