{
  "id": 6478,
  "share_type": {
    "id": 1,
    "name": "Stock (Action)"
  },
  "issuers": [
    {
      "id": 1672,
      "start_date": "1917-02-09",
      "end_date": "3999-12-31",
      "name": "THE RIO-TINTO COMPANY, LIMITED"
    }
  ],
  "types": [
    {
      "start_date": "1917-02-09",
      "end_date": "3999-12-31",
      "id": 18,
      "name": "Action",
      "stock_group": "S"
    }
  ],
  "is_mainstock": 0,
  "prices_period": [
    null,
    null
  ],
  "stock_exchanges": {
    "1": {
      "id": 1,
      "name": "Paris (Official List)",
      "notations": {
        "10529": {
          "id": 10529,
          "sector_id": 582,
          "start_date": "1917-02-09",
          "end_date": "1919-01-05",
          "names": [
            {
              "name": "Rio Tinto Company, act. ordinaires: Coup. de 10",
              "start_date": "1917-02-09",
              "end_date": "3999-12-31"
            }
          ]
        }
      },
      "listings_stats": {
        "start_date": "1917-02-09"
      }
    }
  },
  "prices_count": 0,
  "name": "Rio Tinto Company, act. ordinaires: Coup. de 10"
}