{
  "id": 9439,
  "share_type": {
    "id": 2,
    "name": "Bond (Obligation)"
  },
  "issuers": [
    {
      "id": 3069,
      "start_date": "1931-11-03",
      "end_date": "3999-12-31",
      "name": "SOCIÉTÉ D'HÉRACLEE"
    }
  ],
  "types": [
    {
      "start_date": "1931-11-03",
      "end_date": "3999-12-31",
      "id": 1001,
      "name": "Obligation ordinaire ou classique",
      "stock_group": "B"
    }
  ],
  "is_mainstock": 0,
  "prices_period": [
    "1931-11-03",
    "1936-12-15"
  ],
  "stock_exchanges": {
    "1": {
      "id": 1,
      "name": "Paris (Official List)",
      "notations": {
        "136886": {
          "id": 136886,
          "sector_id": 133,
          "start_date": "1931-11-03",
          "end_date": "1937-11-04",
          "names": [
            {
              "name": "Héraclée (Sté d') 5% privil., Jouiss. Courante.",
              "start_date": "1931-11-03",
              "end_date": "3999-12-31"
            }
          ]
        }
      },
      "listings_stats": {
        "start_date": "1931-11-03"
      },
      "spot_prices_stats": {
        "start_date": "1931-11-03",
        "end_date": "1936-12-15"
      }
    }
  },
  "prices_count": 26,
  "name": "Héraclée (Sté d') 5% privil., Jouiss. Courante."
}