{
  "id": 9115,
  "share_type": {
    "id": 1,
    "name": "Stock (Action)"
  },
  "issuers": [
    {
      "id": 1651,
      "start_date": "1928-07-10",
      "end_date": "3999-12-31",
      "name": "MINES D'OSTRICOURT"
    }
  ],
  "types": [
    {
      "start_date": "1928-07-10",
      "end_date": "3999-12-31",
      "id": 11,
      "name": "Action ordinaire",
      "stock_group": "S"
    }
  ],
  "is_mainstock": 0,
  "prices_period": [
    "1928-07-10",
    "1928-07-16"
  ],
  "stock_exchanges": {
    "1": {
      "id": 1,
      "name": "Paris (Official List)",
      "notations": {
        "136562": {
          "id": 136562,
          "sector_id": 103,
          "start_date": "1928-07-10",
          "end_date": "1928-07-17",
          "names": [
            {
              "name": "Mines d'Ostricourt, act. 250 fr., t.p. (dr. et c. 15 att.)",
              "start_date": "1928-07-10",
              "end_date": "3999-12-31"
            }
          ]
        }
      },
      "listings_stats": {
        "start_date": "1928-07-10"
      },
      "spot_prices_stats": {
        "start_date": "1928-07-10",
        "end_date": "1928-07-16"
      }
    }
  },
  "prices_count": 2,
  "name": "Mines d'Ostricourt, act. 250 fr., t.p. (dr. et c. 15 att.)"
}