{
  "id": 13323,
  "share_type": {
    "id": 2,
    "name": "Bond (Obligation)"
  },
  "issuers": [
    {
      "id": 4441,
      "start_date": "1949-03-22",
      "end_date": "3999-12-31",
      "name": "SOCIÉTÉ ANONYME DES HAUTS-FOURNEAUX, FORGES ET ACIÉRIES DU SAUT-DU-TARN"
    }
  ],
  "types": [
    {
      "start_date": "1949-03-22",
      "end_date": "3999-12-31",
      "id": 1001,
      "name": "Obligation ordinaire ou classique",
      "stock_group": "B"
    }
  ],
  "is_mainstock": 0,
  "prices_period": [
    "1949-03-23",
    "1969-01-15"
  ],
  "stock_exchanges": {
    "1": {
      "id": 1,
      "name": "Paris (Official List)",
      "notations": {
        "26801": {
          "id": 26801,
          "sector_id": 111,
          "start_date": "1955-12-01",
          "end_date": "1962-01-02",
          "names": [
            {
              "name": "Saut-du-Tarn (Forges et Aciéries du) 5,75% 1948, remb. à 5000 fr. (Jce 1/7/48) 1949-78",
              "start_date": "1949-03-22",
              "end_date": "1962-01-02"
            },
            {
              "name": "Saut-du-Tarn (Forges et Aciéries du) 6,25% (ex-5 3,75%) 1948 (Tirages 26/5/55) (Cf Avis n° 30780) 1949-78",
              "start_date": "1955-12-01",
              "end_date": "1969-01-30"
            },
            {
              "name": "Saut-du-Tarn (Forges et Aciéries du) 6,25% (ex-5,75%) 1948 (Tirage 30/5/68) (Avis 30780) 1949-78",
              "start_date": "1955-12-01",
              "end_date": "3999-12-31"
            }
          ]
        },
        "28491": {
          "id": 28491,
          "sector_id": 517,
          "start_date": "1962-01-02",
          "end_date": "1963-03-04",
          "names": [
            {
              "name": "Saut-du-Tarn (Forges et Aciéries du) 5,75% 1948, remb. à 5000 fr. (Jce 1/7/48) 1949-78",
              "start_date": "1949-03-22",
              "end_date": "1963-03-04"
            },
            {
              "name": "Saut-du-Tarn (Forges et Aciéries du) 6,25% (ex-5 3,75%) 1948 (Tirages 26/5/55) (Cf Avis n° 30780) 1949-78",
              "start_date": "1955-12-01",
              "end_date": "1969-01-30"
            },
            {
              "name": "Saut-du-Tarn (Forges et Aciéries du) 6,25% (ex-5,75%) 1948 (Tirage 30/5/68) (Avis 30780) 1949-78",
              "start_date": "1962-01-02",
              "end_date": "3999-12-31"
            }
          ]
        },
        "31192": {
          "id": 31192,
          "sector_id": 111,
          "start_date": "1963-03-04",
          "end_date": "1969-01-30",
          "names": [
            {
              "name": "Saut-du-Tarn (Forges et Aciéries du) 5,75% 1948, remb. à 5000 fr. (Jce 1/7/48) 1949-78",
              "start_date": "1949-03-22",
              "end_date": "1969-01-30"
            },
            {
              "name": "Saut-du-Tarn (Forges et Aciéries du) 6,25% (ex-5 3,75%) 1948 (Tirages 26/5/55) (Cf Avis n° 30780) 1949-78",
              "start_date": "1955-12-01",
              "end_date": "1969-01-30"
            },
            {
              "name": "Saut-du-Tarn (Forges et Aciéries du) 6,25% (ex-5,75%) 1948 (Tirage 30/5/68) (Avis 30780) 1949-78",
              "start_date": "1963-03-04",
              "end_date": "3999-12-31"
            }
          ]
        },
        "143898": {
          "id": 143898,
          "sector_id": 111,
          "start_date": "1949-03-22",
          "end_date": "1955-12-01",
          "names": [
            {
              "name": "Saut-du-Tarn (Forges et Aciéries du) 5,75% 1948, remb. à 5000 fr. (Jce 1/7/48) 1949-78",
              "start_date": "1949-03-22",
              "end_date": "1955-12-01"
            },
            {
              "name": "Saut-du-Tarn (Forges et Aciéries du) 6,25% (ex-5 3,75%) 1948 (Tirages 26/5/55) (Cf Avis n° 30780) 1949-78",
              "start_date": "1949-03-22",
              "end_date": "1969-01-30"
            },
            {
              "name": "Saut-du-Tarn (Forges et Aciéries du) 6,25% (ex-5,75%) 1948 (Tirage 30/5/68) (Avis 30780) 1949-78",
              "start_date": "1949-03-22",
              "end_date": "3999-12-31"
            }
          ]
        }
      },
      "listings_stats": {
        "start_date": "1949-03-22"
      },
      "spot_prices_stats": {
        "start_date": "1949-03-23",
        "end_date": "1969-01-15"
      }
    }
  },
  "prices_count": 491,
  "name": "Saut-du-Tarn (Forges et Aciéries du) 6,25% (ex-5,75%) 1948 (Tirage 30/5/68) (Avis 30780) 1949-78"
}