{
  "id": 25337,
  "share_type": {
    "id": 1,
    "name": "Stock (Action)"
  },
  "issuers": [
    {
      "id": 3213,
      "start_date": "1924-06-15",
      "end_date": "3999-12-31",
      "name": "PARIS-FRANCE"
    }
  ],
  "types": [
    {
      "start_date": "1000-01-01",
      "end_date": "3999-12-31",
      "id": 18,
      "name": "Action",
      "stock_group": "S"
    }
  ],
  "is_mainstock": 0,
  "prices_period": [
    "1924-06-16",
    "1924-06-30"
  ],
  "stock_exchanges": {
    "1": {
      "id": 1,
      "name": "Paris (Official List)",
      "notations": {
        "90337": {
          "id": 90337,
          "sector_id": 187,
          "start_date": "1924-06-15",
          "end_date": "1924-07-02",
          "names": [
            {
              "name": "Paris-France, act. 500 fr., t. p. (ex-droits., )",
              "start_date": "1924-06-15",
              "end_date": "3999-12-31"
            }
          ]
        }
      },
      "listings_stats": {
        "start_date": "1924-06-15"
      },
      "spot_prices_stats": {
        "start_date": "1924-06-16",
        "end_date": "1924-06-30"
      }
    }
  },
  "prices_count": 3,
  "name": "Paris-France, act. 500 fr., t. p. (ex-droits., )"
}