{
  "id": 104907,
  "share_type": {
    "id": 6,
    "name": "UNKNOWN"
  },
  "issuers": [
    {
      "id": 12181,
      "start_date": "1885-01-15",
      "end_date": "1887-12-31",
      "name": "Mine Métallurgique Belge Portugaise"
    }
  ],
  "types": [
    {
      "start_date": "1885-01-15",
      "end_date": "1887-12-31",
      "id": 1,
      "name": "UNKNOWN",
      "stock_group": "U"
    }
  ],
  "is_mainstock": 0,
  "prices_period": [
    "1885-03-31",
    "1886-12-15"
  ],
  "stock_exchanges": {
    "2": {
      "id": 2,
      "name": "Paris OTC (Coulisse)",
      "notations": {
        "205318": {
          "id": 205318,
          "sector_id": 669,
          "start_date": "1885-01-15",
          "end_date": "1887-12-31",
          "names": [
            {
              "name": "Mine Metale Belge Portugse",
              "start_date": "1885-01-15",
              "end_date": "1887-12-31"
            }
          ]
        }
      },
      "listings_stats": {
        "start_date": "1885-01-15"
      },
      "spot_prices_stats": {
        "start_date": "1885-03-31",
        "end_date": "1886-12-15"
      }
    }
  },
  "prices_count": 8,
  "name": "Mine Metale Belge Portugse"
}