{
  "id": 2732,
  "share_type": {
    "id": 1,
    "name": "Stock (Action)"
  },
  "issuers": [
    {
      "id": 1240,
      "start_date": "1885-12-24",
      "end_date": "1886-02-01",
      "name": "Société Italienne des Chemins de fer Méridionaux"
    }
  ],
  "types": [
    {
      "start_date": "1885-12-24",
      "end_date": "1886-02-01",
      "id": 18,
      "name": "Action",
      "stock_group": "S"
    }
  ],
  "is_mainstock": 0,
  "prices_period": [
    "1885-12-24",
    "1886-01-15"
  ],
  "stock_exchanges": {
    "1": {
      "id": 1,
      "name": "Paris (Official List)",
      "notations": {
        "3831": {
          "id": 3831,
          "sector_id": 68,
          "start_date": "1885-12-24",
          "end_date": "1886-02-01",
          "names": [
            {
              "name": "Méridionnaux (Cie Italienne des ch.de fer), act. De 500L., t.p., 200000 act., créat.de 1862, n°1 à 200000, et 100000 act.créat.de 1881, n°260001 à 360000, action estampillées, Gr. Coup.",
              "start_date": "1885-12-24",
              "end_date": "1886-02-01"
            },
            {
              "name": "Méridionnaux (Cie Italienne des ch.de fer), act. De 500L., t.p., 200000 act., créat.de 1862, n°1 à 200000, et 100000 act.créat.de 1881, n°260001 à 360000 Grosses coupures",
              "start_date": "1885-12-24",
              "end_date": "1886-02-01"
            }
          ]
        }
      },
      "listings_stats": {
        "start_date": "1885-12-24"
      },
      "spot_prices_stats": {
        "start_date": "1885-12-24",
        "end_date": "1886-01-15"
      }
    }
  },
  "prices_count": 4,
  "name": "Méridionnaux (Cie Italienne des ch.de fer), act. De 500L., t.p., 200000 act., créat.de 1862, n°1 à 200000, et 100000 act.créat.de 1881, n°260001 à 360000 Grosses coupures"
}