{
  "id": 104934,
  "share_type": {
    "id": 2,
    "name": "Bond (Obligation)"
  },
  "issuers": [
    {
      "id": 566,
      "start_date": "1879-09-15",
      "end_date": "1879-12-01",
      "name": "Crédit Foncier de France"
    }
  ],
  "types": [
    {
      "start_date": "1879-09-15",
      "end_date": "1879-12-01",
      "id": 1001,
      "name": "Obligation ordinaire ou classique",
      "stock_group": "B"
    }
  ],
  "is_mainstock": 0,
  "prices_period": [
    null,
    null
  ],
  "stock_exchanges": {
    "2": {
      "id": 2,
      "name": "Paris OTC (Coulisse)",
      "notations": {
        "205421": {
          "id": 205421,
          "sector_id": 666,
          "start_date": "1879-09-15",
          "end_date": "1879-12-01",
          "names": [
            {
              "name": "Foncieres nouvelles Prime.",
              "start_date": "1879-09-15",
              "end_date": "1879-12-01"
            }
          ]
        }
      },
      "listings_stats": {
        "start_date": "1879-09-15"
      }
    }
  },
  "prices_count": 0,
  "name": "Foncieres nouvelles Prime."
}