{
  "id": 14005,
  "share_type": {
    "id": 1,
    "name": "Stock (Action)"
  },
  "issuers": [
    {
      "id": 4101,
      "start_date": "1950-12-01",
      "end_date": "3999-12-31",
      "name": "SOCIÉTÉ ALSACIENNE DE CONSTRUCTIONS MECANIQUES"
    }
  ],
  "types": [
    {
      "start_date": "1950-12-01",
      "end_date": "3999-12-31",
      "id": 11,
      "name": "Action ordinaire",
      "stock_group": "S"
    }
  ],
  "is_mainstock": 0,
  "prices_period": [
    "1950-12-01",
    "1966-05-31"
  ],
  "stock_exchanges": {
    "1": {
      "id": 1,
      "name": "Paris (Official List)",
      "notations": {
        "24309": {
          "id": 24309,
          "sector_id": 312,
          "start_date": "1951-06-09",
          "end_date": "1951-11-02",
          "names": [
            {
              "name": "Alsacienne de Constructions Mécaniques, act. 2500 fr., t.p. (c. 1 att.) (Au comptant seulement)",
              "start_date": "1950-12-01",
              "end_date": "1951-11-02"
            },
            {
              "name": "Alsacienne de Constructions Mécaniques, act. 2500 fr., t. p.",
              "start_date": "1951-05-24",
              "end_date": "1952-02-15"
            },
            {
              "name": "Alsacienne de Constructions Mécaniques, act. 4000 fr., t.p.",
              "start_date": "1951-06-09",
              "end_date": "1955-12-01"
            },
            {
              "name": "ALSACIENNE DE CONSTRUCTIONS MECANIQUES, actions (ex-dr., )",
              "start_date": "1951-06-09",
              "end_date": "3999-12-31"
            }
          ]
        },
        "24417": {
          "id": 24417,
          "sector_id": 231,
          "start_date": "1951-11-02",
          "end_date": "1955-12-01",
          "names": [
            {
              "name": "Alsacienne de Constructions Mécaniques, act. 2500 fr., t.p. (c. 1 att.) (Au comptant seulement)",
              "start_date": "1950-12-01",
              "end_date": "1955-12-01"
            },
            {
              "name": "Alsacienne de Constructions Mécaniques, act. 2500 fr., t. p.",
              "start_date": "1951-05-24",
              "end_date": "1955-12-01"
            },
            {
              "name": "Alsacienne de Constructions Mécaniques, act. 4000 fr., t.p.",
              "start_date": "1951-11-02",
              "end_date": "1955-12-01"
            },
            {
              "name": "ALSACIENNE DE CONSTRUCTIONS MECANIQUES, actions (ex-dr., )",
              "start_date": "1951-11-02",
              "end_date": "3999-12-31"
            }
          ]
        },
        "27581": {
          "id": 27581,
          "sector_id": 397,
          "start_date": "1955-12-01",
          "end_date": "1963-03-04",
          "names": [
            {
              "name": "Alsacienne de Constructions Mécaniques, act. 2500 fr., t.p. (c. 1 att.) (Au comptant seulement)",
              "start_date": "1950-12-01",
              "end_date": "1963-03-04"
            },
            {
              "name": "Alsacienne de Constructions Mécaniques, act. 2500 fr., t. p.",
              "start_date": "1951-05-24",
              "end_date": "1963-03-04"
            },
            {
              "name": "Alsacienne de Constructions Mécaniques, act. 4000 fr., t.p.",
              "start_date": "1952-02-15",
              "end_date": "1963-03-04"
            },
            {
              "name": "ALSACIENNE DE CONSTRUCTIONS MECANIQUES, actions (ex-dr., )",
              "start_date": "1955-12-01",
              "end_date": "3999-12-31"
            }
          ]
        },
        "29982": {
          "id": 29982,
          "sector_id": 341,
          "start_date": "1963-03-04",
          "end_date": "1966-06-13",
          "names": [
            {
              "name": "Alsacienne de Constructions Mécaniques, act. 2500 fr., t.p. (c. 1 att.) (Au comptant seulement)",
              "start_date": "1950-12-01",
              "end_date": "1966-06-13"
            },
            {
              "name": "Alsacienne de Constructions Mécaniques, act. 2500 fr., t. p.",
              "start_date": "1951-05-24",
              "end_date": "1966-06-13"
            },
            {
              "name": "Alsacienne de Constructions Mécaniques, act. 4000 fr., t.p.",
              "start_date": "1952-02-15",
              "end_date": "1966-06-13"
            },
            {
              "name": "ALSACIENNE DE CONSTRUCTIONS MECANIQUES, actions (ex-dr., )",
              "start_date": "1955-12-01",
              "end_date": "3999-12-31"
            }
          ]
        },
        "144580": {
          "id": 144580,
          "sector_id": 297,
          "start_date": "1950-12-01",
          "end_date": "1951-06-09",
          "names": [
            {
              "name": "Alsacienne de Constructions Mécaniques, act. 2500 fr., t.p. (c. 1 att.) (Au comptant seulement)",
              "start_date": "1950-12-01",
              "end_date": "1951-06-09"
            },
            {
              "name": "Alsacienne de Constructions Mécaniques, act. 2500 fr., t. p.",
              "start_date": "1950-12-01",
              "end_date": "1952-02-15"
            },
            {
              "name": "Alsacienne de Constructions Mécaniques, act. 4000 fr., t.p.",
              "start_date": "1950-12-01",
              "end_date": "1955-12-01"
            },
            {
              "name": "ALSACIENNE DE CONSTRUCTIONS MECANIQUES, actions (ex-dr., )",
              "start_date": "1950-12-01",
              "end_date": "3999-12-31"
            }
          ]
        }
      },
      "listings_stats": {
        "start_date": "1950-12-01"
      },
      "spot_prices_stats": {
        "start_date": "1950-12-01",
        "end_date": "1966-05-31"
      }
    }
  },
  "prices_count": 532,
  "name": "Alsacienne de Constructions Mécaniques, act. 2500 fr., t. p."
}