{
  "id": 14146,
  "share_type": {
    "id": 1,
    "name": "Stock (Action)"
  },
  "issuers": [
    {
      "id": 957,
      "start_date": "1951-09-26",
      "end_date": "3999-12-31",
      "name": "BANQUE DE LA GUYANE"
    }
  ],
  "types": [
    {
      "start_date": "1951-09-26",
      "end_date": "3999-12-31",
      "id": 11,
      "name": "Action ordinaire",
      "stock_group": "S"
    }
  ],
  "is_mainstock": 0,
  "prices_period": [
    "1951-10-02",
    "1952-04-15"
  ],
  "stock_exchanges": {
    "1": {
      "id": 1,
      "name": "Paris (Official List)",
      "notations": {
        "144721": {
          "id": 144721,
          "sector_id": 99,
          "start_date": "1951-09-26",
          "end_date": "1952-04-23",
          "names": [
            {
              "name": "Banque de la Guyane, act. 2500 fr., t.p. (°2401 à 7200) (nom.)",
              "start_date": "1951-09-26",
              "end_date": "3999-12-31"
            }
          ]
        }
      },
      "listings_stats": {
        "start_date": "1951-09-26"
      },
      "spot_prices_stats": {
        "start_date": "1951-10-02",
        "end_date": "1952-04-15"
      }
    }
  },
  "prices_count": 14,
  "name": "Banque de la Guyane, act. 2500 fr., t.p. (°2401 à 7200) (nom.)"
}