{
  "id": 19862,
  "share_type": {
    "id": 2,
    "name": "Bond (Obligation)"
  },
  "issuers": [
    {
      "id": 5490,
      "start_date": "1967-09-05",
      "end_date": "3999-12-31",
      "name": "Hoechst Farbwerke A.G."
    }
  ],
  "types": [
    {
      "start_date": "1967-09-05",
      "end_date": "3999-12-31",
      "id": 1001,
      "name": "Obligation ordinaire ou classique",
      "stock_group": "B"
    }
  ],
  "is_mainstock": 0,
  "prices_period": [
    "1967-09-05",
    "1976-12-15"
  ],
  "stock_exchanges": {
    "1": {
      "id": 1,
      "name": "Paris (Official List)",
      "notations": {
        "150437": {
          "id": 150437,
          "sector_id": 83,
          "start_date": "1967-09-05",
          "end_date": "1976-12-31",
          "names": [
            {
              "name": "Hoechst Farbwerke 6,5% (conv. En act. De 50 DM du 2/1 au 14/12 Inclus des années 68 à 1976 moyennant vers. De 50 DM à DM 62,50 par act. De 50 DM)(c.2/1/68 att.)(Avis 67-426) 1972-76 Obl. 3000 DM",
              "start_date": "1967-09-05",
              "end_date": "1976-12-31"
            },
            {
              "name": "Hoechst Farbwerke 6,50% (conv en act de 50DM du 2/1 au 14/12 inclus des années 1968 à 1976 moyennant vers de 25 à 65,50DM par act de 50DM), Obl 3000 DM",
              "start_date": "1967-09-05",
              "end_date": "1976-12-31"
            },
            {
              "name": "Hoechst Aktiengesellschaft 6,50% (conv en act de 50DM du 2/1 au 14/12 inclus des années 1968 à 1976 moyennant vers de 25 à 65,50DM par act de 50DM), Obl 3000 DM",
              "start_date": "1967-09-05",
              "end_date": "1976-12-31"
            },
            {
              "name": "Hoechst Aktiengesellschaft, 6,50% (conv.en act. De 50 DM du 2/1 AU 14/12/1976 Inclus moyannant versement de 25 DM à DM 62,5 par action de 50 DM)(Avis 67-426 et 75-29), Obl. 3000 DM Remb. Le 31/12/76",
              "start_date": "1967-09-05",
              "end_date": "3999-12-31"
            }
          ]
        }
      },
      "listings_stats": {
        "start_date": "1967-09-05"
      },
      "spot_prices_stats": {
        "start_date": "1967-09-05",
        "end_date": "1976-12-15"
      }
    }
  },
  "prices_count": 228,
  "name": "Hoechst Farbwerke 6,50% (conv en act de 50DM du 2/1 au 14/12 inclus des années 1968 à 1976 moyennant vers de 25 à 65,50DM par act de 50DM), Obl 3000 DM"
}