{
  "id": 103170,
  "share_type": {
    "id": 4,
    "name": "Rights (Droits)"
  },
  "issuers": [
    {
      "id": 4695,
      "start_date": "1000-01-01",
      "end_date": "1931-01-27",
      "name": "LES ÉTABLISSEMENTS POULENC FRÈRES"
    }
  ],
  "types": [
    {
      "start_date": "1000-01-01",
      "end_date": "1931-01-27",
      "id": 501,
      "name": "Droit de souscription",
      "stock_group": "R"
    }
  ],
  "is_mainstock": 0,
  "prices_period": [
    "1931-01-02",
    "1931-01-15"
  ],
  "stock_exchanges": {
    "1": {
      "id": 1,
      "name": "Paris (Official List)",
      "notations": {
        "203352": {
          "id": 203352,
          "sector_id": 657,
          "start_date": "1931-01-02",
          "end_date": "1931-01-28",
          "names": [
            {
              "name": "Act. Usines Chimiques Rhône-Poulenc (droit et coupon 5). Pour 2 act. anciennes, 1 action nouvelle émise à 110 francs",
              "start_date": "1000-01-01",
              "end_date": "1931-01-28"
            }
          ]
        }
      },
      "listings_stats": {
        "start_date": "1931-01-02"
      },
      "spot_prices_stats": {
        "start_date": "1931-01-02",
        "end_date": "1931-01-15"
      }
    }
  },
  "prices_count": 21,
  "name": "Act. Usines Chimiques Rhône-Poulenc (droit et coupon 5). Pour 2 act. anciennes, 1 action nouvelle émise à 110 francs"
}