{
  "id": 8887,
  "share_type": {
    "id": 2,
    "name": "Bond (Obligation)"
  },
  "issuers": [
    {
      "id": 118,
      "start_date": "1936-03-02",
      "end_date": "3999-12-31",
      "name": "Trois Ponts sur la Seine"
    }
  ],
  "types": [
    {
      "start_date": "1936-03-02",
      "end_date": "3999-12-31",
      "id": 1018,
      "name": "Obligations à Lots",
      "stock_group": "B"
    }
  ],
  "is_mainstock": 0,
  "prices_period": [
    "1936-03-02",
    "1943-02-15"
  ],
  "stock_exchanges": {
    "1": {
      "id": 1,
      "name": "Paris (Official List)",
      "notations": {
        "136334": {
          "id": 136334,
          "sector_id": 79,
          "start_date": "1936-03-02",
          "end_date": "1943-02-22",
          "names": [
            {
              "name": "Emprunt 1935 5% (Fortif.), à lots, r. à 1000 fr.(nos 10 à 720009)",
              "start_date": "1936-03-02",
              "end_date": "1943-02-22"
            },
            {
              "name": "1935 5%, à lots, r. à 1000 fr. (n° 10 à 720009). 1936-89",
              "start_date": "1936-03-02",
              "end_date": "3999-12-31"
            }
          ]
        }
      },
      "listings_stats": {
        "start_date": "1936-03-02"
      },
      "spot_prices_stats": {
        "start_date": "1936-03-02",
        "end_date": "1943-02-15"
      }
    }
  },
  "prices_count": 259,
  "name": "1935 5%, à lots, r. à 1000 fr. (n° 10 à 720009). 1936-89"
}