{
  "id": 10694,
  "share_type": {
    "id": 2,
    "name": "Bond (Obligation)"
  },
  "issuers": [
    {
      "id": 5070,
      "start_date": "1936-06-05",
      "end_date": "3999-12-31",
      "name": "GOUVERNEMENT GÉNÉRAL DE L'AFRIQUE ÉQUATORIALE FRANÇAISE"
    }
  ],
  "types": [
    {
      "start_date": "1936-06-05",
      "end_date": "3999-12-31",
      "id": 1001,
      "name": "Obligation ordinaire ou classique",
      "stock_group": "B"
    }
  ],
  "is_mainstock": 0,
  "prices_period": [
    "1936-06-05",
    "1959-01-15"
  ],
  "stock_exchanges": {
    "1": {
      "id": 1,
      "name": "Paris (Official List)",
      "notations": {
        "141269": {
          "id": 141269,
          "sector_id": 84,
          "start_date": "1936-06-05",
          "end_date": "1959-01-20",
          "names": [
            {
              "name": "Afrique Equatoriale Française 5.5% 1936, Obl. r. à 1000 fr. (Int. et amort. gar. par Gouv. franç. -- Art. 4, loi du 22 février. 1931 et 2 août 1933)",
              "start_date": "1936-06-05",
              "end_date": "1959-01-20"
            },
            {
              "name": "Afrique Equatoriale Française 5,5% 1936 (Rach. Ou Tir.) 1936-86",
              "start_date": "1936-06-05",
              "end_date": "1959-01-20"
            },
            {
              "name": "Afrique equatoriale francaise, 5,5% 1936 (rach ou tir) 1936-86 r",
              "start_date": "1936-06-05",
              "end_date": "3999-12-31"
            }
          ]
        }
      },
      "listings_stats": {
        "start_date": "1936-06-05"
      },
      "spot_prices_stats": {
        "start_date": "1936-06-05",
        "end_date": "1959-01-15"
      }
    }
  },
  "prices_count": 551,
  "name": "Afrique Equatoriale Française 5,5% 1936 (Rach. Ou Tir.) 1936-86"
}