{
  "id": 19030,
  "share_type": {
    "id": 1,
    "name": "Stock (Action)"
  },
  "issuers": [
    {
      "id": 4246,
      "start_date": "1967-05-02",
      "end_date": "3999-12-31",
      "name": "EAUX MINERALES DE CHARBONNIERES-LES-BAINS"
    }
  ],
  "types": [
    {
      "start_date": "1967-05-02",
      "end_date": "3999-12-31",
      "id": 18,
      "name": "Action",
      "stock_group": "S"
    }
  ],
  "is_mainstock": 0,
  "prices_period": [
    "1967-05-10",
    "1969-03-17"
  ],
  "stock_exchanges": {
    "1": {
      "id": 1,
      "name": "Paris (Official List)",
      "notations": {
        "149605": {
          "id": 149605,
          "sector_id": 344,
          "start_date": "1967-05-02",
          "end_date": "1969-03-31",
          "names": [
            {
              "name": "Lyon_Bourse Charbonnières (Eaux Minérales de), act. (n°s 500001 à 560486)",
              "start_date": "1967-05-02",
              "end_date": "1969-03-31"
            },
            {
              "name": "LYON_Charbonnières (Eaux Minerales de), actions (n°s 500001 à 560486)",
              "start_date": "1967-05-02",
              "end_date": "3999-12-31"
            }
          ]
        }
      },
      "listings_stats": {
        "start_date": "1967-05-02"
      },
      "spot_prices_stats": {
        "start_date": "1967-05-10",
        "end_date": "1969-03-17"
      }
    }
  },
  "prices_count": 46,
  "name": "LYON_Charbonnières (Eaux Minerales de), actions (n°s 500001 à 560486)"
}