{
  "id": 11494,
  "share_type": {
    "id": 2,
    "name": "Bond (Obligation)"
  },
  "issuers": [
    {
      "id": 3363,
      "start_date": "1941-08-11",
      "end_date": "3999-12-31",
      "name": "SOCIETE DE TRANSPORT D'ENERGIE DE PROVENCE (Sterpro)"
    }
  ],
  "types": [
    {
      "start_date": "1941-08-11",
      "end_date": "3999-12-31",
      "id": 1001,
      "name": "Obligation ordinaire ou classique",
      "stock_group": "B"
    }
  ],
  "is_mainstock": 0,
  "prices_period": [
    "1941-08-13",
    "1952-10-31"
  ],
  "stock_exchanges": {
    "1": {
      "id": 1,
      "name": "Paris (Official List)",
      "notations": {
        "142069": {
          "id": 142069,
          "sector_id": 117,
          "start_date": "1941-08-11",
          "end_date": "1952-11-17",
          "names": [
            {
              "name": "Transport d'Energie de Provence (Stepro) 5% 1941, remb. à 2000 fr. 1941-76",
              "start_date": "1941-08-11",
              "end_date": "3999-12-31"
            }
          ]
        }
      },
      "listings_stats": {
        "start_date": "1941-08-11"
      },
      "spot_prices_stats": {
        "start_date": "1941-08-13",
        "end_date": "1952-10-31"
      }
    }
  },
  "prices_count": 256,
  "name": "Transport d'Energie de Provence (Stepro) 5% 1941, remb. à 2000 fr. 1941-76"
}