{
  "id": 6723,
  "share_type": {
    "id": 1,
    "name": "Stock (Action)"
  },
  "issuers": [
    {
      "id": 2441,
      "start_date": "1905-10-27",
      "end_date": "3999-12-31",
      "name": "Cie DES CHEMINS DE FER SECONDAIRES Anc. : Chemins de fer de la Banlieue de Reims et extensions"
    }
  ],
  "types": [
    {
      "start_date": "1905-11-15",
      "end_date": "3999-12-31",
      "id": 18,
      "name": "Action",
      "stock_group": "S"
    }
  ],
  "is_mainstock": 1,
  "prices_period": [
    "1905-11-15",
    "1906-01-15"
  ],
  "stock_exchanges": {
    "1": {
      "id": 1,
      "name": "Paris (Official List)",
      "notations": {
        "155313": {
          "id": 155313,
          "sector_id": 119,
          "start_date": "1905-10-27",
          "end_date": "1922-12-15",
          "names": [
            {
              "name": "Banlieue de reims et extensions (Chemins de fer de la)",
              "start_date": "1892-05-05",
              "end_date": "1922-12-15"
            },
            {
              "name": "Chemin de fer de la Banlieue de Reims et extensions, a. 100 fr. t. p.",
              "start_date": "1905-10-27",
              "end_date": "3999-12-31"
            }
          ]
        }
      },
      "listings_stats": {
        "start_date": "1905-10-27"
      },
      "spot_prices_stats": {
        "start_date": "1905-11-15",
        "end_date": "1906-01-15"
      }
    }
  },
  "prices_count": 4,
  "name": "Banlieue de reims et extensions (Chemins de fer de la)"
}