{
  "id": 104364,
  "share_type": {
    "id": 2,
    "name": "Bond (Obligation)"
  },
  "issuers": [
    {
      "id": 11952,
      "start_date": "1879-01-15",
      "end_date": "1881-12-31",
      "name": "Imprimerie du Centre"
    }
  ],
  "types": [
    {
      "start_date": "1879-01-15",
      "end_date": "1881-12-31",
      "id": 18,
      "name": "Action",
      "stock_group": "S"
    }
  ],
  "is_mainstock": 1,
  "prices_period": [
    "1879-07-15",
    "1881-10-30"
  ],
  "stock_exchanges": {
    "2": {
      "id": 2,
      "name": "Paris OTC (Coulisse)",
      "notations": {
        "204732": {
          "id": 204732,
          "sector_id": 672,
          "start_date": "1879-01-15",
          "end_date": "1881-12-31",
          "names": [
            {
              "name": "Imprimerie du Centre",
              "start_date": "1879-01-15",
              "end_date": "1881-12-31"
            }
          ]
        }
      },
      "listings_stats": {
        "start_date": "1879-01-15"
      },
      "spot_prices_stats": {
        "start_date": "1879-07-15",
        "end_date": "1881-10-30"
      }
    }
  },
  "prices_count": 28,
  "name": "Imprimerie du Centre"
}