{
  "id": 14095,
  "share_type": {
    "id": 1,
    "name": "Stock (Action)"
  },
  "issuers": [
    {
      "id": 5166,
      "start_date": "1951-05-15",
      "end_date": "3999-12-31",
      "name": "FRANCE-MODE"
    }
  ],
  "types": [
    {
      "start_date": "1951-05-15",
      "end_date": "3999-12-31",
      "id": 11,
      "name": "Action ordinaire",
      "stock_group": "S"
    }
  ],
  "is_mainstock": 0,
  "prices_period": [
    "1951-05-15",
    "1955-05-02"
  ],
  "stock_exchanges": {
    "1": {
      "id": 1,
      "name": "Paris (Official List)",
      "notations": {
        "144670": {
          "id": 144670,
          "sector_id": 187,
          "start_date": "1951-05-15",
          "end_date": "1955-05-16",
          "names": [
            {
              "name": "France-Mode, act. 2500 fr., t. p. (c. 1 att.)",
              "start_date": "1951-05-15",
              "end_date": "3999-12-31"
            }
          ]
        }
      },
      "listings_stats": {
        "start_date": "1951-05-15"
      },
      "spot_prices_stats": {
        "start_date": "1951-05-15",
        "end_date": "1955-05-02"
      }
    }
  },
  "prices_count": 96,
  "name": "France-Mode, act. 2500 fr., t. p. (c. 1 att.)"
}