{
  "id": 105332,
  "share_type": {
    "id": 1,
    "name": "Stock (Action)"
  },
  "issuers": [
    {
      "id": 12377,
      "start_date": "1894-07-17",
      "end_date": "1897-01-15",
      "name": "Canal des Deux-Mers (1/10 pt fond.)"
    }
  ],
  "types": [
    {
      "start_date": "1894-07-17",
      "end_date": "1897-01-15",
      "id": 21,
      "name": "Part de fondateur",
      "stock_group": "S"
    }
  ],
  "is_mainstock": 1,
  "prices_period": [
    "1894-07-17",
    "1896-12-31"
  ],
  "stock_exchanges": {
    "2": {
      "id": 2,
      "name": "Paris OTC (Coulisse)",
      "notations": {
        "206070": {
          "id": 206070,
          "sector_id": 672,
          "start_date": "1894-07-17",
          "end_date": "1895-04-06",
          "names": [
            {
              "name": "Canal des Deux-Mers (1/10 pt fond.)",
              "start_date": "1894-07-17",
              "end_date": "1897-01-15"
            }
          ]
        },
        "206116": {
          "id": 206116,
          "sector_id": 667,
          "start_date": "1895-04-06",
          "end_date": "1897-01-15",
          "names": [
            {
              "name": "Canal des Deux-Mers (1/10 pt fond.)",
              "start_date": "1894-07-17",
              "end_date": "1897-01-15"
            }
          ]
        }
      },
      "listings_stats": {
        "start_date": "1894-07-17"
      },
      "spot_prices_stats": {
        "start_date": "1894-07-17",
        "end_date": "1896-12-31"
      }
    }
  },
  "prices_count": 46,
  "name": "Canal des Deux-Mers (1/10 pt fond.)"
}