{
  "id": 6329,
  "share_type": {
    "id": 1,
    "name": "Stock (Action)"
  },
  "issuers": [
    {
      "id": 3380,
      "start_date": "1913-10-18",
      "end_date": "3999-12-31",
      "name": "SOCIETE NORVEGIENNE DE L'AZOTE ET DE FORCES HYDRO-ELECTRIQUES"
    }
  ],
  "types": [
    {
      "start_date": "1913-10-18",
      "end_date": "3999-12-31",
      "id": 15,
      "name": "Action de préférence",
      "stock_group": "S"
    }
  ],
  "is_mainstock": 0,
  "prices_period": [
    "1913-10-18",
    "1976-12-31"
  ],
  "stock_exchanges": {
    "1": {
      "id": 1,
      "name": "Paris (Official List)",
      "notations": {
        "9230": {
          "id": 9230,
          "sector_id": 125,
          "start_date": "1913-10-18",
          "end_date": "1914-08-03",
          "names": [
            {
              "name": "Ste Norvégienne de l'Azote et de Forces hydro-électriques, a. de préf. 180 cour. ou 250 f. t.p.",
              "start_date": "1913-10-18",
              "end_date": "1921-03-05"
            },
            {
              "name": "Azote et de Forces Hydro-électriques (Sté Norvégienne de l'), act. de préfér. 180 c. ou 250 fr., t. p.",
              "start_date": "1913-10-18",
              "end_date": "1942-02-23"
            },
            {
              "name": "Azote et de Forces Hydro-Electriques (Sté Norvég. De l'), act. De préf. 180 cour. Ou 250 fr., t. p. (ex-dr., ) (c. 34 att.)",
              "start_date": "1913-10-18",
              "end_date": "1944-10-10"
            },
            {
              "name": "Azote et de Forces Hydro-Electriques (Sté Norvégienne de l'), act. De préf. 180 cour. Ou 250 fr., t. p.",
              "start_date": "1913-10-18",
              "end_date": "1955-12-01"
            },
            {
              "name": "Azote et de Forces Hydro-Electriques (Société Norvégienne de l'), act. De préf. 180 cour. Ou 250 fr. (n°s 1 à 25002) (nom.)",
              "start_date": "1913-10-18",
              "end_date": "1962-01-02"
            },
            {
              "name": "Azote et Force Hydro-Electriques (Sté Norvégienne de l'), act.préf.180 KRN.(n° 1 à 25002)(nom.)",
              "start_date": "1913-10-18",
              "end_date": "1971-12-07"
            },
            {
              "name": "Azote et de Forces Hydro-Electriques (Sté Norvégienne de l'), act. de préf. 180 KRN (n° 1 à 25002) (ex-dr. est. Du 7/12/71) (nom.) (avis 71-940)",
              "start_date": "1913-10-18",
              "end_date": "1972-11-17"
            },
            {
              "name": "Azote et de Forces Hydro-Electriques (Sté Norvég. de l'), act. de préf. 180 KRN (nom.)",
              "start_date": "1913-10-18",
              "end_date": "1972-11-23"
            },
            {
              "name": "Norsk Hydro a.s., act. de préf. 60 KRN (nom.)",
              "start_date": "1913-10-18",
              "end_date": "1973-06-19"
            },
            {
              "name": "Norsk Hydro a.s., act. de préf. 60 KRN (nom.) (ex-dr. est. Du 19/6/73)",
              "start_date": "1913-10-18",
              "end_date": "1973-11-15"
            },
            {
              "name": "Norsk Hydro a.s., act. De préf. 60 KRN (nom.) (ex-dr. est. Du 19/6/73) (Avis 73-505)",
              "start_date": "1913-10-18",
              "end_date": "1973-11-16"
            },
            {
              "name": "Norsk Hydro a.s., act. De préf. 60 KRN (nom.) (Avis 73-505)",
              "start_date": "1913-10-18",
              "end_date": "3999-12-31"
            }
          ]
        },
        "9399": {
          "id": 9399,
          "sector_id": 125,
          "start_date": "1914-12-15",
          "end_date": "1940-06-11",
          "names": [
            {
              "name": "Ste Norvégienne de l'Azote et de Forces hydro-électriques, a. de préf. 180 cour. ou 250 f. t.p.",
              "start_date": "1913-10-18",
              "end_date": "1940-06-11"
            },
            {
              "name": "Azote et de Forces Hydro-électriques (Sté Norvégienne de l'), act. de préfér. 180 c. ou 250 fr., t. p.",
              "start_date": "1914-12-15",
              "end_date": "1942-02-23"
            },
            {
              "name": "Azote et de Forces Hydro-Electriques (Sté Norvég. De l'), act. De préf. 180 cour. Ou 250 fr., t. p. (ex-dr., ) (c. 34 att.)",
              "start_date": "1914-12-15",
              "end_date": "1944-10-10"
            },
            {
              "name": "Azote et de Forces Hydro-Electriques (Sté Norvégienne de l'), act. De préf. 180 cour. Ou 250 fr., t. p.",
              "start_date": "1914-12-15",
              "end_date": "1955-12-01"
            },
            {
              "name": "Azote et de Forces Hydro-Electriques (Société Norvégienne de l'), act. De préf. 180 cour. Ou 250 fr. (n°s 1 à 25002) (nom.)",
              "start_date": "1914-12-15",
              "end_date": "1962-01-02"
            },
            {
              "name": "Azote et Force Hydro-Electriques (Sté Norvégienne de l'), act.préf.180 KRN.(n° 1 à 25002)(nom.)",
              "start_date": "1914-12-15",
              "end_date": "1971-12-07"
            },
            {
              "name": "Azote et de Forces Hydro-Electriques (Sté Norvégienne de l'), act. de préf. 180 KRN (n° 1 à 25002) (ex-dr. est. Du 7/12/71) (nom.) (avis 71-940)",
              "start_date": "1914-12-15",
              "end_date": "1972-11-17"
            },
            {
              "name": "Azote et de Forces Hydro-Electriques (Sté Norvég. de l'), act. de préf. 180 KRN (nom.)",
              "start_date": "1914-12-15",
              "end_date": "1972-11-23"
            },
            {
              "name": "Norsk Hydro a.s., act. de préf. 60 KRN (nom.)",
              "start_date": "1914-12-15",
              "end_date": "1973-06-19"
            },
            {
              "name": "Norsk Hydro a.s., act. de préf. 60 KRN (nom.) (ex-dr. est. Du 19/6/73)",
              "start_date": "1914-12-15",
              "end_date": "1973-11-15"
            },
            {
              "name": "Norsk Hydro a.s., act. De préf. 60 KRN (nom.) (ex-dr. est. Du 19/6/73) (Avis 73-505)",
              "start_date": "1914-12-15",
              "end_date": "1973-11-16"
            },
            {
              "name": "Norsk Hydro a.s., act. De préf. 60 KRN (nom.) (Avis 73-505)",
              "start_date": "1914-12-15",
              "end_date": "3999-12-31"
            }
          ]
        },
        "21236": {
          "id": 21236,
          "sector_id": 226,
          "start_date": "1942-02-23",
          "end_date": "1944-10-10",
          "names": [
            {
              "name": "Ste Norvégienne de l'Azote et de Forces hydro-électriques, a. de préf. 180 cour. ou 250 f. t.p.",
              "start_date": "1913-10-18",
              "end_date": "1944-10-10"
            },
            {
              "name": "Azote et de Forces Hydro-électriques (Sté Norvégienne de l'), act. de préfér. 180 c. ou 250 fr., t. p.",
              "start_date": "1921-03-05",
              "end_date": "1944-10-10"
            },
            {
              "name": "Azote et de Forces Hydro-Electriques (Sté Norvég. De l'), act. De préf. 180 cour. Ou 250 fr., t. p. (ex-dr., ) (c. 34 att.)",
              "start_date": "1942-02-23",
              "end_date": "1944-10-10"
            },
            {
              "name": "Azote et de Forces Hydro-Electriques (Sté Norvégienne de l'), act. De préf. 180 cour. Ou 250 fr., t. p.",
              "start_date": "1942-02-23",
              "end_date": "1955-12-01"
            },
            {
              "name": "Azote et de Forces Hydro-Electriques (Société Norvégienne de l'), act. De préf. 180 cour. Ou 250 fr. (n°s 1 à 25002) (nom.)",
              "start_date": "1942-02-23",
              "end_date": "1962-01-02"
            },
            {
              "name": "Azote et Force Hydro-Electriques (Sté Norvégienne de l'), act.préf.180 KRN.(n° 1 à 25002)(nom.)",
              "start_date": "1942-02-23",
              "end_date": "1971-12-07"
            },
            {
              "name": "Azote et de Forces Hydro-Electriques (Sté Norvégienne de l'), act. de préf. 180 KRN (n° 1 à 25002) (ex-dr. est. Du 7/12/71) (nom.) (avis 71-940)",
              "start_date": "1942-02-23",
              "end_date": "1972-11-17"
            },
            {
              "name": "Azote et de Forces Hydro-Electriques (Sté Norvég. de l'), act. de préf. 180 KRN (nom.)",
              "start_date": "1942-02-23",
              "end_date": "1972-11-23"
            },
            {
              "name": "Norsk Hydro a.s., act. de préf. 60 KRN (nom.)",
              "start_date": "1942-02-23",
              "end_date": "1973-06-19"
            },
            {
              "name": "Norsk Hydro a.s., act. de préf. 60 KRN (nom.) (ex-dr. est. Du 19/6/73)",
              "start_date": "1942-02-23",
              "end_date": "1973-11-15"
            },
            {
              "name": "Norsk Hydro a.s., act. De préf. 60 KRN (nom.) (ex-dr. est. Du 19/6/73) (Avis 73-505)",
              "start_date": "1942-02-23",
              "end_date": "1973-11-16"
            },
            {
              "name": "Norsk Hydro a.s., act. De préf. 60 KRN (nom.) (Avis 73-505)",
              "start_date": "1942-02-23",
              "end_date": "3999-12-31"
            }
          ]
        },
        "22868": {
          "id": 22868,
          "sector_id": 125,
          "start_date": "1944-10-10",
          "end_date": "1944-12-29",
          "names": [
            {
              "name": "Ste Norvégienne de l'Azote et de Forces hydro-électriques, a. de préf. 180 cour. ou 250 f. t.p.",
              "start_date": "1913-10-18",
              "end_date": "1944-12-29"
            },
            {
              "name": "Azote et de Forces Hydro-électriques (Sté Norvégienne de l'), act. de préfér. 180 c. ou 250 fr., t. p.",
              "start_date": "1921-03-05",
              "end_date": "1944-12-29"
            },
            {
              "name": "Azote et de Forces Hydro-Electriques (Sté Norvég. De l'), act. De préf. 180 cour. Ou 250 fr., t. p. (ex-dr., ) (c. 34 att.)",
              "start_date": "1942-02-23",
              "end_date": "1944-12-29"
            },
            {
              "name": "Azote et de Forces Hydro-Electriques (Sté Norvégienne de l'), act. De préf. 180 cour. Ou 250 fr., t. p.",
              "start_date": "1944-10-10",
              "end_date": "1955-12-01"
            },
            {
              "name": "Azote et de Forces Hydro-Electriques (Société Norvégienne de l'), act. De préf. 180 cour. Ou 250 fr. (n°s 1 à 25002) (nom.)",
              "start_date": "1944-10-10",
              "end_date": "1962-01-02"
            },
            {
              "name": "Azote et Force Hydro-Electriques (Sté Norvégienne de l'), act.préf.180 KRN.(n° 1 à 25002)(nom.)",
              "start_date": "1944-10-10",
              "end_date": "1971-12-07"
            },
            {
              "name": "Azote et de Forces Hydro-Electriques (Sté Norvégienne de l'), act. de préf. 180 KRN (n° 1 à 25002) (ex-dr. est. Du 7/12/71) (nom.) (avis 71-940)",
              "start_date": "1944-10-10",
              "end_date": "1972-11-17"
            },
            {
              "name": "Azote et de Forces Hydro-Electriques (Sté Norvég. de l'), act. de préf. 180 KRN (nom.)",
              "start_date": "1944-10-10",
              "end_date": "1972-11-23"
            },
            {
              "name": "Norsk Hydro a.s., act. de préf. 60 KRN (nom.)",
              "start_date": "1944-10-10",
              "end_date": "1973-06-19"
            },
            {
              "name": "Norsk Hydro a.s., act. de préf. 60 KRN (nom.) (ex-dr. est. Du 19/6/73)",
              "start_date": "1944-10-10",
              "end_date": "1973-11-15"
            },
            {
              "name": "Norsk Hydro a.s., act. De préf. 60 KRN (nom.) (ex-dr. est. Du 19/6/73) (Avis 73-505)",
              "start_date": "1944-10-10",
              "end_date": "1973-11-16"
            },
            {
              "name": "Norsk Hydro a.s., act. De préf. 60 KRN (nom.) (Avis 73-505)",
              "start_date": "1944-10-10",
              "end_date": "3999-12-31"
            }
          ]
        },
        "23081": {
          "id": 23081,
          "sector_id": 82,
          "start_date": "1944-12-29",
          "end_date": "1962-01-02",
          "names": [
            {
              "name": "Ste Norvégienne de l'Azote et de Forces hydro-électriques, a. de préf. 180 cour. ou 250 f. t.p.",
              "start_date": "1913-10-18",
              "end_date": "1962-01-02"
            },
            {
              "name": "Azote et de Forces Hydro-électriques (Sté Norvégienne de l'), act. de préfér. 180 c. ou 250 fr., t. p.",
              "start_date": "1921-03-05",
              "end_date": "1962-01-02"
            },
            {
              "name": "Azote et de Forces Hydro-Electriques (Sté Norvég. De l'), act. De préf. 180 cour. Ou 250 fr., t. p. (ex-dr., ) (c. 34 att.)",
              "start_date": "1942-02-23",
              "end_date": "1962-01-02"
            },
            {
              "name": "Azote et de Forces Hydro-Electriques (Sté Norvégienne de l'), act. De préf. 180 cour. Ou 250 fr., t. p.",
              "start_date": "1944-10-10",
              "end_date": "1962-01-02"
            },
            {
              "name": "Azote et de Forces Hydro-Electriques (Société Norvégienne de l'), act. De préf. 180 cour. Ou 250 fr. (n°s 1 à 25002) (nom.)",
              "start_date": "1944-12-29",
              "end_date": "1962-01-02"
            },
            {
              "name": "Azote et Force Hydro-Electriques (Sté Norvégienne de l'), act.préf.180 KRN.(n° 1 à 25002)(nom.)",
              "start_date": "1944-12-29",
              "end_date": "1971-12-07"
            },
            {
              "name": "Azote et de Forces Hydro-Electriques (Sté Norvégienne de l'), act. de préf. 180 KRN (n° 1 à 25002) (ex-dr. est. Du 7/12/71) (nom.) (avis 71-940)",
              "start_date": "1944-12-29",
              "end_date": "1972-11-17"
            },
            {
              "name": "Azote et de Forces Hydro-Electriques (Sté Norvég. de l'), act. de préf. 180 KRN (nom.)",
              "start_date": "1944-12-29",
              "end_date": "1972-11-23"
            },
            {
              "name": "Norsk Hydro a.s., act. de préf. 60 KRN (nom.)",
              "start_date": "1944-12-29",
              "end_date": "1973-06-19"
            },
            {
              "name": "Norsk Hydro a.s., act. de préf. 60 KRN (nom.) (ex-dr. est. Du 19/6/73)",
              "start_date": "1944-12-29",
              "end_date": "1973-11-15"
            },
            {
              "name": "Norsk Hydro a.s., act. De préf. 60 KRN (nom.) (ex-dr. est. Du 19/6/73) (Avis 73-505)",
              "start_date": "1944-12-29",
              "end_date": "1973-11-16"
            },
            {
              "name": "Norsk Hydro a.s., act. De préf. 60 KRN (nom.) (Avis 73-505)",
              "start_date": "1944-12-29",
              "end_date": "3999-12-31"
            }
          ]
        },
        "28866": {
          "id": 28866,
          "sector_id": 542,
          "start_date": "1962-01-02",
          "end_date": "3999-12-31",
          "names": [
            {
              "name": "Ste Norvégienne de l'Azote et de Forces hydro-électriques, a. de préf. 180 cour. ou 250 f. t.p.",
              "start_date": "1913-10-18",
              "end_date": "3999-12-31"
            },
            {
              "name": "Azote et de Forces Hydro-électriques (Sté Norvégienne de l'), act. de préfér. 180 c. ou 250 fr., t. p.",
              "start_date": "1921-03-05",
              "end_date": "3999-12-31"
            },
            {
              "name": "Azote et de Forces Hydro-Electriques (Sté Norvég. De l'), act. De préf. 180 cour. Ou 250 fr., t. p. (ex-dr., ) (c. 34 att.)",
              "start_date": "1942-02-23",
              "end_date": "3999-12-31"
            },
            {
              "name": "Azote et de Forces Hydro-Electriques (Sté Norvégienne de l'), act. De préf. 180 cour. Ou 250 fr., t. p.",
              "start_date": "1944-10-10",
              "end_date": "3999-12-31"
            },
            {
              "name": "Azote et de Forces Hydro-Electriques (Société Norvégienne de l'), act. De préf. 180 cour. Ou 250 fr. (n°s 1 à 25002) (nom.)",
              "start_date": "1955-12-01",
              "end_date": "3999-12-31"
            },
            {
              "name": "Azote et Force Hydro-Electriques (Sté Norvégienne de l'), act.préf.180 KRN.(n° 1 à 25002)(nom.)",
              "start_date": "1962-01-02",
              "end_date": "3999-12-31"
            },
            {
              "name": "Azote et de Forces Hydro-Electriques (Sté Norvégienne de l'), act. de préf. 180 KRN (n° 1 à 25002) (ex-dr. est. Du 7/12/71) (nom.) (avis 71-940)",
              "start_date": "1962-01-02",
              "end_date": "3999-12-31"
            },
            {
              "name": "Azote et de Forces Hydro-Electriques (Sté Norvég. de l'), act. de préf. 180 KRN (nom.)",
              "start_date": "1962-01-02",
              "end_date": "3999-12-31"
            },
            {
              "name": "Norsk Hydro a.s., act. de préf. 60 KRN (nom.)",
              "start_date": "1962-01-02",
              "end_date": "3999-12-31"
            },
            {
              "name": "Norsk Hydro a.s., act. de préf. 60 KRN (nom.) (ex-dr. est. Du 19/6/73)",
              "start_date": "1962-01-02",
              "end_date": "3999-12-31"
            },
            {
              "name": "Norsk Hydro a.s., act. De préf. 60 KRN (nom.) (ex-dr. est. Du 19/6/73) (Avis 73-505)",
              "start_date": "1962-01-02",
              "end_date": "3999-12-31"
            },
            {
              "name": "Norsk Hydro a.s., act. De préf. 60 KRN (nom.) (Avis 73-505)",
              "start_date": "1962-01-02",
              "end_date": "3999-12-31"
            }
          ]
        }
      },
      "listings_stats": {
        "start_date": "1913-10-18"
      },
      "spot_prices_stats": {
        "start_date": "1913-10-18",
        "end_date": "1976-12-31"
      }
    }
  },
  "prices_count": 1484,
  "name": "Azote et de Forces Hydro-Electriques (Sté Norvég. de l'), act. de préf. 180 KRN (nom.)"
}