{
  "id": 35429,
  "share_type": {
    "id": 2,
    "name": "Bond (Obligation)"
  },
  "issuers": [
    {
      "id": 4367,
      "start_date": "1968-04-22",
      "end_date": "3999-12-31",
      "name": "Groupement des Industries de la Construction Electrique (Electromécanique, Electrique et Electronique)"
    }
  ],
  "types": [
    {
      "start_date": "1968-04-22",
      "end_date": "3999-12-31",
      "id": 1001,
      "name": "Obligation ordinaire ou classique",
      "stock_group": "B"
    }
  ],
  "is_mainstock": 0,
  "prices_period": [
    "1968-04-22",
    "1976-12-31"
  ],
  "stock_exchanges": {
    "1": {
      "id": 1,
      "name": "Paris (Official List)",
      "notations": {
        "153284": {
          "id": 153284,
          "sector_id": 369,
          "start_date": "1968-04-22",
          "end_date": "3999-12-31",
          "names": [
            {
              "name": "Groupement des industr. de construction Electrique (electromécanique et mécanique) (G.I.C.E.L) 6,5% 1967, remb. 510 à 570 F, (c. 18/11/1968 att.)(Avis 68-205)1969-82",
              "start_date": "1968-04-22",
              "end_date": "3999-12-31"
            }
          ]
        }
      },
      "listings_stats": {
        "start_date": "1968-04-22"
      },
      "spot_prices_stats": {
        "start_date": "1968-04-22",
        "end_date": "1976-12-31"
      }
    }
  },
  "prices_count": 210,
  "name": "Groupement des industr. de construction Electrique (electromécanique et mécanique) (G.I.C.E.L) 6,5% 1967, remb. 510 à 570 F, (c. 18/11/1968 att.)(Avis 68-205)1969-82"
}