{
  "id": 103030,
  "share_type": {
    "id": 4,
    "name": "Rights (Droits)"
  },
  "issuers": [
    {
      "id": 4137,
      "start_date": "1000-01-01",
      "end_date": "3999-12-31",
      "name": "SOCIETE D'APPLICATIONS GENERALES D'ELECTRICITE ET DE MECANIQUE (S.A.GE.M.)"
    }
  ],
  "types": [
    {
      "start_date": "1000-01-01",
      "end_date": "3999-12-31",
      "id": 501,
      "name": "Droit de souscription",
      "stock_group": "R"
    }
  ],
  "is_mainstock": 0,
  "prices_period": [
    "1943-04-15",
    "1945-11-15"
  ],
  "stock_exchanges": {
    "1": {
      "id": 1,
      "name": "Paris (Official List)",
      "notations": {
        "203212": {
          "id": 203212,
          "sector_id": 657,
          "start_date": "1000-01-01",
          "end_date": "4000-01-01",
          "names": [
            {
              "name": "Act. STE D'APPLICATIONS GENERALES D'ELECTRICITE ET DE MECANIQUE (S.A.G.E.M.) (bon de souscription). Pour 2 bons, 3 actions nouvelles de l'émission mars 1943 cédées au pair, plus une prime de 25 francs, majorée de l'intérêt couru.",
              "start_date": "1000-01-01",
              "end_date": "4000-01-01"
            }
          ]
        }
      },
      "listings_stats": {
        "start_date": "1000-01-01"
      },
      "spot_prices_stats": {
        "start_date": "1943-04-15",
        "end_date": "1945-11-15"
      }
    }
  },
  "prices_count": 1,
  "name": "Act. STE D'APPLICATIONS GENERALES D'ELECTRICITE ET DE MECANIQUE (S.A.G.E.M.) (bon de souscription). Pour 2 bons, 3 actions nouvelles de l'émission mars 1943 cédées au pair, plus une prime de 25 francs, majorée de l'intérêt couru."
}