{
  "id": 104397,
  "share_type": {
    "id": 1,
    "name": "Stock (Action)"
  },
  "issuers": [
    {
      "id": 12024,
      "start_date": "1880-01-16",
      "end_date": "1885-12-31",
      "name": "Administration d'Affichage et de Publicité"
    }
  ],
  "types": [
    {
      "start_date": "1880-01-16",
      "end_date": "1885-12-31",
      "id": 18,
      "name": "Action",
      "stock_group": "S"
    }
  ],
  "is_mainstock": 1,
  "prices_period": [
    "1880-10-15",
    "1885-01-15"
  ],
  "stock_exchanges": {
    "2": {
      "id": 2,
      "name": "Paris OTC (Coulisse)",
      "notations": {
        "204785": {
          "id": 204785,
          "sector_id": 672,
          "start_date": "1880-01-16",
          "end_date": "1885-12-31",
          "names": [
            {
              "name": "Adm. Affichage et Publicite",
              "start_date": "1880-01-16",
              "end_date": "1885-12-31"
            }
          ]
        }
      },
      "listings_stats": {
        "start_date": "1880-01-16"
      },
      "spot_prices_stats": {
        "start_date": "1880-10-15",
        "end_date": "1885-01-15"
      }
    }
  },
  "prices_count": 65,
  "name": "Adm. Affichage et Publicite"
}