{
  "id": 12796,
  "share_type": {
    "id": 1,
    "name": "Stock (Action)"
  },
  "issuers": [
    {
      "id": 4707,
      "start_date": "1920-09-01",
      "end_date": "3999-12-31",
      "name": "Hauts-Fourneaux et Aciéries de Steinfort"
    }
  ],
  "types": [
    {
      "start_date": "1920-09-01",
      "end_date": "3999-12-31",
      "id": 18,
      "name": "Action",
      "stock_group": "S"
    }
  ],
  "is_mainstock": 1,
  "prices_period": [
    "1920-09-01",
    "1922-12-15"
  ],
  "stock_exchanges": {
    "1": {
      "id": 1,
      "name": "Paris (Official List)",
      "notations": {
        "143371": {
          "id": 143371,
          "sector_id": 131,
          "start_date": "1920-09-01",
          "end_date": "1923-01-02",
          "names": [
            {
              "name": "Hauts-Fourneaux et Aciéries de Steinfort, act. 500 fr., t.p. (c. 9 attaché)",
              "start_date": "1920-09-01",
              "end_date": "3999-12-31"
            }
          ]
        }
      },
      "listings_stats": {
        "start_date": "1920-09-01"
      },
      "spot_prices_stats": {
        "start_date": "1920-09-01",
        "end_date": "1922-12-15"
      }
    }
  },
  "prices_count": 24,
  "name": "Hauts-Fourneaux et Aciéries de Steinfort, act. 500 fr., t.p. (c. 9 attaché)"
}