{
  "id": 13797,
  "share_type": {
    "id": 1,
    "name": "Stock (Action)"
  },
  "issuers": [
    {
      "id": 4607,
      "start_date": "1950-09-18",
      "end_date": "3999-12-31",
      "name": "PEINTURES ASTRAL CELLUCO (Ex Les Fils Lévy-Finger-Celluco)"
    }
  ],
  "types": [
    {
      "start_date": "1950-09-18",
      "end_date": "3999-12-31",
      "id": 11,
      "name": "Action ordinaire",
      "stock_group": "S"
    }
  ],
  "is_mainstock": 0,
  "prices_period": [
    "1950-09-20",
    "1975-06-02"
  ],
  "stock_exchanges": {
    "1": {
      "id": 1,
      "name": "Paris (Official List)",
      "notations": {
        "26166": {
          "id": 26166,
          "sector_id": 414,
          "start_date": "1955-12-01",
          "end_date": "1963-03-04",
          "names": [
            {
              "name": "Peintures Astral Celluco, act. 2500 fr., t. p. (c. 21 att.)",
              "start_date": "1950-09-18",
              "end_date": "1963-03-04"
            },
            {
              "name": "Astral-Celluco (Peintures), act.",
              "start_date": "1955-12-01",
              "end_date": "1963-06-06"
            },
            {
              "name": "Astral (Peintures-Vernis et Encres d'Imprimerie), act.",
              "start_date": "1955-12-01",
              "end_date": "1975-06-10"
            },
            {
              "name": "Astral (Société de Peinture et Vernis), Actions (ex-dr., (Avis 74-791, 74-807, 74-899, 74-972 et 74-15)",
              "start_date": "1955-12-01",
              "end_date": "3999-12-31"
            }
          ]
        },
        "30415": {
          "id": 30415,
          "sector_id": 351,
          "start_date": "1963-03-04",
          "end_date": "1975-06-10",
          "names": [
            {
              "name": "Peintures Astral Celluco, act. 2500 fr., t. p. (c. 21 att.)",
              "start_date": "1950-09-18",
              "end_date": "1975-06-10"
            },
            {
              "name": "Astral-Celluco (Peintures), act.",
              "start_date": "1955-12-01",
              "end_date": "1975-06-10"
            },
            {
              "name": "Astral (Peintures-Vernis et Encres d'Imprimerie), act.",
              "start_date": "1963-03-04",
              "end_date": "1975-06-10"
            },
            {
              "name": "Astral (Société de Peinture et Vernis), Actions (ex-dr., (Avis 74-791, 74-807, 74-899, 74-972 et 74-15)",
              "start_date": "1963-03-04",
              "end_date": "3999-12-31"
            }
          ]
        },
        "144372": {
          "id": 144372,
          "sector_id": 242,
          "start_date": "1950-09-18",
          "end_date": "1955-12-01",
          "names": [
            {
              "name": "Peintures Astral Celluco, act. 2500 fr., t. p. (c. 21 att.)",
              "start_date": "1950-09-18",
              "end_date": "1955-12-01"
            },
            {
              "name": "Astral-Celluco (Peintures), act.",
              "start_date": "1950-09-18",
              "end_date": "1963-06-06"
            },
            {
              "name": "Astral (Peintures-Vernis et Encres d'Imprimerie), act.",
              "start_date": "1950-09-18",
              "end_date": "1975-06-10"
            },
            {
              "name": "Astral (Société de Peinture et Vernis), Actions (ex-dr., (Avis 74-791, 74-807, 74-899, 74-972 et 74-15)",
              "start_date": "1950-09-18",
              "end_date": "3999-12-31"
            }
          ]
        }
      },
      "listings_stats": {
        "start_date": "1950-09-18"
      },
      "spot_prices_stats": {
        "start_date": "1950-09-20",
        "end_date": "1975-06-02"
      }
    }
  },
  "prices_count": 632,
  "name": "Astral (Peintures-Vernis et Encres d'Imprimerie), act."
}