{
  "id": 6516,
  "share_type": {
    "id": 1,
    "name": "Stock (Action)"
  },
  "issuers": [
    {
      "id": 1672,
      "start_date": "1918-04-02",
      "end_date": "3999-12-31",
      "name": "THE RIO-TINTO COMPANY, LIMITED"
    }
  ],
  "types": [
    {
      "start_date": "1918-04-02",
      "end_date": "3999-12-31",
      "id": 18,
      "name": "Action",
      "stock_group": "S"
    }
  ],
  "is_mainstock": 0,
  "prices_period": [
    "1918-06-17",
    "1955-07-15"
  ],
  "stock_exchanges": {
    "1": {
      "id": 1,
      "name": "Paris (Official List)",
      "notations": {
        "9686": {
          "id": 9686,
          "sector_id": 157,
          "start_date": "1920-01-02",
          "end_date": "1925-05-01",
          "names": [
            {
              "name": "Rio-Tinto Company Ld, actions ordinaires de 5£, t.p. (n°325001 à 700000)coup.de 10",
              "start_date": "1918-04-02",
              "end_date": "1925-05-01"
            },
            {
              "name": "Rio-Tinto Company Ld, act. ord. 5£, t. p., Coup. de 10",
              "start_date": "1920-01-02",
              "end_date": "1936-05-08"
            },
            {
              "name": "Rio-Tinto Company Ld, act. ord. 5 £, t.p. (nos 325001 à 750000) Coup. de 10",
              "start_date": "1920-01-02",
              "end_date": "1944-10-10"
            },
            {
              "name": "Rio-Tonto Company Ld, act. Ord. 5£, t. p. (n°s 325001 à 750000) Coup. de 10",
              "start_date": "1920-01-02",
              "end_date": "1945-04-03"
            },
            {
              "name": "Rio-Tinto Company Ltd, act. Ord. 5 £, t. p. (n°s 325001 à 750000) Coup. De 10",
              "start_date": "1920-01-02",
              "end_date": "1950-03-01"
            },
            {
              "name": "Rio-Tonto Company Ltd, act. Ord. 5£, t. p. (n°s 325001 à 750000) Coup. de 10",
              "start_date": "1920-01-02",
              "end_date": "1951-11-02"
            },
            {
              "name": "Rio-Tinto Company, Limited, act. Ord. 5£, t.p. (n° 325001 à 750000), Toutes coup. Par 10",
              "start_date": "1920-01-02",
              "end_date": "3999-12-31"
            }
          ]
        },
        "10567": {
          "id": 10567,
          "sector_id": 68,
          "start_date": "1918-04-02",
          "end_date": "1920-01-02",
          "names": [
            {
              "name": "Rio-Tinto Company Ld, actions ordinaires de 5£, t.p. (n°325001 à 700000)coup.de 10",
              "start_date": "1918-04-02",
              "end_date": "1925-05-01"
            },
            {
              "name": "Rio-Tinto Company Ld, act. ord. 5£, t. p., Coup. de 10",
              "start_date": "1918-04-02",
              "end_date": "1936-05-08"
            },
            {
              "name": "Rio-Tinto Company Ld, act. ord. 5 £, t.p. (nos 325001 à 750000) Coup. de 10",
              "start_date": "1918-04-02",
              "end_date": "1944-10-10"
            },
            {
              "name": "Rio-Tonto Company Ld, act. Ord. 5£, t. p. (n°s 325001 à 750000) Coup. de 10",
              "start_date": "1918-04-02",
              "end_date": "1945-04-03"
            },
            {
              "name": "Rio-Tinto Company Ltd, act. Ord. 5 £, t. p. (n°s 325001 à 750000) Coup. De 10",
              "start_date": "1918-04-02",
              "end_date": "1950-03-01"
            },
            {
              "name": "Rio-Tonto Company Ltd, act. Ord. 5£, t. p. (n°s 325001 à 750000) Coup. de 10",
              "start_date": "1918-04-02",
              "end_date": "1951-11-02"
            },
            {
              "name": "Rio-Tinto Company, Limited, act. Ord. 5£, t.p. (n° 325001 à 750000), Toutes coup. Par 10",
              "start_date": "1918-04-02",
              "end_date": "3999-12-31"
            }
          ]
        },
        "13537": {
          "id": 13537,
          "sector_id": 168,
          "start_date": "1925-05-01",
          "end_date": "1936-05-11",
          "names": [
            {
              "name": "Rio-Tinto Company Ld, actions ordinaires de 5£, t.p. (n°325001 à 700000)coup.de 10",
              "start_date": "1918-04-02",
              "end_date": "1936-05-11"
            },
            {
              "name": "Rio-Tinto Company Ld, act. ord. 5£, t. p., Coup. de 10",
              "start_date": "1925-05-01",
              "end_date": "1936-05-11"
            },
            {
              "name": "Rio-Tinto Company Ld, act. ord. 5 £, t.p. (nos 325001 à 750000) Coup. de 10",
              "start_date": "1925-05-01",
              "end_date": "1944-10-10"
            },
            {
              "name": "Rio-Tonto Company Ld, act. Ord. 5£, t. p. (n°s 325001 à 750000) Coup. de 10",
              "start_date": "1925-05-01",
              "end_date": "1945-04-03"
            },
            {
              "name": "Rio-Tinto Company Ltd, act. Ord. 5 £, t. p. (n°s 325001 à 750000) Coup. De 10",
              "start_date": "1925-05-01",
              "end_date": "1950-03-01"
            },
            {
              "name": "Rio-Tonto Company Ltd, act. Ord. 5£, t. p. (n°s 325001 à 750000) Coup. de 10",
              "start_date": "1925-05-01",
              "end_date": "1951-11-02"
            },
            {
              "name": "Rio-Tinto Company, Limited, act. Ord. 5£, t.p. (n° 325001 à 750000), Toutes coup. Par 10",
              "start_date": "1925-05-01",
              "end_date": "3999-12-31"
            }
          ]
        },
        "16091": {
          "id": 16091,
          "sector_id": 208,
          "start_date": "1936-05-11",
          "end_date": "1940-06-11",
          "names": [
            {
              "name": "Rio-Tinto Company Ld, actions ordinaires de 5£, t.p. (n°325001 à 700000)coup.de 10",
              "start_date": "1918-04-02",
              "end_date": "1940-06-11"
            },
            {
              "name": "Rio-Tinto Company Ld, act. ord. 5£, t. p., Coup. de 10",
              "start_date": "1925-05-01",
              "end_date": "1940-06-11"
            },
            {
              "name": "Rio-Tinto Company Ld, act. ord. 5 £, t.p. (nos 325001 à 750000) Coup. de 10",
              "start_date": "1936-05-08",
              "end_date": "1944-10-10"
            },
            {
              "name": "Rio-Tonto Company Ld, act. Ord. 5£, t. p. (n°s 325001 à 750000) Coup. de 10",
              "start_date": "1936-05-11",
              "end_date": "1945-04-03"
            },
            {
              "name": "Rio-Tinto Company Ltd, act. Ord. 5 £, t. p. (n°s 325001 à 750000) Coup. De 10",
              "start_date": "1936-05-11",
              "end_date": "1950-03-01"
            },
            {
              "name": "Rio-Tonto Company Ltd, act. Ord. 5£, t. p. (n°s 325001 à 750000) Coup. de 10",
              "start_date": "1936-05-11",
              "end_date": "1951-11-02"
            },
            {
              "name": "Rio-Tinto Company, Limited, act. Ord. 5£, t.p. (n° 325001 à 750000), Toutes coup. Par 10",
              "start_date": "1936-05-11",
              "end_date": "3999-12-31"
            }
          ]
        },
        "21372": {
          "id": 21372,
          "sector_id": 208,
          "start_date": "1944-10-10",
          "end_date": "1945-04-03",
          "names": [
            {
              "name": "Rio-Tinto Company Ld, actions ordinaires de 5£, t.p. (n°325001 à 700000)coup.de 10",
              "start_date": "1918-04-02",
              "end_date": "1945-04-03"
            },
            {
              "name": "Rio-Tinto Company Ld, act. ord. 5£, t. p., Coup. de 10",
              "start_date": "1925-05-01",
              "end_date": "1945-04-03"
            },
            {
              "name": "Rio-Tinto Company Ld, act. ord. 5 £, t.p. (nos 325001 à 750000) Coup. de 10",
              "start_date": "1936-05-08",
              "end_date": "1945-04-03"
            },
            {
              "name": "Rio-Tonto Company Ld, act. Ord. 5£, t. p. (n°s 325001 à 750000) Coup. de 10",
              "start_date": "1944-10-10",
              "end_date": "1945-04-03"
            },
            {
              "name": "Rio-Tinto Company Ltd, act. Ord. 5 £, t. p. (n°s 325001 à 750000) Coup. De 10",
              "start_date": "1944-10-10",
              "end_date": "1950-03-01"
            },
            {
              "name": "Rio-Tonto Company Ltd, act. Ord. 5£, t. p. (n°s 325001 à 750000) Coup. de 10",
              "start_date": "1944-10-10",
              "end_date": "1951-11-02"
            },
            {
              "name": "Rio-Tinto Company, Limited, act. Ord. 5£, t.p. (n° 325001 à 750000), Toutes coup. Par 10",
              "start_date": "1944-10-10",
              "end_date": "3999-12-31"
            }
          ]
        },
        "23512": {
          "id": 23512,
          "sector_id": 82,
          "start_date": "1945-04-03",
          "end_date": "1950-03-01",
          "names": [
            {
              "name": "Rio-Tinto Company Ld, actions ordinaires de 5£, t.p. (n°325001 à 700000)coup.de 10",
              "start_date": "1918-04-02",
              "end_date": "1950-03-01"
            },
            {
              "name": "Rio-Tinto Company Ld, act. ord. 5£, t. p., Coup. de 10",
              "start_date": "1925-05-01",
              "end_date": "1950-03-01"
            },
            {
              "name": "Rio-Tinto Company Ld, act. ord. 5 £, t.p. (nos 325001 à 750000) Coup. de 10",
              "start_date": "1936-05-08",
              "end_date": "1950-03-01"
            },
            {
              "name": "Rio-Tonto Company Ld, act. Ord. 5£, t. p. (n°s 325001 à 750000) Coup. de 10",
              "start_date": "1944-10-10",
              "end_date": "1950-03-01"
            },
            {
              "name": "Rio-Tinto Company Ltd, act. Ord. 5 £, t. p. (n°s 325001 à 750000) Coup. De 10",
              "start_date": "1945-04-03",
              "end_date": "1950-03-01"
            },
            {
              "name": "Rio-Tonto Company Ltd, act. Ord. 5£, t. p. (n°s 325001 à 750000) Coup. de 10",
              "start_date": "1945-04-03",
              "end_date": "1951-11-02"
            },
            {
              "name": "Rio-Tinto Company, Limited, act. Ord. 5£, t.p. (n° 325001 à 750000), Toutes coup. Par 10",
              "start_date": "1945-04-03",
              "end_date": "3999-12-31"
            }
          ]
        },
        "24126": {
          "id": 24126,
          "sector_id": 311,
          "start_date": "1950-03-01",
          "end_date": "1951-11-02",
          "names": [
            {
              "name": "Rio-Tinto Company Ld, actions ordinaires de 5£, t.p. (n°325001 à 700000)coup.de 10",
              "start_date": "1918-04-02",
              "end_date": "1951-11-02"
            },
            {
              "name": "Rio-Tinto Company Ld, act. ord. 5£, t. p., Coup. de 10",
              "start_date": "1925-05-01",
              "end_date": "1951-11-02"
            },
            {
              "name": "Rio-Tinto Company Ld, act. ord. 5 £, t.p. (nos 325001 à 750000) Coup. de 10",
              "start_date": "1936-05-08",
              "end_date": "1951-11-02"
            },
            {
              "name": "Rio-Tonto Company Ld, act. Ord. 5£, t. p. (n°s 325001 à 750000) Coup. de 10",
              "start_date": "1944-10-10",
              "end_date": "1951-11-02"
            },
            {
              "name": "Rio-Tinto Company Ltd, act. Ord. 5 £, t. p. (n°s 325001 à 750000) Coup. De 10",
              "start_date": "1945-04-03",
              "end_date": "1951-11-02"
            },
            {
              "name": "Rio-Tonto Company Ltd, act. Ord. 5£, t. p. (n°s 325001 à 750000) Coup. de 10",
              "start_date": "1950-03-01",
              "end_date": "1951-11-02"
            },
            {
              "name": "Rio-Tinto Company, Limited, act. Ord. 5£, t.p. (n° 325001 à 750000), Toutes coup. Par 10",
              "start_date": "1950-03-01",
              "end_date": "3999-12-31"
            }
          ]
        },
        "24516": {
          "id": 24516,
          "sector_id": 235,
          "start_date": "1951-11-02",
          "end_date": "1955-07-21",
          "names": [
            {
              "name": "Rio-Tinto Company Ld, actions ordinaires de 5£, t.p. (n°325001 à 700000)coup.de 10",
              "start_date": "1918-04-02",
              "end_date": "1955-07-21"
            },
            {
              "name": "Rio-Tinto Company Ld, act. ord. 5£, t. p., Coup. de 10",
              "start_date": "1925-05-01",
              "end_date": "1955-07-21"
            },
            {
              "name": "Rio-Tinto Company Ld, act. ord. 5 £, t.p. (nos 325001 à 750000) Coup. de 10",
              "start_date": "1936-05-08",
              "end_date": "1955-07-21"
            },
            {
              "name": "Rio-Tonto Company Ld, act. Ord. 5£, t. p. (n°s 325001 à 750000) Coup. de 10",
              "start_date": "1944-10-10",
              "end_date": "1955-07-21"
            },
            {
              "name": "Rio-Tinto Company Ltd, act. Ord. 5 £, t. p. (n°s 325001 à 750000) Coup. De 10",
              "start_date": "1945-04-03",
              "end_date": "1955-07-21"
            },
            {
              "name": "Rio-Tonto Company Ltd, act. Ord. 5£, t. p. (n°s 325001 à 750000) Coup. de 10",
              "start_date": "1950-03-01",
              "end_date": "1955-07-21"
            },
            {
              "name": "Rio-Tinto Company, Limited, act. Ord. 5£, t.p. (n° 325001 à 750000), Toutes coup. Par 10",
              "start_date": "1951-11-02",
              "end_date": "3999-12-31"
            }
          ]
        }
      },
      "listings_stats": {
        "start_date": "1918-04-02"
      },
      "spot_prices_stats": {
        "start_date": "1918-06-17",
        "end_date": "1955-07-15"
      }
    }
  },
  "prices_count": 2116,
  "name": "Rio-Tonto Company Ld, act. Ord. 5£, t. p. (n°s 325001 à 750000) Coup. de 10"
}