{
  "id": 4693,
  "share_type": {
    "id": 2,
    "name": "Bond (Obligation)"
  },
  "issuers": [
    {
      "id": 2547,
      "start_date": "1902-08-29",
      "end_date": "3999-12-31",
      "name": "ROYAUME DE NORVEGE"
    }
  ],
  "types": [
    {
      "start_date": "1902-08-29",
      "end_date": "3999-12-31",
      "id": 1001,
      "name": "Obligation ordinaire ou classique",
      "stock_group": "B"
    }
  ],
  "is_mainstock": 0,
  "prices_period": [
    "1902-08-29",
    "1953-06-30"
  ],
  "stock_exchanges": {
    "1": {
      "id": 1,
      "name": "Paris (Official List)",
      "notations": {
        "5792": {
          "id": 5792,
          "sector_id": 74,
          "start_date": "1902-08-29",
          "end_date": "1914-08-03",
          "names": [
            {
              "name": "Norvège obl 3,5% 1902 Banque hypothéc, r. à 500fr",
              "start_date": "1902-08-29",
              "end_date": "1934-01-02"
            },
            {
              "name": "Norvège Banque Hypothécaire 3,5% 1902, Oblig. 360 c. ou 500 f.",
              "start_date": "1902-08-29",
              "end_date": "1944-10-10"
            },
            {
              "name": "Norvège. Banque Hyp. 3,5% 1902 Oblig. 360 cour. Ou 500 fr. [Jouiss. Anc. 7/31]",
              "start_date": "1902-08-29",
              "end_date": "1959-08-24"
            },
            {
              "name": "Norvège, banque Hyp 3,5% 1902 (app remb 1/1/47) obl 360 c ou 500 fr, jouiss anc",
              "start_date": "1902-08-29",
              "end_date": "3999-12-31"
            }
          ]
        },
        "6596": {
          "id": 6596,
          "sector_id": 74,
          "start_date": "1914-12-15",
          "end_date": "1940-06-11",
          "names": [
            {
              "name": "Norvège obl 3,5% 1902 Banque hypothéc, r. à 500fr",
              "start_date": "1902-08-29",
              "end_date": "1940-06-11"
            },
            {
              "name": "Norvège Banque Hypothécaire 3,5% 1902, Oblig. 360 c. ou 500 f.",
              "start_date": "1914-12-15",
              "end_date": "1944-10-10"
            },
            {
              "name": "Norvège. Banque Hyp. 3,5% 1902 Oblig. 360 cour. Ou 500 fr. [Jouiss. Anc. 7/31]",
              "start_date": "1914-12-15",
              "end_date": "1959-08-24"
            },
            {
              "name": "Norvège, banque Hyp 3,5% 1902 (app remb 1/1/47) obl 360 c ou 500 fr, jouiss anc",
              "start_date": "1914-12-15",
              "end_date": "3999-12-31"
            }
          ]
        },
        "22521": {
          "id": 22521,
          "sector_id": 74,
          "start_date": "1944-10-10",
          "end_date": "1959-08-24",
          "names": [
            {
              "name": "Norvège obl 3,5% 1902 Banque hypothéc, r. à 500fr",
              "start_date": "1902-08-29",
              "end_date": "1959-08-24"
            },
            {
              "name": "Norvège Banque Hypothécaire 3,5% 1902, Oblig. 360 c. ou 500 f.",
              "start_date": "1934-01-02",
              "end_date": "1959-08-24"
            },
            {
              "name": "Norvège. Banque Hyp. 3,5% 1902 Oblig. 360 cour. Ou 500 fr. [Jouiss. Anc. 7/31]",
              "start_date": "1944-10-10",
              "end_date": "1959-08-24"
            },
            {
              "name": "Norvège, banque Hyp 3,5% 1902 (app remb 1/1/47) obl 360 c ou 500 fr, jouiss anc",
              "start_date": "1944-10-10",
              "end_date": "3999-12-31"
            }
          ]
        }
      },
      "listings_stats": {
        "start_date": "1902-08-29"
      },
      "spot_prices_stats": {
        "start_date": "1902-08-29",
        "end_date": "1953-06-30"
      }
    }
  },
  "prices_count": 492,
  "name": "Norvège Banque Hypothécaire 3,5% 1902, Oblig. 360 c. ou 500 f."
}