{
  "id": 12276,
  "share_type": {
    "id": 2,
    "name": "Bond (Obligation)"
  },
  "issuers": [
    {
      "id": 4641,
      "start_date": "1946-03-15",
      "end_date": "3999-12-31",
      "name": "POTASSE ET ENGRAIS CHIMIQUES"
    }
  ],
  "types": [
    {
      "start_date": "1946-03-15",
      "end_date": "3999-12-31",
      "id": 1001,
      "name": "Obligation ordinaire ou classique",
      "stock_group": "B"
    }
  ],
  "is_mainstock": 0,
  "prices_period": [
    "1946-03-15",
    "1969-03-17"
  ],
  "stock_exchanges": {
    "1": {
      "id": 1,
      "name": "Paris (Official List)",
      "notations": {
        "22093": {
          "id": 22093,
          "sector_id": 247,
          "start_date": "1948-06-30",
          "end_date": "1962-01-02",
          "names": [
            {
              "name": "Potasse et Engrais Chimiques 3,75% 1945, remb. À 5000 fr. (Jce 1/5/45) 1946-75",
              "start_date": "1946-03-15",
              "end_date": "1962-01-02"
            },
            {
              "name": "Potasse et Engrais Chimiques 3,75% 1945, remb. À 5000 fr. 1946-75",
              "start_date": "1948-06-30",
              "end_date": "1962-01-02"
            },
            {
              "name": "Potasse et Engrais Chimiques 3,75% 1945 (Rach. Ou Tir.) 1946-75",
              "start_date": "1948-06-30",
              "end_date": "1969-03-31"
            },
            {
              "name": "Potasse et Engrais Chmiques 3,75% 1945 (Tir. 29/3/68) 1946-75",
              "start_date": "1948-06-30",
              "end_date": "3999-12-31"
            }
          ]
        },
        "28592": {
          "id": 28592,
          "sector_id": 519,
          "start_date": "1962-01-02",
          "end_date": "1963-03-04",
          "names": [
            {
              "name": "Potasse et Engrais Chimiques 3,75% 1945, remb. À 5000 fr. (Jce 1/5/45) 1946-75",
              "start_date": "1946-03-15",
              "end_date": "1963-03-04"
            },
            {
              "name": "Potasse et Engrais Chimiques 3,75% 1945, remb. À 5000 fr. 1946-75",
              "start_date": "1948-06-30",
              "end_date": "1963-03-04"
            },
            {
              "name": "Potasse et Engrais Chimiques 3,75% 1945 (Rach. Ou Tir.) 1946-75",
              "start_date": "1955-12-01",
              "end_date": "1969-03-31"
            },
            {
              "name": "Potasse et Engrais Chmiques 3,75% 1945 (Tir. 29/3/68) 1946-75",
              "start_date": "1962-01-02",
              "end_date": "3999-12-31"
            }
          ]
        },
        "31316": {
          "id": 31316,
          "sector_id": 247,
          "start_date": "1963-03-04",
          "end_date": "1969-03-31",
          "names": [
            {
              "name": "Potasse et Engrais Chimiques 3,75% 1945, remb. À 5000 fr. (Jce 1/5/45) 1946-75",
              "start_date": "1946-03-15",
              "end_date": "1969-03-31"
            },
            {
              "name": "Potasse et Engrais Chimiques 3,75% 1945, remb. À 5000 fr. 1946-75",
              "start_date": "1948-06-30",
              "end_date": "1969-03-31"
            },
            {
              "name": "Potasse et Engrais Chimiques 3,75% 1945 (Rach. Ou Tir.) 1946-75",
              "start_date": "1955-12-01",
              "end_date": "1969-03-31"
            },
            {
              "name": "Potasse et Engrais Chmiques 3,75% 1945 (Tir. 29/3/68) 1946-75",
              "start_date": "1963-03-04",
              "end_date": "3999-12-31"
            }
          ]
        },
        "142851": {
          "id": 142851,
          "sector_id": 138,
          "start_date": "1946-03-15",
          "end_date": "1948-06-30",
          "names": [
            {
              "name": "Potasse et Engrais Chimiques 3,75% 1945, remb. À 5000 fr. (Jce 1/5/45) 1946-75",
              "start_date": "1946-03-15",
              "end_date": "1948-06-30"
            },
            {
              "name": "Potasse et Engrais Chimiques 3,75% 1945, remb. À 5000 fr. 1946-75",
              "start_date": "1946-03-15",
              "end_date": "1955-12-01"
            },
            {
              "name": "Potasse et Engrais Chimiques 3,75% 1945 (Rach. Ou Tir.) 1946-75",
              "start_date": "1946-03-15",
              "end_date": "1969-03-31"
            },
            {
              "name": "Potasse et Engrais Chmiques 3,75% 1945 (Tir. 29/3/68) 1946-75",
              "start_date": "1946-03-15",
              "end_date": "3999-12-31"
            }
          ]
        }
      },
      "listings_stats": {
        "start_date": "1946-03-15"
      },
      "spot_prices_stats": {
        "start_date": "1946-03-15",
        "end_date": "1969-03-17"
      }
    }
  },
  "prices_count": 566,
  "name": "Potasse et Engrais Chimiques 3,75% 1945, remb. À 5000 fr. 1946-75"
}