{
  "id": 3050,
  "share_type": {
    "id": 1,
    "name": "Stock (Action)"
  },
  "issuers": [
    {
      "id": 2327,
      "start_date": "1882-03-31",
      "end_date": "3999-12-31",
      "name": "Société centrale des Briqueteries de Vaugirard"
    }
  ],
  "types": [
    {
      "start_date": "1882-03-31",
      "end_date": "3999-12-31",
      "id": 18,
      "name": "Action",
      "stock_group": "S"
    }
  ],
  "is_mainstock": 1,
  "prices_period": [
    "1882-03-31",
    "1921-11-30"
  ],
  "stock_exchanges": {
    "1": {
      "id": 1,
      "name": "Paris (Official List)",
      "notations": {
        "4149": {
          "id": 4149,
          "sector_id": 73,
          "start_date": "1882-04-03",
          "end_date": "1892-05-05",
          "names": [
            {
              "name": "Briqueterie de Vaugirard (Société Centrale des), act. 500f., t.p.",
              "start_date": "1882-04-03",
              "end_date": "1892-05-05"
            },
            {
              "name": "Briqueteries de Vaugirard (Société centrale des)",
              "start_date": "1882-04-03",
              "end_date": "1893-01-30"
            },
            {
              "name": "Briqueteries de Vaugirard (Soc. Centrale des), act. 500 fr., t.p.",
              "start_date": "1882-04-03",
              "end_date": "1895-12-08"
            },
            {
              "name": "Briqueteries de Vaugirard (Société centrale des)",
              "start_date": "1882-04-03",
              "end_date": "1895-12-09"
            },
            {
              "name": "Briqueteries de Vaugirard (Société centrale des), actions anciennes",
              "start_date": "1882-04-03",
              "end_date": "1920-01-01"
            },
            {
              "name": "Briqueteries de Vaugirard (Sté Centrale des) (en liq), act. 240 fr., t. p. (c. 47 attaché) (ex-2e répart.)",
              "start_date": "1882-04-03",
              "end_date": "3999-12-31"
            }
          ]
        },
        "5157": {
          "id": 5157,
          "sector_id": 73,
          "start_date": "1893-01-31",
          "end_date": "1895-12-09",
          "names": [
            {
              "name": "Briqueterie de Vaugirard (Société Centrale des), act. 500f., t.p.",
              "start_date": "1882-04-03",
              "end_date": "1895-12-09"
            },
            {
              "name": "Briqueteries de Vaugirard (Société centrale des)",
              "start_date": "1892-05-04",
              "end_date": "1895-12-09"
            },
            {
              "name": "Briqueteries de Vaugirard (Soc. Centrale des), act. 500 fr., t.p.",
              "start_date": "1893-01-30",
              "end_date": "1895-12-09"
            },
            {
              "name": "Briqueteries de Vaugirard (Société centrale des)",
              "start_date": "1893-01-31",
              "end_date": "1895-12-09"
            },
            {
              "name": "Briqueteries de Vaugirard (Société centrale des), actions anciennes",
              "start_date": "1893-01-31",
              "end_date": "1920-01-01"
            },
            {
              "name": "Briqueteries de Vaugirard (Sté Centrale des) (en liq), act. 240 fr., t. p. (c. 47 attaché) (ex-2e répart.)",
              "start_date": "1893-01-31",
              "end_date": "3999-12-31"
            }
          ]
        },
        "155617": {
          "id": 155617,
          "sector_id": 122,
          "start_date": "1895-12-09",
          "end_date": "1921-12-01",
          "names": [
            {
              "name": "Briqueterie de Vaugirard (Société Centrale des), act. 500f., t.p.",
              "start_date": "1882-04-03",
              "end_date": "1921-12-01"
            },
            {
              "name": "Briqueteries de Vaugirard (Société centrale des)",
              "start_date": "1892-05-04",
              "end_date": "1921-12-01"
            },
            {
              "name": "Briqueteries de Vaugirard (Soc. Centrale des), act. 500 fr., t.p.",
              "start_date": "1893-01-30",
              "end_date": "1921-12-01"
            },
            {
              "name": "Briqueteries de Vaugirard (Société centrale des)",
              "start_date": "1895-12-08",
              "end_date": "1921-12-01"
            },
            {
              "name": "Briqueteries de Vaugirard (Société centrale des), actions anciennes",
              "start_date": "1895-12-09",
              "end_date": "1921-12-01"
            },
            {
              "name": "Briqueteries de Vaugirard (Sté Centrale des) (en liq), act. 240 fr., t. p. (c. 47 attaché) (ex-2e répart.)",
              "start_date": "1895-12-09",
              "end_date": "3999-12-31"
            }
          ]
        },
        "155618": {
          "id": 155618,
          "sector_id": 122,
          "start_date": "1892-05-09",
          "end_date": "1893-01-30",
          "names": [
            {
              "name": "Briqueterie de Vaugirard (Société Centrale des), act. 500f., t.p.",
              "start_date": "1882-04-03",
              "end_date": "1893-01-30"
            },
            {
              "name": "Briqueteries de Vaugirard (Société centrale des)",
              "start_date": "1892-05-04",
              "end_date": "1893-01-30"
            },
            {
              "name": "Briqueteries de Vaugirard (Soc. Centrale des), act. 500 fr., t.p.",
              "start_date": "1892-05-09",
              "end_date": "1895-12-08"
            },
            {
              "name": "Briqueteries de Vaugirard (Société centrale des)",
              "start_date": "1892-05-09",
              "end_date": "1895-12-09"
            },
            {
              "name": "Briqueteries de Vaugirard (Société centrale des), actions anciennes",
              "start_date": "1892-05-09",
              "end_date": "1920-01-01"
            },
            {
              "name": "Briqueteries de Vaugirard (Sté Centrale des) (en liq), act. 240 fr., t. p. (c. 47 attaché) (ex-2e répart.)",
              "start_date": "1892-05-09",
              "end_date": "3999-12-31"
            }
          ]
        },
        "155619": {
          "id": 155619,
          "sector_id": 122,
          "start_date": "1895-12-09",
          "end_date": "1895-12-16",
          "names": [
            {
              "name": "Briqueterie de Vaugirard (Société Centrale des), act. 500f., t.p.",
              "start_date": "1882-04-03",
              "end_date": "1895-12-16"
            },
            {
              "name": "Briqueteries de Vaugirard (Société centrale des)",
              "start_date": "1892-05-04",
              "end_date": "1895-12-16"
            },
            {
              "name": "Briqueteries de Vaugirard (Soc. Centrale des), act. 500 fr., t.p.",
              "start_date": "1893-01-30",
              "end_date": "1895-12-16"
            },
            {
              "name": "Briqueteries de Vaugirard (Société centrale des)",
              "start_date": "1895-12-08",
              "end_date": "1895-12-16"
            },
            {
              "name": "Briqueteries de Vaugirard (Société centrale des), actions anciennes",
              "start_date": "1895-12-09",
              "end_date": "1920-01-01"
            },
            {
              "name": "Briqueteries de Vaugirard (Sté Centrale des) (en liq), act. 240 fr., t. p. (c. 47 attaché) (ex-2e répart.)",
              "start_date": "1895-12-09",
              "end_date": "3999-12-31"
            }
          ]
        }
      },
      "listings_stats": {
        "start_date": "1882-04-03"
      },
      "spot_prices_stats": {
        "start_date": "1882-04-03",
        "end_date": "1921-11-30"
      }
    },
    "2": {
      "id": 2,
      "name": "Paris OTC (Coulisse)",
      "notations": {
        "205542": {
          "id": 205542,
          "sector_id": 672,
          "start_date": "1882-03-31",
          "end_date": "1882-03-31",
          "names": [
            {
              "name": "Soc. Cie Briquet. Vaugirard.",
              "start_date": "1882-03-31",
              "end_date": "1882-03-31"
            }
          ]
        }
      },
      "listings_stats": {
        "start_date": "1882-03-31"
      },
      "spot_prices_stats": {
        "start_date": "1882-03-31",
        "end_date": "1882-03-31"
      }
    }
  },
  "prices_count": 650,
  "name": "Briqueterie de Vaugirard (Société Centrale des), act. 500f., t.p."
}