{
  "id": 2772,
  "share_type": {
    "id": 1,
    "name": "Stock (Action)"
  },
  "issuers": [
    {
      "id": 956,
      "start_date": "1878-11-04",
      "end_date": "3999-12-31",
      "name": "BANQUE DE LA REUNION"
    }
  ],
  "types": [
    {
      "start_date": "1878-11-04",
      "end_date": "3999-12-31",
      "id": 18,
      "name": "Action",
      "stock_group": "S"
    }
  ],
  "is_mainstock": 1,
  "prices_period": [
    "1904-12-31",
    "1957-02-28"
  ],
  "stock_exchanges": {
    "1": {
      "id": 1,
      "name": "Paris (Official List)",
      "notations": {
        "1679": {
          "id": 1679,
          "sector_id": 99,
          "start_date": "1902-05-26",
          "end_date": "1914-08-03",
          "names": [
            {
              "name": "Banque Coloniale de la Réunion act. 500fr., t.p.",
              "start_date": "1878-11-04",
              "end_date": "1914-08-03"
            },
            {
              "name": "Banque coloniale de la Réunion act. 500fr., t.p.(nom.)",
              "start_date": "1881-03-16",
              "end_date": "1914-12-15"
            },
            {
              "name": "Banque de la Réunion, act. 500 fr., t.p. (nom.)",
              "start_date": "1902-05-26",
              "end_date": "1927-10-02"
            },
            {
              "name": "Banque de la Réunion, act. 375 fr., t. p. (nom.)",
              "start_date": "1902-05-26",
              "end_date": "1927-10-03"
            },
            {
              "name": "Banque de la Réunion, act. 375 fr., t. p. (nom.), Act. estamp.",
              "start_date": "1902-05-26",
              "end_date": "1928-01-28"
            },
            {
              "name": "Banque de la Réunion, act. 375 fr., t.p. (nom.)",
              "start_date": "1902-05-26",
              "end_date": "1950-01-03"
            },
            {
              "name": "Banque de la Réunion, act. 375 fr. CFA, t. p. (nom.)",
              "start_date": "1902-05-26",
              "end_date": "1951-12-17"
            },
            {
              "name": "Banque de la Réunion, act. 1250 fr. CFA, t. p. (ex-dr., est. Du 17/12/1951) (nom.)",
              "start_date": "1902-05-26",
              "end_date": "1952-12-16"
            },
            {
              "name": "Banque de la Réunion, act. 1250 fr. CFA, t.p. (c. 1 att.)",
              "start_date": "1902-05-26",
              "end_date": "1955-12-01"
            },
            {
              "name": "Banque de la Réunion, act.",
              "start_date": "1902-05-26",
              "end_date": "3999-12-31"
            }
          ]
        },
        "3871": {
          "id": 3871,
          "sector_id": 73,
          "start_date": "1878-11-04",
          "end_date": "1902-05-26",
          "names": [
            {
              "name": "Banque Coloniale de la Réunion act. 500fr., t.p.",
              "start_date": "1878-11-04",
              "end_date": "1902-05-26"
            },
            {
              "name": "Banque coloniale de la Réunion act. 500fr., t.p.(nom.)",
              "start_date": "1878-11-04",
              "end_date": "1914-12-15"
            },
            {
              "name": "Banque de la Réunion, act. 500 fr., t.p. (nom.)",
              "start_date": "1878-11-04",
              "end_date": "1927-10-02"
            },
            {
              "name": "Banque de la Réunion, act. 375 fr., t. p. (nom.)",
              "start_date": "1878-11-04",
              "end_date": "1927-10-03"
            },
            {
              "name": "Banque de la Réunion, act. 375 fr., t. p. (nom.), Act. estamp.",
              "start_date": "1878-11-04",
              "end_date": "1928-01-28"
            },
            {
              "name": "Banque de la Réunion, act. 375 fr., t.p. (nom.)",
              "start_date": "1878-11-04",
              "end_date": "1950-01-03"
            },
            {
              "name": "Banque de la Réunion, act. 375 fr. CFA, t. p. (nom.)",
              "start_date": "1878-11-04",
              "end_date": "1951-12-17"
            },
            {
              "name": "Banque de la Réunion, act. 1250 fr. CFA, t. p. (ex-dr., est. Du 17/12/1951) (nom.)",
              "start_date": "1878-11-04",
              "end_date": "1952-12-16"
            },
            {
              "name": "Banque de la Réunion, act. 1250 fr. CFA, t.p. (c. 1 att.)",
              "start_date": "1878-11-04",
              "end_date": "1955-12-01"
            },
            {
              "name": "Banque de la Réunion, act.",
              "start_date": "1878-11-04",
              "end_date": "3999-12-31"
            }
          ]
        },
        "8788": {
          "id": 8788,
          "sector_id": 99,
          "start_date": "1914-12-15",
          "end_date": "1955-12-01",
          "names": [
            {
              "name": "Banque Coloniale de la Réunion act. 500fr., t.p.",
              "start_date": "1878-11-04",
              "end_date": "1955-12-01"
            },
            {
              "name": "Banque coloniale de la Réunion act. 500fr., t.p.(nom.)",
              "start_date": "1881-03-16",
              "end_date": "1955-12-01"
            },
            {
              "name": "Banque de la Réunion, act. 500 fr., t.p. (nom.)",
              "start_date": "1914-12-15",
              "end_date": "1955-12-01"
            },
            {
              "name": "Banque de la Réunion, act. 375 fr., t. p. (nom.)",
              "start_date": "1914-12-15",
              "end_date": "1955-12-01"
            },
            {
              "name": "Banque de la Réunion, act. 375 fr., t. p. (nom.), Act. estamp.",
              "start_date": "1914-12-15",
              "end_date": "1955-12-01"
            },
            {
              "name": "Banque de la Réunion, act. 375 fr., t.p. (nom.)",
              "start_date": "1914-12-15",
              "end_date": "1955-12-01"
            },
            {
              "name": "Banque de la Réunion, act. 375 fr. CFA, t. p. (nom.)",
              "start_date": "1914-12-15",
              "end_date": "1955-12-01"
            },
            {
              "name": "Banque de la Réunion, act. 1250 fr. CFA, t. p. (ex-dr., est. Du 17/12/1951) (nom.)",
              "start_date": "1914-12-15",
              "end_date": "1955-12-01"
            },
            {
              "name": "Banque de la Réunion, act. 1250 fr. CFA, t.p. (c. 1 att.)",
              "start_date": "1914-12-15",
              "end_date": "1955-12-01"
            },
            {
              "name": "Banque de la Réunion, act.",
              "start_date": "1914-12-15",
              "end_date": "3999-12-31"
            }
          ]
        },
        "25545": {
          "id": 25545,
          "sector_id": 379,
          "start_date": "1955-12-01",
          "end_date": "1957-03-06",
          "names": [
            {
              "name": "Banque Coloniale de la Réunion act. 500fr., t.p.",
              "start_date": "1878-11-04",
              "end_date": "1957-03-06"
            },
            {
              "name": "Banque coloniale de la Réunion act. 500fr., t.p.(nom.)",
              "start_date": "1881-03-16",
              "end_date": "1957-03-06"
            },
            {
              "name": "Banque de la Réunion, act. 500 fr., t.p. (nom.)",
              "start_date": "1914-12-15",
              "end_date": "1957-03-06"
            },
            {
              "name": "Banque de la Réunion, act. 375 fr., t. p. (nom.)",
              "start_date": "1927-10-02",
              "end_date": "1957-03-06"
            },
            {
              "name": "Banque de la Réunion, act. 375 fr., t. p. (nom.), Act. estamp.",
              "start_date": "1927-10-03",
              "end_date": "1957-03-06"
            },
            {
              "name": "Banque de la Réunion, act. 375 fr., t.p. (nom.)",
              "start_date": "1928-01-28",
              "end_date": "1957-03-06"
            },
            {
              "name": "Banque de la Réunion, act. 375 fr. CFA, t. p. (nom.)",
              "start_date": "1950-01-03",
              "end_date": "1957-03-06"
            },
            {
              "name": "Banque de la Réunion, act. 1250 fr. CFA, t. p. (ex-dr., est. Du 17/12/1951) (nom.)",
              "start_date": "1951-12-17",
              "end_date": "1957-03-06"
            },
            {
              "name": "Banque de la Réunion, act. 1250 fr. CFA, t.p. (c. 1 att.)",
              "start_date": "1952-12-16",
              "end_date": "1957-03-06"
            },
            {
              "name": "Banque de la Réunion, act.",
              "start_date": "1955-12-01",
              "end_date": "3999-12-31"
            }
          ]
        }
      },
      "listings_stats": {
        "start_date": "1878-11-04"
      },
      "spot_prices_stats": {
        "start_date": "1904-12-31",
        "end_date": "1957-02-28"
      }
    }
  },
  "prices_count": 709,
  "name": "Banque de la Réunion, act. 375 fr., t.p. (nom.)"
}