{
  "id": 3215,
  "share_type": {
    "id": 2,
    "name": "Bond (Obligation)"
  },
  "issuers": [
    {
      "id": 1603,
      "start_date": "1878-06-03",
      "end_date": "3999-12-31",
      "name": "Compagnie des chemins de fer de Bourges à Gien et d'Argent à Beaune-la-Rolande"
    }
  ],
  "types": [
    {
      "start_date": "1878-06-03",
      "end_date": "3999-12-31",
      "id": 1001,
      "name": "Obligation ordinaire ou classique",
      "stock_group": "B"
    }
  ],
  "is_mainstock": 0,
  "prices_period": [
    "1878-06-04",
    "1883-02-15"
  ],
  "stock_exchanges": {
    "1": {
      "id": 1,
      "name": "Paris (Official List)",
      "notations": {
        "4314": {
          "id": 4314,
          "sector_id": 70,
          "start_date": "1878-06-03",
          "end_date": "1891-07-27",
          "names": [
            {
              "name": "Bourges à Gien, 3%, remb.à 500f.",
              "start_date": "1878-06-03",
              "end_date": "3999-12-31"
            }
          ]
        }
      },
      "listings_stats": {
        "start_date": "1878-06-03"
      },
      "spot_prices_stats": {
        "start_date": "1878-06-04",
        "end_date": "1883-02-15"
      }
    }
  },
  "prices_count": 132,
  "name": "Bourges à Gien, 3%, remb.à 500f."
}