{
  "id": 20246,
  "share_type": {
    "id": 1,
    "name": "Stock (Action)"
  },
  "issuers": [
    {
      "id": 3797,
      "start_date": "1971-01-18",
      "end_date": "3999-12-31",
      "name": "Etablissements Economiques du Casino Guichard-Perrachon et Cie"
    }
  ],
  "types": [
    {
      "start_date": "1971-01-18",
      "end_date": "3999-12-31",
      "id": 11,
      "name": "Action ordinaire",
      "stock_group": "S"
    }
  ],
  "is_mainstock": 0,
  "prices_period": [
    null,
    null
  ],
  "stock_exchanges": {
    "1": {
      "id": 1,
      "name": "Paris (Official List)",
      "notations": {
        "150821": {
          "id": 150821,
          "sector_id": 491,
          "start_date": "1971-01-18",
          "end_date": "1971-01-18",
          "names": [
            {
              "name": "Casino (Etabl. Econ.du) (Guichard-Perrachon et Cie), act. - oblig.convertibles (cf.renseignements p.16)",
              "start_date": "1971-01-18",
              "end_date": "3999-12-31"
            }
          ]
        }
      },
      "listings_stats": {
        "start_date": "1971-01-18"
      }
    }
  },
  "prices_count": 0,
  "name": "Casino (Etabl. Econ.du) (Guichard-Perrachon et Cie), act. - oblig.convertibles (cf.renseignements p.16)"
}