{
  "id": 8233,
  "share_type": {
    "id": 2,
    "name": "Bond (Obligation)"
  },
  "issuers": [
    {
      "id": 5083,
      "start_date": "1927-07-28",
      "end_date": "3999-12-31",
      "name": "ETATS : HONGRIE"
    }
  ],
  "types": [
    {
      "start_date": "1927-07-28",
      "end_date": "3999-12-31",
      "id": 1001,
      "name": "Obligation ordinaire ou classique",
      "stock_group": "B"
    }
  ],
  "is_mainstock": 0,
  "prices_period": [
    "1927-07-28",
    "1931-06-01"
  ],
  "stock_exchanges": {
    "1": {
      "id": 1,
      "name": "Paris (Official List)",
      "notations": {
        "135680": {
          "id": 135680,
          "sector_id": 74,
          "start_date": "1927-07-28",
          "end_date": "1931-07-01",
          "names": [
            {
              "name": "Hongrie, bons du Trésor de Consolidation 6% 1922, T. A de 100 fr.",
              "start_date": "1927-07-28",
              "end_date": "1931-07-01"
            },
            {
              "name": "Hongrie Bons Trésor Cons. 6% 1922, remb. 1er juill. 1931 T. A de 100 fr.",
              "start_date": "1927-07-28",
              "end_date": "3999-12-31"
            }
          ]
        }
      },
      "listings_stats": {
        "start_date": "1927-07-28"
      },
      "spot_prices_stats": {
        "start_date": "1927-07-28",
        "end_date": "1931-06-01"
      }
    }
  },
  "prices_count": 77,
  "name": "Hongrie, bons du Trésor de Consolidation 6% 1922, T. A de 100 fr."
}