{
  "id": 104338,
  "share_type": {
    "id": 2,
    "name": "Bond (Obligation)"
  },
  "issuers": [
    {
      "id": 11908,
      "start_date": "1878-01-16",
      "end_date": "1887-12-31",
      "name": "Usine métallurgique d'Auteuil"
    }
  ],
  "types": [
    {
      "start_date": "1878-01-16",
      "end_date": "1888-06-01",
      "id": 1001,
      "name": "Obligation ordinaire ou classique",
      "stock_group": "B"
    }
  ],
  "is_mainstock": 0,
  "prices_period": [
    "1878-02-28",
    "1887-06-15"
  ],
  "stock_exchanges": {
    "2": {
      "id": 2,
      "name": "Paris OTC (Coulisse)",
      "notations": {
        "204706": {
          "id": 204706,
          "sector_id": 673,
          "start_date": "1878-01-16",
          "end_date": "1888-06-01",
          "names": [
            {
              "name": "Usine met. d'Auteuil, nov. 78",
              "start_date": "1878-01-16",
              "end_date": "1888-06-01"
            },
            {
              "name": "Usine met. d'Auteuil, nov. 78",
              "start_date": "1878-01-16",
              "end_date": "1888-06-01"
            }
          ]
        },
        "205407": {
          "id": 205407,
          "sector_id": 667,
          "start_date": "1878-02-28",
          "end_date": "1878-12-31",
          "names": [
            {
              "name": "Usine met. d'Auteuil, nov. 78",
              "start_date": "1878-01-16",
              "end_date": "1888-06-01"
            },
            {
              "name": "Usine met. d'Auteuil, nov. 78",
              "start_date": "1878-02-28",
              "end_date": "1878-12-31"
            }
          ]
        }
      },
      "listings_stats": {
        "start_date": "1878-01-16"
      },
      "spot_prices_stats": {
        "start_date": "1878-02-28",
        "end_date": "1887-06-15"
      }
    }
  },
  "prices_count": 255,
  "name": "Usine met. d'Auteuil, nov. 78"
}