{
  "id": 14748,
  "share_type": {
    "id": 1,
    "name": "Stock (Action)"
  },
  "issuers": [
    {
      "id": 4824,
      "start_date": "1954-04-05",
      "end_date": "3999-12-31",
      "name": "CHEMIN DE FER DE DAMAS-HAMAH ET PROLONGEMENTS (Anciennement SOCIÉTÉ OTTOMANE)"
    }
  ],
  "types": [
    {
      "start_date": "1954-04-05",
      "end_date": "3999-12-31",
      "id": 11,
      "name": "Action ordinaire",
      "stock_group": "S"
    }
  ],
  "is_mainstock": 0,
  "prices_period": [
    "1954-04-05",
    "1964-05-15"
  ],
  "stock_exchanges": {
    "1": {
      "id": 1,
      "name": "Paris (Official List)",
      "notations": {
        "26324": {
          "id": 26324,
          "sector_id": 419,
          "start_date": "1955-12-01",
          "end_date": "1961-12-30",
          "names": [
            {
              "name": "Damas-Hamah et Prolongements, act. 3000 fr., t. p. (n° 2893 à 60000) (c. 1 att.)",
              "start_date": "1954-04-05",
              "end_date": "1961-12-30"
            },
            {
              "name": "Chemins de fer de Damas-Hamah et Prolongement, act. (n°s 2893 à 60000) (c. 1 att.)",
              "start_date": "1955-12-01",
              "end_date": "1962-01-02"
            },
            {
              "name": "Chemins de Fer de Damas-Hamah et Prolongements, act. Amort. de 10 NF",
              "start_date": "1955-12-01",
              "end_date": "1964-06-01"
            },
            {
              "name": "Chemin de fer de Damas-Hamah et Prolongements, act. amort de 10F",
              "start_date": "1955-12-01",
              "end_date": "3999-12-31"
            }
          ]
        },
        "28179": {
          "id": 28179,
          "sector_id": 418,
          "start_date": "1961-12-30",
          "end_date": "1963-03-04",
          "names": [
            {
              "name": "Damas-Hamah et Prolongements, act. 3000 fr., t. p. (n° 2893 à 60000) (c. 1 att.)",
              "start_date": "1954-04-05",
              "end_date": "1963-03-04"
            },
            {
              "name": "Chemins de fer de Damas-Hamah et Prolongement, act. (n°s 2893 à 60000) (c. 1 att.)",
              "start_date": "1955-12-01",
              "end_date": "1963-03-04"
            },
            {
              "name": "Chemins de Fer de Damas-Hamah et Prolongements, act. Amort. de 10 NF",
              "start_date": "1961-12-30",
              "end_date": "1964-06-01"
            },
            {
              "name": "Chemin de fer de Damas-Hamah et Prolongements, act. amort de 10F",
              "start_date": "1961-12-30",
              "end_date": "3999-12-31"
            }
          ]
        },
        "30585": {
          "id": 30585,
          "sector_id": 353,
          "start_date": "1963-03-04",
          "end_date": "1964-06-01",
          "names": [
            {
              "name": "Damas-Hamah et Prolongements, act. 3000 fr., t. p. (n° 2893 à 60000) (c. 1 att.)",
              "start_date": "1954-04-05",
              "end_date": "1964-06-01"
            },
            {
              "name": "Chemins de fer de Damas-Hamah et Prolongement, act. (n°s 2893 à 60000) (c. 1 att.)",
              "start_date": "1955-12-01",
              "end_date": "1964-06-01"
            },
            {
              "name": "Chemins de Fer de Damas-Hamah et Prolongements, act. Amort. de 10 NF",
              "start_date": "1962-01-02",
              "end_date": "1964-06-01"
            },
            {
              "name": "Chemin de fer de Damas-Hamah et Prolongements, act. amort de 10F",
              "start_date": "1963-03-04",
              "end_date": "3999-12-31"
            }
          ]
        },
        "145323": {
          "id": 145323,
          "sector_id": 240,
          "start_date": "1954-04-05",
          "end_date": "1955-12-01",
          "names": [
            {
              "name": "Damas-Hamah et Prolongements, act. 3000 fr., t. p. (n° 2893 à 60000) (c. 1 att.)",
              "start_date": "1954-04-05",
              "end_date": "1955-12-01"
            },
            {
              "name": "Chemins de fer de Damas-Hamah et Prolongement, act. (n°s 2893 à 60000) (c. 1 att.)",
              "start_date": "1954-04-05",
              "end_date": "1962-01-02"
            },
            {
              "name": "Chemins de Fer de Damas-Hamah et Prolongements, act. Amort. de 10 NF",
              "start_date": "1954-04-05",
              "end_date": "1964-06-01"
            },
            {
              "name": "Chemin de fer de Damas-Hamah et Prolongements, act. amort de 10F",
              "start_date": "1954-04-05",
              "end_date": "3999-12-31"
            }
          ]
        }
      },
      "listings_stats": {
        "start_date": "1954-04-05"
      },
      "spot_prices_stats": {
        "start_date": "1954-04-05",
        "end_date": "1964-05-15"
      }
    }
  },
  "prices_count": 238,
  "name": "Chemins de Fer de Damas-Hamah et Prolongements, act. Amort. de 10 NF"
}