{
  "id": 22262,
  "share_type": {
    "id": 1,
    "name": "Stock (Action)"
  },
  "issuers": [
    {
      "id": 5922,
      "start_date": "1970-04-06",
      "end_date": "3999-12-31",
      "name": "Herzog, (Etabl.)"
    }
  ],
  "types": [
    {
      "start_date": "1970-04-06",
      "end_date": "3999-12-31",
      "id": 18,
      "name": "Action",
      "stock_group": "S"
    }
  ],
  "is_mainstock": 0,
  "prices_period": [
    "1970-04-15",
    "1971-06-15"
  ],
  "stock_exchanges": {
    "1": {
      "id": 1,
      "name": "Paris (Official List)",
      "notations": {
        "152822": {
          "id": 152822,
          "sector_id": 341,
          "start_date": "1970-04-06",
          "end_date": "1971-06-28",
          "names": [
            {
              "name": "C.O.M.A.P. (Sté Générale de Robinetterie.), act (c. 1 att) (titres nouv.)",
              "start_date": "1970-04-06",
              "end_date": "3999-12-31"
            }
          ]
        }
      },
      "listings_stats": {
        "start_date": "1970-04-06"
      },
      "spot_prices_stats": {
        "start_date": "1970-04-15",
        "end_date": "1971-06-15"
      }
    }
  },
  "prices_count": 30,
  "name": "C.O.M.A.P. (Sté Générale de Robinetterie.), act (c. 1 att) (titres nouv.)"
}