{
  "id": 16002,
  "share_type": {
    "id": 2,
    "name": "Bond (Obligation)"
  },
  "issuers": [
    {
      "id": 4446,
      "start_date": "1959-08-05",
      "end_date": "3999-12-31",
      "name": "UNION DE CONSOMMATEURS DE PRODUITS METALLURGIQUES ET INDUSTRIELS U.C.P.M.I."
    }
  ],
  "types": [
    {
      "start_date": "1959-08-05",
      "end_date": "3999-12-31",
      "id": 1001,
      "name": "Obligation ordinaire ou classique",
      "stock_group": "B"
    }
  ],
  "is_mainstock": 0,
  "prices_period": [
    "1959-08-05",
    "1976-12-31"
  ],
  "stock_exchanges": {
    "1": {
      "id": 1,
      "name": "Paris (Official List)",
      "notations": {
        "28513": {
          "id": 28513,
          "sector_id": 517,
          "start_date": "1962-01-02",
          "end_date": "1963-03-04",
          "names": [
            {
              "name": "Union consommateurs produits métallurgiques et industriels, 6% 1959, à prix de remb garanti, remb à 24000 fr min (c 1/4/60 att) 1960-77",
              "start_date": "1959-08-05",
              "end_date": "1965-03-08"
            },
            {
              "name": "Union de Consommateurs de Produits Métallurgiques et Industriels 6% 1959 à prix de remb. Garanti remb. À 240 F min. (Tir. 11/2/64) (Avis 34683) 1960-77",
              "start_date": "1962-01-02",
              "end_date": "1965-03-09"
            },
            {
              "name": "Union Centrales de Participations Métallurgiques et Industrielles (U.C.P.M.I.) 6% 1959 à prix de remb. Garanti remb. À 240 F min. (Tir. 11/2/64) (Avis 34683) 1960-77",
              "start_date": "1962-01-02",
              "end_date": "1972-10-20"
            },
            {
              "name": "Financière de l'Union Européenne (Cie) (ex-U.C.P.M.I) 6% 1959 à prix de remb garanti, remb à 240 F min (Tir 25/2/72) (Avis 34-683)…1960-77",
              "start_date": "1962-01-02",
              "end_date": "3999-12-31"
            }
          ]
        },
        "31234": {
          "id": 31234,
          "sector_id": 111,
          "start_date": "1963-03-04",
          "end_date": "1972-10-20",
          "names": [
            {
              "name": "Union consommateurs produits métallurgiques et industriels, 6% 1959, à prix de remb garanti, remb à 24000 fr min (c 1/4/60 att) 1960-77",
              "start_date": "1959-08-05",
              "end_date": "1972-10-20"
            },
            {
              "name": "Union de Consommateurs de Produits Métallurgiques et Industriels 6% 1959 à prix de remb. Garanti remb. À 240 F min. (Tir. 11/2/64) (Avis 34683) 1960-77",
              "start_date": "1963-03-04",
              "end_date": "1972-10-20"
            },
            {
              "name": "Union Centrales de Participations Métallurgiques et Industrielles (U.C.P.M.I.) 6% 1959 à prix de remb. Garanti remb. À 240 F min. (Tir. 11/2/64) (Avis 34683) 1960-77",
              "start_date": "1963-03-04",
              "end_date": "1972-10-20"
            },
            {
              "name": "Financière de l'Union Européenne (Cie) (ex-U.C.P.M.I) 6% 1959 à prix de remb garanti, remb à 240 F min (Tir 25/2/72) (Avis 34-683)…1960-77",
              "start_date": "1963-03-04",
              "end_date": "3999-12-31"
            }
          ]
        },
        "32375": {
          "id": 32375,
          "sector_id": 614,
          "start_date": "1972-10-20",
          "end_date": "3999-12-31",
          "names": [
            {
              "name": "Union consommateurs produits métallurgiques et industriels, 6% 1959, à prix de remb garanti, remb à 24000 fr min (c 1/4/60 att) 1960-77",
              "start_date": "1959-08-05",
              "end_date": "3999-12-31"
            },
            {
              "name": "Union de Consommateurs de Produits Métallurgiques et Industriels 6% 1959 à prix de remb. Garanti remb. À 240 F min. (Tir. 11/2/64) (Avis 34683) 1960-77",
              "start_date": "1965-03-08",
              "end_date": "3999-12-31"
            },
            {
              "name": "Union Centrales de Participations Métallurgiques et Industrielles (U.C.P.M.I.) 6% 1959 à prix de remb. Garanti remb. À 240 F min. (Tir. 11/2/64) (Avis 34683) 1960-77",
              "start_date": "1965-03-09",
              "end_date": "3999-12-31"
            },
            {
              "name": "Financière de l'Union Européenne (Cie) (ex-U.C.P.M.I) 6% 1959 à prix de remb garanti, remb à 240 F min (Tir 25/2/72) (Avis 34-683)…1960-77",
              "start_date": "1972-10-20",
              "end_date": "3999-12-31"
            }
          ]
        },
        "146577": {
          "id": 146577,
          "sector_id": 111,
          "start_date": "1959-08-05",
          "end_date": "1962-01-02",
          "names": [
            {
              "name": "Union consommateurs produits métallurgiques et industriels, 6% 1959, à prix de remb garanti, remb à 24000 fr min (c 1/4/60 att) 1960-77",
              "start_date": "1959-08-05",
              "end_date": "1965-03-08"
            },
            {
              "name": "Union de Consommateurs de Produits Métallurgiques et Industriels 6% 1959 à prix de remb. Garanti remb. À 240 F min. (Tir. 11/2/64) (Avis 34683) 1960-77",
              "start_date": "1959-08-05",
              "end_date": "1965-03-09"
            },
            {
              "name": "Union Centrales de Participations Métallurgiques et Industrielles (U.C.P.M.I.) 6% 1959 à prix de remb. Garanti remb. À 240 F min. (Tir. 11/2/64) (Avis 34683) 1960-77",
              "start_date": "1959-08-05",
              "end_date": "1972-10-20"
            },
            {
              "name": "Financière de l'Union Européenne (Cie) (ex-U.C.P.M.I) 6% 1959 à prix de remb garanti, remb à 240 F min (Tir 25/2/72) (Avis 34-683)…1960-77",
              "start_date": "1959-08-05",
              "end_date": "3999-12-31"
            }
          ]
        }
      },
      "listings_stats": {
        "start_date": "1959-08-05"
      },
      "spot_prices_stats": {
        "start_date": "1959-08-05",
        "end_date": "1976-12-31"
      }
    }
  },
  "prices_count": 420,
  "name": "Union de Consommateurs de Produits Métallurgiques et Industriels 6% 1959 à prix de remb. Garanti remb. À 240 F min. (Tir. 11/2/64) (Avis 34683) 1960-77"
}