{
  "id": 15641,
  "share_type": {
    "id": 2,
    "name": "Bond (Obligation)"
  },
  "issuers": [
    {
      "id": 4879,
      "start_date": "1957-12-30",
      "end_date": "3999-12-31",
      "name": "Haute Autorité de la Communauté Européenne du Charbon et de l'Acier"
    }
  ],
  "types": [
    {
      "start_date": "1957-12-30",
      "end_date": "3999-12-31",
      "id": 1001,
      "name": "Obligation ordinaire ou classique",
      "stock_group": "B"
    }
  ],
  "is_mainstock": 0,
  "prices_period": [
    "1957-12-30",
    "1958-12-01"
  ],
  "stock_exchanges": {
    "1": {
      "id": 1,
      "name": "Paris (Official List)",
      "notations": {
        "146216": {
          "id": 146216,
          "sector_id": 83,
          "start_date": "1957-12-30",
          "end_date": "1958-12-08",
          "names": [
            {
              "name": "Haute Autorité de la Communauté Européenne du Charbon et de l'Acier (C.E.C.A.), obl. 5,50%, 7e série (c. 1/4/58 att.) 1963-75 titres de 100 $ U. S.",
              "start_date": "1957-12-30",
              "end_date": "1958-12-08"
            },
            {
              "name": "Haute Autorité de la Communauté Européenne du Charbon et de l'Acier (C.E.C.A.), obl. 5,5% 7 éme série 1963-75 Titres de 100 $ U.S.",
              "start_date": "1957-12-30",
              "end_date": "3999-12-31"
            }
          ]
        }
      },
      "listings_stats": {
        "start_date": "1957-12-30"
      },
      "spot_prices_stats": {
        "start_date": "1957-12-30",
        "end_date": "1958-12-01"
      }
    }
  },
  "prices_count": 24,
  "name": "Haute Autorité de la Communauté Européenne du Charbon et de l'Acier (C.E.C.A.), obl. 5,5% 7 éme série 1963-75 Titres de 100 $ U.S."
}