{
  "id": 17183,
  "share_type": {
    "id": 1,
    "name": "Stock (Action)"
  },
  "issuers": [],
  "types": [
    {
      "start_date": "1966-06-09",
      "end_date": "3999-12-31",
      "id": 18,
      "name": "Action",
      "stock_group": "S"
    }
  ],
  "is_mainstock": 0,
  "prices_period": [
    null,
    null
  ],
  "stock_exchanges": {
    "1": {
      "id": 1,
      "name": "Paris (Official List)",
      "notations": {
        "147758": {
          "id": 147758,
          "sector_id": 311,
          "start_date": "1966-06-09",
          "end_date": "3999-12-31",
          "names": [
            {
              "name": "Mobile Oil Corporations, actions 15 $ US (nom.) (Livraison crédit SICOVAM) Gr. 2 (par 25 actions)",
              "start_date": "1966-06-09",
              "end_date": "3999-12-31"
            },
            {
              "name": "Mobil Corporation, actions 7.5 $ US (nom.) (Livraison crédit SICOVAM) (par 25 actions)",
              "start_date": "1966-06-09",
              "end_date": "3999-12-31"
            }
          ]
        }
      },
      "listings_stats": {
        "start_date": "1966-06-09"
      }
    }
  },
  "prices_count": 0,
  "name": "Mobil Corporation, actions 7.5 $ US (nom.) (Livraison crédit SICOVAM) (par 25 actions)"
}