{
  "id": 4760,
  "share_type": {
    "id": 2,
    "name": "Bond (Obligation)"
  },
  "issuers": [
    {
      "id": 3144,
      "start_date": "1899-06-24",
      "end_date": "3999-12-31",
      "name": "SOCIÉTÉ MÉTALLURGIQUE DE L'OURAL-VOLGA"
    }
  ],
  "types": [
    {
      "start_date": "1899-06-24",
      "end_date": "3999-12-31",
      "id": 1001,
      "name": "Obligation ordinaire ou classique",
      "stock_group": "B"
    }
  ],
  "is_mainstock": 0,
  "prices_period": [
    "1899-06-24",
    "1903-03-31"
  ],
  "stock_exchanges": {
    "1": {
      "id": 1,
      "name": "Paris (Official List)",
      "notations": {
        "1968": {
          "id": 1968,
          "sector_id": 111,
          "start_date": "1902-05-26",
          "end_date": "1903-04-03",
          "names": [
            {
              "name": "Oural Volga (Soc. Métallurgique de) 4%, r. à 500 fr.",
              "start_date": "1899-06-24",
              "end_date": "3999-12-31"
            }
          ]
        },
        "5859": {
          "id": 5859,
          "sector_id": 70,
          "start_date": "1899-06-24",
          "end_date": "1902-05-26",
          "names": [
            {
              "name": "Oural Volga (Soc. Métallurgique de) 4%, r. à 500 fr.",
              "start_date": "1899-06-24",
              "end_date": "3999-12-31"
            }
          ]
        }
      },
      "listings_stats": {
        "start_date": "1899-06-24"
      },
      "spot_prices_stats": {
        "start_date": "1899-06-24",
        "end_date": "1903-03-31"
      }
    }
  },
  "prices_count": 99,
  "name": "Oural Volga (Soc. Métallurgique de) 4%, r. à 500 fr."
}