{
  "id": 429,
  "share_type": {
    "id": 6,
    "name": "UNKNOWN"
  },
  "issuers": [
    {
      "id": 811,
      "start_date": "1845-03-19",
      "end_date": "3999-12-31",
      "name": "Gaz de l'Ouest"
    }
  ],
  "types": [
    {
      "start_date": "1845-03-19",
      "end_date": "3999-12-31",
      "id": 1,
      "name": "UNKNOWN",
      "stock_group": "U"
    }
  ],
  "is_mainstock": 0,
  "prices_period": [
    "1845-03-19",
    "1848-09-19"
  ],
  "stock_exchanges": {
    "1": {
      "id": 1,
      "name": "Paris (Official List)",
      "notations": {
        "596": {
          "id": 596,
          "sector_id": 576,
          "start_date": "1845-03-19",
          "end_date": "1845-05-09",
          "names": [
            {
              "name": "Gaz de l'Ouest",
              "start_date": "1845-03-19",
              "end_date": "3999-12-31"
            }
          ]
        },
        "629": {
          "id": 629,
          "sector_id": 576,
          "start_date": "1845-09-01",
          "end_date": "1845-10-16",
          "names": [
            {
              "name": "Gaz de l'Ouest",
              "start_date": "1845-03-19",
              "end_date": "3999-12-31"
            }
          ]
        },
        "752": {
          "id": 752,
          "sector_id": 576,
          "start_date": "1848-09-19",
          "end_date": "1849-03-14",
          "names": [
            {
              "name": "Gaz de l'Ouest",
              "start_date": "1845-03-19",
              "end_date": "3999-12-31"
            }
          ]
        },
        "753": {
          "id": 753,
          "sector_id": 576,
          "start_date": "1849-05-25",
          "end_date": "1849-08-28",
          "names": [
            {
              "name": "Gaz de l'Ouest",
              "start_date": "1845-03-19",
              "end_date": "3999-12-31"
            }
          ]
        }
      },
      "listings_stats": {
        "start_date": "1845-03-19"
      },
      "spot_prices_stats": {
        "start_date": "1845-03-19",
        "end_date": "1848-09-19"
      }
    }
  },
  "prices_count": 2,
  "name": "Gaz de l'Ouest"
}