{
  "id": 13358,
  "share_type": {
    "id": 1,
    "name": "Stock (Action)"
  },
  "issuers": [
    {
      "id": 4886,
      "start_date": "1949-07-27",
      "end_date": "3999-12-31",
      "name": "SOCIETE FRANÇAISE DU BAZINA"
    }
  ],
  "types": [
    {
      "start_date": "1949-07-27",
      "end_date": "3999-12-31",
      "id": 18,
      "name": "Action",
      "stock_group": "S"
    }
  ],
  "is_mainstock": 0,
  "prices_period": [
    "1949-07-27",
    "1952-06-30"
  ],
  "stock_exchanges": {
    "1": {
      "id": 1,
      "name": "Paris (Official List)",
      "notations": {
        "143933": {
          "id": 143933,
          "sector_id": 134,
          "start_date": "1949-07-27",
          "end_date": "1952-07-01",
          "names": [
            {
              "name": "Bazina (Sté Franç. Du) act. 150 fr., t.p. (n°s 1 à 8421 et 28001 à 140000) (ex-dr., ).",
              "start_date": "1949-07-27",
              "end_date": "1952-07-01"
            },
            {
              "name": "Boléo (Omnium Minier du) (ex-Française du Bazina) actions 150 fr., t. p. (n°s 1 à 8421 et 28001 à 1612600) (c. 16 att.)",
              "start_date": "1949-07-27",
              "end_date": "1952-07-01"
            },
            {
              "name": "Boléo (Omnium Minier du), act. Anc. 150 fr., t. p. (c. 16 att.)",
              "start_date": "1949-07-27",
              "end_date": "3999-12-31"
            }
          ]
        }
      },
      "listings_stats": {
        "start_date": "1949-07-27"
      },
      "spot_prices_stats": {
        "start_date": "1949-07-27",
        "end_date": "1952-06-30"
      }
    }
  },
  "prices_count": 88,
  "name": "Bazina (Sté Franç. Du) act. 150 fr., t.p. (n°s 1 à 8421 et 28001 à 140000) (ex-dr., )."
}