{
  "id": 22036,
  "share_type": {
    "id": 1,
    "name": "Stock (Action)"
  },
  "issuers": [
    {
      "id": 3593,
      "start_date": "1961-06-26",
      "end_date": "3999-12-31",
      "name": "Banque Des Produits Alimentaires et Coloniaux"
    }
  ],
  "types": [
    {
      "start_date": "1961-06-26",
      "end_date": "3999-12-31",
      "id": 27,
      "name": "Promesse d'action",
      "stock_group": "S"
    }
  ],
  "is_mainstock": 0,
  "prices_period": [
    "1961-06-26",
    "1962-06-01"
  ],
  "stock_exchanges": {
    "1": {
      "id": 1,
      "name": "Paris (Official List)",
      "notations": {
        "152597": {
          "id": 152597,
          "sector_id": 378,
          "start_date": "1961-06-26",
          "end_date": "1962-06-13",
          "names": [
            {
              "name": "Banque des Produits Alimentaires, promesses (Jce 1/7/61)",
              "start_date": "1961-06-26",
              "end_date": "1962-06-13"
            },
            {
              "name": "Banque des Produit Alimentaires, act. (n°s 20001 à 30000) (c. 12 et 13 spéc. att.)",
              "start_date": "1961-06-26",
              "end_date": "1962-06-13"
            },
            {
              "name": "Banque des Produits Alimentaires, act. (n°s 20001 à 40000) (ex-dr., ) (c. 3 spéc. att.)",
              "start_date": "1961-06-26",
              "end_date": "3999-12-31"
            }
          ]
        }
      },
      "listings_stats": {
        "start_date": "1961-06-26"
      },
      "spot_prices_stats": {
        "start_date": "1961-06-26",
        "end_date": "1962-06-01"
      }
    }
  },
  "prices_count": 24,
  "name": "Banque des Produit Alimentaires, act. (n°s 20001 à 30000) (c. 12 et 13 spéc. att.)"
}