{
  "id": 19612,
  "share_type": {
    "id": 2,
    "name": "Bond (Obligation)"
  },
  "issuers": [
    {
      "id": 1678,
      "start_date": "1967-05-02",
      "end_date": "3999-12-31",
      "name": "SOCIÉTÉ ANONYME DES FONDERIES, LAMINOIRS ET ATELIERS DE BIACHE-SAINT-VAAST (Ancienne Société Eschger, Ghesquière et Cie)"
    }
  ],
  "types": [
    {
      "start_date": "1967-05-02",
      "end_date": "3999-12-31",
      "id": 1001,
      "name": "Obligation ordinaire ou classique",
      "stock_group": "B"
    }
  ],
  "is_mainstock": 0,
  "prices_period": [
    "1967-05-10",
    "1973-08-31"
  ],
  "stock_exchanges": {
    "1": {
      "id": 1,
      "name": "Paris (Official List)",
      "notations": {
        "150187": {
          "id": 150187,
          "sector_id": 111,
          "start_date": "1967-05-02",
          "end_date": "1973-09-17",
          "names": [
            {
              "name": "Lille_Bourse Biache-Saint-Vaast (Fond.. Lamin. Et Ciment.) 5,25% (ex-4,25%) 1946 (Tir. 7/7/66). 1947-76",
              "start_date": "1967-05-02",
              "end_date": "1973-09-17"
            },
            {
              "name": "LILLE_BOURSE_Châtillon-Commentry-Biache (ex-Biache-St-Vaast) 5,25% (ex-4,25%) 1946 de 50 F (Tirage 2/7/73). 1947-76",
              "start_date": "1967-05-02",
              "end_date": "3999-12-31"
            }
          ]
        }
      },
      "listings_stats": {
        "start_date": "1967-05-02"
      },
      "spot_prices_stats": {
        "start_date": "1967-05-10",
        "end_date": "1973-08-31"
      }
    }
  },
  "prices_count": 153,
  "name": "Lille_Bourse Biache-Saint-Vaast (Fond.. Lamin. Et Ciment.) 5,25% (ex-4,25%) 1946 (Tir. 7/7/66). 1947-76"
}