{
  "id": 14188,
  "share_type": {
    "id": 1,
    "name": "Stock (Action)"
  },
  "issuers": [
    {
      "id": 3419,
      "start_date": "1951-10-01",
      "end_date": "3999-12-31",
      "name": "SOCIÉTÉ DES EAUX MINÉRALES D'ÉVIAN-LES-BAINS"
    }
  ],
  "types": [
    {
      "start_date": "1951-10-01",
      "end_date": "3999-12-31",
      "id": 11,
      "name": "Action ordinaire",
      "stock_group": "S"
    }
  ],
  "is_mainstock": 0,
  "prices_period": [
    "1951-10-01",
    "1972-10-02"
  ],
  "stock_exchanges": {
    "1": {
      "id": 1,
      "name": "Paris (Official List)",
      "notations": {
        "25942": {
          "id": 25942,
          "sector_id": 344,
          "start_date": "1955-12-01",
          "end_date": "1961-12-30",
          "names": [
            {
              "name": "Eaux Minérales d'Evian-les-Bains, actions 2500 fr., t.p. (c. 1 att.)",
              "start_date": "1951-10-01",
              "end_date": "1961-12-30"
            },
            {
              "name": "Eaux Minérales d'Evian-les-Bains, act. 5000 fr., t. p.",
              "start_date": "1954-09-01",
              "end_date": "1961-12-30"
            },
            {
              "name": "Evian-les-Bains (Sté des Eaux Minérales d'), act.",
              "start_date": "1955-12-01",
              "end_date": "1972-10-10"
            },
            {
              "name": "Evian-les-Bains (Eaux Minérales d') (en liq) act",
              "start_date": "1955-12-01",
              "end_date": "3999-12-31"
            }
          ]
        },
        "27998": {
          "id": 27998,
          "sector_id": 498,
          "start_date": "1961-12-30",
          "end_date": "1963-03-04",
          "names": [
            {
              "name": "Eaux Minérales d'Evian-les-Bains, actions 2500 fr., t.p. (c. 1 att.)",
              "start_date": "1951-10-01",
              "end_date": "1963-03-04"
            },
            {
              "name": "Eaux Minérales d'Evian-les-Bains, act. 5000 fr., t. p.",
              "start_date": "1954-09-01",
              "end_date": "1963-03-04"
            },
            {
              "name": "Evian-les-Bains (Sté des Eaux Minérales d'), act.",
              "start_date": "1955-12-01",
              "end_date": "1972-10-10"
            },
            {
              "name": "Evian-les-Bains (Eaux Minérales d') (en liq) act",
              "start_date": "1961-12-30",
              "end_date": "3999-12-31"
            }
          ]
        },
        "30117": {
          "id": 30117,
          "sector_id": 344,
          "start_date": "1963-03-04",
          "end_date": "1972-10-10",
          "names": [
            {
              "name": "Eaux Minérales d'Evian-les-Bains, actions 2500 fr., t.p. (c. 1 att.)",
              "start_date": "1951-10-01",
              "end_date": "1972-10-10"
            },
            {
              "name": "Eaux Minérales d'Evian-les-Bains, act. 5000 fr., t. p.",
              "start_date": "1954-09-01",
              "end_date": "1972-10-10"
            },
            {
              "name": "Evian-les-Bains (Sté des Eaux Minérales d'), act.",
              "start_date": "1955-12-01",
              "end_date": "1972-10-10"
            },
            {
              "name": "Evian-les-Bains (Eaux Minérales d') (en liq) act",
              "start_date": "1963-03-04",
              "end_date": "3999-12-31"
            }
          ]
        },
        "144763": {
          "id": 144763,
          "sector_id": 239,
          "start_date": "1951-10-01",
          "end_date": "1955-12-01",
          "names": [
            {
              "name": "Eaux Minérales d'Evian-les-Bains, actions 2500 fr., t.p. (c. 1 att.)",
              "start_date": "1951-10-01",
              "end_date": "1955-12-01"
            },
            {
              "name": "Eaux Minérales d'Evian-les-Bains, act. 5000 fr., t. p.",
              "start_date": "1951-10-01",
              "end_date": "1955-12-01"
            },
            {
              "name": "Evian-les-Bains (Sté des Eaux Minérales d'), act.",
              "start_date": "1951-10-01",
              "end_date": "1972-10-10"
            },
            {
              "name": "Evian-les-Bains (Eaux Minérales d') (en liq) act",
              "start_date": "1951-10-01",
              "end_date": "3999-12-31"
            }
          ]
        }
      },
      "listings_stats": {
        "start_date": "1951-10-01"
      },
      "spot_prices_stats": {
        "start_date": "1951-10-01",
        "end_date": "1972-10-02"
      }
    }
  },
  "prices_count": 538,
  "name": "Evian-les-Bains (Sté des Eaux Minérales d'), act."
}