{
  "id": 17887,
  "share_type": {
    "id": 2,
    "name": "Bond (Obligation)"
  },
  "issuers": [
    {
      "id": 595,
      "start_date": "1962-11-23",
      "end_date": "3999-12-31",
      "name": "Compagnie Générale des Eaux"
    }
  ],
  "types": [
    {
      "start_date": "1962-11-23",
      "end_date": "3999-12-31",
      "id": 1001,
      "name": "Obligation ordinaire ou classique",
      "stock_group": "B"
    }
  ],
  "is_mainstock": 0,
  "prices_period": [
    "1962-11-23",
    "1976-12-31"
  ],
  "stock_exchanges": {
    "1": {
      "id": 1,
      "name": "Paris (Official List)",
      "notations": {
        "31457": {
          "id": 31457,
          "sector_id": 372,
          "start_date": "1963-03-04",
          "end_date": "3999-12-31",
          "names": [
            {
              "name": "Eaux (Cie Gle des), 5% r.à 220 NF(c.15/7/63 att.)1963-77",
              "start_date": "1962-11-23",
              "end_date": "3999-12-31"
            }
          ]
        },
        "148462": {
          "id": 148462,
          "sector_id": 446,
          "start_date": "1962-11-23",
          "end_date": "1963-03-04",
          "names": [
            {
              "name": "Eaux (Cie Gle des), 5% r.à 220 NF(c.15/7/63 att.)1963-77",
              "start_date": "1962-11-23",
              "end_date": "3999-12-31"
            }
          ]
        }
      },
      "listings_stats": {
        "start_date": "1962-11-23"
      },
      "spot_prices_stats": {
        "start_date": "1962-11-23",
        "end_date": "1976-12-31"
      }
    }
  },
  "prices_count": 340,
  "name": "Eaux (Cie Gle des), 5% r.à 220 NF(c.15/7/63 att.)1963-77"
}