{
  "id": 100665,
  "share_type": {
    "id": 4,
    "name": "Rights (Droits)"
  },
  "issuers": [
    {
      "id": 4317,
      "start_date": "1946-12-20",
      "end_date": "1948-03-10",
      "name": "SOCIETE COMMERCIALE DE L'OUEST AFRICAIN"
    }
  ],
  "types": [
    {
      "start_date": "1946-12-20",
      "end_date": "1948-03-10",
      "id": 502,
      "name": "Droit d'attribution",
      "stock_group": "R"
    }
  ],
  "is_mainstock": 0,
  "prices_period": [
    "1946-12-20",
    "1946-12-27"
  ],
  "stock_exchanges": {
    "1": {
      "id": 1,
      "name": "Paris (Official List)",
      "notations": {
        "200778": {
          "id": 200778,
          "sector_id": 658,
          "start_date": "1946-12-20",
          "end_date": "1948-03-11",
          "names": [
            {
              "name": "Ouest-Africain (Sté Comm. de l') (dr. et coup. 46). 1 action nouvelle pour 2 actions anciennes",
              "start_date": "1946-12-20",
              "end_date": "1948-03-11"
            }
          ]
        }
      },
      "listings_stats": {
        "start_date": "1946-12-20"
      },
      "spot_prices_stats": {
        "start_date": "1946-12-20",
        "end_date": "1946-12-27"
      }
    }
  },
  "prices_count": 1,
  "name": "Ouest-Africain (Sté Comm. de l') (dr. et coup. 46). 1 action nouvelle pour 2 actions anciennes"
}