{
  "id": 17919,
  "share_type": {
    "id": 2,
    "name": "Bond (Obligation)"
  },
  "issuers": [
    {
      "id": 4859,
      "start_date": "1963-02-13",
      "end_date": "3999-12-31",
      "name": "LA CELLULOSE DU PIN"
    }
  ],
  "types": [
    {
      "start_date": "1963-02-13",
      "end_date": "3999-12-31",
      "id": 1001,
      "name": "Obligation ordinaire ou classique",
      "stock_group": "B"
    }
  ],
  "is_mainstock": 0,
  "prices_period": [
    "1963-02-15",
    "1976-12-31"
  ],
  "stock_exchanges": {
    "1": {
      "id": 1,
      "name": "Paris (Official List)",
      "notations": {
        "30987": {
          "id": 30987,
          "sector_id": 367,
          "start_date": "1963-03-04",
          "end_date": "3999-12-31",
          "names": [
            {
              "name": "Cellulose du Pin (La) 5% 62, r. à 210F min. (c. 10/9/63 att.) 1963-80",
              "start_date": "1963-02-13",
              "end_date": "3999-12-31"
            }
          ]
        },
        "148494": {
          "id": 148494,
          "sector_id": 515,
          "start_date": "1963-02-13",
          "end_date": "1963-03-04",
          "names": [
            {
              "name": "Cellulose du Pin (La) 5% 62, r. à 210F min. (c. 10/9/63 att.) 1963-80",
              "start_date": "1963-02-13",
              "end_date": "3999-12-31"
            }
          ]
        }
      },
      "listings_stats": {
        "start_date": "1963-02-13"
      },
      "spot_prices_stats": {
        "start_date": "1963-02-15",
        "end_date": "1976-12-31"
      }
    }
  },
  "prices_count": 338,
  "name": "Cellulose du Pin (La) 5% 62, r. à 210F min. (c. 10/9/63 att.) 1963-80"
}