{
  "id": 19323,
  "share_type": {
    "id": 2,
    "name": "Bond (Obligation)"
  },
  "issuers": [
    {
      "id": 5975,
      "start_date": "1967-05-02",
      "end_date": "3999-12-31",
      "name": "Champex (Champenoise d'Expansion)"
    }
  ],
  "types": [
    {
      "start_date": "1967-05-02",
      "end_date": "3999-12-31",
      "id": 1001,
      "name": "Obligation ordinaire ou classique",
      "stock_group": "B"
    }
  ],
  "is_mainstock": 0,
  "prices_period": [
    "1967-05-02",
    "1976-12-31"
  ],
  "stock_exchanges": {
    "1": {
      "id": 1,
      "name": "Paris (Official List)",
      "notations": {
        "149898": {
          "id": 149898,
          "sector_id": 615,
          "start_date": "1967-05-02",
          "end_date": "3999-12-31",
          "names": [
            {
              "name": "Nancy_Bourse Champex (Champenoise d'Expansion) 5,75% 1965, remb. À 216 F 1967-80",
              "start_date": "1967-05-02",
              "end_date": "3999-12-31"
            }
          ]
        }
      },
      "listings_stats": {
        "start_date": "1967-05-02"
      },
      "spot_prices_stats": {
        "start_date": "1967-05-02",
        "end_date": "1976-12-31"
      }
    }
  },
  "prices_count": 233,
  "name": "Nancy_Bourse Champex (Champenoise d'Expansion) 5,75% 1965, remb. À 216 F 1967-80"
}