{
  "id": 15456,
  "share_type": {
    "id": 1,
    "name": "Stock (Action)"
  },
  "issuers": [
    {
      "id": 5197,
      "start_date": "1957-12-23",
      "end_date": "3999-12-31",
      "name": "SOCIÉTÉ DES HAUTS-FOURNEAUX ET FONDERIES DE PONT-A-MOUSSON"
    }
  ],
  "types": [
    {
      "start_date": "1957-12-23",
      "end_date": "3999-12-31",
      "id": 18,
      "name": "Action",
      "stock_group": "S"
    }
  ],
  "is_mainstock": 0,
  "prices_period": [
    "1957-12-26",
    "1958-06-02"
  ],
  "stock_exchanges": {
    "1": {
      "id": 1,
      "name": "Paris (Official List)",
      "notations": {
        "146031": {
          "id": 146031,
          "sector_id": 383,
          "start_date": "1957-12-23",
          "end_date": "1958-06-05",
          "names": [
            {
              "name": "Pont-à-Mousson (Cie de), act. (n° 500001 à 750000) (c. 27 att.)",
              "start_date": "1957-12-23",
              "end_date": "3999-12-31"
            }
          ]
        }
      },
      "listings_stats": {
        "start_date": "1957-12-23"
      },
      "spot_prices_stats": {
        "start_date": "1957-12-26",
        "end_date": "1958-06-02"
      }
    }
  },
  "prices_count": 11,
  "name": "Pont-à-Mousson (Cie de), act. (n° 500001 à 750000) (c. 27 att.)"
}