{
  "id": 17900,
  "share_type": {
    "id": 1,
    "name": "Stock (Action)"
  },
  "issuers": [
    {
      "id": 3841,
      "start_date": "1963-01-15",
      "end_date": "3999-12-31",
      "name": "ETABLISSEMENTS PERNOD (Maisons Pernod fils, Hémard et Pernod père et fils réunies)"
    }
  ],
  "types": [
    {
      "start_date": "1963-01-15",
      "end_date": "3999-12-31",
      "id": 18,
      "name": "Action",
      "stock_group": "S"
    }
  ],
  "is_mainstock": 0,
  "prices_period": [
    "1963-01-15",
    "1963-05-31"
  ],
  "stock_exchanges": {
    "1": {
      "id": 1,
      "name": "Paris (Official List)",
      "notations": {
        "29785": {
          "id": 29785,
          "sector_id": 492,
          "start_date": "1963-03-04",
          "end_date": "1963-06-11",
          "names": [
            {
              "name": "Pernod, Act. (nos 354376 à 472500) (c. 13 att.)",
              "start_date": "1963-01-15",
              "end_date": "3999-12-31"
            }
          ]
        },
        "148475": {
          "id": 148475,
          "sector_id": 388,
          "start_date": "1963-01-15",
          "end_date": "1963-03-04",
          "names": [
            {
              "name": "Pernod, Act. (nos 354376 à 472500) (c. 13 att.)",
              "start_date": "1963-01-15",
              "end_date": "3999-12-31"
            }
          ]
        }
      },
      "listings_stats": {
        "start_date": "1963-01-15"
      },
      "spot_prices_stats": {
        "start_date": "1963-01-15",
        "end_date": "1963-05-31"
      }
    }
  },
  "prices_count": 12,
  "name": "Pernod, Act. (nos 354376 à 472500) (c. 13 att.)"
}