{
  "id": 6992,
  "share_type": {
    "id": 1,
    "name": "Stock (Action)"
  },
  "issuers": [
    {
      "id": 4912,
      "start_date": "1912-08-01",
      "end_date": "3999-12-31",
      "name": "SOCIÉTÉ FONCIERE DE L'ARGENTINE"
    }
  ],
  "types": [
    {
      "start_date": "1913-04-30",
      "end_date": "3999-12-31",
      "id": 18,
      "name": "Action",
      "stock_group": "S"
    }
  ],
  "is_mainstock": 1,
  "prices_period": [
    "1913-04-30",
    "1923-09-17"
  ],
  "stock_exchanges": {
    "1": {
      "id": 1,
      "name": "Paris (Official List)",
      "notations": {
        "33862": {
          "id": 33862,
          "sector_id": 99,
          "start_date": "1920-01-02",
          "end_date": "1923-10-01",
          "names": [
            {
              "name": "Société Foncière de l'Argentine, act. 500 francs, tout payé (coupon 1 attaché)",
              "start_date": "1892-05-05",
              "end_date": "1923-10-01"
            },
            {
              "name": "Foncière de l'Argentine (Sté), act. 500 fr., t. p.",
              "start_date": "1920-01-02",
              "end_date": "3999-12-31"
            }
          ]
        },
        "155918": {
          "id": 155918,
          "sector_id": 170,
          "start_date": "1912-08-01",
          "end_date": "1920-01-02",
          "names": [
            {
              "name": "Société Foncière de l'Argentine, act. 500 francs, tout payé (coupon 1 attaché)",
              "start_date": "1892-05-05",
              "end_date": "1920-01-02"
            },
            {
              "name": "Foncière de l'Argentine (Sté), act. 500 fr., t. p.",
              "start_date": "1912-08-01",
              "end_date": "3999-12-31"
            }
          ]
        }
      },
      "listings_stats": {
        "start_date": "1912-08-01"
      },
      "spot_prices_stats": {
        "start_date": "1913-04-30",
        "end_date": "1923-09-17"
      }
    }
  },
  "prices_count": 134,
  "name": "Foncière de l'Argentine (Sté), act. 500 fr., t. p."
}