{
  "id": 20254,
  "share_type": {
    "id": 1,
    "name": "Stock (Action)"
  },
  "issuers": [
    {
      "id": 3734,
      "start_date": "1971-10-11",
      "end_date": "3999-12-31",
      "name": "SOCIETE NORMANDE D'ALIMENTATION"
    }
  ],
  "types": [
    {
      "start_date": "1971-10-11",
      "end_date": "3999-12-31",
      "id": 11,
      "name": "Action ordinaire",
      "stock_group": "S"
    }
  ],
  "is_mainstock": 0,
  "prices_period": [
    "1971-10-12",
    "1976-07-15"
  ],
  "stock_exchanges": {
    "1": {
      "id": 1,
      "name": "Paris (Official List)",
      "notations": {
        "150829": {
          "id": 150829,
          "sector_id": 491,
          "start_date": "1971-10-11",
          "end_date": "1976-08-02",
          "names": [
            {
              "name": "Nord-Ouest d'Alimentation, act.libérées du tiers (nos 124144 à 153531) (nom.) (Jce 1/1/71)",
              "start_date": "1971-10-11",
              "end_date": "3999-12-31"
            }
          ]
        }
      },
      "listings_stats": {
        "start_date": "1971-10-11"
      },
      "spot_prices_stats": {
        "start_date": "1971-10-12",
        "end_date": "1976-07-15"
      }
    }
  },
  "prices_count": 116,
  "name": "Nord-Ouest d'Alimentation, act.libérées du tiers (nos 124144 à 153531) (nom.) (Jce 1/1/71)"
}