{
  "id": 18949,
  "share_type": {
    "id": 1,
    "name": "Stock (Action)"
  },
  "issuers": [
    {
      "id": 4048,
      "start_date": "1967-05-02",
      "end_date": "3999-12-31",
      "name": "Entreprises Zublin-Perrière"
    }
  ],
  "types": [
    {
      "start_date": "1967-05-02",
      "end_date": "3999-12-31",
      "id": 18,
      "name": "Action",
      "stock_group": "S"
    }
  ],
  "is_mainstock": 0,
  "prices_period": [
    "1967-05-02",
    "1974-01-31"
  ],
  "stock_exchanges": {
    "1": {
      "id": 1,
      "name": "Paris (Official List)",
      "notations": {
        "149524": {
          "id": 149524,
          "sector_id": 338,
          "start_date": "1967-05-02",
          "end_date": "1974-02-11",
          "names": [
            {
              "name": "Nancy_Bourse Zublin-Perrière, act. (nom.)",
              "start_date": "1967-05-02",
              "end_date": "3999-12-31"
            }
          ]
        }
      },
      "listings_stats": {
        "start_date": "1967-05-02"
      },
      "spot_prices_stats": {
        "start_date": "1967-05-02",
        "end_date": "1974-01-31"
      }
    }
  },
  "prices_count": 162,
  "name": "Nancy_Bourse Zublin-Perrière, act. (nom.)"
}