{
  "id": 101827,
  "share_type": {
    "id": 4,
    "name": "Rights (Droits)"
  },
  "issuers": [
    {
      "id": 5267,
      "start_date": "1929-06-20",
      "end_date": "1929-07-04",
      "name": "COMPAGNIE DELMAS-VIELJEUX"
    }
  ],
  "types": [
    {
      "start_date": "1929-06-20",
      "end_date": "1929-07-04",
      "id": 501,
      "name": "Droit de souscription",
      "stock_group": "R"
    }
  ],
  "is_mainstock": 0,
  "prices_period": [
    "1929-06-21",
    "1929-06-21"
  ],
  "stock_exchanges": {
    "1": {
      "id": 1,
      "name": "Paris (Official List)",
      "notations": {
        "202009": {
          "id": 202009,
          "sector_id": 657,
          "start_date": "1929-06-20",
          "end_date": "1929-07-05",
          "names": [
            {
              "name": "Act. A. Cie Delmas Frères et Vieljeux (droit et coupon 17). Pour 8 act. A anc., 1 action A nouvelle émise à 600 francs.",
              "start_date": "1929-06-20",
              "end_date": "1929-07-05"
            }
          ]
        }
      },
      "listings_stats": {
        "start_date": "1929-06-20"
      },
      "spot_prices_stats": {
        "start_date": "1929-06-21",
        "end_date": "1929-06-21"
      }
    }
  },
  "prices_count": 1,
  "name": "Act. A. Cie Delmas Frères et Vieljeux (droit et coupon 17). Pour 8 act. A anc., 1 action A nouvelle émise à 600 francs."
}