{
  "id": 15418,
  "share_type": {
    "id": 2,
    "name": "Bond (Obligation)"
  },
  "issuers": [
    {
      "id": 100,
      "start_date": "1957-05-13",
      "end_date": "3999-12-31",
      "name": "RENTES FRANÇAISES"
    }
  ],
  "types": [
    {
      "start_date": "1957-05-13",
      "end_date": "3999-12-31",
      "id": 1001,
      "name": "Obligation ordinaire ou classique",
      "stock_group": "B"
    }
  ],
  "is_mainstock": 0,
  "prices_period": [
    "1957-05-13",
    "1967-03-31"
  ],
  "stock_exchanges": {
    "1": {
      "id": 1,
      "name": "Paris (Official List)",
      "notations": {
        "27405": {
          "id": 27405,
          "sector_id": 10,
          "start_date": "1960-01-04",
          "end_date": "1967-04-03",
          "names": [
            {
              "name": "Bons 5% 1957 à prime indexée, remb. à 110% minimum (c. 1/4/58 att.) de 10000 fr",
              "start_date": "1957-05-13",
              "end_date": "1967-04-03"
            },
            {
              "name": "Obligations du Trésor, Bons 5% 1957 à prix indexée, remb. à 110% minimum de 100 F",
              "start_date": "1960-01-04",
              "end_date": "3999-12-31"
            }
          ]
        },
        "145993": {
          "id": 145993,
          "sector_id": 196,
          "start_date": "1957-05-13",
          "end_date": "1960-01-04",
          "names": [
            {
              "name": "Bons 5% 1957 à prime indexée, remb. à 110% minimum (c. 1/4/58 att.) de 10000 fr",
              "start_date": "1957-05-13",
              "end_date": "1967-04-03"
            },
            {
              "name": "Obligations du Trésor, Bons 5% 1957 à prix indexée, remb. à 110% minimum de 100 F",
              "start_date": "1957-05-13",
              "end_date": "3999-12-31"
            }
          ]
        }
      },
      "listings_stats": {
        "start_date": "1957-05-13"
      },
      "spot_prices_stats": {
        "start_date": "1957-05-13",
        "end_date": "1967-03-31"
      }
    }
  },
  "prices_count": 303,
  "name": "Bons 5% 1957 à prime indexée, remb. à 110% minimum (c. 1/4/58 att.) de 10000 fr"
}