{
  "id": 103876,
  "share_type": {
    "id": 4,
    "name": "Rights (Droits)"
  },
  "issuers": [
    {
      "id": 2628,
      "start_date": "1921-01-11",
      "end_date": "1921-01-27",
      "name": "CIE DES TRAMWAYS DE L'EST PARISIEN"
    }
  ],
  "types": [
    {
      "start_date": "1921-01-11",
      "end_date": "1921-01-27",
      "id": 501,
      "name": "Droit de souscription",
      "stock_group": "R"
    }
  ],
  "is_mainstock": 0,
  "prices_period": [
    null,
    null
  ],
  "stock_exchanges": {
    "1": {
      "id": 1,
      "name": "Paris (Official List)",
      "notations": {
        "204058": {
          "id": 204058,
          "sector_id": 657,
          "start_date": "1921-01-11",
          "end_date": "1921-01-28",
          "names": [
            {
              "name": "Tramways de l'Est-Parisien. Action ord. (droit et coupon n°6). Rompus",
              "start_date": "1921-01-11",
              "end_date": "1921-01-28"
            }
          ]
        }
      },
      "listings_stats": {
        "start_date": "1921-01-11"
      }
    }
  },
  "prices_count": 0,
  "name": "Tramways de l'Est-Parisien. Action ord. (droit et coupon n°6). Rompus"
}