{
  "id": 19863,
  "share_type": {
    "id": 2,
    "name": "Bond (Obligation)"
  },
  "issuers": [
    {
      "id": 100,
      "start_date": "1968-01-16",
      "end_date": "3999-12-31",
      "name": "RENTES FRANÇAISES"
    }
  ],
  "types": [
    {
      "start_date": "1968-01-16",
      "end_date": "3999-12-31",
      "id": 1022,
      "name": "Emprunt",
      "stock_group": "B"
    }
  ],
  "is_mainstock": 0,
  "prices_period": [
    "1968-01-16",
    "1971-09-30"
  ],
  "stock_exchanges": {
    "1": {
      "id": 1,
      "name": "Paris (Official List)",
      "notations": {
        "150438": {
          "id": 150438,
          "sector_id": 10,
          "start_date": "1968-01-16",
          "end_date": "1971-10-01",
          "names": [
            {
              "name": "Emprunt National 5% 1956 à capital indexé. Obl. De 50 F liv.",
              "start_date": "1968-01-16",
              "end_date": "3999-12-31"
            }
          ]
        }
      },
      "listings_stats": {
        "start_date": "1968-01-16"
      },
      "spot_prices_stats": {
        "start_date": "1968-01-16",
        "end_date": "1971-09-30"
      }
    }
  },
  "prices_count": 90,
  "name": "Emprunt National 5% 1956 à capital indexé. Obl. De 50 F liv."
}