{
  "id": 18448,
  "share_type": {
    "id": 1,
    "name": "Stock (Action)"
  },
  "issuers": [
    {
      "id": 2493,
      "start_date": "1965-05-17",
      "end_date": "3999-12-31",
      "name": "STÉ MINIÈRE & MÉTALLURGIQUE DE PENARROYA"
    }
  ],
  "types": [
    {
      "start_date": "1965-05-17",
      "end_date": "3999-12-31",
      "id": 27,
      "name": "Promesse d'action",
      "stock_group": "S"
    }
  ],
  "is_mainstock": 0,
  "prices_period": [
    "1965-05-17",
    "1965-10-15"
  ],
  "stock_exchanges": {
    "1": {
      "id": 1,
      "name": "Paris (Official List)",
      "notations": {
        "149023": {
          "id": 149023,
          "sector_id": 348,
          "start_date": "1965-05-17",
          "end_date": "1965-10-26",
          "names": [
            {
              "name": "PENARROYA (Minière et Métallurgique de), Promesses (Jce 1/1/65)",
              "start_date": "1965-05-17",
              "end_date": "3999-12-31"
            }
          ]
        }
      },
      "listings_stats": {
        "start_date": "1965-05-17"
      },
      "spot_prices_stats": {
        "start_date": "1965-05-17",
        "end_date": "1965-10-15"
      }
    }
  },
  "prices_count": 13,
  "name": "PENARROYA (Minière et Métallurgique de), Promesses (Jce 1/1/65)"
}