{
  "id": 9985,
  "share_type": {
    "id": 2,
    "name": "Bond (Obligation)"
  },
  "issuers": [
    {
      "id": 2210,
      "start_date": "1932-02-06",
      "end_date": "3999-12-31",
      "name": "Chemin de fer de GRANDE CEINTURE DE PARIS"
    }
  ],
  "types": [
    {
      "start_date": "1932-02-06",
      "end_date": "3999-12-31",
      "id": 1001,
      "name": "Obligation ordinaire ou classique",
      "stock_group": "B"
    }
  ],
  "is_mainstock": 0,
  "prices_period": [
    "1932-02-06",
    "1948-04-30"
  ],
  "stock_exchanges": {
    "1": {
      "id": 1,
      "name": "Paris (Official List)",
      "notations": {
        "14379": {
          "id": 14379,
          "sector_id": 209,
          "start_date": "1936-05-11",
          "end_date": "1940-06-11",
          "names": [
            {
              "name": "GRANDE CEINTURE 4%, r. à 1000 f., t. 1921, tranc. A.[Intér. et amort. assurés par fonds commun à tous les grands réseaux et Trésor Public.]",
              "start_date": "1932-02-06",
              "end_date": "1940-06-11"
            },
            {
              "name": "Grande Ceinture, 4%, type 1921, tranche A, remb. à 1000 fr",
              "start_date": "1936-05-11",
              "end_date": "1940-10-14"
            },
            {
              "name": "Grande ceinture, 4%, type 1921, tr. A, r. à 1000 fr., de l'émis. à 1982",
              "start_date": "1936-05-11",
              "end_date": "3999-12-31"
            }
          ]
        },
        "19425": {
          "id": 19425,
          "sector_id": 209,
          "start_date": "1940-07-30",
          "end_date": "1948-05-18",
          "names": [
            {
              "name": "GRANDE CEINTURE 4%, r. à 1000 f., t. 1921, tranc. A.[Intér. et amort. assurés par fonds commun à tous les grands réseaux et Trésor Public.]",
              "start_date": "1932-02-06",
              "end_date": "1948-05-18"
            },
            {
              "name": "Grande Ceinture, 4%, type 1921, tranche A, remb. à 1000 fr",
              "start_date": "1936-05-11",
              "end_date": "1948-05-18"
            },
            {
              "name": "Grande ceinture, 4%, type 1921, tr. A, r. à 1000 fr., de l'émis. à 1982",
              "start_date": "1940-07-30",
              "end_date": "3999-12-31"
            }
          ]
        },
        "140560": {
          "id": 140560,
          "sector_id": 107,
          "start_date": "1932-02-06",
          "end_date": "1936-05-11",
          "names": [
            {
              "name": "GRANDE CEINTURE 4%, r. à 1000 f., t. 1921, tranc. A.[Intér. et amort. assurés par fonds commun à tous les grands réseaux et Trésor Public.]",
              "start_date": "1932-02-06",
              "end_date": "1936-05-11"
            },
            {
              "name": "Grande Ceinture, 4%, type 1921, tranche A, remb. à 1000 fr",
              "start_date": "1932-02-06",
              "end_date": "1940-10-14"
            },
            {
              "name": "Grande ceinture, 4%, type 1921, tr. A, r. à 1000 fr., de l'émis. à 1982",
              "start_date": "1932-02-06",
              "end_date": "3999-12-31"
            }
          ]
        }
      },
      "listings_stats": {
        "start_date": "1932-02-06"
      },
      "spot_prices_stats": {
        "start_date": "1932-02-06",
        "end_date": "1948-04-30"
      }
    }
  },
  "prices_count": 414,
  "name": "Grande ceinture, 4%, type 1921, tr. A, r. à 1000 fr., de l'émis. à 1982"
}