{
  "id": 10835,
  "share_type": {
    "id": 2,
    "name": "Bond (Obligation)"
  },
  "issuers": [
    {
      "id": 2669,
      "start_date": "1936-05-11",
      "end_date": "3999-12-31",
      "name": "ETAT SERBE"
    }
  ],
  "types": [
    {
      "start_date": "1936-05-11",
      "end_date": "3999-12-31",
      "id": 1001,
      "name": "Obligation ordinaire ou classique",
      "stock_group": "B"
    }
  ],
  "is_mainstock": 0,
  "prices_period": [
    "1936-05-15",
    "1937-12-31"
  ],
  "stock_exchanges": {
    "1": {
      "id": 1,
      "name": "Paris (Official List)",
      "notations": {
        "141410": {
          "id": 141410,
          "sector_id": 167,
          "start_date": "1936-05-11",
          "end_date": "1940-06-11",
          "names": [
            {
              "name": "Serbie 4% amortiss, 1895 (Monopoles 1er rang). oblig. de 500 francs. (Unités, coup. de 5 et de 10) (Consulter la liste des titres non livrables)",
              "start_date": "1936-05-11",
              "end_date": "3999-12-31"
            }
          ]
        }
      },
      "forward_prices_stats": {
        "start_date": "1936-05-15",
        "end_date": "1937-12-31"
      },
      "listings_stats": {
        "start_date": "1936-05-11"
      },
      "options_prices_stats": {
        "start_date": "1936-06-02",
        "end_date": "1937-12-31"
      }
    }
  },
  "prices_count": 254,
  "name": "Serbie 4% amortiss, 1895 (Monopoles 1er rang). oblig. de 500 francs. (Unités, coup. de 5 et de 10) (Consulter la liste des titres non livrables)"
}