{
  "id": 4718,
  "share_type": {
    "id": 2,
    "name": "Bond (Obligation)"
  },
  "issuers": [
    {
      "id": 100,
      "start_date": "1903-10-14",
      "end_date": "3999-12-31",
      "name": "RENTES FRANÇAISES"
    }
  ],
  "types": [
    {
      "start_date": "1903-10-14",
      "end_date": "3999-12-31",
      "id": 1001,
      "name": "Obligation ordinaire ou classique",
      "stock_group": "B"
    }
  ],
  "is_mainstock": 0,
  "prices_period": [
    "1903-10-14",
    "1907-01-31"
  ],
  "stock_exchanges": {
    "1": {
      "id": 1,
      "name": "Paris (Official List)",
      "notations": {
        "5817": {
          "id": 5817,
          "sector_id": 10,
          "start_date": "1903-10-14",
          "end_date": "1907-03-01",
          "names": [
            {
              "name": "Obligations du Trésor à court terme, Echéance mars 1907. C. de 500 fr.",
              "start_date": "1903-10-14",
              "end_date": "3999-12-31"
            }
          ]
        }
      },
      "listings_stats": {
        "start_date": "1903-10-14"
      },
      "spot_prices_stats": {
        "start_date": "1903-10-14",
        "end_date": "1907-01-31"
      }
    }
  },
  "prices_count": 54,
  "name": "Obligations du Trésor à court terme, Echéance mars 1907. C. de 500 fr."
}