{
  "id": 106245,
  "share_type": {
    "id": 1,
    "name": "Stock (Action)"
  },
  "issuers": [
    {
      "id": 2109,
      "start_date": "1960-02-01",
      "end_date": "3999-12-31",
      "name": "Le Nord, Compagnie d'assurances sur la vie et de prêts viagers"
    }
  ],
  "types": [
    {
      "start_date": "1960-02-01",
      "end_date": "3999-12-31",
      "id": 18,
      "name": "Action",
      "stock_group": "S"
    }
  ],
  "is_mainstock": 0,
  "prices_period": [
    "1960-02-09",
    "1962-01-31"
  ],
  "stock_exchanges": {
    "1": {
      "id": 1,
      "name": "Paris (Official List)",
      "notations": {
        "27714": {
          "id": 27714,
          "sector_id": 488,
          "start_date": "1962-01-02",
          "end_date": "1962-02-01",
          "names": [
            {
              "name": "Nord (le)(vie), act anc (nom)",
              "start_date": "1960-02-01",
              "end_date": "3999-12-31"
            }
          ]
        }
      },
      "listings_stats": {
        "start_date": "1962-01-02"
      },
      "spot_prices_stats": {
        "start_date": "1962-01-02",
        "end_date": "1962-01-31"
      }
    }
  },
  "prices_count": 4,
  "name": "Nord (le)(vie), act anc (nom)"
}