{
  "id": 8370,
  "share_type": {
    "id": 1,
    "name": "Stock (Action)"
  },
  "issuers": [
    {
      "id": 4100,
      "start_date": "1926-07-01",
      "end_date": "3999-12-31",
      "name": "ACIERIES DU NORD"
    }
  ],
  "types": [
    {
      "start_date": "1926-07-01",
      "end_date": "3999-12-31",
      "id": 18,
      "name": "Action",
      "stock_group": "S"
    }
  ],
  "is_mainstock": 1,
  "prices_period": [
    "1926-07-01",
    "1954-11-30"
  ],
  "stock_exchanges": {
    "1": {
      "id": 1,
      "name": "Paris (Official List)",
      "notations": {
        "50489": {
          "id": 50489,
          "sector_id": 104,
          "start_date": "1929-03-21",
          "end_date": "1941-03-19",
          "names": [
            {
              "name": "Aciéries du Nord, act. 100 fr., t. p.",
              "start_date": "1926-07-01",
              "end_date": "1941-03-19"
            },
            {
              "name": "Aciéries du Nord, act. 100 fr., t. p.",
              "start_date": "1929-03-20",
              "end_date": "1941-03-19"
            },
            {
              "name": "Aciéries du Nord, act. 100 fr., t. p. (ex-dr., )",
              "start_date": "1929-03-21",
              "end_date": "1948-08-31"
            },
            {
              "name": "Aciéries du Nord, act. 500 fr. t. p.",
              "start_date": "1929-03-21",
              "end_date": "1954-05-03"
            },
            {
              "name": "Aciéries du Nord, Act. anc. 500 fr., t. p.",
              "start_date": "1929-03-21",
              "end_date": "3999-12-31"
            }
          ]
        },
        "135817": {
          "id": 135817,
          "sector_id": 104,
          "start_date": "1926-07-01",
          "end_date": "1936-01-10",
          "names": [
            {
              "name": "Aciéries du Nord, act. 100 fr., t. p.",
              "start_date": "1926-07-01",
              "end_date": "1936-01-10"
            },
            {
              "name": "Aciéries du Nord, act. 100 fr., t. p.",
              "start_date": "1926-07-01",
              "end_date": "1941-03-19"
            },
            {
              "name": "Aciéries du Nord, act. 100 fr., t. p. (ex-dr., )",
              "start_date": "1926-07-01",
              "end_date": "1948-08-31"
            },
            {
              "name": "Aciéries du Nord, act. 500 fr. t. p.",
              "start_date": "1926-07-01",
              "end_date": "1954-05-03"
            },
            {
              "name": "Aciéries du Nord, Act. anc. 500 fr., t. p.",
              "start_date": "1926-07-01",
              "end_date": "3999-12-31"
            }
          ]
        },
        "200200": {
          "id": 200200,
          "sector_id": 104,
          "start_date": "1941-03-19",
          "end_date": "1954-12-15",
          "names": [
            {
              "name": "Aciéries du Nord, act. 100 fr., t. p.",
              "start_date": "1926-07-01",
              "end_date": "1954-12-15"
            },
            {
              "name": "Aciéries du Nord, act. 100 fr., t. p.",
              "start_date": "1929-03-20",
              "end_date": "1954-12-15"
            },
            {
              "name": "Aciéries du Nord, act. 100 fr., t. p. (ex-dr., )",
              "start_date": "1941-03-19",
              "end_date": "1954-12-15"
            },
            {
              "name": "Aciéries du Nord, act. 500 fr. t. p.",
              "start_date": "1941-03-19",
              "end_date": "1954-12-15"
            },
            {
              "name": "Aciéries du Nord, Act. anc. 500 fr., t. p.",
              "start_date": "1941-03-19",
              "end_date": "3999-12-31"
            }
          ]
        }
      },
      "listings_stats": {
        "start_date": "1926-07-01"
      },
      "spot_prices_stats": {
        "start_date": "1926-07-01",
        "end_date": "1954-11-30"
      }
    }
  },
  "prices_count": 814,
  "name": "Aciéries du Nord, act. 100 fr., t. p."
}