{
  "id": 12250,
  "share_type": {
    "id": 2,
    "name": "Bond (Obligation)"
  },
  "issuers": [
    {
      "id": 1332,
      "start_date": "1946-04-04",
      "end_date": "3999-12-31",
      "name": "Société nouvelle des Forges et Chantiers de la Méditerranée"
    }
  ],
  "types": [
    {
      "start_date": "1946-04-04",
      "end_date": "3999-12-31",
      "id": 1001,
      "name": "Obligation ordinaire ou classique",
      "stock_group": "B"
    }
  ],
  "is_mainstock": 0,
  "prices_period": [
    "1946-04-04",
    "1973-08-31"
  ],
  "stock_exchanges": {
    "1": {
      "id": 1,
      "name": "Paris (Official List)",
      "notations": {
        "26641": {
          "id": 26641,
          "sector_id": 364,
          "start_date": "1955-12-01",
          "end_date": "1962-01-02",
          "names": [
            {
              "name": "Forges et Chantiers de la Méditerranée 3,75% 1945, remb. À 5000 fr. (Jce 1/7/45) 1946-75",
              "start_date": "1946-04-04",
              "end_date": "1962-01-02"
            },
            {
              "name": "Méditerranée (Forges et Chantiers de la) 3,75% 1945 (Rach. Ou Tir.) 1946-75",
              "start_date": "1955-12-01",
              "end_date": "1973-09-17"
            },
            {
              "name": "Méditerranée (Forges et Chantiers de la) 3,75% 1945 de 50 F (Tir. 17/6/66). 1946-75",
              "start_date": "1955-12-01",
              "end_date": "3999-12-31"
            }
          ]
        },
        "28262": {
          "id": 28262,
          "sector_id": 513,
          "start_date": "1962-01-02",
          "end_date": "1963-03-04",
          "names": [
            {
              "name": "Forges et Chantiers de la Méditerranée 3,75% 1945, remb. À 5000 fr. (Jce 1/7/45) 1946-75",
              "start_date": "1946-04-04",
              "end_date": "1963-03-04"
            },
            {
              "name": "Méditerranée (Forges et Chantiers de la) 3,75% 1945 (Rach. Ou Tir.) 1946-75",
              "start_date": "1955-12-01",
              "end_date": "1973-09-17"
            },
            {
              "name": "Méditerranée (Forges et Chantiers de la) 3,75% 1945 de 50 F (Tir. 17/6/66). 1946-75",
              "start_date": "1962-01-02",
              "end_date": "3999-12-31"
            }
          ]
        },
        "30918": {
          "id": 30918,
          "sector_id": 364,
          "start_date": "1963-03-04",
          "end_date": "1973-09-17",
          "names": [
            {
              "name": "Forges et Chantiers de la Méditerranée 3,75% 1945, remb. À 5000 fr. (Jce 1/7/45) 1946-75",
              "start_date": "1946-04-04",
              "end_date": "1973-09-17"
            },
            {
              "name": "Méditerranée (Forges et Chantiers de la) 3,75% 1945 (Rach. Ou Tir.) 1946-75",
              "start_date": "1955-12-01",
              "end_date": "1973-09-17"
            },
            {
              "name": "Méditerranée (Forges et Chantiers de la) 3,75% 1945 de 50 F (Tir. 17/6/66). 1946-75",
              "start_date": "1963-03-04",
              "end_date": "3999-12-31"
            }
          ]
        },
        "142825": {
          "id": 142825,
          "sector_id": 111,
          "start_date": "1946-04-04",
          "end_date": "1955-12-01",
          "names": [
            {
              "name": "Forges et Chantiers de la Méditerranée 3,75% 1945, remb. À 5000 fr. (Jce 1/7/45) 1946-75",
              "start_date": "1946-04-04",
              "end_date": "1955-12-01"
            },
            {
              "name": "Méditerranée (Forges et Chantiers de la) 3,75% 1945 (Rach. Ou Tir.) 1946-75",
              "start_date": "1946-04-04",
              "end_date": "1973-09-17"
            },
            {
              "name": "Méditerranée (Forges et Chantiers de la) 3,75% 1945 de 50 F (Tir. 17/6/66). 1946-75",
              "start_date": "1946-04-04",
              "end_date": "3999-12-31"
            }
          ]
        }
      },
      "listings_stats": {
        "start_date": "1946-04-04"
      },
      "spot_prices_stats": {
        "start_date": "1946-04-04",
        "end_date": "1973-08-31"
      }
    }
  },
  "prices_count": 674,
  "name": "Méditerranée (Forges et Chantiers de la) 3,75% 1945 de 50 F (Tir. 17/6/66). 1946-75"
}