{
  "id": 105792,
  "share_type": {
    "id": 1,
    "name": "Stock (Action)"
  },
  "issuers": [
    {
      "id": 1641,
      "start_date": "1921-01-03",
      "end_date": "3999-12-31",
      "name": "SOCIETE DES MINES DE LENS"
    }
  ],
  "types": [
    {
      "start_date": "1921-01-03",
      "end_date": "3999-12-31",
      "id": 11,
      "name": "Action ordinaire",
      "stock_group": "S"
    }
  ],
  "is_mainstock": 0,
  "prices_period": [
    "1921-01-15",
    "1921-01-15"
  ],
  "stock_exchanges": {
    "1": {
      "id": 1,
      "name": "Paris (Official List)",
      "notations": {
        "206654": {
          "id": 206654,
          "sector_id": 103,
          "start_date": "1921-01-03",
          "end_date": "1921-01-19",
          "names": [
            {
              "name": "Mines de Lens (Sté Civile), act. (droit et c. 33 à 37 att.) (ex-répart., )",
              "start_date": "1921-01-03",
              "end_date": "3999-12-31"
            }
          ]
        }
      },
      "listings_stats": {
        "start_date": "1921-01-03"
      },
      "spot_prices_stats": {
        "start_date": "1921-01-15",
        "end_date": "1921-01-15"
      }
    }
  },
  "prices_count": 7,
  "name": "Mines de Lens (Sté Civile), act. (droit et c. 33 à 37 att.) (ex-répart., )"
}