{
  "id": 5198,
  "share_type": {
    "id": 1,
    "name": "Stock (Action)"
  },
  "issuers": [
    {
      "id": 1589,
      "start_date": "1903-06-10",
      "end_date": "3999-12-31",
      "name": "LA FONCIÈRE COMPAGNIE D'ASSURANCES CONTRE L'INCENDIE"
    }
  ],
  "types": [
    {
      "start_date": "1903-06-10",
      "end_date": "3999-12-31",
      "id": 18,
      "name": "Action",
      "stock_group": "S"
    }
  ],
  "is_mainstock": 0,
  "prices_period": [
    "1903-06-15",
    "1927-09-30"
  ],
  "stock_exchanges": {
    "1": {
      "id": 1,
      "name": "Paris (Official List)",
      "notations": {
        "7019": {
          "id": 7019,
          "sector_id": 96,
          "start_date": "1903-06-10",
          "end_date": "1914-08-03",
          "names": [
            {
              "name": "La Foncière (inc.), quarts d'actions libérées, libérées sous les réserves formulées à l'art. 11 des statuts",
              "start_date": "1903-06-10",
              "end_date": "3999-12-31"
            }
          ]
        },
        "8735": {
          "id": 8735,
          "sector_id": 96,
          "start_date": "1914-12-15",
          "end_date": "1928-11-02",
          "names": [
            {
              "name": "La Foncière (inc.), quarts d'actions libérées, libérées sous les réserves formulées à l'art. 11 des statuts",
              "start_date": "1903-06-10",
              "end_date": "3999-12-31"
            }
          ]
        }
      },
      "listings_stats": {
        "start_date": "1903-06-10"
      },
      "spot_prices_stats": {
        "start_date": "1903-06-15",
        "end_date": "1927-09-30"
      }
    }
  },
  "prices_count": 118,
  "name": "La Foncière (inc.), quarts d'actions libérées, libérées sous les réserves formulées à l'art. 11 des statuts"
}