{
  "id": 25255,
  "share_type": {
    "id": 2,
    "name": "Bond (Obligation)"
  },
  "issuers": [
    {
      "id": 461,
      "start_date": "1889-01-03",
      "end_date": "3999-12-31",
      "name": "ETATS : RUSSIE"
    }
  ],
  "types": [
    {
      "start_date": "1000-01-01",
      "end_date": "3999-12-31",
      "id": 1001,
      "name": "Obligation ordinaire ou classique",
      "stock_group": "B"
    }
  ],
  "is_mainstock": 0,
  "prices_period": [
    null,
    null
  ],
  "stock_exchanges": {
    "1": {
      "id": 1,
      "name": "Paris (Official List)",
      "notations": {
        "90255": {
          "id": 90255,
          "sector_id": 67,
          "start_date": "1889-01-03",
          "end_date": "1889-07-02",
          "names": [
            {
              "name": "Russe Consolidés 1 Série non lib",
              "start_date": "1889-01-03",
              "end_date": "3999-12-31"
            }
          ]
        }
      },
      "listings_stats": {
        "start_date": "1889-01-03"
      }
    }
  },
  "prices_count": 0,
  "name": "Russe Consolidés 1 Série non lib"
}