{
  "id": 11743,
  "share_type": {
    "id": 1,
    "name": "Stock (Action)"
  },
  "issuers": [
    {
      "id": 10874,
      "start_date": "1925-11-04",
      "end_date": "3999-12-31",
      "name": "AUTOMOBILES CHENARD ET WALKER"
    }
  ],
  "types": [
    {
      "start_date": "1942-10-27",
      "end_date": "3999-12-31",
      "id": 10,
      "name": "Action de capital",
      "stock_group": "S"
    }
  ],
  "is_mainstock": 0,
  "prices_period": [
    "1942-11-16",
    "1949-11-15"
  ],
  "stock_exchanges": {
    "1": {
      "id": 1,
      "name": "Paris (Official List)",
      "notations": {
        "142318": {
          "id": 142318,
          "sector_id": 104,
          "start_date": "1942-10-27",
          "end_date": "1949-11-30",
          "names": [
            {
              "name": "Chenard et Walker (Autom.), act. C 100 fr., t. p. (n°s 100001 à 171610)",
              "start_date": "1942-10-27",
              "end_date": "1949-11-30"
            },
            {
              "name": "Chenard et Walker (Autom.), act. C 200 fr., t. p. (n°s 100001 à 171610)",
              "start_date": "1942-10-27",
              "end_date": "3999-12-31"
            }
          ]
        }
      },
      "listings_stats": {
        "start_date": "1942-10-27"
      },
      "spot_prices_stats": {
        "start_date": "1942-11-16",
        "end_date": "1949-11-15"
      }
    }
  },
  "prices_count": 154,
  "name": "Chenard et Walker (Autom.), act. C 100 fr., t. p. (n°s 100001 à 171610)"
}