{
  "id": 105153,
  "share_type": {
    "id": 2,
    "name": "Bond (Obligation)"
  },
  "issuers": [
    {
      "id": 3341,
      "start_date": "1889-04-30",
      "end_date": "1889-05-15",
      "name": "Province de Santa-Fe"
    }
  ],
  "types": [
    {
      "start_date": "1889-04-30",
      "end_date": "1889-05-15",
      "id": 1001,
      "name": "Obligation ordinaire ou classique",
      "stock_group": "B"
    }
  ],
  "is_mainstock": 0,
  "prices_period": [
    "1889-04-30",
    "1889-05-15"
  ],
  "stock_exchanges": {
    "2": {
      "id": 2,
      "name": "Paris OTC (Coulisse)",
      "notations": {
        "205832": {
          "id": 205832,
          "sector_id": 662,
          "start_date": "1889-04-30",
          "end_date": "1889-05-15",
          "names": [
            {
              "name": "Santa-Fe (Pe de) Obl. 5%, liberee",
              "start_date": "1889-04-30",
              "end_date": "1889-05-15"
            }
          ]
        }
      },
      "listings_stats": {
        "start_date": "1889-04-30"
      },
      "spot_prices_stats": {
        "start_date": "1889-04-30",
        "end_date": "1889-05-15"
      }
    }
  },
  "prices_count": 2,
  "name": "Santa-Fe (Pe de) Obl. 5%, liberee"
}