{
  "id": 9471,
  "share_type": {
    "id": 2,
    "name": "Bond (Obligation)"
  },
  "issuers": [
    {
      "id": 100,
      "start_date": "1932-03-05",
      "end_date": "3999-12-31",
      "name": "RENTES FRANÇAISES"
    }
  ],
  "types": [
    {
      "start_date": "1932-03-05",
      "end_date": "3999-12-31",
      "id": 1001,
      "name": "Obligation ordinaire ou classique",
      "stock_group": "B"
    }
  ],
  "is_mainstock": 0,
  "prices_period": [
    "1932-03-05",
    "1941-10-31"
  ],
  "stock_exchanges": {
    "1": {
      "id": 1,
      "name": "Paris (Official List)",
      "notations": {
        "136918": {
          "id": 136918,
          "sector_id": 196,
          "start_date": "1932-03-05",
          "end_date": "1941-11-03",
          "names": [
            {
              "name": "Obligations du Trésor 4% 1932-1947 (1er semestre)(Voir Avis p. 23). Coup. 10000 fr.",
              "start_date": "1932-03-05",
              "end_date": "3999-12-31"
            }
          ]
        }
      },
      "listings_stats": {
        "start_date": "1932-03-05"
      },
      "spot_prices_stats": {
        "start_date": "1932-03-05",
        "end_date": "1941-10-31"
      }
    }
  },
  "prices_count": 233,
  "name": "Obligations du Trésor 4% 1932-1947 (1er semestre)(Voir Avis p. 23). Coup. 10000 fr."
}