{
  "id": 4342,
  "share_type": {
    "id": 2,
    "name": "Bond (Obligation)"
  },
  "issuers": [
    {
      "id": 2684,
      "start_date": "1895-04-22",
      "end_date": "3999-12-31",
      "name": "SUEDE"
    }
  ],
  "types": [
    {
      "start_date": "1895-04-22",
      "end_date": "3999-12-31",
      "id": 1001,
      "name": "Obligation ordinaire ou classique",
      "stock_group": "B"
    }
  ],
  "is_mainstock": 0,
  "prices_period": [
    "1895-04-24",
    "1927-03-15"
  ],
  "stock_exchanges": {
    "1": {
      "id": 1,
      "name": "Paris (Official List)",
      "notations": {
        "5441": {
          "id": 5441,
          "sector_id": 67,
          "start_date": "1895-04-22",
          "end_date": "1914-08-03",
          "names": [
            {
              "name": "Suède 1895, 3,5% (nég. Ch. fixe 25f20) obl. de 20 £ de capital",
              "start_date": "1895-04-22",
              "end_date": "1925-05-01"
            },
            {
              "name": "Suède 3,5% 1895 (négoc. ch. fixe 25 fr. 20) Oblig. 20 £ capital",
              "start_date": "1895-04-22",
              "end_date": "1930-03-31"
            },
            {
              "name": "Suède 3,5% 1895. Obl. 20 £ cap., remb. le 1er avril 1930. (nég. ch. fixe 25 fr. 20)",
              "start_date": "1895-04-22",
              "end_date": "3999-12-31"
            }
          ]
        },
        "6924": {
          "id": 6924,
          "sector_id": 67,
          "start_date": "1914-12-15",
          "end_date": "1925-05-01",
          "names": [
            {
              "name": "Suède 1895, 3,5% (nég. Ch. fixe 25f20) obl. de 20 £ de capital",
              "start_date": "1895-04-22",
              "end_date": "1925-05-01"
            },
            {
              "name": "Suède 3,5% 1895 (négoc. ch. fixe 25 fr. 20) Oblig. 20 £ capital",
              "start_date": "1914-12-15",
              "end_date": "1930-03-31"
            },
            {
              "name": "Suède 3,5% 1895. Obl. 20 £ cap., remb. le 1er avril 1930. (nég. ch. fixe 25 fr. 20)",
              "start_date": "1914-12-15",
              "end_date": "3999-12-31"
            }
          ]
        },
        "13456": {
          "id": 13456,
          "sector_id": 74,
          "start_date": "1925-05-01",
          "end_date": "1930-04-01",
          "names": [
            {
              "name": "Suède 1895, 3,5% (nég. Ch. fixe 25f20) obl. de 20 £ de capital",
              "start_date": "1895-04-22",
              "end_date": "1930-04-01"
            },
            {
              "name": "Suède 3,5% 1895 (négoc. ch. fixe 25 fr. 20) Oblig. 20 £ capital",
              "start_date": "1925-05-01",
              "end_date": "1930-04-01"
            },
            {
              "name": "Suède 3,5% 1895. Obl. 20 £ cap., remb. le 1er avril 1930. (nég. ch. fixe 25 fr. 20)",
              "start_date": "1925-05-01",
              "end_date": "3999-12-31"
            }
          ]
        }
      },
      "listings_stats": {
        "start_date": "1895-04-22"
      },
      "spot_prices_stats": {
        "start_date": "1895-04-24",
        "end_date": "1927-03-15"
      }
    }
  },
  "prices_count": 407,
  "name": "Suède 3,5% 1895 (négoc. ch. fixe 25 fr. 20) Oblig. 20 £ capital"
}