{
  "id": 7613,
  "share_type": {
    "id": 2,
    "name": "Bond (Obligation)"
  },
  "issuers": [
    {
      "id": 100,
      "start_date": "1925-04-02",
      "end_date": "3999-12-31",
      "name": "RENTES FRANÇAISES"
    }
  ],
  "types": [
    {
      "start_date": "1925-04-02",
      "end_date": "3999-12-31",
      "id": 1001,
      "name": "Obligation ordinaire ou classique",
      "stock_group": "B"
    }
  ],
  "is_mainstock": 0,
  "prices_period": [
    "1925-04-02",
    "1931-01-31"
  ],
  "stock_exchanges": {
    "1": {
      "id": 1,
      "name": "Paris (Official List)",
      "notations": {
        "15045": {
          "id": 15045,
          "sector_id": 196,
          "start_date": "1926-10-19",
          "end_date": "1929-03-27",
          "names": [
            {
              "name": "Obligations sexennales 5%, r. le 16 fév. 1931. (Voir Avis, page 23)",
              "start_date": "1925-04-02",
              "end_date": "3999-12-31"
            }
          ]
        },
        "15108": {
          "id": 15108,
          "sector_id": 10,
          "start_date": "1929-03-27",
          "end_date": "1929-06-03",
          "names": [
            {
              "name": "Obligations sexennales 5%, r. le 16 fév. 1931. (Voir Avis, page 23)",
              "start_date": "1925-04-02",
              "end_date": "3999-12-31"
            }
          ]
        },
        "15150": {
          "id": 15150,
          "sector_id": 196,
          "start_date": "1929-06-03",
          "end_date": "1931-02-16",
          "names": [
            {
              "name": "Obligations sexennales 5%, r. le 16 fév. 1931. (Voir Avis, page 23)",
              "start_date": "1925-04-02",
              "end_date": "3999-12-31"
            }
          ]
        },
        "34483": {
          "id": 34483,
          "sector_id": 10,
          "start_date": "1925-04-02",
          "end_date": "1926-10-19",
          "names": [
            {
              "name": "Obligations sexennales 5%, r. le 16 fév. 1931. (Voir Avis, page 23)",
              "start_date": "1925-04-02",
              "end_date": "3999-12-31"
            }
          ]
        }
      },
      "listings_stats": {
        "start_date": "1925-04-02"
      },
      "spot_prices_stats": {
        "start_date": "1925-04-02",
        "end_date": "1931-01-31"
      }
    }
  },
  "prices_count": 180,
  "name": "Obligations sexennales 5%, r. le 16 fév. 1931. (Voir Avis, page 23)"
}