{
  "id": 349,
  "share_type": {
    "id": 2,
    "name": "Bond (Obligation)"
  },
  "issuers": [
    {
      "id": 792,
      "start_date": "1844-05-20",
      "end_date": "3999-12-31",
      "name": "Compagnie d'Arcachon"
    }
  ],
  "types": [
    {
      "start_date": "1844-05-20",
      "end_date": "3999-12-31",
      "id": 1001,
      "name": "Obligation ordinaire ou classique",
      "stock_group": "B"
    }
  ],
  "is_mainstock": 0,
  "prices_period": [
    null,
    null
  ],
  "stock_exchanges": {
    "1": {
      "id": 1,
      "name": "Paris (Official List)",
      "notations": {
        "485": {
          "id": 485,
          "sector_id": 576,
          "start_date": "1844-05-20",
          "end_date": "1845-03-24",
          "names": [
            {
              "name": "Compagnie d'Arcachon, obl hyp de 1100 f",
              "start_date": "1844-05-20",
              "end_date": "3999-12-31"
            }
          ]
        }
      },
      "listings_stats": {
        "start_date": "1844-05-20"
      }
    }
  },
  "prices_count": 0,
  "name": "Compagnie d'Arcachon, obl hyp de 1100 f"
}