{
  "id": 13922,
  "share_type": {
    "id": 1,
    "name": "Stock (Action)"
  },
  "issuers": [
    {
      "id": 4127,
      "start_date": "1951-04-09",
      "end_date": "3999-12-31",
      "name": "COMPAGNIE INDUSTRIELLE DE MATERIEL DE TRANSPORT"
    }
  ],
  "types": [
    {
      "start_date": "1951-04-09",
      "end_date": "3999-12-31",
      "id": 11,
      "name": "Action ordinaire",
      "stock_group": "S"
    }
  ],
  "is_mainstock": 0,
  "prices_period": [
    "1951-05-31",
    "1964-03-16"
  ],
  "stock_exchanges": {
    "1": {
      "id": 1,
      "name": "Paris (Official List)",
      "notations": {
        "25886": {
          "id": 25886,
          "sector_id": 397,
          "start_date": "1955-12-01",
          "end_date": "1963-03-04",
          "names": [
            {
              "name": "Matériaux de Transport (Cie Ind. De), act. 2500 fr., t. p. (c. 25 att.)",
              "start_date": "1951-04-09",
              "end_date": "1963-03-04"
            },
            {
              "name": "Matériel de Transport (Cie Industrielle de), act.",
              "start_date": "1955-12-01",
              "end_date": "1963-03-04"
            },
            {
              "name": "Matériel de Transport (Cie Ind.), actions (n° 1 à 36575 et 36578 à 26790)(ex-dr.,",
              "start_date": "1955-12-01",
              "end_date": "1963-03-04"
            },
            {
              "name": "Matériel de Transport (Cie Ind.), act.anc.(n° 1 à 36575 et 36578 à 266790)(ex-dr.,",
              "start_date": "1955-12-01",
              "end_date": "1964-03-17"
            },
            {
              "name": "Matériel de Transport (Cie Indust.), Actions anc. (nos 1 à 36575 et 36578 à 266790)",
              "start_date": "1955-12-01",
              "end_date": "3999-12-31"
            }
          ]
        },
        "29981": {
          "id": 29981,
          "sector_id": 341,
          "start_date": "1963-03-04",
          "end_date": "1964-03-17",
          "names": [
            {
              "name": "Matériaux de Transport (Cie Ind. De), act. 2500 fr., t. p. (c. 25 att.)",
              "start_date": "1951-04-09",
              "end_date": "1964-03-17"
            },
            {
              "name": "Matériel de Transport (Cie Industrielle de), act.",
              "start_date": "1955-12-01",
              "end_date": "1964-03-17"
            },
            {
              "name": "Matériel de Transport (Cie Ind.), actions (n° 1 à 36575 et 36578 à 26790)(ex-dr.,",
              "start_date": "1962-11-25",
              "end_date": "1964-03-17"
            },
            {
              "name": "Matériel de Transport (Cie Ind.), act.anc.(n° 1 à 36575 et 36578 à 266790)(ex-dr.,",
              "start_date": "1962-11-26",
              "end_date": "1964-03-17"
            },
            {
              "name": "Matériel de Transport (Cie Indust.), Actions anc. (nos 1 à 36575 et 36578 à 266790)",
              "start_date": "1963-03-04",
              "end_date": "3999-12-31"
            }
          ]
        },
        "144497": {
          "id": 144497,
          "sector_id": 104,
          "start_date": "1951-04-09",
          "end_date": "1955-12-01",
          "names": [
            {
              "name": "Matériaux de Transport (Cie Ind. De), act. 2500 fr., t. p. (c. 25 att.)",
              "start_date": "1951-04-09",
              "end_date": "1955-12-01"
            },
            {
              "name": "Matériel de Transport (Cie Industrielle de), act.",
              "start_date": "1951-04-09",
              "end_date": "1962-11-25"
            },
            {
              "name": "Matériel de Transport (Cie Ind.), actions (n° 1 à 36575 et 36578 à 26790)(ex-dr.,",
              "start_date": "1951-04-09",
              "end_date": "1962-11-26"
            },
            {
              "name": "Matériel de Transport (Cie Ind.), act.anc.(n° 1 à 36575 et 36578 à 266790)(ex-dr.,",
              "start_date": "1951-04-09",
              "end_date": "1964-03-17"
            },
            {
              "name": "Matériel de Transport (Cie Indust.), Actions anc. (nos 1 à 36575 et 36578 à 266790)",
              "start_date": "1951-04-09",
              "end_date": "3999-12-31"
            }
          ]
        }
      },
      "listings_stats": {
        "start_date": "1951-04-09"
      },
      "spot_prices_stats": {
        "start_date": "1951-05-31",
        "end_date": "1964-03-16"
      }
    }
  },
  "prices_count": 326,
  "name": "Matériel de Transport (Cie Ind.), actions (n° 1 à 36575 et 36578 à 26790)(ex-dr.,"
}