{
  "id": 9889,
  "share_type": {
    "id": 2,
    "name": "Bond (Obligation)"
  },
  "issuers": [
    {
      "id": 3738,
      "start_date": "1931-04-07",
      "end_date": "3999-12-31",
      "name": "ENTREPOT DE GRENELLE (Primistères Parisiens)"
    }
  ],
  "types": [
    {
      "start_date": "1931-04-07",
      "end_date": "3999-12-31",
      "id": 1001,
      "name": "Obligation ordinaire ou classique",
      "stock_group": "B"
    }
  ],
  "is_mainstock": 0,
  "prices_period": [
    "1931-04-07",
    "1954-09-30"
  ],
  "stock_exchanges": {
    "1": {
      "id": 1,
      "name": "Paris (Official List)",
      "notations": {
        "20583": {
          "id": 20583,
          "sector_id": 183,
          "start_date": "1940-10-14",
          "end_date": "1950-01-03",
          "names": [
            {
              "name": "Entrepôt de Grenelle 5% 1930, remb. à 1000 fr.",
              "start_date": "1931-04-07",
              "end_date": "1950-01-03"
            },
            {
              "name": "Entrepôt de Grenelle 5% 1930, rembours. À 1000 fr. 1936-55",
              "start_date": "1940-10-14",
              "end_date": "3999-12-31"
            }
          ]
        },
        "23864": {
          "id": 23864,
          "sector_id": 283,
          "start_date": "1950-01-03",
          "end_date": "1954-10-01",
          "names": [
            {
              "name": "Entrepôt de Grenelle 5% 1930, remb. à 1000 fr.",
              "start_date": "1931-04-07",
              "end_date": "1954-10-01"
            },
            {
              "name": "Entrepôt de Grenelle 5% 1930, rembours. À 1000 fr. 1936-55",
              "start_date": "1940-10-14",
              "end_date": "3999-12-31"
            }
          ]
        },
        "140464": {
          "id": 140464,
          "sector_id": 183,
          "start_date": "1931-04-07",
          "end_date": "1940-06-11",
          "names": [
            {
              "name": "Entrepôt de Grenelle 5% 1930, remb. à 1000 fr.",
              "start_date": "1931-04-07",
              "end_date": "1940-10-14"
            },
            {
              "name": "Entrepôt de Grenelle 5% 1930, rembours. À 1000 fr. 1936-55",
              "start_date": "1931-04-07",
              "end_date": "3999-12-31"
            }
          ]
        }
      },
      "listings_stats": {
        "start_date": "1931-04-07"
      },
      "spot_prices_stats": {
        "start_date": "1931-04-07",
        "end_date": "1954-09-30"
      }
    }
  },
  "prices_count": 545,
  "name": "Entrepôt de Grenelle 5% 1930, remb. à 1000 fr."
}