{
  "id": 15428,
  "share_type": {
    "id": 2,
    "name": "Bond (Obligation)"
  },
  "issuers": [
    {
      "id": 566,
      "start_date": "1957-12-16",
      "end_date": "3999-12-31",
      "name": "Crédit Foncier de France"
    }
  ],
  "types": [
    {
      "start_date": "1957-12-16",
      "end_date": "3999-12-31",
      "id": 1001,
      "name": "Obligation ordinaire ou classique",
      "stock_group": "B"
    }
  ],
  "is_mainstock": 0,
  "prices_period": [
    "1957-12-16",
    "1975-10-31"
  ],
  "stock_exchanges": {
    "1": {
      "id": 1,
      "name": "Paris (Official List)",
      "notations": {
        "146003": {
          "id": 146003,
          "sector_id": 190,
          "start_date": "1957-12-16",
          "end_date": "1975-11-17",
          "names": [
            {
              "name": "Emprunt Foncier et Communal 6% nov. 1957, à lots (c. 15/11/58 att.) 1958-75",
              "start_date": "1957-12-16",
              "end_date": "3999-12-31"
            }
          ]
        }
      },
      "listings_stats": {
        "start_date": "1957-12-16"
      },
      "spot_prices_stats": {
        "start_date": "1957-12-16",
        "end_date": "1975-10-31"
      }
    }
  },
  "prices_count": 431,
  "name": "Emprunt Foncier et Communal 6% nov. 1957, à lots (c. 15/11/58 att.) 1958-75"
}