{
  "id": 101582,
  "share_type": {
    "id": 4,
    "name": "Rights (Droits)"
  },
  "issuers": [
    {
      "id": 1330,
      "start_date": "1942-10-19",
      "end_date": "1944-05-19",
      "name": "Société de Commentry-Fourchambault"
    }
  ],
  "types": [
    {
      "start_date": "1942-10-19",
      "end_date": "1944-05-19",
      "id": 501,
      "name": "Droit de souscription",
      "stock_group": "R"
    }
  ],
  "is_mainstock": 0,
  "prices_period": [
    "1942-10-19",
    "1943-05-31"
  ],
  "stock_exchanges": {
    "1": {
      "id": 1,
      "name": "Paris (Official List)",
      "notations": {
        "201732": {
          "id": 201732,
          "sector_id": 657,
          "start_date": "1942-10-19",
          "end_date": "1944-05-20",
          "names": [
            {
              "name": "Act. cap. et jouiss. Commentry-Fourchambault (coupon 94)",
              "start_date": "1942-10-19",
              "end_date": "1944-05-20"
            }
          ]
        }
      },
      "listings_stats": {
        "start_date": "1942-10-19"
      },
      "spot_prices_stats": {
        "start_date": "1942-10-19",
        "end_date": "1943-05-31"
      }
    }
  },
  "prices_count": 5,
  "name": "Act. cap. et jouiss. Commentry-Fourchambault (coupon 94)"
}