{
  "id": 8131,
  "share_type": {
    "id": 1,
    "name": "Stock (Action)"
  },
  "issuers": [
    {
      "id": 2390,
      "start_date": "1925-11-27",
      "end_date": "3999-12-31",
      "name": "Banca Commerciale Italiana"
    }
  ],
  "types": [
    {
      "start_date": "1925-11-27",
      "end_date": "3999-12-31",
      "id": 11,
      "name": "Action ordinaire",
      "stock_group": "S"
    }
  ],
  "is_mainstock": 0,
  "prices_period": [
    "1925-11-27",
    "1925-11-30"
  ],
  "stock_exchanges": {
    "1": {
      "id": 1,
      "name": "Paris (Official List)",
      "notations": {
        "135578": {
          "id": 135578,
          "sector_id": 123,
          "start_date": "1925-11-27",
          "end_date": "1925-12-01",
          "names": [
            {
              "name": "Banque Commerciale Italienne, act. 500 L., t. p. Coup. de 10 (non estampillées)",
              "start_date": "1925-11-27",
              "end_date": "3999-12-31"
            }
          ]
        }
      },
      "listings_stats": {
        "start_date": "1925-11-27"
      },
      "spot_prices_stats": {
        "start_date": "1925-11-27",
        "end_date": "1925-11-30"
      }
    }
  },
  "prices_count": 3,
  "name": "Banque Commerciale Italienne, act. 500 L., t. p. Coup. de 10 (non estampillées)"
}