{
  "id": 5688,
  "share_type": {
    "id": 2,
    "name": "Bond (Obligation)"
  },
  "issuers": [
    {
      "id": 762,
      "start_date": "1908-07-23",
      "end_date": "3999-12-31",
      "name": "COMPAGNIE GÉNÉRALE DES VOITURES A PARIS"
    }
  ],
  "types": [
    {
      "start_date": "1908-07-23",
      "end_date": "3999-12-31",
      "id": 1001,
      "name": "Obligation ordinaire ou classique",
      "stock_group": "B"
    }
  ],
  "is_mainstock": 0,
  "prices_period": [
    "1908-07-23",
    "1934-04-03"
  ],
  "stock_exchanges": {
    "1": {
      "id": 1,
      "name": "Paris (Official List)",
      "notations": {
        "8093": {
          "id": 8093,
          "sector_id": 112,
          "start_date": "1908-07-23",
          "end_date": "1914-08-03",
          "names": [
            {
              "name": "Voitures à Paris 4%, remb. à 500 fr",
              "start_date": "1908-07-23",
              "end_date": "3999-12-31"
            }
          ]
        },
        "10435": {
          "id": 10435,
          "sector_id": 112,
          "start_date": "1914-12-15",
          "end_date": "1934-05-01",
          "names": [
            {
              "name": "Voitures à Paris 4%, remb. à 500 fr",
              "start_date": "1908-07-23",
              "end_date": "3999-12-31"
            }
          ]
        }
      },
      "listings_stats": {
        "start_date": "1908-07-23"
      },
      "spot_prices_stats": {
        "start_date": "1908-07-23",
        "end_date": "1934-04-03"
      }
    }
  },
  "prices_count": 497,
  "name": "Voitures à Paris 4%, remb. à 500 fr"
}