{
  "id": 12489,
  "share_type": {
    "id": 1,
    "name": "Stock (Action)"
  },
  "issuers": [
    {
      "id": 3768,
      "start_date": "1947-08-11",
      "end_date": "3999-12-31",
      "name": "COMPAGNIE DES VIGNOBLES DE LA MEDITERRANEE"
    }
  ],
  "types": [
    {
      "start_date": "1947-08-11",
      "end_date": "3999-12-31",
      "id": 18,
      "name": "Action",
      "stock_group": "S"
    }
  ],
  "is_mainstock": 0,
  "prices_period": [
    "1947-08-18",
    "1947-11-28"
  ],
  "stock_exchanges": {
    "1": {
      "id": 1,
      "name": "Paris (Official List)",
      "notations": {
        "143064": {
          "id": 143064,
          "sector_id": 180,
          "start_date": "1947-08-11",
          "end_date": "1947-12-02",
          "names": [
            {
              "name": "Vignobles de la Méditerranée, act. 150 fr., t. p. (n°s 206001 à 401000)",
              "start_date": "1947-08-11",
              "end_date": "3999-12-31"
            }
          ]
        }
      },
      "listings_stats": {
        "start_date": "1947-08-11"
      },
      "spot_prices_stats": {
        "start_date": "1947-08-18",
        "end_date": "1947-11-28"
      }
    }
  },
  "prices_count": 9,
  "name": "Vignobles de la Méditerranée, act. 150 fr., t. p. (n°s 206001 à 401000)"
}