{
  "id": 6574,
  "share_type": {
    "id": 2,
    "name": "Bond (Obligation)"
  },
  "issuers": [
    {
      "id": 3456,
      "start_date": "1919-08-01",
      "end_date": "3999-12-31",
      "name": "STE DES EMBRANCHEMENTS DE CHEMINS DE FER"
    }
  ],
  "types": [
    {
      "start_date": "1919-08-01",
      "end_date": "3999-12-31",
      "id": 1001,
      "name": "Obligation ordinaire ou classique",
      "stock_group": "B"
    }
  ],
  "is_mainstock": 0,
  "prices_period": [
    null,
    null
  ],
  "stock_exchanges": {
    "1": {
      "id": 1,
      "name": "Paris (Official List)",
      "notations": {
        "10625": {
          "id": 10625,
          "sector_id": 144,
          "start_date": "1919-08-01",
          "end_date": "1923-03-27",
          "names": [
            {
              "name": "Embranchements de Ch.de fer 4,5% 1913, r.à 500fr., Obl.de Chemins de fer garanties par le Gouvernt Impérial de Russie, non est",
              "start_date": "1919-08-01",
              "end_date": "1923-03-27"
            },
            {
              "name": "Russie (Obl de Ch de fer gar par le Gouv Impérial) Embranchements de Chemins de fer 4,5% 1913 remb à 500 fr non estamp",
              "start_date": "1919-08-01",
              "end_date": "3999-12-31"
            }
          ]
        }
      },
      "listings_stats": {
        "start_date": "1919-08-01"
      }
    }
  },
  "prices_count": 0,
  "name": "Russie (Obl de Ch de fer gar par le Gouv Impérial) Embranchements de Chemins de fer 4,5% 1913 remb à 500 fr non estamp"
}