{
  "id": 10600,
  "share_type": {
    "id": 1,
    "name": "Stock (Action)"
  },
  "issuers": [
    {
      "id": 4503,
      "start_date": "1936-03-19",
      "end_date": "3999-12-31",
      "name": "COMPAGNIE MINIERE DU CONGO FRANÇAIS"
    }
  ],
  "types": [
    {
      "start_date": "1936-03-19",
      "end_date": "3999-12-31",
      "id": 20,
      "name": "Part de bénéfice (part bénéficiaire)",
      "stock_group": "S"
    }
  ],
  "is_mainstock": 0,
  "prices_period": [
    "1936-10-02",
    "1947-11-28"
  ],
  "stock_exchanges": {
    "1": {
      "id": 1,
      "name": "Paris (Official List)",
      "notations": {
        "141175": {
          "id": 141175,
          "sector_id": 134,
          "start_date": "1936-03-19",
          "end_date": "1947-12-10",
          "names": [
            {
              "name": "Minière du Congo Français, Parts bénéf. (nos 14001 à 18700)",
              "start_date": "1936-03-19",
              "end_date": "1947-12-10"
            },
            {
              "name": "Minière du Congo Français, Parts bénéf. (n°s 14001 à 18700) (c. 10 att.)",
              "start_date": "1936-03-19",
              "end_date": "3999-12-31"
            }
          ]
        }
      },
      "listings_stats": {
        "start_date": "1936-03-19"
      },
      "spot_prices_stats": {
        "start_date": "1936-10-02",
        "end_date": "1947-11-28"
      }
    }
  },
  "prices_count": 272,
  "name": "Minière du Congo Français, Parts bénéf. (nos 14001 à 18700)"
}