{
  "id": 3521,
  "share_type": {
    "id": 2,
    "name": "Bond (Obligation)"
  },
  "issuers": [
    {
      "id": 2571,
      "start_date": "1888-01-12",
      "end_date": "3999-12-31",
      "name": "BANQUE DE CREDIT FONCIER ET AGRICOLE DE SANTA-FE (RÉPUBLIQUE ARGENTINE)"
    }
  ],
  "types": [
    {
      "start_date": "1888-01-12",
      "end_date": "3999-12-31",
      "id": 1001,
      "name": "Obligation ordinaire ou classique",
      "stock_group": "B"
    }
  ],
  "is_mainstock": 0,
  "prices_period": [
    "1888-01-12",
    "1891-06-30"
  ],
  "stock_exchanges": {
    "1": {
      "id": 1,
      "name": "Paris (Official List)",
      "notations": {
        "4620": {
          "id": 4620,
          "sector_id": 83,
          "start_date": "1888-01-12",
          "end_date": "1892-01-02",
          "names": [
            {
              "name": "Banque de crédit fonc.et agric.de Santa Fé, Obl.hypoth. 6%, série A Obl.de 504fr.",
              "start_date": "1888-01-12",
              "end_date": "1892-01-02"
            },
            {
              "name": "Santa Fé (Banque de Créd. fonc. et agric. de) Obl. Hypoth. 6%, série A Obl.de 504fr.",
              "start_date": "1888-01-12",
              "end_date": "3999-12-31"
            }
          ]
        }
      },
      "listings_stats": {
        "start_date": "1888-01-12"
      },
      "spot_prices_stats": {
        "start_date": "1888-01-12",
        "end_date": "1891-06-30"
      }
    }
  },
  "prices_count": 204,
  "name": "Banque de crédit fonc.et agric.de Santa Fé, Obl.hypoth. 6%, série A Obl.de 504fr."
}