{
  "id": 5425,
  "share_type": {
    "id": 2,
    "name": "Bond (Obligation)"
  },
  "issuers": [
    {
      "id": 3338,
      "start_date": "1916-02-01",
      "end_date": "3999-12-31",
      "name": "PROVINCES : BUENOS-AYRES"
    }
  ],
  "types": [
    {
      "start_date": "1916-02-01",
      "end_date": "3999-12-31",
      "id": 1001,
      "name": "Obligation ordinaire ou classique",
      "stock_group": "B"
    }
  ],
  "is_mainstock": 0,
  "prices_period": [
    "1916-07-31",
    "1917-02-28"
  ],
  "stock_exchanges": {
    "1": {
      "id": 1,
      "name": "Paris (Official List)",
      "notations": {
        "7830": {
          "id": 7830,
          "sector_id": 74,
          "start_date": "1916-02-01",
          "end_date": "1917-05-15",
          "names": [
            {
              "name": "Buenos-Aires (Prov. de) 5% or 1908, jouissance courante",
              "start_date": "1916-02-01",
              "end_date": "3999-12-31"
            }
          ]
        }
      },
      "listings_stats": {
        "start_date": "1916-02-01"
      },
      "spot_prices_stats": {
        "start_date": "1916-07-31",
        "end_date": "1917-02-28"
      }
    }
  },
  "prices_count": 8,
  "name": "Buenos-Aires (Prov. de) 5% or 1908, jouissance courante"
}