{
  "id": 105932,
  "share_type": {
    "id": 1,
    "name": "Stock (Action)"
  },
  "issuers": [
    {
      "id": 4310,
      "start_date": "1953-01-15",
      "end_date": "1953-06-01",
      "name": "LE COMMERCE AFRICAIN"
    }
  ],
  "types": [
    {
      "start_date": "1953-01-15",
      "end_date": "1953-06-01",
      "id": 18,
      "name": "Action",
      "stock_group": "S"
    }
  ],
  "is_mainstock": 0,
  "prices_period": [
    "1953-01-15",
    "1955-11-30"
  ],
  "stock_exchanges": {
    "1": {
      "id": 1,
      "name": "Paris (Official List)",
      "notations": {
        "206790": {
          "id": 206790,
          "sector_id": 229,
          "start_date": "1953-01-15",
          "end_date": "1953-06-01",
          "names": [
            {
              "name": "Commerce Africain (Le), act. 2000 fr. CFA (e. 18 att.)",
              "start_date": "1953-01-15",
              "end_date": "1953-06-01"
            }
          ]
        }
      },
      "listings_stats": {
        "start_date": "1953-01-15"
      },
      "spot_prices_stats": {
        "start_date": "1953-01-15",
        "end_date": "1955-11-30"
      }
    }
  },
  "prices_count": 72,
  "name": "Commerce Africain (Le), act. 2000 fr. CFA (e. 18 att.)"
}