{
  "id": 17212,
  "share_type": {
    "id": 2,
    "name": "Bond (Obligation)"
  },
  "issuers": [
    {
      "id": 4454,
      "start_date": "1962-01-02",
      "end_date": "3999-12-31",
      "name": "SOCIÉTÉ CAPLAIN SAINT-ANDRÉ"
    }
  ],
  "types": [
    {
      "start_date": "1962-01-02",
      "end_date": "3999-12-31",
      "id": 1001,
      "name": "Obligation ordinaire ou classique",
      "stock_group": "B"
    }
  ],
  "is_mainstock": 0,
  "prices_period": [
    "1962-01-02",
    "1969-03-17"
  ],
  "stock_exchanges": {
    "1": {
      "id": 1,
      "name": "Paris (Official List)",
      "notations": {
        "31243": {
          "id": 31243,
          "sector_id": 111,
          "start_date": "1963-03-04",
          "end_date": "1966-11-02",
          "names": [
            {
              "name": "Caplain Saint-André 4,25 % 1946 1947-76",
              "start_date": "1962-01-02",
              "end_date": "1969-03-31"
            },
            {
              "name": "Caplain st-andré 4,25% 1946 (tir 24/6/66) 1947-76",
              "start_date": "1963-03-04",
              "end_date": "3999-12-31"
            }
          ]
        },
        "32006": {
          "id": 32006,
          "sector_id": 355,
          "start_date": "1966-11-02",
          "end_date": "1969-03-31",
          "names": [
            {
              "name": "Caplain Saint-André 4,25 % 1946 1947-76",
              "start_date": "1962-01-02",
              "end_date": "1969-03-31"
            },
            {
              "name": "Caplain st-andré 4,25% 1946 (tir 24/6/66) 1947-76",
              "start_date": "1966-11-02",
              "end_date": "3999-12-31"
            }
          ]
        },
        "147787": {
          "id": 147787,
          "sector_id": 517,
          "start_date": "1962-01-02",
          "end_date": "1963-03-04",
          "names": [
            {
              "name": "Caplain Saint-André 4,25 % 1946 1947-76",
              "start_date": "1962-01-02",
              "end_date": "1969-03-31"
            },
            {
              "name": "Caplain st-andré 4,25% 1946 (tir 24/6/66) 1947-76",
              "start_date": "1962-01-02",
              "end_date": "3999-12-31"
            }
          ]
        }
      },
      "listings_stats": {
        "start_date": "1962-01-02"
      },
      "spot_prices_stats": {
        "start_date": "1962-01-02",
        "end_date": "1969-03-17"
      }
    }
  },
  "prices_count": 174,
  "name": "Caplain Saint-André 4,25 % 1946 1947-76"
}