{
  "id": 101739,
  "share_type": {
    "id": 4,
    "name": "Rights (Droits)"
  },
  "issuers": [
    {
      "id": 3772,
      "start_date": "1942-06-15",
      "end_date": "1948-01-15",
      "name": "BRASSERIES ET GLACIERES DE L'INDOCHINE"
    }
  ],
  "types": [
    {
      "start_date": "1942-06-15",
      "end_date": "1948-01-15",
      "id": 502,
      "name": "Droit d'attribution",
      "stock_group": "R"
    }
  ],
  "is_mainstock": 0,
  "prices_period": [
    "1942-06-15",
    "1946-10-31"
  ],
  "stock_exchanges": {
    "1": {
      "id": 1,
      "name": "Paris (Official List)",
      "notations": {
        "201920": {
          "id": 201920,
          "sector_id": 657,
          "start_date": "1942-06-15",
          "end_date": "1948-01-16",
          "names": [
            {
              "name": "Act. 1 à 163625. BRASSERIES ET GLACIERES DE L'INDOCHINE (droit et coup. 24 ou bon de droit). Pour 5 act. anciennes, 1 action nouvelle attribuée gratuitement impôt payé (cf avis du 11 juin 1942)",
              "start_date": "1942-06-15",
              "end_date": "1948-01-16"
            }
          ]
        }
      },
      "listings_stats": {
        "start_date": "1942-06-15"
      },
      "spot_prices_stats": {
        "start_date": "1942-06-15",
        "end_date": "1946-10-31"
      }
    }
  },
  "prices_count": 55,
  "name": "Act. 1 à 163625. BRASSERIES ET GLACIERES DE L'INDOCHINE (droit et coup. 24 ou bon de droit). Pour 5 act. anciennes, 1 action nouvelle attribuée gratuitement impôt payé (cf avis du 11 juin 1942)"
}