{
  "id": 100814,
  "share_type": {
    "id": 4,
    "name": "Rights (Droits)"
  },
  "issuers": [
    {
      "id": 4000,
      "start_date": "1947-10-29",
      "end_date": "3999-12-31",
      "name": "SOCIÉTÉ DES CHAUX, CIMENTS ET MATERIAUX DE CONSTRUCTION AU MAROC"
    }
  ],
  "types": [
    {
      "start_date": "1947-10-29",
      "end_date": "3999-12-31",
      "id": 501,
      "name": "Droit de souscription",
      "stock_group": "R"
    }
  ],
  "is_mainstock": 0,
  "prices_period": [
    "1947-10-30",
    "1947-10-30"
  ],
  "stock_exchanges": {
    "1": {
      "id": 1,
      "name": "Paris (Official List)",
      "notations": {
        "200959": {
          "id": 200959,
          "sector_id": 657,
          "start_date": "1947-10-29",
          "end_date": "4000-01-01",
          "names": [
            {
              "name": "Chaux, Ciments et Matériaux de Construction au Maroc (droit et coupon 31). 1 act. nouv. émise à 600 fr. pour 1 act. Anc.",
              "start_date": "1947-10-29",
              "end_date": "4000-01-01"
            }
          ]
        }
      },
      "listings_stats": {
        "start_date": "1947-10-29"
      },
      "spot_prices_stats": {
        "start_date": "1947-10-30",
        "end_date": "1947-10-30"
      }
    }
  },
  "prices_count": 1,
  "name": "Chaux, Ciments et Matériaux de Construction au Maroc (droit et coupon 31). 1 act. nouv. émise à 600 fr. pour 1 act. Anc."
}