{
  "id": 21933,
  "share_type": {
    "id": 3,
    "name": "OPTIONS"
  },
  "issuers": [
    {
      "id": 2302,
      "start_date": "1975-11-14",
      "end_date": "3999-12-31",
      "name": "SOCIETE LYONNAISE DES EAUX ET DE L'ECLAIRAGE"
    }
  ],
  "types": [
    {
      "start_date": "1975-11-14",
      "end_date": "3999-12-31",
      "id": 2,
      "name": "Option",
      "stock_group": "M"
    }
  ],
  "is_mainstock": 0,
  "prices_period": [
    null,
    null
  ],
  "stock_exchanges": {
    "1": {
      "id": 1,
      "name": "Paris (Official List)",
      "notations": {
        "152494": {
          "id": 152494,
          "sector_id": 604,
          "start_date": "1975-11-14",
          "end_date": "1975-11-18",
          "names": [
            {
              "name": "Lyonnaise des Eaux",
              "start_date": "1975-11-14",
              "end_date": "3999-12-31"
            }
          ]
        }
      },
      "listings_stats": {
        "start_date": "1975-11-14"
      }
    }
  },
  "prices_count": 0,
  "name": "Lyonnaise des Eaux"
}