{
  "id": 11880,
  "share_type": {
    "id": 2,
    "name": "Bond (Obligation)"
  },
  "issuers": [
    {
      "id": 2412,
      "start_date": "1943-11-09",
      "end_date": "3999-12-31",
      "name": "Forces motrices du plateau central"
    }
  ],
  "types": [
    {
      "start_date": "1943-11-09",
      "end_date": "3999-12-31",
      "id": 1001,
      "name": "Obligation ordinaire ou classique",
      "stock_group": "B"
    }
  ],
  "is_mainstock": 0,
  "prices_period": [
    "1943-11-09",
    "1953-06-01"
  ],
  "stock_exchanges": {
    "1": {
      "id": 1,
      "name": "Paris (Official List)",
      "notations": {
        "142455": {
          "id": 142455,
          "sector_id": 117,
          "start_date": "1943-11-09",
          "end_date": "1953-06-11",
          "names": [
            {
              "name": "Forces Motrices du Plateau Central 4,25% 1943, r. À 5000 f. (n°s 10001 à 14000) 1944-73",
              "start_date": "1943-11-09",
              "end_date": "3999-12-31"
            }
          ]
        }
      },
      "listings_stats": {
        "start_date": "1943-11-09"
      },
      "spot_prices_stats": {
        "start_date": "1943-11-09",
        "end_date": "1953-06-01"
      }
    }
  },
  "prices_count": 216,
  "name": "Forces Motrices du Plateau Central 4,25% 1943, r. À 5000 f. (n°s 10001 à 14000) 1944-73"
}