{
  "id": 102656,
  "share_type": {
    "id": 4,
    "name": "Rights (Droits)"
  },
  "issuers": [
    {
      "id": 3116,
      "start_date": "1935-04-08",
      "end_date": "1935-04-23",
      "name": "L'UNION ELECTRIQUE"
    }
  ],
  "types": [
    {
      "start_date": "1935-04-08",
      "end_date": "1935-04-23",
      "id": 501,
      "name": "Droit de souscription",
      "stock_group": "R"
    }
  ],
  "is_mainstock": 0,
  "prices_period": [
    "1935-04-08",
    "1935-04-15"
  ],
  "stock_exchanges": {
    "1": {
      "id": 1,
      "name": "Paris (Official List)",
      "notations": {
        "202838": {
          "id": 202838,
          "sector_id": 657,
          "start_date": "1935-04-08",
          "end_date": "1935-04-24",
          "names": [
            {
              "name": "Act. L'Union Electrique (dr. et coup. 12). Pour 1 action ancienne, 1 action nouvelle émise à 100 francs",
              "start_date": "1935-04-08",
              "end_date": "1935-04-24"
            }
          ]
        }
      },
      "listings_stats": {
        "start_date": "1935-04-08"
      },
      "spot_prices_stats": {
        "start_date": "1935-04-08",
        "end_date": "1935-04-15"
      }
    }
  },
  "prices_count": 3,
  "name": "Act. L'Union Electrique (dr. et coup. 12). Pour 1 action ancienne, 1 action nouvelle émise à 100 francs"
}