{
  "id": 106013,
  "share_type": {
    "id": 1,
    "name": "Stock (Action)"
  },
  "issuers": [
    {
      "id": 3068,
      "start_date": "1898-05-29",
      "end_date": "1898-12-31",
      "name": "STE D'INDUSTRIE MINIÈRE D'EKATERINOVKA"
    }
  ],
  "types": [
    {
      "start_date": "1898-05-29",
      "end_date": "1898-12-31",
      "id": 18,
      "name": "Action",
      "stock_group": "S"
    }
  ],
  "is_mainstock": 1,
  "prices_period": [
    "1898-06-15",
    "1898-12-31"
  ],
  "stock_exchanges": {
    "2": {
      "id": 2,
      "name": "Paris OTC (Coulisse)",
      "notations": {
        "206872": {
          "id": 206872,
          "sector_id": 669,
          "start_date": "1898-05-29",
          "end_date": "1898-12-31",
          "names": [
            {
              "name": "Ekaterinovka (charbon d'), act. 500 fr. t. p.",
              "start_date": "1898-05-29",
              "end_date": "1898-12-31"
            },
            {
              "name": "EKATERINOVKA (Charbonnages d')",
              "start_date": "1898-05-29",
              "end_date": "1899-01-16"
            }
          ]
        },
        "207801": {
          "id": 207801,
          "sector_id": 683,
          "start_date": "1899-01-16",
          "end_date": "1899-01-16",
          "names": [
            {
              "name": "Ekaterinovka (charbon d'), act. 500 fr. t. p.",
              "start_date": "1898-05-29",
              "end_date": "1899-01-16"
            },
            {
              "name": "EKATERINOVKA (Charbonnages d')",
              "start_date": "1899-01-16",
              "end_date": "1899-01-16"
            }
          ]
        }
      },
      "listings_stats": {
        "start_date": "1898-05-29"
      },
      "spot_prices_stats": {
        "start_date": "1898-06-15",
        "end_date": "1898-12-31"
      }
    }
  },
  "prices_count": 14,
  "name": "EKATERINOVKA (Charbonnages d')"
}