{
  "id": 11294,
  "share_type": {
    "id": 1,
    "name": "Stock (Action)"
  },
  "issuers": [
    {
      "id": 10490,
      "start_date": "1939-05-10",
      "end_date": "3999-12-31",
      "name": "MINES D'ANZIN"
    }
  ],
  "types": [
    {
      "start_date": "1939-05-10",
      "end_date": "3999-12-31",
      "id": 18,
      "name": "Action",
      "stock_group": "S"
    }
  ],
  "is_mainstock": 0,
  "prices_period": [
    "1939-05-10",
    "1939-05-10"
  ],
  "stock_exchanges": {
    "1": {
      "id": 1,
      "name": "Paris (Official List)",
      "notations": {
        "141869": {
          "id": 141869,
          "sector_id": 164,
          "start_date": "1939-05-10",
          "end_date": "1940-06-11",
          "names": [
            {
              "name": "Mines d'Anzin. Act. 500 fr., t, p (n° 1 à 445000)",
              "start_date": "1939-05-10",
              "end_date": "3999-12-31"
            }
          ]
        }
      },
      "forward_prices_stats": {
        "start_date": "1939-05-10",
        "end_date": "1939-05-10"
      },
      "listings_stats": {
        "start_date": "1939-05-10"
      },
      "options_prices_stats": {
        "start_date": "1939-05-10",
        "end_date": "1939-05-10"
      }
    }
  },
  "prices_count": 7,
  "name": "Mines d'Anzin. Act. 500 fr., t, p (n° 1 à 445000)"
}