{
  "id": 10429,
  "share_type": {
    "id": 2,
    "name": "Bond (Obligation)"
  },
  "issuers": [
    {
      "id": 1273,
      "start_date": "1934-09-17",
      "end_date": "3999-12-31",
      "name": "DETTE TUNISIENNE"
    }
  ],
  "types": [
    {
      "start_date": "1934-09-17",
      "end_date": "3999-12-31",
      "id": 1001,
      "name": "Obligation ordinaire ou classique",
      "stock_group": "B"
    }
  ],
  "is_mainstock": 0,
  "prices_period": [
    "1934-09-17",
    "1944-06-01"
  ],
  "stock_exchanges": {
    "1": {
      "id": 1,
      "name": "Paris (Official List)",
      "notations": {
        "141004": {
          "id": 141004,
          "sector_id": 95,
          "start_date": "1934-09-17",
          "end_date": "1944-06-05",
          "names": [
            {
              "name": "Tunisie bons déc. 5% 1934, remb. à 1000 fr.",
              "start_date": "1934-09-17",
              "end_date": "1944-06-05"
            },
            {
              "name": "Tunisie Bons déc. 5% 1934, remb. À 1000 fr. 1934-44",
              "start_date": "1934-09-17",
              "end_date": "3999-12-31"
            }
          ]
        }
      },
      "listings_stats": {
        "start_date": "1934-09-17"
      },
      "spot_prices_stats": {
        "start_date": "1934-09-17",
        "end_date": "1944-06-01"
      }
    }
  },
  "prices_count": 227,
  "name": "Tunisie bons déc. 5% 1934, remb. à 1000 fr."
}