{
  "id": 101898,
  "share_type": {
    "id": 4,
    "name": "Rights (Droits)"
  },
  "issuers": [
    {
      "id": 4140,
      "start_date": "1924-10-06",
      "end_date": "1924-10-20",
      "name": "Ateliers de Construction Schwartz-Hautmont"
    }
  ],
  "types": [
    {
      "start_date": "1924-10-06",
      "end_date": "1924-10-20",
      "id": 501,
      "name": "Droit de souscription",
      "stock_group": "R"
    }
  ],
  "is_mainstock": 0,
  "prices_period": [
    "1924-10-06",
    "1924-10-15"
  ],
  "stock_exchanges": {
    "1": {
      "id": 1,
      "name": "Paris (Official List)",
      "notations": {
        "202080": {
          "id": 202080,
          "sector_id": 657,
          "start_date": "1924-10-06",
          "end_date": "1924-10-21",
          "names": [
            {
              "name": "Act. Ateliers de construction Schwartz-Hautmont (droit et coupon 14)",
              "start_date": "1924-10-06",
              "end_date": "1924-10-21"
            }
          ]
        }
      },
      "listings_stats": {
        "start_date": "1924-10-06"
      },
      "spot_prices_stats": {
        "start_date": "1924-10-06",
        "end_date": "1924-10-15"
      }
    }
  },
  "prices_count": 0,
  "name": "Act. Ateliers de construction Schwartz-Hautmont (droit et coupon 14)"
}