{
  "id": 101589,
  "share_type": {
    "id": 4,
    "name": "Rights (Droits)"
  },
  "issuers": [
    {
      "id": 148,
      "start_date": "1942-10-15",
      "end_date": "1942-11-27",
      "name": "LE PHÉNIX COMPAGNIE FRANÇAISE D'ASSURANCES CONTRE L'INCENDIE"
    }
  ],
  "types": [
    {
      "start_date": "1942-10-15",
      "end_date": "1942-11-27",
      "id": 501,
      "name": "Droit de souscription",
      "stock_group": "R"
    }
  ],
  "is_mainstock": 0,
  "prices_period": [
    "1942-10-15",
    "1942-11-16"
  ],
  "stock_exchanges": {
    "1": {
      "id": 1,
      "name": "Paris (Official List)",
      "notations": {
        "201739": {
          "id": 201739,
          "sector_id": 657,
          "start_date": "1942-10-15",
          "end_date": "1942-11-28",
          "names": [
            {
              "name": "Act. CIE FRANC. DU PHENIX (STE ANONYME D'ASSURANCES CONTRE L'INCENDIE) (bon de droit). Pour 1 act. ancienne, 1 action nouvelle émise à 130 francs. Les cessionnaires de droits doivent être agréés par le conseil d'administration",
              "start_date": "1942-10-15",
              "end_date": "1942-11-28"
            }
          ]
        }
      },
      "listings_stats": {
        "start_date": "1942-10-15"
      },
      "spot_prices_stats": {
        "start_date": "1942-10-15",
        "end_date": "1942-11-16"
      }
    }
  },
  "prices_count": 4,
  "name": "Act. CIE FRANC. DU PHENIX (STE ANONYME D'ASSURANCES CONTRE L'INCENDIE) (bon de droit). Pour 1 act. ancienne, 1 action nouvelle émise à 130 francs. Les cessionnaires de droits doivent être agréés par le conseil d'administration"
}