{
  "id": 11682,
  "share_type": {
    "id": 1,
    "name": "Stock (Action)"
  },
  "issuers": [
    {
      "id": 2070,
      "start_date": "1944-10-10",
      "end_date": "3999-12-31",
      "name": "LA FONCIÈRE COMPAGNIE D'ASSURANCES CONTRE LES RISQUES DE TRANSPORTS ET LEs ACCIDENTS DE TOUTE NATURE"
    }
  ],
  "types": [
    {
      "start_date": "1944-10-10",
      "end_date": "3999-12-31",
      "id": 18,
      "name": "Action",
      "stock_group": "S"
    }
  ],
  "is_mainstock": 0,
  "prices_period": [
    "1945-01-15",
    "1945-07-31"
  ],
  "stock_exchanges": {
    "1": {
      "id": 1,
      "name": "Paris (Official List)",
      "notations": {
        "142257": {
          "id": 142257,
          "sector_id": 96,
          "start_date": "1944-10-10",
          "end_date": "1945-08-09",
          "names": [
            {
              "name": "Foncière (La) (transports), act. 500 fr., t. p. (n°s 50001 à 62500) (nom.)",
              "start_date": "1944-10-10",
              "end_date": "3999-12-31"
            }
          ]
        }
      },
      "listings_stats": {
        "start_date": "1944-10-10"
      },
      "spot_prices_stats": {
        "start_date": "1945-01-15",
        "end_date": "1945-07-31"
      }
    }
  },
  "prices_count": 9,
  "name": "Foncière (La) (transports), act. 500 fr., t. p. (n°s 50001 à 62500) (nom.)"
}