{
  "id": 3876,
  "share_type": {
    "id": 2,
    "name": "Bond (Obligation)"
  },
  "issuers": [
    {
      "id": 461,
      "start_date": "1892-02-15",
      "end_date": "3999-12-31",
      "name": "ETATS : RUSSIE"
    }
  ],
  "types": [
    {
      "start_date": "1892-02-15",
      "end_date": "3999-12-31",
      "id": 1001,
      "name": "Obligation ordinaire ou classique",
      "stock_group": "B"
    }
  ],
  "is_mainstock": 0,
  "prices_period": [
    "1892-02-25",
    "1976-12-31"
  ],
  "stock_exchanges": {
    "1": {
      "id": 1,
      "name": "Paris (Official List)",
      "notations": {
        "4975": {
          "id": 4975,
          "sector_id": 67,
          "start_date": "1892-02-15",
          "end_date": "1914-08-03",
          "names": [
            {
              "name": "Russie Obl. 4% 1889 Série B ch. de fer de Koursk-Kharkof-Azof. Titres de 2470 fr.",
              "start_date": "1892-02-15",
              "end_date": "1925-05-01"
            },
            {
              "name": "Russie Oblig. 4% 1889, série B. Koursk-Kharkof-Azof. T. 2470 fr. capital",
              "start_date": "1892-02-15",
              "end_date": "1939-12-01"
            },
            {
              "name": "Russie. Oblig. 4% 1889 série B. Koursk-Kharkof-Azof.Oblig. 2470 fr. cap. (Jce 1/10/18).",
              "start_date": "1892-02-15",
              "end_date": "1948-01-15"
            },
            {
              "name": "Russie Oblig. 4% 1889 série B. Koursk-Kharkof-Azof. T. 2470 f. cap.",
              "start_date": "1892-02-15",
              "end_date": "1960-01-04"
            },
            {
              "name": "Russie 4% 1889 série B koursk-kharkov-azof T de 4 oblig",
              "start_date": "1892-02-15",
              "end_date": "1962-01-02"
            },
            {
              "name": "Russie 4% 1889 série B Koursk-Kharkof-Azof, T. de 4 oblig.",
              "start_date": "1892-02-15",
              "end_date": "3999-12-31"
            }
          ]
        },
        "6855": {
          "id": 6855,
          "sector_id": 67,
          "start_date": "1914-12-15",
          "end_date": "1925-05-01",
          "names": [
            {
              "name": "Russie Obl. 4% 1889 Série B ch. de fer de Koursk-Kharkof-Azof. Titres de 2470 fr.",
              "start_date": "1892-02-15",
              "end_date": "1925-05-01"
            },
            {
              "name": "Russie Oblig. 4% 1889, série B. Koursk-Kharkof-Azof. T. 2470 fr. capital",
              "start_date": "1914-12-15",
              "end_date": "1939-12-01"
            },
            {
              "name": "Russie. Oblig. 4% 1889 série B. Koursk-Kharkof-Azof.Oblig. 2470 fr. cap. (Jce 1/10/18).",
              "start_date": "1914-12-15",
              "end_date": "1948-01-15"
            },
            {
              "name": "Russie Oblig. 4% 1889 série B. Koursk-Kharkof-Azof. T. 2470 f. cap.",
              "start_date": "1914-12-15",
              "end_date": "1960-01-04"
            },
            {
              "name": "Russie 4% 1889 série B koursk-kharkov-azof T de 4 oblig",
              "start_date": "1914-12-15",
              "end_date": "1962-01-02"
            },
            {
              "name": "Russie 4% 1889 série B Koursk-Kharkof-Azof, T. de 4 oblig.",
              "start_date": "1914-12-15",
              "end_date": "3999-12-31"
            }
          ]
        },
        "13410": {
          "id": 13410,
          "sector_id": 74,
          "start_date": "1925-05-01",
          "end_date": "1939-12-01",
          "names": [
            {
              "name": "Russie Obl. 4% 1889 Série B ch. de fer de Koursk-Kharkof-Azof. Titres de 2470 fr.",
              "start_date": "1892-02-15",
              "end_date": "1939-12-01"
            },
            {
              "name": "Russie Oblig. 4% 1889, série B. Koursk-Kharkof-Azof. T. 2470 fr. capital",
              "start_date": "1925-05-01",
              "end_date": "1939-12-01"
            },
            {
              "name": "Russie. Oblig. 4% 1889 série B. Koursk-Kharkof-Azof.Oblig. 2470 fr. cap. (Jce 1/10/18).",
              "start_date": "1925-05-01",
              "end_date": "1948-01-15"
            },
            {
              "name": "Russie Oblig. 4% 1889 série B. Koursk-Kharkof-Azof. T. 2470 f. cap.",
              "start_date": "1925-05-01",
              "end_date": "1960-01-04"
            },
            {
              "name": "Russie 4% 1889 série B koursk-kharkov-azof T de 4 oblig",
              "start_date": "1925-05-01",
              "end_date": "1962-01-02"
            },
            {
              "name": "Russie 4% 1889 série B Koursk-Kharkof-Azof, T. de 4 oblig.",
              "start_date": "1925-05-01",
              "end_date": "3999-12-31"
            }
          ]
        },
        "21778": {
          "id": 21778,
          "sector_id": 234,
          "start_date": "1948-01-15",
          "end_date": "1962-01-02",
          "names": [
            {
              "name": "Russie Obl. 4% 1889 Série B ch. de fer de Koursk-Kharkof-Azof. Titres de 2470 fr.",
              "start_date": "1892-02-15",
              "end_date": "1962-01-02"
            },
            {
              "name": "Russie Oblig. 4% 1889, série B. Koursk-Kharkof-Azof. T. 2470 fr. capital",
              "start_date": "1925-05-01",
              "end_date": "1962-01-02"
            },
            {
              "name": "Russie. Oblig. 4% 1889 série B. Koursk-Kharkof-Azof.Oblig. 2470 fr. cap. (Jce 1/10/18).",
              "start_date": "1939-12-01",
              "end_date": "1962-01-02"
            },
            {
              "name": "Russie Oblig. 4% 1889 série B. Koursk-Kharkof-Azof. T. 2470 f. cap.",
              "start_date": "1948-01-15",
              "end_date": "1962-01-02"
            },
            {
              "name": "Russie 4% 1889 série B koursk-kharkov-azof T de 4 oblig",
              "start_date": "1948-01-15",
              "end_date": "1962-01-02"
            },
            {
              "name": "Russie 4% 1889 série B Koursk-Kharkof-Azof, T. de 4 oblig.",
              "start_date": "1948-01-15",
              "end_date": "3999-12-31"
            }
          ]
        },
        "29014": {
          "id": 29014,
          "sector_id": 74,
          "start_date": "1962-01-02",
          "end_date": "3999-12-31",
          "names": [
            {
              "name": "Russie Obl. 4% 1889 Série B ch. de fer de Koursk-Kharkof-Azof. Titres de 2470 fr.",
              "start_date": "1892-02-15",
              "end_date": "3999-12-31"
            },
            {
              "name": "Russie Oblig. 4% 1889, série B. Koursk-Kharkof-Azof. T. 2470 fr. capital",
              "start_date": "1925-05-01",
              "end_date": "3999-12-31"
            },
            {
              "name": "Russie. Oblig. 4% 1889 série B. Koursk-Kharkof-Azof.Oblig. 2470 fr. cap. (Jce 1/10/18).",
              "start_date": "1939-12-01",
              "end_date": "3999-12-31"
            },
            {
              "name": "Russie Oblig. 4% 1889 série B. Koursk-Kharkof-Azof. T. 2470 f. cap.",
              "start_date": "1948-01-15",
              "end_date": "3999-12-31"
            },
            {
              "name": "Russie 4% 1889 série B koursk-kharkov-azof T de 4 oblig",
              "start_date": "1960-01-04",
              "end_date": "3999-12-31"
            },
            {
              "name": "Russie 4% 1889 série B Koursk-Kharkof-Azof, T. de 4 oblig.",
              "start_date": "1962-01-02",
              "end_date": "3999-12-31"
            }
          ]
        }
      },
      "listings_stats": {
        "start_date": "1892-02-15"
      },
      "spot_prices_stats": {
        "start_date": "1892-02-25",
        "end_date": "1976-12-31"
      }
    }
  },
  "prices_count": 854,
  "name": "Russie Oblig. 4% 1889 série B. Koursk-Kharkof-Azof. T. 2470 f. cap."
}