{
  "id": 1230,
  "share_type": {
    "id": 1,
    "name": "Stock (Action)"
  },
  "issuers": [
    {
      "id": 684,
      "start_date": "1860-12-18",
      "end_date": "3999-12-31",
      "name": "STÉ DE L'ÉCLAIRAGE AU GAZ ET DES HAUTS FOURNEAUX ET FONDERIES DE MARSEILLE ET DES MINES DE PORTES ET SÉNÉCHAS"
    }
  ],
  "types": [
    {
      "start_date": "1860-12-18",
      "end_date": "3999-12-31",
      "id": 11,
      "name": "Action ordinaire",
      "stock_group": "S"
    }
  ],
  "is_mainstock": 1,
  "prices_period": [
    "1860-12-18",
    "1900-05-31"
  ],
  "stock_exchanges": {
    "1": {
      "id": 1,
      "name": "Paris (Official List)",
      "notations": {
        "1446": {
          "id": 1446,
          "sector_id": 73,
          "start_date": "1866-02-18",
          "end_date": "1900-07-02",
          "names": [
            {
              "name": "Soc. d'éclairage au gaz des Hauts-Fourneaux et Fonderies de Marseille et des Mines de Portes et Sénéchas, remb. à 600 f., j. oct.",
              "start_date": "1860-12-18",
              "end_date": "1900-07-02"
            },
            {
              "name": "Gaz de Marseille et Mines de Portes et Sénéchas, rem. à 600 f, j. avr. 1863",
              "start_date": "1863-07-13",
              "end_date": "1900-07-02"
            },
            {
              "name": "Gaz de Marseille et Mines de Portes et Sénéchas, act. 500f, r. 600f",
              "start_date": "1866-02-17",
              "end_date": "3999-12-31"
            }
          ]
        },
        "2339": {
          "id": 2339,
          "sector_id": 576,
          "start_date": "1860-12-18",
          "end_date": "1863-07-14",
          "names": [
            {
              "name": "Soc. d'éclairage au gaz des Hauts-Fourneaux et Fonderies de Marseille et des Mines de Portes et Sénéchas, remb. à 600 f., j. oct.",
              "start_date": "1860-12-18",
              "end_date": "1863-07-14"
            },
            {
              "name": "Gaz de Marseille et Mines de Portes et Sénéchas, rem. à 600 f, j. avr. 1863",
              "start_date": "1860-12-18",
              "end_date": "1866-02-17"
            },
            {
              "name": "Gaz de Marseille et Mines de Portes et Sénéchas, act. 500f, r. 600f",
              "start_date": "1860-12-18",
              "end_date": "3999-12-31"
            }
          ]
        },
        "2519": {
          "id": 2519,
          "sector_id": 576,
          "start_date": "1863-07-14",
          "end_date": "1866-02-18",
          "names": [
            {
              "name": "Soc. d'éclairage au gaz des Hauts-Fourneaux et Fonderies de Marseille et des Mines de Portes et Sénéchas, remb. à 600 f., j. oct.",
              "start_date": "1860-12-18",
              "end_date": "1866-02-18"
            },
            {
              "name": "Gaz de Marseille et Mines de Portes et Sénéchas, rem. à 600 f, j. avr. 1863",
              "start_date": "1863-07-13",
              "end_date": "1866-02-18"
            },
            {
              "name": "Gaz de Marseille et Mines de Portes et Sénéchas, act. 500f, r. 600f",
              "start_date": "1863-07-14",
              "end_date": "3999-12-31"
            }
          ]
        }
      },
      "listings_stats": {
        "start_date": "1860-12-18"
      },
      "spot_prices_stats": {
        "start_date": "1860-12-18",
        "end_date": "1900-05-31"
      }
    }
  },
  "prices_count": 483,
  "name": "Gaz de Marseille et Mines de Portes et Sénéchas, rem. à 600 f, j. avr. 1863"
}