{
  "id": 102325,
  "share_type": {
    "id": 4,
    "name": "Rights (Droits)"
  },
  "issuers": [
    {
      "id": 2986,
      "start_date": "1924-05-20",
      "end_date": "1924-06-05",
      "name": "Société des Chalets de Nécessité"
    }
  ],
  "types": [
    {
      "start_date": "1924-05-20",
      "end_date": "1924-06-05",
      "id": 501,
      "name": "Droit de souscription",
      "stock_group": "R"
    }
  ],
  "is_mainstock": 0,
  "prices_period": [
    null,
    null
  ],
  "stock_exchanges": {
    "1": {
      "id": 1,
      "name": "Paris (Official List)",
      "notations": {
        "202507": {
          "id": 202507,
          "sector_id": 657,
          "start_date": "1924-05-20",
          "end_date": "1924-06-06",
          "names": [
            {
              "name": "Act. de jouissance Chalets de Nécessité et Etabliss. Porcher réunis (droit et coupon 65)",
              "start_date": "1924-05-20",
              "end_date": "1924-06-06"
            }
          ]
        }
      },
      "listings_stats": {
        "start_date": "1924-05-20"
      }
    }
  },
  "prices_count": 0,
  "name": "Act. de jouissance Chalets de Nécessité et Etabliss. Porcher réunis (droit et coupon 65)"
}