{
  "id": 6091,
  "share_type": {
    "id": 2,
    "name": "Bond (Obligation)"
  },
  "issuers": [
    {
      "id": 2548,
      "start_date": "1918-04-05",
      "end_date": "3999-12-31",
      "name": "GOUVERNEMENT DE QUEBEC"
    }
  ],
  "types": [
    {
      "start_date": "1918-04-05",
      "end_date": "3999-12-31",
      "id": 1027,
      "name": "Certificats de Prêts à l'Etat Français",
      "stock_group": "B"
    }
  ],
  "is_mainstock": 0,
  "prices_period": [
    null,
    null
  ],
  "stock_exchanges": {
    "1": {
      "id": 1,
      "name": "Paris (Official List)",
      "notations": {
        "8496": {
          "id": 8496,
          "sector_id": 74,
          "start_date": "1918-04-05",
          "end_date": "1919-06-18",
          "names": [
            {
              "name": "Québec 1888 4%, Coup. 5050fr.de capital, Certific.de prêts",
              "start_date": "1918-04-05",
              "end_date": "3999-12-31"
            }
          ]
        }
      },
      "listings_stats": {
        "start_date": "1918-04-05"
      }
    }
  },
  "prices_count": 0,
  "name": "Québec 1888 4%, Coup. 5050fr.de capital, Certific.de prêts"
}