{
  "id": 19794,
  "share_type": {
    "id": 2,
    "name": "Bond (Obligation)"
  },
  "issuers": [
    {
      "id": 6104,
      "start_date": "1967-05-02",
      "end_date": "3999-12-31",
      "name": "Manufacture de Papiers peints LEROY"
    }
  ],
  "types": [
    {
      "start_date": "1967-05-02",
      "end_date": "3999-12-31",
      "id": 1001,
      "name": "Obligation ordinaire ou classique",
      "stock_group": "B"
    }
  ],
  "is_mainstock": 0,
  "prices_period": [
    "1967-05-16",
    "1973-08-31"
  ],
  "stock_exchanges": {
    "1": {
      "id": 1,
      "name": "Paris (Official List)",
      "notations": {
        "150369": {
          "id": 150369,
          "sector_id": 374,
          "start_date": "1967-05-02",
          "end_date": "1973-09-17",
          "names": [
            {
              "name": "Lille_Bourse Leroy (Papiers peints) 6,75% 1950 (Tir. 19/10/66) 1951-75",
              "start_date": "1967-05-02",
              "end_date": "1973-09-17"
            },
            {
              "name": "LILLE_BOURSE_Leroy (Papiers Peints) 6,75% 1950 de 100 F (Tir. 6/10/72). 1951-75",
              "start_date": "1967-05-02",
              "end_date": "3999-12-31"
            }
          ]
        }
      },
      "listings_stats": {
        "start_date": "1967-05-02"
      },
      "spot_prices_stats": {
        "start_date": "1967-05-16",
        "end_date": "1973-08-31"
      }
    }
  },
  "prices_count": 152,
  "name": "Lille_Bourse Leroy (Papiers peints) 6,75% 1950 (Tir. 19/10/66) 1951-75"
}