{
  "id": 16837,
  "share_type": {
    "id": 1,
    "name": "Stock (Action)"
  },
  "issuers": [
    {
      "id": 4581,
      "start_date": "1962-01-02",
      "end_date": "3999-12-31",
      "name": "Socantar"
    }
  ],
  "types": [
    {
      "start_date": "1962-01-02",
      "end_date": "3999-12-31",
      "id": 18,
      "name": "Action",
      "stock_group": "S"
    }
  ],
  "is_mainstock": 0,
  "prices_period": [
    "1962-01-02",
    "1970-12-15"
  ],
  "stock_exchanges": {
    "1": {
      "id": 1,
      "name": "Paris (Official List)",
      "notations": {
        "30397": {
          "id": 30397,
          "sector_id": 349,
          "start_date": "1963-03-04",
          "end_date": "1970-12-31",
          "names": [
            {
              "name": "Socantar, act.",
              "start_date": "1962-01-02",
              "end_date": "3999-12-31"
            }
          ]
        },
        "147412": {
          "id": 147412,
          "sector_id": 411,
          "start_date": "1962-01-02",
          "end_date": "1963-03-04",
          "names": [
            {
              "name": "Socantar, act.",
              "start_date": "1962-01-02",
              "end_date": "3999-12-31"
            }
          ]
        }
      },
      "listings_stats": {
        "start_date": "1962-01-02"
      },
      "spot_prices_stats": {
        "start_date": "1962-01-02",
        "end_date": "1970-12-15"
      }
    }
  },
  "prices_count": 224,
  "name": "Socantar, act."
}