{
  "id": 105249,
  "share_type": {
    "id": 1,
    "name": "Stock (Action)"
  },
  "issuers": [
    {
      "id": 12337,
      "start_date": "1891-05-15",
      "end_date": "1895-03-14",
      "name": "Jeres-Lanteira"
    }
  ],
  "types": [
    {
      "start_date": "1891-05-15",
      "end_date": "1895-03-14",
      "id": 18,
      "name": "Action",
      "stock_group": "S"
    }
  ],
  "is_mainstock": 1,
  "prices_period": [
    "1891-05-15",
    "1895-03-14"
  ],
  "stock_exchanges": {
    "2": {
      "id": 2,
      "name": "Paris OTC (Coulisse)",
      "notations": {
        "205975": {
          "id": 205975,
          "sector_id": 669,
          "start_date": "1891-05-15",
          "end_date": "1895-03-14",
          "names": [
            {
              "name": "Jeres-Lanteira",
              "start_date": "1891-05-15",
              "end_date": "1895-03-14"
            }
          ]
        }
      },
      "listings_stats": {
        "start_date": "1891-05-15"
      },
      "spot_prices_stats": {
        "start_date": "1891-05-15",
        "end_date": "1895-03-14"
      }
    }
  },
  "prices_count": 104,
  "name": "Jeres-Lanteira"
}