{
  "id": 15139,
  "share_type": {
    "id": 1,
    "name": "Stock (Action)"
  },
  "issuers": [
    {
      "id": 497,
      "start_date": "1955-12-23",
      "end_date": "3999-12-31",
      "name": "Compagnie des Chemins de fer de l'Est"
    }
  ],
  "types": [
    {
      "start_date": "1955-12-23",
      "end_date": "3999-12-31",
      "id": 11,
      "name": "Action ordinaire",
      "stock_group": "S"
    }
  ],
  "is_mainstock": 0,
  "prices_period": [
    "1955-12-23",
    "1956-03-15"
  ],
  "stock_exchanges": {
    "1": {
      "id": 1,
      "name": "Paris (Official List)",
      "notations": {
        "145714": {
          "id": 145714,
          "sector_id": 383,
          "start_date": "1955-12-23",
          "end_date": "1956-04-03",
          "names": [
            {
              "name": "Est (Sté d'Investissement de l'), act. (nos 58401 à 115400) (c. 7 att.)",
              "start_date": "1955-12-23",
              "end_date": "3999-12-31"
            }
          ]
        }
      },
      "listings_stats": {
        "start_date": "1955-12-23"
      },
      "spot_prices_stats": {
        "start_date": "1955-12-23",
        "end_date": "1956-03-15"
      }
    }
  },
  "prices_count": 12,
  "name": "Est (Sté d'Investissement de l'), act. (nos 58401 à 115400) (c. 7 att.)"
}