{
  "id": 6381,
  "share_type": {
    "id": 2,
    "name": "Bond (Obligation)"
  },
  "issuers": [
    {
      "id": 100,
      "start_date": "1921-01-03",
      "end_date": "3999-12-31",
      "name": "RENTES FRANÇAISES"
    }
  ],
  "types": [
    {
      "start_date": "1921-01-03",
      "end_date": "3999-12-31",
      "id": 1001,
      "name": "Obligation ordinaire ou classique",
      "stock_group": "B"
    }
  ],
  "is_mainstock": 0,
  "prices_period": [
    "1921-01-03",
    "1932-10-17"
  ],
  "stock_exchanges": {
    "1": {
      "id": 1,
      "name": "Paris (Official List)",
      "notations": {
        "9282": {
          "id": 9282,
          "sector_id": 10,
          "start_date": "1921-01-03",
          "end_date": "1926-10-19",
          "names": [
            {
              "name": "6% 1920 libéré (au comptant)",
              "start_date": "1921-01-03",
              "end_date": "1932-11-01"
            },
            {
              "name": "6% 1920 (Converti en 4,5% le 1er novembre 1932)",
              "start_date": "1921-01-03",
              "end_date": "3999-12-31"
            }
          ]
        },
        "15065": {
          "id": 15065,
          "sector_id": 196,
          "start_date": "1926-10-19",
          "end_date": "1929-03-27",
          "names": [
            {
              "name": "6% 1920 libéré (au comptant)",
              "start_date": "1921-01-03",
              "end_date": "1932-11-01"
            },
            {
              "name": "6% 1920 (Converti en 4,5% le 1er novembre 1932)",
              "start_date": "1926-10-19",
              "end_date": "3999-12-31"
            }
          ]
        },
        "15137": {
          "id": 15137,
          "sector_id": 10,
          "start_date": "1929-03-27",
          "end_date": "1929-06-03",
          "names": [
            {
              "name": "6% 1920 libéré (au comptant)",
              "start_date": "1921-01-03",
              "end_date": "1932-11-01"
            },
            {
              "name": "6% 1920 (Converti en 4,5% le 1er novembre 1932)",
              "start_date": "1929-03-27",
              "end_date": "3999-12-31"
            }
          ]
        },
        "15177": {
          "id": 15177,
          "sector_id": 196,
          "start_date": "1929-06-03",
          "end_date": "1932-11-02",
          "names": [
            {
              "name": "6% 1920 libéré (au comptant)",
              "start_date": "1921-01-03",
              "end_date": "1932-11-02"
            },
            {
              "name": "6% 1920 (Converti en 4,5% le 1er novembre 1932)",
              "start_date": "1929-06-03",
              "end_date": "3999-12-31"
            }
          ]
        },
        "15196": {
          "id": 15196,
          "sector_id": 199,
          "start_date": "1931-07-30",
          "end_date": "1932-11-02",
          "names": [
            {
              "name": "6% 1920 libéré (au comptant)",
              "start_date": "1921-01-03",
              "end_date": "1932-11-02"
            },
            {
              "name": "6% 1920 (Converti en 4,5% le 1er novembre 1932)",
              "start_date": "1931-07-30",
              "end_date": "3999-12-31"
            }
          ]
        },
        "136353": {
          "id": 136353,
          "sector_id": 197,
          "start_date": "1929-10-03",
          "end_date": "1931-07-30",
          "names": [
            {
              "name": "6% 1920 libéré (au comptant)",
              "start_date": "1921-01-03",
              "end_date": "1932-11-01"
            },
            {
              "name": "6% 1920 (Converti en 4,5% le 1er novembre 1932)",
              "start_date": "1929-10-03",
              "end_date": "3999-12-31"
            }
          ]
        }
      },
      "forward_prices_stats": {
        "start_date": "1929-10-15",
        "end_date": "1932-10-17"
      },
      "listings_stats": {
        "start_date": "1921-01-03"
      },
      "options_prices_stats": {
        "start_date": "1929-10-31",
        "end_date": "1931-09-15"
      },
      "spot_prices_stats": {
        "start_date": "1921-01-03",
        "end_date": "1932-10-17"
      }
    }
  },
  "prices_count": 2150,
  "name": "6% 1920 libéré (au comptant)"
}