{
  "id": 8696,
  "share_type": {
    "id": 2,
    "name": "Bond (Obligation)"
  },
  "issuers": [
    {
      "id": 493,
      "start_date": "1929-06-21",
      "end_date": "3999-12-31",
      "name": "Compagnie du Chemin de fer du NORD"
    }
  ],
  "types": [
    {
      "start_date": "1929-06-21",
      "end_date": "3999-12-31",
      "id": 1001,
      "name": "Obligation ordinaire ou classique",
      "stock_group": "B"
    }
  ],
  "is_mainstock": 0,
  "prices_period": [
    "1929-06-21",
    "1948-04-30"
  ],
  "stock_exchanges": {
    "1": {
      "id": 1,
      "name": "Paris (Official List)",
      "notations": {
        "16405": {
          "id": 16405,
          "sector_id": 209,
          "start_date": "1936-05-11",
          "end_date": "1940-06-11",
          "names": [
            {
              "name": "Nord 5%, r. à 1000 f., t. 1921, tranche A [Intérêts et amortissement assurés par le fonds commun à tous les grands réseaux et par le Trésor Public]",
              "start_date": "1929-06-21",
              "end_date": "1940-06-11"
            },
            {
              "name": "Nord, 5%, type 1921, tranche A, remb. à 1000 fr",
              "start_date": "1936-05-11",
              "end_date": "1940-10-14"
            },
            {
              "name": "Nord 5%, type 1921, tranche A, r. à 1000 fr. 1929-82",
              "start_date": "1936-05-11",
              "end_date": "3999-12-31"
            }
          ]
        },
        "19392": {
          "id": 19392,
          "sector_id": 209,
          "start_date": "1940-07-30",
          "end_date": "1948-05-18",
          "names": [
            {
              "name": "Nord 5%, r. à 1000 f., t. 1921, tranche A [Intérêts et amortissement assurés par le fonds commun à tous les grands réseaux et par le Trésor Public]",
              "start_date": "1929-06-21",
              "end_date": "1948-05-18"
            },
            {
              "name": "Nord, 5%, type 1921, tranche A, remb. à 1000 fr",
              "start_date": "1936-05-11",
              "end_date": "1948-05-18"
            },
            {
              "name": "Nord 5%, type 1921, tranche A, r. à 1000 fr. 1929-82",
              "start_date": "1940-07-30",
              "end_date": "3999-12-31"
            }
          ]
        },
        "136143": {
          "id": 136143,
          "sector_id": 107,
          "start_date": "1929-06-21",
          "end_date": "1936-05-11",
          "names": [
            {
              "name": "Nord 5%, r. à 1000 f., t. 1921, tranche A [Intérêts et amortissement assurés par le fonds commun à tous les grands réseaux et par le Trésor Public]",
              "start_date": "1929-06-21",
              "end_date": "1936-05-11"
            },
            {
              "name": "Nord, 5%, type 1921, tranche A, remb. à 1000 fr",
              "start_date": "1929-06-21",
              "end_date": "1940-10-14"
            },
            {
              "name": "Nord 5%, type 1921, tranche A, r. à 1000 fr. 1929-82",
              "start_date": "1929-06-21",
              "end_date": "3999-12-31"
            }
          ]
        }
      },
      "listings_stats": {
        "start_date": "1929-06-21"
      },
      "spot_prices_stats": {
        "start_date": "1929-06-21",
        "end_date": "1948-04-30"
      }
    }
  },
  "prices_count": 719,
  "name": "Nord, 5%, type 1921, tranche A, remb. à 1000 fr"
}