{
  "id": 6816,
  "share_type": {
    "id": 2,
    "name": "Bond (Obligation)"
  },
  "issuers": [
    {
      "id": 3685,
      "start_date": "1918-08-07",
      "end_date": "3999-12-31",
      "name": "LES EXPLOITATIONS ELECTRIQUES"
    }
  ],
  "types": [
    {
      "start_date": "1918-08-07",
      "end_date": "3999-12-31",
      "id": 1001,
      "name": "Obligation ordinaire ou classique",
      "stock_group": "B"
    }
  ],
  "is_mainstock": 0,
  "prices_period": [
    "1918-08-12",
    "1927-09-30"
  ],
  "stock_exchanges": {
    "1": {
      "id": 1,
      "name": "Paris (Official List)",
      "notations": {
        "33688": {
          "id": 33688,
          "sector_id": 117,
          "start_date": "1918-08-07",
          "end_date": "1927-10-03",
          "names": [
            {
              "name": "Exploitations Electriques, Bons 6%, r.à 500f",
              "start_date": "1918-08-07",
              "end_date": "3999-12-31"
            }
          ]
        }
      },
      "listings_stats": {
        "start_date": "1918-08-07"
      },
      "spot_prices_stats": {
        "start_date": "1918-08-12",
        "end_date": "1927-09-30"
      }
    }
  },
  "prices_count": 144,
  "name": "Exploitations Electriques, Bons 6%, r.à 500f"
}