{
  "id": 103436,
  "share_type": {
    "id": 4,
    "name": "Rights (Droits)"
  },
  "issuers": [
    {
      "id": 2702,
      "start_date": "1921-11-10",
      "end_date": "1921-11-28",
      "name": "ENERGIE ELECTRIQUE DU SUD-OUEST"
    }
  ],
  "types": [
    {
      "start_date": "1921-11-10",
      "end_date": "1921-11-28",
      "id": 501,
      "name": "Droit de souscription",
      "stock_group": "R"
    }
  ],
  "is_mainstock": 0,
  "prices_period": [
    null,
    null
  ],
  "stock_exchanges": {
    "1": {
      "id": 1,
      "name": "Paris (Official List)",
      "notations": {
        "203618": {
          "id": 203618,
          "sector_id": 657,
          "start_date": "1921-11-10",
          "end_date": "1921-11-29",
          "names": [
            {
              "name": "Actions Energie Electrique du Sud-Ouest.",
              "start_date": "1921-11-10",
              "end_date": "1921-11-29"
            }
          ]
        }
      },
      "listings_stats": {
        "start_date": "1921-11-10"
      }
    }
  },
  "prices_count": 0,
  "name": "Actions Energie Electrique du Sud-Ouest."
}