{
  "id": 2371,
  "share_type": {
    "id": 2,
    "name": "Bond (Obligation)"
  },
  "issuers": [
    {
      "id": 933,
      "start_date": "1876-12-19",
      "end_date": "3999-12-31",
      "name": "TURQUIE"
    }
  ],
  "types": [
    {
      "start_date": "1876-12-19",
      "end_date": "3999-12-31",
      "id": 1001,
      "name": "Obligation ordinaire ou classique",
      "stock_group": "B"
    }
  ],
  "is_mainstock": 0,
  "prices_period": [
    "1882-07-31",
    "1882-07-31"
  ],
  "stock_exchanges": {
    "1": {
      "id": 1,
      "name": "Paris (Official List)",
      "notations": {
        "3470": {
          "id": 3470,
          "sector_id": 74,
          "start_date": "1876-12-19",
          "end_date": "1882-09-20",
          "names": [
            {
              "name": "Titres sortis Ottoman 1869",
              "start_date": "1876-12-19",
              "end_date": "3999-12-31"
            }
          ]
        }
      },
      "listings_stats": {
        "start_date": "1876-12-19"
      },
      "spot_prices_stats": {
        "start_date": "1882-07-31",
        "end_date": "1882-07-31"
      }
    }
  },
  "prices_count": 2,
  "name": "Titres sortis Ottoman 1869"
}