{
  "id": 15291,
  "share_type": {
    "id": 1,
    "name": "Stock (Action)"
  },
  "issuers": [
    {
      "id": 1957,
      "start_date": "1956-06-01",
      "end_date": "3999-12-31",
      "name": "Banque Nationale du Mexique"
    }
  ],
  "types": [
    {
      "start_date": "1956-06-01",
      "end_date": "3999-12-31",
      "id": 11,
      "name": "Action ordinaire",
      "stock_group": "S"
    }
  ],
  "is_mainstock": 0,
  "prices_period": [
    "1958-01-15",
    "1973-12-17"
  ],
  "stock_exchanges": {
    "1": {
      "id": 1,
      "name": "Paris (Official List)",
      "notations": {
        "28724": {
          "id": 28724,
          "sector_id": 528,
          "start_date": "1962-01-02",
          "end_date": "1974-01-02",
          "names": [
            {
              "name": "Banque Nationale du Mexique, Titres de 100 (nos 1423001 à 1680000) (cf Avis n° 32514)",
              "start_date": "1956-06-01",
              "end_date": "1974-01-02"
            },
            {
              "name": "Banque Nationale du Mexique Titres de 100(n° 1423001 à 1680000)",
              "start_date": "1958-01-09",
              "end_date": "1974-01-02"
            },
            {
              "name": "Banque Nationale du Mexique Titres de 100(n° 253621 à 258520)",
              "start_date": "1958-01-10",
              "end_date": "1974-01-02"
            },
            {
              "name": "Banque Nationale du Mexique, Titres de 100 (n° 253621 à 258757)",
              "start_date": "1962-01-02",
              "end_date": "1974-01-02"
            },
            {
              "name": "Banque Nationale du Mexique, act. 50 $ MEX (ex-dr., ) titres de 100 (n° 253621 à 260000)",
              "start_date": "1962-01-02",
              "end_date": "1974-01-02"
            },
            {
              "name": "Banque Nationale du Mexique, act. 50 $ MEX (titres nouveaux) Titres de 100 (n° 190251 à 201500)",
              "start_date": "1962-01-02",
              "end_date": "1974-01-02"
            },
            {
              "name": "Banque Nationale du Mexique, act. 50$ MEX (ex-dr., ) (tit. Estempillés et slipés) (avis 73-285) titres de 100",
              "start_date": "1962-01-02",
              "end_date": "3999-12-31"
            }
          ]
        },
        "145866": {
          "id": 145866,
          "sector_id": 82,
          "start_date": "1956-06-01",
          "end_date": "1962-01-02",
          "names": [
            {
              "name": "Banque Nationale du Mexique, Titres de 100 (nos 1423001 à 1680000) (cf Avis n° 32514)",
              "start_date": "1956-06-01",
              "end_date": "1962-01-02"
            },
            {
              "name": "Banque Nationale du Mexique Titres de 100(n° 1423001 à 1680000)",
              "start_date": "1956-06-01",
              "end_date": "1962-01-02"
            },
            {
              "name": "Banque Nationale du Mexique Titres de 100(n° 253621 à 258520)",
              "start_date": "1956-06-01",
              "end_date": "1962-01-02"
            },
            {
              "name": "Banque Nationale du Mexique, Titres de 100 (n° 253621 à 258757)",
              "start_date": "1956-06-01",
              "end_date": "1965-07-01"
            },
            {
              "name": "Banque Nationale du Mexique, act. 50 $ MEX (ex-dr., ) titres de 100 (n° 253621 à 260000)",
              "start_date": "1956-06-01",
              "end_date": "1965-07-02"
            },
            {
              "name": "Banque Nationale du Mexique, act. 50 $ MEX (titres nouveaux) Titres de 100 (n° 190251 à 201500)",
              "start_date": "1956-06-01",
              "end_date": "1967-09-12"
            },
            {
              "name": "Banque Nationale du Mexique, act. 50$ MEX (ex-dr., ) (tit. Estempillés et slipés) (avis 73-285) titres de 100",
              "start_date": "1956-06-01",
              "end_date": "3999-12-31"
            }
          ]
        }
      },
      "listings_stats": {
        "start_date": "1956-06-01"
      },
      "spot_prices_stats": {
        "start_date": "1958-01-15",
        "end_date": "1973-12-17"
      }
    }
  },
  "prices_count": 292,
  "name": "Banque Nationale du Mexique, Titres de 100 (n° 253621 à 258757)"
}