{
  "id": 7125,
  "share_type": {
    "id": 1,
    "name": "Stock (Action)"
  },
  "issuers": [
    {
      "id": 4426,
      "start_date": "1920-10-14",
      "end_date": "3999-12-31",
      "name": "FORGES DE STRASBOURG"
    }
  ],
  "types": [
    {
      "start_date": "1920-10-14",
      "end_date": "3999-12-31",
      "id": 18,
      "name": "Action",
      "stock_group": "S"
    }
  ],
  "is_mainstock": 1,
  "prices_period": [
    "1923-11-30",
    "1952-06-30"
  ],
  "stock_exchanges": {
    "1": {
      "id": 1,
      "name": "Paris (Official List)",
      "notations": {
        "33995": {
          "id": 33995,
          "sector_id": 104,
          "start_date": "1920-10-14",
          "end_date": "1952-07-01",
          "names": [
            {
              "name": "Forges de Strasbourg, act. 500 fr., 375 fr. payés (nom.)",
              "start_date": "1920-10-14",
              "end_date": "1952-07-01"
            },
            {
              "name": "Forges de Strasbourg, act. 500 fr., t. p. (c. 1 att.) (nom.)",
              "start_date": "1920-10-14",
              "end_date": "1952-07-01"
            },
            {
              "name": "Forges de Strasbourg, act. 500 fr., t. p. (ex-dr., )",
              "start_date": "1920-10-14",
              "end_date": "1952-07-01"
            },
            {
              "name": "Forges de Strasbourg, actions 500 fr., t. p. (n°s 1 à 128000 et 512001 à 517230)",
              "start_date": "1920-10-14",
              "end_date": "1952-07-01"
            },
            {
              "name": "Forges de Strasbourg, actions 1000 fr., t. p.",
              "start_date": "1920-10-14",
              "end_date": "1952-07-01"
            },
            {
              "name": "Forges de Strasbourg, act. Anc. 1000 fr., t. p.",
              "start_date": "1920-10-14",
              "end_date": "3999-12-31"
            }
          ]
        }
      },
      "listings_stats": {
        "start_date": "1920-10-14"
      },
      "spot_prices_stats": {
        "start_date": "1923-11-30",
        "end_date": "1952-06-30"
      }
    }
  },
  "prices_count": 370,
  "name": "Forges de Strasbourg, act. 500 fr., t. p. (ex-dr., )"
}