{
  "id": 3095,
  "share_type": {
    "id": 1,
    "name": "Stock (Action)"
  },
  "issuers": [
    {
      "id": 2509,
      "start_date": "1882-09-04",
      "end_date": "3999-12-31",
      "name": "Société Française des Steamers de l'Ouest, Mesnier et Ce"
    }
  ],
  "types": [
    {
      "start_date": "1882-09-04",
      "end_date": "3999-12-31",
      "id": 18,
      "name": "Action",
      "stock_group": "S"
    }
  ],
  "is_mainstock": 1,
  "prices_period": [
    null,
    null
  ],
  "stock_exchanges": {
    "1": {
      "id": 1,
      "name": "Paris (Official List)",
      "notations": {
        "4194": {
          "id": 4194,
          "sector_id": 73,
          "start_date": "1882-09-04",
          "end_date": "1891-07-10",
          "names": [
            {
              "name": "Steamers de l'Ouest, Mesnier et Ce (Soc.Fse des), act. 500f., t.p.",
              "start_date": "1882-09-04",
              "end_date": "3999-12-31"
            }
          ]
        }
      },
      "listings_stats": {
        "start_date": "1882-09-04"
      }
    }
  },
  "prices_count": 0,
  "name": "Steamers de l'Ouest, Mesnier et Ce (Soc.Fse des), act. 500f., t.p."
}