{
  "id": 106082,
  "share_type": {
    "id": 2,
    "name": "Bond (Obligation)"
  },
  "issuers": [
    {
      "id": 3523,
      "start_date": "1958-01-15",
      "end_date": "1958-07-31",
      "name": "SOCIETE ANONYME PHILIPS \" ECLAIRAGE ET RADIO"
    }
  ],
  "types": [
    {
      "start_date": "1958-01-15",
      "end_date": "1958-07-31",
      "id": 1001,
      "name": "Obligation ordinaire ou classique",
      "stock_group": "B"
    }
  ],
  "is_mainstock": 0,
  "prices_period": [
    "1958-01-15",
    "1958-07-31"
  ],
  "stock_exchanges": {
    "1": {
      "id": 1,
      "name": "Paris (Official List)",
      "notations": {
        "206939": {
          "id": 206939,
          "sector_id": 369,
          "start_date": "1958-01-15",
          "end_date": "1958-07-31",
          "names": [
            {
              "name": "Phillips Eclairage et Radio 4 % (Rachats ou Tirages)",
              "start_date": "1958-01-15",
              "end_date": "1958-07-31"
            }
          ]
        }
      },
      "listings_stats": {
        "start_date": "1958-01-15"
      },
      "spot_prices_stats": {
        "start_date": "1958-01-15",
        "end_date": "1958-07-31"
      }
    }
  },
  "prices_count": 14,
  "name": "Phillips Eclairage et Radio 4 % (Rachats ou Tirages)"
}