{
  "id": 17879,
  "share_type": {
    "id": 1,
    "name": "Stock (Action)"
  },
  "issuers": [
    {
      "id": 536,
      "start_date": "1962-12-10",
      "end_date": "3999-12-31",
      "name": "HAUTS FOURNEAUX, FORGES ET ACIÉRIES DE DENAIN ET D'ANZIN"
    }
  ],
  "types": [
    {
      "start_date": "1962-12-10",
      "end_date": "3999-12-31",
      "id": 27,
      "name": "Promesse d'action",
      "stock_group": "S"
    }
  ],
  "is_mainstock": 0,
  "prices_period": [
    "1962-12-10",
    "1963-05-31"
  ],
  "stock_exchanges": {
    "1": {
      "id": 1,
      "name": "Paris (Official List)",
      "notations": {
        "30328": {
          "id": 30328,
          "sector_id": 104,
          "start_date": "1963-03-04",
          "end_date": "1963-06-06",
          "names": [
            {
              "name": "DENAIN-ANZIN, Promesses (Jce 1/1/63)",
              "start_date": "1962-12-10",
              "end_date": "1963-06-06"
            },
            {
              "name": "Denain-Anzin, Act. (nos 3000001 à 3750000) (c. 21 spéc. att.)",
              "start_date": "1963-03-04",
              "end_date": "3999-12-31"
            }
          ]
        },
        "148454": {
          "id": 148454,
          "sector_id": 500,
          "start_date": "1962-12-10",
          "end_date": "1963-03-04",
          "names": [
            {
              "name": "DENAIN-ANZIN, Promesses (Jce 1/1/63)",
              "start_date": "1962-12-10",
              "end_date": "1963-04-01"
            },
            {
              "name": "Denain-Anzin, Act. (nos 3000001 à 3750000) (c. 21 spéc. att.)",
              "start_date": "1962-12-10",
              "end_date": "3999-12-31"
            }
          ]
        }
      },
      "listings_stats": {
        "start_date": "1962-12-10"
      },
      "spot_prices_stats": {
        "start_date": "1962-12-10",
        "end_date": "1963-05-31"
      }
    }
  },
  "prices_count": 15,
  "name": "DENAIN-ANZIN, Promesses (Jce 1/1/63)"
}