{
  "id": 13986,
  "share_type": {
    "id": 1,
    "name": "Stock (Action)"
  },
  "issuers": [
    {
      "id": 2357,
      "start_date": "1951-04-09",
      "end_date": "3999-12-31",
      "name": "ÉTABLISSEMENTS MESTRE ET BLATGE"
    }
  ],
  "types": [
    {
      "start_date": "1951-04-09",
      "end_date": "3999-12-31",
      "id": 18,
      "name": "Action",
      "stock_group": "S"
    }
  ],
  "is_mainstock": 0,
  "prices_period": [
    "1951-04-09",
    "1962-03-15"
  ],
  "stock_exchanges": {
    "1": {
      "id": 1,
      "name": "Paris (Official List)",
      "notations": {
        "24608": {
          "id": 24608,
          "sector_id": 318,
          "start_date": "1952-07-01",
          "end_date": "1955-12-01",
          "names": [
            {
              "name": "Mestre et Blatgé (Etabl.), act. 2500 fr., t. p. (c. 1 att.)",
              "start_date": "1951-04-09",
              "end_date": "1955-12-01"
            },
            {
              "name": "Mestre et Blatgé (Etabl.), act. 5000 fr., t.p. (ex-dr., )",
              "start_date": "1952-07-01",
              "end_date": "1955-12-01"
            },
            {
              "name": "Mestre et Blatgé (Etabliss.) act.",
              "start_date": "1952-07-01",
              "end_date": "1962-03-26"
            },
            {
              "name": "Mestre et Blatgé (Etabl.), actions (ex-dr., )",
              "start_date": "1952-07-01",
              "end_date": "3999-12-31"
            }
          ]
        },
        "25757": {
          "id": 25757,
          "sector_id": 337,
          "start_date": "1955-12-01",
          "end_date": "1961-12-30",
          "names": [
            {
              "name": "Mestre et Blatgé (Etabl.), act. 2500 fr., t. p. (c. 1 att.)",
              "start_date": "1951-04-09",
              "end_date": "1961-12-30"
            },
            {
              "name": "Mestre et Blatgé (Etabl.), act. 5000 fr., t.p. (ex-dr., )",
              "start_date": "1952-10-09",
              "end_date": "1961-12-30"
            },
            {
              "name": "Mestre et Blatgé (Etabliss.) act.",
              "start_date": "1955-12-01",
              "end_date": "1962-03-26"
            },
            {
              "name": "Mestre et Blatgé (Etabl.), actions (ex-dr., )",
              "start_date": "1955-12-01",
              "end_date": "3999-12-31"
            }
          ]
        },
        "27853": {
          "id": 27853,
          "sector_id": 494,
          "start_date": "1961-12-30",
          "end_date": "1962-03-26",
          "names": [
            {
              "name": "Mestre et Blatgé (Etabl.), act. 2500 fr., t. p. (c. 1 att.)",
              "start_date": "1951-04-09",
              "end_date": "1962-03-26"
            },
            {
              "name": "Mestre et Blatgé (Etabl.), act. 5000 fr., t.p. (ex-dr., )",
              "start_date": "1952-10-09",
              "end_date": "1962-03-26"
            },
            {
              "name": "Mestre et Blatgé (Etabliss.) act.",
              "start_date": "1955-12-01",
              "end_date": "1962-03-26"
            },
            {
              "name": "Mestre et Blatgé (Etabl.), actions (ex-dr., )",
              "start_date": "1961-12-30",
              "end_date": "3999-12-31"
            }
          ]
        },
        "144561": {
          "id": 144561,
          "sector_id": 182,
          "start_date": "1951-04-09",
          "end_date": "1952-07-01",
          "names": [
            {
              "name": "Mestre et Blatgé (Etabl.), act. 2500 fr., t. p. (c. 1 att.)",
              "start_date": "1951-04-09",
              "end_date": "1952-10-09"
            },
            {
              "name": "Mestre et Blatgé (Etabl.), act. 5000 fr., t.p. (ex-dr., )",
              "start_date": "1951-04-09",
              "end_date": "1955-12-01"
            },
            {
              "name": "Mestre et Blatgé (Etabliss.) act.",
              "start_date": "1951-04-09",
              "end_date": "1962-03-26"
            },
            {
              "name": "Mestre et Blatgé (Etabl.), actions (ex-dr., )",
              "start_date": "1951-04-09",
              "end_date": "3999-12-31"
            }
          ]
        }
      },
      "listings_stats": {
        "start_date": "1951-04-09"
      },
      "spot_prices_stats": {
        "start_date": "1951-04-09",
        "end_date": "1962-03-15"
      }
    }
  },
  "prices_count": 304,
  "name": "Mestre et Blatgé (Etabl.), act. 5000 fr., t.p. (ex-dr., )"
}