{
  "id": 14389,
  "share_type": {
    "id": 1,
    "name": "Stock (Action)"
  },
  "issuers": [
    {
      "id": 2589,
      "start_date": "1952-03-03",
      "end_date": "3999-12-31",
      "name": "CHEMINS DE FER A VOIE ÉTROITE DE ST-ETIENNE, FIRMINY, RIVE-DE-GIER ET EXTENSIONS"
    }
  ],
  "types": [
    {
      "start_date": "1952-03-03",
      "end_date": "3999-12-31",
      "id": 11,
      "name": "Action ordinaire",
      "stock_group": "S"
    }
  ],
  "is_mainstock": 0,
  "prices_period": [
    "1952-03-03",
    "1960-12-15"
  ],
  "stock_exchanges": {
    "1": {
      "id": 1,
      "name": "Paris (Official List)",
      "notations": {
        "26296": {
          "id": 26296,
          "sector_id": 417,
          "start_date": "1955-12-01",
          "end_date": "1961-01-03",
          "names": [
            {
              "name": "Saint-Etienne, Firminy, Rive-de-Gier, act. 2500 fr., t.p. (c. 1 att.)",
              "start_date": "1952-03-03",
              "end_date": "1961-01-03"
            },
            {
              "name": "Chemins de fer de Saint-Etienne, Firminy, Rive-de-Gier, act.",
              "start_date": "1955-12-01",
              "end_date": "3999-12-31"
            }
          ]
        },
        "144964": {
          "id": 144964,
          "sector_id": 240,
          "start_date": "1952-03-03",
          "end_date": "1955-12-01",
          "names": [
            {
              "name": "Saint-Etienne, Firminy, Rive-de-Gier, act. 2500 fr., t.p. (c. 1 att.)",
              "start_date": "1952-03-03",
              "end_date": "1955-12-01"
            },
            {
              "name": "Chemins de fer de Saint-Etienne, Firminy, Rive-de-Gier, act.",
              "start_date": "1952-03-03",
              "end_date": "3999-12-31"
            }
          ]
        }
      },
      "listings_stats": {
        "start_date": "1952-03-03"
      },
      "spot_prices_stats": {
        "start_date": "1952-03-03",
        "end_date": "1960-12-15"
      }
    }
  },
  "prices_count": 230,
  "name": "Chemins de fer de Saint-Etienne, Firminy, Rive-de-Gier, act."
}