{
  "id": 5158,
  "share_type": {
    "id": 2,
    "name": "Bond (Obligation)"
  },
  "issuers": [
    {
      "id": 795,
      "start_date": "1913-10-28",
      "end_date": "3999-12-31",
      "name": "ETATS : ITALIE"
    }
  ],
  "types": [
    {
      "start_date": "1913-10-28",
      "end_date": "3999-12-31",
      "id": 1001,
      "name": "Obligation ordinaire ou classique",
      "stock_group": "B"
    }
  ],
  "is_mainstock": 0,
  "prices_period": [
    "1913-10-28",
    "1913-10-28"
  ],
  "stock_exchanges": {
    "1": {
      "id": 1,
      "name": "Paris (Official List)",
      "notations": {
        "6257": {
          "id": 6257,
          "sector_id": 67,
          "start_date": "1913-10-28",
          "end_date": "1913-10-30",
          "names": [
            {
              "name": "Italie 3% Coup. de 150, 6, 3.",
              "start_date": "1913-10-28",
              "end_date": "3999-12-31"
            }
          ]
        }
      },
      "listings_stats": {
        "start_date": "1913-10-28"
      },
      "spot_prices_stats": {
        "start_date": "1913-10-28",
        "end_date": "1913-10-28"
      }
    }
  },
  "prices_count": 1,
  "name": "Italie 3% Coup. de 150, 6, 3."
}