{
  "id": 16123,
  "share_type": {
    "id": 1,
    "name": "Stock (Action)"
  },
  "issuers": [
    {
      "id": 4939,
      "start_date": "1960-02-03",
      "end_date": "3999-12-31",
      "name": "ETABLISSEMENTS ZIEGLER"
    }
  ],
  "types": [
    {
      "start_date": "1960-02-03",
      "end_date": "3999-12-31",
      "id": 18,
      "name": "Action",
      "stock_group": "S"
    }
  ],
  "is_mainstock": 0,
  "prices_period": [
    "1960-05-16",
    "1960-06-30"
  ],
  "stock_exchanges": {
    "1": {
      "id": 1,
      "name": "Paris (Official List)",
      "notations": {
        "146698": {
          "id": 146698,
          "sector_id": 104,
          "start_date": "1960-02-03",
          "end_date": "1960-07-06",
          "names": [
            {
              "name": "Ziegler (Etabl), act (n 72001 à 90000)(c 12 att)",
              "start_date": "1960-02-03",
              "end_date": "3999-12-31"
            }
          ]
        }
      },
      "listings_stats": {
        "start_date": "1960-02-03"
      },
      "spot_prices_stats": {
        "start_date": "1960-05-16",
        "end_date": "1960-06-30"
      }
    }
  },
  "prices_count": 4,
  "name": "Ziegler (Etabl), act (n 72001 à 90000)(c 12 att)"
}