{
  "id": 13823,
  "share_type": {
    "id": 1,
    "name": "Stock (Action)"
  },
  "issuers": [
    {
      "id": 3725,
      "start_date": "1951-04-16",
      "end_date": "3999-12-31",
      "name": "COMPAGNIE FRANCO-INDOCHINOISE"
    }
  ],
  "types": [
    {
      "start_date": "1951-04-16",
      "end_date": "3999-12-31",
      "id": 11,
      "name": "Action ordinaire",
      "stock_group": "S"
    }
  ],
  "is_mainstock": 0,
  "prices_period": [
    "1951-06-15",
    "1960-12-15"
  ],
  "stock_exchanges": {
    "1": {
      "id": 1,
      "name": "Paris (Official List)",
      "notations": {
        "25641": {
          "id": 25641,
          "sector_id": 387,
          "start_date": "1955-12-01",
          "end_date": "1961-01-03",
          "names": [
            {
              "name": "Franco-Indochinoise (Cie), act. 5000 fr., t. p. (c. 1 att.)",
              "start_date": "1951-04-16",
              "end_date": "1961-01-03"
            },
            {
              "name": "Franco-Indochinoise (Cie), act.",
              "start_date": "1955-12-01",
              "end_date": "3999-12-31"
            }
          ]
        },
        "144398": {
          "id": 144398,
          "sector_id": 277,
          "start_date": "1951-04-16",
          "end_date": "1955-12-01",
          "names": [
            {
              "name": "Franco-Indochinoise (Cie), act. 5000 fr., t. p. (c. 1 att.)",
              "start_date": "1951-04-16",
              "end_date": "1955-12-01"
            },
            {
              "name": "Franco-Indochinoise (Cie), act.",
              "start_date": "1951-04-16",
              "end_date": "3999-12-31"
            }
          ]
        }
      },
      "listings_stats": {
        "start_date": "1951-04-16"
      },
      "spot_prices_stats": {
        "start_date": "1951-06-15",
        "end_date": "1960-12-15"
      }
    }
  },
  "prices_count": 247,
  "name": "Franco-Indochinoise (Cie), act."
}