{
  "id": 1408,
  "share_type": {
    "id": 1,
    "name": "Stock (Action)"
  },
  "issuers": [
    {
      "id": 1262,
      "start_date": "1863-06-30",
      "end_date": "3999-12-31",
      "name": "Société générale de Commerce et d'Industrie établie à Amsterdam"
    }
  ],
  "types": [
    {
      "start_date": "1863-06-30",
      "end_date": "3999-12-31",
      "id": 18,
      "name": "Action",
      "stock_group": "S"
    }
  ],
  "is_mainstock": 1,
  "prices_period": [
    "1863-06-30",
    "1868-01-31"
  ],
  "stock_exchanges": {
    "1": {
      "id": 1,
      "name": "Paris (Official List)",
      "notations": {
        "1477": {
          "id": 1477,
          "sector_id": 82,
          "start_date": "1866-02-18",
          "end_date": "1868-02-08",
          "names": [
            {
              "name": "Société générale de Commerce et d'Industrie établie à Amsterdam, a. 540f, 270 f p. j. mai 63",
              "start_date": "1863-06-30",
              "end_date": "1868-02-08"
            },
            {
              "name": "Société générale de Commerce et d'Industrie établie à Amsterdam, a. 540f, 270 f. p.",
              "start_date": "1866-02-18",
              "end_date": "3999-12-31"
            }
          ]
        },
        "2517": {
          "id": 2517,
          "sector_id": 576,
          "start_date": "1863-06-30",
          "end_date": "1866-02-18",
          "names": [
            {
              "name": "Société générale de Commerce et d'Industrie établie à Amsterdam, a. 540f, 270 f p. j. mai 63",
              "start_date": "1863-06-30",
              "end_date": "1866-02-18"
            },
            {
              "name": "Société générale de Commerce et d'Industrie établie à Amsterdam, a. 540f, 270 f. p.",
              "start_date": "1863-06-30",
              "end_date": "3999-12-31"
            }
          ]
        }
      },
      "listings_stats": {
        "start_date": "1863-06-30"
      },
      "spot_prices_stats": {
        "start_date": "1863-06-30",
        "end_date": "1868-01-31"
      }
    }
  },
  "prices_count": 147,
  "name": "Société générale de Commerce et d'Industrie établie à Amsterdam, a. 540f, 270 f. p."
}