{
  "id": 13177,
  "share_type": {
    "id": 2,
    "name": "Bond (Obligation)"
  },
  "issuers": [
    {
      "id": 1265,
      "start_date": "1870-05-23",
      "end_date": "3999-12-31",
      "name": "EGYPTE"
    }
  ],
  "types": [
    {
      "start_date": "1600-01-01",
      "end_date": "3999-12-31",
      "id": 1033,
      "name": "Obligations Hypothécaires",
      "stock_group": "B"
    }
  ],
  "is_mainstock": 0,
  "prices_period": [
    "1870-05-31",
    "1870-05-31"
  ],
  "stock_exchanges": {
    "1": {
      "id": 1,
      "name": "Paris (Official List)",
      "notations": {
        "143752": {
          "id": 143752,
          "sector_id": 74,
          "start_date": "1870-05-23",
          "end_date": "1870-06-17",
          "names": [
            {
              "name": "Et vice-roi d'Egyp.1870 Ob. hyp. 75f. p.",
              "start_date": "1870-05-23",
              "end_date": "3999-12-31"
            }
          ]
        }
      },
      "listings_stats": {
        "start_date": "1870-05-23"
      },
      "spot_prices_stats": {
        "start_date": "1870-05-31",
        "end_date": "1870-05-31"
      }
    }
  },
  "prices_count": 2,
  "name": "Et vice-roi d'Egyp.1870 Ob. hyp. 75f. p."
}