{
  "id": 4248,
  "share_type": {
    "id": 1,
    "name": "Stock (Action)"
  },
  "issuers": [
    {
      "id": 3108,
      "start_date": "1896-02-06",
      "end_date": "3999-12-31",
      "name": "Mines d'Or de la Russie (Rossiskoé)"
    }
  ],
  "types": [
    {
      "start_date": "1896-02-06",
      "end_date": "3999-12-31",
      "id": 18,
      "name": "Action",
      "stock_group": "S"
    }
  ],
  "is_mainstock": 1,
  "prices_period": [
    "1896-02-06",
    "1898-10-31"
  ],
  "stock_exchanges": {
    "1": {
      "id": 1,
      "name": "Paris (Official List)",
      "notations": {
        "5347": {
          "id": 5347,
          "sector_id": 68,
          "start_date": "1896-02-06",
          "end_date": "1899-02-22",
          "names": [
            {
              "name": "Mines d'Or de la Russie (Rossiskoé), actions de 100 roubles or ou 400 f. tout payé.",
              "start_date": "1896-02-06",
              "end_date": "3999-12-31"
            }
          ]
        }
      },
      "forward_prices_stats": {
        "start_date": "1896-02-06",
        "end_date": "1898-10-31"
      },
      "listings_stats": {
        "start_date": "1896-02-06"
      },
      "spot_prices_stats": {
        "start_date": "1896-02-06",
        "end_date": "1898-08-31"
      }
    }
  },
  "prices_count": 51,
  "name": "Mines d'Or de la Russie (Rossiskoé), actions de 100 roubles or ou 400 f. tout payé."
}