{
  "id": 5086,
  "share_type": {
    "id": 2,
    "name": "Bond (Obligation)"
  },
  "issuers": [
    {
      "id": 3323,
      "start_date": "1910-06-07",
      "end_date": "3999-12-31",
      "name": "MAROC"
    }
  ],
  "types": [
    {
      "start_date": "1910-06-07",
      "end_date": "3999-12-31",
      "id": 1001,
      "name": "Obligation ordinaire ou classique",
      "stock_group": "B"
    }
  ],
  "is_mainstock": 0,
  "prices_period": [
    "1910-06-07",
    "1966-09-30"
  ],
  "stock_exchanges": {
    "1": {
      "id": 1,
      "name": "Paris (Official List)",
      "notations": {
        "6185": {
          "id": 6185,
          "sector_id": 67,
          "start_date": "1910-06-07",
          "end_date": "1914-08-03",
          "names": [
            {
              "name": "Maroc 5% 1910, remb. à 500 fr (Certificats provisoires français)",
              "start_date": "1910-06-07",
              "end_date": "1914-08-03"
            },
            {
              "name": "Maroc 5% 1910, remb. à 500 fr",
              "start_date": "1910-06-07",
              "end_date": "1925-05-01"
            },
            {
              "name": "Maroc 5% 1910, remb. au pair",
              "start_date": "1910-06-07",
              "end_date": "1934-01-02"
            },
            {
              "name": "Maroc. 5% 1910, oblig. 500 pes. Ou fr",
              "start_date": "1910-06-07",
              "end_date": "1955-12-01"
            },
            {
              "name": "Maroc 5% 1910, obl. 500 pes. Ou f. (n°s 1 à 202248)",
              "start_date": "1910-06-07",
              "end_date": "3999-12-31"
            }
          ]
        },
        "6754": {
          "id": 6754,
          "sector_id": 67,
          "start_date": "1914-12-15",
          "end_date": "1925-05-01",
          "names": [
            {
              "name": "Maroc 5% 1910, remb. à 500 fr (Certificats provisoires français)",
              "start_date": "1910-06-07",
              "end_date": "1925-05-01"
            },
            {
              "name": "Maroc 5% 1910, remb. à 500 fr",
              "start_date": "1911-07-26",
              "end_date": "1925-05-01"
            },
            {
              "name": "Maroc 5% 1910, remb. au pair",
              "start_date": "1914-12-15",
              "end_date": "1934-01-02"
            },
            {
              "name": "Maroc. 5% 1910, oblig. 500 pes. Ou fr",
              "start_date": "1914-12-15",
              "end_date": "1955-12-01"
            },
            {
              "name": "Maroc 5% 1910, obl. 500 pes. Ou f. (n°s 1 à 202248)",
              "start_date": "1914-12-15",
              "end_date": "3999-12-31"
            }
          ]
        },
        "13300": {
          "id": 13300,
          "sector_id": 74,
          "start_date": "1925-05-01",
          "end_date": "1940-06-11",
          "names": [
            {
              "name": "Maroc 5% 1910, remb. à 500 fr (Certificats provisoires français)",
              "start_date": "1910-06-07",
              "end_date": "1940-06-11"
            },
            {
              "name": "Maroc 5% 1910, remb. à 500 fr",
              "start_date": "1911-07-26",
              "end_date": "1940-06-11"
            },
            {
              "name": "Maroc 5% 1910, remb. au pair",
              "start_date": "1925-05-01",
              "end_date": "1940-06-11"
            },
            {
              "name": "Maroc. 5% 1910, oblig. 500 pes. Ou fr",
              "start_date": "1925-05-01",
              "end_date": "1955-12-01"
            },
            {
              "name": "Maroc 5% 1910, obl. 500 pes. Ou f. (n°s 1 à 202248)",
              "start_date": "1925-05-01",
              "end_date": "3999-12-31"
            }
          ]
        },
        "22473": {
          "id": 22473,
          "sector_id": 74,
          "start_date": "1944-10-10",
          "end_date": "1966-10-03",
          "names": [
            {
              "name": "Maroc 5% 1910, remb. à 500 fr (Certificats provisoires français)",
              "start_date": "1910-06-07",
              "end_date": "1966-10-03"
            },
            {
              "name": "Maroc 5% 1910, remb. à 500 fr",
              "start_date": "1911-07-26",
              "end_date": "1966-10-03"
            },
            {
              "name": "Maroc 5% 1910, remb. au pair",
              "start_date": "1925-05-01",
              "end_date": "1966-10-03"
            },
            {
              "name": "Maroc. 5% 1910, oblig. 500 pes. Ou fr",
              "start_date": "1934-01-02",
              "end_date": "1966-10-03"
            },
            {
              "name": "Maroc 5% 1910, obl. 500 pes. Ou f. (n°s 1 à 202248)",
              "start_date": "1944-10-10",
              "end_date": "3999-12-31"
            }
          ]
        }
      },
      "forward_prices_stats": {
        "start_date": "1910-06-07",
        "end_date": "1913-09-01"
      },
      "listings_stats": {
        "start_date": "1910-06-07"
      },
      "spot_prices_stats": {
        "start_date": "1910-06-07",
        "end_date": "1966-09-30"
      }
    }
  },
  "prices_count": 1667,
  "name": "Maroc 5% 1910, remb. à 500 fr"
}