{
  "id": 15658,
  "share_type": {
    "id": 1,
    "name": "Stock (Action)"
  },
  "issuers": [
    {
      "id": 4320,
      "start_date": "1958-01-02",
      "end_date": "3999-12-31",
      "name": "L'AFRICAINE FRANÇAISE (Société d'exploitation des produits africains)"
    }
  ],
  "types": [
    {
      "start_date": "1958-01-02",
      "end_date": "3999-12-31",
      "id": 18,
      "name": "Action",
      "stock_group": "S"
    }
  ],
  "is_mainstock": 0,
  "prices_period": [
    null,
    null
  ],
  "stock_exchanges": {
    "1": {
      "id": 1,
      "name": "Paris (Official List)",
      "notations": {
        "146233": {
          "id": 146233,
          "sector_id": 232,
          "start_date": "1958-01-02",
          "end_date": "1959-01-02",
          "names": [
            {
              "name": "Africaine Francaise (L') act",
              "start_date": "1958-01-02",
              "end_date": "3999-12-31"
            }
          ]
        }
      },
      "listings_stats": {
        "start_date": "1958-01-02"
      }
    }
  },
  "prices_count": 0,
  "name": "Africaine Francaise (L') act"
}