{
  "id": 15492,
  "share_type": {
    "id": 1,
    "name": "Stock (Action)"
  },
  "issuers": [
    {
      "id": 2766,
      "start_date": "1957-06-17",
      "end_date": "3999-12-31",
      "name": "SOCIETÉ MÉTALLURGIQUE DE SENELLE-MAUBEUGE"
    }
  ],
  "types": [
    {
      "start_date": "1957-06-17",
      "end_date": "3999-12-31",
      "id": 27,
      "name": "Promesse d'action",
      "stock_group": "S"
    }
  ],
  "is_mainstock": 0,
  "prices_period": [
    "1957-06-17",
    "1957-11-15"
  ],
  "stock_exchanges": {
    "1": {
      "id": 1,
      "name": "Paris (Official List)",
      "notations": {
        "146067": {
          "id": 146067,
          "sector_id": 104,
          "start_date": "1957-06-17",
          "end_date": "1957-12-02",
          "names": [
            {
              "name": "Senelle-Maubeuge (Sté Métallurg.), promesses (Jce 1/1/57)",
              "start_date": "1957-06-17",
              "end_date": "1957-12-02"
            },
            {
              "name": "Senelle-Maubeuge (Sté Métallurg.), act. Nouv. (Jce 1/1/57)",
              "start_date": "1957-06-17",
              "end_date": "3999-12-31"
            }
          ]
        }
      },
      "listings_stats": {
        "start_date": "1957-06-17"
      },
      "spot_prices_stats": {
        "start_date": "1957-06-17",
        "end_date": "1957-11-15"
      }
    }
  },
  "prices_count": 11,
  "name": "Senelle-Maubeuge (Sté Métallurg.), promesses (Jce 1/1/57)"
}