{
  "id": 20164,
  "share_type": {
    "id": 1,
    "name": "Stock (Action)"
  },
  "issuers": [
    {
      "id": 6156,
      "start_date": "1970-12-01",
      "end_date": "3999-12-31",
      "name": "Locindus"
    }
  ],
  "types": [
    {
      "start_date": "1970-12-01",
      "end_date": "3999-12-31",
      "id": 11,
      "name": "Action ordinaire",
      "stock_group": "S"
    }
  ],
  "is_mainstock": 0,
  "prices_period": [
    "1970-12-01",
    "1971-04-30"
  ],
  "stock_exchanges": {
    "1": {
      "id": 1,
      "name": "Paris (Official List)",
      "notations": {
        "150739": {
          "id": 150739,
          "sector_id": 333,
          "start_date": "1970-12-01",
          "end_date": "1971-05-12",
          "names": [
            {
              "name": "Locindus, act. (nos 480001 à 1440000) (c. 4 étoilé att.)",
              "start_date": "1970-12-01",
              "end_date": "3999-12-31"
            }
          ]
        }
      },
      "listings_stats": {
        "start_date": "1970-12-01"
      },
      "spot_prices_stats": {
        "start_date": "1970-12-01",
        "end_date": "1971-04-30"
      }
    }
  },
  "prices_count": 11,
  "name": "Locindus, act. (nos 480001 à 1440000) (c. 4 étoilé att.)"
}