{
  "id": 11375,
  "share_type": {
    "id": 1,
    "name": "Stock (Action)"
  },
  "issuers": [
    {
      "id": 4253,
      "start_date": "1940-04-24",
      "end_date": "3999-12-31",
      "name": "LIBRAIRIE HACHETTE"
    }
  ],
  "types": [
    {
      "start_date": "1940-04-24",
      "end_date": "3999-12-31",
      "id": 20,
      "name": "Part de bénéfice (part bénéficiaire)",
      "stock_group": "S"
    }
  ],
  "is_mainstock": 0,
  "prices_period": [
    "1940-04-24",
    "1957-02-28"
  ],
  "stock_exchanges": {
    "1": {
      "id": 1,
      "name": "Paris (Official List)",
      "notations": {
        "25957": {
          "id": 25957,
          "sector_id": 403,
          "start_date": "1955-12-01",
          "end_date": "1957-03-06",
          "names": [
            {
              "name": "Librairie Hachette, parts bénéf (Jce 20/2/40)",
              "start_date": "1940-04-24",
              "end_date": "1957-03-06"
            },
            {
              "name": "Librairie Hachette, Parts bénéf.",
              "start_date": "1950-01-03",
              "end_date": "1957-03-06"
            },
            {
              "name": "Hachettes (Librairie), Parts bénéf.",
              "start_date": "1955-12-01",
              "end_date": "3999-12-31"
            }
          ]
        },
        "141950": {
          "id": 141950,
          "sector_id": 191,
          "start_date": "1940-04-24",
          "end_date": "1955-12-01",
          "names": [
            {
              "name": "Librairie Hachette, parts bénéf (Jce 20/2/40)",
              "start_date": "1940-04-24",
              "end_date": "1955-12-01"
            },
            {
              "name": "Librairie Hachette, Parts bénéf.",
              "start_date": "1940-04-24",
              "end_date": "1955-12-01"
            },
            {
              "name": "Hachettes (Librairie), Parts bénéf.",
              "start_date": "1940-04-24",
              "end_date": "3999-12-31"
            }
          ]
        }
      },
      "listings_stats": {
        "start_date": "1940-04-24"
      },
      "spot_prices_stats": {
        "start_date": "1940-04-24",
        "end_date": "1957-02-28"
      }
    }
  },
  "prices_count": 394,
  "name": "Librairie Hachette, Parts bénéf."
}