{
  "id": 9042,
  "share_type": {
    "id": 1,
    "name": "Stock (Action)"
  },
  "issuers": [
    {
      "id": 5478,
      "start_date": "1928-12-20",
      "end_date": "3999-12-31",
      "name": "SOCIÉTÉ INDO-CHINOISE D'ÉLECTRICITÉ"
    }
  ],
  "types": [
    {
      "start_date": "1928-12-20",
      "end_date": "3999-12-31",
      "id": 11,
      "name": "Action ordinaire",
      "stock_group": "S"
    }
  ],
  "is_mainstock": 0,
  "prices_period": [
    "1928-12-20",
    "1929-01-02"
  ],
  "stock_exchanges": {
    "1": {
      "id": 1,
      "name": "Paris (Official List)",
      "notations": {
        "136489": {
          "id": 136489,
          "sector_id": 116,
          "start_date": "1928-12-20",
          "end_date": "1929-01-15",
          "names": [
            {
              "name": "Indo-Chinoise d'Electricité, act. 500 f., t.p. (nos 5601 à 42000) (dr. et c. 43 att.)",
              "start_date": "1928-12-20",
              "end_date": "3999-12-31"
            }
          ]
        }
      },
      "listings_stats": {
        "start_date": "1928-12-20"
      },
      "spot_prices_stats": {
        "start_date": "1928-12-20",
        "end_date": "1929-01-02"
      }
    }
  },
  "prices_count": 4,
  "name": "Indo-Chinoise d'Electricité, act. 500 f., t.p. (nos 5601 à 42000) (dr. et c. 43 att.)"
}