{
  "id": 13787,
  "share_type": {
    "id": 1,
    "name": "Stock (Action)"
  },
  "issuers": [
    {
      "id": 1330,
      "start_date": "1950-09-18",
      "end_date": "3999-12-31",
      "name": "Société de Commentry-Fourchambault"
    }
  ],
  "types": [
    {
      "start_date": "1950-09-18",
      "end_date": "3999-12-31",
      "id": 11,
      "name": "Action ordinaire",
      "stock_group": "S"
    }
  ],
  "is_mainstock": 0,
  "prices_period": [
    "1950-09-18",
    "1970-06-30"
  ],
  "stock_exchanges": {
    "1": {
      "id": 1,
      "name": "Paris (Official List)",
      "notations": {
        "26068": {
          "id": 26068,
          "sector_id": 104,
          "start_date": "1955-12-01",
          "end_date": "1961-12-30",
          "names": [
            {
              "name": "Commentry-Fourchambault et Decazeville, a. 3000 fr., t. p. (n°s 27211 à 187200) (c. 1 att.)",
              "start_date": "1950-09-18",
              "end_date": "1961-12-30"
            },
            {
              "name": "Métallurgique d'Imphy (Sté) (Ex-Commentry-Fourchambault), act. 5000 fr., t. p. (n° 27211 à 190598) (Cf Avis n° 30762)",
              "start_date": "1954-05-25",
              "end_date": "1961-12-30"
            },
            {
              "name": "Imphy (Sté Métallurgique d') (ex-Commentry-Fourchambault), act. (n°s 27211 à 194000) (Cf Avis n° 31677)",
              "start_date": "1955-12-01",
              "end_date": "1970-07-10"
            },
            {
              "name": "Imphy (Sté Métallurg.de) (en liq.), act. (nos 27211 à 349272)",
              "start_date": "1955-12-01",
              "end_date": "3999-12-31"
            }
          ]
        },
        "28072": {
          "id": 28072,
          "sector_id": 500,
          "start_date": "1961-12-30",
          "end_date": "1963-03-04",
          "names": [
            {
              "name": "Commentry-Fourchambault et Decazeville, a. 3000 fr., t. p. (n°s 27211 à 187200) (c. 1 att.)",
              "start_date": "1950-09-18",
              "end_date": "1963-03-04"
            },
            {
              "name": "Métallurgique d'Imphy (Sté) (Ex-Commentry-Fourchambault), act. 5000 fr., t. p. (n° 27211 à 190598) (Cf Avis n° 30762)",
              "start_date": "1954-05-25",
              "end_date": "1963-03-04"
            },
            {
              "name": "Imphy (Sté Métallurgique d') (ex-Commentry-Fourchambault), act. (n°s 27211 à 194000) (Cf Avis n° 31677)",
              "start_date": "1955-12-01",
              "end_date": "1970-07-10"
            },
            {
              "name": "Imphy (Sté Métallurg.de) (en liq.), act. (nos 27211 à 349272)",
              "start_date": "1961-12-30",
              "end_date": "3999-12-31"
            }
          ]
        },
        "30278": {
          "id": 30278,
          "sector_id": 104,
          "start_date": "1963-03-04",
          "end_date": "1970-07-10",
          "names": [
            {
              "name": "Commentry-Fourchambault et Decazeville, a. 3000 fr., t. p. (n°s 27211 à 187200) (c. 1 att.)",
              "start_date": "1950-09-18",
              "end_date": "1970-07-10"
            },
            {
              "name": "Métallurgique d'Imphy (Sté) (Ex-Commentry-Fourchambault), act. 5000 fr., t. p. (n° 27211 à 190598) (Cf Avis n° 30762)",
              "start_date": "1954-05-25",
              "end_date": "1970-07-10"
            },
            {
              "name": "Imphy (Sté Métallurgique d') (ex-Commentry-Fourchambault), act. (n°s 27211 à 194000) (Cf Avis n° 31677)",
              "start_date": "1955-12-01",
              "end_date": "1970-07-10"
            },
            {
              "name": "Imphy (Sté Métallurg.de) (en liq.), act. (nos 27211 à 349272)",
              "start_date": "1963-03-04",
              "end_date": "3999-12-31"
            }
          ]
        },
        "144362": {
          "id": 144362,
          "sector_id": 104,
          "start_date": "1950-09-18",
          "end_date": "1955-12-01",
          "names": [
            {
              "name": "Commentry-Fourchambault et Decazeville, a. 3000 fr., t. p. (n°s 27211 à 187200) (c. 1 att.)",
              "start_date": "1950-09-18",
              "end_date": "1955-12-01"
            },
            {
              "name": "Métallurgique d'Imphy (Sté) (Ex-Commentry-Fourchambault), act. 5000 fr., t. p. (n° 27211 à 190598) (Cf Avis n° 30762)",
              "start_date": "1950-09-18",
              "end_date": "1955-12-01"
            },
            {
              "name": "Imphy (Sté Métallurgique d') (ex-Commentry-Fourchambault), act. (n°s 27211 à 194000) (Cf Avis n° 31677)",
              "start_date": "1950-09-18",
              "end_date": "1970-07-10"
            },
            {
              "name": "Imphy (Sté Métallurg.de) (en liq.), act. (nos 27211 à 349272)",
              "start_date": "1950-09-18",
              "end_date": "3999-12-31"
            }
          ]
        }
      },
      "listings_stats": {
        "start_date": "1950-09-18"
      },
      "spot_prices_stats": {
        "start_date": "1950-09-18",
        "end_date": "1970-06-30"
      }
    }
  },
  "prices_count": 511,
  "name": "Imphy (Sté Métallurgique d') (ex-Commentry-Fourchambault), act. (n°s 27211 à 194000) (Cf Avis n° 31677)"
}