{
  "id": 103843,
  "share_type": {
    "id": 4,
    "name": "Rights (Droits)"
  },
  "issuers": [
    {
      "id": 2246,
      "start_date": "1948-04-22",
      "end_date": "3999-12-31",
      "name": "LA PRÉVOYANCE-INCENDIE CIE D'ASSURANCES ET DE RÉASSURANCES CONTRE L'INCENDIE"
    }
  ],
  "types": [
    {
      "start_date": "1948-04-22",
      "end_date": "3999-12-31",
      "id": 501,
      "name": "Droit de souscription",
      "stock_group": "R"
    }
  ],
  "is_mainstock": 0,
  "prices_period": [
    null,
    null
  ],
  "stock_exchanges": {
    "1": {
      "id": 1,
      "name": "Paris (Official List)",
      "notations": {
        "204025": {
          "id": 204025,
          "sector_id": 657,
          "start_date": "1948-04-22",
          "end_date": "4000-01-01",
          "names": [
            {
              "name": "Prévoyance (Incendie) (bon de droit). 1 act. Prévoyance (Risques de toute nature) cédée à 221 fr. pour 1 a. cap. ou 1 a. jouiss. Prévoyance-Acc. (Voir Avis n° 24552)",
              "start_date": "1948-04-22",
              "end_date": "4000-01-01"
            }
          ]
        }
      },
      "listings_stats": {
        "start_date": "1948-04-22"
      }
    }
  },
  "prices_count": 0,
  "name": "Prévoyance (Incendie) (bon de droit). 1 act. Prévoyance (Risques de toute nature) cédée à 221 fr. pour 1 a. cap. ou 1 a. jouiss. Prévoyance-Acc. (Voir Avis n° 24552)"
}