{
  "id": 18389,
  "share_type": {
    "id": 1,
    "name": "Stock (Action)"
  },
  "issuers": [
    {
      "id": 5634,
      "start_date": "1965-07-19",
      "end_date": "3999-12-31",
      "name": "Soprinsam (Société privée d’Investissement de la Samaritaine)"
    }
  ],
  "types": [
    {
      "start_date": "1965-07-19",
      "end_date": "3999-12-31",
      "id": 18,
      "name": "Action",
      "stock_group": "S"
    }
  ],
  "is_mainstock": 0,
  "prices_period": [
    "1965-07-19",
    "1973-10-31"
  ],
  "stock_exchanges": {
    "1": {
      "id": 1,
      "name": "Paris (Official List)",
      "notations": {
        "148964": {
          "id": 148964,
          "sector_id": 461,
          "start_date": "1965-07-19",
          "end_date": "1973-11-12",
          "names": [
            {
              "name": "Soprinsam (Sté Privée d'Invest. De la Samaritaine), act.",
              "start_date": "1965-07-19",
              "end_date": "3999-12-31"
            }
          ]
        }
      },
      "listings_stats": {
        "start_date": "1965-07-19"
      },
      "spot_prices_stats": {
        "start_date": "1965-07-19",
        "end_date": "1973-10-31"
      }
    }
  },
  "prices_count": 200,
  "name": "Soprinsam (Sté Privée d'Invest. De la Samaritaine), act."
}