{
  "id": 102236,
  "share_type": {
    "id": 4,
    "name": "Rights (Droits)"
  },
  "issuers": [
    {
      "id": 5358,
      "start_date": "1934-02-13",
      "end_date": "1934-02-27",
      "name": "ÉTABLISSEMENTS COTELLE ET FOUCHER (Javel \" La Croix \")"
    }
  ],
  "types": [
    {
      "start_date": "1934-02-13",
      "end_date": "1934-02-27",
      "id": 501,
      "name": "Droit de souscription",
      "stock_group": "R"
    }
  ],
  "is_mainstock": 0,
  "prices_period": [
    "1934-02-13",
    "1934-02-15"
  ],
  "stock_exchanges": {
    "1": {
      "id": 1,
      "name": "Paris (Official List)",
      "notations": {
        "202418": {
          "id": 202418,
          "sector_id": 657,
          "start_date": "1934-02-13",
          "end_date": "1934-02-28",
          "names": [
            {
              "name": "Act. de 2e série Etabl. Cotelle et Foucher (droit et coupon 21). Pour 10 act. anciennes, 1 act. nouvelle émise à 1800 francs",
              "start_date": "1934-02-13",
              "end_date": "1934-02-28"
            }
          ]
        }
      },
      "listings_stats": {
        "start_date": "1934-02-13"
      },
      "spot_prices_stats": {
        "start_date": "1934-02-13",
        "end_date": "1934-02-15"
      }
    }
  },
  "prices_count": 3,
  "name": "Act. de 2e série Etabl. Cotelle et Foucher (droit et coupon 21). Pour 10 act. anciennes, 1 act. nouvelle émise à 1800 francs"
}