{
  "id": 100457,
  "share_type": {
    "id": 4,
    "name": "Rights (Droits)"
  },
  "issuers": [
    {
      "id": 1641,
      "start_date": "1949-06-16",
      "end_date": "3999-12-31",
      "name": "SOCIETE DES MINES DE LENS"
    }
  ],
  "types": [
    {
      "start_date": "1949-06-16",
      "end_date": "3999-12-31",
      "id": 502,
      "name": "Droit d'attribution",
      "stock_group": "R"
    }
  ],
  "is_mainstock": 0,
  "prices_period": [
    "1949-06-16",
    "1949-06-16"
  ],
  "stock_exchanges": {
    "1": {
      "id": 1,
      "name": "Paris (Official List)",
      "notations": {
        "200484": {
          "id": 200484,
          "sector_id": 658,
          "start_date": "1949-06-16",
          "end_date": "4000-01-01",
          "names": [
            {
              "name": "Mines de Lens, act. (1 action Sté Industrielle et Financière du Nord et 1 act. Forges et Aciéries du Nord et de l'Est pour 5 act. Mines de Lens, coupon 43 attaché)",
              "start_date": "1949-06-16",
              "end_date": "4000-01-01"
            }
          ]
        }
      },
      "listings_stats": {
        "start_date": "1949-06-16"
      },
      "spot_prices_stats": {
        "start_date": "1949-06-16",
        "end_date": "1949-06-16"
      }
    }
  },
  "prices_count": 1,
  "name": "Mines de Lens, act. (1 action Sté Industrielle et Financière du Nord et 1 act. Forges et Aciéries du Nord et de l'Est pour 5 act. Mines de Lens, coupon 43 attaché)"
}