{
  "id": 15233,
  "share_type": {
    "id": 1,
    "name": "Stock (Action)"
  },
  "issuers": [
    {
      "id": 4101,
      "start_date": "1956-03-01",
      "end_date": "3999-12-31",
      "name": "SOCIÉTÉ ALSACIENNE DE CONSTRUCTIONS MECANIQUES"
    }
  ],
  "types": [
    {
      "start_date": "1956-03-01",
      "end_date": "3999-12-31",
      "id": 11,
      "name": "Action ordinaire",
      "stock_group": "S"
    }
  ],
  "is_mainstock": 0,
  "prices_period": [
    "1956-03-01",
    "1956-04-30"
  ],
  "stock_exchanges": {
    "1": {
      "id": 1,
      "name": "Paris (Official List)",
      "notations": {
        "145808": {
          "id": 145808,
          "sector_id": 397,
          "start_date": "1956-03-01",
          "end_date": "1956-05-15",
          "names": [
            {
              "name": "Alsacienne de Construct. Mécanique, act. (nos 600001 à 800000) (c. 9 att.)",
              "start_date": "1956-03-01",
              "end_date": "3999-12-31"
            }
          ]
        }
      },
      "listings_stats": {
        "start_date": "1956-03-01"
      },
      "spot_prices_stats": {
        "start_date": "1956-03-01",
        "end_date": "1956-04-30"
      }
    }
  },
  "prices_count": 13,
  "name": "Alsacienne de Construct. Mécanique, act. (nos 600001 à 800000) (c. 9 att.)"
}