{
  "id": 6189,
  "share_type": {
    "id": 1,
    "name": "Stock (Action)"
  },
  "issuers": [
    {
      "id": 3154,
      "start_date": "1912-04-29",
      "end_date": "3999-12-31",
      "name": "FORGES ET ACIERIES DE HUTA-BANKOWA"
    }
  ],
  "types": [
    {
      "start_date": "1912-04-29",
      "end_date": "3999-12-31",
      "id": 22,
      "name": "Action de jouissance",
      "stock_group": "S"
    }
  ],
  "is_mainstock": 0,
  "prices_period": [
    "1912-04-29",
    "1951-06-15"
  ],
  "stock_exchanges": {
    "1": {
      "id": 1,
      "name": "Paris (Official List)",
      "notations": {
        "9090": {
          "id": 9090,
          "sector_id": 104,
          "start_date": "1912-04-29",
          "end_date": "1914-08-03",
          "names": [
            {
              "name": "Forges et Aciéries de Huta-Bankowa, actions de jouissance",
              "start_date": "1912-04-29",
              "end_date": "1942-05-22"
            },
            {
              "name": "Huta-Bankowa (Anc. Etabl.), act. De jouiss",
              "start_date": "1912-04-29",
              "end_date": "1950-03-20"
            },
            {
              "name": "Huta-Bankowa (Anc. Etabl.), act .anc. Jouiss.",
              "start_date": "1912-04-29",
              "end_date": "1951-07-02"
            },
            {
              "name": "Huta-Bankowa (Anc. Et.), act. Anc. Jouiss. (tit. Liv.)",
              "start_date": "1912-04-29",
              "end_date": "3999-12-31"
            }
          ]
        },
        "10121": {
          "id": 10121,
          "sector_id": 104,
          "start_date": "1914-12-15",
          "end_date": "1940-06-11",
          "names": [
            {
              "name": "Forges et Aciéries de Huta-Bankowa, actions de jouissance",
              "start_date": "1912-04-29",
              "end_date": "1942-05-22"
            },
            {
              "name": "Huta-Bankowa (Anc. Etabl.), act. De jouiss",
              "start_date": "1914-12-15",
              "end_date": "1950-03-20"
            },
            {
              "name": "Huta-Bankowa (Anc. Etabl.), act .anc. Jouiss.",
              "start_date": "1914-12-15",
              "end_date": "1951-07-02"
            },
            {
              "name": "Huta-Bankowa (Anc. Et.), act. Anc. Jouiss. (tit. Liv.)",
              "start_date": "1914-12-15",
              "end_date": "3999-12-31"
            }
          ]
        },
        "21242": {
          "id": 21242,
          "sector_id": 104,
          "start_date": "1942-05-22",
          "end_date": "1951-07-02",
          "names": [
            {
              "name": "Forges et Aciéries de Huta-Bankowa, actions de jouissance",
              "start_date": "1912-04-29",
              "end_date": "1951-07-02"
            },
            {
              "name": "Huta-Bankowa (Anc. Etabl.), act. De jouiss",
              "start_date": "1942-05-22",
              "end_date": "1951-07-02"
            },
            {
              "name": "Huta-Bankowa (Anc. Etabl.), act .anc. Jouiss.",
              "start_date": "1942-05-22",
              "end_date": "1951-07-02"
            },
            {
              "name": "Huta-Bankowa (Anc. Et.), act. Anc. Jouiss. (tit. Liv.)",
              "start_date": "1942-05-22",
              "end_date": "3999-12-31"
            }
          ]
        }
      },
      "listings_stats": {
        "start_date": "1912-04-29"
      },
      "spot_prices_stats": {
        "start_date": "1912-04-29",
        "end_date": "1951-06-15"
      }
    }
  },
  "prices_count": 631,
  "name": "Huta-Bankowa (Anc. Etabl.), act. De jouiss"
}