{
  "id": 16733,
  "share_type": {
    "id": 1,
    "name": "Stock (Action)"
  },
  "issuers": [
    {
      "id": 4273,
      "start_date": "1962-01-02",
      "end_date": "3999-12-31",
      "name": "Les Petit-Fils de Léonard Danel"
    }
  ],
  "types": [
    {
      "start_date": "1962-01-02",
      "end_date": "3999-12-31",
      "id": 18,
      "name": "Action",
      "stock_group": "S"
    }
  ],
  "is_mainstock": 0,
  "prices_period": [
    "1962-01-02",
    "1976-12-31"
  ],
  "stock_exchanges": {
    "1": {
      "id": 1,
      "name": "Paris (Official List)",
      "notations": {
        "30157": {
          "id": 30157,
          "sector_id": 345,
          "start_date": "1963-03-04",
          "end_date": "3999-12-31",
          "names": [
            {
              "name": "Léonard Danel (Les Petits Fils de), act. (n°s 1 à 116800 et 1160901 à 151536) (ex-dr., )",
              "start_date": "1962-01-02",
              "end_date": "3999-12-31"
            },
            {
              "name": "Léonard Danel (Les petits-Fils de), ct.",
              "start_date": "1963-03-04",
              "end_date": "3999-12-31"
            },
            {
              "name": "Léonard Danel (Les petits-Fils de), ct.anc. (Avis 76-514)",
              "start_date": "1963-03-04",
              "end_date": "3999-12-31"
            }
          ]
        },
        "147308": {
          "id": 147308,
          "sector_id": 403,
          "start_date": "1962-01-02",
          "end_date": "1963-03-04",
          "names": [
            {
              "name": "Léonard Danel (Les Petits Fils de), act. (n°s 1 à 116800 et 1160901 à 151536) (ex-dr., )",
              "start_date": "1962-01-02",
              "end_date": "1976-06-27"
            },
            {
              "name": "Léonard Danel (Les petits-Fils de), ct.",
              "start_date": "1962-01-02",
              "end_date": "1976-06-28"
            },
            {
              "name": "Léonard Danel (Les petits-Fils de), ct.anc. (Avis 76-514)",
              "start_date": "1962-01-02",
              "end_date": "3999-12-31"
            }
          ]
        }
      },
      "listings_stats": {
        "start_date": "1962-01-02"
      },
      "spot_prices_stats": {
        "start_date": "1962-01-02",
        "end_date": "1976-12-31"
      }
    }
  },
  "prices_count": 374,
  "name": "Léonard Danel (Les petits-Fils de), ct.anc. (Avis 76-514)"
}