{
  "id": 11891,
  "share_type": {
    "id": 2,
    "name": "Bond (Obligation)"
  },
  "issuers": [
    {
      "id": 2247,
      "start_date": "1943-02-18",
      "end_date": "3999-12-31",
      "name": "Hydro-Electrique de Savoie"
    }
  ],
  "types": [
    {
      "start_date": "1943-02-18",
      "end_date": "3999-12-31",
      "id": 1001,
      "name": "Obligation ordinaire ou classique",
      "stock_group": "B"
    }
  ],
  "is_mainstock": 0,
  "prices_period": [
    "1943-02-18",
    "1955-03-31"
  ],
  "stock_exchanges": {
    "1": {
      "id": 1,
      "name": "Paris (Official List)",
      "notations": {
        "142466": {
          "id": 142466,
          "sector_id": 117,
          "start_date": "1943-02-18",
          "end_date": "1955-04-12",
          "names": [
            {
              "name": "Hydro-Electrique de Savoie 4% 1942, remb. à 5000 fr. 1946-72",
              "start_date": "1943-02-18",
              "end_date": "3999-12-31"
            }
          ]
        }
      },
      "listings_stats": {
        "start_date": "1943-02-18"
      },
      "spot_prices_stats": {
        "start_date": "1943-02-18",
        "end_date": "1955-03-31"
      }
    }
  },
  "prices_count": 279,
  "name": "Hydro-Electrique de Savoie 4% 1942, remb. à 5000 fr. 1946-72"
}