{
  "id": 104579,
  "share_type": {
    "id": 5,
    "name": "Droits de souscription"
  },
  "issuers": [
    {
      "id": 2264,
      "start_date": "1947-03-21",
      "end_date": "1947-04-25",
      "name": "COMPAGNIE D'AGUILAS"
    }
  ],
  "types": [
    {
      "start_date": "1947-03-21",
      "end_date": "1947-04-25",
      "id": 501,
      "name": "Droit de souscription",
      "stock_group": "R"
    }
  ],
  "is_mainstock": 0,
  "prices_period": [
    "1947-03-31",
    "1947-04-15"
  ],
  "stock_exchanges": {
    "1": {
      "id": 1,
      "name": "Paris (Official List)",
      "notations": {
        "204982": {
          "id": 204982,
          "sector_id": 657,
          "start_date": "1947-03-21",
          "end_date": "1947-04-25",
          "names": [
            {
              "name": "A. 1 à 240000. Aguilas ( Cie ) ( droit et coupon 12)",
              "start_date": "1947-03-21",
              "end_date": "1947-04-25"
            }
          ]
        }
      },
      "listings_stats": {
        "start_date": "1947-03-21"
      },
      "spot_prices_stats": {
        "start_date": "1947-03-31",
        "end_date": "1947-04-15"
      }
    }
  },
  "prices_count": 2,
  "name": "A. 1 à 240000. Aguilas ( Cie ) ( droit et coupon 12)"
}