{
  "id": 2157,
  "share_type": {
    "id": 2,
    "name": "Bond (Obligation)"
  },
  "issuers": [
    {
      "id": 2044,
      "start_date": "1870-08-08",
      "end_date": "3999-12-31",
      "name": "Compagnie des Chemins de fer Normands"
    }
  ],
  "types": [
    {
      "start_date": "1870-08-08",
      "end_date": "3999-12-31",
      "id": 1001,
      "name": "Obligation ordinaire ou classique",
      "stock_group": "B"
    }
  ],
  "is_mainstock": 0,
  "prices_period": [
    "1871-09-30",
    "1886-07-15"
  ],
  "stock_exchanges": {
    "1": {
      "id": 1,
      "name": "Paris (Official List)",
      "notations": {
        "3256": {
          "id": 3256,
          "sector_id": 70,
          "start_date": "1870-08-08",
          "end_date": "1886-10-22",
          "names": [
            {
              "name": "Normands (ch. De fer), 3%, t.p. r., à 500f",
              "start_date": "1870-08-08",
              "end_date": "1886-10-22"
            },
            {
              "name": "Normands (ch. De fer), 3%, r., à 500f t.p",
              "start_date": "1870-08-08",
              "end_date": "1886-10-22"
            },
            {
              "name": "Normands (ch. De fer), 3%, r., à 500f",
              "start_date": "1870-08-08",
              "end_date": "3999-12-31"
            }
          ]
        }
      },
      "listings_stats": {
        "start_date": "1870-08-08"
      },
      "spot_prices_stats": {
        "start_date": "1871-09-30",
        "end_date": "1886-07-15"
      }
    }
  },
  "prices_count": 173,
  "name": "Normands (ch. De fer), 3%, r., à 500f"
}