{
  "id": 15510,
  "share_type": {
    "id": 1,
    "name": "Stock (Action)"
  },
  "issuers": [
    {
      "id": 4616,
      "start_date": "1957-03-11",
      "end_date": "3999-12-31",
      "name": "Etablissements Clin-Byla"
    }
  ],
  "types": [
    {
      "start_date": "1957-03-11",
      "end_date": "3999-12-31",
      "id": 27,
      "name": "Promesse d'action",
      "stock_group": "S"
    }
  ],
  "is_mainstock": 0,
  "prices_period": [
    "1957-03-11",
    "1957-07-01"
  ],
  "stock_exchanges": {
    "1": {
      "id": 1,
      "name": "Paris (Official List)",
      "notations": {
        "146085": {
          "id": 146085,
          "sector_id": 414,
          "start_date": "1957-03-11",
          "end_date": "1957-07-08",
          "names": [
            {
              "name": "Clin-Byla (Etabl.), act. (ex-dr., ), promesses (Jce 1/1/57)",
              "start_date": "1957-03-11",
              "end_date": "1957-07-08"
            },
            {
              "name": "Clin-Byla (Etabl.), promesses (Jce 1/1/57)",
              "start_date": "1957-03-11",
              "end_date": "3999-12-31"
            }
          ]
        }
      },
      "listings_stats": {
        "start_date": "1957-03-11"
      },
      "spot_prices_stats": {
        "start_date": "1957-03-11",
        "end_date": "1957-07-01"
      }
    }
  },
  "prices_count": 9,
  "name": "Clin-Byla (Etabl.), promesses (Jce 1/1/57)"
}