{
  "id": 5397,
  "share_type": {
    "id": 1,
    "name": "Stock (Action)"
  },
  "issuers": [
    {
      "id": 3208,
      "start_date": "1906-03-24",
      "end_date": "3999-12-31",
      "name": "Compagnie Industrielle des Pétroles"
    }
  ],
  "types": [
    {
      "start_date": "1906-03-24",
      "end_date": "3999-12-31",
      "id": 18,
      "name": "Action",
      "stock_group": "S"
    }
  ],
  "is_mainstock": 0,
  "prices_period": [
    null,
    null
  ],
  "stock_exchanges": {
    "1": {
      "id": 1,
      "name": "Paris (Official List)",
      "notations": {
        "7802": {
          "id": 7802,
          "sector_id": 106,
          "start_date": "1906-03-24",
          "end_date": "1906-11-06",
          "names": [
            {
              "name": "Pétroles (Cie industrielle des), act. nouv. 500 f., t. p. (nos 16001 à 21000) (c. 2 att.)",
              "start_date": "1906-03-24",
              "end_date": "3999-12-31"
            }
          ]
        }
      },
      "listings_stats": {
        "start_date": "1906-03-24"
      }
    }
  },
  "prices_count": 0,
  "name": "Pétroles (Cie industrielle des), act. nouv. 500 f., t. p. (nos 16001 à 21000) (c. 2 att.)"
}