{
  "id": 11808,
  "share_type": {
    "id": 1,
    "name": "Stock (Action)"
  },
  "issuers": [
    {
      "id": 3767,
      "start_date": "1943-11-26",
      "end_date": "3999-12-31",
      "name": "COMPAGNIE FORESTIERE SANGHA-OUBANGUI"
    }
  ],
  "types": [
    {
      "start_date": "1943-11-26",
      "end_date": "3999-12-31",
      "id": 18,
      "name": "Action",
      "stock_group": "S"
    }
  ],
  "is_mainstock": 0,
  "prices_period": [
    "1943-11-26",
    "1947-06-16"
  ],
  "stock_exchanges": {
    "1": {
      "id": 1,
      "name": "Paris (Official List)",
      "notations": {
        "21299": {
          "id": 21299,
          "sector_id": 229,
          "start_date": "1946-05-15",
          "end_date": "1947-06-19",
          "names": [
            {
              "name": "Sangha-Oubangui (Cie Forestière), act. 100 fr., t. p. (n°s 180001 à 240000)",
              "start_date": "1943-11-26",
              "end_date": "3999-12-31"
            }
          ]
        },
        "142383": {
          "id": 142383,
          "sector_id": 182,
          "start_date": "1943-11-26",
          "end_date": "1946-05-15",
          "names": [
            {
              "name": "Sangha-Oubangui (Cie Forestière), act. 100 fr., t. p. (n°s 180001 à 240000)",
              "start_date": "1943-11-26",
              "end_date": "3999-12-31"
            }
          ]
        }
      },
      "listings_stats": {
        "start_date": "1943-11-26"
      },
      "spot_prices_stats": {
        "start_date": "1943-11-26",
        "end_date": "1947-06-16"
      }
    }
  },
  "prices_count": 82,
  "name": "Sangha-Oubangui (Cie Forestière), act. 100 fr., t. p. (n°s 180001 à 240000)"
}