{
  "id": 9097,
  "share_type": {
    "id": 1,
    "name": "Stock (Action)"
  },
  "issuers": [
    {
      "id": 2764,
      "start_date": "1928-12-03",
      "end_date": "3999-12-31",
      "name": "STÉ MÉTALLURGIQUE DE MONTBARD-AULNOYE"
    }
  ],
  "types": [
    {
      "start_date": "1928-12-03",
      "end_date": "3999-12-31",
      "id": 11,
      "name": "Action ordinaire",
      "stock_group": "S"
    }
  ],
  "is_mainstock": 0,
  "prices_period": [
    "1928-12-03",
    "1928-12-17"
  ],
  "stock_exchanges": {
    "1": {
      "id": 1,
      "name": "Paris (Official List)",
      "notations": {
        "136544": {
          "id": 136544,
          "sector_id": 104,
          "start_date": "1928-12-03",
          "end_date": "1928-12-26",
          "names": [
            {
              "name": "Montbard-Aulnoye (Sté Métallurgique de), act. 250 fr., t.p. (dr. et c. 22 att.)",
              "start_date": "1928-12-03",
              "end_date": "3999-12-31"
            }
          ]
        }
      },
      "listings_stats": {
        "start_date": "1928-12-03"
      },
      "spot_prices_stats": {
        "start_date": "1928-12-03",
        "end_date": "1928-12-17"
      }
    }
  },
  "prices_count": 2,
  "name": "Montbard-Aulnoye (Sté Métallurgique de), act. 250 fr., t.p. (dr. et c. 22 att.)"
}