{
  "id": 9607,
  "share_type": {
    "id": 2,
    "name": "Bond (Obligation)"
  },
  "issuers": [
    {
      "id": 2757,
      "start_date": "1930-09-24",
      "end_date": "3999-12-31",
      "name": "SOCIETE D'ELECTRO METALLURGIE DE DIVES"
    }
  ],
  "types": [
    {
      "start_date": "1930-09-24",
      "end_date": "3999-12-31",
      "id": 1001,
      "name": "Obligation ordinaire ou classique",
      "stock_group": "B"
    }
  ],
  "is_mainstock": 0,
  "prices_period": [
    "1930-09-24",
    "1941-06-30"
  ],
  "stock_exchanges": {
    "1": {
      "id": 1,
      "name": "Paris (Official List)",
      "notations": {
        "20362": {
          "id": 20362,
          "sector_id": 111,
          "start_date": "1940-10-14",
          "end_date": "1941-07-01",
          "names": [
            {
              "name": "Electro-Métallurgie de Dives 4,5%, remb. à 1000 fr.",
              "start_date": "1930-09-24",
              "end_date": "1941-07-01"
            },
            {
              "name": "Electro-métallurgie de Dives 4,5% 1930, remb. À 1000 fr., est. 1931-72",
              "start_date": "1940-10-14",
              "end_date": "1941-07-01"
            },
            {
              "name": "Electro-Métallurgie de Dives 4,5% 1930, remb.à 1000 fr., est. Le 1er juillet 1941",
              "start_date": "1940-10-14",
              "end_date": "3999-12-31"
            }
          ]
        },
        "140182": {
          "id": 140182,
          "sector_id": 111,
          "start_date": "1930-09-24",
          "end_date": "1940-06-11",
          "names": [
            {
              "name": "Electro-Métallurgie de Dives 4,5%, remb. à 1000 fr.",
              "start_date": "1930-09-24",
              "end_date": "1940-10-14"
            },
            {
              "name": "Electro-métallurgie de Dives 4,5% 1930, remb. À 1000 fr., est. 1931-72",
              "start_date": "1930-09-24",
              "end_date": "1941-05-29"
            },
            {
              "name": "Electro-Métallurgie de Dives 4,5% 1930, remb.à 1000 fr., est. Le 1er juillet 1941",
              "start_date": "1930-09-24",
              "end_date": "3999-12-31"
            }
          ]
        }
      },
      "listings_stats": {
        "start_date": "1930-09-24"
      },
      "spot_prices_stats": {
        "start_date": "1930-09-24",
        "end_date": "1941-06-30"
      }
    }
  },
  "prices_count": 276,
  "name": "Electro-métallurgie de Dives 4,5% 1930, remb. À 1000 fr., est. 1931-72"
}