{
  "id": 13831,
  "share_type": {
    "id": 1,
    "name": "Stock (Action)"
  },
  "issuers": [
    {
      "id": 1146,
      "start_date": "1950-11-28",
      "end_date": "3999-12-31",
      "name": "L'ABEILLE COMPAGNIE D'ASSURANCES A PRIMES FIXES CONTRE L'INCENDIE"
    }
  ],
  "types": [
    {
      "start_date": "1950-11-28",
      "end_date": "3999-12-31",
      "id": 11,
      "name": "Action ordinaire",
      "stock_group": "S"
    }
  ],
  "is_mainstock": 0,
  "prices_period": [
    "1950-11-28",
    "1955-09-30"
  ],
  "stock_exchanges": {
    "1": {
      "id": 1,
      "name": "Paris (Official List)",
      "notations": {
        "144406": {
          "id": 144406,
          "sector_id": 250,
          "start_date": "1950-11-28",
          "end_date": "1955-10-17",
          "names": [
            {
              "name": "Abeille (L') (incendie), act. 3000 fr., t. p. (nom.) (Jce 1/1/50)",
              "start_date": "1950-11-28",
              "end_date": "1955-10-17"
            },
            {
              "name": "Abeille (L') (inc), act. 5000 fr., t.p. (nom)",
              "start_date": "1950-11-28",
              "end_date": "3999-12-31"
            }
          ]
        }
      },
      "listings_stats": {
        "start_date": "1950-11-28"
      },
      "spot_prices_stats": {
        "start_date": "1950-11-28",
        "end_date": "1955-09-30"
      }
    }
  },
  "prices_count": 121,
  "name": "Abeille (L') (inc), act. 5000 fr., t.p. (nom)"
}