{
  "id": 25309,
  "share_type": {
    "id": 1,
    "name": "Stock (Action)"
  },
  "issuers": [
    {
      "id": 3118,
      "start_date": "1907-07-28",
      "end_date": "3999-12-31",
      "name": "CIE GÉNÉRALE D'ÉCLAIRAGE DE BORDEAUX"
    }
  ],
  "types": [
    {
      "start_date": "1000-01-01",
      "end_date": "3999-12-31",
      "id": 18,
      "name": "Action",
      "stock_group": "S"
    }
  ],
  "is_mainstock": 0,
  "prices_period": [
    "1907-07-31",
    "1907-07-31"
  ],
  "stock_exchanges": {
    "1": {
      "id": 1,
      "name": "Paris (Official List)",
      "notations": {
        "90309": {
          "id": 90309,
          "sector_id": 102,
          "start_date": "1907-07-28",
          "end_date": "1907-08-04",
          "names": [
            {
              "name": "Eclairage de Bordeaux (Cie Gle d'), act. 250 fr., actions estampillées",
              "start_date": "1907-07-28",
              "end_date": "3999-12-31"
            }
          ]
        }
      },
      "listings_stats": {
        "start_date": "1907-07-28"
      },
      "spot_prices_stats": {
        "start_date": "1907-07-31",
        "end_date": "1907-07-31"
      }
    }
  },
  "prices_count": 1,
  "name": "Eclairage de Bordeaux (Cie Gle d'), act. 250 fr., actions estampillées"
}