{
  "id": 16072,
  "share_type": {
    "id": 1,
    "name": "Stock (Action)"
  },
  "issuers": [
    {
      "id": 4433,
      "start_date": "1959-12-22",
      "end_date": "3999-12-31",
      "name": "Lorraine-Escaut (Mines et Usines des Aciéries de Longwy de Senelle-Maubeuge et d'Escaut et Meuse)"
    }
  ],
  "types": [
    {
      "start_date": "1959-12-22",
      "end_date": "3999-12-31",
      "id": 18,
      "name": "Action",
      "stock_group": "S"
    }
  ],
  "is_mainstock": 0,
  "prices_period": [
    "1959-12-22",
    "1959-12-22"
  ],
  "stock_exchanges": {
    "1": {
      "id": 1,
      "name": "Paris (Official List)",
      "notations": {
        "27328": {
          "id": 27328,
          "sector_id": 16,
          "start_date": "1960-01-04",
          "end_date": "1963-09-23",
          "names": [
            {
              "name": "Lorraine-escaut, act 10000 fr (c 10 att)(par 25 actions)",
              "start_date": "1959-12-22",
              "end_date": "1963-09-23"
            },
            {
              "name": "Lorraine-Escaut, act 100 NF (c 10 att)(par 25 actions)",
              "start_date": "1960-01-04",
              "end_date": "1963-09-23"
            },
            {
              "name": "Lorraine-Escaut, act. 100F (par 25 actions)",
              "start_date": "1960-01-04",
              "end_date": "3999-12-31"
            }
          ]
        },
        "31729": {
          "id": 31729,
          "sector_id": 1,
          "start_date": "1963-09-23",
          "end_date": "1967-02-21",
          "names": [
            {
              "name": "Lorraine-escaut, act 10000 fr (c 10 att)(par 25 actions)",
              "start_date": "1959-12-22",
              "end_date": "1967-02-21"
            },
            {
              "name": "Lorraine-Escaut, act 100 NF (c 10 att)(par 25 actions)",
              "start_date": "1960-01-04",
              "end_date": "1967-02-21"
            },
            {
              "name": "Lorraine-Escaut, act. 100F (par 25 actions)",
              "start_date": "1963-09-23",
              "end_date": "3999-12-31"
            }
          ]
        },
        "146647": {
          "id": 146647,
          "sector_id": 1,
          "start_date": "1959-12-22",
          "end_date": "1960-01-04",
          "names": [
            {
              "name": "Lorraine-escaut, act 10000 fr (c 10 att)(par 25 actions)",
              "start_date": "1959-12-22",
              "end_date": "1960-01-04"
            },
            {
              "name": "Lorraine-Escaut, act 100 NF (c 10 att)(par 25 actions)",
              "start_date": "1959-12-22",
              "end_date": "1963-09-23"
            },
            {
              "name": "Lorraine-Escaut, act. 100F (par 25 actions)",
              "start_date": "1959-12-22",
              "end_date": "3999-12-31"
            }
          ]
        }
      },
      "forward_prices_stats": {
        "start_date": "1959-12-22",
        "end_date": "1959-12-22"
      },
      "listings_stats": {
        "start_date": "1959-12-22"
      }
    }
  },
  "prices_count": 2,
  "name": "Lorraine-Escaut, act 100 NF (c 10 att)(par 25 actions)"
}