{
  "id": 25307,
  "share_type": {
    "id": 1,
    "name": "Stock (Action)"
  },
  "issuers": [
    {
      "id": 3048,
      "start_date": "1921-09-21",
      "end_date": "1937-12-31",
      "name": "Comptoir Lyon-Alemand"
    }
  ],
  "types": [
    {
      "start_date": "1000-01-01",
      "end_date": "3999-12-31",
      "id": 18,
      "name": "Action",
      "stock_group": "S"
    }
  ],
  "is_mainstock": 0,
  "prices_period": [
    "1921-10-17",
    "1921-12-15"
  ],
  "stock_exchanges": {
    "1": {
      "id": 1,
      "name": "Paris (Official List)",
      "notations": {
        "90307": {
          "id": 90307,
          "sector_id": 99,
          "start_date": "1921-09-21",
          "end_date": "1921-12-31",
          "names": [
            {
              "name": "Comptoir Lyon-Alemand. a. 250 f., t.p.(tit blues) nos 100001 à 150000",
              "start_date": "1921-09-21",
              "end_date": "3999-12-31"
            }
          ]
        }
      },
      "listings_stats": {
        "start_date": "1921-09-21"
      },
      "spot_prices_stats": {
        "start_date": "1921-10-17",
        "end_date": "1921-12-15"
      }
    }
  },
  "prices_count": 4,
  "name": "Comptoir Lyon-Alemand. a. 250 f., t.p.(tit blues) nos 100001 à 150000"
}