{
  "id": 13529,
  "share_type": {
    "id": 1,
    "name": "Stock (Action)"
  },
  "issuers": [
    {
      "id": 3939,
      "start_date": "1950-02-07",
      "end_date": "3999-12-31",
      "name": "ETABLISSEMENTS WILLEME"
    }
  ],
  "types": [
    {
      "start_date": "1950-02-07",
      "end_date": "3999-12-31",
      "id": 18,
      "name": "Action",
      "stock_group": "S"
    }
  ],
  "is_mainstock": 0,
  "prices_period": [
    "1953-08-17",
    "1957-09-16"
  ],
  "stock_exchanges": {
    "1": {
      "id": 1,
      "name": "Paris (Official List)",
      "notations": {
        "25768": {
          "id": 25768,
          "sector_id": 337,
          "start_date": "1955-12-01",
          "end_date": "1958-01-02",
          "names": [
            {
              "name": "Willème (Etabl.), A. 2500 f., 100 f. am. (n°s 2001 à 12000)",
              "start_date": "1950-02-07",
              "end_date": "1958-01-02"
            },
            {
              "name": "Willème (Etabliss.), Actions, 100 fr. amort. (n°s 2001 à 12000)",
              "start_date": "1955-12-01",
              "end_date": "1958-01-02"
            },
            {
              "name": "Willème (ET), a (n° 2001 à 12000)",
              "start_date": "1955-12-01",
              "end_date": "3999-12-31"
            }
          ]
        },
        "144104": {
          "id": 144104,
          "sector_id": 104,
          "start_date": "1950-02-07",
          "end_date": "1955-12-01",
          "names": [
            {
              "name": "Willème (Etabl.), A. 2500 f., 100 f. am. (n°s 2001 à 12000)",
              "start_date": "1950-02-07",
              "end_date": "1955-12-01"
            },
            {
              "name": "Willème (Etabliss.), Actions, 100 fr. amort. (n°s 2001 à 12000)",
              "start_date": "1950-02-07",
              "end_date": "1958-01-02"
            },
            {
              "name": "Willème (ET), a (n° 2001 à 12000)",
              "start_date": "1950-02-07",
              "end_date": "3999-12-31"
            }
          ]
        }
      },
      "listings_stats": {
        "start_date": "1950-02-07"
      },
      "spot_prices_stats": {
        "start_date": "1953-08-17",
        "end_date": "1957-09-16"
      }
    }
  },
  "prices_count": 3,
  "name": "Willème (Etabl.), A. 2500 f., 100 f. am. (n°s 2001 à 12000)"
}