{
  "id": 21872,
  "share_type": {
    "id": 2,
    "name": "Bond (Obligation)"
  },
  "issuers": [
    {
      "id": 4383,
      "start_date": "1976-03-01",
      "end_date": "3999-12-31",
      "name": "COMPAGNIE GENERALE DE RADIOLOGIE (Anciennement Etablissements Gaiffe-Gallot et Pilon)"
    }
  ],
  "types": [
    {
      "start_date": "1976-03-01",
      "end_date": "3999-12-31",
      "id": 1001,
      "name": "Obligation ordinaire ou classique",
      "stock_group": "B"
    }
  ],
  "is_mainstock": 0,
  "prices_period": [
    "1976-03-01",
    "1976-12-31"
  ],
  "stock_exchanges": {
    "1": {
      "id": 1,
      "name": "Paris (Official List)",
      "notations": {
        "152433": {
          "id": 152433,
          "sector_id": 369,
          "start_date": "1976-03-01",
          "end_date": "3999-12-31",
          "names": [
            {
              "name": "Radiologie 6,60% 1975 de 350 F, convert.en act.à tout moment à partir du 1/7/76 (séries A à H) (1 act.pour 1 oblig.), remb.470 à 670 F (c.1/1/77 att.) (Avis 76-139).1984-91",
              "start_date": "1976-03-01",
              "end_date": "3999-12-31"
            }
          ]
        }
      },
      "listings_stats": {
        "start_date": "1976-03-01"
      },
      "spot_prices_stats": {
        "start_date": "1976-03-01",
        "end_date": "1976-12-31"
      }
    }
  },
  "prices_count": 22,
  "name": "Radiologie 6,60% 1975 de 350 F, convert.en act.à tout moment à partir du 1/7/76 (séries A à H) (1 act.pour 1 oblig.), remb.470 à 670 F (c.1/1/77 att.) (Avis 76-139).1984-91"
}