{
  "id": 5365,
  "share_type": {
    "id": 1,
    "name": "Stock (Action)"
  },
  "issuers": [
    {
      "id": 3200,
      "start_date": "1906-11-30",
      "end_date": "3999-12-31",
      "name": "SOCIÉTÉ GÉNÉRALE DES SUCRERIES ET DE LA RAFFINERIE D'EGYPTE"
    }
  ],
  "types": [
    {
      "start_date": "1906-11-30",
      "end_date": "3999-12-31",
      "id": 13,
      "name": "Action privilégiée",
      "stock_group": "S"
    }
  ],
  "is_mainstock": 1,
  "prices_period": [
    "1906-11-30",
    "1963-06-17"
  ],
  "stock_exchanges": {
    "1": {
      "id": 1,
      "name": "Paris (Official List)",
      "notations": {
        "7770": {
          "id": 7770,
          "sector_id": 68,
          "start_date": "1906-11-30",
          "end_date": "1914-08-03",
          "names": [
            {
              "name": "Sucreries et Raffinerie d'Egypte (Soc. Générale des), actions privilégiées de 100 fr., r. à 125 fr., t. p. (c. 1 att.)",
              "start_date": "1906-11-30",
              "end_date": "1918-04-02"
            },
            {
              "name": "Sucreries et Raffinerie d'Egypte, act. priv. 100 fr., t. p., remb. à 125 fr.",
              "start_date": "1906-11-30",
              "end_date": "1955-12-01"
            },
            {
              "name": "Sucreries et Raffinerie d'Egypte, Actions priv. 100 fr., t. p. remb. À 125 fr. (n°s 1 à 240523)",
              "start_date": "1906-11-30",
              "end_date": "1960-01-04"
            },
            {
              "name": "Sucreries et raffinerie d'egypte, act priv (n 1 à 240523)",
              "start_date": "1906-11-30",
              "end_date": "1962-01-02"
            },
            {
              "name": "Sucreries et raffineries d'Egypte, act.priv.(n° 1 à 240523)",
              "start_date": "1906-11-30",
              "end_date": "1963-07-01"
            },
            {
              "name": "Sucreries et Raffinerie d'Egypte, Act. priv. (nos 1 à 140523)",
              "start_date": "1906-11-30",
              "end_date": "3999-12-31"
            }
          ]
        },
        "9321": {
          "id": 9321,
          "sector_id": 68,
          "start_date": "1914-12-15",
          "end_date": "1920-01-02",
          "names": [
            {
              "name": "Sucreries et Raffinerie d'Egypte (Soc. Générale des), actions privilégiées de 100 fr., r. à 125 fr., t. p. (c. 1 att.)",
              "start_date": "1906-11-30",
              "end_date": "1920-01-02"
            },
            {
              "name": "Sucreries et Raffinerie d'Egypte, act. priv. 100 fr., t. p., remb. à 125 fr.",
              "start_date": "1914-12-15",
              "end_date": "1955-12-01"
            },
            {
              "name": "Sucreries et Raffinerie d'Egypte, Actions priv. 100 fr., t. p. remb. À 125 fr. (n°s 1 à 240523)",
              "start_date": "1914-12-15",
              "end_date": "1960-01-04"
            },
            {
              "name": "Sucreries et raffinerie d'egypte, act priv (n 1 à 240523)",
              "start_date": "1914-12-15",
              "end_date": "1962-01-02"
            },
            {
              "name": "Sucreries et raffineries d'Egypte, act.priv.(n° 1 à 240523)",
              "start_date": "1914-12-15",
              "end_date": "1963-07-01"
            },
            {
              "name": "Sucreries et Raffinerie d'Egypte, Act. priv. (nos 1 à 140523)",
              "start_date": "1914-12-15",
              "end_date": "3999-12-31"
            }
          ]
        },
        "9704": {
          "id": 9704,
          "sector_id": 158,
          "start_date": "1920-01-02",
          "end_date": "1925-05-01",
          "names": [
            {
              "name": "Sucreries et Raffinerie d'Egypte (Soc. Générale des), actions privilégiées de 100 fr., r. à 125 fr., t. p. (c. 1 att.)",
              "start_date": "1906-11-30",
              "end_date": "1925-05-01"
            },
            {
              "name": "Sucreries et Raffinerie d'Egypte, act. priv. 100 fr., t. p., remb. à 125 fr.",
              "start_date": "1918-04-02",
              "end_date": "1955-12-01"
            },
            {
              "name": "Sucreries et Raffinerie d'Egypte, Actions priv. 100 fr., t. p. remb. À 125 fr. (n°s 1 à 240523)",
              "start_date": "1920-01-02",
              "end_date": "1960-01-04"
            },
            {
              "name": "Sucreries et raffinerie d'egypte, act priv (n 1 à 240523)",
              "start_date": "1920-01-02",
              "end_date": "1962-01-02"
            },
            {
              "name": "Sucreries et raffineries d'Egypte, act.priv.(n° 1 à 240523)",
              "start_date": "1920-01-02",
              "end_date": "1963-07-01"
            },
            {
              "name": "Sucreries et Raffinerie d'Egypte, Act. priv. (nos 1 à 140523)",
              "start_date": "1920-01-02",
              "end_date": "3999-12-31"
            }
          ]
        },
        "13608": {
          "id": 13608,
          "sector_id": 125,
          "start_date": "1925-05-01",
          "end_date": "1940-06-11",
          "names": [
            {
              "name": "Sucreries et Raffinerie d'Egypte (Soc. Générale des), actions privilégiées de 100 fr., r. à 125 fr., t. p. (c. 1 att.)",
              "start_date": "1906-11-30",
              "end_date": "1940-06-11"
            },
            {
              "name": "Sucreries et Raffinerie d'Egypte, act. priv. 100 fr., t. p., remb. à 125 fr.",
              "start_date": "1918-04-02",
              "end_date": "1955-12-01"
            },
            {
              "name": "Sucreries et Raffinerie d'Egypte, Actions priv. 100 fr., t. p. remb. À 125 fr. (n°s 1 à 240523)",
              "start_date": "1925-05-01",
              "end_date": "1960-01-04"
            },
            {
              "name": "Sucreries et raffinerie d'egypte, act priv (n 1 à 240523)",
              "start_date": "1925-05-01",
              "end_date": "1962-01-02"
            },
            {
              "name": "Sucreries et raffineries d'Egypte, act.priv.(n° 1 à 240523)",
              "start_date": "1925-05-01",
              "end_date": "1963-07-01"
            },
            {
              "name": "Sucreries et Raffinerie d'Egypte, Act. priv. (nos 1 à 140523)",
              "start_date": "1925-05-01",
              "end_date": "3999-12-31"
            }
          ]
        },
        "22880": {
          "id": 22880,
          "sector_id": 125,
          "start_date": "1944-10-10",
          "end_date": "1944-12-29",
          "names": [
            {
              "name": "Sucreries et Raffinerie d'Egypte (Soc. Générale des), actions privilégiées de 100 fr., r. à 125 fr., t. p. (c. 1 att.)",
              "start_date": "1906-11-30",
              "end_date": "1944-12-29"
            },
            {
              "name": "Sucreries et Raffinerie d'Egypte, act. priv. 100 fr., t. p., remb. à 125 fr.",
              "start_date": "1918-04-02",
              "end_date": "1955-12-01"
            },
            {
              "name": "Sucreries et Raffinerie d'Egypte, Actions priv. 100 fr., t. p. remb. À 125 fr. (n°s 1 à 240523)",
              "start_date": "1944-10-10",
              "end_date": "1960-01-04"
            },
            {
              "name": "Sucreries et raffinerie d'egypte, act priv (n 1 à 240523)",
              "start_date": "1944-10-10",
              "end_date": "1962-01-02"
            },
            {
              "name": "Sucreries et raffineries d'Egypte, act.priv.(n° 1 à 240523)",
              "start_date": "1944-10-10",
              "end_date": "1963-07-01"
            },
            {
              "name": "Sucreries et Raffinerie d'Egypte, Act. priv. (nos 1 à 140523)",
              "start_date": "1944-10-10",
              "end_date": "3999-12-31"
            }
          ]
        },
        "23090": {
          "id": 23090,
          "sector_id": 82,
          "start_date": "1944-12-29",
          "end_date": "1955-12-01",
          "names": [
            {
              "name": "Sucreries et Raffinerie d'Egypte (Soc. Générale des), actions privilégiées de 100 fr., r. à 125 fr., t. p. (c. 1 att.)",
              "start_date": "1906-11-30",
              "end_date": "1955-12-01"
            },
            {
              "name": "Sucreries et Raffinerie d'Egypte, act. priv. 100 fr., t. p., remb. à 125 fr.",
              "start_date": "1918-04-02",
              "end_date": "1955-12-01"
            },
            {
              "name": "Sucreries et Raffinerie d'Egypte, Actions priv. 100 fr., t. p. remb. À 125 fr. (n°s 1 à 240523)",
              "start_date": "1944-12-29",
              "end_date": "1960-01-04"
            },
            {
              "name": "Sucreries et raffinerie d'egypte, act priv (n 1 à 240523)",
              "start_date": "1944-12-29",
              "end_date": "1962-01-02"
            },
            {
              "name": "Sucreries et raffineries d'Egypte, act.priv.(n° 1 à 240523)",
              "start_date": "1944-12-29",
              "end_date": "1963-07-01"
            },
            {
              "name": "Sucreries et Raffinerie d'Egypte, Act. priv. (nos 1 à 140523)",
              "start_date": "1944-12-29",
              "end_date": "3999-12-31"
            }
          ]
        },
        "27035": {
          "id": 27035,
          "sector_id": 82,
          "start_date": "1955-12-01",
          "end_date": "1962-01-02",
          "names": [
            {
              "name": "Sucreries et Raffinerie d'Egypte (Soc. Générale des), actions privilégiées de 100 fr., r. à 125 fr., t. p. (c. 1 att.)",
              "start_date": "1906-11-30",
              "end_date": "1962-01-02"
            },
            {
              "name": "Sucreries et Raffinerie d'Egypte, act. priv. 100 fr., t. p., remb. à 125 fr.",
              "start_date": "1918-04-02",
              "end_date": "1962-01-02"
            },
            {
              "name": "Sucreries et Raffinerie d'Egypte, Actions priv. 100 fr., t. p. remb. À 125 fr. (n°s 1 à 240523)",
              "start_date": "1955-12-01",
              "end_date": "1962-01-02"
            },
            {
              "name": "Sucreries et raffinerie d'egypte, act priv (n 1 à 240523)",
              "start_date": "1955-12-01",
              "end_date": "1962-01-02"
            },
            {
              "name": "Sucreries et raffineries d'Egypte, act.priv.(n° 1 à 240523)",
              "start_date": "1955-12-01",
              "end_date": "1963-07-01"
            },
            {
              "name": "Sucreries et Raffinerie d'Egypte, Act. priv. (nos 1 à 140523)",
              "start_date": "1955-12-01",
              "end_date": "3999-12-31"
            }
          ]
        },
        "28736": {
          "id": 28736,
          "sector_id": 531,
          "start_date": "1962-01-02",
          "end_date": "1963-07-01",
          "names": [
            {
              "name": "Sucreries et Raffinerie d'Egypte (Soc. Générale des), actions privilégiées de 100 fr., r. à 125 fr., t. p. (c. 1 att.)",
              "start_date": "1906-11-30",
              "end_date": "1963-07-01"
            },
            {
              "name": "Sucreries et Raffinerie d'Egypte, act. priv. 100 fr., t. p., remb. à 125 fr.",
              "start_date": "1918-04-02",
              "end_date": "1963-07-01"
            },
            {
              "name": "Sucreries et Raffinerie d'Egypte, Actions priv. 100 fr., t. p. remb. À 125 fr. (n°s 1 à 240523)",
              "start_date": "1955-12-01",
              "end_date": "1963-07-01"
            },
            {
              "name": "Sucreries et raffinerie d'egypte, act priv (n 1 à 240523)",
              "start_date": "1960-01-04",
              "end_date": "1963-07-01"
            },
            {
              "name": "Sucreries et raffineries d'Egypte, act.priv.(n° 1 à 240523)",
              "start_date": "1962-01-02",
              "end_date": "1963-07-01"
            },
            {
              "name": "Sucreries et Raffinerie d'Egypte, Act. priv. (nos 1 à 140523)",
              "start_date": "1962-01-02",
              "end_date": "3999-12-31"
            }
          ]
        }
      },
      "forward_prices_stats": {
        "start_date": "1906-11-30",
        "end_date": "1914-07-15"
      },
      "listings_stats": {
        "start_date": "1906-11-30"
      },
      "options_prices_stats": {
        "start_date": "1906-11-30",
        "end_date": "1913-05-15"
      },
      "spot_prices_stats": {
        "start_date": "1906-11-30",
        "end_date": "1963-06-17"
      }
    }
  },
  "prices_count": 1989,
  "name": "Sucreries et Raffinerie d'Egypte, Act. priv. (nos 1 à 140523)"
}