{
  "id": 25332,
  "share_type": {
    "id": 1,
    "name": "Stock (Action)"
  },
  "issuers": [
    {
      "id": 3051,
      "start_date": "1924-03-13",
      "end_date": "3999-12-31",
      "name": "CREDIT ESPANOL DEL RIO DE LA PLATA (Anciennement Banco Espanol del Rio de la Plata)"
    }
  ],
  "types": [
    {
      "start_date": "1000-01-01",
      "end_date": "3999-12-31",
      "id": 18,
      "name": "Action",
      "stock_group": "S"
    }
  ],
  "is_mainstock": 0,
  "prices_period": [
    "1924-03-17",
    "1924-03-17"
  ],
  "stock_exchanges": {
    "1": {
      "id": 1,
      "name": "Paris (Official List)",
      "notations": {
        "90332": {
          "id": 90332,
          "sector_id": 155,
          "start_date": "1924-03-13",
          "end_date": "1924-03-21",
          "names": [
            {
              "name": "Banco Espagnol del Rio de la Plata, act. 100 piastres tout payé Unités (non estamp.)Coup de 10",
              "start_date": "1924-03-13",
              "end_date": "3999-12-31"
            }
          ]
        }
      },
      "listings_stats": {
        "start_date": "1924-03-13"
      },
      "spot_prices_stats": {
        "start_date": "1924-03-17",
        "end_date": "1924-03-17"
      }
    }
  },
  "prices_count": 1,
  "name": "Banco Espagnol del Rio de la Plata, act. 100 piastres tout payé Unités (non estamp.)Coup de 10"
}