{
  "id": 7159,
  "share_type": {
    "id": 2,
    "name": "Bond (Obligation)"
  },
  "issuers": [
    {
      "id": 4410,
      "start_date": "1920-10-06",
      "end_date": "3999-12-31",
      "name": "COMPAGNIE GÉNÉRALE ELECTRIQUE"
    }
  ],
  "types": [
    {
      "start_date": "1920-10-06",
      "end_date": "3999-12-31",
      "id": 1001,
      "name": "Obligation ordinaire ou classique",
      "stock_group": "B"
    }
  ],
  "is_mainstock": 0,
  "prices_period": [
    "1920-11-03",
    "1950-06-30"
  ],
  "stock_exchanges": {
    "1": {
      "id": 1,
      "name": "Paris (Official List)",
      "notations": {
        "20740": {
          "id": 20740,
          "sector_id": 117,
          "start_date": "1940-10-14",
          "end_date": "1949-10-03",
          "names": [
            {
              "name": "Générale Electrique (Nancy) (Cie) 6% remb à 500 fr (n°20001 à 40000)",
              "start_date": "1920-10-06",
              "end_date": "1949-10-03"
            },
            {
              "name": "Générale Electrique (Nancy) (Cie) 6% (réduit à 4%), r. à 500 f. (nos 20001 à 40000)",
              "start_date": "1925-04-06",
              "end_date": "1949-10-03"
            },
            {
              "name": "Générale Electrique (Nancy) (Cie), Oblig. de 500 fr. 6% 1920 estamp. 4% (nos 20001 à 40000)",
              "start_date": "1926-02-10",
              "end_date": "1949-10-03"
            },
            {
              "name": "Générale électrique (Nancy), obligations 500 fr. 6% 1920 (n° 20001 à 40000), est. 1926-60",
              "start_date": "1940-10-14",
              "end_date": "1949-10-03"
            },
            {
              "name": "Générale Electrique (Nancy), Obl. 500 fr. 6% 1920 (n°s 20001 à 40000) (Cf Avis n°s 18049 et 18933) 1926-60",
              "start_date": "1940-10-14",
              "end_date": "1950-05-15"
            },
            {
              "name": "Générale Electrique (Nancy), oblig. 500 fr. 6% 1920 (n°s 20001 à 40000) (Cf Avis n°s 18049 et 18933) le 1er juillet 1950",
              "start_date": "1940-10-14",
              "end_date": "3999-12-31"
            }
          ]
        },
        "23657": {
          "id": 23657,
          "sector_id": 272,
          "start_date": "1949-10-03",
          "end_date": "1950-07-03",
          "names": [
            {
              "name": "Générale Electrique (Nancy) (Cie) 6% remb à 500 fr (n°20001 à 40000)",
              "start_date": "1920-10-06",
              "end_date": "1950-07-03"
            },
            {
              "name": "Générale Electrique (Nancy) (Cie) 6% (réduit à 4%), r. à 500 f. (nos 20001 à 40000)",
              "start_date": "1925-04-06",
              "end_date": "1950-07-03"
            },
            {
              "name": "Générale Electrique (Nancy) (Cie), Oblig. de 500 fr. 6% 1920 estamp. 4% (nos 20001 à 40000)",
              "start_date": "1926-02-10",
              "end_date": "1950-07-03"
            },
            {
              "name": "Générale électrique (Nancy), obligations 500 fr. 6% 1920 (n° 20001 à 40000), est. 1926-60",
              "start_date": "1940-10-14",
              "end_date": "1950-07-03"
            },
            {
              "name": "Générale Electrique (Nancy), Obl. 500 fr. 6% 1920 (n°s 20001 à 40000) (Cf Avis n°s 18049 et 18933) 1926-60",
              "start_date": "1949-10-03",
              "end_date": "1950-07-03"
            },
            {
              "name": "Générale Electrique (Nancy), oblig. 500 fr. 6% 1920 (n°s 20001 à 40000) (Cf Avis n°s 18049 et 18933) le 1er juillet 1950",
              "start_date": "1949-10-03",
              "end_date": "3999-12-31"
            }
          ]
        },
        "34029": {
          "id": 34029,
          "sector_id": 117,
          "start_date": "1920-10-06",
          "end_date": "1940-06-11",
          "names": [
            {
              "name": "Générale Electrique (Nancy) (Cie) 6% remb à 500 fr (n°20001 à 40000)",
              "start_date": "1920-10-06",
              "end_date": "1940-06-11"
            },
            {
              "name": "Générale Electrique (Nancy) (Cie) 6% (réduit à 4%), r. à 500 f. (nos 20001 à 40000)",
              "start_date": "1920-10-06",
              "end_date": "1940-06-11"
            },
            {
              "name": "Générale Electrique (Nancy) (Cie), Oblig. de 500 fr. 6% 1920 estamp. 4% (nos 20001 à 40000)",
              "start_date": "1920-10-06",
              "end_date": "1940-10-14"
            },
            {
              "name": "Générale électrique (Nancy), obligations 500 fr. 6% 1920 (n° 20001 à 40000), est. 1926-60",
              "start_date": "1920-10-06",
              "end_date": "1949-10-03"
            },
            {
              "name": "Générale Electrique (Nancy), Obl. 500 fr. 6% 1920 (n°s 20001 à 40000) (Cf Avis n°s 18049 et 18933) 1926-60",
              "start_date": "1920-10-06",
              "end_date": "1950-05-15"
            },
            {
              "name": "Générale Electrique (Nancy), oblig. 500 fr. 6% 1920 (n°s 20001 à 40000) (Cf Avis n°s 18049 et 18933) le 1er juillet 1950",
              "start_date": "1920-10-06",
              "end_date": "3999-12-31"
            }
          ]
        }
      },
      "listings_stats": {
        "start_date": "1920-10-06"
      },
      "spot_prices_stats": {
        "start_date": "1920-11-03",
        "end_date": "1950-06-30"
      }
    }
  },
  "prices_count": 515,
  "name": "Générale électrique (Nancy), obligations 500 fr. 6% 1920 (n° 20001 à 40000), est. 1926-60"
}