{
  "id": 11184,
  "share_type": {
    "id": 2,
    "name": "Bond (Obligation)"
  },
  "issuers": [
    {
      "id": 2912,
      "start_date": "1938-05-25",
      "end_date": "3999-12-31",
      "name": "ETATS : ALGERIE"
    }
  ],
  "types": [
    {
      "start_date": "1938-05-25",
      "end_date": "3999-12-31",
      "id": 1001,
      "name": "Obligation ordinaire ou classique",
      "stock_group": "B"
    }
  ],
  "is_mainstock": 0,
  "prices_period": [
    "1938-05-25",
    "1942-07-15"
  ],
  "stock_exchanges": {
    "1": {
      "id": 1,
      "name": "Paris (Official List)",
      "notations": {
        "141759": {
          "id": 141759,
          "sector_id": 95,
          "start_date": "1938-05-25",
          "end_date": "1942-07-20",
          "names": [
            {
              "name": "Algérie 6% janvier 1938, oblig. r. à 5000 f. (n°s 290001 à 352000)",
              "start_date": "1938-05-25",
              "end_date": "1942-07-20"
            },
            {
              "name": "Algérie 6% janvier 1938, remb. À 5000 fr. (n°s 230001 à 352000)",
              "start_date": "1938-05-25",
              "end_date": "1942-07-20"
            },
            {
              "name": "Algérie 6% janvier 1938, r. À 5000 fr. (n°s 230001 à 352000). le 20 juil. 42",
              "start_date": "1938-05-25",
              "end_date": "3999-12-31"
            }
          ]
        }
      },
      "listings_stats": {
        "start_date": "1938-05-25"
      },
      "spot_prices_stats": {
        "start_date": "1938-05-25",
        "end_date": "1942-07-15"
      }
    }
  },
  "prices_count": 118,
  "name": "Algérie 6% janvier 1938, remb. À 5000 fr. (n°s 230001 à 352000)"
}