{
  "id": 5742,
  "share_type": {
    "id": 2,
    "name": "Bond (Obligation)"
  },
  "issuers": [
    {
      "id": 889,
      "start_date": "1903-06-24",
      "end_date": "3999-12-31",
      "name": "CHINE"
    }
  ],
  "types": [
    {
      "start_date": "1903-06-24",
      "end_date": "3999-12-31",
      "id": 1001,
      "name": "Obligation ordinaire ou classique",
      "stock_group": "B"
    }
  ],
  "is_mainstock": 0,
  "prices_period": [
    "1906-08-16",
    "1918-10-23"
  ],
  "stock_exchanges": {
    "1": {
      "id": 1,
      "name": "Paris (Official List)",
      "notations": {
        "8147": {
          "id": 8147,
          "sector_id": 67,
          "start_date": "1918-10-23",
          "end_date": "1919-01-06",
          "names": [
            {
              "name": "Chine 4% or 1895, remb.au pair, coup.de 100",
              "start_date": "1903-06-24",
              "end_date": "3999-12-31"
            }
          ]
        },
        "31991": {
          "id": 31991,
          "sector_id": 67,
          "start_date": "1903-06-24",
          "end_date": "1903-07-02",
          "names": [
            {
              "name": "Chine 4% or 1895, remb.au pair, coup.de 100",
              "start_date": "1903-06-24",
              "end_date": "3999-12-31"
            }
          ]
        },
        "50407": {
          "id": 50407,
          "sector_id": 67,
          "start_date": "1906-07-10",
          "end_date": "1906-09-06",
          "names": [
            {
              "name": "Chine 4% or 1895, remb.au pair, coup.de 100",
              "start_date": "1903-06-24",
              "end_date": "3999-12-31"
            }
          ]
        }
      },
      "listings_stats": {
        "start_date": "1903-06-24"
      },
      "spot_prices_stats": {
        "start_date": "1906-08-16",
        "end_date": "1918-10-23"
      }
    }
  },
  "prices_count": 3,
  "name": "Chine 4% or 1895, remb.au pair, coup.de 100"
}