{
  "id": 7412,
  "share_type": {
    "id": 2,
    "name": "Bond (Obligation)"
  },
  "issuers": [
    {
      "id": 100,
      "start_date": "1923-04-23",
      "end_date": "3999-12-31",
      "name": "RENTES FRANÇAISES"
    }
  ],
  "types": [
    {
      "start_date": "1923-04-23",
      "end_date": "3999-12-31",
      "id": 1013,
      "name": "Bons du Trésor",
      "stock_group": "B"
    }
  ],
  "is_mainstock": 0,
  "prices_period": [
    "1923-06-15",
    "1927-12-31"
  ],
  "stock_exchanges": {
    "1": {
      "id": 1,
      "name": "Paris (Official List)",
      "notations": {
        "15039": {
          "id": 15039,
          "sector_id": 196,
          "start_date": "1926-10-19",
          "end_date": "1928-06-08",
          "names": [
            {
              "name": "Bons du Trésor 6% 1923 de 500 fr., Bons barrés, t. coup.",
              "start_date": "1923-04-23",
              "end_date": "1928-06-08"
            },
            {
              "name": "Bons du Trésor 6% février 1923 de 500 fr. à 3, 6 ou 10 ans, Bons barrés, t. coup.",
              "start_date": "1926-10-19",
              "end_date": "3999-12-31"
            }
          ]
        },
        "34282": {
          "id": 34282,
          "sector_id": 10,
          "start_date": "1923-04-23",
          "end_date": "1926-10-19",
          "names": [
            {
              "name": "Bons du Trésor 6% 1923 de 500 fr., Bons barrés, t. coup.",
              "start_date": "1923-04-23",
              "end_date": "1928-06-07"
            },
            {
              "name": "Bons du Trésor 6% février 1923 de 500 fr. à 3, 6 ou 10 ans, Bons barrés, t. coup.",
              "start_date": "1923-04-23",
              "end_date": "3999-12-31"
            }
          ]
        }
      },
      "listings_stats": {
        "start_date": "1923-04-23"
      },
      "spot_prices_stats": {
        "start_date": "1923-06-15",
        "end_date": "1927-12-31"
      }
    }
  },
  "prices_count": 16,
  "name": "Bons du Trésor 6% 1923 de 500 fr., Bons barrés, t. coup."
}