{
  "id": 25005,
  "share_type": {
    "id": 1,
    "name": "Stock (Action)"
  },
  "issuers": [
    {
      "id": 7108,
      "start_date": "1600-01-01",
      "end_date": "3999-12-31",
      "name": "Sté du Quartier neuf du Luxembourg"
    }
  ],
  "types": [
    {
      "start_date": "1000-01-01",
      "end_date": "3999-12-31",
      "id": 18,
      "name": "Action",
      "stock_group": "S"
    }
  ],
  "is_mainstock": 0,
  "prices_period": [
    "1865-03-15",
    "1865-03-15"
  ],
  "stock_exchanges": {
    "1": {
      "id": 1,
      "name": "Paris (Official List)",
      "notations": {
        "90005": {
          "id": 90005,
          "sector_id": 576,
          "start_date": "1865-02-03",
          "end_date": "1865-06-28",
          "names": [
            {
              "name": "S du Quartiér neuf du Luxembourg, act. 500f.p., 31 dec. 1864.",
              "start_date": "1865-02-03",
              "end_date": "3999-12-31"
            }
          ]
        }
      },
      "listings_stats": {
        "start_date": "1865-02-03"
      },
      "spot_prices_stats": {
        "start_date": "1865-03-15",
        "end_date": "1865-03-15"
      }
    }
  },
  "prices_count": 1,
  "name": "S du Quartiér neuf du Luxembourg, act. 500f.p., 31 dec. 1864."
}