{
  "id": 105733,
  "share_type": {
    "id": 8,
    "name": "Droit d'attribution"
  },
  "issuers": [
    {
      "id": 3208,
      "start_date": "1951-07-16",
      "end_date": "1951-08-31",
      "name": "Compagnie Industrielle des Pétroles"
    }
  ],
  "types": [
    {
      "start_date": "1951-07-16",
      "end_date": "1951-08-31",
      "id": 502,
      "name": "Droit d'attribution",
      "stock_group": "R"
    }
  ],
  "is_mainstock": 0,
  "prices_period": [
    null,
    null
  ],
  "stock_exchanges": {
    "1": {
      "id": 1,
      "name": "Paris (Official List)",
      "notations": {
        "206595": {
          "id": 206595,
          "sector_id": 658,
          "start_date": "1951-07-16",
          "end_date": "1951-08-31",
          "names": [
            {
              "name": "Socony Vacuum (dr. et c. 20) (1 action nouvelle, jce 1/11/49, pour 5 actions anciennes)",
              "start_date": "1951-07-16",
              "end_date": "1951-08-31"
            }
          ]
        }
      },
      "listings_stats": {
        "start_date": "1951-07-16"
      }
    }
  },
  "prices_count": 0,
  "name": "Socony Vacuum (dr. et c. 20) (1 action nouvelle, jce 1/11/49, pour 5 actions anciennes)"
}