{
  "id": 16626,
  "share_type": {
    "id": 1,
    "name": "Stock (Action)"
  },
  "issuers": [
    {
      "id": 5271,
      "start_date": "1962-01-02",
      "end_date": "3999-12-31",
      "name": "Wood-Mine"
    }
  ],
  "types": [
    {
      "start_date": "1962-01-02",
      "end_date": "3999-12-31",
      "id": 18,
      "name": "Action",
      "stock_group": "S"
    }
  ],
  "is_mainstock": 0,
  "prices_period": [
    "1962-01-02",
    "1973-11-30"
  ],
  "stock_exchanges": {
    "1": {
      "id": 1,
      "name": "Paris (Official List)",
      "notations": {
        "29930": {
          "id": 29930,
          "sector_id": 350,
          "start_date": "1963-03-04",
          "end_date": "1973-12-17",
          "names": [
            {
              "name": "Wood-Milne, act.",
              "start_date": "1962-01-02",
              "end_date": "1973-12-17"
            },
            {
              "name": "Wood-Milne (en liq.), act. (Avis72-191)",
              "start_date": "1963-03-04",
              "end_date": "3999-12-31"
            }
          ]
        },
        "147201": {
          "id": 147201,
          "sector_id": 413,
          "start_date": "1962-01-02",
          "end_date": "1963-03-04",
          "names": [
            {
              "name": "Wood-Milne, act.",
              "start_date": "1962-01-02",
              "end_date": "1973-12-17"
            },
            {
              "name": "Wood-Milne (en liq.), act. (Avis72-191)",
              "start_date": "1962-01-02",
              "end_date": "3999-12-31"
            }
          ]
        }
      },
      "listings_stats": {
        "start_date": "1962-01-02"
      },
      "spot_prices_stats": {
        "start_date": "1962-01-02",
        "end_date": "1973-11-30"
      }
    }
  },
  "prices_count": 289,
  "name": "Wood-Milne, act."
}