{
  "id": 20966,
  "share_type": {
    "id": 1,
    "name": "Stock (Action)"
  },
  "issuers": [
    {
      "id": 3990,
      "start_date": "1972-11-03",
      "end_date": "3999-12-31",
      "name": "ÉTABLISSEMENTS G. LEROY, A. LIVAROT"
    }
  ],
  "types": [
    {
      "start_date": "1972-11-03",
      "end_date": "3999-12-31",
      "id": 27,
      "name": "Promesse d'action",
      "stock_group": "S"
    }
  ],
  "is_mainstock": 0,
  "prices_period": [
    "1972-11-08",
    "1973-08-31"
  ],
  "stock_exchanges": {
    "1": {
      "id": 1,
      "name": "Paris (Official List)",
      "notations": {
        "151536": {
          "id": 151536,
          "sector_id": 338,
          "start_date": "1972-11-03",
          "end_date": "1973-09-10",
          "names": [
            {
              "name": "Leroy (Etabl G.), promesses (Jce 1/1/73)",
              "start_date": "1972-11-03",
              "end_date": "1973-09-10"
            },
            {
              "name": "Leroy (Etabl. G.), act. Nouv. (Jce 1/1/73)",
              "start_date": "1972-11-03",
              "end_date": "1973-09-10"
            },
            {
              "name": "Leroy (Etabl. G.), act. (n° 455251 à 546300) (c. 31 att.)",
              "start_date": "1972-11-03",
              "end_date": "3999-12-31"
            }
          ]
        }
      },
      "listings_stats": {
        "start_date": "1972-11-03"
      },
      "spot_prices_stats": {
        "start_date": "1972-11-08",
        "end_date": "1973-08-31"
      }
    }
  },
  "prices_count": 21,
  "name": "Leroy (Etabl. G.), act. Nouv. (Jce 1/1/73)"
}