{
  "id": 101657,
  "share_type": {
    "id": 4,
    "name": "Rights (Droits)"
  },
  "issuers": [
    {
      "id": 3222,
      "start_date": "1944-01-25",
      "end_date": "1945-02-28",
      "name": "Compagnie internationale des Wagons-Citernes, pou le transport des liquides et des solides en vrac"
    }
  ],
  "types": [
    {
      "start_date": "1944-01-25",
      "end_date": "1945-02-28",
      "id": 501,
      "name": "Droit de souscription",
      "stock_group": "R"
    }
  ],
  "is_mainstock": 0,
  "prices_period": [
    "1944-01-25",
    "1944-03-01"
  ],
  "stock_exchanges": {
    "1": {
      "id": 1,
      "name": "Paris (Official List)",
      "notations": {
        "201815": {
          "id": 201815,
          "sector_id": 657,
          "start_date": "1944-01-25",
          "end_date": "1945-03-01",
          "names": [
            {
              "name": "Act. Wagons-Citernes (coupon 39 ou bon)",
              "start_date": "1944-01-25",
              "end_date": "1945-03-01"
            }
          ]
        }
      },
      "listings_stats": {
        "start_date": "1944-01-25"
      },
      "spot_prices_stats": {
        "start_date": "1944-01-25",
        "end_date": "1944-03-01"
      }
    }
  },
  "prices_count": 4,
  "name": "Act. Wagons-Citernes (coupon 39 ou bon)"
}