{
  "id": 103811,
  "share_type": {
    "id": 4,
    "name": "Rights (Droits)"
  },
  "issuers": [
    {
      "id": 4356,
      "start_date": "1928-02-29",
      "end_date": "1928-03-16",
      "name": "ETABLISSEMENTS LEON LEVILLE"
    }
  ],
  "types": [
    {
      "start_date": "1928-02-29",
      "end_date": "1928-03-16",
      "id": 501,
      "name": "Droit de souscription",
      "stock_group": "R"
    }
  ],
  "is_mainstock": 0,
  "prices_period": [
    "1928-03-01",
    "1928-03-01"
  ],
  "stock_exchanges": {
    "1": {
      "id": 1,
      "name": "Paris (Official List)",
      "notations": {
        "203993": {
          "id": 203993,
          "sector_id": 657,
          "start_date": "1928-02-29",
          "end_date": "1928-03-17",
          "names": [
            {
              "name": "Parts de fondateur. Etablissements Léon Leville (droit et coupon 5). Pour 2 parts fondateur, 1 action nouvelle émise à 135 francs.",
              "start_date": "1928-02-29",
              "end_date": "1928-03-17"
            }
          ]
        }
      },
      "listings_stats": {
        "start_date": "1928-02-29"
      },
      "spot_prices_stats": {
        "start_date": "1928-03-01",
        "end_date": "1928-03-01"
      }
    }
  },
  "prices_count": 0,
  "name": "Parts de fondateur. Etablissements Léon Leville (droit et coupon 5). Pour 2 parts fondateur, 1 action nouvelle émise à 135 francs."
}