{
  "id": 102905,
  "share_type": {
    "id": 4,
    "name": "Rights (Droits)"
  },
  "issuers": [
    {
      "id": 3218,
      "start_date": "1935-09-16",
      "end_date": "1935-11-14",
      "name": "SOCIÉTÉ DES RAFFINERIES ET SUCRERIES SAY"
    }
  ],
  "types": [
    {
      "start_date": "1935-09-16",
      "end_date": "1935-11-14",
      "id": 502,
      "name": "Droit d'attribution",
      "stock_group": "R"
    }
  ],
  "is_mainstock": 0,
  "prices_period": [
    "1935-09-16",
    "1935-10-31"
  ],
  "stock_exchanges": {
    "1": {
      "id": 1,
      "name": "Paris (Official List)",
      "notations": {
        "203087": {
          "id": 203087,
          "sector_id": 657,
          "start_date": "1935-09-16",
          "end_date": "1935-11-15",
          "names": [
            {
              "name": "Act. Raffineries et Sucreries Say (droit à l'attribution et coupon 43). Pour 1 act. anc. de 200 fr., 1 act. nouv. de 100 fr. attribuée gratuitement",
              "start_date": "1935-09-16",
              "end_date": "1935-11-15"
            }
          ]
        }
      },
      "listings_stats": {
        "start_date": "1935-09-16"
      },
      "spot_prices_stats": {
        "start_date": "1935-09-16",
        "end_date": "1935-10-31"
      }
    }
  },
  "prices_count": 21,
  "name": "Act. Raffineries et Sucreries Say (droit à l'attribution et coupon 43). Pour 1 act. anc. de 200 fr., 1 act. nouv. de 100 fr. attribuée gratuitement"
}