{
  "id": 12404,
  "share_type": {
    "id": 1,
    "name": "Stock (Action)"
  },
  "issuers": [
    {
      "id": 4944,
      "start_date": "1946-03-28",
      "end_date": "3999-12-31",
      "name": "SVENSKA TANDSTÏCKS AKTIEBOLAGET (COMPAGNIE SUÉDOISE D'ALLUMETTES)"
    }
  ],
  "types": [
    {
      "start_date": "1946-03-28",
      "end_date": "3999-12-31",
      "id": 34,
      "name": "Action B",
      "stock_group": "S"
    }
  ],
  "is_mainstock": 0,
  "prices_period": [
    "1946-03-28",
    "1956-05-31"
  ],
  "stock_exchanges": {
    "1": {
      "id": 1,
      "name": "Paris (Official List)",
      "notations": {
        "24200": {
          "id": 24200,
          "sector_id": 311,
          "start_date": "1950-10-24",
          "end_date": "1951-11-02",
          "names": [
            {
              "name": "Suédoise des Allumettes (Cie) (Svenska Tandsticks). a. B 25 cour., t. p. (n°s 900001 à 2170000 et 2250001 à 4700000) Coup. De 5",
              "start_date": "1946-03-28",
              "end_date": "1951-11-02"
            },
            {
              "name": "Suédoise des Allumettes (Cie) (Svenska Tandsticks), actions B 25 couronnes, t. p. (n°s 900001 à 4700000) Coup. De 5",
              "start_date": "1950-10-24",
              "end_date": "1951-11-02"
            },
            {
              "name": "Suédoise des Allumettes (Cie) (Svenska Tandsticks), act. B 25 cour., t.p. (n° 900001 à 4700000), coup. De 5",
              "start_date": "1950-10-24",
              "end_date": "1955-12-01"
            },
            {
              "name": "Suédoise des Allumettes (Cie) (Svenska Tandsticks), act. B anc. 50 cour., t. p. (n°s 900001 à 4700000) Coup. De 5",
              "start_date": "1950-10-24",
              "end_date": "3999-12-31"
            }
          ]
        },
        "24521": {
          "id": 24521,
          "sector_id": 235,
          "start_date": "1951-11-02",
          "end_date": "1955-12-01",
          "names": [
            {
              "name": "Suédoise des Allumettes (Cie) (Svenska Tandsticks). a. B 25 cour., t. p. (n°s 900001 à 2170000 et 2250001 à 4700000) Coup. De 5",
              "start_date": "1946-03-28",
              "end_date": "1955-12-01"
            },
            {
              "name": "Suédoise des Allumettes (Cie) (Svenska Tandsticks), actions B 25 couronnes, t. p. (n°s 900001 à 4700000) Coup. De 5",
              "start_date": "1950-10-24",
              "end_date": "1955-12-01"
            },
            {
              "name": "Suédoise des Allumettes (Cie) (Svenska Tandsticks), act. B 25 cour., t.p. (n° 900001 à 4700000), coup. De 5",
              "start_date": "1951-11-02",
              "end_date": "1955-12-01"
            },
            {
              "name": "Suédoise des Allumettes (Cie) (Svenska Tandsticks), act. B anc. 50 cour., t. p. (n°s 900001 à 4700000) Coup. De 5",
              "start_date": "1951-11-02",
              "end_date": "3999-12-31"
            }
          ]
        },
        "27043": {
          "id": 27043,
          "sector_id": 82,
          "start_date": "1955-12-01",
          "end_date": "1956-06-01",
          "names": [
            {
              "name": "Suédoise des Allumettes (Cie) (Svenska Tandsticks). a. B 25 cour., t. p. (n°s 900001 à 2170000 et 2250001 à 4700000) Coup. De 5",
              "start_date": "1946-03-28",
              "end_date": "1956-06-01"
            },
            {
              "name": "Suédoise des Allumettes (Cie) (Svenska Tandsticks), actions B 25 couronnes, t. p. (n°s 900001 à 4700000) Coup. De 5",
              "start_date": "1950-10-24",
              "end_date": "1956-06-01"
            },
            {
              "name": "Suédoise des Allumettes (Cie) (Svenska Tandsticks), act. B 25 cour., t.p. (n° 900001 à 4700000), coup. De 5",
              "start_date": "1951-11-02",
              "end_date": "1956-06-01"
            },
            {
              "name": "Suédoise des Allumettes (Cie) (Svenska Tandsticks), act. B anc. 50 cour., t. p. (n°s 900001 à 4700000) Coup. De 5",
              "start_date": "1955-12-01",
              "end_date": "3999-12-31"
            }
          ]
        },
        "142979": {
          "id": 142979,
          "sector_id": 82,
          "start_date": "1946-03-28",
          "end_date": "1950-10-24",
          "names": [
            {
              "name": "Suédoise des Allumettes (Cie) (Svenska Tandsticks). a. B 25 cour., t. p. (n°s 900001 à 2170000 et 2250001 à 4700000) Coup. De 5",
              "start_date": "1946-03-28",
              "end_date": "1950-10-24"
            },
            {
              "name": "Suédoise des Allumettes (Cie) (Svenska Tandsticks), actions B 25 couronnes, t. p. (n°s 900001 à 4700000) Coup. De 5",
              "start_date": "1946-03-28",
              "end_date": "1951-11-02"
            },
            {
              "name": "Suédoise des Allumettes (Cie) (Svenska Tandsticks), act. B 25 cour., t.p. (n° 900001 à 4700000), coup. De 5",
              "start_date": "1946-03-28",
              "end_date": "1955-12-01"
            },
            {
              "name": "Suédoise des Allumettes (Cie) (Svenska Tandsticks), act. B anc. 50 cour., t. p. (n°s 900001 à 4700000) Coup. De 5",
              "start_date": "1946-03-28",
              "end_date": "3999-12-31"
            }
          ]
        }
      },
      "listings_stats": {
        "start_date": "1946-03-28"
      },
      "spot_prices_stats": {
        "start_date": "1946-03-28",
        "end_date": "1956-05-31"
      }
    }
  },
  "prices_count": 277,
  "name": "Suédoise des Allumettes (Cie) (Svenska Tandsticks), act. B 25 cour., t.p. (n° 900001 à 4700000), coup. De 5"
}