{
  "id": 291,
  "share_type": {
    "id": 2,
    "name": "Bond (Obligation)"
  },
  "issuers": [
    {
      "id": 462,
      "start_date": "1840-12-22",
      "end_date": "3999-12-31",
      "name": "BELGIQUE"
    }
  ],
  "types": [
    {
      "start_date": "1840-12-22",
      "end_date": "3999-12-31",
      "id": 1001,
      "name": "Obligation ordinaire ou classique",
      "stock_group": "B"
    }
  ],
  "is_mainstock": 0,
  "prices_period": [
    "1840-12-22",
    "1850-12-31"
  ],
  "stock_exchanges": {
    "1": {
      "id": 1,
      "name": "Paris (Official List)",
      "notations": {
        "403": {
          "id": 403,
          "sector_id": 67,
          "start_date": "1840-12-22",
          "end_date": "1851-01-02",
          "names": [
            {
              "name": "5% Belge, certif provis libér [5] Belge, emp de 1840 non rembour]",
              "start_date": "1840-12-22",
              "end_date": "1851-01-02"
            },
            {
              "name": "Emprunt Belge 5% 1840 (jouissance novembre)",
              "start_date": "1840-12-22",
              "end_date": "3999-12-31"
            }
          ]
        }
      },
      "forward_prices_stats": {
        "start_date": "1844-08-16",
        "end_date": "1846-09-15"
      },
      "listings_stats": {
        "start_date": "1840-12-22"
      },
      "spot_prices_stats": {
        "start_date": "1840-12-22",
        "end_date": "1850-12-31"
      }
    }
  },
  "prices_count": 341,
  "name": "Emprunt Belge 5% 1840 (jouissance novembre)"
}