{
  "id": 102745,
  "share_type": {
    "id": 4,
    "name": "Rights (Droits)"
  },
  "issuers": [
    {
      "id": 3106,
      "start_date": "1928-07-16",
      "end_date": "1928-09-18",
      "name": "\" EST-LUMIERE \" (Compagnie d'Electricité de l'Est-Parisien)"
    }
  ],
  "types": [
    {
      "start_date": "1928-07-16",
      "end_date": "1928-08-31",
      "id": 502,
      "name": "Droit d'attribution",
      "stock_group": "R"
    }
  ],
  "is_mainstock": 0,
  "prices_period": [
    "1928-07-17",
    "1928-07-17"
  ],
  "stock_exchanges": {
    "1": {
      "id": 1,
      "name": "Paris (Official List)",
      "notations": {
        "202927": {
          "id": 202927,
          "sector_id": 657,
          "start_date": "1928-07-16",
          "end_date": "1928-09-19",
          "names": [
            {
              "name": "Act. Non Lib. Est-Lumière (Est-Parisien). Pour 2 actions anciennes, 1 action nouvelle lib. attribuée gratuitement.",
              "start_date": "1928-07-16",
              "end_date": "1928-09-19"
            }
          ]
        }
      },
      "listings_stats": {
        "start_date": "1928-07-16"
      },
      "spot_prices_stats": {
        "start_date": "1928-07-17",
        "end_date": "1928-07-17"
      }
    }
  },
  "prices_count": 0,
  "name": "Act. Non Lib. Est-Lumière (Est-Parisien). Pour 2 actions anciennes, 1 action nouvelle lib. attribuée gratuitement."
}