{
  "id": 1654,
  "share_type": {
    "id": 1,
    "name": "Stock (Action)"
  },
  "issuers": [
    {
      "id": 1245,
      "start_date": "1872-05-17",
      "end_date": "3999-12-31",
      "name": "Crédit Lyonnais"
    }
  ],
  "types": [
    {
      "start_date": "1872-05-17",
      "end_date": "3999-12-31",
      "id": 18,
      "name": "Action",
      "stock_group": "S"
    }
  ],
  "is_mainstock": 0,
  "prices_period": [
    "1872-05-17",
    "1872-05-17"
  ],
  "stock_exchanges": {
    "1": {
      "id": 1,
      "name": "Paris (Official List)",
      "notations": {
        "2763": {
          "id": 2763,
          "sector_id": 574,
          "start_date": "1872-05-17",
          "end_date": "1875-03-18",
          "names": [
            {
              "name": "Crédit lyonnais, act. 500f, 250f payés Grosses coupures",
              "start_date": "1872-05-17",
              "end_date": "3999-12-31"
            }
          ]
        }
      },
      "listings_stats": {
        "start_date": "1872-05-17"
      },
      "spot_prices_stats": {
        "start_date": "1872-05-17",
        "end_date": "1872-05-17"
      }
    }
  },
  "prices_count": 1,
  "name": "Crédit lyonnais, act. 500f, 250f payés Grosses coupures"
}