{
  "id": 5663,
  "share_type": {
    "id": 1,
    "name": "Stock (Action)"
  },
  "issuers": [
    {
      "id": 3039,
      "start_date": "1908-03-30",
      "end_date": "3999-12-31",
      "name": "Sté GÉNÉRALE DES ÉTABLISSEMENTS BERGOUGNAN"
    }
  ],
  "types": [
    {
      "start_date": "1908-03-30",
      "end_date": "3999-12-31",
      "id": 18,
      "name": "Action",
      "stock_group": "S"
    }
  ],
  "is_mainstock": 1,
  "prices_period": [
    "1908-03-30",
    "1953-04-30"
  ],
  "stock_exchanges": {
    "1": {
      "id": 1,
      "name": "Paris (Official List)",
      "notations": {
        "8068": {
          "id": 8068,
          "sector_id": 106,
          "start_date": "1908-03-30",
          "end_date": "1914-08-03",
          "names": [
            {
              "name": "Etablissements Bergougnan et Cie (Société Générale des), act. 500 fr., t.p.",
              "start_date": "1908-03-30",
              "end_date": "1914-08-03"
            },
            {
              "name": "Etablissements Bergougnan (Société Générale des), act. 500 fr., t.p.",
              "start_date": "1908-03-30",
              "end_date": "1922-12-01"
            },
            {
              "name": "Bergougnan (Etabl.), act. 500 fr., t. p.",
              "start_date": "1908-03-30",
              "end_date": "1929-09-16"
            },
            {
              "name": "Bergougnan (Etabl.), act. 500 fr., t.p. (ex-dr., )",
              "start_date": "1908-03-30",
              "end_date": "1941-03-19"
            },
            {
              "name": "Bergougnan (Etabl.), act. 500 fr., t.p. (titres nouv.)",
              "start_date": "1908-03-30",
              "end_date": "1950-01-03"
            },
            {
              "name": "Bergougnan (Etabl.), act. 500 fr., t. p. (titres nouv.) (ex-dr., )",
              "start_date": "1908-03-30",
              "end_date": "1951-03-08"
            },
            {
              "name": "Bergougnan (Etabl.), act. 1000 fr.",
              "start_date": "1908-03-30",
              "end_date": "1951-10-11"
            },
            {
              "name": "Bergougnan (Etabl.), act. Anc. 1000 fr., t. p.",
              "start_date": "1908-03-30",
              "end_date": "3999-12-31"
            }
          ]
        },
        "10175": {
          "id": 10175,
          "sector_id": 106,
          "start_date": "1914-12-15",
          "end_date": "1922-12-01",
          "names": [
            {
              "name": "Etablissements Bergougnan et Cie (Société Générale des), act. 500 fr., t.p.",
              "start_date": "1908-03-30",
              "end_date": "1922-12-01"
            },
            {
              "name": "Etablissements Bergougnan (Société Générale des), act. 500 fr., t.p.",
              "start_date": "1912-05-17",
              "end_date": "1922-12-01"
            },
            {
              "name": "Bergougnan (Etabl.), act. 500 fr., t. p.",
              "start_date": "1914-12-15",
              "end_date": "1929-09-16"
            },
            {
              "name": "Bergougnan (Etabl.), act. 500 fr., t.p. (ex-dr., )",
              "start_date": "1914-12-15",
              "end_date": "1941-03-19"
            },
            {
              "name": "Bergougnan (Etabl.), act. 500 fr., t.p. (titres nouv.)",
              "start_date": "1914-12-15",
              "end_date": "1950-01-03"
            },
            {
              "name": "Bergougnan (Etabl.), act. 500 fr., t. p. (titres nouv.) (ex-dr., )",
              "start_date": "1914-12-15",
              "end_date": "1951-03-08"
            },
            {
              "name": "Bergougnan (Etabl.), act. 1000 fr.",
              "start_date": "1914-12-15",
              "end_date": "1951-10-11"
            },
            {
              "name": "Bergougnan (Etabl.), act. Anc. 1000 fr., t. p.",
              "start_date": "1914-12-15",
              "end_date": "3999-12-31"
            }
          ]
        },
        "10958": {
          "id": 10958,
          "sector_id": 182,
          "start_date": "1922-12-01",
          "end_date": "1941-03-19",
          "names": [
            {
              "name": "Etablissements Bergougnan et Cie (Société Générale des), act. 500 fr., t.p.",
              "start_date": "1908-03-30",
              "end_date": "1941-03-19"
            },
            {
              "name": "Etablissements Bergougnan (Société Générale des), act. 500 fr., t.p.",
              "start_date": "1912-05-17",
              "end_date": "1941-03-19"
            },
            {
              "name": "Bergougnan (Etabl.), act. 500 fr., t. p.",
              "start_date": "1922-12-01",
              "end_date": "1941-03-19"
            },
            {
              "name": "Bergougnan (Etabl.), act. 500 fr., t.p. (ex-dr., )",
              "start_date": "1922-12-01",
              "end_date": "1941-03-19"
            },
            {
              "name": "Bergougnan (Etabl.), act. 500 fr., t.p. (titres nouv.)",
              "start_date": "1922-12-01",
              "end_date": "1950-01-03"
            },
            {
              "name": "Bergougnan (Etabl.), act. 500 fr., t. p. (titres nouv.) (ex-dr., )",
              "start_date": "1922-12-01",
              "end_date": "1951-03-08"
            },
            {
              "name": "Bergougnan (Etabl.), act. 1000 fr.",
              "start_date": "1922-12-01",
              "end_date": "1951-10-11"
            },
            {
              "name": "Bergougnan (Etabl.), act. Anc. 1000 fr., t. p.",
              "start_date": "1922-12-01",
              "end_date": "3999-12-31"
            }
          ]
        },
        "19550": {
          "id": 19550,
          "sector_id": 222,
          "start_date": "1941-03-19",
          "end_date": "1953-05-05",
          "names": [
            {
              "name": "Etablissements Bergougnan et Cie (Société Générale des), act. 500 fr., t.p.",
              "start_date": "1908-03-30",
              "end_date": "1953-05-05"
            },
            {
              "name": "Etablissements Bergougnan (Société Générale des), act. 500 fr., t.p.",
              "start_date": "1912-05-17",
              "end_date": "1953-05-05"
            },
            {
              "name": "Bergougnan (Etabl.), act. 500 fr., t. p.",
              "start_date": "1922-12-01",
              "end_date": "1953-05-05"
            },
            {
              "name": "Bergougnan (Etabl.), act. 500 fr., t.p. (ex-dr., )",
              "start_date": "1929-09-16",
              "end_date": "1953-05-05"
            },
            {
              "name": "Bergougnan (Etabl.), act. 500 fr., t.p. (titres nouv.)",
              "start_date": "1941-03-19",
              "end_date": "1953-05-05"
            },
            {
              "name": "Bergougnan (Etabl.), act. 500 fr., t. p. (titres nouv.) (ex-dr., )",
              "start_date": "1941-03-19",
              "end_date": "1953-05-05"
            },
            {
              "name": "Bergougnan (Etabl.), act. 1000 fr.",
              "start_date": "1941-03-19",
              "end_date": "1953-05-05"
            },
            {
              "name": "Bergougnan (Etabl.), act. Anc. 1000 fr., t. p.",
              "start_date": "1941-03-19",
              "end_date": "3999-12-31"
            }
          ]
        }
      },
      "listings_stats": {
        "start_date": "1908-03-30"
      },
      "spot_prices_stats": {
        "start_date": "1908-03-30",
        "end_date": "1953-04-30"
      }
    }
  },
  "prices_count": 1608,
  "name": "Bergougnan (Etabl.), act. 500 fr., t. p."
}