{
  "id": 613,
  "share_type": {
    "id": 2,
    "name": "Bond (Obligation)"
  },
  "issuers": [
    {
      "id": 637,
      "start_date": "1850-02-27",
      "end_date": "3999-12-31",
      "name": "Compagnie des Mines de la Grand'Combe"
    }
  ],
  "types": [
    {
      "start_date": "1850-02-27",
      "end_date": "3999-12-31",
      "id": 1001,
      "name": "Obligation ordinaire ou classique",
      "stock_group": "B"
    }
  ],
  "is_mainstock": 0,
  "prices_period": [
    "1850-02-27",
    "1850-07-15"
  ],
  "stock_exchanges": {
    "1": {
      "id": 1,
      "name": "Paris (Official List)",
      "notations": {
        "833": {
          "id": 833,
          "sector_id": 576,
          "start_date": "1850-02-27",
          "end_date": "1850-07-16",
          "names": [
            {
              "name": "H.G. Combe, j. Jer 1848 - obl.",
              "start_date": "1850-02-27",
              "end_date": "3999-12-31"
            }
          ]
        }
      },
      "listings_stats": {
        "start_date": "1850-02-27"
      },
      "spot_prices_stats": {
        "start_date": "1850-02-27",
        "end_date": "1850-07-15"
      }
    }
  },
  "prices_count": 2,
  "name": "H.G. Combe, j. Jer 1848 - obl."
}