{
  "id": 3950,
  "share_type": {
    "id": 1,
    "name": "Stock (Action)"
  },
  "issuers": [
    {
      "id": 2899,
      "start_date": "1890-12-20",
      "end_date": "3999-12-31",
      "name": "Compagnie française des mines de cuivre d'Aguas Tenidas"
    }
  ],
  "types": [
    {
      "start_date": "1890-12-20",
      "end_date": "3999-12-31",
      "id": 18,
      "name": "Action",
      "stock_group": "S"
    }
  ],
  "is_mainstock": 1,
  "prices_period": [
    "1891-01-07",
    "1904-02-15"
  ],
  "stock_exchanges": {
    "1": {
      "id": 1,
      "name": "Paris (Official List)",
      "notations": {
        "1722": {
          "id": 1722,
          "sector_id": 103,
          "start_date": "1902-05-26",
          "end_date": "1904-03-07",
          "names": [
            {
              "name": "Aguas Tenidas (Cie française des mines de cuivre d') act. 500 fr., t. p.",
              "start_date": "1890-12-20",
              "end_date": "3999-12-31"
            }
          ]
        },
        "5049": {
          "id": 5049,
          "sector_id": 73,
          "start_date": "1890-12-20",
          "end_date": "1902-05-26",
          "names": [
            {
              "name": "Aguas Tenidas (Cie française des mines de cuivre d') act. 500 fr., t. p.",
              "start_date": "1890-12-20",
              "end_date": "3999-12-31"
            }
          ]
        }
      },
      "listings_stats": {
        "start_date": "1890-12-20"
      },
      "spot_prices_stats": {
        "start_date": "1891-01-07",
        "end_date": "1904-02-15"
      }
    }
  },
  "prices_count": 389,
  "name": "Aguas Tenidas (Cie française des mines de cuivre d') act. 500 fr., t. p."
}