{
  "id": 14911,
  "share_type": {
    "id": 2,
    "name": "Bond (Obligation)"
  },
  "issuers": [
    {
      "id": 5133,
      "start_date": "1954-02-16",
      "end_date": "3999-12-31",
      "name": "ALLEMAGNE"
    }
  ],
  "types": [
    {
      "start_date": "1954-02-16",
      "end_date": "3999-12-31",
      "id": 1001,
      "name": "Obligation ordinaire ou classique",
      "stock_group": "B"
    }
  ],
  "is_mainstock": 0,
  "prices_period": [
    "1954-02-16",
    "1972-11-30"
  ],
  "stock_exchanges": {
    "1": {
      "id": 1,
      "name": "Paris (Official List)",
      "notations": {
        "145486": {
          "id": 145486,
          "sector_id": 74,
          "start_date": "1954-02-16",
          "end_date": "1972-12-01",
          "names": [
            {
              "name": "Allemand (Emprunt Dawes) Oblig. de consolidation 3% 1953, à 20 ans (Cf Avis n° 30595 et 30625) Obl. 3000 fr., série A",
              "start_date": "1954-02-16",
              "end_date": "1972-12-01"
            },
            {
              "name": "Allemagne (Emprunt Dawes). Obl. De Consolidation 3% 53, à 20 ans (Cf. Avis n°s 30595 et 30625) Oblig. 3000 fr., série A.",
              "start_date": "1954-02-16",
              "end_date": "1972-12-01"
            },
            {
              "name": "Allemagne (emprunt dawes) obl de consolidation 3% 53 à 20 ans (rach ou tir)(Cf Avis n 30595 et 30625) Oblig 3000 fr serie A",
              "start_date": "1954-02-16",
              "end_date": "1972-12-01"
            },
            {
              "name": "Allemagne (emprunt dawes) obl de consolidation 3% 53 à 20 ans (jce 1/6/60)(rach ou tir)(Cf Avis n 30595 et 30625) Oblig serie A",
              "start_date": "1954-02-16",
              "end_date": "1972-12-01"
            },
            {
              "name": "Allemagne (Empr. Dawes), Oblig. de consolidation 3% 1953, à 20 ans (Jce 1/6/62) (Rach. ou Tir.) (Avis 30595 et 30625) Oblig. série A",
              "start_date": "1954-02-16",
              "end_date": "1972-12-01"
            },
            {
              "name": "ALLEMAGNE obligations de consolidation 3% 1953 à 20 ans (Jce 1/6/72) (Rach ou Tir) (Avis 30595 et 30625) oblig série A. Remb. le 1/12/72",
              "start_date": "1954-02-16",
              "end_date": "3999-12-31"
            }
          ]
        }
      },
      "listings_stats": {
        "start_date": "1954-02-16"
      },
      "spot_prices_stats": {
        "start_date": "1954-02-16",
        "end_date": "1972-11-30"
      }
    }
  },
  "prices_count": 521,
  "name": "Allemagne (emprunt dawes) obl de consolidation 3% 53 à 20 ans (rach ou tir)(Cf Avis n 30595 et 30625) Oblig 3000 fr serie A"
}