{
  "id": 2844,
  "share_type": {
    "id": 1,
    "name": "Stock (Action)"
  },
  "issuers": [
    {
      "id": 2520,
      "start_date": "1879-12-01",
      "end_date": "3999-12-31",
      "name": "Société générale des Soufres"
    }
  ],
  "types": [
    {
      "start_date": "1879-12-01",
      "end_date": "3999-12-31",
      "id": 18,
      "name": "Action",
      "stock_group": "S"
    }
  ],
  "is_mainstock": 1,
  "prices_period": [
    "1880-04-15",
    "1886-11-15"
  ],
  "stock_exchanges": {
    "1": {
      "id": 1,
      "name": "Paris (Official List)",
      "notations": {
        "3943": {
          "id": 3943,
          "sector_id": 73,
          "start_date": "1879-12-01",
          "end_date": "1886-11-17",
          "names": [
            {
              "name": "Soufres (Soc.Générale des), act. 500f.t.p.",
              "start_date": "1879-12-01",
              "end_date": "3999-12-31"
            }
          ]
        }
      },
      "listings_stats": {
        "start_date": "1879-12-01"
      },
      "spot_prices_stats": {
        "start_date": "1880-04-15",
        "end_date": "1885-09-30"
      }
    },
    "2": {
      "id": 2,
      "name": "Paris OTC (Coulisse)",
      "notations": {
        "205313": {
          "id": 205313,
          "sector_id": 669,
          "start_date": "1884-01-15",
          "end_date": "1887-12-31",
          "names": [
            {
              "name": "Soc. Soufres, janv. 80 ex-c9",
              "start_date": "1884-01-15",
              "end_date": "1887-12-31"
            }
          ]
        }
      },
      "listings_stats": {
        "start_date": "1884-01-15"
      },
      "spot_prices_stats": {
        "start_date": "1884-06-30",
        "end_date": "1886-11-15"
      }
    }
  },
  "prices_count": 70,
  "name": "Soc. Soufres, janv. 80 ex-c9"
}