{
  "id": 12560,
  "share_type": {
    "id": 2,
    "name": "Bond (Obligation)"
  },
  "issuers": [
    {
      "id": 3515,
      "start_date": "1946-11-20",
      "end_date": "3999-12-31",
      "name": "TRANSPORT D'ENERGIE DES CEVENNES"
    }
  ],
  "types": [
    {
      "start_date": "1946-11-20",
      "end_date": "3999-12-31",
      "id": 1001,
      "name": "Obligation ordinaire ou classique",
      "stock_group": "B"
    }
  ],
  "is_mainstock": 0,
  "prices_period": [
    "1946-11-29",
    "1955-08-31"
  ],
  "stock_exchanges": {
    "1": {
      "id": 1,
      "name": "Paris (Official List)",
      "notations": {
        "143135": {
          "id": 143135,
          "sector_id": 117,
          "start_date": "1946-11-20",
          "end_date": "1955-09-01",
          "names": [
            {
              "name": "Transport d'Energie des Cévennes 4% 1946, r. à 5000 fr. (Jce 10/4/46) 1948-81",
              "start_date": "1946-11-20",
              "end_date": "1955-09-01"
            },
            {
              "name": "Transport d'Energie des Cèvennes 4% 1946, remb. À 5000 fr. 1948-81",
              "start_date": "1946-11-20",
              "end_date": "3999-12-31"
            }
          ]
        }
      },
      "listings_stats": {
        "start_date": "1946-11-20"
      },
      "spot_prices_stats": {
        "start_date": "1946-11-29",
        "end_date": "1955-08-31"
      }
    }
  },
  "prices_count": 205,
  "name": "Transport d'Energie des Cèvennes 4% 1946, remb. À 5000 fr. 1948-81"
}