{
  "id": 7749,
  "share_type": {
    "id": 1,
    "name": "Stock (Action)"
  },
  "issuers": [
    {
      "id": 2029,
      "start_date": "1923-06-28",
      "end_date": "3999-12-31",
      "name": "CIE ANONYME DES ÉTABLISSEMENTS DUVAl"
    }
  ],
  "types": [
    {
      "start_date": "1923-06-28",
      "end_date": "3999-12-31",
      "id": 18,
      "name": "Action",
      "stock_group": "S"
    }
  ],
  "is_mainstock": 0,
  "prices_period": [
    "1923-07-03",
    "1926-04-15"
  ],
  "stock_exchanges": {
    "1": {
      "id": 1,
      "name": "Paris (Official List)",
      "notations": {
        "34619": {
          "id": 34619,
          "sector_id": 180,
          "start_date": "1923-06-28",
          "end_date": "1926-04-29",
          "names": [
            {
              "name": "Duval (Etabl.), Act. 500 fr., 125 fr. p. (nos 9501 à 20477), nom.",
              "start_date": "1923-06-28",
              "end_date": "3999-12-31"
            }
          ]
        }
      },
      "listings_stats": {
        "start_date": "1923-06-28"
      },
      "spot_prices_stats": {
        "start_date": "1923-07-03",
        "end_date": "1926-04-15"
      }
    }
  },
  "prices_count": 47,
  "name": "Duval (Etabl.), Act. 500 fr., 125 fr. p. (nos 9501 à 20477), nom."
}