{
  "id": 12054,
  "share_type": {
    "id": 2,
    "name": "Bond (Obligation)"
  },
  "issuers": [
    {
      "id": 4089,
      "start_date": "1943-11-08",
      "end_date": "3999-12-31",
      "name": "SOCIÉTÉ GAVEAU ET Cie"
    }
  ],
  "types": [
    {
      "start_date": "1943-11-08",
      "end_date": "3999-12-31",
      "id": 1001,
      "name": "Obligation ordinaire ou classique",
      "stock_group": "B"
    }
  ],
  "is_mainstock": 0,
  "prices_period": [
    "1943-11-08",
    "1962-12-17"
  ],
  "stock_exchanges": {
    "1": {
      "id": 1,
      "name": "Paris (Official List)",
      "notations": {
        "24707": {
          "id": 24707,
          "sector_id": 320,
          "start_date": "1952-07-01",
          "end_date": "1955-12-01",
          "names": [
            {
              "name": "Gaveau et Cie (Sté) 4,25% 1943, remb. à 5000 fr. 1944-73",
              "start_date": "1943-11-08",
              "end_date": "1955-12-01"
            },
            {
              "name": "Gaveau et Cie 4,25% 1943-1945, rembours. À 5000 fr. 1944-73",
              "start_date": "1950-01-03",
              "end_date": "1955-12-01"
            },
            {
              "name": "Gaveau et Cie 4,25% 1943-45, rembours. À 5000 fr. 1944-73",
              "start_date": "1952-07-01",
              "end_date": "1955-12-01"
            },
            {
              "name": "Gaveau et Cie 6% (ex-4,25%) 1943-1945, r. à 5000 fr. (titres nouveaux) (n° 1 à 1960 et 2001 à 5082) 1944-70",
              "start_date": "1952-07-01",
              "end_date": "1955-12-01"
            },
            {
              "name": "Gaveau et Cie 6% (ex-4,25%) 1943-1945 (n°s 1 à 1960 et 2001 à 3082) (Tir. 5/4/55) 1944-70",
              "start_date": "1952-07-01",
              "end_date": "1960-04-10"
            },
            {
              "name": "Gaveau et cie 6% (ex-4,5%) 1943-1945 (n 1 à 1960 et 2001 à 5082)(tir 17/4/59) 1944-70",
              "start_date": "1952-07-01",
              "end_date": "1960-04-11"
            },
            {
              "name": "Gaveau-Errard 6% (ex-4,5%) 1943-1945 (n 1 à 1960 et 2001 à 5082)(tir 17/4/59) 1944-70",
              "start_date": "1952-07-01",
              "end_date": "1962-01-02"
            },
            {
              "name": "Gaveau-Erard 6% (ex-4,25 %) 1943-1945 (n°s 1à 1960 et 2001 à 5082) (Tir. 10/4/61) 1944-70",
              "start_date": "1952-07-01",
              "end_date": "1963-01-02"
            },
            {
              "name": "Gaveau-Erard 6% (ex-4,25%) 1943-1945 (nos 1 à 1960 et 2001 à 5082) (Tir. 6/4/62) 1944-70",
              "start_date": "1952-07-01",
              "end_date": "3999-12-31"
            }
          ]
        },
        "26541": {
          "id": 26541,
          "sector_id": 362,
          "start_date": "1955-12-01",
          "end_date": "1962-01-02",
          "names": [
            {
              "name": "Gaveau et Cie (Sté) 4,25% 1943, remb. à 5000 fr. 1944-73",
              "start_date": "1943-11-08",
              "end_date": "1962-01-02"
            },
            {
              "name": "Gaveau et Cie 4,25% 1943-1945, rembours. À 5000 fr. 1944-73",
              "start_date": "1950-01-03",
              "end_date": "1962-01-02"
            },
            {
              "name": "Gaveau et Cie 4,25% 1943-45, rembours. À 5000 fr. 1944-73",
              "start_date": "1952-07-01",
              "end_date": "1962-01-02"
            },
            {
              "name": "Gaveau et Cie 6% (ex-4,25%) 1943-1945, r. à 5000 fr. (titres nouveaux) (n° 1 à 1960 et 2001 à 5082) 1944-70",
              "start_date": "1953-11-09",
              "end_date": "1962-01-02"
            },
            {
              "name": "Gaveau et Cie 6% (ex-4,25%) 1943-1945 (n°s 1 à 1960 et 2001 à 3082) (Tir. 5/4/55) 1944-70",
              "start_date": "1955-12-01",
              "end_date": "1962-01-02"
            },
            {
              "name": "Gaveau et cie 6% (ex-4,5%) 1943-1945 (n 1 à 1960 et 2001 à 5082)(tir 17/4/59) 1944-70",
              "start_date": "1955-12-01",
              "end_date": "1962-01-02"
            },
            {
              "name": "Gaveau-Errard 6% (ex-4,5%) 1943-1945 (n 1 à 1960 et 2001 à 5082)(tir 17/4/59) 1944-70",
              "start_date": "1955-12-01",
              "end_date": "1962-01-02"
            },
            {
              "name": "Gaveau-Erard 6% (ex-4,25 %) 1943-1945 (n°s 1à 1960 et 2001 à 5082) (Tir. 10/4/61) 1944-70",
              "start_date": "1955-12-01",
              "end_date": "1963-01-02"
            },
            {
              "name": "Gaveau-Erard 6% (ex-4,25%) 1943-1945 (nos 1 à 1960 et 2001 à 5082) (Tir. 6/4/62) 1944-70",
              "start_date": "1955-12-01",
              "end_date": "3999-12-31"
            }
          ]
        },
        "28231": {
          "id": 28231,
          "sector_id": 511,
          "start_date": "1962-01-02",
          "end_date": "1963-01-02",
          "names": [
            {
              "name": "Gaveau et Cie (Sté) 4,25% 1943, remb. à 5000 fr. 1944-73",
              "start_date": "1943-11-08",
              "end_date": "1963-01-02"
            },
            {
              "name": "Gaveau et Cie 4,25% 1943-1945, rembours. À 5000 fr. 1944-73",
              "start_date": "1950-01-03",
              "end_date": "1963-01-02"
            },
            {
              "name": "Gaveau et Cie 4,25% 1943-45, rembours. À 5000 fr. 1944-73",
              "start_date": "1952-07-01",
              "end_date": "1963-01-02"
            },
            {
              "name": "Gaveau et Cie 6% (ex-4,25%) 1943-1945, r. à 5000 fr. (titres nouveaux) (n° 1 à 1960 et 2001 à 5082) 1944-70",
              "start_date": "1953-11-09",
              "end_date": "1963-01-02"
            },
            {
              "name": "Gaveau et Cie 6% (ex-4,25%) 1943-1945 (n°s 1 à 1960 et 2001 à 3082) (Tir. 5/4/55) 1944-70",
              "start_date": "1955-12-01",
              "end_date": "1963-01-02"
            },
            {
              "name": "Gaveau et cie 6% (ex-4,5%) 1943-1945 (n 1 à 1960 et 2001 à 5082)(tir 17/4/59) 1944-70",
              "start_date": "1960-04-10",
              "end_date": "1963-01-02"
            },
            {
              "name": "Gaveau-Errard 6% (ex-4,5%) 1943-1945 (n 1 à 1960 et 2001 à 5082)(tir 17/4/59) 1944-70",
              "start_date": "1960-04-11",
              "end_date": "1963-01-02"
            },
            {
              "name": "Gaveau-Erard 6% (ex-4,25 %) 1943-1945 (n°s 1à 1960 et 2001 à 5082) (Tir. 10/4/61) 1944-70",
              "start_date": "1962-01-02",
              "end_date": "1963-01-02"
            },
            {
              "name": "Gaveau-Erard 6% (ex-4,25%) 1943-1945 (nos 1 à 1960 et 2001 à 5082) (Tir. 6/4/62) 1944-70",
              "start_date": "1962-01-02",
              "end_date": "3999-12-31"
            }
          ]
        },
        "142629": {
          "id": 142629,
          "sector_id": 185,
          "start_date": "1943-11-08",
          "end_date": "1952-07-01",
          "names": [
            {
              "name": "Gaveau et Cie (Sté) 4,25% 1943, remb. à 5000 fr. 1944-73",
              "start_date": "1943-11-08",
              "end_date": "1952-07-01"
            },
            {
              "name": "Gaveau et Cie 4,25% 1943-1945, rembours. À 5000 fr. 1944-73",
              "start_date": "1943-11-08",
              "end_date": "1952-07-01"
            },
            {
              "name": "Gaveau et Cie 4,25% 1943-45, rembours. À 5000 fr. 1944-73",
              "start_date": "1943-11-08",
              "end_date": "1953-11-09"
            },
            {
              "name": "Gaveau et Cie 6% (ex-4,25%) 1943-1945, r. à 5000 fr. (titres nouveaux) (n° 1 à 1960 et 2001 à 5082) 1944-70",
              "start_date": "1943-11-08",
              "end_date": "1955-12-01"
            },
            {
              "name": "Gaveau et Cie 6% (ex-4,25%) 1943-1945 (n°s 1 à 1960 et 2001 à 3082) (Tir. 5/4/55) 1944-70",
              "start_date": "1943-11-08",
              "end_date": "1960-04-10"
            },
            {
              "name": "Gaveau et cie 6% (ex-4,5%) 1943-1945 (n 1 à 1960 et 2001 à 5082)(tir 17/4/59) 1944-70",
              "start_date": "1943-11-08",
              "end_date": "1960-04-11"
            },
            {
              "name": "Gaveau-Errard 6% (ex-4,5%) 1943-1945 (n 1 à 1960 et 2001 à 5082)(tir 17/4/59) 1944-70",
              "start_date": "1943-11-08",
              "end_date": "1962-01-02"
            },
            {
              "name": "Gaveau-Erard 6% (ex-4,25 %) 1943-1945 (n°s 1à 1960 et 2001 à 5082) (Tir. 10/4/61) 1944-70",
              "start_date": "1943-11-08",
              "end_date": "1963-01-02"
            },
            {
              "name": "Gaveau-Erard 6% (ex-4,25%) 1943-1945 (nos 1 à 1960 et 2001 à 5082) (Tir. 6/4/62) 1944-70",
              "start_date": "1943-11-08",
              "end_date": "3999-12-31"
            }
          ]
        }
      },
      "listings_stats": {
        "start_date": "1943-11-08"
      },
      "spot_prices_stats": {
        "start_date": "1943-11-08",
        "end_date": "1962-12-17"
      }
    }
  },
  "prices_count": 461,
  "name": "Gaveau et Cie 6% (ex-4,25%) 1943-1945 (n°s 1 à 1960 et 2001 à 3082) (Tir. 5/4/55) 1944-70"
}