{
  "id": 6720,
  "share_type": {
    "id": 1,
    "name": "Stock (Action)"
  },
  "issuers": [
    {
      "id": 2273,
      "start_date": "1913-04-14",
      "end_date": "3999-12-31",
      "name": "OFFICE PUBLIC D'HABITATIONS A BON MARCHE DU DÉPARTEMENT DE LA SEINE"
    }
  ],
  "types": [
    {
      "start_date": "1920-01-02",
      "end_date": "3999-12-31",
      "id": 18,
      "name": "Action",
      "stock_group": "S"
    }
  ],
  "is_mainstock": 1,
  "prices_period": [
    null,
    null
  ],
  "stock_exchanges": {
    "1": {
      "id": 1,
      "name": "Paris (Official List)",
      "notations": {
        "155477": {
          "id": 155477,
          "sector_id": 170,
          "start_date": "1913-04-14",
          "end_date": "1925-05-01",
          "names": [
            {
              "name": "Habitations Economiques de la Seine (nominatives)",
              "start_date": "1913-04-14",
              "end_date": "1925-05-01"
            },
            {
              "name": "Habitations Economiques de la Seine, act. 500 fr., t. p. (nominatives)",
              "start_date": "1913-04-14",
              "end_date": "3999-12-31"
            }
          ]
        }
      },
      "listings_stats": {
        "start_date": "1913-04-14"
      }
    }
  },
  "prices_count": 0,
  "name": "Habitations Economiques de la Seine (nominatives)"
}