{
  "id": 11496,
  "share_type": {
    "id": 2,
    "name": "Bond (Obligation)"
  },
  "issuers": [
    {
      "id": 2301,
      "start_date": "1941-07-23",
      "end_date": "3999-12-31",
      "name": "COMPAGNIE GENERALE DU GAZ POUR LA FRANCE ET L'ETRANGER"
    }
  ],
  "types": [
    {
      "start_date": "1941-07-23",
      "end_date": "3999-12-31",
      "id": 1001,
      "name": "Obligation ordinaire ou classique",
      "stock_group": "B"
    }
  ],
  "is_mainstock": 0,
  "prices_period": [
    "1941-07-28",
    "1944-01-03"
  ],
  "stock_exchanges": {
    "1": {
      "id": 1,
      "name": "Paris (Official List)",
      "notations": {
        "142071": {
          "id": 142071,
          "sector_id": 110,
          "start_date": "1941-07-23",
          "end_date": "1944-01-20",
          "names": [
            {
              "name": "Gaz pour la France et l'Etranger 5% 1941, remb. à 2000 fr. 1941-71",
              "start_date": "1941-07-23",
              "end_date": "1944-01-20"
            },
            {
              "name": "Gaz pour la France et l'Etranger 5% 1941, remb. À 2000 fr. le 20 janvier 1944",
              "start_date": "1941-07-23",
              "end_date": "3999-12-31"
            }
          ]
        }
      },
      "listings_stats": {
        "start_date": "1941-07-23"
      },
      "spot_prices_stats": {
        "start_date": "1941-07-28",
        "end_date": "1944-01-03"
      }
    }
  },
  "prices_count": 59,
  "name": "Gaz pour la France et l'Etranger 5% 1941, remb. à 2000 fr. 1941-71"
}