{
  "id": 102460,
  "share_type": {
    "id": 4,
    "name": "Rights (Droits)"
  },
  "issuers": [
    {
      "id": 3465,
      "start_date": "1925-04-15",
      "end_date": "1925-04-30",
      "name": "SOCIETE DES ÉTABLISSEMENTS DEBRAY"
    }
  ],
  "types": [
    {
      "start_date": "1925-04-15",
      "end_date": "1925-04-30",
      "id": 501,
      "name": "Droit de souscription",
      "stock_group": "R"
    }
  ],
  "is_mainstock": 0,
  "prices_period": [
    "1925-04-15",
    "1925-04-15"
  ],
  "stock_exchanges": {
    "1": {
      "id": 1,
      "name": "Paris (Official List)",
      "notations": {
        "202642": {
          "id": 202642,
          "sector_id": 657,
          "start_date": "1925-04-15",
          "end_date": "1925-05-01",
          "names": [
            {
              "name": "Act. Etablissements Debray (droit et coupon 32)",
              "start_date": "1925-04-15",
              "end_date": "1925-05-01"
            }
          ]
        }
      },
      "listings_stats": {
        "start_date": "1925-04-15"
      },
      "spot_prices_stats": {
        "start_date": "1925-04-15",
        "end_date": "1925-04-15"
      }
    }
  },
  "prices_count": 0,
  "name": "Act. Etablissements Debray (droit et coupon 32)"
}