{
  "id": 14847,
  "share_type": {
    "id": 1,
    "name": "Stock (Action)"
  },
  "issuers": [
    {
      "id": 1387,
      "start_date": "1954-10-22",
      "end_date": "3999-12-31",
      "name": "BANQUE PARIBAS"
    }
  ],
  "types": [
    {
      "start_date": "1954-10-22",
      "end_date": "3999-12-31",
      "id": 11,
      "name": "Action ordinaire",
      "stock_group": "S"
    }
  ],
  "is_mainstock": 0,
  "prices_period": [
    null,
    null
  ],
  "stock_exchanges": {
    "1": {
      "id": 1,
      "name": "Paris (Official List)",
      "notations": {
        "27165": {
          "id": 27165,
          "sector_id": 1,
          "start_date": "1959-03-02",
          "end_date": "1960-01-04",
          "names": [
            {
              "name": "Banque de Paris et des Pays-Bas, act. 5000 fr., t. p. (c. 137 att.) (par 25 actions)",
              "start_date": "1954-10-22",
              "end_date": "1960-01-04"
            },
            {
              "name": "Banque de Paris et des Pays-Bas, actions 5000 fr. (par 25 actions)",
              "start_date": "1955-12-01",
              "end_date": "1960-01-04"
            },
            {
              "name": "Banque de Paris et des Pays-Bas, act 50 NF (ex-dr, )(n 1 à 1308800)(par 25 actions)",
              "start_date": "1959-03-02",
              "end_date": "1961-04-21"
            },
            {
              "name": "Banque de paris et des pays-bas, actions 100 NF (par 25 actions)",
              "start_date": "1959-03-02",
              "end_date": "1963-09-23"
            },
            {
              "name": "Banque de Paris et des Pays-Bas, actions 100F (par 25 actions)",
              "start_date": "1959-03-02",
              "end_date": "1968-08-05"
            },
            {
              "name": "Financière de Paris et des Pays-Bas (Cie), act. 100 F Corbeille (par 25 actions)",
              "start_date": "1959-03-02",
              "end_date": "3999-12-31"
            }
          ]
        },
        "27271": {
          "id": 27271,
          "sector_id": 3,
          "start_date": "1960-01-04",
          "end_date": "1963-09-23",
          "names": [
            {
              "name": "Banque de Paris et des Pays-Bas, act. 5000 fr., t. p. (c. 137 att.) (par 25 actions)",
              "start_date": "1954-10-22",
              "end_date": "1963-09-23"
            },
            {
              "name": "Banque de Paris et des Pays-Bas, actions 5000 fr. (par 25 actions)",
              "start_date": "1955-12-01",
              "end_date": "1963-09-23"
            },
            {
              "name": "Banque de Paris et des Pays-Bas, act 50 NF (ex-dr, )(n 1 à 1308800)(par 25 actions)",
              "start_date": "1960-01-04",
              "end_date": "1963-09-23"
            },
            {
              "name": "Banque de paris et des pays-bas, actions 100 NF (par 25 actions)",
              "start_date": "1960-01-04",
              "end_date": "1963-09-23"
            },
            {
              "name": "Banque de Paris et des Pays-Bas, actions 100F (par 25 actions)",
              "start_date": "1960-01-04",
              "end_date": "1968-08-05"
            },
            {
              "name": "Financière de Paris et des Pays-Bas (Cie), act. 100 F Corbeille (par 25 actions)",
              "start_date": "1960-01-04",
              "end_date": "3999-12-31"
            }
          ]
        },
        "31605": {
          "id": 31605,
          "sector_id": 1,
          "start_date": "1963-09-23",
          "end_date": "1969-03-25",
          "names": [
            {
              "name": "Banque de Paris et des Pays-Bas, act. 5000 fr., t. p. (c. 137 att.) (par 25 actions)",
              "start_date": "1954-10-22",
              "end_date": "1969-03-25"
            },
            {
              "name": "Banque de Paris et des Pays-Bas, actions 5000 fr. (par 25 actions)",
              "start_date": "1955-12-01",
              "end_date": "1969-03-25"
            },
            {
              "name": "Banque de Paris et des Pays-Bas, act 50 NF (ex-dr, )(n 1 à 1308800)(par 25 actions)",
              "start_date": "1960-01-04",
              "end_date": "1969-03-25"
            },
            {
              "name": "Banque de paris et des pays-bas, actions 100 NF (par 25 actions)",
              "start_date": "1961-04-21",
              "end_date": "1969-03-25"
            },
            {
              "name": "Banque de Paris et des Pays-Bas, actions 100F (par 25 actions)",
              "start_date": "1963-09-23",
              "end_date": "1969-03-25"
            },
            {
              "name": "Financière de Paris et des Pays-Bas (Cie), act. 100 F Corbeille (par 25 actions)",
              "start_date": "1963-09-23",
              "end_date": "3999-12-31"
            }
          ]
        },
        "32179": {
          "id": 32179,
          "sector_id": 471,
          "start_date": "1969-03-25",
          "end_date": "3999-12-31",
          "names": [
            {
              "name": "Banque de Paris et des Pays-Bas, act. 5000 fr., t. p. (c. 137 att.) (par 25 actions)",
              "start_date": "1954-10-22",
              "end_date": "3999-12-31"
            },
            {
              "name": "Banque de Paris et des Pays-Bas, actions 5000 fr. (par 25 actions)",
              "start_date": "1955-12-01",
              "end_date": "3999-12-31"
            },
            {
              "name": "Banque de Paris et des Pays-Bas, act 50 NF (ex-dr, )(n 1 à 1308800)(par 25 actions)",
              "start_date": "1960-01-04",
              "end_date": "3999-12-31"
            },
            {
              "name": "Banque de paris et des pays-bas, actions 100 NF (par 25 actions)",
              "start_date": "1961-04-21",
              "end_date": "3999-12-31"
            },
            {
              "name": "Banque de Paris et des Pays-Bas, actions 100F (par 25 actions)",
              "start_date": "1963-09-23",
              "end_date": "3999-12-31"
            },
            {
              "name": "Financière de Paris et des Pays-Bas (Cie), act. 100 F Corbeille (par 25 actions)",
              "start_date": "1968-08-05",
              "end_date": "3999-12-31"
            }
          ]
        },
        "145422": {
          "id": 145422,
          "sector_id": 3,
          "start_date": "1954-10-22",
          "end_date": "1959-03-02",
          "names": [
            {
              "name": "Banque de Paris et des Pays-Bas, act. 5000 fr., t. p. (c. 137 att.) (par 25 actions)",
              "start_date": "1954-10-22",
              "end_date": "1959-03-02"
            },
            {
              "name": "Banque de Paris et des Pays-Bas, actions 5000 fr. (par 25 actions)",
              "start_date": "1954-10-22",
              "end_date": "1960-01-04"
            },
            {
              "name": "Banque de Paris et des Pays-Bas, act 50 NF (ex-dr, )(n 1 à 1308800)(par 25 actions)",
              "start_date": "1954-10-22",
              "end_date": "1961-04-21"
            },
            {
              "name": "Banque de paris et des pays-bas, actions 100 NF (par 25 actions)",
              "start_date": "1954-10-22",
              "end_date": "1963-09-23"
            },
            {
              "name": "Banque de Paris et des Pays-Bas, actions 100F (par 25 actions)",
              "start_date": "1954-10-22",
              "end_date": "1968-08-05"
            },
            {
              "name": "Financière de Paris et des Pays-Bas (Cie), act. 100 F Corbeille (par 25 actions)",
              "start_date": "1954-10-22",
              "end_date": "3999-12-31"
            }
          ]
        }
      },
      "listings_stats": {
        "start_date": "1954-10-22"
      }
    }
  },
  "prices_count": 0,
  "name": "Banque de Paris et des Pays-Bas, actions 100F (par 25 actions)"
}