{
  "id": 19143,
  "share_type": {
    "id": 1,
    "name": "Stock (Action)"
  },
  "issuers": [
    {
      "id": 4576,
      "start_date": "1967-09-11",
      "end_date": "3999-12-31",
      "name": "Compagnie Nouvelle de Forages Petroliers \"Forenco\""
    }
  ],
  "types": [
    {
      "start_date": "1967-09-11",
      "end_date": "3999-12-31",
      "id": 18,
      "name": "Action",
      "stock_group": "S"
    }
  ],
  "is_mainstock": 0,
  "prices_period": [
    "1967-09-11",
    "1976-12-31"
  ],
  "stock_exchanges": {
    "1": {
      "id": 1,
      "name": "Paris (Official List)",
      "notations": {
        "149718": {
          "id": 149718,
          "sector_id": 349,
          "start_date": "1967-09-11",
          "end_date": "3999-12-31",
          "names": [
            {
              "name": "Languedocienne-Forenco (Forages Pétroliers), act. (c. 7 att.)",
              "start_date": "1967-09-11",
              "end_date": "3999-12-31"
            }
          ]
        }
      },
      "listings_stats": {
        "start_date": "1967-09-11"
      },
      "spot_prices_stats": {
        "start_date": "1967-09-11",
        "end_date": "1976-12-31"
      }
    }
  },
  "prices_count": 227,
  "name": "Languedocienne-Forenco (Forages Pétroliers), act. (c. 7 att.)"
}