{
  "id": 18000,
  "share_type": {
    "id": 2,
    "name": "Bond (Obligation)"
  },
  "issuers": [
    {
      "id": 5215,
      "start_date": "1963-03-04",
      "end_date": "3999-12-31",
      "name": "IBM FRANCE"
    }
  ],
  "types": [
    {
      "start_date": "1963-03-04",
      "end_date": "3999-12-31",
      "id": 1001,
      "name": "Obligation ordinaire ou classique",
      "stock_group": "B"
    }
  ],
  "is_mainstock": 0,
  "prices_period": [
    "1963-03-26",
    "1976-12-31"
  ],
  "stock_exchanges": {
    "1": {
      "id": 1,
      "name": "Paris (Official List)",
      "notations": {
        "148575": {
          "id": 148575,
          "sector_id": 369,
          "start_date": "1963-03-04",
          "end_date": "3999-12-31",
          "names": [
            {
              "name": "IBM France (Cie) 5% 1962, remb.à 228F (c. 12/11/63 att.) 1963-80",
              "start_date": "1963-03-04",
              "end_date": "3999-12-31"
            }
          ]
        }
      },
      "listings_stats": {
        "start_date": "1963-03-04"
      },
      "spot_prices_stats": {
        "start_date": "1963-03-26",
        "end_date": "1976-12-31"
      }
    }
  },
  "prices_count": 332,
  "name": "IBM France (Cie) 5% 1962, remb.à 228F (c. 12/11/63 att.) 1963-80"
}