{
  "id": 18657,
  "share_type": {
    "id": 2,
    "name": "Bond (Obligation)"
  },
  "issuers": [
    {
      "id": 5571,
      "start_date": "1967-05-02",
      "end_date": "3999-12-31",
      "name": "VILLES : Dijon"
    }
  ],
  "types": [
    {
      "start_date": "1967-05-02",
      "end_date": "3999-12-31",
      "id": 1001,
      "name": "Obligation ordinaire ou classique",
      "stock_group": "B"
    }
  ],
  "is_mainstock": 0,
  "prices_period": [
    "1967-05-02",
    "1973-08-31"
  ],
  "stock_exchanges": {
    "1": {
      "id": 1,
      "name": "Paris (Official List)",
      "notations": {
        "149232": {
          "id": 149232,
          "sector_id": 201,
          "start_date": "1967-05-02",
          "end_date": "1973-09-17",
          "names": [
            {
              "name": "Dijon 6,25% 1954, remb. À 105 F 1955-74",
              "start_date": "1967-05-02",
              "end_date": "1973-09-17"
            },
            {
              "name": "LYON_BOURSE_Dijon 6,25% 1954 de 100 F, rembours. À 105 F (Tir. 20/6/73). 1955-74",
              "start_date": "1967-05-02",
              "end_date": "3999-12-31"
            }
          ]
        }
      },
      "listings_stats": {
        "start_date": "1967-05-02"
      },
      "spot_prices_stats": {
        "start_date": "1967-05-02",
        "end_date": "1973-08-31"
      }
    }
  },
  "prices_count": 154,
  "name": "Dijon 6,25% 1954, remb. À 105 F 1955-74"
}