{
  "id": 102407,
  "share_type": {
    "id": 4,
    "name": "Rights (Droits)"
  },
  "issuers": [
    {
      "id": 3980,
      "start_date": "1928-10-22",
      "end_date": "1928-11-07",
      "name": "L'ELECTRO-ENTREPRISE"
    }
  ],
  "types": [
    {
      "start_date": "1928-10-22",
      "end_date": "1928-11-07",
      "id": 501,
      "name": "Droit de souscription",
      "stock_group": "R"
    }
  ],
  "is_mainstock": 0,
  "prices_period": [
    null,
    null
  ],
  "stock_exchanges": {
    "1": {
      "id": 1,
      "name": "Paris (Official List)",
      "notations": {
        "202589": {
          "id": 202589,
          "sector_id": 657,
          "start_date": "1928-10-22",
          "end_date": "1928-11-08",
          "names": [
            {
              "name": "Act. Electro-Entreprise (droit et coupon 11). Pour 5 actions anciennes, 1 action O nouvelle émise à 120 francs.",
              "start_date": "1928-10-22",
              "end_date": "1928-11-08"
            }
          ]
        }
      },
      "listings_stats": {
        "start_date": "1928-10-22"
      }
    }
  },
  "prices_count": 0,
  "name": "Act. Electro-Entreprise (droit et coupon 11). Pour 5 actions anciennes, 1 action O nouvelle émise à 120 francs."
}