{
  "id": 35105,
  "share_type": {
    "id": 1,
    "name": "Stock (Action)"
  },
  "issuers": [
    {
      "id": 2062,
      "start_date": "1967-10-30",
      "end_date": "3999-12-31",
      "name": "Société Générale de l'Empire Ottoman"
    }
  ],
  "types": [
    {
      "start_date": "1967-10-30",
      "end_date": "3999-12-31",
      "id": 18,
      "name": "Action",
      "stock_group": "S"
    }
  ],
  "is_mainstock": 0,
  "prices_period": [
    "1967-10-30",
    "1972-03-15"
  ],
  "stock_exchanges": {
    "1": {
      "id": 1,
      "name": "Paris (Official List)",
      "notations": {
        "152965": {
          "id": 152965,
          "sector_id": 333,
          "start_date": "1967-10-30",
          "end_date": "1972-03-30",
          "names": [
            {
              "name": "Banque de la Hénin, act.(tit. nouv.) (c. 1 att.)",
              "start_date": "1967-10-30",
              "end_date": "1972-03-30"
            },
            {
              "name": "Banque de la Hénin, act. (n°1 à 78789 et 102444 à 118200) (Cf. avis 71-954)",
              "start_date": "1967-10-30",
              "end_date": "1972-03-30"
            },
            {
              "name": "Banque de la Hénin, act. (n°1 à 78789 et 102444 à 118200) (Cf. avis 71-954) livrables",
              "start_date": "1967-10-30",
              "end_date": "1972-03-30"
            },
            {
              "name": "Banque de la Hénin, act. (n°1 à 78789 et 102444 à 118200) (Cf. avis 71-954)",
              "start_date": "1967-10-30",
              "end_date": "3999-12-31"
            }
          ]
        }
      },
      "listings_stats": {
        "start_date": "1967-10-30"
      },
      "spot_prices_stats": {
        "start_date": "1967-10-30",
        "end_date": "1972-03-15"
      }
    }
  },
  "prices_count": 107,
  "name": "Banque de la Hénin, act. (n°1 à 78789 et 102444 à 118200) (Cf. avis 71-954)"
}