{
  "id": 15685,
  "share_type": {
    "id": 2,
    "name": "Bond (Obligation)"
  },
  "issuers": [
    {
      "id": 4562,
      "start_date": "1958-01-02",
      "end_date": "3999-12-31",
      "name": "PECHELBRONN (Société anonyme d'Exploitations minières)"
    }
  ],
  "types": [
    {
      "start_date": "1958-01-02",
      "end_date": "3999-12-31",
      "id": 1001,
      "name": "Obligation ordinaire ou classique",
      "stock_group": "B"
    }
  ],
  "is_mainstock": 0,
  "prices_period": [
    null,
    null
  ],
  "stock_exchanges": {
    "1": {
      "id": 1,
      "name": "Paris (Official List)",
      "notations": {
        "146260": {
          "id": 146260,
          "sector_id": 233,
          "start_date": "1958-01-02",
          "end_date": "1961-01-16",
          "names": [
            {
              "name": "Pechelbronn 5,5% (T. 24/10/57). 1932-61",
              "start_date": "1958-01-02",
              "end_date": "1961-01-16"
            },
            {
              "name": "Pechelbronn 5,5 1931 (tir 4/10/60) 1961",
              "start_date": "1958-01-02",
              "end_date": "3999-12-31"
            }
          ]
        }
      },
      "listings_stats": {
        "start_date": "1958-01-02"
      }
    }
  },
  "prices_count": 0,
  "name": "Pechelbronn 5,5% (T. 24/10/57). 1932-61"
}