{
  "id": 2889,
  "share_type": {
    "id": 2,
    "name": "Bond (Obligation)"
  },
  "issuers": [
    {
      "id": 462,
      "start_date": "1887-05-28",
      "end_date": "3999-12-31",
      "name": "BELGIQUE"
    }
  ],
  "types": [
    {
      "start_date": "1887-05-28",
      "end_date": "3999-12-31",
      "id": 1001,
      "name": "Obligation ordinaire ou classique",
      "stock_group": "B"
    }
  ],
  "is_mainstock": 0,
  "prices_period": [
    "1887-06-15",
    "1894-03-15"
  ],
  "stock_exchanges": {
    "1": {
      "id": 1,
      "name": "Paris (Official List)",
      "notations": {
        "3988": {
          "id": 3988,
          "sector_id": 67,
          "start_date": "1887-05-28",
          "end_date": "1894-10-29",
          "names": [
            {
              "name": "Belgique 3,5%, 1re série. coup.de 2000fr.",
              "start_date": "1887-05-28",
              "end_date": "3999-12-31"
            }
          ]
        }
      },
      "listings_stats": {
        "start_date": "1887-05-28"
      },
      "spot_prices_stats": {
        "start_date": "1887-06-15",
        "end_date": "1894-03-15"
      }
    }
  },
  "prices_count": 17,
  "name": "Belgique 3,5%, 1re série. coup.de 2000fr."
}