{
  "id": 103330,
  "share_type": {
    "id": 4,
    "name": "Rights (Droits)"
  },
  "issuers": [
    {
      "id": 2980,
      "start_date": "1920-01-20",
      "end_date": "1920-01-29",
      "name": "SOCIÉTÉ ANONYME DES CARRIERES DE L'OUEST (Etablissements BARRIER)"
    }
  ],
  "types": [
    {
      "start_date": "1920-01-20",
      "end_date": "1920-01-29",
      "id": 501,
      "name": "Droit de souscription",
      "stock_group": "R"
    }
  ],
  "is_mainstock": 0,
  "prices_period": [
    null,
    null
  ],
  "stock_exchanges": {
    "1": {
      "id": 1,
      "name": "Paris (Official List)",
      "notations": {
        "203512": {
          "id": 203512,
          "sector_id": 657,
          "start_date": "1920-01-20",
          "end_date": "1920-01-30",
          "names": [
            {
              "name": "Actions Carrières de l'Ouest (droit et coupon n° 26)",
              "start_date": "1920-01-20",
              "end_date": "1920-01-30"
            }
          ]
        }
      },
      "listings_stats": {
        "start_date": "1920-01-20"
      }
    }
  },
  "prices_count": 0,
  "name": "Actions Carrières de l'Ouest (droit et coupon n° 26)"
}