{
  "id": 12086,
  "share_type": {
    "id": 2,
    "name": "Bond (Obligation)"
  },
  "issuers": [
    {
      "id": 3026,
      "start_date": "1944-10-26",
      "end_date": "3999-12-31",
      "name": "Ancienne Stéarinerie Frédéric Fournier"
    }
  ],
  "types": [
    {
      "start_date": "1944-10-26",
      "end_date": "3999-12-31",
      "id": 1001,
      "name": "Obligation ordinaire ou classique",
      "stock_group": "B"
    }
  ],
  "is_mainstock": 0,
  "prices_period": [
    "1944-10-26",
    "1961-12-15"
  ],
  "stock_exchanges": {
    "1": {
      "id": 1,
      "name": "Paris (Official List)",
      "notations": {
        "22073": {
          "id": 22073,
          "sector_id": 247,
          "start_date": "1948-06-30",
          "end_date": "1955-12-01",
          "names": [
            {
              "name": "Fournier-Ferrier 4% 1943, remboursables à 5000 fr. (Jce 15/10/44) 1949-73",
              "start_date": "1944-10-26",
              "end_date": "1955-12-01"
            },
            {
              "name": "Fournier-Ferrier 4% 1943, remb. À 5000 fr. 1949-73",
              "start_date": "1948-06-30",
              "end_date": "1955-12-01"
            },
            {
              "name": "Fournier-Ferrier (Et.) 4% 1943 (n°s 10001 à 18700) (Rach. Ou Tir.) 1949-73",
              "start_date": "1948-06-30",
              "end_date": "3999-12-31"
            }
          ]
        },
        "26845": {
          "id": 26845,
          "sector_id": 247,
          "start_date": "1955-12-01",
          "end_date": "1962-01-02",
          "names": [
            {
              "name": "Fournier-Ferrier 4% 1943, remboursables à 5000 fr. (Jce 15/10/44) 1949-73",
              "start_date": "1944-10-26",
              "end_date": "1962-01-02"
            },
            {
              "name": "Fournier-Ferrier 4% 1943, remb. À 5000 fr. 1949-73",
              "start_date": "1948-06-30",
              "end_date": "1962-01-02"
            },
            {
              "name": "Fournier-Ferrier (Et.) 4% 1943 (n°s 10001 à 18700) (Rach. Ou Tir.) 1949-73",
              "start_date": "1955-12-01",
              "end_date": "3999-12-31"
            }
          ]
        },
        "28550": {
          "id": 28550,
          "sector_id": 519,
          "start_date": "1962-01-02",
          "end_date": "1962-01-02",
          "names": [
            {
              "name": "Fournier-Ferrier 4% 1943, remboursables à 5000 fr. (Jce 15/10/44) 1949-73",
              "start_date": "1944-10-26",
              "end_date": "1962-01-02"
            },
            {
              "name": "Fournier-Ferrier 4% 1943, remb. À 5000 fr. 1949-73",
              "start_date": "1948-06-30",
              "end_date": "1962-01-02"
            },
            {
              "name": "Fournier-Ferrier (Et.) 4% 1943 (n°s 10001 à 18700) (Rach. Ou Tir.) 1949-73",
              "start_date": "1955-12-01",
              "end_date": "3999-12-31"
            }
          ]
        },
        "142661": {
          "id": 142661,
          "sector_id": 138,
          "start_date": "1944-10-26",
          "end_date": "1948-06-30",
          "names": [
            {
              "name": "Fournier-Ferrier 4% 1943, remboursables à 5000 fr. (Jce 15/10/44) 1949-73",
              "start_date": "1944-10-26",
              "end_date": "1948-06-30"
            },
            {
              "name": "Fournier-Ferrier 4% 1943, remb. À 5000 fr. 1949-73",
              "start_date": "1944-10-26",
              "end_date": "1955-12-01"
            },
            {
              "name": "Fournier-Ferrier (Et.) 4% 1943 (n°s 10001 à 18700) (Rach. Ou Tir.) 1949-73",
              "start_date": "1944-10-26",
              "end_date": "3999-12-31"
            }
          ]
        }
      },
      "listings_stats": {
        "start_date": "1944-10-26"
      },
      "spot_prices_stats": {
        "start_date": "1944-10-26",
        "end_date": "1961-12-15"
      }
    }
  },
  "prices_count": 420,
  "name": "Fournier-Ferrier 4% 1943, remb. À 5000 fr. 1949-73"
}