{
  "id": 20577,
  "share_type": {
    "id": 2,
    "name": "Bond (Obligation)"
  },
  "issuers": [
    {
      "id": 5625,
      "start_date": "1970-12-18",
      "end_date": "3999-12-31",
      "name": "Société Financiere SOFAL pour favoriser l'acquisition de logements et l'amélioration de l'habitation"
    }
  ],
  "types": [
    {
      "start_date": "1970-12-18",
      "end_date": "3999-12-31",
      "id": 1001,
      "name": "Obligation ordinaire ou classique",
      "stock_group": "B"
    }
  ],
  "is_mainstock": 0,
  "prices_period": [
    "1970-12-18",
    "1976-12-31"
  ],
  "stock_exchanges": {
    "1": {
      "id": 1,
      "name": "Paris (Official List)",
      "notations": {
        "151149": {
          "id": 151149,
          "sector_id": 355,
          "start_date": "1970-12-18",
          "end_date": "3999-12-31",
          "names": [
            {
              "name": "Financière-Sofal, 8,75% juillet 1970 (c. 6/7/71 att.) (Avis 70-978) 1971-85",
              "start_date": "1970-12-18",
              "end_date": "3999-12-31"
            }
          ]
        }
      },
      "listings_stats": {
        "start_date": "1970-12-18"
      },
      "spot_prices_stats": {
        "start_date": "1970-12-18",
        "end_date": "1976-12-31"
      }
    }
  },
  "prices_count": 146,
  "name": "Financière-Sofal, 8,75% juillet 1970 (c. 6/7/71 att.) (Avis 70-978) 1971-85"
}