{
  "id": 783,
  "share_type": {
    "id": 6,
    "name": "UNKNOWN"
  },
  "issuers": [
    {
      "id": 910,
      "start_date": "1852-10-29",
      "end_date": "3999-12-31",
      "name": "Zinc de Prusse"
    }
  ],
  "types": [
    {
      "start_date": "1852-11-04",
      "end_date": "3999-12-31",
      "id": 1,
      "name": "UNKNOWN",
      "stock_group": "U"
    }
  ],
  "is_mainstock": 0,
  "prices_period": [
    "1852-11-04",
    "1853-04-30"
  ],
  "stock_exchanges": {
    "1": {
      "id": 1,
      "name": "Paris (Official List)",
      "notations": {
        "977": {
          "id": 977,
          "sector_id": 576,
          "start_date": "1852-10-29",
          "end_date": "1852-11-08",
          "names": [
            {
              "name": "Zinc de Prusse, ex-div., j.oct",
              "start_date": "1852-10-28",
              "end_date": "1853-01-29"
            },
            {
              "name": "Zinc de Prusse [Zinc Prusse Rhénane]",
              "start_date": "1852-10-29",
              "end_date": "3999-12-31"
            }
          ]
        },
        "1031": {
          "id": 1031,
          "sector_id": 576,
          "start_date": "1853-01-29",
          "end_date": "1853-08-22",
          "names": [
            {
              "name": "Zinc de Prusse, ex-div., j.oct",
              "start_date": "1852-10-28",
              "end_date": "1853-08-22"
            },
            {
              "name": "Zinc de Prusse [Zinc Prusse Rhénane]",
              "start_date": "1853-01-29",
              "end_date": "3999-12-31"
            }
          ]
        }
      },
      "listings_stats": {
        "start_date": "1852-10-29"
      },
      "spot_prices_stats": {
        "start_date": "1852-11-04",
        "end_date": "1853-04-30"
      }
    }
  },
  "prices_count": 11,
  "name": "Zinc de Prusse, ex-div., j.oct"
}