{
  "id": 103440,
  "share_type": {
    "id": 4,
    "name": "Rights (Droits)"
  },
  "issuers": [
    {
      "id": 4695,
      "start_date": "1920-12-01",
      "end_date": "1920-12-22",
      "name": "LES ÉTABLISSEMENTS POULENC FRÈRES"
    }
  ],
  "types": [
    {
      "start_date": "1920-12-01",
      "end_date": "1920-12-22",
      "id": 501,
      "name": "Droit de souscription",
      "stock_group": "R"
    }
  ],
  "is_mainstock": 0,
  "prices_period": [
    "1920-12-01",
    "1920-12-15"
  ],
  "stock_exchanges": {
    "1": {
      "id": 1,
      "name": "Paris (Official List)",
      "notations": {
        "203622": {
          "id": 203622,
          "sector_id": 657,
          "start_date": "1920-12-01",
          "end_date": "1920-12-23",
          "names": [
            {
              "name": "Actions Etablissement Poulenc (droit et coupon n° 20)",
              "start_date": "1920-12-01",
              "end_date": "1920-12-23"
            }
          ]
        }
      },
      "listings_stats": {
        "start_date": "1920-12-01"
      },
      "spot_prices_stats": {
        "start_date": "1920-12-01",
        "end_date": "1920-12-15"
      }
    }
  },
  "prices_count": 0,
  "name": "Actions Etablissement Poulenc (droit et coupon n° 20)"
}