{
  "id": 18892,
  "share_type": {
    "id": 1,
    "name": "Stock (Action)"
  },
  "issuers": [
    {
      "id": 5160,
      "start_date": "1967-05-02",
      "end_date": "3999-12-31",
      "name": "CRÉDIT FONCIER DE L'INDOCHINE"
    }
  ],
  "types": [
    {
      "start_date": "1967-05-02",
      "end_date": "3999-12-31",
      "id": 18,
      "name": "Action",
      "stock_group": "S"
    }
  ],
  "is_mainstock": 0,
  "prices_period": [
    "1967-05-16",
    "1969-03-17"
  ],
  "stock_exchanges": {
    "1": {
      "id": 1,
      "name": "Paris (Official List)",
      "notations": {
        "149467": {
          "id": 149467,
          "sector_id": 492,
          "start_date": "1967-05-02",
          "end_date": "1969-03-31",
          "names": [
            {
              "name": "Nancy_Bourse Maiteries de la Meuse, act. (nom.)",
              "start_date": "1967-05-02",
              "end_date": "1969-03-31"
            },
            {
              "name": "NANCY_BOURSE Malteries de la Meuse, act. (nom.)",
              "start_date": "1967-05-02",
              "end_date": "3999-12-31"
            }
          ]
        }
      },
      "listings_stats": {
        "start_date": "1967-05-02"
      },
      "spot_prices_stats": {
        "start_date": "1967-05-16",
        "end_date": "1969-03-17"
      }
    }
  },
  "prices_count": 45,
  "name": "Nancy_Bourse Maiteries de la Meuse, act. (nom.)"
}