{
  "id": 16949,
  "share_type": {
    "id": 1,
    "name": "Stock (Action)"
  },
  "issuers": [
    {
      "id": 4069,
      "start_date": "1963-04-01",
      "end_date": "3999-12-31",
      "name": "CARRIÈRES ET SCIERIES DE FRANCE (Anciens Etablissements Civet, Pommier et Cie)"
    }
  ],
  "types": [
    {
      "start_date": "1963-04-01",
      "end_date": "3999-12-31",
      "id": 18,
      "name": "Action",
      "stock_group": "S"
    }
  ],
  "is_mainstock": 0,
  "prices_period": [
    "1963-04-01",
    "1976-12-31"
  ],
  "stock_exchanges": {
    "1": {
      "id": 1,
      "name": "Paris (Official List)",
      "notations": {
        "147524": {
          "id": 147524,
          "sector_id": 339,
          "start_date": "1963-04-01",
          "end_date": "3999-12-31",
          "names": [
            {
              "name": "Civet, Pommier et Cie, act. (c. 1 att.)",
              "start_date": "1963-04-01",
              "end_date": "3999-12-31"
            },
            {
              "name": "Carrières et Scieries de France (anc. etabl. civet, pommier, dubourdieu, pagani, et Cie), Act. (c. 2 att.)",
              "start_date": "1963-04-01",
              "end_date": "3999-12-31"
            },
            {
              "name": "Carrières et Scieries de France (anc. etabl. civet, pommier, dubourdieu, pagani, et Cie), actions",
              "start_date": "1963-04-01",
              "end_date": "3999-12-31"
            },
            {
              "name": "Rocamat, act.",
              "start_date": "1963-04-01",
              "end_date": "3999-12-31"
            },
            {
              "name": "Nancy_Bourse Rocamat, act.",
              "start_date": "1963-04-01",
              "end_date": "3999-12-31"
            }
          ]
        }
      },
      "listings_stats": {
        "start_date": "1963-04-01"
      },
      "spot_prices_stats": {
        "start_date": "1963-04-01",
        "end_date": "1976-12-31"
      }
    }
  },
  "prices_count": 336,
  "name": "Civet, Pommier et Cie, act. (c. 1 att.)"
}