{
  "id": 16915,
  "share_type": {
    "id": 1,
    "name": "Stock (Action)"
  },
  "issuers": [
    {
      "id": 5657,
      "start_date": "1962-01-02",
      "end_date": "3999-12-31",
      "name": "Gervais Danone"
    }
  ],
  "types": [
    {
      "start_date": "1962-01-02",
      "end_date": "3999-12-31",
      "id": 18,
      "name": "Action",
      "stock_group": "S"
    }
  ],
  "is_mainstock": 0,
  "prices_period": [
    "1962-01-02",
    "1968-01-02"
  ],
  "stock_exchanges": {
    "1": {
      "id": 1,
      "name": "Paris (Official List)",
      "notations": {
        "29740": {
          "id": 29740,
          "sector_id": 491,
          "start_date": "1963-03-04",
          "end_date": "1968-01-15",
          "names": [
            {
              "name": "Danone, act. (ex-dr., )",
              "start_date": "1962-01-02",
              "end_date": "3999-12-31"
            }
          ]
        },
        "147490": {
          "id": 147490,
          "sector_id": 387,
          "start_date": "1962-01-02",
          "end_date": "1963-03-04",
          "names": [
            {
              "name": "Danone, act. (ex-dr., )",
              "start_date": "1962-01-02",
              "end_date": "3999-12-31"
            }
          ]
        }
      },
      "listings_stats": {
        "start_date": "1962-01-02"
      },
      "spot_prices_stats": {
        "start_date": "1962-01-02",
        "end_date": "1968-01-02"
      }
    }
  },
  "prices_count": 173,
  "name": "Danone, act. (ex-dr., )"
}