{
  "id": 16907,
  "share_type": {
    "id": 1,
    "name": "Stock (Action)"
  },
  "issuers": [
    {
      "id": 4800,
      "start_date": "1962-01-02",
      "end_date": "3999-12-31",
      "name": "ETABLISSEMENTS R. GONFREVILLE"
    }
  ],
  "types": [
    {
      "start_date": "1962-01-02",
      "end_date": "3999-12-31",
      "id": 18,
      "name": "Action",
      "stock_group": "S"
    }
  ],
  "is_mainstock": 0,
  "prices_period": [
    "1962-01-02",
    "1976-12-31"
  ],
  "stock_exchanges": {
    "1": {
      "id": 1,
      "name": "Paris (Official List)",
      "notations": {
        "30549": {
          "id": 30549,
          "sector_id": 595,
          "start_date": "1963-03-04",
          "end_date": "3999-12-31",
          "names": [
            {
              "name": "Gonfreville (Etabl. R.), act. (ex-dr., )",
              "start_date": "1962-01-02",
              "end_date": "3999-12-31"
            },
            {
              "name": "Gonfreville (Et. R.), act. (ex-dr., )",
              "start_date": "1963-03-04",
              "end_date": "3999-12-31"
            }
          ]
        },
        "147482": {
          "id": 147482,
          "sector_id": 504,
          "start_date": "1962-01-02",
          "end_date": "1963-03-04",
          "names": [
            {
              "name": "Gonfreville (Etabl. R.), act. (ex-dr., )",
              "start_date": "1962-01-02",
              "end_date": "1963-03-04"
            },
            {
              "name": "Gonfreville (Et. R.), act. (ex-dr., )",
              "start_date": "1962-01-02",
              "end_date": "3999-12-31"
            }
          ]
        }
      },
      "listings_stats": {
        "start_date": "1962-01-02"
      },
      "spot_prices_stats": {
        "start_date": "1962-01-02",
        "end_date": "1976-12-31"
      }
    }
  },
  "prices_count": 366,
  "name": "Gonfreville (Et. R.), act. (ex-dr., )"
}