{
  "id": 7576,
  "share_type": {
    "id": 2,
    "name": "Bond (Obligation)"
  },
  "issuers": [
    {
      "id": 100,
      "start_date": "1923-11-20",
      "end_date": "3999-12-31",
      "name": "RENTES FRANÇAISES"
    }
  ],
  "types": [
    {
      "start_date": "1923-11-20",
      "end_date": "3999-12-31",
      "id": 1013,
      "name": "Bons du Trésor",
      "stock_group": "B"
    }
  ],
  "is_mainstock": 0,
  "prices_period": [
    "1923-11-20",
    "1928-05-15"
  ],
  "stock_exchanges": {
    "1": {
      "id": 1,
      "name": "Paris (Official List)",
      "notations": {
        "15034": {
          "id": 15034,
          "sector_id": 196,
          "start_date": "1926-10-19",
          "end_date": "1928-06-08",
          "names": [
            {
              "name": "Bons du Trésor 6% septembre 1923 de 500 fr., à 3, 6 ou 10 ans, t. coup.",
              "start_date": "1923-11-20",
              "end_date": "3999-12-31"
            }
          ]
        },
        "34446": {
          "id": 34446,
          "sector_id": 10,
          "start_date": "1923-11-20",
          "end_date": "1926-10-19",
          "names": [
            {
              "name": "Bons du Trésor 6% septembre 1923 de 500 fr., à 3, 6 ou 10 ans, t. coup.",
              "start_date": "1923-11-20",
              "end_date": "3999-12-31"
            }
          ]
        }
      },
      "listings_stats": {
        "start_date": "1923-11-20"
      },
      "spot_prices_stats": {
        "start_date": "1923-11-20",
        "end_date": "1928-05-15"
      }
    }
  },
  "prices_count": 259,
  "name": "Bons du Trésor 6% septembre 1923 de 500 fr., à 3, 6 ou 10 ans, t. coup."
}