{
  "id": 21082,
  "share_type": {
    "id": 1,
    "name": "Stock (Action)"
  },
  "issuers": [
    {
      "id": 4773,
      "start_date": "1973-06-22",
      "end_date": "3999-12-31",
      "name": "UGIMO (Union Générale d'Investissements Immobiliers)"
    }
  ],
  "types": [
    {
      "start_date": "1973-06-22",
      "end_date": "3999-12-31",
      "id": 18,
      "name": "Action",
      "stock_group": "S"
    }
  ],
  "is_mainstock": 0,
  "prices_period": [
    null,
    null
  ],
  "stock_exchanges": {
    "1": {
      "id": 1,
      "name": "Paris (Official List)",
      "notations": {
        "151652": {
          "id": 151652,
          "sector_id": 598,
          "start_date": "1973-06-22",
          "end_date": "1973-07-02",
          "names": [
            {
              "name": "U.G.I.M.O. (Union Générale d'Invest. Immob.), act. (n° 2462880 à 2473902) (c. 9 A et 9 B jumelés att.)",
              "start_date": "1973-06-22",
              "end_date": "3999-12-31"
            }
          ]
        }
      },
      "listings_stats": {
        "start_date": "1973-06-22"
      }
    }
  },
  "prices_count": 0,
  "name": "U.G.I.M.O. (Union Générale d'Invest. Immob.), act. (n° 2462880 à 2473902) (c. 9 A et 9 B jumelés att.)"
}