{
  "id": 25193,
  "share_type": {
    "id": 1,
    "name": "Stock (Action)"
  },
  "issuers": [
    {
      "id": 2379,
      "start_date": "1895-04-29",
      "end_date": "3999-12-31",
      "name": "Comptoir National d'Escompte de Paris"
    }
  ],
  "types": [
    {
      "start_date": "1000-01-01",
      "end_date": "3999-12-31",
      "id": 18,
      "name": "Action",
      "stock_group": "S"
    }
  ],
  "is_mainstock": 0,
  "prices_period": [
    "1895-04-30",
    "1900-04-30"
  ],
  "stock_exchanges": {
    "1": {
      "id": 1,
      "name": "Paris (Official List)",
      "notations": {
        "50405": {
          "id": 50405,
          "sector_id": 574,
          "start_date": "1900-04-28",
          "end_date": "1900-05-09",
          "names": [
            {
              "name": "Comptoir national d'Escompte de Paris, act. de 500 fr.Actions estampillees",
              "start_date": "1895-04-29",
              "end_date": "3999-12-31"
            }
          ]
        },
        "90193": {
          "id": 90193,
          "sector_id": 574,
          "start_date": "1895-04-29",
          "end_date": "1895-05-10",
          "names": [
            {
              "name": "Comptoir national d'Escompte de Paris, act. de 500 fr.Actions estampillees",
              "start_date": "1895-04-29",
              "end_date": "3999-12-31"
            }
          ]
        }
      },
      "listings_stats": {
        "start_date": "1895-04-29"
      },
      "spot_prices_stats": {
        "start_date": "1895-04-30",
        "end_date": "1900-04-30"
      }
    }
  },
  "prices_count": 3,
  "name": "Comptoir national d'Escompte de Paris, act. de 500 fr.Actions estampillees"
}