{
  "id": 4953,
  "share_type": {
    "id": 1,
    "name": "Stock (Action)"
  },
  "issuers": [
    {
      "id": 1146,
      "start_date": "1600-01-01",
      "end_date": "3999-12-31",
      "name": "L'ABEILLE COMPAGNIE D'ASSURANCES A PRIMES FIXES CONTRE L'INCENDIE"
    }
  ],
  "types": [
    {
      "start_date": "1000-01-01",
      "end_date": "1952-01-02",
      "id": 18,
      "name": "Action",
      "stock_group": "S"
    }
  ],
  "is_mainstock": 1,
  "prices_period": [
    "1881-01-17",
    "1952-01-31"
  ],
  "stock_exchanges": {
    "1": {
      "id": 1,
      "name": "Paris (Official List)",
      "notations": {
        "1609": {
          "id": 1609,
          "sector_id": 96,
          "start_date": "1902-05-26",
          "end_date": "1914-08-03",
          "names": [
            {
              "name": "L'Abeille (incendie)",
              "start_date": "1892-05-05",
              "end_date": "1914-08-03"
            },
            {
              "name": "L'Abeille (incendie), nominatives",
              "start_date": "1893-03-13",
              "end_date": "1914-08-03"
            },
            {
              "name": "L'Abeille (inc.), act. 1000 fr., 250 f.p. (nom.)",
              "start_date": "1902-04-22",
              "end_date": "1926-03-03"
            },
            {
              "name": "Abeille (L') (incendie), act. 250 fr., 125 fr. p. (c. 2 att.) nom. (Cessionnaire soumis à l'agrément du Conseil d'Administration)",
              "start_date": "1902-05-26",
              "end_date": "1931-11-24"
            },
            {
              "name": "Abeille (L') (incendie), act. 250 fr., t.p. (nom.)",
              "start_date": "1902-05-26",
              "end_date": "1943-07-07"
            },
            {
              "name": "Abeille (L') (incendie), act. 250 fr., t. p. (ex-droits est.) (nom.)",
              "start_date": "1902-05-26",
              "end_date": "1947-10-30"
            },
            {
              "name": "Abeille (L') (incendie), act. 400 fr., t. p. (nom.)",
              "start_date": "1902-05-26",
              "end_date": "1948-11-30"
            },
            {
              "name": "Abeille (L') (incendie), act. 400 fr., t. p. (ex-dr. Est. Du 3/11/48) (nom.)",
              "start_date": "1902-05-26",
              "end_date": "1949-08-14"
            },
            {
              "name": "Abeille (L') (incendie), act. 400 fr., t. p. (nom.)",
              "start_date": "1902-05-26",
              "end_date": "1950-01-30"
            },
            {
              "name": "Abeille (L') (incendie), act. Anc. 600 fr., t. p. (nom.)",
              "start_date": "1902-05-26",
              "end_date": "1950-11-26"
            },
            {
              "name": "Abeille (L') (incendie), act. 600 fr., t. p. (nom.)",
              "start_date": "1902-05-26",
              "end_date": "1950-11-27"
            },
            {
              "name": "Abeille (L') (inc.), act. Anc. 600 fr., t. p. (nom.)",
              "start_date": "1902-05-26",
              "end_date": "3999-12-31"
            }
          ]
        },
        "6052": {
          "id": 6052,
          "sector_id": 73,
          "start_date": "1902-04-22",
          "end_date": "1902-05-26",
          "names": [
            {
              "name": "L'Abeille (incendie)",
              "start_date": "1892-05-05",
              "end_date": "1902-05-26"
            },
            {
              "name": "L'Abeille (incendie), nominatives",
              "start_date": "1893-03-13",
              "end_date": "1902-05-26"
            },
            {
              "name": "L'Abeille (inc.), act. 1000 fr., 250 f.p. (nom.)",
              "start_date": "1902-04-22",
              "end_date": "1926-03-03"
            },
            {
              "name": "Abeille (L') (incendie), act. 250 fr., 125 fr. p. (c. 2 att.) nom. (Cessionnaire soumis à l'agrément du Conseil d'Administration)",
              "start_date": "1902-04-22",
              "end_date": "1931-11-24"
            },
            {
              "name": "Abeille (L') (incendie), act. 250 fr., t.p. (nom.)",
              "start_date": "1902-04-22",
              "end_date": "1943-07-07"
            },
            {
              "name": "Abeille (L') (incendie), act. 250 fr., t. p. (ex-droits est.) (nom.)",
              "start_date": "1902-04-22",
              "end_date": "1947-10-30"
            },
            {
              "name": "Abeille (L') (incendie), act. 400 fr., t. p. (nom.)",
              "start_date": "1902-04-22",
              "end_date": "1948-11-30"
            },
            {
              "name": "Abeille (L') (incendie), act. 400 fr., t. p. (ex-dr. Est. Du 3/11/48) (nom.)",
              "start_date": "1902-04-22",
              "end_date": "1949-08-14"
            },
            {
              "name": "Abeille (L') (incendie), act. 400 fr., t. p. (nom.)",
              "start_date": "1902-04-22",
              "end_date": "1950-01-30"
            },
            {
              "name": "Abeille (L') (incendie), act. Anc. 600 fr., t. p. (nom.)",
              "start_date": "1902-04-22",
              "end_date": "1950-11-26"
            },
            {
              "name": "Abeille (L') (incendie), act. 600 fr., t. p. (nom.)",
              "start_date": "1902-04-22",
              "end_date": "1950-11-27"
            },
            {
              "name": "Abeille (L') (inc.), act. Anc. 600 fr., t. p. (nom.)",
              "start_date": "1902-04-22",
              "end_date": "3999-12-31"
            }
          ]
        },
        "8747": {
          "id": 8747,
          "sector_id": 96,
          "start_date": "1914-12-15",
          "end_date": "1931-11-24",
          "names": [
            {
              "name": "L'Abeille (incendie)",
              "start_date": "1892-05-05",
              "end_date": "1931-11-24"
            },
            {
              "name": "L'Abeille (incendie), nominatives",
              "start_date": "1893-03-13",
              "end_date": "1931-11-24"
            },
            {
              "name": "L'Abeille (inc.), act. 1000 fr., 250 f.p. (nom.)",
              "start_date": "1902-04-22",
              "end_date": "1931-11-24"
            },
            {
              "name": "Abeille (L') (incendie), act. 250 fr., 125 fr. p. (c. 2 att.) nom. (Cessionnaire soumis à l'agrément du Conseil d'Administration)",
              "start_date": "1914-12-15",
              "end_date": "1931-11-24"
            },
            {
              "name": "Abeille (L') (incendie), act. 250 fr., t.p. (nom.)",
              "start_date": "1914-12-15",
              "end_date": "1943-07-07"
            },
            {
              "name": "Abeille (L') (incendie), act. 250 fr., t. p. (ex-droits est.) (nom.)",
              "start_date": "1914-12-15",
              "end_date": "1947-10-30"
            },
            {
              "name": "Abeille (L') (incendie), act. 400 fr., t. p. (nom.)",
              "start_date": "1914-12-15",
              "end_date": "1948-11-30"
            },
            {
              "name": "Abeille (L') (incendie), act. 400 fr., t. p. (ex-dr. Est. Du 3/11/48) (nom.)",
              "start_date": "1914-12-15",
              "end_date": "1949-08-14"
            },
            {
              "name": "Abeille (L') (incendie), act. 400 fr., t. p. (nom.)",
              "start_date": "1914-12-15",
              "end_date": "1950-01-30"
            },
            {
              "name": "Abeille (L') (incendie), act. Anc. 600 fr., t. p. (nom.)",
              "start_date": "1914-12-15",
              "end_date": "1950-11-26"
            },
            {
              "name": "Abeille (L') (incendie), act. 600 fr., t. p. (nom.)",
              "start_date": "1914-12-15",
              "end_date": "1950-11-27"
            },
            {
              "name": "Abeille (L') (inc.), act. Anc. 600 fr., t. p. (nom.)",
              "start_date": "1914-12-15",
              "end_date": "3999-12-31"
            }
          ]
        },
        "22142": {
          "id": 22142,
          "sector_id": 250,
          "start_date": "1948-12-01",
          "end_date": "1952-02-01",
          "names": [
            {
              "name": "L'Abeille (incendie)",
              "start_date": "1892-05-05",
              "end_date": "1952-02-01"
            },
            {
              "name": "L'Abeille (incendie), nominatives",
              "start_date": "1893-03-13",
              "end_date": "1952-02-01"
            },
            {
              "name": "L'Abeille (inc.), act. 1000 fr., 250 f.p. (nom.)",
              "start_date": "1902-04-22",
              "end_date": "1952-02-01"
            },
            {
              "name": "Abeille (L') (incendie), act. 250 fr., 125 fr. p. (c. 2 att.) nom. (Cessionnaire soumis à l'agrément du Conseil d'Administration)",
              "start_date": "1926-03-03",
              "end_date": "1952-02-01"
            },
            {
              "name": "Abeille (L') (incendie), act. 250 fr., t.p. (nom.)",
              "start_date": "1931-11-29",
              "end_date": "1952-02-01"
            },
            {
              "name": "Abeille (L') (incendie), act. 250 fr., t. p. (ex-droits est.) (nom.)",
              "start_date": "1943-07-07",
              "end_date": "1952-02-01"
            },
            {
              "name": "Abeille (L') (incendie), act. 400 fr., t. p. (nom.)",
              "start_date": "1947-10-30",
              "end_date": "1952-02-01"
            },
            {
              "name": "Abeille (L') (incendie), act. 400 fr., t. p. (ex-dr. Est. Du 3/11/48) (nom.)",
              "start_date": "1948-11-30",
              "end_date": "1952-02-01"
            },
            {
              "name": "Abeille (L') (incendie), act. 400 fr., t. p. (nom.)",
              "start_date": "1948-12-01",
              "end_date": "1952-02-01"
            },
            {
              "name": "Abeille (L') (incendie), act. Anc. 600 fr., t. p. (nom.)",
              "start_date": "1948-12-01",
              "end_date": "1952-02-01"
            },
            {
              "name": "Abeille (L') (incendie), act. 600 fr., t. p. (nom.)",
              "start_date": "1948-12-01",
              "end_date": "1952-02-01"
            },
            {
              "name": "Abeille (L') (inc.), act. Anc. 600 fr., t. p. (nom.)",
              "start_date": "1948-12-01",
              "end_date": "3999-12-31"
            }
          ]
        },
        "155537": {
          "id": 155537,
          "sector_id": 118,
          "start_date": "1892-05-30",
          "end_date": "1893-03-13",
          "names": [
            {
              "name": "L'Abeille (incendie)",
              "start_date": "1892-05-05",
              "end_date": "1893-03-13"
            },
            {
              "name": "L'Abeille (incendie), nominatives",
              "start_date": "1892-05-30",
              "end_date": "1902-04-22"
            },
            {
              "name": "L'Abeille (inc.), act. 1000 fr., 250 f.p. (nom.)",
              "start_date": "1892-05-30",
              "end_date": "1926-03-03"
            },
            {
              "name": "Abeille (L') (incendie), act. 250 fr., 125 fr. p. (c. 2 att.) nom. (Cessionnaire soumis à l'agrément du Conseil d'Administration)",
              "start_date": "1892-05-30",
              "end_date": "1931-11-24"
            },
            {
              "name": "Abeille (L') (incendie), act. 250 fr., t.p. (nom.)",
              "start_date": "1892-05-30",
              "end_date": "1943-07-07"
            },
            {
              "name": "Abeille (L') (incendie), act. 250 fr., t. p. (ex-droits est.) (nom.)",
              "start_date": "1892-05-30",
              "end_date": "1947-10-30"
            },
            {
              "name": "Abeille (L') (incendie), act. 400 fr., t. p. (nom.)",
              "start_date": "1892-05-30",
              "end_date": "1948-11-30"
            },
            {
              "name": "Abeille (L') (incendie), act. 400 fr., t. p. (ex-dr. Est. Du 3/11/48) (nom.)",
              "start_date": "1892-05-30",
              "end_date": "1949-08-14"
            },
            {
              "name": "Abeille (L') (incendie), act. 400 fr., t. p. (nom.)",
              "start_date": "1892-05-30",
              "end_date": "1950-01-30"
            },
            {
              "name": "Abeille (L') (incendie), act. Anc. 600 fr., t. p. (nom.)",
              "start_date": "1892-05-30",
              "end_date": "1950-11-26"
            },
            {
              "name": "Abeille (L') (incendie), act. 600 fr., t. p. (nom.)",
              "start_date": "1892-05-30",
              "end_date": "1950-11-27"
            },
            {
              "name": "Abeille (L') (inc.), act. Anc. 600 fr., t. p. (nom.)",
              "start_date": "1892-05-30",
              "end_date": "3999-12-31"
            }
          ]
        },
        "200208": {
          "id": 200208,
          "sector_id": 96,
          "start_date": "1931-11-25",
          "end_date": "1948-12-01",
          "names": [
            {
              "name": "L'Abeille (incendie)",
              "start_date": "1892-05-05",
              "end_date": "1948-12-01"
            },
            {
              "name": "L'Abeille (incendie), nominatives",
              "start_date": "1893-03-13",
              "end_date": "1948-12-01"
            },
            {
              "name": "L'Abeille (inc.), act. 1000 fr., 250 f.p. (nom.)",
              "start_date": "1902-04-22",
              "end_date": "1948-12-01"
            },
            {
              "name": "Abeille (L') (incendie), act. 250 fr., 125 fr. p. (c. 2 att.) nom. (Cessionnaire soumis à l'agrément du Conseil d'Administration)",
              "start_date": "1926-03-03",
              "end_date": "1948-12-01"
            },
            {
              "name": "Abeille (L') (incendie), act. 250 fr., t.p. (nom.)",
              "start_date": "1931-11-25",
              "end_date": "1948-12-01"
            },
            {
              "name": "Abeille (L') (incendie), act. 250 fr., t. p. (ex-droits est.) (nom.)",
              "start_date": "1931-11-25",
              "end_date": "1948-12-01"
            },
            {
              "name": "Abeille (L') (incendie), act. 400 fr., t. p. (nom.)",
              "start_date": "1931-11-25",
              "end_date": "1948-12-01"
            },
            {
              "name": "Abeille (L') (incendie), act. 400 fr., t. p. (ex-dr. Est. Du 3/11/48) (nom.)",
              "start_date": "1931-11-25",
              "end_date": "1949-08-14"
            },
            {
              "name": "Abeille (L') (incendie), act. 400 fr., t. p. (nom.)",
              "start_date": "1931-11-25",
              "end_date": "1950-01-30"
            },
            {
              "name": "Abeille (L') (incendie), act. Anc. 600 fr., t. p. (nom.)",
              "start_date": "1931-11-25",
              "end_date": "1950-11-26"
            },
            {
              "name": "Abeille (L') (incendie), act. 600 fr., t. p. (nom.)",
              "start_date": "1931-11-25",
              "end_date": "1950-11-27"
            },
            {
              "name": "Abeille (L') (inc.), act. Anc. 600 fr., t. p. (nom.)",
              "start_date": "1931-11-25",
              "end_date": "3999-12-31"
            }
          ]
        }
      },
      "listings_stats": {
        "start_date": "1892-05-30"
      },
      "spot_prices_stats": {
        "start_date": "1892-10-15",
        "end_date": "1952-01-31"
      }
    },
    "2": {
      "id": 2,
      "name": "Paris OTC (Coulisse)",
      "notations": {
        "205433": {
          "id": 205433,
          "sector_id": 674,
          "start_date": "1881-01-15",
          "end_date": "1892-12-31",
          "names": [
            {
              "name": "Abeille (Incendie)",
              "start_date": "1881-01-15",
              "end_date": "1892-12-31"
            },
            {
              "name": "ABEILLE INCENDIE, libérées de 250 fr. nominatives",
              "start_date": "1881-01-15",
              "end_date": "1899-01-16"
            }
          ]
        },
        "207715": {
          "id": 207715,
          "sector_id": 679,
          "start_date": "1899-01-16",
          "end_date": "1899-01-16",
          "names": [
            {
              "name": "Abeille (Incendie)",
              "start_date": "1881-01-15",
              "end_date": "1899-01-16"
            },
            {
              "name": "ABEILLE INCENDIE, libérées de 250 fr. nominatives",
              "start_date": "1899-01-16",
              "end_date": "1899-01-16"
            }
          ]
        }
      },
      "listings_stats": {
        "start_date": "1881-01-15"
      },
      "spot_prices_stats": {
        "start_date": "1881-01-17",
        "end_date": "1892-04-30"
      }
    }
  },
  "prices_count": 1257,
  "name": "Abeille (L') (incendie), act. 600 fr., t. p. (nom.)"
}