{
  "id": 103538,
  "share_type": {
    "id": 4,
    "name": "Rights (Droits)"
  },
  "issuers": [
    {
      "id": 4631,
      "start_date": "1921-10-18",
      "end_date": "1921-11-03",
      "name": "PRODUITS DU \"LION NOIR\" (Établissements Fernand George)"
    }
  ],
  "types": [
    {
      "start_date": "1921-10-18",
      "end_date": "1921-11-03",
      "id": 501,
      "name": "Droit de souscription",
      "stock_group": "R"
    }
  ],
  "is_mainstock": 0,
  "prices_period": [
    "1921-10-18",
    "1921-11-02"
  ],
  "stock_exchanges": {
    "1": {
      "id": 1,
      "name": "Paris (Official List)",
      "notations": {
        "203720": {
          "id": 203720,
          "sector_id": 657,
          "start_date": "1921-10-18",
          "end_date": "1921-11-04",
          "names": [
            {
              "name": "Actions Produits du Lion Noir (droit et coupon n° 4)",
              "start_date": "1921-10-18",
              "end_date": "1921-11-04"
            }
          ]
        }
      },
      "listings_stats": {
        "start_date": "1921-10-18"
      },
      "spot_prices_stats": {
        "start_date": "1921-10-18",
        "end_date": "1921-11-02"
      }
    }
  },
  "prices_count": 0,
  "name": "Actions Produits du Lion Noir (droit et coupon n° 4)"
}