{
  "id": 12698,
  "share_type": {
    "id": 2,
    "name": "Bond (Obligation)"
  },
  "issuers": [
    {
      "id": 3989,
      "start_date": "1947-02-14",
      "end_date": "3999-12-31",
      "name": "LAMBERT FRERES ET Cie"
    }
  ],
  "types": [
    {
      "start_date": "1947-02-14",
      "end_date": "3999-12-31",
      "id": 1001,
      "name": "Obligation ordinaire ou classique",
      "stock_group": "B"
    }
  ],
  "is_mainstock": 0,
  "prices_period": [
    "1947-03-17",
    "1973-08-31"
  ],
  "stock_exchanges": {
    "1": {
      "id": 1,
      "name": "Paris (Official List)",
      "notations": {
        "26493": {
          "id": 26493,
          "sector_id": 433,
          "start_date": "1955-12-01",
          "end_date": "1963-03-04",
          "names": [
            {
              "name": "Lambert Frères et Cie 4% 1946, remb. À 5000 fr. 1947-76",
              "start_date": "1947-02-14",
              "end_date": "1963-03-04"
            },
            {
              "name": "Chaux et Ciments Lambert Frères et Cie 4% 1946 (Tir. 3/5/55) 1947-76",
              "start_date": "1955-12-01",
              "end_date": "1963-03-04"
            },
            {
              "name": "Lambert Frères et Cie 4% 1946 (Rach. Ou Tir.) 1947-76",
              "start_date": "1955-12-01",
              "end_date": "1973-09-17"
            },
            {
              "name": "Lambert Frères et Cie 4% 1946 de 50 F (Tirage 12/2/73). 1947-76",
              "start_date": "1955-12-01",
              "end_date": "3999-12-31"
            }
          ]
        },
        "30744": {
          "id": 30744,
          "sector_id": 360,
          "start_date": "1963-03-04",
          "end_date": "1973-09-17",
          "names": [
            {
              "name": "Lambert Frères et Cie 4% 1946, remb. À 5000 fr. 1947-76",
              "start_date": "1947-02-14",
              "end_date": "1973-09-17"
            },
            {
              "name": "Chaux et Ciments Lambert Frères et Cie 4% 1946 (Tir. 3/5/55) 1947-76",
              "start_date": "1955-12-01",
              "end_date": "1973-09-17"
            },
            {
              "name": "Lambert Frères et Cie 4% 1946 (Rach. Ou Tir.) 1947-76",
              "start_date": "1955-12-19",
              "end_date": "1973-09-17"
            },
            {
              "name": "Lambert Frères et Cie 4% 1946 de 50 F (Tirage 12/2/73). 1947-76",
              "start_date": "1963-03-04",
              "end_date": "3999-12-31"
            }
          ]
        },
        "143273": {
          "id": 143273,
          "sector_id": 184,
          "start_date": "1947-02-14",
          "end_date": "1955-12-01",
          "names": [
            {
              "name": "Lambert Frères et Cie 4% 1946, remb. À 5000 fr. 1947-76",
              "start_date": "1947-02-14",
              "end_date": "1955-12-01"
            },
            {
              "name": "Chaux et Ciments Lambert Frères et Cie 4% 1946 (Tir. 3/5/55) 1947-76",
              "start_date": "1947-02-14",
              "end_date": "1955-12-19"
            },
            {
              "name": "Lambert Frères et Cie 4% 1946 (Rach. Ou Tir.) 1947-76",
              "start_date": "1947-02-14",
              "end_date": "1973-09-17"
            },
            {
              "name": "Lambert Frères et Cie 4% 1946 de 50 F (Tirage 12/2/73). 1947-76",
              "start_date": "1947-02-14",
              "end_date": "3999-12-31"
            }
          ]
        }
      },
      "listings_stats": {
        "start_date": "1947-02-14"
      },
      "spot_prices_stats": {
        "start_date": "1947-03-17",
        "end_date": "1973-08-31"
      }
    }
  },
  "prices_count": 648,
  "name": "Lambert Frères et Cie 4% 1946 (Rach. Ou Tir.) 1947-76"
}