{
  "id": 18094,
  "share_type": {
    "id": 1,
    "name": "Stock (Action)"
  },
  "issuers": [
    {
      "id": 5183,
      "start_date": "1963-11-05",
      "end_date": "3999-12-31",
      "name": "Groupement de l'industrie sidérurgique pour faciliter la reprise et le développement de la production"
    }
  ],
  "types": [
    {
      "start_date": "1963-11-05",
      "end_date": "3999-12-31",
      "id": 18,
      "name": "Action",
      "stock_group": "S"
    }
  ],
  "is_mainstock": 0,
  "prices_period": [
    "1963-11-07",
    "1970-06-30"
  ],
  "stock_exchanges": {
    "1": {
      "id": 1,
      "name": "Paris (Official List)",
      "notations": {
        "148669": {
          "id": 148669,
          "sector_id": 338,
          "start_date": "1963-11-05",
          "end_date": "1970-07-01",
          "names": [
            {
              "name": "Trindel (Travaux Industr. pour l'Electricité), act. (c. 42 att.)",
              "start_date": "1963-11-05",
              "end_date": "3999-12-31"
            }
          ]
        }
      },
      "listings_stats": {
        "start_date": "1963-11-05"
      },
      "spot_prices_stats": {
        "start_date": "1963-11-07",
        "end_date": "1970-06-30"
      }
    }
  },
  "prices_count": 163,
  "name": "Trindel (Travaux Industr. pour l'Electricité), act. (c. 42 att.)"
}