{
  "id": 102581,
  "share_type": {
    "id": 4,
    "name": "Rights (Droits)"
  },
  "issuers": [
    {
      "id": 2082,
      "start_date": "1943-07-01",
      "end_date": "1944-08-04",
      "name": "LA MÉTROPOLE COMPAGNIE D'ASSURANCES CONTRE L'INCENDIE"
    }
  ],
  "types": [
    {
      "start_date": "1943-07-01",
      "end_date": "1944-08-04",
      "id": 501,
      "name": "Droit de souscription",
      "stock_group": "R"
    }
  ],
  "is_mainstock": 0,
  "prices_period": [
    "1943-07-02",
    "1943-08-17"
  ],
  "stock_exchanges": {
    "1": {
      "id": 1,
      "name": "Paris (Official List)",
      "notations": {
        "202763": {
          "id": 202763,
          "sector_id": 657,
          "start_date": "1943-07-01",
          "end_date": "1944-08-05",
          "names": [
            {
              "name": "Act. LA METROPOLE, CIE D'ASSURANCES ET DE REASSURANCES A PRIMES FIXES CONTRE L'INCENDIE, LES ACCIDENTS ET RISQUES DIVERS (bon de droit). Pour 1 act. ancienne, 1 action nouvelle émise à 220 francs",
              "start_date": "1943-07-01",
              "end_date": "1944-08-05"
            }
          ]
        }
      },
      "listings_stats": {
        "start_date": "1943-07-01"
      },
      "spot_prices_stats": {
        "start_date": "1943-07-02",
        "end_date": "1943-08-17"
      }
    }
  },
  "prices_count": 3,
  "name": "Act. LA METROPOLE, CIE D'ASSURANCES ET DE REASSURANCES A PRIMES FIXES CONTRE L'INCENDIE, LES ACCIDENTS ET RISQUES DIVERS (bon de droit). Pour 1 act. ancienne, 1 action nouvelle émise à 220 francs"
}