{
  "id": 101988,
  "share_type": {
    "id": 4,
    "name": "Rights (Droits)"
  },
  "issuers": [
    {
      "id": 3392,
      "start_date": "1928-02-06",
      "end_date": "1928-02-22",
      "name": "BANQUE RUSSO-ASIATIQUE"
    }
  ],
  "types": [
    {
      "start_date": "1928-02-06",
      "end_date": "1928-02-22",
      "id": 501,
      "name": "Droit de souscription",
      "stock_group": "R"
    }
  ],
  "is_mainstock": 0,
  "prices_period": [
    "1928-02-14",
    "1928-02-14"
  ],
  "stock_exchanges": {
    "1": {
      "id": 1,
      "name": "Paris (Official List)",
      "notations": {
        "202170": {
          "id": 202170,
          "sector_id": 657,
          "start_date": "1928-02-06",
          "end_date": "1928-02-23",
          "names": [
            {
              "name": "Act. Banque Russo-Asiatique (droit à souscription et à l'attribution des Parts de la Banque Franco-Asiatique et coupon 15). Pour 8 actions Banque Russo-Asiatique, 1 action B Banque Franco-Asiatique émise à 500 francs.",
              "start_date": "1928-02-06",
              "end_date": "1928-02-23"
            }
          ]
        }
      },
      "listings_stats": {
        "start_date": "1928-02-06"
      },
      "spot_prices_stats": {
        "start_date": "1928-02-14",
        "end_date": "1928-02-14"
      }
    }
  },
  "prices_count": 0,
  "name": "Act. Banque Russo-Asiatique (droit à souscription et à l'attribution des Parts de la Banque Franco-Asiatique et coupon 15). Pour 8 actions Banque Russo-Asiatique, 1 action B Banque Franco-Asiatique émise à 500 francs."
}