{
  "id": 104090,
  "share_type": {
    "id": 2,
    "name": "Bond (Obligation)"
  },
  "issuers": [
    {
      "id": 3138,
      "start_date": "1944-01-04",
      "end_date": "1944-06-19",
      "name": "SOCIÉTÉ ANONYME DES HAUTS FOURNEAUX FORGES ET ACIÉRIES DE POMPEY"
    }
  ],
  "types": [
    {
      "start_date": "1944-01-04",
      "end_date": "1944-06-19",
      "id": 18,
      "name": "Action",
      "stock_group": "S"
    }
  ],
  "is_mainstock": 0,
  "prices_period": [
    "1944-02-01",
    "1944-06-15"
  ],
  "stock_exchanges": {
    "1": {
      "id": 1,
      "name": "Paris (Official List)",
      "notations": {
        "204275": {
          "id": 204275,
          "sector_id": 104,
          "start_date": "1944-01-04",
          "end_date": "1944-06-19",
          "names": [
            {
              "name": "Hauts-Fourneaux, Forges et Acieries de Pompey, act.500fr., t.p. (nos 120001 a 200000) (c.31 att.)",
              "start_date": "1944-01-04",
              "end_date": "1944-06-19"
            }
          ]
        }
      },
      "listings_stats": {
        "start_date": "1944-01-04"
      },
      "spot_prices_stats": {
        "start_date": "1944-02-01",
        "end_date": "1944-06-15"
      }
    }
  },
  "prices_count": 9,
  "name": "Hauts-Fourneaux, Forges et Acieries de Pompey, act.500fr., t.p. (nos 120001 a 200000) (c.31 att.)"
}