{
  "id": 15521,
  "share_type": {
    "id": 1,
    "name": "Stock (Action)"
  },
  "issuers": [
    {
      "id": 671,
      "start_date": "1957-11-04",
      "end_date": "3999-12-31",
      "name": "Société Générale de CREDIT INDUSTRIEL ET COMMERCIAL"
    }
  ],
  "types": [
    {
      "start_date": "1957-11-04",
      "end_date": "3999-12-31",
      "id": 18,
      "name": "Action",
      "stock_group": "S"
    }
  ],
  "is_mainstock": 0,
  "prices_period": [
    "1970-10-23",
    "1970-10-23"
  ],
  "stock_exchanges": {
    "1": {
      "id": 1,
      "name": "Paris (Official List)",
      "notations": {
        "27170": {
          "id": 27170,
          "sector_id": 1,
          "start_date": "1959-03-02",
          "end_date": "1960-01-04",
          "names": [
            {
              "name": "Crédit Industriel et Commercial, actions 5000 fr. (ex-dr. Est.) (nom.) (par 25 actions)",
              "start_date": "1957-11-04",
              "end_date": "1960-01-04"
            },
            {
              "name": "Credit industriel et commerciel act 5000 fr (nom)(par 25 actions)",
              "start_date": "1959-03-02",
              "end_date": "1960-01-04"
            },
            {
              "name": "Crédit industriel et commercial, act 50 NF (nom)(par 25 actions)",
              "start_date": "1959-03-02",
              "end_date": "1963-09-23"
            },
            {
              "name": "Crédit Industriel et Commercial, act. 50F (nos 1 à 1523810) (nom.) (par 25 actions)",
              "start_date": "1959-03-02",
              "end_date": "1963-11-21"
            },
            {
              "name": "Crédit Industriel et Commercial, act. 50F (nos 1 à 160000) (ex-dr. est.) (nom.) (par 25 actions)",
              "start_date": "1959-03-02",
              "end_date": "1964-04-01"
            },
            {
              "name": "Crédit Industriel et Commercial, act. 50F (nom.) (par 25 actions)",
              "start_date": "1959-03-02",
              "end_date": "1970-10-23"
            },
            {
              "name": "Crédit Industriel et Commercial, act. 50 F (nom.) (ex-dr.est.)Gr. B (par 25 actions)",
              "start_date": "1959-03-02",
              "end_date": "3999-12-31"
            }
          ]
        },
        "27275": {
          "id": 27275,
          "sector_id": 3,
          "start_date": "1960-01-04",
          "end_date": "1963-09-23",
          "names": [
            {
              "name": "Crédit Industriel et Commercial, actions 5000 fr. (ex-dr. Est.) (nom.) (par 25 actions)",
              "start_date": "1957-11-04",
              "end_date": "1963-09-23"
            },
            {
              "name": "Credit industriel et commerciel act 5000 fr (nom)(par 25 actions)",
              "start_date": "1959-03-02",
              "end_date": "1963-09-23"
            },
            {
              "name": "Crédit industriel et commercial, act 50 NF (nom)(par 25 actions)",
              "start_date": "1960-01-04",
              "end_date": "1963-09-23"
            },
            {
              "name": "Crédit Industriel et Commercial, act. 50F (nos 1 à 1523810) (nom.) (par 25 actions)",
              "start_date": "1960-01-04",
              "end_date": "1963-11-21"
            },
            {
              "name": "Crédit Industriel et Commercial, act. 50F (nos 1 à 160000) (ex-dr. est.) (nom.) (par 25 actions)",
              "start_date": "1960-01-04",
              "end_date": "1964-04-01"
            },
            {
              "name": "Crédit Industriel et Commercial, act. 50F (nom.) (par 25 actions)",
              "start_date": "1960-01-04",
              "end_date": "1970-10-23"
            },
            {
              "name": "Crédit Industriel et Commercial, act. 50 F (nom.) (ex-dr.est.)Gr. B (par 25 actions)",
              "start_date": "1960-01-04",
              "end_date": "3999-12-31"
            }
          ]
        },
        "31608": {
          "id": 31608,
          "sector_id": 1,
          "start_date": "1963-09-23",
          "end_date": "1969-03-25",
          "names": [
            {
              "name": "Crédit Industriel et Commercial, actions 5000 fr. (ex-dr. Est.) (nom.) (par 25 actions)",
              "start_date": "1957-11-04",
              "end_date": "1969-03-25"
            },
            {
              "name": "Credit industriel et commerciel act 5000 fr (nom)(par 25 actions)",
              "start_date": "1959-03-02",
              "end_date": "1969-03-25"
            },
            {
              "name": "Crédit industriel et commercial, act 50 NF (nom)(par 25 actions)",
              "start_date": "1960-01-04",
              "end_date": "1969-03-25"
            },
            {
              "name": "Crédit Industriel et Commercial, act. 50F (nos 1 à 1523810) (nom.) (par 25 actions)",
              "start_date": "1963-09-23",
              "end_date": "1969-03-25"
            },
            {
              "name": "Crédit Industriel et Commercial, act. 50F (nos 1 à 160000) (ex-dr. est.) (nom.) (par 25 actions)",
              "start_date": "1963-09-23",
              "end_date": "1969-03-25"
            },
            {
              "name": "Crédit Industriel et Commercial, act. 50F (nom.) (par 25 actions)",
              "start_date": "1963-09-23",
              "end_date": "1970-10-23"
            },
            {
              "name": "Crédit Industriel et Commercial, act. 50 F (nom.) (ex-dr.est.)Gr. B (par 25 actions)",
              "start_date": "1963-09-23",
              "end_date": "3999-12-31"
            }
          ]
        },
        "32194": {
          "id": 32194,
          "sector_id": 471,
          "start_date": "1969-03-25",
          "end_date": "3999-12-31",
          "names": [
            {
              "name": "Crédit Industriel et Commercial, actions 5000 fr. (ex-dr. Est.) (nom.) (par 25 actions)",
              "start_date": "1957-11-04",
              "end_date": "3999-12-31"
            },
            {
              "name": "Credit industriel et commerciel act 5000 fr (nom)(par 25 actions)",
              "start_date": "1959-03-02",
              "end_date": "3999-12-31"
            },
            {
              "name": "Crédit industriel et commercial, act 50 NF (nom)(par 25 actions)",
              "start_date": "1960-01-04",
              "end_date": "3999-12-31"
            },
            {
              "name": "Crédit Industriel et Commercial, act. 50F (nos 1 à 1523810) (nom.) (par 25 actions)",
              "start_date": "1963-09-23",
              "end_date": "3999-12-31"
            },
            {
              "name": "Crédit Industriel et Commercial, act. 50F (nos 1 à 160000) (ex-dr. est.) (nom.) (par 25 actions)",
              "start_date": "1963-11-21",
              "end_date": "3999-12-31"
            },
            {
              "name": "Crédit Industriel et Commercial, act. 50F (nom.) (par 25 actions)",
              "start_date": "1964-04-01",
              "end_date": "3999-12-31"
            },
            {
              "name": "Crédit Industriel et Commercial, act. 50 F (nom.) (ex-dr.est.)Gr. B (par 25 actions)",
              "start_date": "1969-03-25",
              "end_date": "3999-12-31"
            }
          ]
        },
        "146096": {
          "id": 146096,
          "sector_id": 3,
          "start_date": "1957-11-04",
          "end_date": "1959-03-02",
          "names": [
            {
              "name": "Crédit Industriel et Commercial, actions 5000 fr. (ex-dr. Est.) (nom.) (par 25 actions)",
              "start_date": "1957-11-04",
              "end_date": "1959-03-02"
            },
            {
              "name": "Credit industriel et commerciel act 5000 fr (nom)(par 25 actions)",
              "start_date": "1957-11-04",
              "end_date": "1960-01-04"
            },
            {
              "name": "Crédit industriel et commercial, act 50 NF (nom)(par 25 actions)",
              "start_date": "1957-11-04",
              "end_date": "1963-09-23"
            },
            {
              "name": "Crédit Industriel et Commercial, act. 50F (nos 1 à 1523810) (nom.) (par 25 actions)",
              "start_date": "1957-11-04",
              "end_date": "1963-11-21"
            },
            {
              "name": "Crédit Industriel et Commercial, act. 50F (nos 1 à 160000) (ex-dr. est.) (nom.) (par 25 actions)",
              "start_date": "1957-11-04",
              "end_date": "1964-04-01"
            },
            {
              "name": "Crédit Industriel et Commercial, act. 50F (nom.) (par 25 actions)",
              "start_date": "1957-11-04",
              "end_date": "1970-10-23"
            },
            {
              "name": "Crédit Industriel et Commercial, act. 50 F (nom.) (ex-dr.est.)Gr. B (par 25 actions)",
              "start_date": "1957-11-04",
              "end_date": "3999-12-31"
            }
          ]
        }
      },
      "forward_prices_stats": {
        "start_date": "1970-10-23",
        "end_date": "1970-10-23"
      },
      "listings_stats": {
        "start_date": "1957-11-04"
      }
    }
  },
  "prices_count": 2,
  "name": "Crédit Industriel et Commercial, act. 50F (nom.) (par 25 actions)"
}