{
  "id": 21535,
  "share_type": {
    "id": 2,
    "name": "Bond (Obligation)"
  },
  "issuers": [
    {
      "id": 6159,
      "start_date": "1975-06-23",
      "end_date": "3999-12-31",
      "name": "INTERBAIL"
    }
  ],
  "types": [
    {
      "start_date": "1975-06-23",
      "end_date": "3999-12-31",
      "id": 1001,
      "name": "Obligation ordinaire ou classique",
      "stock_group": "B"
    }
  ],
  "is_mainstock": 0,
  "prices_period": [
    "1975-06-23",
    "1976-12-31"
  ],
  "stock_exchanges": {
    "1": {
      "id": 1,
      "name": "Paris (Official List)",
      "notations": {
        "152102": {
          "id": 152102,
          "sector_id": 355,
          "start_date": "1975-06-23",
          "end_date": "3999-12-31",
          "names": [
            {
              "name": "Interbail 11,50% 1975 de 1000 F (c.7/4/76 att.)(Avis 75-424) 1976-90",
              "start_date": "1975-06-23",
              "end_date": "3999-12-31"
            }
          ]
        }
      },
      "listings_stats": {
        "start_date": "1975-06-23"
      },
      "spot_prices_stats": {
        "start_date": "1975-06-23",
        "end_date": "1976-12-31"
      }
    }
  },
  "prices_count": 38,
  "name": "Interbail 11,50% 1975 de 1000 F (c.7/4/76 att.)(Avis 75-424) 1976-90"
}