{
  "id": 2162,
  "share_type": {
    "id": 2,
    "name": "Bond (Obligation)"
  },
  "issuers": [
    {
      "id": 462,
      "start_date": "1872-06-07",
      "end_date": "3999-12-31",
      "name": "BELGIQUE"
    }
  ],
  "types": [
    {
      "start_date": "1872-06-07",
      "end_date": "3999-12-31",
      "id": 1001,
      "name": "Obligation ordinaire ou classique",
      "stock_group": "B"
    }
  ],
  "is_mainstock": 0,
  "prices_period": [
    "1872-06-07",
    "1872-06-07"
  ],
  "stock_exchanges": {
    "1": {
      "id": 1,
      "name": "Paris (Official List)",
      "notations": {
        "3261": {
          "id": 3261,
          "sector_id": 74,
          "start_date": "1872-06-07",
          "end_date": "1873-08-12",
          "names": [
            {
              "name": "Emprunt Belge, 3%",
              "start_date": "1872-06-07",
              "end_date": "3999-12-31"
            }
          ]
        }
      },
      "listings_stats": {
        "start_date": "1872-06-07"
      },
      "spot_prices_stats": {
        "start_date": "1872-06-07",
        "end_date": "1872-06-07"
      }
    }
  },
  "prices_count": 1,
  "name": "Emprunt Belge, 3%"
}