{
  "id": 13443,
  "share_type": {
    "id": 2,
    "name": "Bond (Obligation)"
  },
  "issuers": [
    {
      "id": 2923,
      "start_date": "1949-12-30",
      "end_date": "3999-12-31",
      "name": "Compagnie française des Métaux"
    }
  ],
  "types": [
    {
      "start_date": "1949-12-30",
      "end_date": "3999-12-31",
      "id": 1001,
      "name": "Obligation ordinaire ou classique",
      "stock_group": "B"
    }
  ],
  "is_mainstock": 0,
  "prices_period": [
    "1949-12-30",
    "1962-11-30"
  ],
  "stock_exchanges": {
    "1": {
      "id": 1,
      "name": "Paris (Official List)",
      "notations": {
        "26778": {
          "id": 26778,
          "sector_id": 111,
          "start_date": "1955-12-01",
          "end_date": "1962-01-02",
          "names": [
            {
              "name": "Métaux (Cie Franç. Des) 6,5% 1949, r. à 10000 fr. (Jce 1/4/49) 1950-79",
              "start_date": "1949-12-30",
              "end_date": "1962-01-02"
            },
            {
              "name": "Métaux (Cie Franç. Des) 6,5% 1949 (Rach. Ou Tir.) 1950-79",
              "start_date": "1955-12-01",
              "end_date": "1962-12-07"
            },
            {
              "name": "Métaux(Cie Franç.des), 6,5% 1949 (Tir.28/02/62) 1950-79",
              "start_date": "1955-12-01",
              "end_date": "3999-12-31"
            }
          ]
        },
        "28470": {
          "id": 28470,
          "sector_id": 517,
          "start_date": "1962-01-02",
          "end_date": "1962-12-10",
          "names": [
            {
              "name": "Métaux (Cie Franç. Des) 6,5% 1949, r. à 10000 fr. (Jce 1/4/49) 1950-79",
              "start_date": "1949-12-30",
              "end_date": "1962-12-10"
            },
            {
              "name": "Métaux (Cie Franç. Des) 6,5% 1949 (Rach. Ou Tir.) 1950-79",
              "start_date": "1955-12-01",
              "end_date": "1962-12-10"
            },
            {
              "name": "Métaux(Cie Franç.des), 6,5% 1949 (Tir.28/02/62) 1950-79",
              "start_date": "1962-01-02",
              "end_date": "3999-12-31"
            }
          ]
        },
        "144018": {
          "id": 144018,
          "sector_id": 111,
          "start_date": "1949-12-30",
          "end_date": "1955-12-01",
          "names": [
            {
              "name": "Métaux (Cie Franç. Des) 6,5% 1949, r. à 10000 fr. (Jce 1/4/49) 1950-79",
              "start_date": "1949-12-30",
              "end_date": "1955-12-01"
            },
            {
              "name": "Métaux (Cie Franç. Des) 6,5% 1949 (Rach. Ou Tir.) 1950-79",
              "start_date": "1949-12-30",
              "end_date": "1962-12-07"
            },
            {
              "name": "Métaux(Cie Franç.des), 6,5% 1949 (Tir.28/02/62) 1950-79",
              "start_date": "1949-12-30",
              "end_date": "3999-12-31"
            }
          ]
        }
      },
      "listings_stats": {
        "start_date": "1949-12-30"
      },
      "spot_prices_stats": {
        "start_date": "1949-12-30",
        "end_date": "1962-11-30"
      }
    }
  },
  "prices_count": 326,
  "name": "Métaux (Cie Franç. Des) 6,5% 1949 (Rach. Ou Tir.) 1950-79"
}