{
  "id": 100471,
  "share_type": {
    "id": 4,
    "name": "Rights (Droits)"
  },
  "issuers": [
    {
      "id": 3581,
      "start_date": "1945-07-03",
      "end_date": "1945-08-09",
      "name": "BANQUE COMMERCIALE DU MAROC"
    }
  ],
  "types": [
    {
      "start_date": "1945-07-03",
      "end_date": "1945-08-09",
      "id": 501,
      "name": "Droit de souscription",
      "stock_group": "R"
    }
  ],
  "is_mainstock": 0,
  "prices_period": [
    "1945-07-03",
    "1945-07-31"
  ],
  "stock_exchanges": {
    "1": {
      "id": 1,
      "name": "Paris (Official List)",
      "notations": {
        "200502": {
          "id": 200502,
          "sector_id": 657,
          "start_date": "1945-07-03",
          "end_date": "1945-08-10",
          "names": [
            {
              "name": "Act. Banque Commerciale du Maroc (droit et coupon 4 ou bon de droit)",
              "start_date": "1945-07-03",
              "end_date": "1945-08-10"
            }
          ]
        }
      },
      "listings_stats": {
        "start_date": "1945-07-03"
      },
      "spot_prices_stats": {
        "start_date": "1945-07-03",
        "end_date": "1945-07-31"
      }
    }
  },
  "prices_count": 3,
  "name": "Act. Banque Commerciale du Maroc (droit et coupon 4 ou bon de droit)"
}