{
  "id": 15696,
  "share_type": {
    "id": 2,
    "name": "Bond (Obligation)"
  },
  "issuers": [
    {
      "id": 5070,
      "start_date": "1958-08-18",
      "end_date": "3999-12-31",
      "name": "GOUVERNEMENT GÉNÉRAL DE L'AFRIQUE ÉQUATORIALE FRANÇAISE"
    }
  ],
  "types": [
    {
      "start_date": "1958-08-18",
      "end_date": "3999-12-31",
      "id": 1001,
      "name": "Obligation ordinaire ou classique",
      "stock_group": "B"
    }
  ],
  "is_mainstock": 0,
  "prices_period": [
    "1958-08-18",
    "1973-08-31"
  ],
  "stock_exchanges": {
    "1": {
      "id": 1,
      "name": "Paris (Official List)",
      "notations": {
        "29283": {
          "id": 29283,
          "sector_id": 594,
          "start_date": "1963-03-04",
          "end_date": "1973-09-17",
          "names": [
            {
              "name": "Afrique Equatoriale Française 5,5% 1936 (1958) (c. 20/4/59 att.). 1959-86",
              "start_date": "1958-08-18",
              "end_date": "1973-09-17"
            },
            {
              "name": "Afrique Equatoriale Française 5,5% 1936 (1958) (Tir. 5/6/62) 1959-86",
              "start_date": "1963-03-04",
              "end_date": "1973-09-17"
            },
            {
              "name": "Afrique Equatoriale Française 5,50% 1936 (1958) de 100 F (T. 9/5/73). 1959-86",
              "start_date": "1963-03-04",
              "end_date": "3999-12-31"
            }
          ]
        },
        "146271": {
          "id": 146271,
          "sector_id": 84,
          "start_date": "1958-08-18",
          "end_date": "1963-03-04",
          "names": [
            {
              "name": "Afrique Equatoriale Française 5,5% 1936 (1958) (c. 20/4/59 att.). 1959-86",
              "start_date": "1958-08-18",
              "end_date": "1963-03-04"
            },
            {
              "name": "Afrique Equatoriale Française 5,5% 1936 (1958) (Tir. 5/6/62) 1959-86",
              "start_date": "1958-08-18",
              "end_date": "1973-09-17"
            },
            {
              "name": "Afrique Equatoriale Française 5,50% 1936 (1958) de 100 F (T. 9/5/73). 1959-86",
              "start_date": "1958-08-18",
              "end_date": "3999-12-31"
            }
          ]
        }
      },
      "listings_stats": {
        "start_date": "1958-08-18"
      },
      "spot_prices_stats": {
        "start_date": "1958-08-18",
        "end_date": "1973-08-31"
      }
    }
  },
  "prices_count": 363,
  "name": "Afrique Equatoriale Française 5,5% 1936 (1958) (Tir. 5/6/62) 1959-86"
}