{
  "id": 104560,
  "share_type": {
    "id": 8,
    "name": "Droit d'attribution"
  },
  "issuers": [
    {
      "id": 1622,
      "start_date": "1948-01-21",
      "end_date": "1948-06-10",
      "name": "Cie GÉNÉRALE FRANÇAISE DE TRAMWAYS"
    }
  ],
  "types": [
    {
      "start_date": "1948-01-21",
      "end_date": "1948-06-10",
      "id": 502,
      "name": "Droit d'attribution",
      "stock_group": "R"
    }
  ],
  "is_mainstock": 0,
  "prices_period": [
    null,
    null
  ],
  "stock_exchanges": {
    "1": {
      "id": 1,
      "name": "Paris (Official List)",
      "notations": {
        "204963": {
          "id": 204963,
          "sector_id": 658,
          "start_date": "1948-01-21",
          "end_date": "1948-06-10",
          "names": [
            {
              "name": "Act. Cap. Et jouiss. Cie Gle Franç. De Tramw. (dr. Et c. 76 act. Cap. Ou 11 act. De jouiss)",
              "start_date": "1948-01-21",
              "end_date": "1948-06-10"
            }
          ]
        }
      },
      "listings_stats": {
        "start_date": "1948-01-21"
      }
    }
  },
  "prices_count": 0,
  "name": "Act. Cap. Et jouiss. Cie Gle Franç. De Tramw. (dr. Et c. 76 act. Cap. Ou 11 act. De jouiss)"
}