{
  "id": 14887,
  "share_type": {
    "id": 2,
    "name": "Bond (Obligation)"
  },
  "issuers": [
    {
      "id": 4442,
      "start_date": "1954-10-08",
      "end_date": "3999-12-31",
      "name": "ELECTROTUBE SOLESMES"
    }
  ],
  "types": [
    {
      "start_date": "1954-10-08",
      "end_date": "3999-12-31",
      "id": 1001,
      "name": "Obligation ordinaire ou classique",
      "stock_group": "B"
    }
  ],
  "is_mainstock": 0,
  "prices_period": [
    "1954-10-08",
    "1965-02-01"
  ],
  "stock_exchanges": {
    "1": {
      "id": 1,
      "name": "Paris (Official List)",
      "notations": {
        "28504": {
          "id": 28504,
          "sector_id": 517,
          "start_date": "1962-01-02",
          "end_date": "1963-03-04",
          "names": [
            {
              "name": "Electrotube-Solesmes 6,50% fév. 1954, de 10000 fr., remb. À 10500 fr. minimum (c. 15/2/55 att.) 1955-66",
              "start_date": "1954-10-08",
              "end_date": "1963-03-04"
            },
            {
              "name": "Solesmes (Electrotube) 6,5% fév. 1954, remb. À 10500 fr. minimum (Tir. 13/1/55) 1955-66",
              "start_date": "1955-12-01",
              "end_date": "3999-12-31"
            }
          ]
        },
        "31214": {
          "id": 31214,
          "sector_id": 111,
          "start_date": "1963-03-04",
          "end_date": "1965-02-15",
          "names": [
            {
              "name": "Electrotube-Solesmes 6,50% fév. 1954, de 10000 fr., remb. À 10500 fr. minimum (c. 15/2/55 att.) 1955-66",
              "start_date": "1954-10-08",
              "end_date": "1965-02-15"
            },
            {
              "name": "Solesmes (Electrotube) 6,5% fév. 1954, remb. À 10500 fr. minimum (Tir. 13/1/55) 1955-66",
              "start_date": "1955-12-01",
              "end_date": "3999-12-31"
            }
          ]
        },
        "145462": {
          "id": 145462,
          "sector_id": 111,
          "start_date": "1954-10-08",
          "end_date": "1962-01-02",
          "names": [
            {
              "name": "Electrotube-Solesmes 6,50% fév. 1954, de 10000 fr., remb. À 10500 fr. minimum (c. 15/2/55 att.) 1955-66",
              "start_date": "1954-10-08",
              "end_date": "1962-01-02"
            },
            {
              "name": "Solesmes (Electrotube) 6,5% fév. 1954, remb. À 10500 fr. minimum (Tir. 13/1/55) 1955-66",
              "start_date": "1954-10-08",
              "end_date": "3999-12-31"
            }
          ]
        }
      },
      "listings_stats": {
        "start_date": "1954-10-08"
      },
      "spot_prices_stats": {
        "start_date": "1954-10-08",
        "end_date": "1965-02-01"
      }
    }
  },
  "prices_count": 265,
  "name": "Solesmes (Electrotube) 6,5% fév. 1954, remb. À 10500 fr. minimum (Tir. 13/1/55) 1955-66"
}