{
  "id": 35294,
  "share_type": {
    "id": 1,
    "name": "Stock (Action)"
  },
  "issuers": [
    {
      "id": 4800,
      "start_date": "1976-11-03",
      "end_date": "3999-12-31",
      "name": "ETABLISSEMENTS R. GONFREVILLE"
    }
  ],
  "types": [
    {
      "start_date": "1976-11-03",
      "end_date": "3999-12-31",
      "id": 27,
      "name": "Promesse d'action",
      "stock_group": "S"
    }
  ],
  "is_mainstock": 0,
  "prices_period": [
    null,
    null
  ],
  "stock_exchanges": {
    "1": {
      "id": 1,
      "name": "Paris (Official List)",
      "notations": {
        "153149": {
          "id": 153149,
          "sector_id": 595,
          "start_date": "1976-11-03",
          "end_date": "3999-12-31",
          "names": [
            {
              "name": "Gonfreville, promesses (Jce 1/10/76)",
              "start_date": "1976-11-03",
              "end_date": "3999-12-31"
            }
          ]
        }
      },
      "listings_stats": {
        "start_date": "1976-11-03"
      }
    }
  },
  "prices_count": 0,
  "name": "Gonfreville, promesses (Jce 1/10/76)"
}