{
  "id": 4413,
  "share_type": {
    "id": 2,
    "name": "Bond (Obligation)"
  },
  "issuers": [
    {
      "id": 5083,
      "start_date": "1897-03-16",
      "end_date": "3999-12-31",
      "name": "ETATS : HONGRIE"
    }
  ],
  "types": [
    {
      "start_date": "1897-03-16",
      "end_date": "3999-12-31",
      "id": 1001,
      "name": "Obligation ordinaire ou classique",
      "stock_group": "B"
    }
  ],
  "is_mainstock": 0,
  "prices_period": [
    "1897-03-16",
    "1976-04-30"
  ],
  "stock_exchanges": {
    "1": {
      "id": 1,
      "name": "Paris (Official List)",
      "notations": {
        "5512": {
          "id": 5512,
          "sector_id": 67,
          "start_date": "1897-03-16",
          "end_date": "1914-08-03",
          "names": [
            {
              "name": "Hongrie 3% (or) 1895 (nég. ch. fixe 25f20) C. de 2520 fr. 100 £ de capital",
              "start_date": "1897-03-16",
              "end_date": "1925-05-01"
            },
            {
              "name": "Hongrie 3% or 1895 (négoc. ch. fixe 25 fr. 20) C. 100 £ capital",
              "start_date": "1897-03-16",
              "end_date": "1934-01-02"
            },
            {
              "name": "Hongrie 3% or 1895 C. 100 £ capital",
              "start_date": "1897-03-16",
              "end_date": "1934-01-23"
            },
            {
              "name": "Hongrie 3% or 1895 Oblig. 100 £ capital.",
              "start_date": "1897-03-16",
              "end_date": "1948-05-03"
            },
            {
              "name": "Hongrie 3% or 1895 . Obl. 100£ cap. (n°s 1 à12650).",
              "start_date": "1897-03-16",
              "end_date": "1962-01-02"
            },
            {
              "name": "Hongrie 3% or 1895 (c. 1 att.), oblig. 100 £ cap. (n°s 1 à 12650)",
              "start_date": "1897-03-16",
              "end_date": "1976-05-03"
            },
            {
              "name": "HONGRIE 3% or 1895 (Avis 71-898).Oblig. 100 £ cap.(n °1 à 12650)",
              "start_date": "1897-03-16",
              "end_date": "3999-12-31"
            }
          ]
        },
        "7635": {
          "id": 7635,
          "sector_id": 67,
          "start_date": "1914-12-15",
          "end_date": "1925-05-01",
          "names": [
            {
              "name": "Hongrie 3% (or) 1895 (nég. ch. fixe 25f20) C. de 2520 fr. 100 £ de capital",
              "start_date": "1897-03-16",
              "end_date": "1925-05-01"
            },
            {
              "name": "Hongrie 3% or 1895 (négoc. ch. fixe 25 fr. 20) C. 100 £ capital",
              "start_date": "1914-12-15",
              "end_date": "1934-01-02"
            },
            {
              "name": "Hongrie 3% or 1895 C. 100 £ capital",
              "start_date": "1914-12-15",
              "end_date": "1934-01-23"
            },
            {
              "name": "Hongrie 3% or 1895 Oblig. 100 £ capital.",
              "start_date": "1914-12-15",
              "end_date": "1948-05-03"
            },
            {
              "name": "Hongrie 3% or 1895 . Obl. 100£ cap. (n°s 1 à12650).",
              "start_date": "1914-12-15",
              "end_date": "1962-01-02"
            },
            {
              "name": "Hongrie 3% or 1895 (c. 1 att.), oblig. 100 £ cap. (n°s 1 à 12650)",
              "start_date": "1914-12-15",
              "end_date": "1976-05-03"
            },
            {
              "name": "HONGRIE 3% or 1895 (Avis 71-898).Oblig. 100 £ cap.(n °1 à 12650)",
              "start_date": "1914-12-15",
              "end_date": "3999-12-31"
            }
          ]
        },
        "13278": {
          "id": 13278,
          "sector_id": 74,
          "start_date": "1925-05-01",
          "end_date": "1940-06-11",
          "names": [
            {
              "name": "Hongrie 3% (or) 1895 (nég. ch. fixe 25f20) C. de 2520 fr. 100 £ de capital",
              "start_date": "1897-03-16",
              "end_date": "1940-06-11"
            },
            {
              "name": "Hongrie 3% or 1895 (négoc. ch. fixe 25 fr. 20) C. 100 £ capital",
              "start_date": "1925-05-01",
              "end_date": "1940-06-11"
            },
            {
              "name": "Hongrie 3% or 1895 C. 100 £ capital",
              "start_date": "1925-05-01",
              "end_date": "1940-06-11"
            },
            {
              "name": "Hongrie 3% or 1895 Oblig. 100 £ capital.",
              "start_date": "1925-05-01",
              "end_date": "1948-05-03"
            },
            {
              "name": "Hongrie 3% or 1895 . Obl. 100£ cap. (n°s 1 à12650).",
              "start_date": "1925-05-01",
              "end_date": "1962-01-02"
            },
            {
              "name": "Hongrie 3% or 1895 (c. 1 att.), oblig. 100 £ cap. (n°s 1 à 12650)",
              "start_date": "1925-05-01",
              "end_date": "1976-05-03"
            },
            {
              "name": "HONGRIE 3% or 1895 (Avis 71-898).Oblig. 100 £ cap.(n °1 à 12650)",
              "start_date": "1925-05-01",
              "end_date": "3999-12-31"
            }
          ]
        },
        "21580": {
          "id": 21580,
          "sector_id": 234,
          "start_date": "1948-05-18",
          "end_date": "1962-01-02",
          "names": [
            {
              "name": "Hongrie 3% (or) 1895 (nég. ch. fixe 25f20) C. de 2520 fr. 100 £ de capital",
              "start_date": "1897-03-16",
              "end_date": "1962-01-02"
            },
            {
              "name": "Hongrie 3% or 1895 (négoc. ch. fixe 25 fr. 20) C. 100 £ capital",
              "start_date": "1925-05-01",
              "end_date": "1962-01-02"
            },
            {
              "name": "Hongrie 3% or 1895 C. 100 £ capital",
              "start_date": "1934-01-02",
              "end_date": "1962-01-02"
            },
            {
              "name": "Hongrie 3% or 1895 Oblig. 100 £ capital.",
              "start_date": "1934-01-23",
              "end_date": "1962-01-02"
            },
            {
              "name": "Hongrie 3% or 1895 . Obl. 100£ cap. (n°s 1 à12650).",
              "start_date": "1948-05-03",
              "end_date": "1962-01-02"
            },
            {
              "name": "Hongrie 3% or 1895 (c. 1 att.), oblig. 100 £ cap. (n°s 1 à 12650)",
              "start_date": "1948-05-18",
              "end_date": "1976-05-03"
            },
            {
              "name": "HONGRIE 3% or 1895 (Avis 71-898).Oblig. 100 £ cap.(n °1 à 12650)",
              "start_date": "1948-05-18",
              "end_date": "3999-12-31"
            }
          ]
        },
        "24024": {
          "id": 24024,
          "sector_id": 74,
          "start_date": "1944-10-10",
          "end_date": "1948-05-03",
          "names": [
            {
              "name": "Hongrie 3% (or) 1895 (nég. ch. fixe 25f20) C. de 2520 fr. 100 £ de capital",
              "start_date": "1897-03-16",
              "end_date": "1948-05-03"
            },
            {
              "name": "Hongrie 3% or 1895 (négoc. ch. fixe 25 fr. 20) C. 100 £ capital",
              "start_date": "1925-05-01",
              "end_date": "1948-05-03"
            },
            {
              "name": "Hongrie 3% or 1895 C. 100 £ capital",
              "start_date": "1934-01-02",
              "end_date": "1948-05-03"
            },
            {
              "name": "Hongrie 3% or 1895 Oblig. 100 £ capital.",
              "start_date": "1934-01-23",
              "end_date": "1948-05-03"
            },
            {
              "name": "Hongrie 3% or 1895 . Obl. 100£ cap. (n°s 1 à12650).",
              "start_date": "1944-10-10",
              "end_date": "1962-01-02"
            },
            {
              "name": "Hongrie 3% or 1895 (c. 1 att.), oblig. 100 £ cap. (n°s 1 à 12650)",
              "start_date": "1944-10-10",
              "end_date": "1976-05-03"
            },
            {
              "name": "HONGRIE 3% or 1895 (Avis 71-898).Oblig. 100 £ cap.(n °1 à 12650)",
              "start_date": "1944-10-10",
              "end_date": "3999-12-31"
            }
          ]
        },
        "28181": {
          "id": 28181,
          "sector_id": 74,
          "start_date": "1962-01-02",
          "end_date": "1976-05-03",
          "names": [
            {
              "name": "Hongrie 3% (or) 1895 (nég. ch. fixe 25f20) C. de 2520 fr. 100 £ de capital",
              "start_date": "1897-03-16",
              "end_date": "1976-05-03"
            },
            {
              "name": "Hongrie 3% or 1895 (négoc. ch. fixe 25 fr. 20) C. 100 £ capital",
              "start_date": "1925-05-01",
              "end_date": "1976-05-03"
            },
            {
              "name": "Hongrie 3% or 1895 C. 100 £ capital",
              "start_date": "1934-01-02",
              "end_date": "1976-05-03"
            },
            {
              "name": "Hongrie 3% or 1895 Oblig. 100 £ capital.",
              "start_date": "1934-01-23",
              "end_date": "1976-05-03"
            },
            {
              "name": "Hongrie 3% or 1895 . Obl. 100£ cap. (n°s 1 à12650).",
              "start_date": "1948-05-03",
              "end_date": "1976-05-03"
            },
            {
              "name": "Hongrie 3% or 1895 (c. 1 att.), oblig. 100 £ cap. (n°s 1 à 12650)",
              "start_date": "1962-01-02",
              "end_date": "1976-05-03"
            },
            {
              "name": "HONGRIE 3% or 1895 (Avis 71-898).Oblig. 100 £ cap.(n °1 à 12650)",
              "start_date": "1962-01-02",
              "end_date": "3999-12-31"
            }
          ]
        }
      },
      "listings_stats": {
        "start_date": "1897-03-16"
      },
      "spot_prices_stats": {
        "start_date": "1897-03-16",
        "end_date": "1976-04-30"
      }
    }
  },
  "prices_count": 978,
  "name": "Hongrie 3% or 1895 Oblig. 100 £ capital."
}