{
  "id": 101320,
  "share_type": {
    "id": 4,
    "name": "Rights (Droits)"
  },
  "issuers": [
    {
      "id": 5305,
      "start_date": "1937-02-01",
      "end_date": "1937-02-26",
      "name": "BRASSERIE ET MALTERIE DU FORT-CARRE"
    }
  ],
  "types": [
    {
      "start_date": "1937-02-01",
      "end_date": "1937-02-26",
      "id": 502,
      "name": "Droit d'attribution",
      "stock_group": "R"
    }
  ],
  "is_mainstock": 0,
  "prices_period": [
    "1937-02-01",
    "1937-02-15"
  ],
  "stock_exchanges": {
    "1": {
      "id": 1,
      "name": "Paris (Official List)",
      "notations": {
        "201465": {
          "id": 201465,
          "sector_id": 657,
          "start_date": "1937-02-01",
          "end_date": "1937-02-27",
          "names": [
            {
              "name": "Act. BRASSERIE ET MALTERIE DU FORT-CARRE (droit et coupon 25). Pour 3 actions anciennes, 1 act. nouvelle attribuée contre paiement de l’impôt (30 fr. par droit)",
              "start_date": "1937-02-01",
              "end_date": "1937-02-27"
            }
          ]
        }
      },
      "listings_stats": {
        "start_date": "1937-02-01"
      },
      "spot_prices_stats": {
        "start_date": "1937-02-01",
        "end_date": "1937-02-15"
      }
    }
  },
  "prices_count": 3,
  "name": "Act. BRASSERIE ET MALTERIE DU FORT-CARRE (droit et coupon 25). Pour 3 actions anciennes, 1 act. nouvelle attribuée contre paiement de l’impôt (30 fr. par droit)"
}