{
  "id": 103479,
  "share_type": {
    "id": 4,
    "name": "Rights (Droits)"
  },
  "issuers": [
    {
      "id": 613,
      "start_date": "1925-10-15",
      "end_date": "1925-11-12",
      "name": "SOCIÉTÉ DES HOUILLÈRES DE SAINT-ÉTIENNE"
    }
  ],
  "types": [
    {
      "start_date": "1925-10-15",
      "end_date": "1925-11-12",
      "id": 501,
      "name": "Droit de souscription",
      "stock_group": "R"
    }
  ],
  "is_mainstock": 0,
  "prices_period": [
    "1925-10-16",
    "1925-10-16"
  ],
  "stock_exchanges": {
    "1": {
      "id": 1,
      "name": "Paris (Official List)",
      "notations": {
        "203661": {
          "id": 203661,
          "sector_id": 657,
          "start_date": "1925-10-15",
          "end_date": "1925-11-13",
          "names": [
            {
              "name": "Actions Houillères de Saint-Etienne (dr. Et c. 2)",
              "start_date": "1925-10-15",
              "end_date": "1925-11-13"
            }
          ]
        }
      },
      "listings_stats": {
        "start_date": "1925-10-15"
      },
      "spot_prices_stats": {
        "start_date": "1925-10-16",
        "end_date": "1925-10-16"
      }
    }
  },
  "prices_count": 0,
  "name": "Actions Houillères de Saint-Etienne (dr. Et c. 2)"
}