{
  "id": 1370,
  "share_type": {
    "id": 2,
    "name": "Bond (Obligation)"
  },
  "issuers": [
    {
      "id": 1255,
      "start_date": "1863-04-29",
      "end_date": "3999-12-31",
      "name": "Canal des Houillères de la Sarre"
    }
  ],
  "types": [
    {
      "start_date": "1863-04-29",
      "end_date": "3999-12-31",
      "id": 1009,
      "name": "Bons",
      "stock_group": "B"
    }
  ],
  "is_mainstock": 0,
  "prices_period": [
    null,
    null
  ],
  "stock_exchanges": {
    "1": {
      "id": 1,
      "name": "Paris (Official List)",
      "notations": {
        "1396": {
          "id": 1396,
          "sector_id": 73,
          "start_date": "1866-02-18",
          "end_date": "1876-02-29",
          "names": [
            {
              "name": "Bons du canal des Houillères de la Sarre, int. 4%, et amortis, en 12 ans, gar. Par l'Etat",
              "start_date": "1863-04-29",
              "end_date": "3999-12-31"
            }
          ]
        },
        "2479": {
          "id": 2479,
          "sector_id": 70,
          "start_date": "1863-04-29",
          "end_date": "1866-02-18",
          "names": [
            {
              "name": "Bons du canal des Houillères de la Sarre, int. 4%, et amortis, en 12 ans, gar. Par l'Etat",
              "start_date": "1863-04-29",
              "end_date": "3999-12-31"
            }
          ]
        }
      },
      "listings_stats": {
        "start_date": "1863-04-29"
      }
    }
  },
  "prices_count": 0,
  "name": "Bons du canal des Houillères de la Sarre, int. 4%, et amortis, en 12 ans, gar. Par l'Etat"
}