{
  "id": 40277,
  "share_type": {
    "id": 1,
    "name": "Stock (Action)"
  },
  "issuers": [
    {
      "id": 2030,
      "start_date": "1000-01-01",
      "end_date": "3999-12-31",
      "name": "SOCIÉTÉ ANONYME DES GLACIÈRES DE PARIS"
    }
  ],
  "types": [
    {
      "start_date": "1000-01-01",
      "end_date": "3999-12-31",
      "id": 18,
      "name": "Action",
      "stock_group": "S"
    }
  ],
  "is_mainstock": 0,
  "prices_period": [
    null,
    null
  ],
  "stock_exchanges": {
    "1": {
      "id": 1,
      "name": "Paris (Official List)",
      "notations": {
        "155283": {
          "id": 155283,
          "sector_id": 122,
          "start_date": "1892-05-30",
          "end_date": "1900-06-04",
          "names": [
            {
              "name": "Glacières de Paris, act. non lib.",
              "start_date": "1892-05-30",
              "end_date": "1900-06-04"
            }
          ]
        }
      },
      "listings_stats": {
        "start_date": "1892-05-30"
      }
    }
  },
  "prices_count": 0,
  "name": "Glacières de Paris, act. non lib."
}