{
  "id": 101780,
  "share_type": {
    "id": 4,
    "name": "Rights (Droits)"
  },
  "issuers": [
    {
      "id": 10486,
      "start_date": "1944-03-01",
      "end_date": "3999-12-31",
      "name": "Société pour l'équipement électrique des véhicules"
    }
  ],
  "types": [
    {
      "start_date": "1944-03-01",
      "end_date": "3999-12-31",
      "id": 502,
      "name": "Droit d'attribution",
      "stock_group": "R"
    }
  ],
  "is_mainstock": 0,
  "prices_period": [
    null,
    null
  ],
  "stock_exchanges": {
    "1": {
      "id": 1,
      "name": "Paris (Official List)",
      "notations": {
        "201961": {
          "id": 201961,
          "sector_id": 658,
          "start_date": "1944-03-01",
          "end_date": "4000-01-01",
          "names": [
            {
              "name": "Act. 12001 à 102000. STE ANON. POUR TOUS APPAREILLAGES MECANIQUES (S.A.T.A.M.) (droit et c. 21 ou bon de droit). Pour 9 act. anciennes, 1 action nouvelle attribuée gratuitement (cf avis du 5 mars 1943)",
              "start_date": "1944-03-01",
              "end_date": "4000-01-01"
            }
          ]
        }
      },
      "listings_stats": {
        "start_date": "1944-03-01"
      }
    }
  },
  "prices_count": 0,
  "name": "Act. 12001 à 102000. STE ANON. POUR TOUS APPAREILLAGES MECANIQUES (S.A.T.A.M.) (droit et c. 21 ou bon de droit). Pour 9 act. anciennes, 1 action nouvelle attribuée gratuitement (cf avis du 5 mars 1943)"
}