{
  "id": 15856,
  "share_type": {
    "id": 1,
    "name": "Stock (Action)"
  },
  "issuers": [
    {
      "id": 2030,
      "start_date": "1959-03-02",
      "end_date": "3999-12-31",
      "name": "SOCIÉTÉ ANONYME DES GLACIÈRES DE PARIS"
    }
  ],
  "types": [
    {
      "start_date": "1959-03-02",
      "end_date": "3999-12-31",
      "id": 18,
      "name": "Action",
      "stock_group": "S"
    }
  ],
  "is_mainstock": 0,
  "prices_period": [
    "1959-03-02",
    "1959-06-01"
  ],
  "stock_exchanges": {
    "1": {
      "id": 1,
      "name": "Paris (Official List)",
      "notations": {
        "146431": {
          "id": 146431,
          "sector_id": 387,
          "start_date": "1959-03-02",
          "end_date": "1959-06-03",
          "names": [
            {
              "name": "Glacieres de paris, act nouv, jce 1/1/59)",
              "start_date": "1959-03-02",
              "end_date": "3999-12-31"
            }
          ]
        }
      },
      "listings_stats": {
        "start_date": "1959-03-02"
      },
      "spot_prices_stats": {
        "start_date": "1959-03-02",
        "end_date": "1959-06-01"
      }
    }
  },
  "prices_count": 8,
  "name": "Glacieres de paris, act nouv, jce 1/1/59)"
}