{
  "id": 15739,
  "share_type": {
    "id": 1,
    "name": "Stock (Action)"
  },
  "issuers": [
    {
      "id": 2958,
      "start_date": "1958-11-07",
      "end_date": "3999-12-31",
      "name": "SOCIÉTÉ CHIMIQUE DES USINES DU RHONE (Anciennement Gilliard, P. Monnet et Cartier.)"
    }
  ],
  "types": [
    {
      "start_date": "1958-11-07",
      "end_date": "3999-12-31",
      "id": 27,
      "name": "Promesse d'action",
      "stock_group": "S"
    }
  ],
  "is_mainstock": 0,
  "prices_period": [
    "1958-11-07",
    "1959-06-01"
  ],
  "stock_exchanges": {
    "1": {
      "id": 1,
      "name": "Paris (Official List)",
      "notations": {
        "146314": {
          "id": 146314,
          "sector_id": 414,
          "start_date": "1958-11-07",
          "end_date": "1959-06-16",
          "names": [
            {
              "name": "Rhône-Poulenc (Usines Chimiques), Promesses (Jce 1/7/58)",
              "start_date": "1958-11-07",
              "end_date": "1959-06-16"
            },
            {
              "name": "Rhone-poulenc, promesses (jce 1/7/58)",
              "start_date": "1958-11-07",
              "end_date": "1959-06-16"
            },
            {
              "name": "Rhone-poulenc, act (n 2526001 à 3789000)(c 13 barré att)",
              "start_date": "1958-11-07",
              "end_date": "3999-12-31"
            }
          ]
        }
      },
      "listings_stats": {
        "start_date": "1958-11-07"
      },
      "spot_prices_stats": {
        "start_date": "1958-11-07",
        "end_date": "1959-06-01"
      }
    }
  },
  "prices_count": 26,
  "name": "Rhone-poulenc, promesses (jce 1/7/58)"
}