{
  "id": 18450,
  "share_type": {
    "id": 1,
    "name": "Stock (Action)"
  },
  "issuers": [
    {
      "id": 4570,
      "start_date": "1965-01-25",
      "end_date": "3999-12-31",
      "name": "COMPAGNIE FRANÇAISE DES PETROLES"
    }
  ],
  "types": [
    {
      "start_date": "1965-01-25",
      "end_date": "3999-12-31",
      "id": 18,
      "name": "Action",
      "stock_group": "S"
    }
  ],
  "is_mainstock": 0,
  "prices_period": [
    "1965-01-25",
    "1965-06-30"
  ],
  "stock_exchanges": {
    "1": {
      "id": 1,
      "name": "Paris (Official List)",
      "notations": {
        "149025": {
          "id": 149025,
          "sector_id": 349,
          "start_date": "1965-01-25",
          "end_date": "1965-07-05",
          "names": [
            {
              "name": "Française des Pétroles (Cie), act. B (n° 11457007 à 14263665)",
              "start_date": "1965-01-25",
              "end_date": "3999-12-31"
            }
          ]
        }
      },
      "listings_stats": {
        "start_date": "1965-01-25"
      },
      "spot_prices_stats": {
        "start_date": "1965-01-25",
        "end_date": "1965-06-30"
      }
    }
  },
  "prices_count": 14,
  "name": "Française des Pétroles (Cie), act. B (n° 11457007 à 14263665)"
}