{
  "id": 101188,
  "share_type": {
    "id": 4,
    "name": "Rights (Droits)"
  },
  "issuers": [
    {
      "id": 4728,
      "start_date": "1950-05-30",
      "end_date": "3999-12-31",
      "name": "COMPAGNIE DES EAUX ET DE L'OZONE (Procédés M.P. Otto)"
    }
  ],
  "types": [
    {
      "start_date": "1950-05-30",
      "end_date": "3999-12-31",
      "id": 501,
      "name": "Droit de souscription",
      "stock_group": "R"
    }
  ],
  "is_mainstock": 0,
  "prices_period": [
    "1950-05-30",
    "1950-05-30"
  ],
  "stock_exchanges": {
    "1": {
      "id": 1,
      "name": "Paris (Official List)",
      "notations": {
        "201333": {
          "id": 201333,
          "sector_id": 657,
          "start_date": "1950-05-30",
          "end_date": "4000-01-01",
          "names": [
            {
              "name": "Act. 250 fr. Eaux et Ozone (droit et coupon 27) (1 action nouvelle de 2500 fr. émise à 2800 fr., jce 1/1/50, pour 10 actions anciennes)",
              "start_date": "1950-05-30",
              "end_date": "4000-01-01"
            }
          ]
        }
      },
      "listings_stats": {
        "start_date": "1950-05-30"
      },
      "spot_prices_stats": {
        "start_date": "1950-05-30",
        "end_date": "1950-05-30"
      }
    }
  },
  "prices_count": 1,
  "name": "Act. 250 fr. Eaux et Ozone (droit et coupon 27) (1 action nouvelle de 2500 fr. émise à 2800 fr., jce 1/1/50, pour 10 actions anciennes)"
}