{
  "id": 40501,
  "share_type": {
    "id": 1,
    "name": "Stock (Action)"
  },
  "issuers": [
    {
      "id": 3197,
      "start_date": "1000-01-01",
      "end_date": "3999-12-31",
      "name": "Blanchisserie et Teinturerie de Thaon"
    }
  ],
  "types": [
    {
      "start_date": "1000-01-01",
      "end_date": "3999-12-31",
      "id": 1,
      "name": "UNKNOWN",
      "stock_group": "U"
    }
  ],
  "is_mainstock": 0,
  "prices_period": [
    null,
    null
  ],
  "stock_exchanges": {
    "1": {
      "id": 1,
      "name": "Paris (Official List)",
      "notations": {
        "155431": {
          "id": 155431,
          "sector_id": 122,
          "start_date": "1892-11-21",
          "end_date": "1913-11-24",
          "names": [
            {
              "name": "Blanchisserie et Teinturerie de Thaon (nominat.)",
              "start_date": "1892-11-21",
              "end_date": "1913-11-24"
            }
          ]
        }
      },
      "listings_stats": {
        "start_date": "1892-11-21"
      }
    }
  },
  "prices_count": 0,
  "name": "Blanchisserie et Teinturerie de Thaon (nominat.)"
}