{
  "id": 100519,
  "share_type": {
    "id": 4,
    "name": "Rights (Droits)"
  },
  "issuers": [
    {
      "id": 4230,
      "start_date": "1946-02-13",
      "end_date": "1946-03-12",
      "name": "SOCIÉTÉ DU GRAND HOTEL DE LA RIVE GAUCHE HOTEL LUTETIA"
    }
  ],
  "types": [
    {
      "start_date": "1946-02-13",
      "end_date": "1946-03-12",
      "id": 501,
      "name": "Droit de souscription",
      "stock_group": "R"
    }
  ],
  "is_mainstock": 0,
  "prices_period": [
    "1946-02-13",
    "1946-03-01"
  ],
  "stock_exchanges": {
    "1": {
      "id": 1,
      "name": "Paris (Official List)",
      "notations": {
        "200563": {
          "id": 200563,
          "sector_id": 657,
          "start_date": "1946-02-13",
          "end_date": "1946-03-13",
          "names": [
            {
              "name": "Act. Lutetia (Grand Hôtel de la Rive Gauche) (droit et coupon 28 ou bon de droit)",
              "start_date": "1946-02-13",
              "end_date": "1946-03-13"
            }
          ]
        }
      },
      "listings_stats": {
        "start_date": "1946-02-13"
      },
      "spot_prices_stats": {
        "start_date": "1946-02-13",
        "end_date": "1946-03-01"
      }
    }
  },
  "prices_count": 2,
  "name": "Act. Lutetia (Grand Hôtel de la Rive Gauche) (droit et coupon 28 ou bon de droit)"
}