{
  "id": 102019,
  "share_type": {
    "id": 4,
    "name": "Rights (Droits)"
  },
  "issuers": [
    {
      "id": 2578,
      "start_date": "1943-04-16",
      "end_date": "1943-06-30",
      "name": "CHEMIN DE FER METROPOLITAIN DE PARIS"
    }
  ],
  "types": [
    {
      "start_date": "1943-04-16",
      "end_date": "1943-06-30",
      "id": 501,
      "name": "Droit de souscription",
      "stock_group": "R"
    }
  ],
  "is_mainstock": 0,
  "prices_period": [
    "1943-04-16",
    "1943-06-30"
  ],
  "stock_exchanges": {
    "1": {
      "id": 1,
      "name": "Paris (Official List)",
      "notations": {
        "202201": {
          "id": 202201,
          "sector_id": 657,
          "start_date": "1943-04-16",
          "end_date": "1943-07-01",
          "names": [
            {
              "name": "Act. cap. et jouiss. Métropolitain de Paris (c. 42 ou 35 ou bon)",
              "start_date": "1943-04-16",
              "end_date": "1943-07-01"
            }
          ]
        }
      },
      "listings_stats": {
        "start_date": "1943-04-16"
      },
      "spot_prices_stats": {
        "start_date": "1943-04-16",
        "end_date": "1943-06-30"
      }
    }
  },
  "prices_count": 6,
  "name": "Act. cap. et jouiss. Métropolitain de Paris (c. 42 ou 35 ou bon)"
}