{
  "id": 16994,
  "share_type": {
    "id": 1,
    "name": "Stock (Action)"
  },
  "issuers": [
    {
      "id": 4813,
      "start_date": "1962-01-29",
      "end_date": "3999-12-31",
      "name": "Société Anonyme de Gerance et d'Armement"
    }
  ],
  "types": [
    {
      "start_date": "1962-01-29",
      "end_date": "3999-12-31",
      "id": 18,
      "name": "Action",
      "stock_group": "S"
    }
  ],
  "is_mainstock": 0,
  "prices_period": [
    "1962-01-31",
    "1962-06-15"
  ],
  "stock_exchanges": {
    "1": {
      "id": 1,
      "name": "Paris (Official List)",
      "notations": {
        "147569": {
          "id": 147569,
          "sector_id": 505,
          "start_date": "1962-01-29",
          "end_date": "1962-07-02",
          "names": [
            {
              "name": "SAGA (Gérance et d'Armement), act. (n°s 464533 à 696798) (c. 12 barré att.)",
              "start_date": "1962-01-29",
              "end_date": "1962-07-02"
            },
            {
              "name": "SAGA (Gérance et d(Armement), Act.(n° 454633 à 696798)(nom.)",
              "start_date": "1962-01-29",
              "end_date": "3999-12-31"
            }
          ]
        }
      },
      "listings_stats": {
        "start_date": "1962-01-29"
      },
      "spot_prices_stats": {
        "start_date": "1962-01-31",
        "end_date": "1962-06-15"
      }
    }
  },
  "prices_count": 10,
  "name": "SAGA (Gérance et d(Armement), Act.(n° 454633 à 696798)(nom.)"
}