{
  "id": 4208,
  "share_type": {
    "id": 2,
    "name": "Bond (Obligation)"
  },
  "issuers": [
    {
      "id": 2456,
      "start_date": "1894-08-27",
      "end_date": "3999-12-31",
      "name": "CHEMINS DE FER ECONOMIQUES DU NORD"
    }
  ],
  "types": [
    {
      "start_date": "1892-11-30",
      "end_date": "3999-12-31",
      "id": 1001,
      "name": "Obligation ordinaire ou classique",
      "stock_group": "B"
    }
  ],
  "is_mainstock": 0,
  "prices_period": [
    "1892-11-30",
    "1946-11-29"
  ],
  "stock_exchanges": {
    "1": {
      "id": 1,
      "name": "Paris (Official List)",
      "notations": {
        "1872": {
          "id": 1872,
          "sector_id": 107,
          "start_date": "1902-05-26",
          "end_date": "1914-08-03",
          "names": [
            {
              "name": "Economiques du Nord, obl. 4% série lilas",
              "start_date": "1892-05-05",
              "end_date": "1914-08-03"
            },
            {
              "name": "Economiques du Nord 4%, remb. à 500 f., série lilas.",
              "start_date": "1895-01-16",
              "end_date": "1938-12-30"
            },
            {
              "name": "Economiques du Nord 4%, remb. à 500 f., avant 1958 série lilas.",
              "start_date": "1902-05-26",
              "end_date": "1940-10-14"
            },
            {
              "name": "Economiques du Nord 4%, r. à 500 f. (lilas). 1895-1958",
              "start_date": "1902-05-26",
              "end_date": "1946-07-31"
            },
            {
              "name": "Economiques du Nord 4%, remboursables à 500 fr. (lilas) le 15 décembre 1946",
              "start_date": "1902-05-26",
              "end_date": "3999-12-31"
            }
          ]
        },
        "5307": {
          "id": 5307,
          "sector_id": 70,
          "start_date": "1895-01-16",
          "end_date": "1902-05-26",
          "names": [
            {
              "name": "Economiques du Nord, obl. 4% série lilas",
              "start_date": "1892-05-05",
              "end_date": "1902-05-26"
            },
            {
              "name": "Economiques du Nord 4%, remb. à 500 f., série lilas.",
              "start_date": "1895-01-16",
              "end_date": "1938-12-30"
            },
            {
              "name": "Economiques du Nord 4%, remb. à 500 f., avant 1958 série lilas.",
              "start_date": "1895-01-16",
              "end_date": "1940-10-14"
            },
            {
              "name": "Economiques du Nord 4%, r. à 500 f. (lilas). 1895-1958",
              "start_date": "1895-01-16",
              "end_date": "1946-07-31"
            },
            {
              "name": "Economiques du Nord 4%, remboursables à 500 fr. (lilas) le 15 décembre 1946",
              "start_date": "1895-01-16",
              "end_date": "3999-12-31"
            }
          ]
        },
        "10268": {
          "id": 10268,
          "sector_id": 107,
          "start_date": "1914-12-15",
          "end_date": "1940-06-11",
          "names": [
            {
              "name": "Economiques du Nord, obl. 4% série lilas",
              "start_date": "1892-05-05",
              "end_date": "1940-06-11"
            },
            {
              "name": "Economiques du Nord 4%, remb. à 500 f., série lilas.",
              "start_date": "1895-01-16",
              "end_date": "1940-06-11"
            },
            {
              "name": "Economiques du Nord 4%, remb. à 500 f., avant 1958 série lilas.",
              "start_date": "1914-12-15",
              "end_date": "1940-10-14"
            },
            {
              "name": "Economiques du Nord 4%, r. à 500 f. (lilas). 1895-1958",
              "start_date": "1914-12-15",
              "end_date": "1946-07-31"
            },
            {
              "name": "Economiques du Nord 4%, remboursables à 500 fr. (lilas) le 15 décembre 1946",
              "start_date": "1914-12-15",
              "end_date": "3999-12-31"
            }
          ]
        },
        "19461": {
          "id": 19461,
          "sector_id": 107,
          "start_date": "1940-10-14",
          "end_date": "1946-12-16",
          "names": [
            {
              "name": "Economiques du Nord, obl. 4% série lilas",
              "start_date": "1892-05-05",
              "end_date": "1946-12-16"
            },
            {
              "name": "Economiques du Nord 4%, remb. à 500 f., série lilas.",
              "start_date": "1895-01-16",
              "end_date": "1946-12-16"
            },
            {
              "name": "Economiques du Nord 4%, remb. à 500 f., avant 1958 série lilas.",
              "start_date": "1938-12-30",
              "end_date": "1946-12-16"
            },
            {
              "name": "Economiques du Nord 4%, r. à 500 f. (lilas). 1895-1958",
              "start_date": "1940-10-14",
              "end_date": "1946-12-16"
            },
            {
              "name": "Economiques du Nord 4%, remboursables à 500 fr. (lilas) le 15 décembre 1946",
              "start_date": "1940-10-14",
              "end_date": "3999-12-31"
            }
          ]
        },
        "155645": {
          "id": 155645,
          "sector_id": 119,
          "start_date": "1894-08-27",
          "end_date": "1895-01-15",
          "names": [
            {
              "name": "Economiques du Nord, obl. 4% série lilas",
              "start_date": "1892-05-05",
              "end_date": "1895-01-15"
            },
            {
              "name": "Economiques du Nord 4%, remb. à 500 f., série lilas.",
              "start_date": "1894-08-27",
              "end_date": "1938-12-30"
            },
            {
              "name": "Economiques du Nord 4%, remb. à 500 f., avant 1958 série lilas.",
              "start_date": "1894-08-27",
              "end_date": "1940-10-14"
            },
            {
              "name": "Economiques du Nord 4%, r. à 500 f. (lilas). 1895-1958",
              "start_date": "1894-08-27",
              "end_date": "1946-07-31"
            },
            {
              "name": "Economiques du Nord 4%, remboursables à 500 fr. (lilas) le 15 décembre 1946",
              "start_date": "1894-08-27",
              "end_date": "3999-12-31"
            }
          ]
        }
      },
      "listings_stats": {
        "start_date": "1894-08-27"
      },
      "spot_prices_stats": {
        "start_date": "1892-11-30",
        "end_date": "1946-11-29"
      }
    }
  },
  "prices_count": 705,
  "name": "Economiques du Nord 4%, remb. à 500 f., série lilas."
}