{
  "id": 1633,
  "share_type": {
    "id": 2,
    "name": "Bond (Obligation)"
  },
  "issuers": [
    {
      "id": 732,
      "start_date": "1869-06-21",
      "end_date": "3999-12-31",
      "name": "Chemins de Fer de la Vendee"
    }
  ],
  "types": [
    {
      "start_date": "1869-06-21",
      "end_date": "3999-12-31",
      "id": 1001,
      "name": "Obligation ordinaire ou classique",
      "stock_group": "B"
    }
  ],
  "is_mainstock": 0,
  "prices_period": [
    "1869-06-30",
    "1887-02-15"
  ],
  "stock_exchanges": {
    "1": {
      "id": 1,
      "name": "Paris (Official List)",
      "notations": {
        "2742": {
          "id": 2742,
          "sector_id": 70,
          "start_date": "1869-06-21",
          "end_date": "1878-01-24",
          "names": [
            {
              "name": "La Vendée, r. à 500f t. p.",
              "start_date": "1869-06-21",
              "end_date": "1878-01-24"
            },
            {
              "name": "La Vendée,3% remb. à 500f f",
              "start_date": "1869-06-21",
              "end_date": "3999-12-31"
            }
          ]
        }
      },
      "listings_stats": {
        "start_date": "1869-06-21"
      },
      "spot_prices_stats": {
        "start_date": "1869-06-30",
        "end_date": "1878-01-15"
      }
    },
    "2": {
      "id": 2,
      "name": "Paris OTC (Coulisse)",
      "notations": {
        "204614": {
          "id": 204614,
          "sector_id": 664,
          "start_date": "1878-01-16",
          "end_date": "1887-12-31",
          "names": [
            {
              "name": "Obl. Vendée, 3% octob. 77",
              "start_date": "1878-01-16",
              "end_date": "1887-12-31"
            }
          ]
        }
      },
      "listings_stats": {
        "start_date": "1878-01-16"
      },
      "spot_prices_stats": {
        "start_date": "1878-01-31",
        "end_date": "1887-02-15"
      }
    }
  },
  "prices_count": 808,
  "name": "La Vendée, r. à 500f t. p."
}