{
  "id": 13238,
  "share_type": {
    "id": 1,
    "name": "Stock (Action)"
  },
  "issuers": [
    {
      "id": 150,
      "start_date": "1948-01-05",
      "end_date": "3999-12-31",
      "name": "COMPAGNIE D'ASSURANCES GENERALES SUR LA VIE DES HOMMES"
    }
  ],
  "types": [
    {
      "start_date": "1948-01-05",
      "end_date": "3999-12-31",
      "id": 20,
      "name": "Part de bénéfice (part bénéficiaire)",
      "stock_group": "S"
    }
  ],
  "is_mainstock": 0,
  "prices_period": [
    "1948-01-07",
    "1973-11-15"
  ],
  "stock_exchanges": {
    "1": {
      "id": 1,
      "name": "Paris (Official List)",
      "notations": {
        "23279": {
          "id": 23279,
          "sector_id": 249,
          "start_date": "1948-12-01",
          "end_date": "1955-12-01",
          "names": [
            {
              "name": "Assurances Générales (vie), parts bénéf., remb. à 2087 fr. (nom.)",
              "start_date": "1948-01-05",
              "end_date": "1955-12-01"
            },
            {
              "name": "Assurances Générales (Vie), parts bénéf. (nom.)",
              "start_date": "1948-12-01",
              "end_date": "3999-12-31"
            }
          ]
        },
        "25269": {
          "id": 25269,
          "sector_id": 56,
          "start_date": "1955-12-01",
          "end_date": "1973-11-30",
          "names": [
            {
              "name": "Assurances Générales (vie), parts bénéf., remb. à 2087 fr. (nom.)",
              "start_date": "1948-01-05",
              "end_date": "1973-11-30"
            },
            {
              "name": "Assurances Générales (Vie), parts bénéf. (nom.)",
              "start_date": "1955-12-01",
              "end_date": "3999-12-31"
            }
          ]
        },
        "143813": {
          "id": 143813,
          "sector_id": 96,
          "start_date": "1948-01-05",
          "end_date": "1948-12-01",
          "names": [
            {
              "name": "Assurances Générales (vie), parts bénéf., remb. à 2087 fr. (nom.)",
              "start_date": "1948-01-05",
              "end_date": "1955-12-01"
            },
            {
              "name": "Assurances Générales (Vie), parts bénéf. (nom.)",
              "start_date": "1948-01-05",
              "end_date": "3999-12-31"
            }
          ]
        }
      },
      "listings_stats": {
        "start_date": "1948-01-05"
      },
      "spot_prices_stats": {
        "start_date": "1948-01-07",
        "end_date": "1973-11-15"
      }
    }
  },
  "prices_count": 636,
  "name": "Assurances Générales (Vie), parts bénéf. (nom.)"
}