{
  "id": 17668,
  "share_type": {
    "id": 1,
    "name": "Stock (Action)"
  },
  "issuers": [
    {
      "id": 4973,
      "start_date": "1962-01-02",
      "end_date": "3999-12-31",
      "name": "THE EXPLOSIVES AND CHEMICAL PRODUCTS LTD"
    }
  ],
  "types": [
    {
      "start_date": "1962-01-02",
      "end_date": "3999-12-31",
      "id": 18,
      "name": "Action",
      "stock_group": "S"
    }
  ],
  "is_mainstock": 0,
  "prices_period": [
    "1962-01-02",
    "1973-08-31"
  ],
  "stock_exchanges": {
    "1": {
      "id": 1,
      "name": "Paris (Official List)",
      "notations": {
        "148243": {
          "id": 148243,
          "sector_id": 542,
          "start_date": "1962-01-02",
          "end_date": "1973-09-17",
          "names": [
            {
              "name": "Explosives and Chemical Products, Ltd (The), titres de 10 unités de stock ord. £ 0 : 10 : 0",
              "start_date": "1962-01-02",
              "end_date": "1973-09-17"
            },
            {
              "name": "Explosives and Chemical Products, Ltd (The), titres de 10 unités de stock ord. De 50 P",
              "start_date": "1962-01-02",
              "end_date": "1973-09-17"
            },
            {
              "name": "Exchem Holdings Limited, titres de 10 unités de stock De 50 P",
              "start_date": "1962-01-02",
              "end_date": "3999-12-31"
            }
          ]
        }
      },
      "listings_stats": {
        "start_date": "1962-01-02"
      },
      "spot_prices_stats": {
        "start_date": "1962-01-02",
        "end_date": "1973-08-31"
      }
    }
  },
  "prices_count": 281,
  "name": "Explosives and Chemical Products, Ltd (The), titres de 10 unités de stock ord. De 50 P"
}