{
  "id": 103163,
  "share_type": {
    "id": 4,
    "name": "Rights (Droits)"
  },
  "issuers": [
    {
      "id": 3121,
      "start_date": "1000-01-01",
      "end_date": "1945-12-07",
      "name": "L'URBAINE-CAPITALISATION"
    }
  ],
  "types": [
    {
      "start_date": "1000-01-01",
      "end_date": "1945-12-07",
      "id": 501,
      "name": "Droit de souscription",
      "stock_group": "R"
    }
  ],
  "is_mainstock": 0,
  "prices_period": [
    "1945-10-30",
    "1945-11-30"
  ],
  "stock_exchanges": {
    "1": {
      "id": 1,
      "name": "Paris (Official List)",
      "notations": {
        "203345": {
          "id": 203345,
          "sector_id": 657,
          "start_date": "1945-10-29",
          "end_date": "1945-12-08",
          "names": [
            {
              "name": "Act. Urbaine (L') (Capitalisation) (bon de droit)",
              "start_date": "1000-01-01",
              "end_date": "1945-12-08"
            }
          ]
        }
      },
      "listings_stats": {
        "start_date": "1945-10-29"
      },
      "spot_prices_stats": {
        "start_date": "1945-10-30",
        "end_date": "1945-11-30"
      }
    }
  },
  "prices_count": 1,
  "name": "Act. Urbaine (L') (Capitalisation) (bon de droit)"
}