{
  "id": 102619,
  "share_type": {
    "id": 4,
    "name": "Rights (Droits)"
  },
  "issuers": [
    {
      "id": 3565,
      "start_date": "1947-01-15",
      "end_date": "1948-03-17",
      "name": "L'HYDRO-ENERGIE"
    }
  ],
  "types": [
    {
      "start_date": "1947-01-15",
      "end_date": "1948-03-17",
      "id": 501,
      "name": "Droit de souscription",
      "stock_group": "R"
    }
  ],
  "is_mainstock": 0,
  "prices_period": [
    null,
    null
  ],
  "stock_exchanges": {
    "1": {
      "id": 1,
      "name": "Paris (Official List)",
      "notations": {
        "202801": {
          "id": 202801,
          "sector_id": 657,
          "start_date": "1947-01-15",
          "end_date": "1948-03-18",
          "names": [
            {
              "name": "Act. L'Hydro-Energie (bon carmin). 1 act. nouv. avril 1945 émise à 750 fr. pour 2 bons",
              "start_date": "1947-01-15",
              "end_date": "1948-03-18"
            }
          ]
        }
      },
      "listings_stats": {
        "start_date": "1947-01-15"
      }
    }
  },
  "prices_count": 0,
  "name": "Act. L'Hydro-Energie (bon carmin). 1 act. nouv. avril 1945 émise à 750 fr. pour 2 bons"
}