{
  "id": 15446,
  "share_type": {
    "id": 1,
    "name": "Stock (Action)"
  },
  "issuers": [
    {
      "id": 762,
      "start_date": "1957-09-17",
      "end_date": "3999-12-31",
      "name": "COMPAGNIE GÉNÉRALE DES VOITURES A PARIS"
    }
  ],
  "types": [
    {
      "start_date": "1957-09-17",
      "end_date": "3999-12-31",
      "id": 18,
      "name": "Action",
      "stock_group": "S"
    }
  ],
  "is_mainstock": 0,
  "prices_period": [
    "1957-09-17",
    "1963-12-31"
  ],
  "stock_exchanges": {
    "1": {
      "id": 1,
      "name": "Paris (Official List)",
      "notations": {
        "31656": {
          "id": 31656,
          "sector_id": 381,
          "start_date": "1958-04-16",
          "end_date": "1963-03-04",
          "names": [
            {
              "name": "Voitures à Paris (Cie Gle des), a., 2500 f. amort. (ex-dr., )",
              "start_date": "1957-09-17",
              "end_date": "1963-03-04"
            },
            {
              "name": "Voitures à Paris (cie gle des) act. 5000fr., 2500fr. Amort. (c.8)",
              "start_date": "1958-04-16",
              "end_date": "1963-07-01"
            },
            {
              "name": "Voitures à Paris (Cie Gle des), Act. amort. de 25F",
              "start_date": "1958-04-16",
              "end_date": "3999-12-31"
            }
          ]
        },
        "31657": {
          "id": 31657,
          "sector_id": 334,
          "start_date": "1963-03-04",
          "end_date": "1963-07-01",
          "names": [
            {
              "name": "Voitures à Paris (Cie Gle des), a., 2500 f. amort. (ex-dr., )",
              "start_date": "1957-09-17",
              "end_date": "1963-07-01"
            },
            {
              "name": "Voitures à Paris (cie gle des) act. 5000fr., 2500fr. Amort. (c.8)",
              "start_date": "1958-04-16",
              "end_date": "1963-07-01"
            },
            {
              "name": "Voitures à Paris (Cie Gle des), Act. amort. de 25F",
              "start_date": "1963-03-04",
              "end_date": "3999-12-31"
            }
          ]
        },
        "31658": {
          "id": 31658,
          "sector_id": 597,
          "start_date": "1963-07-01",
          "end_date": "1964-01-02",
          "names": [
            {
              "name": "Voitures à Paris (Cie Gle des), a., 2500 f. amort. (ex-dr., )",
              "start_date": "1957-09-17",
              "end_date": "1964-01-02"
            },
            {
              "name": "Voitures à Paris (cie gle des) act. 5000fr., 2500fr. Amort. (c.8)",
              "start_date": "1958-04-16",
              "end_date": "1964-01-02"
            },
            {
              "name": "Voitures à Paris (Cie Gle des), Act. amort. de 25F",
              "start_date": "1963-07-01",
              "end_date": "3999-12-31"
            }
          ]
        },
        "146021": {
          "id": 146021,
          "sector_id": 381,
          "start_date": "1957-09-17",
          "end_date": "1958-04-16",
          "names": [
            {
              "name": "Voitures à Paris (Cie Gle des), a., 2500 f. amort. (ex-dr., )",
              "start_date": "1957-09-17",
              "end_date": "1958-04-16"
            },
            {
              "name": "Voitures à Paris (cie gle des) act. 5000fr., 2500fr. Amort. (c.8)",
              "start_date": "1957-09-17",
              "end_date": "1963-07-01"
            },
            {
              "name": "Voitures à Paris (Cie Gle des), Act. amort. de 25F",
              "start_date": "1957-09-17",
              "end_date": "3999-12-31"
            }
          ]
        }
      },
      "listings_stats": {
        "start_date": "1957-09-17"
      },
      "spot_prices_stats": {
        "start_date": "1957-09-17",
        "end_date": "1963-12-31"
      }
    }
  },
  "prices_count": 147,
  "name": "Voitures à Paris (Cie Gle des), a., 2500 f. amort. (ex-dr., )"
}