{
  "id": 8331,
  "share_type": {
    "id": 2,
    "name": "Bond (Obligation)"
  },
  "issuers": [
    {
      "id": 2722,
      "start_date": "1926-04-08",
      "end_date": "3999-12-31",
      "name": "Fusion des gaz, Société anonyme d'éclairage et de chauffage"
    }
  ],
  "types": [
    {
      "start_date": "1926-04-08",
      "end_date": "3999-12-31",
      "id": 1001,
      "name": "Obligation ordinaire ou classique",
      "stock_group": "B"
    }
  ],
  "is_mainstock": 0,
  "prices_period": [
    "1926-04-08",
    "1935-11-15"
  ],
  "stock_exchanges": {
    "1": {
      "id": 1,
      "name": "Paris (Official List)",
      "notations": {
        "135778": {
          "id": 135778,
          "sector_id": 110,
          "start_date": "1926-04-08",
          "end_date": "1935-12-02",
          "names": [
            {
              "name": "Fusion des Gaz bon décennaux 8%, remb. à 500 fr.",
              "start_date": "1926-04-08",
              "end_date": "3999-12-31"
            }
          ]
        }
      },
      "listings_stats": {
        "start_date": "1926-04-08"
      },
      "spot_prices_stats": {
        "start_date": "1926-04-08",
        "end_date": "1935-11-15"
      }
    }
  },
  "prices_count": 203,
  "name": "Fusion des Gaz bon décennaux 8%, remb. à 500 fr."
}