{
  "id": 6947,
  "share_type": {
    "id": 1,
    "name": "Stock (Action)"
  },
  "issuers": [
    {
      "id": 3477,
      "start_date": "1919-10-22",
      "end_date": "3999-12-31",
      "name": "FORGES ET ATELIERS DE LA LONGUEVILLE"
    }
  ],
  "types": [
    {
      "start_date": "1919-10-22",
      "end_date": "3999-12-31",
      "id": 21,
      "name": "Part de fondateur",
      "stock_group": "S"
    }
  ],
  "is_mainstock": 0,
  "prices_period": [
    null,
    null
  ],
  "stock_exchanges": {
    "1": {
      "id": 1,
      "name": "Paris (Official List)",
      "notations": {
        "33817": {
          "id": 33817,
          "sector_id": 104,
          "start_date": "1919-10-22",
          "end_date": "1919-10-27",
          "names": [
            {
              "name": "Forges et Ateliers de la Longueville, parts de fondateurs, non estamp.",
              "start_date": "1919-10-22",
              "end_date": "3999-12-31"
            }
          ]
        }
      },
      "listings_stats": {
        "start_date": "1919-10-22"
      }
    }
  },
  "prices_count": 0,
  "name": "Forges et Ateliers de la Longueville, parts de fondateurs, non estamp."
}