{
  "id": 101391,
  "share_type": {
    "id": 4,
    "name": "Rights (Droits)"
  },
  "issuers": [
    {
      "id": 5220,
      "start_date": "1937-03-08",
      "end_date": "1937-03-22",
      "name": "FORCES MOTRICES DE LA VIENNE"
    }
  ],
  "types": [
    {
      "start_date": "1937-03-08",
      "end_date": "1937-03-22",
      "id": 501,
      "name": "Droit de souscription",
      "stock_group": "R"
    }
  ],
  "is_mainstock": 0,
  "prices_period": [
    "1937-03-08",
    "1937-03-15"
  ],
  "stock_exchanges": {
    "1": {
      "id": 1,
      "name": "Paris (Official List)",
      "notations": {
        "201536": {
          "id": 201536,
          "sector_id": 657,
          "start_date": "1937-03-08",
          "end_date": "1937-03-23",
          "names": [
            {
              "name": "Act. FORCES MOTRICES DE LA VIENNE (droit et coupon 37). pour 20 actions anc. 7 actions nouvelles émises à 250 francs.",
              "start_date": "1937-03-08",
              "end_date": "1937-03-23"
            }
          ]
        }
      },
      "listings_stats": {
        "start_date": "1937-03-08"
      },
      "spot_prices_stats": {
        "start_date": "1937-03-08",
        "end_date": "1937-03-15"
      }
    }
  },
  "prices_count": 2,
  "name": "Act. FORCES MOTRICES DE LA VIENNE (droit et coupon 37). pour 20 actions anc. 7 actions nouvelles émises à 250 francs."
}