{
  "id": 104848,
  "share_type": {
    "id": 5,
    "name": "Droits de souscription"
  },
  "issuers": [
    {
      "id": 10547,
      "start_date": "1944-05-21",
      "end_date": "1944-06-10",
      "name": "CIE GÉNÉRALE DE CONSTRUCTION DE LOCOMOTIVES (BATIGNOLLES-CHATILLON)"
    }
  ],
  "types": [
    {
      "start_date": "1944-05-21",
      "end_date": "1944-06-10",
      "id": 501,
      "name": "Droit de souscription",
      "stock_group": "R"
    }
  ],
  "is_mainstock": 0,
  "prices_period": [
    "1944-05-31",
    "1944-05-31"
  ],
  "stock_exchanges": {
    "1": {
      "id": 1,
      "name": "Paris (Official List)",
      "notations": {
        "205251": {
          "id": 205251,
          "sector_id": 657,
          "start_date": "1944-05-21",
          "end_date": "1944-06-10",
          "names": [
            {
              "name": "Const. Locom, 100, c. 10.",
              "start_date": "1944-05-21",
              "end_date": "1944-06-10"
            }
          ]
        }
      },
      "listings_stats": {
        "start_date": "1944-05-21"
      },
      "spot_prices_stats": {
        "start_date": "1944-05-31",
        "end_date": "1944-05-31"
      }
    }
  },
  "prices_count": 1,
  "name": "Const. Locom, 100, c. 10."
}