{
  "id": 11400,
  "share_type": {
    "id": 2,
    "name": "Bond (Obligation)"
  },
  "issuers": [
    {
      "id": 3148,
      "start_date": "1939-12-19",
      "end_date": "3999-12-31",
      "name": "TRÉFILERIES ET LAMINOIRS DU HAVRE (Anolens Établissements Lazare Welller, Société coopérative de Ruglea)"
    }
  ],
  "types": [
    {
      "start_date": "1939-12-19",
      "end_date": "3999-12-31",
      "id": 1001,
      "name": "Obligation ordinaire ou classique",
      "stock_group": "B"
    }
  ],
  "is_mainstock": 0,
  "prices_period": [
    "1939-12-19",
    "1943-03-15"
  ],
  "stock_exchanges": {
    "1": {
      "id": 1,
      "name": "Paris (Official List)",
      "notations": {
        "20435": {
          "id": 20435,
          "sector_id": 111,
          "start_date": "1940-10-14",
          "end_date": "1943-03-24",
          "names": [
            {
              "name": "Tréfileries et Laminoirs du Havre 5,5% 1939. 1940-59.",
              "start_date": "1939-12-19",
              "end_date": "1943-03-24"
            },
            {
              "name": "Tréfileries et laminoirs du Havre 5,5% 1939, remb. À 1000 fr. 1940-59",
              "start_date": "1940-10-14",
              "end_date": "1943-03-24"
            },
            {
              "name": "Tréfileries et Laminoirs du Havre 5,5% 1939, remb. À 1000 fr. le 24 mars 1943",
              "start_date": "1940-10-14",
              "end_date": "3999-12-31"
            }
          ]
        },
        "141975": {
          "id": 141975,
          "sector_id": 111,
          "start_date": "1939-12-19",
          "end_date": "1940-06-11",
          "names": [
            {
              "name": "Tréfileries et Laminoirs du Havre 5,5% 1939. 1940-59.",
              "start_date": "1939-12-19",
              "end_date": "1940-10-14"
            },
            {
              "name": "Tréfileries et laminoirs du Havre 5,5% 1939, remb. À 1000 fr. 1940-59",
              "start_date": "1939-12-19",
              "end_date": "1943-03-01"
            },
            {
              "name": "Tréfileries et Laminoirs du Havre 5,5% 1939, remb. À 1000 fr. le 24 mars 1943",
              "start_date": "1939-12-19",
              "end_date": "3999-12-31"
            }
          ]
        }
      },
      "listings_stats": {
        "start_date": "1939-12-19"
      },
      "spot_prices_stats": {
        "start_date": "1939-12-19",
        "end_date": "1943-03-15"
      }
    }
  },
  "prices_count": 72,
  "name": "Tréfileries et laminoirs du Havre 5,5% 1939, remb. À 1000 fr. 1940-59"
}