{
  "id": 12207,
  "share_type": {
    "id": 2,
    "name": "Bond (Obligation)"
  },
  "issuers": [
    {
      "id": 3434,
      "start_date": "1946-04-30",
      "end_date": "3999-12-31",
      "name": "Forces Hydrauliques de la Selves"
    }
  ],
  "types": [
    {
      "start_date": "1946-04-30",
      "end_date": "3999-12-31",
      "id": 1001,
      "name": "Obligation ordinaire ou classique",
      "stock_group": "B"
    }
  ],
  "is_mainstock": 0,
  "prices_period": [
    "1946-05-07",
    "1955-08-31"
  ],
  "stock_exchanges": {
    "1": {
      "id": 1,
      "name": "Paris (Official List)",
      "notations": {
        "142782": {
          "id": 142782,
          "sector_id": 117,
          "start_date": "1946-04-30",
          "end_date": "1955-09-01",
          "names": [
            {
              "name": "Forces Hydrauliques de la Selves 4% 1945, remb. à 5000 f.(Jce 1/5/45) (Cf Avis n° 22095) 1951-80",
              "start_date": "1946-04-30",
              "end_date": "1955-09-01"
            },
            {
              "name": "Forces Hydrauliques de la Selves 4% 1945, remb. À 5000 fr. (Cf Avis n° 22095) 1951-80",
              "start_date": "1946-04-30",
              "end_date": "3999-12-31"
            }
          ]
        }
      },
      "listings_stats": {
        "start_date": "1946-04-30"
      },
      "spot_prices_stats": {
        "start_date": "1946-05-07",
        "end_date": "1955-08-31"
      }
    }
  },
  "prices_count": 221,
  "name": "Forces Hydrauliques de la Selves 4% 1945, remb. À 5000 fr. (Cf Avis n° 22095) 1951-80"
}