{
  "id": 103794,
  "share_type": {
    "id": 4,
    "name": "Rights (Droits)"
  },
  "issuers": [
    {
      "id": 2486,
      "start_date": "1947-02-14",
      "end_date": "3999-12-31",
      "name": "L'ANNUAIRE DU COMMERCE DIDOT-BOTTIN"
    }
  ],
  "types": [
    {
      "start_date": "1947-02-14",
      "end_date": "3999-12-31",
      "id": 502,
      "name": "Droit d'attribution",
      "stock_group": "R"
    }
  ],
  "is_mainstock": 0,
  "prices_period": [
    "1947-02-18",
    "1947-02-18"
  ],
  "stock_exchanges": {
    "1": {
      "id": 1,
      "name": "Paris (Official List)",
      "notations": {
        "203976": {
          "id": 203976,
          "sector_id": 658,
          "start_date": "1947-02-14",
          "end_date": "4000-01-01",
          "names": [
            {
              "name": "Parts de fond. Didot-Bottin (Ann. du Commerce) (coupon 64 attaché). 1 action nouvelle pour 3 parts de fondateur",
              "start_date": "1947-02-14",
              "end_date": "4000-01-01"
            }
          ]
        }
      },
      "listings_stats": {
        "start_date": "1947-02-14"
      },
      "spot_prices_stats": {
        "start_date": "1947-02-18",
        "end_date": "1947-02-18"
      }
    }
  },
  "prices_count": 1,
  "name": "Parts de fond. Didot-Bottin (Ann. du Commerce) (coupon 64 attaché). 1 action nouvelle pour 3 parts de fondateur"
}