{
  "id": 100832,
  "share_type": {
    "id": 4,
    "name": "Rights (Droits)"
  },
  "issuers": [
    {
      "id": 4113,
      "start_date": "1947-11-25",
      "end_date": "3999-12-31",
      "name": "SOCIETE DES ENGRENAGES CITROEN"
    }
  ],
  "types": [
    {
      "start_date": "1947-11-25",
      "end_date": "3999-12-31",
      "id": 502,
      "name": "Droit d'attribution",
      "stock_group": "R"
    }
  ],
  "is_mainstock": 0,
  "prices_period": [
    "1947-11-28",
    "1947-11-28"
  ],
  "stock_exchanges": {
    "1": {
      "id": 1,
      "name": "Paris (Official List)",
      "notations": {
        "200977": {
          "id": 200977,
          "sector_id": 658,
          "start_date": "1947-11-25",
          "end_date": "4000-01-01",
          "names": [
            {
              "name": "Act. 500 fr. Engrenages Citroën (dr. et coup. 2). 1 act. nouv. de 500 fr. pour 2 act. anc de 500 fr.",
              "start_date": "1947-11-25",
              "end_date": "4000-01-01"
            }
          ]
        }
      },
      "listings_stats": {
        "start_date": "1947-11-25"
      },
      "spot_prices_stats": {
        "start_date": "1947-11-28",
        "end_date": "1947-11-28"
      }
    }
  },
  "prices_count": 1,
  "name": "Act. 500 fr. Engrenages Citroën (dr. et coup. 2). 1 act. nouv. de 500 fr. pour 2 act. anc de 500 fr."
}