{
  "id": 18884,
  "share_type": {
    "id": 1,
    "name": "Stock (Action)"
  },
  "issuers": [
    {
      "id": 5765,
      "start_date": "1967-05-02",
      "end_date": "3999-12-31",
      "name": "Brasseries de Thionville-Basse-Yutz"
    }
  ],
  "types": [
    {
      "start_date": "1967-05-02",
      "end_date": "3999-12-31",
      "id": 18,
      "name": "Action",
      "stock_group": "S"
    }
  ],
  "is_mainstock": 0,
  "prices_period": [
    "1967-05-02",
    "1969-03-17"
  ],
  "stock_exchanges": {
    "1": {
      "id": 1,
      "name": "Paris (Official List)",
      "notations": {
        "149459": {
          "id": 149459,
          "sector_id": 492,
          "start_date": "1967-05-02",
          "end_date": "1969-03-31",
          "names": [
            {
              "name": "Nancy_Bourse Brasseries de Thionville-Basse-Yutz, actions",
              "start_date": "1967-05-02",
              "end_date": "1969-03-31"
            },
            {
              "name": "NANCY_BOURSE_ Brasserie de Thionville-Base-Yutz, actions (nom)",
              "start_date": "1967-05-02",
              "end_date": "1969-03-31"
            },
            {
              "name": "NANCY_BOURSE Brasserie de Thionville-Base-Yutz, actions (nom.) (ex-dr. est du 30/12/68) (Jce 1/10/68)",
              "start_date": "1967-05-02",
              "end_date": "3999-12-31"
            }
          ]
        }
      },
      "listings_stats": {
        "start_date": "1967-05-02"
      },
      "spot_prices_stats": {
        "start_date": "1967-05-02",
        "end_date": "1969-03-17"
      }
    }
  },
  "prices_count": 44,
  "name": "NANCY_BOURSE_ Brasserie de Thionville-Base-Yutz, actions (nom)"
}