{
  "id": 101537,
  "share_type": {
    "id": 4,
    "name": "Rights (Droits)"
  },
  "issuers": [
    {
      "id": 100,
      "start_date": "1936-12-21",
      "end_date": "1937-01-14",
      "name": "RENTES FRANÇAISES"
    }
  ],
  "types": [
    {
      "start_date": "1936-12-21",
      "end_date": "1937-01-14",
      "id": 501,
      "name": "Droit de souscription",
      "stock_group": "R"
    }
  ],
  "is_mainstock": 0,
  "prices_period": [
    "1936-12-21",
    "1936-12-31"
  ],
  "stock_exchanges": {
    "1": {
      "id": 1,
      "name": "Paris (Official List)",
      "notations": {
        "201682": {
          "id": 201682,
          "sector_id": 657,
          "start_date": "1936-12-21",
          "end_date": "1937-01-15",
          "names": [
            {
              "name": "Certificats négociables (droit à souscription à un capital nominal de 100 francs des oblig. Du trésor 3,5 % 1936 catégorie A) (V. Avis n° 17321)",
              "start_date": "1936-12-21",
              "end_date": "1937-01-15"
            }
          ]
        }
      },
      "listings_stats": {
        "start_date": "1936-12-21"
      },
      "spot_prices_stats": {
        "start_date": "1936-12-21",
        "end_date": "1936-12-31"
      }
    }
  },
  "prices_count": 8,
  "name": "Certificats négociables (droit à souscription à un capital nominal de 100 francs des oblig. Du trésor 3,5 % 1936 catégorie A) (V. Avis n° 17321)"
}