{
  "id": 103734,
  "share_type": {
    "id": 4,
    "name": "Rights (Droits)"
  },
  "issuers": [
    {
      "id": 3210,
      "start_date": "1948-12-09",
      "end_date": "3999-12-31",
      "name": "STÉ FSE DES NOUVELLES GALERIES RÉUNIES"
    }
  ],
  "types": [
    {
      "start_date": "1948-12-09",
      "end_date": "3999-12-31",
      "id": 501,
      "name": "Droit de souscription",
      "stock_group": "R"
    }
  ],
  "is_mainstock": 0,
  "prices_period": [
    "1948-12-21",
    "1948-12-21"
  ],
  "stock_exchanges": {
    "1": {
      "id": 1,
      "name": "Paris (Official List)",
      "notations": {
        "203916": {
          "id": 203916,
          "sector_id": 657,
          "start_date": "1948-12-09",
          "end_date": "4000-01-01",
          "names": [
            {
              "name": "Nouvelles-Galeries Réunies (bon vert 1941). 1 action nouvelle cédée à 375 fr. pour 4 bons.",
              "start_date": "1948-12-09",
              "end_date": "4000-01-01"
            }
          ]
        }
      },
      "listings_stats": {
        "start_date": "1948-12-09"
      },
      "spot_prices_stats": {
        "start_date": "1948-12-21",
        "end_date": "1948-12-21"
      }
    }
  },
  "prices_count": 0,
  "name": "Nouvelles-Galeries Réunies (bon vert 1941). 1 action nouvelle cédée à 375 fr. pour 4 bons."
}