{
  "id": 12355,
  "share_type": {
    "id": 2,
    "name": "Bond (Obligation)"
  },
  "issuers": [
    {
      "id": 2517,
      "start_date": "1946-07-31",
      "end_date": "3999-12-31",
      "name": "Société générale des Cirages français"
    }
  ],
  "types": [
    {
      "start_date": "1946-07-31",
      "end_date": "3999-12-31",
      "id": 1001,
      "name": "Obligation ordinaire ou classique",
      "stock_group": "B"
    }
  ],
  "is_mainstock": 0,
  "prices_period": [
    "1946-07-31",
    "1955-11-30"
  ],
  "stock_exchanges": {
    "1": {
      "id": 1,
      "name": "Paris (Official List)",
      "notations": {
        "24691": {
          "id": 24691,
          "sector_id": 320,
          "start_date": "1952-07-01",
          "end_date": "1955-12-01",
          "names": [
            {
              "name": "Cirages Français 4% 1945, remb. À 5000 fr. (Jce 15/12/45) 1946-75",
              "start_date": "1946-07-31",
              "end_date": "1955-12-01"
            },
            {
              "name": "Cirages Français 4% 1945, remb. À 5000 fr. 1946-75",
              "start_date": "1950-01-03",
              "end_date": "1955-12-01"
            },
            {
              "name": "Cirages Français 6% (ex-4% 1945), remb. à 5000 fr. 1946-75",
              "start_date": "1952-07-01",
              "end_date": "1955-12-01"
            },
            {
              "name": "Cirages Français et Forges d'Hennebont (Sté Gle des) 6% (ex-4% 1945) (Tir. 6/9/55) r. le 15/12/55",
              "start_date": "1952-07-01",
              "end_date": "3999-12-31"
            }
          ]
        },
        "26772": {
          "id": 26772,
          "sector_id": 111,
          "start_date": "1955-12-01",
          "end_date": "1955-12-15",
          "names": [
            {
              "name": "Cirages Français 4% 1945, remb. À 5000 fr. (Jce 15/12/45) 1946-75",
              "start_date": "1946-07-31",
              "end_date": "1955-12-15"
            },
            {
              "name": "Cirages Français 4% 1945, remb. À 5000 fr. 1946-75",
              "start_date": "1950-01-03",
              "end_date": "1955-12-15"
            },
            {
              "name": "Cirages Français 6% (ex-4% 1945), remb. à 5000 fr. 1946-75",
              "start_date": "1953-01-26",
              "end_date": "1955-12-15"
            },
            {
              "name": "Cirages Français et Forges d'Hennebont (Sté Gle des) 6% (ex-4% 1945) (Tir. 6/9/55) r. le 15/12/55",
              "start_date": "1955-12-01",
              "end_date": "3999-12-31"
            }
          ]
        },
        "142930": {
          "id": 142930,
          "sector_id": 185,
          "start_date": "1946-07-31",
          "end_date": "1952-07-01",
          "names": [
            {
              "name": "Cirages Français 4% 1945, remb. À 5000 fr. (Jce 15/12/45) 1946-75",
              "start_date": "1946-07-31",
              "end_date": "1952-07-01"
            },
            {
              "name": "Cirages Français 4% 1945, remb. À 5000 fr. 1946-75",
              "start_date": "1946-07-31",
              "end_date": "1953-01-26"
            },
            {
              "name": "Cirages Français 6% (ex-4% 1945), remb. à 5000 fr. 1946-75",
              "start_date": "1946-07-31",
              "end_date": "1955-12-01"
            },
            {
              "name": "Cirages Français et Forges d'Hennebont (Sté Gle des) 6% (ex-4% 1945) (Tir. 6/9/55) r. le 15/12/55",
              "start_date": "1946-07-31",
              "end_date": "3999-12-31"
            }
          ]
        }
      },
      "listings_stats": {
        "start_date": "1946-07-31"
      },
      "spot_prices_stats": {
        "start_date": "1946-07-31",
        "end_date": "1955-11-30"
      }
    }
  },
  "prices_count": 221,
  "name": "Cirages Français 4% 1945, remb. À 5000 fr. 1946-75"
}