{
  "id": 4391,
  "share_type": {
    "id": 2,
    "name": "Bond (Obligation)"
  },
  "issuers": [
    {
      "id": 1920,
      "start_date": "1896-06-18",
      "end_date": "3999-12-31",
      "name": "ETATS : ROUMANIE"
    }
  ],
  "types": [
    {
      "start_date": "1896-06-18",
      "end_date": "3999-12-31",
      "id": 1001,
      "name": "Obligation ordinaire ou classique",
      "stock_group": "B"
    }
  ],
  "is_mainstock": 0,
  "prices_period": [
    "1896-06-18",
    "1930-03-15"
  ],
  "stock_exchanges": {
    "1": {
      "id": 1,
      "name": "Paris (Official List)",
      "notations": {
        "5490": {
          "id": 5490,
          "sector_id": 67,
          "start_date": "1896-06-18",
          "end_date": "1914-08-03",
          "names": [
            {
              "name": "Roumanie 4% amort. 1896 Obl. de 100 fr. de rente.",
              "start_date": "1896-06-18",
              "end_date": "1925-05-01"
            },
            {
              "name": "Roumanie 4% 1896 amortissable Oblig. 100 fr. rente",
              "start_date": "1896-06-18",
              "end_date": "3999-12-31"
            }
          ]
        },
        "6802": {
          "id": 6802,
          "sector_id": 67,
          "start_date": "1914-12-15",
          "end_date": "1925-05-01",
          "names": [
            {
              "name": "Roumanie 4% amort. 1896 Obl. de 100 fr. de rente.",
              "start_date": "1896-06-18",
              "end_date": "1925-05-01"
            },
            {
              "name": "Roumanie 4% 1896 amortissable Oblig. 100 fr. rente",
              "start_date": "1914-12-15",
              "end_date": "3999-12-31"
            }
          ]
        },
        "13357": {
          "id": 13357,
          "sector_id": 74,
          "start_date": "1925-05-01",
          "end_date": "1930-04-15",
          "names": [
            {
              "name": "Roumanie 4% amort. 1896 Obl. de 100 fr. de rente.",
              "start_date": "1896-06-18",
              "end_date": "1930-04-15"
            },
            {
              "name": "Roumanie 4% 1896 amortissable Oblig. 100 fr. rente",
              "start_date": "1925-05-01",
              "end_date": "3999-12-31"
            }
          ]
        }
      },
      "listings_stats": {
        "start_date": "1896-06-18"
      },
      "spot_prices_stats": {
        "start_date": "1896-06-18",
        "end_date": "1930-03-15"
      }
    }
  },
  "prices_count": 520,
  "name": "Roumanie 4% amort. 1896 Obl. de 100 fr. de rente."
}