{
  "id": 104046,
  "share_type": {
    "id": 1,
    "name": "Stock (Action)"
  },
  "issuers": [
    {
      "id": 1632,
      "start_date": "1942-06-25",
      "end_date": "1942-07-28",
      "name": "COMPAGNIE DES MINES D'ANICHE"
    }
  ],
  "types": [
    {
      "start_date": "1000-01-01",
      "end_date": "1942-07-15",
      "id": 18,
      "name": "Action",
      "stock_group": "S"
    }
  ],
  "is_mainstock": 0,
  "prices_period": [
    "1942-07-01",
    "1942-07-15"
  ],
  "stock_exchanges": {
    "1": {
      "id": 1,
      "name": "Paris (Official List)",
      "notations": {
        "204232": {
          "id": 204232,
          "sector_id": 103,
          "start_date": "1942-06-25",
          "end_date": "1942-07-28",
          "names": [
            {
              "name": "Mines d'Aniche, act. 500 fr., t. p. (titres nouv…tente verte) (dr. et c. 42 att.)",
              "start_date": "1942-06-25",
              "end_date": "1942-07-28"
            }
          ]
        }
      },
      "listings_stats": {
        "start_date": "1942-06-25"
      },
      "spot_prices_stats": {
        "start_date": "1942-07-01",
        "end_date": "1942-07-15"
      }
    }
  },
  "prices_count": 2,
  "name": "Mines d'Aniche, act. 500 fr., t. p. (titres nouv…tente verte) (dr. et c. 42 att.)"
}