{
  "id": 106504,
  "share_type": {
    "id": 1,
    "name": "Stock (Action)"
  },
  "issuers": [
    {
      "id": 671,
      "start_date": "1973-08-16",
      "end_date": "1973-10-01",
      "name": "Société Générale de CREDIT INDUSTRIEL ET COMMERCIAL"
    }
  ],
  "types": [
    {
      "start_date": "1973-08-16",
      "end_date": "1973-10-01",
      "id": 27,
      "name": "Promesse d'action",
      "stock_group": "S"
    }
  ],
  "is_mainstock": 0,
  "prices_period": [
    "1973-08-16",
    "1973-10-01"
  ],
  "stock_exchanges": {
    "1": {
      "id": 1,
      "name": "Paris (Official List)",
      "notations": {
        "207546": {
          "id": 207546,
          "sector_id": 333,
          "start_date": "1973-08-16",
          "end_date": "1973-10-01",
          "names": [
            {
              "name": "Crédit Industriel et Commercial, promesses (Jce 1/1/73)",
              "start_date": "1973-08-16",
              "end_date": "1973-10-01"
            }
          ]
        }
      },
      "listings_stats": {
        "start_date": "1973-08-16"
      },
      "spot_prices_stats": {
        "start_date": "1973-08-16",
        "end_date": "1973-10-01"
      }
    }
  },
  "prices_count": 4,
  "name": "Crédit Industriel et Commercial, promesses (Jce 1/1/73)"
}