{
  "id": 61,
  "share_type": {
    "id": 2,
    "name": "Bond (Obligation)"
  },
  "issuers": [
    {
      "id": 100,
      "start_date": "1801-08-12",
      "end_date": "3999-12-31",
      "name": "RENTES FRANÇAISES"
    }
  ],
  "types": [
    {
      "start_date": "1801-08-12",
      "end_date": "3999-12-31",
      "id": 1001,
      "name": "Obligation ordinaire ou classique",
      "stock_group": "B"
    }
  ],
  "is_mainstock": 0,
  "prices_period": [
    "1801-08-17",
    "1804-05-31"
  ],
  "stock_exchanges": {
    "1": {
      "id": 1,
      "name": "Paris (Official List)",
      "notations": {
        "74": {
          "id": 74,
          "sector_id": 10,
          "start_date": "1801-08-17",
          "end_date": "1806-04-10",
          "names": [
            {
              "name": "Ordonnances pour rachat de rentes",
              "start_date": "1801-08-12",
              "end_date": "3999-12-31"
            }
          ]
        }
      },
      "listings_stats": {
        "start_date": "1801-08-17"
      },
      "spot_prices_stats": {
        "start_date": "1801-08-17",
        "end_date": "1804-05-31"
      }
    }
  },
  "prices_count": 8,
  "name": "Ordonnances pour rachat de rentes"
}