{
  "id": 16528,
  "share_type": {
    "id": 1,
    "name": "Stock (Action)"
  },
  "issuers": [
    {
      "id": 4400,
      "start_date": "1962-01-02",
      "end_date": "3999-12-31",
      "name": "COMPAGNIE DES MACHINES BULL"
    }
  ],
  "types": [
    {
      "start_date": "1962-01-02",
      "end_date": "3999-12-31",
      "id": 18,
      "name": "Action",
      "stock_group": "S"
    }
  ],
  "is_mainstock": 0,
  "prices_period": [
    null,
    null
  ],
  "stock_exchanges": {
    "1": {
      "id": 1,
      "name": "Paris (Official List)",
      "notations": {
        "147103": {
          "id": 147103,
          "sector_id": 13,
          "start_date": "1962-01-02",
          "end_date": "1962-06-18",
          "names": [
            {
              "name": "Machines Bull, act. L 50 NF (n°s 1400751 à 1901001) (ex-dr., )",
              "start_date": "1962-01-02",
              "end_date": "3999-12-31"
            }
          ]
        }
      },
      "listings_stats": {
        "start_date": "1962-01-02"
      }
    }
  },
  "prices_count": 0,
  "name": "Machines Bull, act. L 50 NF (n°s 1400751 à 1901001) (ex-dr., )"
}