{
  "id": 40482,
  "share_type": {
    "id": 1,
    "name": "Stock (Action)"
  },
  "issuers": [
    {
      "id": 15483,
      "start_date": "1889-04-29",
      "end_date": "3999-12-31",
      "name": "Société Electrique des Pyrénées"
    }
  ],
  "types": [
    {
      "start_date": "1000-01-01",
      "end_date": "3999-12-31",
      "id": 21,
      "name": "Part de fondateur",
      "stock_group": "S"
    }
  ],
  "is_mainstock": 0,
  "prices_period": [
    null,
    null
  ],
  "stock_exchanges": {
    "1": {
      "id": 1,
      "name": "Paris (Official List)",
      "notations": {
        "155411": {
          "id": 155411,
          "sector_id": 120,
          "start_date": "1892-07-04",
          "end_date": "1900-12-03",
          "names": [
            {
              "name": "Société Electrique des Pyrénées, Parts de fondateur",
              "start_date": "1892-07-04",
              "end_date": "1900-12-03"
            }
          ]
        }
      },
      "listings_stats": {
        "start_date": "1892-07-04"
      }
    }
  },
  "prices_count": 0,
  "name": "Société Electrique des Pyrénées, Parts de fondateur"
}