{
  "id": 15855,
  "share_type": {
    "id": 1,
    "name": "Stock (Action)"
  },
  "issuers": [
    {
      "id": 1378,
      "start_date": "1959-04-16",
      "end_date": "3999-12-31",
      "name": "Compagnie des Salins du Midi"
    }
  ],
  "types": [
    {
      "start_date": "1959-04-16",
      "end_date": "3999-12-31",
      "id": 18,
      "name": "Action",
      "stock_group": "S"
    }
  ],
  "is_mainstock": 0,
  "prices_period": [
    "1959-04-17",
    "1959-07-31"
  ],
  "stock_exchanges": {
    "1": {
      "id": 1,
      "name": "Paris (Official List)",
      "notations": {
        "146430": {
          "id": 146430,
          "sector_id": 386,
          "start_date": "1959-04-16",
          "end_date": "1959-08-03",
          "names": [
            {
              "name": "Salins du midi, salines de djibouti, act, A (n 320001 à 400000)",
              "start_date": "1959-04-16",
              "end_date": "3999-12-31"
            }
          ]
        }
      },
      "listings_stats": {
        "start_date": "1959-04-16"
      },
      "spot_prices_stats": {
        "start_date": "1959-04-17",
        "end_date": "1959-07-31"
      }
    }
  },
  "prices_count": 8,
  "name": "Salins du midi, salines de djibouti, act, A (n 320001 à 400000)"
}