{
  "id": 25355,
  "share_type": {
    "id": 1,
    "name": "Stock (Action)"
  },
  "issuers": [
    {
      "id": 3154,
      "start_date": "1920-04-14",
      "end_date": "3999-12-31",
      "name": "FORGES ET ACIERIES DE HUTA-BANKOWA"
    }
  ],
  "types": [
    {
      "start_date": "1000-01-01",
      "end_date": "3999-12-31",
      "id": 18,
      "name": "Action",
      "stock_group": "S"
    }
  ],
  "is_mainstock": 0,
  "prices_period": [
    "1920-04-15",
    "1920-04-15"
  ],
  "stock_exchanges": {
    "1": {
      "id": 1,
      "name": "Paris (Official List)",
      "notations": {
        "90355": {
          "id": 90355,
          "sector_id": 104,
          "start_date": "1920-04-14",
          "end_date": "1920-04-21",
          "names": [
            {
              "name": "Forges et Aciéries de Huta-Bankowa, actions 500 fr., tout payé non estampillées",
              "start_date": "1920-04-14",
              "end_date": "3999-12-31"
            }
          ]
        }
      },
      "listings_stats": {
        "start_date": "1920-04-14"
      },
      "spot_prices_stats": {
        "start_date": "1920-04-15",
        "end_date": "1920-04-15"
      }
    }
  },
  "prices_count": 1,
  "name": "Forges et Aciéries de Huta-Bankowa, actions 500 fr., tout payé non estampillées"
}