{
  "id": 16479,
  "share_type": {
    "id": 1,
    "name": "Stock (Action)"
  },
  "issuers": [
    {
      "id": 3969,
      "start_date": "1961-01-16",
      "end_date": "3999-12-31",
      "name": "Société Centrale des Bois et des Scieries de la Manche"
    }
  ],
  "types": [
    {
      "start_date": "1961-01-16",
      "end_date": "3999-12-31",
      "id": 18,
      "name": "Action",
      "stock_group": "S"
    }
  ],
  "is_mainstock": 0,
  "prices_period": [
    "1961-01-16",
    "1961-01-16"
  ],
  "stock_exchanges": {
    "1": {
      "id": 1,
      "name": "Paris (Official List)",
      "notations": {
        "147054": {
          "id": 147054,
          "sector_id": 232,
          "start_date": "1961-01-16",
          "end_date": "1962-01-02",
          "names": [
            {
              "name": "Centrale des bois et des sciences de la manche, act",
              "start_date": "1961-01-16",
              "end_date": "3999-12-31"
            }
          ]
        }
      },
      "listings_stats": {
        "start_date": "1961-01-16"
      },
      "spot_prices_stats": {
        "start_date": "1961-01-16",
        "end_date": "1961-01-16"
      }
    }
  },
  "prices_count": 1,
  "name": "Centrale des bois et des sciences de la manche, act"
}