{
  "id": 12932,
  "share_type": {
    "id": 2,
    "name": "Bond (Obligation)"
  },
  "issuers": [
    {
      "id": 4102,
      "start_date": "1948-10-01",
      "end_date": "3999-12-31",
      "name": "Groupement pour la Reconstitution du Port de Boulogne-sur-mer et Industries Annexes"
    }
  ],
  "types": [
    {
      "start_date": "1948-10-01",
      "end_date": "3999-12-31",
      "id": 1001,
      "name": "Obligation ordinaire ou classique",
      "stock_group": "B"
    }
  ],
  "is_mainstock": 0,
  "prices_period": [
    "1948-10-01",
    "1950-01-31"
  ],
  "stock_exchanges": {
    "1": {
      "id": 1,
      "name": "Paris (Official List)",
      "notations": {
        "143507": {
          "id": 143507,
          "sector_id": 263,
          "start_date": "1948-10-01",
          "end_date": "1950-02-15",
          "names": [
            {
              "name": "Port de Boulogne-sur-mer et Industries Annexes (Gr pour la Reconstit. du) 4,75% fév. 1948, r. à 5000 fr. (Jouiss. 1/2/48) 1949-78",
              "start_date": "1948-10-01",
              "end_date": "1950-02-15"
            },
            {
              "name": "Port de Boulogne-sur-mer et Industries Annexes (Gr. Pour la Reconstit. Du) 4,75% février 1948, remb. À 5000 fr. 1949-78",
              "start_date": "1948-10-01",
              "end_date": "3999-12-31"
            }
          ]
        }
      },
      "listings_stats": {
        "start_date": "1948-10-01"
      },
      "spot_prices_stats": {
        "start_date": "1948-10-01",
        "end_date": "1950-01-31"
      }
    }
  },
  "prices_count": 31,
  "name": "Port de Boulogne-sur-mer et Industries Annexes (Gr. Pour la Reconstit. Du) 4,75% février 1948, remb. À 5000 fr. 1949-78"
}