{
  "id": 8661,
  "share_type": {
    "id": 2,
    "name": "Bond (Obligation)"
  },
  "issuers": [
    {
      "id": 3573,
      "start_date": "1929-04-18",
      "end_date": "3999-12-31",
      "name": "Société GÉNÉRALE FONCIÈRE"
    }
  ],
  "types": [
    {
      "start_date": "1929-04-18",
      "end_date": "3999-12-31",
      "id": 1001,
      "name": "Obligation ordinaire ou classique",
      "stock_group": "B"
    }
  ],
  "is_mainstock": 0,
  "prices_period": [
    "1929-04-18",
    "1948-09-30"
  ],
  "stock_exchanges": {
    "1": {
      "id": 1,
      "name": "Paris (Official List)",
      "notations": {
        "19240": {
          "id": 19240,
          "sector_id": 108,
          "start_date": "1940-10-14",
          "end_date": "1948-10-01",
          "names": [
            {
              "name": "Générale Foncière 6% 1928, remb. à 1000 fr.",
              "start_date": "1929-04-18",
              "end_date": "1948-10-01"
            },
            {
              "name": "Générale Foncière 6% 1928 (estamp. de la réduct. d'int.), remb. à 1000 fr.",
              "start_date": "1935-01-15",
              "end_date": "1948-10-01"
            },
            {
              "name": "Générale foncière 6% 1928, est., remboursables à 1000 fr. 1929-58",
              "start_date": "1940-10-14",
              "end_date": "1948-10-01"
            },
            {
              "name": "Générale Foncières 6% 1928, remboursables à 1085 fr. (Cf Avis n°s 16486, 18943 et 19771) 1929-57",
              "start_date": "1940-10-14",
              "end_date": "3999-12-31"
            }
          ]
        },
        "136108": {
          "id": 136108,
          "sector_id": 108,
          "start_date": "1929-04-18",
          "end_date": "1940-06-11",
          "names": [
            {
              "name": "Générale Foncière 6% 1928, remb. à 1000 fr.",
              "start_date": "1929-04-18",
              "end_date": "1940-06-11"
            },
            {
              "name": "Générale Foncière 6% 1928 (estamp. de la réduct. d'int.), remb. à 1000 fr.",
              "start_date": "1929-04-18",
              "end_date": "1940-10-14"
            },
            {
              "name": "Générale foncière 6% 1928, est., remboursables à 1000 fr. 1929-58",
              "start_date": "1929-04-18",
              "end_date": "1948-10-01"
            },
            {
              "name": "Générale Foncières 6% 1928, remboursables à 1085 fr. (Cf Avis n°s 16486, 18943 et 19771) 1929-57",
              "start_date": "1929-04-18",
              "end_date": "3999-12-31"
            }
          ]
        }
      },
      "listings_stats": {
        "start_date": "1929-04-18"
      },
      "spot_prices_stats": {
        "start_date": "1929-04-18",
        "end_date": "1948-09-30"
      }
    }
  },
  "prices_count": 422,
  "name": "Générale foncière 6% 1928, est., remboursables à 1000 fr. 1929-58"
}