{
  "id": 17506,
  "share_type": {
    "id": 1,
    "name": "Stock (Action)"
  },
  "issuers": [
    {
      "id": 4990,
      "start_date": "1962-01-02",
      "end_date": "3999-12-31",
      "name": "THE KUALA LUMPUR RUBBER COMPANY LTD"
    }
  ],
  "types": [
    {
      "start_date": "1962-01-02",
      "end_date": "3999-12-31",
      "id": 18,
      "name": "Action",
      "stock_group": "S"
    }
  ],
  "is_mainstock": 0,
  "prices_period": [
    "1962-01-02",
    "1964-05-15"
  ],
  "stock_exchanges": {
    "1": {
      "id": 1,
      "name": "Paris (Official List)",
      "notations": {
        "148081": {
          "id": 148081,
          "sector_id": 530,
          "start_date": "1962-01-02",
          "end_date": "1964-06-01",
          "names": [
            {
              "name": "Kuala Lumpur-Kepong Amalgamated, Ltd, Certif. De 200 act.DE £ 0: 2 :0",
              "start_date": "1962-01-02",
              "end_date": "3999-12-31"
            }
          ]
        }
      },
      "listings_stats": {
        "start_date": "1962-01-02"
      },
      "spot_prices_stats": {
        "start_date": "1962-01-02",
        "end_date": "1964-05-15"
      }
    }
  },
  "prices_count": 59,
  "name": "Kuala Lumpur-Kepong Amalgamated, Ltd, Certif. De 200 act.DE £ 0: 2 :0"
}