{
  "id": 103087,
  "share_type": {
    "id": 4,
    "name": "Rights (Droits)"
  },
  "issuers": [
    {
      "id": 3184,
      "start_date": "1000-01-01",
      "end_date": "1924-06-04",
      "name": "Société générale pour la Fabrication des Matières plastiques"
    }
  ],
  "types": [
    {
      "start_date": "1000-01-01",
      "end_date": "1924-06-04",
      "id": 501,
      "name": "Droit de souscription",
      "stock_group": "R"
    }
  ],
  "is_mainstock": 0,
  "prices_period": [
    "1924-05-15",
    "1924-05-30"
  ],
  "stock_exchanges": {
    "1": {
      "id": 1,
      "name": "Paris (Official List)",
      "notations": {
        "203269": {
          "id": 203269,
          "sector_id": 657,
          "start_date": "1924-05-15",
          "end_date": "1924-06-05",
          "names": [
            {
              "name": "Act. Sté Générale pour la Fabrication des Matières Plastiques ( droit et coupon 30)",
              "start_date": "1000-01-01",
              "end_date": "1924-06-05"
            }
          ]
        }
      },
      "listings_stats": {
        "start_date": "1924-05-15"
      },
      "spot_prices_stats": {
        "start_date": "1924-05-15",
        "end_date": "1924-05-30"
      }
    }
  },
  "prices_count": 0,
  "name": "Act. Sté Générale pour la Fabrication des Matières Plastiques ( droit et coupon 30)"
}