{
  "id": 9626,
  "share_type": {
    "id": 2,
    "name": "Bond (Obligation)"
  },
  "issuers": [
    {
      "id": 100,
      "start_date": "1932-09-22",
      "end_date": "3999-12-31",
      "name": "RENTES FRANÇAISES"
    }
  ],
  "types": [
    {
      "start_date": "1932-09-22",
      "end_date": "3999-12-31",
      "id": 1001,
      "name": "Obligation ordinaire ou classique",
      "stock_group": "B"
    }
  ],
  "is_mainstock": 0,
  "prices_period": [
    "1932-09-22",
    "1934-11-30"
  ],
  "stock_exchanges": {
    "1": {
      "id": 1,
      "name": "Paris (Official List)",
      "notations": {
        "140201": {
          "id": 140201,
          "sector_id": 196,
          "start_date": "1932-09-22",
          "end_date": "1935-01-02",
          "names": [
            {
              "name": "Obligations du Trésor 4,5% 1932-1947 (2e semestre)(Voir Avis p. 23)",
              "start_date": "1932-09-22",
              "end_date": "3999-12-31"
            }
          ]
        }
      },
      "listings_stats": {
        "start_date": "1932-09-22"
      },
      "spot_prices_stats": {
        "start_date": "1932-09-22",
        "end_date": "1934-11-30"
      }
    }
  },
  "prices_count": 53,
  "name": "Obligations du Trésor 4,5% 1932-1947 (2e semestre)(Voir Avis p. 23)"
}