{
  "id": 12125,
  "share_type": {
    "id": 2,
    "name": "Bond (Obligation)"
  },
  "issuers": [
    {
      "id": 2755,
      "start_date": "1945-02-19",
      "end_date": "3999-12-31",
      "name": "Société Industrielle de Produits Chimiques de Bozel-Lamotte"
    }
  ],
  "types": [
    {
      "start_date": "1945-02-19",
      "end_date": "3999-12-31",
      "id": 1001,
      "name": "Obligation ordinaire ou classique",
      "stock_group": "B"
    }
  ],
  "is_mainstock": 0,
  "prices_period": [
    "1945-02-19",
    "1969-03-17"
  ],
  "stock_exchanges": {
    "1": {
      "id": 1,
      "name": "Paris (Official List)",
      "notations": {
        "22053": {
          "id": 22053,
          "sector_id": 247,
          "start_date": "1948-06-30",
          "end_date": "1962-01-02",
          "names": [
            {
              "name": "Bozel-Malétra 4% 1944, remb. À 5000 fr. (Jce 10/1/45) 1947-76",
              "start_date": "1945-02-19",
              "end_date": "1962-01-02"
            },
            {
              "name": "Bozel-Malétra 4% 1944, remb. À 5000 fr. 1947-76",
              "start_date": "1948-06-30",
              "end_date": "1962-01-02"
            },
            {
              "name": "Bozel-Malétra 5% (ex-4%) 44, r. 5000 f. 1947-71",
              "start_date": "1948-06-30",
              "end_date": "1962-01-02"
            },
            {
              "name": "Bozel-Malétra 5% (ex-4%) 1944 (n°s 20001 à 35164) (Rach. Ou Tir.) 1947-71",
              "start_date": "1948-06-30",
              "end_date": "1962-01-02"
            },
            {
              "name": "Nobel-Bozel (ex-Bozel-Malétra) 5% (ex-4%) 1944 (n° 20001 à 35164) (Rach. Ou Tir.) 1947-71",
              "start_date": "1948-06-30",
              "end_date": "1962-12-28"
            },
            {
              "name": "Nobel-Bozel 5% (ex-4%) 1944 (n° 20001 à 35164) (Rach. Ou Tir.) 1947-71",
              "start_date": "1948-06-30",
              "end_date": "1969-03-31"
            },
            {
              "name": "Nozel-Bozel 5% (ex-4%) 1944 (n°s 20001 à 35164) (Tir. 30/5/68) 1947-71",
              "start_date": "1948-06-30",
              "end_date": "3999-12-31"
            }
          ]
        },
        "28573": {
          "id": 28573,
          "sector_id": 519,
          "start_date": "1962-01-02",
          "end_date": "1963-03-04",
          "names": [
            {
              "name": "Bozel-Malétra 4% 1944, remb. À 5000 fr. (Jce 10/1/45) 1947-76",
              "start_date": "1945-02-19",
              "end_date": "1963-03-04"
            },
            {
              "name": "Bozel-Malétra 4% 1944, remb. À 5000 fr. 1947-76",
              "start_date": "1948-06-30",
              "end_date": "1963-03-04"
            },
            {
              "name": "Bozel-Malétra 5% (ex-4%) 44, r. 5000 f. 1947-71",
              "start_date": "1953-10-20",
              "end_date": "1963-03-04"
            },
            {
              "name": "Bozel-Malétra 5% (ex-4%) 1944 (n°s 20001 à 35164) (Rach. Ou Tir.) 1947-71",
              "start_date": "1955-12-01",
              "end_date": "1963-03-04"
            },
            {
              "name": "Nobel-Bozel (ex-Bozel-Malétra) 5% (ex-4%) 1944 (n° 20001 à 35164) (Rach. Ou Tir.) 1947-71",
              "start_date": "1957-12-09",
              "end_date": "1963-03-04"
            },
            {
              "name": "Nobel-Bozel 5% (ex-4%) 1944 (n° 20001 à 35164) (Rach. Ou Tir.) 1947-71",
              "start_date": "1962-01-02",
              "end_date": "1969-03-31"
            },
            {
              "name": "Nozel-Bozel 5% (ex-4%) 1944 (n°s 20001 à 35164) (Tir. 30/5/68) 1947-71",
              "start_date": "1962-01-02",
              "end_date": "3999-12-31"
            }
          ]
        },
        "31307": {
          "id": 31307,
          "sector_id": 247,
          "start_date": "1963-03-04",
          "end_date": "1969-03-31",
          "names": [
            {
              "name": "Bozel-Malétra 4% 1944, remb. À 5000 fr. (Jce 10/1/45) 1947-76",
              "start_date": "1945-02-19",
              "end_date": "1969-03-31"
            },
            {
              "name": "Bozel-Malétra 4% 1944, remb. À 5000 fr. 1947-76",
              "start_date": "1948-06-30",
              "end_date": "1969-03-31"
            },
            {
              "name": "Bozel-Malétra 5% (ex-4%) 44, r. 5000 f. 1947-71",
              "start_date": "1953-10-20",
              "end_date": "1969-03-31"
            },
            {
              "name": "Bozel-Malétra 5% (ex-4%) 1944 (n°s 20001 à 35164) (Rach. Ou Tir.) 1947-71",
              "start_date": "1955-12-01",
              "end_date": "1969-03-31"
            },
            {
              "name": "Nobel-Bozel (ex-Bozel-Malétra) 5% (ex-4%) 1944 (n° 20001 à 35164) (Rach. Ou Tir.) 1947-71",
              "start_date": "1957-12-09",
              "end_date": "1969-03-31"
            },
            {
              "name": "Nobel-Bozel 5% (ex-4%) 1944 (n° 20001 à 35164) (Rach. Ou Tir.) 1947-71",
              "start_date": "1962-12-28",
              "end_date": "1969-03-31"
            },
            {
              "name": "Nozel-Bozel 5% (ex-4%) 1944 (n°s 20001 à 35164) (Tir. 30/5/68) 1947-71",
              "start_date": "1963-03-04",
              "end_date": "3999-12-31"
            }
          ]
        },
        "142700": {
          "id": 142700,
          "sector_id": 138,
          "start_date": "1945-02-19",
          "end_date": "1948-06-30",
          "names": [
            {
              "name": "Bozel-Malétra 4% 1944, remb. À 5000 fr. (Jce 10/1/45) 1947-76",
              "start_date": "1945-02-19",
              "end_date": "1948-06-30"
            },
            {
              "name": "Bozel-Malétra 4% 1944, remb. À 5000 fr. 1947-76",
              "start_date": "1945-02-19",
              "end_date": "1953-10-20"
            },
            {
              "name": "Bozel-Malétra 5% (ex-4%) 44, r. 5000 f. 1947-71",
              "start_date": "1945-02-19",
              "end_date": "1955-12-01"
            },
            {
              "name": "Bozel-Malétra 5% (ex-4%) 1944 (n°s 20001 à 35164) (Rach. Ou Tir.) 1947-71",
              "start_date": "1945-02-19",
              "end_date": "1957-12-09"
            },
            {
              "name": "Nobel-Bozel (ex-Bozel-Malétra) 5% (ex-4%) 1944 (n° 20001 à 35164) (Rach. Ou Tir.) 1947-71",
              "start_date": "1945-02-19",
              "end_date": "1962-12-28"
            },
            {
              "name": "Nobel-Bozel 5% (ex-4%) 1944 (n° 20001 à 35164) (Rach. Ou Tir.) 1947-71",
              "start_date": "1945-02-19",
              "end_date": "1969-03-31"
            },
            {
              "name": "Nozel-Bozel 5% (ex-4%) 1944 (n°s 20001 à 35164) (Tir. 30/5/68) 1947-71",
              "start_date": "1945-02-19",
              "end_date": "3999-12-31"
            }
          ]
        }
      },
      "listings_stats": {
        "start_date": "1945-02-19"
      },
      "spot_prices_stats": {
        "start_date": "1945-02-19",
        "end_date": "1969-03-17"
      }
    }
  },
  "prices_count": 591,
  "name": "Bozel-Malétra 5% (ex-4%) 1944 (n°s 20001 à 35164) (Rach. Ou Tir.) 1947-71"
}