{
  "id": 102204,
  "share_type": {
    "id": 4,
    "name": "Rights (Droits)"
  },
  "issuers": [
    {
      "id": 3048,
      "start_date": "1925-12-07",
      "end_date": "1925-12-23",
      "name": "Comptoir Lyon-Alemand"
    }
  ],
  "types": [
    {
      "start_date": "1925-12-07",
      "end_date": "1925-12-23",
      "id": 501,
      "name": "Droit de souscription",
      "stock_group": "R"
    }
  ],
  "is_mainstock": 0,
  "prices_period": [
    "1925-12-07",
    "1925-12-15"
  ],
  "stock_exchanges": {
    "1": {
      "id": 1,
      "name": "Paris (Official List)",
      "notations": {
        "202386": {
          "id": 202386,
          "sector_id": 657,
          "start_date": "1925-12-07",
          "end_date": "1925-12-24",
          "names": [
            {
              "name": "Act. Comptoir Lyon-Alemand (droit et coupon 30).",
              "start_date": "1925-12-07",
              "end_date": "1925-12-24"
            }
          ]
        }
      },
      "listings_stats": {
        "start_date": "1925-12-07"
      },
      "spot_prices_stats": {
        "start_date": "1925-12-07",
        "end_date": "1925-12-15"
      }
    }
  },
  "prices_count": 0,
  "name": "Act. Comptoir Lyon-Alemand (droit et coupon 30)."
}