{
  "id": 14686,
  "share_type": {
    "id": 2,
    "name": "Bond (Obligation)"
  },
  "issuers": [
    {
      "id": 2912,
      "start_date": "1954-11-25",
      "end_date": "3999-12-31",
      "name": "ETATS : ALGERIE"
    }
  ],
  "types": [
    {
      "start_date": "1954-11-25",
      "end_date": "3999-12-31",
      "id": 1001,
      "name": "Obligation ordinaire ou classique",
      "stock_group": "B"
    }
  ],
  "is_mainstock": 0,
  "prices_period": [
    "1954-11-25",
    "1963-10-31"
  ],
  "stock_exchanges": {
    "1": {
      "id": 1,
      "name": "Paris (Official List)",
      "notations": {
        "31573": {
          "id": 31573,
          "sector_id": 596,
          "start_date": "1963-03-04",
          "end_date": "1963-11-15",
          "names": [
            {
              "name": "Algérie Bons 6% 1953-54, remb. de 10000 fr. (n° 100001 à 122809) (c. 15/11/55 att.) 1954-63",
              "start_date": "1954-11-25",
              "end_date": "1963-11-15"
            },
            {
              "name": "Algérie Bons 6% 1953-54, remb. À 10000 fr. (n°s 100001 à 122809) 1954-63",
              "start_date": "1955-09-06",
              "end_date": "1963-11-15"
            },
            {
              "name": "Algérie Bon 6% 1953-1954 (n°s 100001 à 122809) (Tir. 12/9/55) 1954-63",
              "start_date": "1955-12-01",
              "end_date": "1963-11-15"
            },
            {
              "name": "Algérie Bons 6% 1953-54 (nos 100001 à 122809) (Tir. 10/9/62). 1954-63",
              "start_date": "1963-03-04",
              "end_date": "3999-12-31"
            }
          ]
        },
        "145261": {
          "id": 145261,
          "sector_id": 95,
          "start_date": "1954-11-25",
          "end_date": "1963-03-04",
          "names": [
            {
              "name": "Algérie Bons 6% 1953-54, remb. de 10000 fr. (n° 100001 à 122809) (c. 15/11/55 att.) 1954-63",
              "start_date": "1954-11-25",
              "end_date": "1963-03-04"
            },
            {
              "name": "Algérie Bons 6% 1953-54, remb. À 10000 fr. (n°s 100001 à 122809) 1954-63",
              "start_date": "1954-11-25",
              "end_date": "1963-03-04"
            },
            {
              "name": "Algérie Bon 6% 1953-1954 (n°s 100001 à 122809) (Tir. 12/9/55) 1954-63",
              "start_date": "1954-11-25",
              "end_date": "1963-11-15"
            },
            {
              "name": "Algérie Bons 6% 1953-54 (nos 100001 à 122809) (Tir. 10/9/62). 1954-63",
              "start_date": "1954-11-25",
              "end_date": "3999-12-31"
            }
          ]
        }
      },
      "listings_stats": {
        "start_date": "1954-11-25"
      },
      "spot_prices_stats": {
        "start_date": "1954-11-25",
        "end_date": "1963-10-31"
      }
    }
  },
  "prices_count": 233,
  "name": "Algérie Bon 6% 1953-1954 (n°s 100001 à 122809) (Tir. 12/9/55) 1954-63"
}