{
  "id": 4918,
  "share_type": {
    "id": 2,
    "name": "Bond (Obligation)"
  },
  "issuers": [
    {
      "id": 462,
      "start_date": "1906-07-20",
      "end_date": "3999-12-31",
      "name": "BELGIQUE"
    }
  ],
  "types": [
    {
      "start_date": "1906-07-20",
      "end_date": "3999-12-31",
      "id": 1001,
      "name": "Obligation ordinaire ou classique",
      "stock_group": "B"
    }
  ],
  "is_mainstock": 0,
  "prices_period": [
    "1906-07-31",
    "1949-12-30"
  ],
  "stock_exchanges": {
    "1": {
      "id": 1,
      "name": "Paris (Official List)",
      "notations": {
        "6017": {
          "id": 6017,
          "sector_id": 67,
          "start_date": "1906-07-20",
          "end_date": "1914-08-03",
          "names": [
            {
              "name": "Belgique 3% 1895-1898 et 1905, 1er série. C. de 150 fr. de rente",
              "start_date": "1906-07-20",
              "end_date": "1925-05-01"
            },
            {
              "name": "Belgique 3% 1895-1898-1905, 1re série C. 150 fr. rente",
              "start_date": "1906-07-20",
              "end_date": "1934-01-02"
            },
            {
              "name": "Belgique 3% 1895-1898-1905, 1re série. C. 5000 fr. capital. [Belgique 3% 1895-1898-1905, 1re série. Oblig. 5000 fr. capital]",
              "start_date": "1906-07-20",
              "end_date": "1944-10-10"
            },
            {
              "name": "Belgique 3% 1895-1898-1905, 1re sér. Oblig. 5000 fr. cap.",
              "start_date": "1906-07-20",
              "end_date": "3999-12-31"
            }
          ]
        },
        "6626": {
          "id": 6626,
          "sector_id": 67,
          "start_date": "1914-12-15",
          "end_date": "1925-05-01",
          "names": [
            {
              "name": "Belgique 3% 1895-1898 et 1905, 1er série. C. de 150 fr. de rente",
              "start_date": "1906-07-20",
              "end_date": "1925-05-01"
            },
            {
              "name": "Belgique 3% 1895-1898-1905, 1re série C. 150 fr. rente",
              "start_date": "1914-12-15",
              "end_date": "1934-01-02"
            },
            {
              "name": "Belgique 3% 1895-1898-1905, 1re série. C. 5000 fr. capital. [Belgique 3% 1895-1898-1905, 1re série. Oblig. 5000 fr. capital]",
              "start_date": "1914-12-15",
              "end_date": "1944-10-10"
            },
            {
              "name": "Belgique 3% 1895-1898-1905, 1re sér. Oblig. 5000 fr. cap.",
              "start_date": "1914-12-15",
              "end_date": "3999-12-31"
            }
          ]
        },
        "13152": {
          "id": 13152,
          "sector_id": 74,
          "start_date": "1925-05-01",
          "end_date": "1940-06-11",
          "names": [
            {
              "name": "Belgique 3% 1895-1898 et 1905, 1er série. C. de 150 fr. de rente",
              "start_date": "1906-07-20",
              "end_date": "1940-06-11"
            },
            {
              "name": "Belgique 3% 1895-1898-1905, 1re série C. 150 fr. rente",
              "start_date": "1925-05-01",
              "end_date": "1940-06-11"
            },
            {
              "name": "Belgique 3% 1895-1898-1905, 1re série. C. 5000 fr. capital. [Belgique 3% 1895-1898-1905, 1re série. Oblig. 5000 fr. capital]",
              "start_date": "1925-05-01",
              "end_date": "1944-10-10"
            },
            {
              "name": "Belgique 3% 1895-1898-1905, 1re sér. Oblig. 5000 fr. cap.",
              "start_date": "1925-05-01",
              "end_date": "3999-12-31"
            }
          ]
        },
        "22307": {
          "id": 22307,
          "sector_id": 74,
          "start_date": "1944-10-10",
          "end_date": "1950-01-16",
          "names": [
            {
              "name": "Belgique 3% 1895-1898 et 1905, 1er série. C. de 150 fr. de rente",
              "start_date": "1906-07-20",
              "end_date": "1950-01-16"
            },
            {
              "name": "Belgique 3% 1895-1898-1905, 1re série C. 150 fr. rente",
              "start_date": "1925-05-01",
              "end_date": "1950-01-16"
            },
            {
              "name": "Belgique 3% 1895-1898-1905, 1re série. C. 5000 fr. capital. [Belgique 3% 1895-1898-1905, 1re série. Oblig. 5000 fr. capital]",
              "start_date": "1934-01-02",
              "end_date": "1950-01-16"
            },
            {
              "name": "Belgique 3% 1895-1898-1905, 1re sér. Oblig. 5000 fr. cap.",
              "start_date": "1944-10-10",
              "end_date": "3999-12-31"
            }
          ]
        }
      },
      "listings_stats": {
        "start_date": "1906-07-20"
      },
      "spot_prices_stats": {
        "start_date": "1906-07-31",
        "end_date": "1949-12-30"
      }
    }
  },
  "prices_count": 533,
  "name": "Belgique 3% 1895-1898-1905, 1re série C. 150 fr. rente"
}