{
  "id": 19562,
  "share_type": {
    "id": 2,
    "name": "Bond (Obligation)"
  },
  "issuers": [
    {
      "id": 4232,
      "start_date": "1967-11-13",
      "end_date": "3999-12-31",
      "name": "SOURCE PERRIER"
    }
  ],
  "types": [
    {
      "start_date": "1967-11-13",
      "end_date": "3999-12-31",
      "id": 1001,
      "name": "Obligation ordinaire ou classique",
      "stock_group": "B"
    }
  ],
  "is_mainstock": 0,
  "prices_period": [
    "1967-10-02",
    "1971-07-15"
  ],
  "stock_exchanges": {
    "1": {
      "id": 1,
      "name": "Paris (Official List)",
      "notations": {
        "150137": {
          "id": 150137,
          "sector_id": 366,
          "start_date": "1967-10-02",
          "end_date": "1971-10-01",
          "names": [
            {
              "name": "PERRIER (Source) 1967 à interet crois. Et conv. En act. Du 1 oct. Au 31 Déc. 1970 inclus, r. 166,40 à F 185,60)(c. 1/10/68 att.)(Avis 67-469)",
              "start_date": "1967-10-02",
              "end_date": "1971-10-01"
            },
            {
              "name": "Perrier (Source) 6,50% 1967, rembours. 166,40 à F 185,60 (Avis 70-986) 1971-82",
              "start_date": "1967-10-02",
              "end_date": "3999-12-31"
            }
          ]
        }
      },
      "listings_stats": {
        "start_date": "1967-10-02"
      },
      "spot_prices_stats": {
        "start_date": "1967-10-02",
        "end_date": "1971-07-15"
      }
    }
  },
  "prices_count": 97,
  "name": "Perrier (Source) 6,50% 1967, rembours. 166,40 à F 185,60 (Avis 70-986) 1971-82"
}