{
  "id": 106527,
  "share_type": {
    "id": 1,
    "name": "Stock (Action)"
  },
  "issuers": [
    {
      "id": 5578,
      "start_date": "1975-07-15",
      "end_date": "1975-09-01",
      "name": "Océanique Radio"
    }
  ],
  "types": [
    {
      "start_date": "1975-07-15",
      "end_date": "1975-09-01",
      "id": 27,
      "name": "Promesse d'action",
      "stock_group": "S"
    }
  ],
  "is_mainstock": 0,
  "prices_period": [
    "1975-07-31",
    "1975-09-01"
  ],
  "stock_exchanges": {
    "1": {
      "id": 1,
      "name": "Paris (Official List)",
      "notations": {
        "207569": {
          "id": 207569,
          "sector_id": 347,
          "start_date": "1975-07-15",
          "end_date": "1975-09-01",
          "names": [
            {
              "name": "Océanic, act. Promesses (Jce 1/1/75)",
              "start_date": "1975-07-15",
              "end_date": "1975-09-01"
            }
          ]
        }
      },
      "listings_stats": {
        "start_date": "1975-07-15"
      },
      "spot_prices_stats": {
        "start_date": "1975-07-31",
        "end_date": "1975-09-01"
      }
    }
  },
  "prices_count": 3,
  "name": "Océanic, act. Promesses (Jce 1/1/75)"
}