{
  "id": 5203,
  "share_type": {
    "id": 1,
    "name": "Stock (Action)"
  },
  "issuers": [
    {
      "id": 3101,
      "start_date": "1902-06-30",
      "end_date": "3999-12-31",
      "name": "L'ÉCLAIRAGE ELECTRIQUE"
    }
  ],
  "types": [
    {
      "start_date": "1902-06-30",
      "end_date": "3999-12-31",
      "id": 18,
      "name": "Action",
      "stock_group": "S"
    }
  ],
  "is_mainstock": 0,
  "prices_period": [
    null,
    null
  ],
  "stock_exchanges": {
    "1": {
      "id": 1,
      "name": "Paris (Official List)",
      "notations": {
        "7024": {
          "id": 7024,
          "sector_id": 106,
          "start_date": "1902-06-30",
          "end_date": "1903-01-02",
          "names": [
            {
              "name": "L'Eclairage électrique, a. 500 f., t.p. n°6584 à 8000",
              "start_date": "1902-06-30",
              "end_date": "3999-12-31"
            }
          ]
        }
      },
      "listings_stats": {
        "start_date": "1902-06-30"
      }
    }
  },
  "prices_count": 0,
  "name": "L'Eclairage électrique, a. 500 f., t.p. n°6584 à 8000"
}