{
  "id": 8189,
  "share_type": {
    "id": 2,
    "name": "Bond (Obligation)"
  },
  "issuers": [
    {
      "id": 566,
      "start_date": "1926-10-20",
      "end_date": "3999-12-31",
      "name": "Crédit Foncier de France"
    }
  ],
  "types": [
    {
      "start_date": "1926-10-20",
      "end_date": "3999-12-31",
      "id": 1001,
      "name": "Obligation ordinaire ou classique",
      "stock_group": "B"
    }
  ],
  "is_mainstock": 0,
  "prices_period": [
    "1926-10-20",
    "1941-07-31"
  ],
  "stock_exchanges": {
    "1": {
      "id": 1,
      "name": "Paris (Official List)",
      "notations": {
        "135636": {
          "id": 135636,
          "sector_id": 190,
          "start_date": "1926-10-20",
          "end_date": "1941-08-18",
          "names": [
            {
              "name": "Crédit Foncier Emprunt 1926 7%, remb. à 1000 fr.",
              "start_date": "1926-10-20",
              "end_date": "1941-08-18"
            },
            {
              "name": "Oblig. Emprunt 1926 7%, remb. à 1000 fr.",
              "start_date": "1926-10-20",
              "end_date": "1941-08-18"
            },
            {
              "name": "Oblig. Emprunt 1926 de 500 fr. 7%, remb. à 1000 fr. par tirages",
              "start_date": "1926-10-20",
              "end_date": "1941-08-18"
            },
            {
              "name": "Emprunt 1926 de 500 fr. 7%, remb. À 1000 fr., par tirages. 1927-76.",
              "start_date": "1926-10-20",
              "end_date": "1941-08-18"
            },
            {
              "name": "Emprunt 1926 de 500 fr. 7% remb. à 1000 fr. par tirages sauf remb. anticipé au prix d'émission (480 fr.) plus valeur actuelle de la prime. 1927-76",
              "start_date": "1926-10-20",
              "end_date": "1941-08-18"
            },
            {
              "name": "Obligations 1926 de 500 fr. 7% émises à 480 fr., remb. à 603 fr. 045 brut plus le coupon le 16 août 1941",
              "start_date": "1926-10-20",
              "end_date": "3999-12-31"
            }
          ]
        }
      },
      "listings_stats": {
        "start_date": "1926-10-20"
      },
      "spot_prices_stats": {
        "start_date": "1926-10-20",
        "end_date": "1941-07-31"
      }
    }
  },
  "prices_count": 545,
  "name": "Oblig. Emprunt 1926 de 500 fr. 7%, remb. à 1000 fr. par tirages"
}