{
  "id": 4886,
  "share_type": {
    "id": 1,
    "name": "Stock (Action)"
  },
  "issuers": [
    {
      "id": 2709,
      "start_date": "1900-05-28",
      "end_date": "3999-12-31",
      "name": "SOCIÉTÉ HAVRAISE D'ÉNERGIE ÉLECTRIQUE"
    }
  ],
  "types": [
    {
      "start_date": "1900-05-28",
      "end_date": "3999-12-31",
      "id": 18,
      "name": "Action",
      "stock_group": "S"
    }
  ],
  "is_mainstock": 1,
  "prices_period": [
    "1900-05-28",
    "1951-05-15"
  ],
  "stock_exchanges": {
    "1": {
      "id": 1,
      "name": "Paris (Official List)",
      "notations": {
        "1845": {
          "id": 1845,
          "sector_id": 106,
          "start_date": "1902-05-26",
          "end_date": "1904-06-16",
          "names": [
            {
              "name": "L'Energie Electrique, act. 250 fr., t.p. (c.7 att.)",
              "start_date": "1900-05-28",
              "end_date": "1904-06-16"
            },
            {
              "name": "Société Havraise d'Energie Electrique, act. 250f., t.p. (c. 8 att.)",
              "start_date": "1901-06-27",
              "end_date": "1927-09-14"
            },
            {
              "name": "Havraise d'Energie Electrique, act. 250 fr., t.p.",
              "start_date": "1902-05-26",
              "end_date": "1927-09-15"
            },
            {
              "name": "Havraise d'Energie Electrique, act. 250 fr., t.p. (ex-dr., )",
              "start_date": "1902-05-26",
              "end_date": "1928-04-16"
            },
            {
              "name": "Havraise d'Energie Electrique, act. A 250 fr tp.",
              "start_date": "1902-05-26",
              "end_date": "1941-03-19"
            },
            {
              "name": "Havraise d'energie electrique, act. A 250 fr., t. p.",
              "start_date": "1902-05-26",
              "end_date": "1950-05-31"
            },
            {
              "name": "Havraise d'Energie Electrique, act. A 250 fr., t. p. (n°s 1 à 364206)",
              "start_date": "1902-05-26",
              "end_date": "1950-06-01"
            },
            {
              "name": "Havraise d'Energie Electrique, act. de Cap. ou jce (n°s 1 à 364206) (ex-dr.-oblig.)",
              "start_date": "1902-05-26",
              "end_date": "1951-05-21"
            },
            {
              "name": "Havraise d'Energie Electrique, act. De cap. (n°1 à 364206) ou jouiss. (n°1 à 84207) (ex-dr.-oblig.)",
              "start_date": "1902-05-26",
              "end_date": "3999-12-31"
            }
          ]
        },
        "5985": {
          "id": 5985,
          "sector_id": 73,
          "start_date": "1900-05-28",
          "end_date": "1902-05-26",
          "names": [
            {
              "name": "L'Energie Electrique, act. 250 fr., t.p. (c.7 att.)",
              "start_date": "1900-05-28",
              "end_date": "1902-05-26"
            },
            {
              "name": "Société Havraise d'Energie Electrique, act. 250f., t.p. (c. 8 att.)",
              "start_date": "1900-05-28",
              "end_date": "1927-09-14"
            },
            {
              "name": "Havraise d'Energie Electrique, act. 250 fr., t.p.",
              "start_date": "1900-05-28",
              "end_date": "1927-09-15"
            },
            {
              "name": "Havraise d'Energie Electrique, act. 250 fr., t.p. (ex-dr., )",
              "start_date": "1900-05-28",
              "end_date": "1928-04-16"
            },
            {
              "name": "Havraise d'Energie Electrique, act. A 250 fr tp.",
              "start_date": "1900-05-28",
              "end_date": "1941-03-19"
            },
            {
              "name": "Havraise d'energie electrique, act. A 250 fr., t. p.",
              "start_date": "1900-05-28",
              "end_date": "1950-05-31"
            },
            {
              "name": "Havraise d'Energie Electrique, act. A 250 fr., t. p. (n°s 1 à 364206)",
              "start_date": "1900-05-28",
              "end_date": "1950-06-01"
            },
            {
              "name": "Havraise d'Energie Electrique, act. de Cap. ou jce (n°s 1 à 364206) (ex-dr.-oblig.)",
              "start_date": "1900-05-28",
              "end_date": "1951-05-21"
            },
            {
              "name": "Havraise d'Energie Electrique, act. De cap. (n°1 à 364206) ou jouiss. (n°1 à 84207) (ex-dr.-oblig.)",
              "start_date": "1900-05-28",
              "end_date": "3999-12-31"
            }
          ]
        },
        "6340": {
          "id": 6340,
          "sector_id": 116,
          "start_date": "1904-06-16",
          "end_date": "1914-08-03",
          "names": [
            {
              "name": "L'Energie Electrique, act. 250 fr., t.p. (c.7 att.)",
              "start_date": "1900-05-28",
              "end_date": "1914-08-03"
            },
            {
              "name": "Société Havraise d'Energie Electrique, act. 250f., t.p. (c. 8 att.)",
              "start_date": "1901-06-27",
              "end_date": "1927-09-14"
            },
            {
              "name": "Havraise d'Energie Electrique, act. 250 fr., t.p.",
              "start_date": "1904-06-16",
              "end_date": "1927-09-15"
            },
            {
              "name": "Havraise d'Energie Electrique, act. 250 fr., t.p. (ex-dr., )",
              "start_date": "1904-06-16",
              "end_date": "1928-04-16"
            },
            {
              "name": "Havraise d'Energie Electrique, act. A 250 fr tp.",
              "start_date": "1904-06-16",
              "end_date": "1941-03-19"
            },
            {
              "name": "Havraise d'energie electrique, act. A 250 fr., t. p.",
              "start_date": "1904-06-16",
              "end_date": "1950-05-31"
            },
            {
              "name": "Havraise d'Energie Electrique, act. A 250 fr., t. p. (n°s 1 à 364206)",
              "start_date": "1904-06-16",
              "end_date": "1950-06-01"
            },
            {
              "name": "Havraise d'Energie Electrique, act. de Cap. ou jce (n°s 1 à 364206) (ex-dr.-oblig.)",
              "start_date": "1904-06-16",
              "end_date": "1951-05-21"
            },
            {
              "name": "Havraise d'Energie Electrique, act. De cap. (n°1 à 364206) ou jouiss. (n°1 à 84207) (ex-dr.-oblig.)",
              "start_date": "1904-06-16",
              "end_date": "3999-12-31"
            }
          ]
        },
        "9983": {
          "id": 9983,
          "sector_id": 116,
          "start_date": "1914-12-15",
          "end_date": "1928-04-17",
          "names": [
            {
              "name": "L'Energie Electrique, act. 250 fr., t.p. (c.7 att.)",
              "start_date": "1900-05-28",
              "end_date": "1928-04-17"
            },
            {
              "name": "Société Havraise d'Energie Electrique, act. 250f., t.p. (c. 8 att.)",
              "start_date": "1901-06-27",
              "end_date": "1928-04-17"
            },
            {
              "name": "Havraise d'Energie Electrique, act. 250 fr., t.p.",
              "start_date": "1914-12-15",
              "end_date": "1928-04-17"
            },
            {
              "name": "Havraise d'Energie Electrique, act. 250 fr., t.p. (ex-dr., )",
              "start_date": "1914-12-15",
              "end_date": "1928-04-17"
            },
            {
              "name": "Havraise d'Energie Electrique, act. A 250 fr tp.",
              "start_date": "1914-12-15",
              "end_date": "1941-03-19"
            },
            {
              "name": "Havraise d'energie electrique, act. A 250 fr., t. p.",
              "start_date": "1914-12-15",
              "end_date": "1950-05-31"
            },
            {
              "name": "Havraise d'Energie Electrique, act. A 250 fr., t. p. (n°s 1 à 364206)",
              "start_date": "1914-12-15",
              "end_date": "1950-06-01"
            },
            {
              "name": "Havraise d'Energie Electrique, act. de Cap. ou jce (n°s 1 à 364206) (ex-dr.-oblig.)",
              "start_date": "1914-12-15",
              "end_date": "1951-05-21"
            },
            {
              "name": "Havraise d'Energie Electrique, act. De cap. (n°1 à 364206) ou jouiss. (n°1 à 84207) (ex-dr.-oblig.)",
              "start_date": "1914-12-15",
              "end_date": "3999-12-31"
            }
          ]
        },
        "155057": {
          "id": 155057,
          "sector_id": 116,
          "start_date": "1928-04-17",
          "end_date": "1951-05-31",
          "names": [
            {
              "name": "L'Energie Electrique, act. 250 fr., t.p. (c.7 att.)",
              "start_date": "1900-05-28",
              "end_date": "1951-05-31"
            },
            {
              "name": "Société Havraise d'Energie Electrique, act. 250f., t.p. (c. 8 att.)",
              "start_date": "1901-06-27",
              "end_date": "1951-05-31"
            },
            {
              "name": "Havraise d'Energie Electrique, act. 250 fr., t.p.",
              "start_date": "1927-09-14",
              "end_date": "1951-05-31"
            },
            {
              "name": "Havraise d'Energie Electrique, act. 250 fr., t.p. (ex-dr., )",
              "start_date": "1927-09-15",
              "end_date": "1951-05-31"
            },
            {
              "name": "Havraise d'Energie Electrique, act. A 250 fr tp.",
              "start_date": "1928-04-16",
              "end_date": "1951-05-31"
            },
            {
              "name": "Havraise d'energie electrique, act. A 250 fr., t. p.",
              "start_date": "1928-04-17",
              "end_date": "1951-05-31"
            },
            {
              "name": "Havraise d'Energie Electrique, act. A 250 fr., t. p. (n°s 1 à 364206)",
              "start_date": "1928-04-17",
              "end_date": "1951-05-31"
            },
            {
              "name": "Havraise d'Energie Electrique, act. de Cap. ou jce (n°s 1 à 364206) (ex-dr.-oblig.)",
              "start_date": "1928-04-17",
              "end_date": "1951-05-31"
            },
            {
              "name": "Havraise d'Energie Electrique, act. De cap. (n°1 à 364206) ou jouiss. (n°1 à 84207) (ex-dr.-oblig.)",
              "start_date": "1928-04-17",
              "end_date": "3999-12-31"
            }
          ]
        }
      },
      "listings_stats": {
        "start_date": "1900-05-28"
      },
      "spot_prices_stats": {
        "start_date": "1900-05-28",
        "end_date": "1951-05-15"
      }
    }
  },
  "prices_count": 1753,
  "name": "Havraise d'Energie Electrique, act. 250 fr., t.p. (ex-dr., )"
}