{
  "id": 10829,
  "share_type": {
    "id": 2,
    "name": "Bond (Obligation)"
  },
  "issuers": [
    {
      "id": 450,
      "start_date": "1936-05-11",
      "end_date": "3999-12-31",
      "name": "Dette d'Autriche"
    }
  ],
  "types": [
    {
      "start_date": "1936-05-11",
      "end_date": "3999-12-31",
      "id": 1001,
      "name": "Obligation ordinaire ou classique",
      "stock_group": "B"
    }
  ],
  "is_mainstock": 0,
  "prices_period": [
    "1936-05-15",
    "1937-12-31"
  ],
  "stock_exchanges": {
    "1": {
      "id": 1,
      "name": "Paris (Official List)",
      "notations": {
        "141404": {
          "id": 141404,
          "sector_id": 167,
          "start_date": "1936-05-11",
          "end_date": "1940-06-11",
          "names": [
            {
              "name": "Autriche, Emprunt Intern. garanti 5.5% 1933-1953 (Gar. Par Etat franç.) 1000 fr. nominal (Oblig. de 1000 et de 5000 fr.)",
              "start_date": "1936-05-11",
              "end_date": "3999-12-31"
            }
          ]
        }
      },
      "forward_prices_stats": {
        "start_date": "1936-05-15",
        "end_date": "1937-12-31"
      },
      "listings_stats": {
        "start_date": "1936-05-11"
      }
    }
  },
  "prices_count": 80,
  "name": "Autriche, Emprunt Intern. garanti 5.5% 1933-1953 (Gar. Par Etat franç.) 1000 fr. nominal (Oblig. de 1000 et de 5000 fr.)"
}