{
  "id": 20835,
  "share_type": {
    "id": 2,
    "name": "Bond (Obligation)"
  },
  "issuers": [
    {
      "id": 3951,
      "start_date": "1972-01-31",
      "end_date": "3999-12-31",
      "name": "Manufacture française des Pneumatiques Michelin (Puiseux, Durin et Cie)"
    }
  ],
  "types": [
    {
      "start_date": "1972-01-31",
      "end_date": "3999-12-31",
      "id": 1001,
      "name": "Obligation ordinaire ou classique",
      "stock_group": "B"
    }
  ],
  "is_mainstock": 0,
  "prices_period": [
    "1972-01-31",
    "1976-12-31"
  ],
  "stock_exchanges": {
    "1": {
      "id": 1,
      "name": "Paris (Official List)",
      "notations": {
        "151405": {
          "id": 151405,
          "sector_id": 509,
          "start_date": "1972-01-31",
          "end_date": "3999-12-31",
          "names": [
            {
              "name": "Manufact Française des Pneumatiques, 8,75% 1971 (séries A à J) (c. 4/10/72 att.) (Avis 72-56)…1980-89",
              "start_date": "1972-01-31",
              "end_date": "3999-12-31"
            }
          ]
        }
      },
      "listings_stats": {
        "start_date": "1972-01-31"
      },
      "spot_prices_stats": {
        "start_date": "1972-01-31",
        "end_date": "1976-12-31"
      }
    }
  },
  "prices_count": 122,
  "name": "Manufact Française des Pneumatiques, 8,75% 1971 (séries A à J) (c. 4/10/72 att.) (Avis 72-56)…1980-89"
}