{
  "id": 102867,
  "share_type": {
    "id": 4,
    "name": "Rights (Droits)"
  },
  "issuers": [
    {
      "id": 4225,
      "start_date": "1931-11-03",
      "end_date": "1931-11-17",
      "name": "COMPAGN E DU PORT DE FEDALA"
    }
  ],
  "types": [
    {
      "start_date": "1931-11-03",
      "end_date": "1931-11-17",
      "id": 501,
      "name": "Droit de souscription",
      "stock_group": "R"
    }
  ],
  "is_mainstock": 0,
  "prices_period": [
    "1931-11-16",
    "1931-11-16"
  ],
  "stock_exchanges": {
    "1": {
      "id": 1,
      "name": "Paris (Official List)",
      "notations": {
        "203049": {
          "id": 203049,
          "sector_id": 657,
          "start_date": "1931-11-03",
          "end_date": "1931-11-18",
          "names": [
            {
              "name": "Act. Port de Fedhala (droit et coup. 4). Pour 1 act. Ancienne, 1 action nouvelle émise à 500 francs",
              "start_date": "1931-11-03",
              "end_date": "1931-11-18"
            }
          ]
        }
      },
      "listings_stats": {
        "start_date": "1931-11-03"
      },
      "spot_prices_stats": {
        "start_date": "1931-11-16",
        "end_date": "1931-11-16"
      }
    }
  },
  "prices_count": 2,
  "name": "Act. Port de Fedhala (droit et coup. 4). Pour 1 act. Ancienne, 1 action nouvelle émise à 500 francs"
}