{
  "id": 35076,
  "share_type": {
    "id": 2,
    "name": "Bond (Obligation)"
  },
  "issuers": [
    {
      "id": 2375,
      "start_date": "1972-05-24",
      "end_date": "3999-12-31",
      "name": "CREDIT COMMERCIAL DE FRANCE"
    }
  ],
  "types": [
    {
      "start_date": "1972-05-24",
      "end_date": "3999-12-31",
      "id": 1002,
      "name": "Obligation convertible",
      "stock_group": "B"
    }
  ],
  "is_mainstock": 0,
  "prices_period": [
    null,
    null
  ],
  "stock_exchanges": {
    "1": {
      "id": 1,
      "name": "Paris (Official List)",
      "notations": {
        "152937": {
          "id": 152937,
          "sector_id": 471,
          "start_date": "1972-05-24",
          "end_date": "3999-12-31",
          "names": [
            {
              "name": "Crédit Commercial de France 1971 de 175 F à intérêt croissant et convertible en act à tout moment à partir du 6/12/72 (c. 1/1/73 att.) (Avis 72-6)",
              "start_date": "1972-05-24",
              "end_date": "3999-12-31"
            }
          ]
        }
      },
      "listings_stats": {
        "start_date": "1972-05-24"
      }
    }
  },
  "prices_count": 0,
  "name": "Crédit Commercial de France 1971 de 175 F à intérêt croissant et convertible en act à tout moment à partir du 6/12/72 (c. 1/1/73 att.) (Avis 72-6)"
}