{
  "id": 11817,
  "share_type": {
    "id": 2,
    "name": "Bond (Obligation)"
  },
  "issuers": [
    {
      "id": 5250,
      "start_date": "1942-04-07",
      "end_date": "3999-12-31",
      "name": "SOCIÉTÉ NATIONALE DES CHEMINS DE FER FRANÇAIS"
    }
  ],
  "types": [
    {
      "start_date": "1942-04-07",
      "end_date": "3999-12-31",
      "id": 1001,
      "name": "Obligation ordinaire ou classique",
      "stock_group": "B"
    }
  ],
  "is_mainstock": 0,
  "prices_period": [
    "1942-04-07",
    "1951-08-31"
  ],
  "stock_exchanges": {
    "1": {
      "id": 1,
      "name": "Paris (Official List)",
      "notations": {
        "142392": {
          "id": 142392,
          "sector_id": 209,
          "start_date": "1942-04-07",
          "end_date": "1951-09-03",
          "names": [
            {
              "name": "S.N.C.F Société Nationale des Chemins de fer Français 4% 1941, remb. À 1000 fr. 1942-91",
              "start_date": "1942-04-07",
              "end_date": "1951-09-03"
            },
            {
              "name": "S. N. C. F. Société Nationale des Chemins de fer Français 4% 1941 anc., r. à 1000 f. . 1942-91",
              "start_date": "1942-04-07",
              "end_date": "3999-12-31"
            }
          ]
        }
      },
      "listings_stats": {
        "start_date": "1942-04-07"
      },
      "spot_prices_stats": {
        "start_date": "1942-04-07",
        "end_date": "1951-08-31"
      }
    }
  },
  "prices_count": 211,
  "name": "S.N.C.F Société Nationale des Chemins de fer Français 4% 1941, remb. À 1000 fr. 1942-91"
}