{
  "id": 15779,
  "share_type": {
    "id": 1,
    "name": "Stock (Action)"
  },
  "issuers": [
    {
      "id": 2534,
      "start_date": "1959-02-11",
      "end_date": "3999-12-31",
      "name": "Compagnie continentale Edison"
    }
  ],
  "types": [
    {
      "start_date": "1959-02-11",
      "end_date": "3999-12-31",
      "id": 18,
      "name": "Action",
      "stock_group": "S"
    }
  ],
  "is_mainstock": 0,
  "prices_period": [
    "1959-02-11",
    "1959-07-15"
  ],
  "stock_exchanges": {
    "1": {
      "id": 1,
      "name": "Paris (Official List)",
      "notations": {
        "146354": {
          "id": 146354,
          "sector_id": 347,
          "start_date": "1959-02-11",
          "end_date": "1959-07-17",
          "names": [
            {
              "name": "Edison, act (n 47701 à 143100)(c 10 barré att)",
              "start_date": "1959-02-11",
              "end_date": "1959-07-17"
            },
            {
              "name": "Edison (cie continentale), act (n 47701 à 143100)(c 10 spec att)",
              "start_date": "1959-02-11",
              "end_date": "3999-12-31"
            }
          ]
        }
      },
      "listings_stats": {
        "start_date": "1959-02-11"
      },
      "spot_prices_stats": {
        "start_date": "1959-02-11",
        "end_date": "1959-07-15"
      }
    }
  },
  "prices_count": 13,
  "name": "Edison, act (n 47701 à 143100)(c 10 barré att)"
}