{
  "id": 2276,
  "share_type": {
    "id": 2,
    "name": "Bond (Obligation)"
  },
  "issuers": [
    {
      "id": 979,
      "start_date": "1870-03-07",
      "end_date": "3999-12-31",
      "name": "Compagnie des Chemins de fer du Sud de l'Autriche"
    }
  ],
  "types": [
    {
      "start_date": "1870-03-07",
      "end_date": "3999-12-31",
      "id": 1001,
      "name": "Obligation ordinaire ou classique",
      "stock_group": "B"
    }
  ],
  "is_mainstock": 0,
  "prices_period": [
    "1870-03-07",
    "1872-12-16"
  ],
  "stock_exchanges": {
    "1": {
      "id": 1,
      "name": "Paris (Official List)",
      "notations": {
        "3375": {
          "id": 3375,
          "sector_id": 83,
          "start_date": "1870-03-07",
          "end_date": "1872-12-25",
          "names": [
            {
              "name": "Bons Lombards, série n°8, r. de 1872 à 74",
              "start_date": "1870-03-07",
              "end_date": "1872-12-25"
            },
            {
              "name": "Remboursables à 500fr Bons Lombards, série n°8, r. de 1872 à 74",
              "start_date": "1870-03-07",
              "end_date": "3999-12-31"
            }
          ]
        }
      },
      "listings_stats": {
        "start_date": "1870-03-07"
      },
      "spot_prices_stats": {
        "start_date": "1870-03-07",
        "end_date": "1872-12-16"
      }
    }
  },
  "prices_count": 107,
  "name": "Bons Lombards, série n°8, r. de 1872 à 74"
}