{
  "id": 105202,
  "share_type": {
    "id": 2,
    "name": "Bond (Obligation)"
  },
  "issuers": [
    {
      "id": 1254,
      "start_date": "1890-07-15",
      "end_date": "1896-01-04",
      "name": "ETATS : MEXIQUE"
    }
  ],
  "types": [
    {
      "start_date": "1890-07-15",
      "end_date": "1895-12-31",
      "id": 1001,
      "name": "Obligation ordinaire ou classique",
      "stock_group": "B"
    }
  ],
  "is_mainstock": 0,
  "prices_period": [
    "1890-07-15",
    "1896-01-04"
  ],
  "stock_exchanges": {
    "2": {
      "id": 2,
      "name": "Paris OTC (Coulisse)",
      "notations": {
        "205880": {
          "id": 205880,
          "sector_id": 663,
          "start_date": "1890-07-15",
          "end_date": "1896-01-04",
          "names": [
            {
              "name": "Mexicaine (certif. petits bleus",
              "start_date": "1890-07-15",
              "end_date": "1896-01-04"
            }
          ]
        }
      },
      "listings_stats": {
        "start_date": "1890-07-15"
      },
      "spot_prices_stats": {
        "start_date": "1890-07-15",
        "end_date": "1896-01-04"
      }
    }
  },
  "prices_count": 136,
  "name": "Mexicaine (certif. petits bleus"
}