{
  "id": 8536,
  "share_type": {
    "id": 2,
    "name": "Bond (Obligation)"
  },
  "issuers": [
    {
      "id": 118,
      "start_date": "1929-03-05",
      "end_date": "3999-12-31",
      "name": "Trois Ponts sur la Seine"
    }
  ],
  "types": [
    {
      "start_date": "1929-03-05",
      "end_date": "3999-12-31",
      "id": 1001,
      "name": "Obligation ordinaire ou classique",
      "stock_group": "B"
    }
  ],
  "is_mainstock": 0,
  "prices_period": [
    "1929-03-05",
    "1929-04-02"
  ],
  "stock_exchanges": {
    "1": {
      "id": 1,
      "name": "Paris (Official List)",
      "notations": {
        "135983": {
          "id": 135983,
          "sector_id": 79,
          "start_date": "1929-03-05",
          "end_date": "1929-04-11",
          "names": [
            {
              "name": "Ville de Paris 1921 5,75%, net d'impôts, cinquièmes, série B",
              "start_date": "1929-03-05",
              "end_date": "3999-12-31"
            }
          ]
        }
      },
      "listings_stats": {
        "start_date": "1929-03-05"
      },
      "spot_prices_stats": {
        "start_date": "1929-03-05",
        "end_date": "1929-04-02"
      }
    }
  },
  "prices_count": 3,
  "name": "Ville de Paris 1921 5,75%, net d'impôts, cinquièmes, série B"
}