{
  "id": 21692,
  "share_type": {
    "id": 1,
    "name": "Stock (Action)"
  },
  "issuers": [
    {
      "id": 324,
      "start_date": "1976-03-30",
      "end_date": "3999-12-31",
      "name": "LA FRANCE Compagnie d'assurances contre l'incendie"
    }
  ],
  "types": [
    {
      "start_date": "1976-03-30",
      "end_date": "3999-12-31",
      "id": 18,
      "name": "Action",
      "stock_group": "S"
    }
  ],
  "is_mainstock": 0,
  "prices_period": [
    "1976-03-30",
    "1976-06-15"
  ],
  "stock_exchanges": {
    "1": {
      "id": 1,
      "name": "Paris (Official List)",
      "notations": {
        "152257": {
          "id": 152257,
          "sector_id": 96,
          "start_date": "1976-03-30",
          "end_date": "1976-07-01",
          "names": [
            {
              "name": "France (La) (I.A.R.D.), act. (n° 300001 à 400000) (nom) (Jce 1/1/76)",
              "start_date": "1976-03-30",
              "end_date": "3999-12-31"
            }
          ]
        }
      },
      "listings_stats": {
        "start_date": "1976-03-30"
      },
      "spot_prices_stats": {
        "start_date": "1976-03-30",
        "end_date": "1976-06-15"
      }
    }
  },
  "prices_count": 7,
  "name": "France (La) (I.A.R.D.), act. (n° 300001 à 400000) (nom) (Jce 1/1/76)"
}