{
  "id": 102248,
  "share_type": {
    "id": 4,
    "name": "Rights (Droits)"
  },
  "issuers": [
    {
      "id": 10996,
      "start_date": "1930-02-01",
      "end_date": "1930-02-19",
      "name": "J. DUPONT ET CIE"
    }
  ],
  "types": [
    {
      "start_date": "1930-02-01",
      "end_date": "1930-02-19",
      "id": 501,
      "name": "Droit de souscription",
      "stock_group": "R"
    }
  ],
  "is_mainstock": 0,
  "prices_period": [
    "1930-02-05",
    "1930-02-15"
  ],
  "stock_exchanges": {
    "1": {
      "id": 1,
      "name": "Paris (Official List)",
      "notations": {
        "202430": {
          "id": 202430,
          "sector_id": 657,
          "start_date": "1930-02-01",
          "end_date": "1930-02-20",
          "names": [
            {
              "name": "Act. de cap. de jouiss. Sté J. Dupont et Cie (droit et coupon 1). Pour 4 actions anc. de cap. ou de jouiss., 1 action nouvelle émise à 700 francs",
              "start_date": "1930-02-01",
              "end_date": "1930-02-20"
            }
          ]
        }
      },
      "listings_stats": {
        "start_date": "1930-02-01"
      },
      "spot_prices_stats": {
        "start_date": "1930-02-05",
        "end_date": "1930-02-15"
      }
    }
  },
  "prices_count": 2,
  "name": "Act. de cap. de jouiss. Sté J. Dupont et Cie (droit et coupon 1). Pour 4 actions anc. de cap. ou de jouiss., 1 action nouvelle émise à 700 francs"
}