{
  "id": 3298,
  "share_type": {
    "id": 2,
    "name": "Bond (Obligation)"
  },
  "issuers": [
    {
      "id": 2576,
      "start_date": "1882-04-03",
      "end_date": "3999-12-31",
      "name": "Société industrielle et commerciale des métaux (anciens établissements J.-J. Laveissière et fils et E. Secrétan"
    }
  ],
  "types": [
    {
      "start_date": "1882-04-03",
      "end_date": "3999-12-31",
      "id": 1001,
      "name": "Obligation ordinaire ou classique",
      "stock_group": "B"
    }
  ],
  "is_mainstock": 0,
  "prices_period": [
    "1882-04-03",
    "1893-10-16"
  ],
  "stock_exchanges": {
    "1": {
      "id": 1,
      "name": "Paris (Official List)",
      "notations": {
        "4397": {
          "id": 4397,
          "sector_id": 70,
          "start_date": "1882-04-03",
          "end_date": "1893-01-06",
          "names": [
            {
              "name": "Métaux (Soc.industrielle et commerciale des) anciens établissements Laveissière et Secrétan, 5% remb.à 500fr.",
              "start_date": "1882-04-03",
              "end_date": "1893-01-06"
            },
            {
              "name": "Métaux (Société ind. et commerciale des) (en liq.)",
              "start_date": "1882-04-03",
              "end_date": "1920-01-02"
            }
          ]
        },
        "155682": {
          "id": 155682,
          "sector_id": 121,
          "start_date": "1893-01-02",
          "end_date": "1894-01-22",
          "names": [
            {
              "name": "Métaux (Soc.industrielle et commerciale des) anciens établissements Laveissière et Secrétan, 5% remb.à 500fr.",
              "start_date": "1882-04-03",
              "end_date": "1894-01-22"
            },
            {
              "name": "Métaux (Société ind. et commerciale des) (en liq.)",
              "start_date": "1893-01-02",
              "end_date": "1920-01-02"
            }
          ]
        }
      },
      "listings_stats": {
        "start_date": "1882-04-03"
      },
      "spot_prices_stats": {
        "start_date": "1882-04-03",
        "end_date": "1893-10-16"
      }
    }
  },
  "prices_count": 239,
  "name": "Métaux (Société ind. et commerciale des) (en liq.)"
}