{
  "id": 9718,
  "share_type": {
    "id": 1,
    "name": "Stock (Action)"
  },
  "issuers": [
    {
      "id": 2696,
      "start_date": "1930-12-18",
      "end_date": "3999-12-31",
      "name": "CIE DISTRIBUTION D'ÉNERGIE ÉLECTRIQUE"
    }
  ],
  "types": [
    {
      "start_date": "1930-12-18",
      "end_date": "3999-12-31",
      "id": 11,
      "name": "Action ordinaire",
      "stock_group": "S"
    }
  ],
  "is_mainstock": 0,
  "prices_period": [
    "1930-12-18",
    "1954-12-31"
  ],
  "stock_exchanges": {
    "1": {
      "id": 1,
      "name": "Paris (Official List)",
      "notations": {
        "20282": {
          "id": 20282,
          "sector_id": 117,
          "start_date": "1940-10-14",
          "end_date": "1955-01-10",
          "names": [
            {
              "name": "Union d'Electricité 4,5% 1930, remb. à 1000 fr.",
              "start_date": "1930-12-18",
              "end_date": "1955-01-10"
            },
            {
              "name": "Union d'électricité 4,5% 1930, r. à 1000 fr. 1931-70",
              "start_date": "1940-10-14",
              "end_date": "1955-01-10"
            },
            {
              "name": "Union d’Electricité 4,5% 1930, remb. à 1000 fr. . le 10/01/55",
              "start_date": "1940-10-14",
              "end_date": "3999-12-31"
            }
          ]
        },
        "140293": {
          "id": 140293,
          "sector_id": 117,
          "start_date": "1930-12-18",
          "end_date": "1940-06-11",
          "names": [
            {
              "name": "Union d'Electricité 4,5% 1930, remb. à 1000 fr.",
              "start_date": "1930-12-18",
              "end_date": "1940-10-14"
            },
            {
              "name": "Union d'électricité 4,5% 1930, r. à 1000 fr. 1931-70",
              "start_date": "1930-12-18",
              "end_date": "1955-01-10"
            },
            {
              "name": "Union d’Electricité 4,5% 1930, remb. à 1000 fr. . le 10/01/55",
              "start_date": "1930-12-18",
              "end_date": "3999-12-31"
            }
          ]
        }
      },
      "listings_stats": {
        "start_date": "1930-12-18"
      },
      "spot_prices_stats": {
        "start_date": "1930-12-18",
        "end_date": "1954-12-31"
      }
    }
  },
  "prices_count": 646,
  "name": "Union d'Electricité 4,5% 1930, remb. à 1000 fr."
}