{
  "id": 102254,
  "share_type": {
    "id": 4,
    "name": "Rights (Droits)"
  },
  "issuers": [
    {
      "id": 2960,
      "start_date": "1935-07-01",
      "end_date": "1935-07-12",
      "name": "DINAMITE NOBEL"
    }
  ],
  "types": [
    {
      "start_date": "1935-07-01",
      "end_date": "1935-07-12",
      "id": 501,
      "name": "Droit de souscription",
      "stock_group": "R"
    }
  ],
  "is_mainstock": 0,
  "prices_period": [
    "1935-07-04",
    "1935-07-04"
  ],
  "stock_exchanges": {
    "1": {
      "id": 1,
      "name": "Paris (Official List)",
      "notations": {
        "202436": {
          "id": 202436,
          "sector_id": 657,
          "start_date": "1935-07-01",
          "end_date": "1935-07-13",
          "names": [
            {
              "name": "Act. de cap. et de jouiss. Dinamite Nobel (droit à la souscription et coupon 25). Pour 5 actions anc. de cap. ou de jouiss., 1 action nouvelle émise à 102,5 lire",
              "start_date": "1935-07-01",
              "end_date": "1935-07-13"
            }
          ]
        }
      },
      "listings_stats": {
        "start_date": "1935-07-01"
      },
      "spot_prices_stats": {
        "start_date": "1935-07-04",
        "end_date": "1935-07-04"
      }
    }
  },
  "prices_count": 1,
  "name": "Act. de cap. et de jouiss. Dinamite Nobel (droit à la souscription et coupon 25). Pour 5 actions anc. de cap. ou de jouiss., 1 action nouvelle émise à 102,5 lire"
}