{
  "id": 19387,
  "share_type": {
    "id": 2,
    "name": "Bond (Obligation)"
  },
  "issuers": [
    {
      "id": 4565,
      "start_date": "1967-05-02",
      "end_date": "3999-12-31",
      "name": "Toulousaine financiere et industrielle du Sud-ouest (tofinso)"
    }
  ],
  "types": [
    {
      "start_date": "1967-05-02",
      "end_date": "3999-12-31",
      "id": 1001,
      "name": "Obligation ordinaire ou classique",
      "stock_group": "B"
    }
  ],
  "is_mainstock": 0,
  "prices_period": [
    "1967-05-02",
    "1976-12-31"
  ],
  "stock_exchanges": {
    "1": {
      "id": 1,
      "name": "Paris (Official List)",
      "notations": {
        "149962": {
          "id": 149962,
          "sector_id": 615,
          "start_date": "1967-05-02",
          "end_date": "3999-12-31",
          "names": [
            {
              "name": "Bordeaux_Bourse T.O.F.I.N.S.O. (Sté Toulousaine Financière et Industrielle du Sud-Ouest) 6,25% 1966, remb. À 432 F (c. 27/6/67 att.) (Tir. 2/5/67) 1966-81",
              "start_date": "1967-05-02",
              "end_date": "3999-12-31"
            }
          ]
        }
      },
      "listings_stats": {
        "start_date": "1967-05-02"
      },
      "spot_prices_stats": {
        "start_date": "1967-05-02",
        "end_date": "1976-12-31"
      }
    }
  },
  "prices_count": 232,
  "name": "Bordeaux_Bourse T.O.F.I.N.S.O. (Sté Toulousaine Financière et Industrielle du Sud-Ouest) 6,25% 1966, remb. À 432 F (c. 27/6/67 att.) (Tir. 2/5/67) 1966-81"
}