{
  "id": 25426,
  "share_type": {
    "id": 1,
    "name": "Stock (Action)"
  },
  "issuers": [
    {
      "id": 4381,
      "start_date": "1921-01-30",
      "end_date": "3999-12-31",
      "name": "COMPAGNIE GENERALE DE TELEGRAPHIE SANS FIL"
    }
  ],
  "types": [
    {
      "start_date": "1000-01-01",
      "end_date": "3999-12-31",
      "id": 18,
      "name": "Action",
      "stock_group": "S"
    }
  ],
  "is_mainstock": 0,
  "prices_period": [
    "1921-01-31",
    "1921-01-31"
  ],
  "stock_exchanges": {
    "1": {
      "id": 1,
      "name": "Paris (Official List)",
      "notations": {
        "90426": {
          "id": 90426,
          "sector_id": 116,
          "start_date": "1921-01-30",
          "end_date": "1921-02-01",
          "names": [
            {
              "name": "Télégraphie sans fil (Cie Gle) a.500f., t.p. (droit et 3 coup attachés)",
              "start_date": "1921-01-30",
              "end_date": "3999-12-31"
            }
          ]
        }
      },
      "listings_stats": {
        "start_date": "1921-01-30"
      },
      "spot_prices_stats": {
        "start_date": "1921-01-31",
        "end_date": "1921-01-31"
      }
    }
  },
  "prices_count": 1,
  "name": "Télégraphie sans fil (Cie Gle) a.500f., t.p. (droit et 3 coup attachés)"
}