{
  "id": 21559,
  "share_type": {
    "id": 2,
    "name": "Bond (Obligation)"
  },
  "issuers": [
    {
      "id": 5175,
      "start_date": "1975-06-16",
      "end_date": "3999-12-31",
      "name": "Groupement de l'industrie chimique de synthese"
    }
  ],
  "types": [
    {
      "start_date": "1975-06-16",
      "end_date": "3999-12-31",
      "id": 1001,
      "name": "Obligation ordinaire ou classique",
      "stock_group": "B"
    }
  ],
  "is_mainstock": 0,
  "prices_period": [
    "1975-06-17",
    "1976-12-31"
  ],
  "stock_exchanges": {
    "1": {
      "id": 1,
      "name": "Paris (Official List)",
      "notations": {
        "152124": {
          "id": 152124,
          "sector_id": 247,
          "start_date": "1975-06-16",
          "end_date": "3999-12-31",
          "names": [
            {
              "name": "Groupement de l'Industrie Chimique 11,5% 1975 de 1000F (c.9/4/76 att.) (avis 75-400)1983-90",
              "start_date": "1975-06-16",
              "end_date": "3999-12-31"
            }
          ]
        }
      },
      "listings_stats": {
        "start_date": "1975-06-16"
      },
      "spot_prices_stats": {
        "start_date": "1975-06-17",
        "end_date": "1976-12-31"
      }
    }
  },
  "prices_count": 38,
  "name": "Groupement de l'Industrie Chimique 11,5% 1975 de 1000F (c.9/4/76 att.) (avis 75-400)1983-90"
}