{
  "id": 20786,
  "share_type": {
    "id": 2,
    "name": "Bond (Obligation)"
  },
  "issuers": [
    {
      "id": 3488,
      "start_date": "1972-03-28",
      "end_date": "3999-12-31",
      "name": "Electricité de France ()"
    }
  ],
  "types": [
    {
      "start_date": "1972-03-28",
      "end_date": "3999-12-31",
      "id": 1001,
      "name": "Obligation ordinaire ou classique",
      "stock_group": "B"
    }
  ],
  "is_mainstock": 0,
  "prices_period": [
    "1972-03-28",
    "1976-12-31"
  ],
  "stock_exchanges": {
    "1": {
      "id": 1,
      "name": "Paris (Official List)",
      "notations": {
        "100039": {
          "id": 100039,
          "sector_id": 620,
          "start_date": "1973-07-31",
          "end_date": "3999-12-31",
          "names": [
            {
              "name": "Electricité de France 8,5% janvier 1972 (c. 3/2/73 att.), remb à 500 F le 3/2/87 (Avis 72-194)",
              "start_date": "1972-03-28",
              "end_date": "3999-12-31"
            },
            {
              "name": "Electricité de France 8,50% janvier 1972 de 500 F (Avis 72-194). Remb. À 500 F le 3/2/87",
              "start_date": "1973-07-31",
              "end_date": "3999-12-31"
            }
          ]
        },
        "151356": {
          "id": 151356,
          "sector_id": 59,
          "start_date": "1972-03-28",
          "end_date": "1973-07-31",
          "names": [
            {
              "name": "Electricité de France 8,5% janvier 1972 (c. 3/2/73 att.), remb à 500 F le 3/2/87 (Avis 72-194)",
              "start_date": "1972-03-28",
              "end_date": "1973-07-31"
            },
            {
              "name": "Electricité de France 8,50% janvier 1972 de 500 F (Avis 72-194). Remb. À 500 F le 3/2/87",
              "start_date": "1972-03-28",
              "end_date": "3999-12-31"
            }
          ]
        }
      },
      "listings_stats": {
        "start_date": "1972-03-28"
      },
      "spot_prices_stats": {
        "start_date": "1972-03-28",
        "end_date": "1976-12-31"
      }
    }
  },
  "prices_count": 123,
  "name": "Electricité de France 8,50% janvier 1972 de 500 F (Avis 72-194). Remb. À 500 F le 3/2/87"
}