{
  "id": 4337,
  "share_type": {
    "id": 2,
    "name": "Bond (Obligation)"
  },
  "issuers": [
    {
      "id": 461,
      "start_date": "1895-11-16",
      "end_date": "3999-12-31",
      "name": "ETATS : RUSSIE"
    }
  ],
  "types": [
    {
      "start_date": "1895-11-16",
      "end_date": "3999-12-31",
      "id": 1001,
      "name": "Obligation ordinaire ou classique",
      "stock_group": "B"
    }
  ],
  "is_mainstock": 0,
  "prices_period": [
    "1895-11-16",
    "1896-10-15"
  ],
  "stock_exchanges": {
    "1": {
      "id": 1,
      "name": "Paris (Official List)",
      "notations": {
        "5436": {
          "id": 5436,
          "sector_id": 67,
          "start_date": "1895-11-16",
          "end_date": "1896-10-24",
          "names": [
            {
              "name": "Russie 3,5% or 1894. Gr. Coup.",
              "start_date": "1895-11-16",
              "end_date": "3999-12-31"
            }
          ]
        }
      },
      "listings_stats": {
        "start_date": "1895-11-16"
      },
      "spot_prices_stats": {
        "start_date": "1895-11-16",
        "end_date": "1896-10-15"
      }
    }
  },
  "prices_count": 50,
  "name": "Russie 3,5% or 1894. Gr. Coup."
}