{
  "id": 3259,
  "share_type": {
    "id": 2,
    "name": "Bond (Obligation)"
  },
  "issuers": [
    {
      "id": 566,
      "start_date": "1882-06-20",
      "end_date": "3999-12-31",
      "name": "Crédit Foncier de France"
    },
    {
      "id": 1732,
      "start_date": "1880-02-02",
      "end_date": "1882-06-20",
      "name": "Banque Hypothécaire de France"
    }
  ],
  "types": [
    {
      "start_date": "1880-02-02",
      "end_date": "3999-12-31",
      "id": 1001,
      "name": "Obligation ordinaire ou classique",
      "stock_group": "B"
    }
  ],
  "is_mainstock": 0,
  "prices_period": [
    "1880-02-02",
    "1882-09-30"
  ],
  "stock_exchanges": {
    "1": {
      "id": 1,
      "name": "Paris (Official List)",
      "notations": {
        "4358": {
          "id": 4358,
          "sector_id": 70,
          "start_date": "1880-02-02",
          "end_date": "1882-10-11",
          "names": [
            {
              "name": "Banq.Hypoth.de France, Obl.rappt 15f. Et r.à 1000f., titre prov.lib.de 60f.",
              "start_date": "1880-02-02",
              "end_date": "3999-12-31"
            }
          ]
        }
      },
      "listings_stats": {
        "start_date": "1880-02-02"
      },
      "spot_prices_stats": {
        "start_date": "1880-02-02",
        "end_date": "1882-09-30"
      }
    }
  },
  "prices_count": 151,
  "name": "Banq.Hypoth.de France, Obl.rappt 15f. Et r.à 1000f., titre prov.lib.de 60f."
}