{
  "id": 21653,
  "share_type": {
    "id": 3,
    "name": "OPTIONS"
  },
  "issuers": [
    {
      "id": 4407,
      "start_date": "1975-07-11",
      "end_date": "3999-12-31",
      "name": "Société industrielle des procédés Loth"
    }
  ],
  "types": [
    {
      "start_date": "1975-07-11",
      "end_date": "3999-12-31",
      "id": 2,
      "name": "Option",
      "stock_group": "M"
    }
  ],
  "is_mainstock": 0,
  "prices_period": [
    null,
    null
  ],
  "stock_exchanges": {
    "1": {
      "id": 1,
      "name": "Paris (Official List)",
      "notations": {
        "152218": {
          "id": 152218,
          "sector_id": 604,
          "start_date": "1975-07-11",
          "end_date": "1975-07-16",
          "names": [
            {
              "name": "T.R.T.",
              "start_date": "1975-07-11",
              "end_date": "3999-12-31"
            }
          ]
        }
      },
      "listings_stats": {
        "start_date": "1975-07-11"
      }
    }
  },
  "prices_count": 0,
  "name": "T.R.T."
}