{
  "id": 8529,
  "share_type": {
    "id": 2,
    "name": "Bond (Obligation)"
  },
  "issuers": [
    {
      "id": 497,
      "start_date": "1928-10-09",
      "end_date": "3999-12-31",
      "name": "Compagnie des Chemins de fer de l'Est"
    }
  ],
  "types": [
    {
      "start_date": "1928-10-09",
      "end_date": "3999-12-31",
      "id": 1001,
      "name": "Obligation ordinaire ou classique",
      "stock_group": "B"
    }
  ],
  "is_mainstock": 0,
  "prices_period": [
    "1928-10-09",
    "1948-04-30"
  ],
  "stock_exchanges": {
    "1": {
      "id": 1,
      "name": "Paris (Official List)",
      "notations": {
        "16195": {
          "id": 16195,
          "sector_id": 209,
          "start_date": "1936-05-11",
          "end_date": "1940-06-11",
          "names": [
            {
              "name": "EST 5% remb. à 1000 fr., type 1921, tranche 1 [Intérêts et amortissements assurés par le fonds commun à tous les grands réseaux et par le Trésor Public]",
              "start_date": "1928-10-09",
              "end_date": "1940-06-11"
            },
            {
              "name": "Est, 5%, type 1921, tranche A, remb. à 1000 fr",
              "start_date": "1936-05-11",
              "end_date": "1940-10-14"
            },
            {
              "name": "Est 5%, type 1921, tranche A, r. à 1000 fr. 1929-82",
              "start_date": "1936-05-11",
              "end_date": "3999-12-31"
            }
          ]
        },
        "19302": {
          "id": 19302,
          "sector_id": 209,
          "start_date": "1940-07-30",
          "end_date": "1948-05-18",
          "names": [
            {
              "name": "EST 5% remb. à 1000 fr., type 1921, tranche 1 [Intérêts et amortissements assurés par le fonds commun à tous les grands réseaux et par le Trésor Public]",
              "start_date": "1928-10-09",
              "end_date": "1948-05-18"
            },
            {
              "name": "Est, 5%, type 1921, tranche A, remb. à 1000 fr",
              "start_date": "1936-05-11",
              "end_date": "1948-05-18"
            },
            {
              "name": "Est 5%, type 1921, tranche A, r. à 1000 fr. 1929-82",
              "start_date": "1940-07-30",
              "end_date": "3999-12-31"
            }
          ]
        },
        "135976": {
          "id": 135976,
          "sector_id": 107,
          "start_date": "1928-10-09",
          "end_date": "1936-05-11",
          "names": [
            {
              "name": "EST 5% remb. à 1000 fr., type 1921, tranche 1 [Intérêts et amortissements assurés par le fonds commun à tous les grands réseaux et par le Trésor Public]",
              "start_date": "1928-10-09",
              "end_date": "1936-05-11"
            },
            {
              "name": "Est, 5%, type 1921, tranche A, remb. à 1000 fr",
              "start_date": "1928-10-09",
              "end_date": "1940-10-14"
            },
            {
              "name": "Est 5%, type 1921, tranche A, r. à 1000 fr. 1929-82",
              "start_date": "1928-10-09",
              "end_date": "3999-12-31"
            }
          ]
        }
      },
      "listings_stats": {
        "start_date": "1928-10-09"
      },
      "spot_prices_stats": {
        "start_date": "1928-10-09",
        "end_date": "1948-04-30"
      }
    }
  },
  "prices_count": 676,
  "name": "Est, 5%, type 1921, tranche A, remb. à 1000 fr"
}