{
  "id": 15338,
  "share_type": {
    "id": 1,
    "name": "Stock (Action)"
  },
  "issuers": [
    {
      "id": 3777,
      "start_date": "1956-07-02",
      "end_date": "3999-12-31",
      "name": "Sucreries d'Outre-Mer \"Société Agricole, Commerciale et Industrielle\""
    }
  ],
  "types": [
    {
      "start_date": "1956-07-02",
      "end_date": "3999-12-31",
      "id": 11,
      "name": "Action ordinaire",
      "stock_group": "S"
    }
  ],
  "is_mainstock": 0,
  "prices_period": [
    "1956-07-02",
    "1958-07-01"
  ],
  "stock_exchanges": {
    "1": {
      "id": 1,
      "name": "Paris (Official List)",
      "notations": {
        "145913": {
          "id": 145913,
          "sector_id": 453,
          "start_date": "1956-07-02",
          "end_date": "1958-07-15",
          "names": [
            {
              "name": "Sucreries d'outre-Mer (Sté Agricole, Commerciale et Industrielle), act.",
              "start_date": "1956-07-02",
              "end_date": "1958-07-15"
            },
            {
              "name": "Sucreries d'Outre-Mer (Sté Agricole, Commerciale et Industrielle), act. Anc.",
              "start_date": "1956-07-02",
              "end_date": "3999-12-31"
            }
          ]
        }
      },
      "listings_stats": {
        "start_date": "1956-07-02"
      },
      "spot_prices_stats": {
        "start_date": "1956-07-02",
        "end_date": "1958-07-01"
      }
    }
  },
  "prices_count": 61,
  "name": "Sucreries d'outre-Mer (Sté Agricole, Commerciale et Industrielle), act."
}