{
  "id": 14719,
  "share_type": {
    "id": 1,
    "name": "Stock (Action)"
  },
  "issuers": [
    {
      "id": 3771,
      "start_date": "1954-11-29",
      "end_date": "3999-12-31",
      "name": "Brasseries de la Côte d'Ivoire"
    }
  ],
  "types": [
    {
      "start_date": "1954-11-29",
      "end_date": "3999-12-31",
      "id": 11,
      "name": "Action ordinaire",
      "stock_group": "S"
    }
  ],
  "is_mainstock": 0,
  "prices_period": [
    "1954-11-29",
    "1957-07-31"
  ],
  "stock_exchanges": {
    "1": {
      "id": 1,
      "name": "Paris (Official List)",
      "notations": {
        "25731": {
          "id": 25731,
          "sector_id": 391,
          "start_date": "1955-12-01",
          "end_date": "1957-08-01",
          "names": [
            {
              "name": "Brasserie de la Cote d'Ivoire \"Bracodi\" (Sté des), Act. anc. 1000 fr. C.F.A., t. p.",
              "start_date": "1954-11-29",
              "end_date": "1957-08-01"
            },
            {
              "name": "Brasseries de la Côte d'Ivoire \" Bracodi \" (Sté des), Act. anc.",
              "start_date": "1955-12-01",
              "end_date": "3999-12-31"
            }
          ]
        },
        "145294": {
          "id": 145294,
          "sector_id": 273,
          "start_date": "1954-11-29",
          "end_date": "1955-12-01",
          "names": [
            {
              "name": "Brasserie de la Cote d'Ivoire \"Bracodi\" (Sté des), Act. anc. 1000 fr. C.F.A., t. p.",
              "start_date": "1954-11-29",
              "end_date": "1955-12-01"
            },
            {
              "name": "Brasseries de la Côte d'Ivoire \" Bracodi \" (Sté des), Act. anc.",
              "start_date": "1954-11-29",
              "end_date": "3999-12-31"
            }
          ]
        }
      },
      "listings_stats": {
        "start_date": "1954-11-29"
      },
      "spot_prices_stats": {
        "start_date": "1954-11-29",
        "end_date": "1957-07-31"
      }
    }
  },
  "prices_count": 83,
  "name": "Brasseries de la Côte d'Ivoire \" Bracodi \" (Sté des), Act. anc."
}