{
  "id": 105806,
  "share_type": {
    "id": 1,
    "name": "Stock (Action)"
  },
  "issuers": [
    {
      "id": 2697,
      "start_date": "1938-07-06",
      "end_date": "3999-12-31",
      "name": "SOCIÉTÉ D'ECLAIRAGE ET DE FORCE PAR L'ÉLECTRICITÉ A PARIS"
    }
  ],
  "types": [
    {
      "start_date": "1938-07-06",
      "end_date": "1938-07-15",
      "id": 18,
      "name": "Action",
      "stock_group": "S"
    }
  ],
  "is_mainstock": 0,
  "prices_period": [
    "1938-07-15",
    "1938-07-15"
  ],
  "stock_exchanges": {
    "1": {
      "id": 1,
      "name": "Paris (Official List)",
      "notations": {
        "206667": {
          "id": 206667,
          "sector_id": 116,
          "start_date": "1938-07-06",
          "end_date": "1938-07-18",
          "names": [
            {
              "name": "Eclairage et de Force par l'Electricité à Paris, act. 250 fr., t.p. (dr. et c. 22 att.)",
              "start_date": "1938-07-06",
              "end_date": "1938-07-18"
            }
          ]
        }
      },
      "listings_stats": {
        "start_date": "1938-07-06"
      },
      "spot_prices_stats": {
        "start_date": "1938-07-15",
        "end_date": "1938-07-15"
      }
    }
  },
  "prices_count": 1,
  "name": "Eclairage et de Force par l'Electricité à Paris, act. 250 fr., t.p. (dr. et c. 22 att.)"
}