{
  "id": 13466,
  "share_type": {
    "id": 1,
    "name": "Stock (Action)"
  },
  "issuers": [
    {
      "id": 4112,
      "start_date": "1950-01-18",
      "end_date": "3999-12-31",
      "name": "ETABLISSEMENTS DELATTRE ET FROUARD REUNIS"
    }
  ],
  "types": [
    {
      "start_date": "1950-01-18",
      "end_date": "3999-12-31",
      "id": 18,
      "name": "Action",
      "stock_group": "S"
    }
  ],
  "is_mainstock": 0,
  "prices_period": [
    "1950-01-23",
    "1961-05-31"
  ],
  "stock_exchanges": {
    "1": {
      "id": 1,
      "name": "Paris (Official List)",
      "notations": {
        "25866": {
          "id": 25866,
          "sector_id": 397,
          "start_date": "1955-12-01",
          "end_date": "1961-06-06",
          "names": [
            {
              "name": "Delattre et Frouard Réunis (Etabl.), act. 2500 fr., t.p. (n°s 320001 à 400000) (c. 21 att.)",
              "start_date": "1950-01-18",
              "end_date": "1961-06-06"
            },
            {
              "name": "Dellatre et Frouard Réunis (Etablissements), act. (n°s 320001 à 640000)",
              "start_date": "1955-12-01",
              "end_date": "1961-06-06"
            },
            {
              "name": "Delattre et frouard réunis (etabl), act anc (n 320001 à 720000)(ex-dr, )",
              "start_date": "1955-12-01",
              "end_date": "3999-12-31"
            }
          ]
        },
        "144041": {
          "id": 144041,
          "sector_id": 104,
          "start_date": "1950-01-18",
          "end_date": "1955-12-01",
          "names": [
            {
              "name": "Delattre et Frouard Réunis (Etabl.), act. 2500 fr., t.p. (n°s 320001 à 400000) (c. 21 att.)",
              "start_date": "1950-01-18",
              "end_date": "1955-12-01"
            },
            {
              "name": "Dellatre et Frouard Réunis (Etablissements), act. (n°s 320001 à 640000)",
              "start_date": "1950-01-18",
              "end_date": "1960-09-15"
            },
            {
              "name": "Delattre et frouard réunis (etabl), act anc (n 320001 à 720000)(ex-dr, )",
              "start_date": "1950-01-18",
              "end_date": "3999-12-31"
            }
          ]
        }
      },
      "listings_stats": {
        "start_date": "1950-01-18"
      },
      "spot_prices_stats": {
        "start_date": "1950-01-23",
        "end_date": "1961-05-31"
      }
    }
  },
  "prices_count": 302,
  "name": "Delattre et frouard réunis (etabl), act anc (n 320001 à 720000)(ex-dr, )"
}