{
  "id": 3552,
  "share_type": {
    "id": 2,
    "name": "Bond (Obligation)"
  },
  "issuers": [
    {
      "id": 2684,
      "start_date": "1889-08-12",
      "end_date": "3999-12-31",
      "name": "SUEDE"
    }
  ],
  "types": [
    {
      "start_date": "1889-08-12",
      "end_date": "3999-12-31",
      "id": 1001,
      "name": "Obligation ordinaire ou classique",
      "stock_group": "B"
    }
  ],
  "is_mainstock": 0,
  "prices_period": [
    "1893-10-31",
    "1895-03-15"
  ],
  "stock_exchanges": {
    "1": {
      "id": 1,
      "name": "Paris (Official List)",
      "notations": {
        "4651": {
          "id": 4651,
          "sector_id": 67,
          "start_date": "1889-08-12",
          "end_date": "1895-09-19",
          "names": [
            {
              "name": "Suède 1880, 4% r. à 504 f. (1re, 2e et 3e séries)(nég. ch. fixe 25f10) Obl. de 1000",
              "start_date": "1889-08-12",
              "end_date": "3999-12-31"
            }
          ]
        }
      },
      "listings_stats": {
        "start_date": "1889-08-12"
      },
      "spot_prices_stats": {
        "start_date": "1893-10-31",
        "end_date": "1895-03-15"
      }
    }
  },
  "prices_count": 4,
  "name": "Suède 1880, 4% r. à 504 f. (1re, 2e et 3e séries)(nég. ch. fixe 25f10) Obl. de 1000"
}