{
  "id": 17672,
  "share_type": {
    "id": 1,
    "name": "Stock (Action)"
  },
  "issuers": [
    {
      "id": 5490,
      "start_date": "1962-01-02",
      "end_date": "3999-12-31",
      "name": "Hoechst Farbwerke A.G."
    }
  ],
  "types": [
    {
      "start_date": "1962-01-02",
      "end_date": "3999-12-31",
      "id": 18,
      "name": "Action",
      "stock_group": "S"
    }
  ],
  "is_mainstock": 0,
  "prices_period": [
    "1962-01-02",
    "1974-05-15"
  ],
  "stock_exchanges": {
    "1": {
      "id": 1,
      "name": "Paris (Official List)",
      "notations": {
        "148247": {
          "id": 148247,
          "sector_id": 542,
          "start_date": "1962-01-02",
          "end_date": "1974-05-24",
          "names": [
            {
              "name": "HOECHST FARBWERKE, Act.200 DM (n° 2000001 à 2420000)",
              "start_date": "1962-01-02",
              "end_date": "1974-05-24"
            },
            {
              "name": "HOECHST FARBWERKE, act 200DM (ex-dr., )",
              "start_date": "1962-01-02",
              "end_date": "3999-12-31"
            }
          ]
        }
      },
      "listings_stats": {
        "start_date": "1962-01-02"
      },
      "spot_prices_stats": {
        "start_date": "1962-01-02",
        "end_date": "1974-05-15"
      }
    }
  },
  "prices_count": 327,
  "name": "HOECHST FARBWERKE, act 200DM (ex-dr., )"
}