{
  "id": 7177,
  "share_type": {
    "id": 2,
    "name": "Bond (Obligation)"
  },
  "issuers": [
    {
      "id": 3138,
      "start_date": "1920-07-26",
      "end_date": "3999-12-31",
      "name": "SOCIÉTÉ ANONYME DES HAUTS FOURNEAUX FORGES ET ACIÉRIES DE POMPEY"
    }
  ],
  "types": [
    {
      "start_date": "1920-07-26",
      "end_date": "3999-12-31",
      "id": 1001,
      "name": "Obligation ordinaire ou classique",
      "stock_group": "B"
    }
  ],
  "is_mainstock": 0,
  "prices_period": [
    "1920-11-15",
    "1943-05-03"
  ],
  "stock_exchanges": {
    "1": {
      "id": 1,
      "name": "Paris (Official List)",
      "notations": {
        "20393": {
          "id": 20393,
          "sector_id": 111,
          "start_date": "1940-10-14",
          "end_date": "1943-05-14",
          "names": [
            {
              "name": "Hauts-Fourneaux, Forges et Aciéries de Pompey, 4%, remb. à 500 fr (n°12001 à 14000)",
              "start_date": "1920-07-26",
              "end_date": "1943-05-14"
            },
            {
              "name": "Hauts-Fourneaux, Forges et Aciéries de Pompey 4%, remb. À 500 fr. (n° 12001 à 19500). 1912-46",
              "start_date": "1940-10-14",
              "end_date": "1943-05-14"
            },
            {
              "name": "Hauts-Fourneaux, Forges et Aciéries de Pompey 4%, r. À 500 f. (n°s 12001 à 19500) le 14 mai 1943",
              "start_date": "1940-10-14",
              "end_date": "3999-12-31"
            }
          ]
        },
        "34047": {
          "id": 34047,
          "sector_id": 111,
          "start_date": "1920-07-26",
          "end_date": "1940-06-11",
          "names": [
            {
              "name": "Hauts-Fourneaux, Forges et Aciéries de Pompey, 4%, remb. à 500 fr (n°12001 à 14000)",
              "start_date": "1920-07-26",
              "end_date": "1940-10-14"
            },
            {
              "name": "Hauts-Fourneaux, Forges et Aciéries de Pompey 4%, remb. À 500 fr. (n° 12001 à 19500). 1912-46",
              "start_date": "1920-07-26",
              "end_date": "1943-04-15"
            },
            {
              "name": "Hauts-Fourneaux, Forges et Aciéries de Pompey 4%, r. À 500 f. (n°s 12001 à 19500) le 14 mai 1943",
              "start_date": "1920-07-26",
              "end_date": "3999-12-31"
            }
          ]
        }
      },
      "listings_stats": {
        "start_date": "1920-07-26"
      },
      "spot_prices_stats": {
        "start_date": "1920-11-15",
        "end_date": "1943-05-03"
      }
    }
  },
  "prices_count": 252,
  "name": "Hauts-Fourneaux, Forges et Aciéries de Pompey 4%, remb. À 500 fr. (n° 12001 à 19500). 1912-46"
}