{
  "id": 35223,
  "share_type": {
    "id": 2,
    "name": "Bond (Obligation)"
  },
  "issuers": [
    {
      "id": 6130,
      "start_date": "1975-10-01",
      "end_date": "3999-12-31",
      "name": "Sofinco (Société de Financement pour le Credit à la Consommation)"
    }
  ],
  "types": [
    {
      "start_date": "1975-10-01",
      "end_date": "3999-12-31",
      "id": 1001,
      "name": "Obligation ordinaire ou classique",
      "stock_group": "B"
    }
  ],
  "is_mainstock": 0,
  "prices_period": [
    "1975-10-01",
    "1976-12-31"
  ],
  "stock_exchanges": {
    "1": {
      "id": 1,
      "name": "Paris (Official List)",
      "notations": {
        "153079": {
          "id": 153079,
          "sector_id": 623,
          "start_date": "1975-10-01",
          "end_date": "3999-12-31",
          "names": [
            {
              "name": "Caisse nationale des Télécommunication Oblig.10,50 juillet 1975 de 1000 F (c.1/8/75 att.) (Avis 75-738).Remb.à 1000 F le 1/8/90",
              "start_date": "1975-10-01",
              "end_date": "3999-12-31"
            },
            {
              "name": "Caisse nationale des Télécommunications Oblig. 10,50% juillet 1975 de 1000 F (c.1/8/75 att.) (Avis 75-738).Remb.à 1000 F le 1/8/90",
              "start_date": "1975-10-01",
              "end_date": "3999-12-31"
            }
          ]
        }
      },
      "listings_stats": {
        "start_date": "1975-10-01"
      },
      "spot_prices_stats": {
        "start_date": "1975-10-01",
        "end_date": "1976-12-31"
      }
    }
  },
  "prices_count": 31,
  "name": "Caisse nationale des Télécommunication Oblig.10,50 juillet 1975 de 1000 F (c.1/8/75 att.) (Avis 75-738).Remb.à 1000 F le 1/8/90"
}