{
  "id": 14361,
  "share_type": {
    "id": 2,
    "name": "Bond (Obligation)"
  },
  "issuers": [
    {
      "id": 2905,
      "start_date": "1952-04-01",
      "end_date": "3999-12-31",
      "name": "Caisse autonome de la Défense Nationale"
    }
  ],
  "types": [
    {
      "start_date": "1952-04-01",
      "end_date": "3999-12-31",
      "id": 1001,
      "name": "Obligation ordinaire ou classique",
      "stock_group": "B"
    }
  ],
  "is_mainstock": 0,
  "prices_period": [
    "1952-04-01",
    "1955-08-31"
  ],
  "stock_exchanges": {
    "1": {
      "id": 1,
      "name": "Paris (Official List)",
      "notations": {
        "144936": {
          "id": 144936,
          "sector_id": 195,
          "start_date": "1952-04-01",
          "end_date": "1955-09-12",
          "names": [
            {
              "name": "Oblig. 4% 1941-1952 amort., remb. À 2000 fr. (Jce 15/10/51) Coup. De 10000 fr.",
              "start_date": "1952-04-01",
              "end_date": "1955-09-12"
            },
            {
              "name": "Oblig. 4% 1941-1952 amort., remb. À 2000 fr. (Jce 15/10/54) Coup. De 10000 fr.",
              "start_date": "1952-04-01",
              "end_date": "3999-12-31"
            }
          ]
        }
      },
      "listings_stats": {
        "start_date": "1952-04-01"
      },
      "spot_prices_stats": {
        "start_date": "1952-04-01",
        "end_date": "1955-08-31"
      }
    }
  },
  "prices_count": 80,
  "name": "Oblig. 4% 1941-1952 amort., remb. À 2000 fr. (Jce 15/10/51) Coup. De 10000 fr."
}