{
  "id": 14098,
  "share_type": {
    "id": 1,
    "name": "Stock (Action)"
  },
  "issuers": [
    {
      "id": 7101,
      "start_date": "1951-05-07",
      "end_date": "3999-12-31",
      "name": "SOCIÉTÉ NOUVELLE DES ÉTABLISSEMENTS DECAUVILLE AINE"
    }
  ],
  "types": [
    {
      "start_date": "1951-05-07",
      "end_date": "3999-12-31",
      "id": 11,
      "name": "Action ordinaire",
      "stock_group": "S"
    }
  ],
  "is_mainstock": 0,
  "prices_period": [
    "1951-05-07",
    "1965-10-15"
  ],
  "stock_exchanges": {
    "1": {
      "id": 1,
      "name": "Paris (Official List)",
      "notations": {
        "25865": {
          "id": 25865,
          "sector_id": 397,
          "start_date": "1955-12-01",
          "end_date": "1963-03-04",
          "names": [
            {
              "name": "Decauville aîné (Sté Nouvelle des Etabl.), a. 2500 f., t. p. (c. 49 att.)",
              "start_date": "1951-05-07",
              "end_date": "1963-03-04"
            },
            {
              "name": "Decauville Aîné (Sté Nouvelle des Etablissements), act.",
              "start_date": "1955-12-01",
              "end_date": "1963-03-04"
            },
            {
              "name": "Décauville S. A., act.",
              "start_date": "1955-12-01",
              "end_date": "1963-11-03"
            },
            {
              "name": "Decauville S.A., Act. (ex-dr.)",
              "start_date": "1955-12-01",
              "end_date": "1963-11-04"
            },
            {
              "name": "Decauville S.A., Act. anc. avant échange (ex-dr., ) (Avis 38495)",
              "start_date": "1955-12-01",
              "end_date": "3999-12-31"
            }
          ]
        },
        "29984": {
          "id": 29984,
          "sector_id": 341,
          "start_date": "1963-03-04",
          "end_date": "1965-11-03",
          "names": [
            {
              "name": "Decauville aîné (Sté Nouvelle des Etabl.), a. 2500 f., t. p. (c. 49 att.)",
              "start_date": "1951-05-07",
              "end_date": "1965-11-03"
            },
            {
              "name": "Decauville Aîné (Sté Nouvelle des Etablissements), act.",
              "start_date": "1955-12-01",
              "end_date": "1965-11-03"
            },
            {
              "name": "Décauville S. A., act.",
              "start_date": "1956-11-02",
              "end_date": "1965-11-03"
            },
            {
              "name": "Decauville S.A., Act. (ex-dr.)",
              "start_date": "1963-03-04",
              "end_date": "1965-11-03"
            },
            {
              "name": "Decauville S.A., Act. anc. avant échange (ex-dr., ) (Avis 38495)",
              "start_date": "1963-03-04",
              "end_date": "3999-12-31"
            }
          ]
        },
        "144673": {
          "id": 144673,
          "sector_id": 104,
          "start_date": "1951-05-07",
          "end_date": "1955-12-01",
          "names": [
            {
              "name": "Decauville aîné (Sté Nouvelle des Etabl.), a. 2500 f., t. p. (c. 49 att.)",
              "start_date": "1951-05-07",
              "end_date": "1955-12-01"
            },
            {
              "name": "Decauville Aîné (Sté Nouvelle des Etablissements), act.",
              "start_date": "1951-05-07",
              "end_date": "1956-11-02"
            },
            {
              "name": "Décauville S. A., act.",
              "start_date": "1951-05-07",
              "end_date": "1963-11-03"
            },
            {
              "name": "Decauville S.A., Act. (ex-dr.)",
              "start_date": "1951-05-07",
              "end_date": "1963-11-04"
            },
            {
              "name": "Decauville S.A., Act. anc. avant échange (ex-dr., ) (Avis 38495)",
              "start_date": "1951-05-07",
              "end_date": "3999-12-31"
            }
          ]
        }
      },
      "listings_stats": {
        "start_date": "1951-05-07"
      },
      "spot_prices_stats": {
        "start_date": "1951-05-07",
        "end_date": "1965-10-15"
      }
    }
  },
  "prices_count": 380,
  "name": "Decauville S.A., Act. (ex-dr.)"
}