{
  "id": 13700,
  "share_type": {
    "id": 1,
    "name": "Stock (Action)"
  },
  "issuers": [
    {
      "id": 3145,
      "start_date": "1950-05-19",
      "end_date": "3999-12-31",
      "name": "SOCIETE MÉTALLURGIQUE DU PÉRIGORD"
    }
  ],
  "types": [
    {
      "start_date": "1950-05-19",
      "end_date": "3999-12-31",
      "id": 18,
      "name": "Action",
      "stock_group": "S"
    }
  ],
  "is_mainstock": 0,
  "prices_period": [
    "1950-05-22",
    "1971-08-31"
  ],
  "stock_exchanges": {
    "1": {
      "id": 1,
      "name": "Paris (Official List)",
      "notations": {
        "25892": {
          "id": 25892,
          "sector_id": 397,
          "start_date": "1955-12-01",
          "end_date": "1963-03-04",
          "names": [
            {
              "name": "Périgord (Minière et Métallurgique du), act. 3000 fr., t. p. (c. 1 att.)",
              "start_date": "1950-05-19",
              "end_date": "1963-03-04"
            },
            {
              "name": "Périgord (Minière et Métall. Du), act. 5000 fr., t. p.",
              "start_date": "1954-11-30",
              "end_date": "1963-03-04"
            },
            {
              "name": "Périgord (Sté Minière et Métallurgique du), act.",
              "start_date": "1955-12-01",
              "end_date": "1971-09-10"
            },
            {
              "name": "Périgord (Minière et Métallurgique du) (en liq.), act.",
              "start_date": "1955-12-01",
              "end_date": "3999-12-31"
            }
          ]
        },
        "29969": {
          "id": 29969,
          "sector_id": 341,
          "start_date": "1963-03-04",
          "end_date": "1971-09-10",
          "names": [
            {
              "name": "Périgord (Minière et Métallurgique du), act. 3000 fr., t. p. (c. 1 att.)",
              "start_date": "1950-05-19",
              "end_date": "1971-09-10"
            },
            {
              "name": "Périgord (Minière et Métall. Du), act. 5000 fr., t. p.",
              "start_date": "1954-11-30",
              "end_date": "1971-09-10"
            },
            {
              "name": "Périgord (Sté Minière et Métallurgique du), act.",
              "start_date": "1955-12-01",
              "end_date": "1971-09-10"
            },
            {
              "name": "Périgord (Minière et Métallurgique du) (en liq.), act.",
              "start_date": "1963-03-04",
              "end_date": "3999-12-31"
            }
          ]
        },
        "144275": {
          "id": 144275,
          "sector_id": 104,
          "start_date": "1950-05-19",
          "end_date": "1955-12-01",
          "names": [
            {
              "name": "Périgord (Minière et Métallurgique du), act. 3000 fr., t. p. (c. 1 att.)",
              "start_date": "1950-05-19",
              "end_date": "1955-12-01"
            },
            {
              "name": "Périgord (Minière et Métall. Du), act. 5000 fr., t. p.",
              "start_date": "1950-05-19",
              "end_date": "1955-12-01"
            },
            {
              "name": "Périgord (Sté Minière et Métallurgique du), act.",
              "start_date": "1950-05-19",
              "end_date": "1971-09-10"
            },
            {
              "name": "Périgord (Minière et Métallurgique du) (en liq.), act.",
              "start_date": "1950-05-19",
              "end_date": "3999-12-31"
            }
          ]
        }
      },
      "listings_stats": {
        "start_date": "1950-05-19"
      },
      "spot_prices_stats": {
        "start_date": "1950-05-22",
        "end_date": "1971-08-31"
      }
    }
  },
  "prices_count": 545,
  "name": "Périgord (Minière et Métallurgique du) (en liq.), act."
}