{
  "id": 4966,
  "share_type": {
    "id": 1,
    "name": "Stock (Action)"
  },
  "issuers": [
    {
      "id": 2415,
      "start_date": "1902-02-15",
      "end_date": "3999-12-31",
      "name": "SOCIETE ANONYME DES MINES DE CARVIN"
    }
  ],
  "types": [
    {
      "start_date": "1902-02-15",
      "end_date": "3999-12-31",
      "id": 18,
      "name": "Action",
      "stock_group": "S"
    }
  ],
  "is_mainstock": 1,
  "prices_period": [
    "1904-03-31",
    "1921-02-28"
  ],
  "stock_exchanges": {
    "1": {
      "id": 1,
      "name": "Paris (Official List)",
      "notations": {
        "1738": {
          "id": 1738,
          "sector_id": 103,
          "start_date": "1902-05-26",
          "end_date": "1914-08-03",
          "names": [
            {
              "name": "Mines de Carvin, cinquièmes",
              "start_date": "1902-02-15",
              "end_date": "1917-01-02"
            },
            {
              "name": "Mines Carvin, 5e d'action (100fr.), t.p.",
              "start_date": "1902-05-26",
              "end_date": "3999-12-31"
            }
          ]
        },
        "6065": {
          "id": 6065,
          "sector_id": 73,
          "start_date": "1902-02-15",
          "end_date": "1902-05-26",
          "names": [
            {
              "name": "Mines de Carvin, cinquièmes",
              "start_date": "1902-02-15",
              "end_date": "1917-01-02"
            },
            {
              "name": "Mines Carvin, 5e d'action (100fr.), t.p.",
              "start_date": "1902-02-15",
              "end_date": "3999-12-31"
            }
          ]
        },
        "10059": {
          "id": 10059,
          "sector_id": 103,
          "start_date": "1914-12-15",
          "end_date": "1921-03-15",
          "names": [
            {
              "name": "Mines de Carvin, cinquièmes",
              "start_date": "1902-02-15",
              "end_date": "1921-03-15"
            },
            {
              "name": "Mines Carvin, 5e d'action (100fr.), t.p.",
              "start_date": "1914-12-15",
              "end_date": "3999-12-31"
            }
          ]
        }
      },
      "listings_stats": {
        "start_date": "1902-02-15"
      },
      "spot_prices_stats": {
        "start_date": "1904-03-31",
        "end_date": "1921-02-28"
      }
    }
  },
  "prices_count": 236,
  "name": "Mines de Carvin, cinquièmes"
}