{
  "id": 106285,
  "share_type": {
    "id": 1,
    "name": "Stock (Action)"
  },
  "issuers": [
    {
      "id": 2982,
      "start_date": "1951-04-02",
      "end_date": "3999-12-31",
      "name": "CARRIÈRES ET SCIERIES DE BOURGOGNE (FÈVRE et Cie)"
    }
  ],
  "types": [
    {
      "start_date": "1951-04-02",
      "end_date": "3999-12-31",
      "id": 11,
      "name": "Action ordinaire",
      "stock_group": "S"
    }
  ],
  "is_mainstock": 0,
  "prices_period": [
    "1951-04-02",
    "1952-01-02"
  ],
  "stock_exchanges": {},
  "prices_count": 17
}