{
  "id": 1851,
  "share_type": {
    "id": 2,
    "name": "Bond (Obligation)"
  },
  "issuers": [
    {
      "id": 1265,
      "start_date": "1870-06-17",
      "end_date": "3999-12-31",
      "name": "EGYPTE"
    }
  ],
  "types": [
    {
      "start_date": "1870-06-17",
      "end_date": "3999-12-31",
      "id": 1001,
      "name": "Obligation ordinaire ou classique",
      "stock_group": "B"
    }
  ],
  "is_mainstock": 0,
  "prices_period": [
    "1870-06-17",
    "1881-03-31"
  ],
  "stock_exchanges": {
    "1": {
      "id": 1,
      "name": "Paris (Official List)",
      "notations": {
        "2950": {
          "id": 2950,
          "sector_id": 67,
          "start_date": "1870-06-17",
          "end_date": "1881-04-01",
          "names": [
            {
              "name": "Egypte (Emprunt vice-roi d'), 1870, oblig. Hypothécaires, emb. à 500fr., t.p.",
              "start_date": "1870-06-17",
              "end_date": "3999-12-31"
            }
          ]
        }
      },
      "forward_prices_stats": {
        "start_date": "1870-10-15",
        "end_date": "1881-03-31"
      },
      "listings_stats": {
        "start_date": "1870-06-17"
      },
      "options_prices_stats": {
        "start_date": "1870-06-17",
        "end_date": "1870-06-17"
      },
      "spot_prices_stats": {
        "start_date": "1870-06-17",
        "end_date": "1881-03-31"
      }
    }
  },
  "prices_count": 658,
  "name": "Egypte (Emprunt vice-roi d'), 1870, oblig. Hypothécaires, emb. à 500fr., t.p."
}