{
  "id": 20373,
  "share_type": {
    "id": 1,
    "name": "Stock (Action)"
  },
  "issuers": [
    {
      "id": 5638,
      "start_date": "1971-02-16",
      "end_date": "3999-12-31",
      "name": "Floquet Monopole"
    }
  ],
  "types": [
    {
      "start_date": "1971-02-16",
      "end_date": "3999-12-31",
      "id": 27,
      "name": "Promesse d'action",
      "stock_group": "S"
    }
  ],
  "is_mainstock": 0,
  "prices_period": [
    null,
    null
  ],
  "stock_exchanges": {
    "1": {
      "id": 1,
      "name": "Paris (Official List)",
      "notations": {
        "150948": {
          "id": 150948,
          "sector_id": 337,
          "start_date": "1971-02-16",
          "end_date": "1971-10-07",
          "names": [
            {
              "name": "Floquet Monopole, Promesses (Jce 1/1/71)",
              "start_date": "1971-02-16",
              "end_date": "3999-12-31"
            }
          ]
        }
      },
      "listings_stats": {
        "start_date": "1971-02-16"
      }
    }
  },
  "prices_count": 0,
  "name": "Floquet Monopole, Promesses (Jce 1/1/71)"
}