{
  "id": 105989,
  "share_type": {
    "id": 1,
    "name": "Stock (Action)"
  },
  "issuers": [
    {
      "id": 15468,
      "start_date": "1898-06-15",
      "end_date": "1898-12-31",
      "name": "Société Anonyme d'Eclairage du Centre"
    }
  ],
  "types": [
    {
      "start_date": "1898-06-15",
      "end_date": "1898-12-31",
      "id": 18,
      "name": "Action",
      "stock_group": "S"
    }
  ],
  "is_mainstock": 1,
  "prices_period": [
    "1898-06-15",
    "1898-12-15"
  ],
  "stock_exchanges": {
    "2": {
      "id": 2,
      "name": "Paris OTC (Coulisse)",
      "notations": {
        "206848": {
          "id": 206848,
          "sector_id": 667,
          "start_date": "1898-06-15",
          "end_date": "1898-12-31",
          "names": [
            {
              "name": "Eclairage du Centre, act. 50 fr. (privil.)",
              "start_date": "1898-06-15",
              "end_date": "1898-12-31"
            },
            {
              "name": "ECLAIRAGE DU CENTRE, action privilégiée",
              "start_date": "1898-06-15",
              "end_date": "1899-01-16"
            }
          ]
        },
        "207747": {
          "id": 207747,
          "sector_id": 681,
          "start_date": "1899-01-16",
          "end_date": "1899-01-16",
          "names": [
            {
              "name": "Eclairage du Centre, act. 50 fr. (privil.)",
              "start_date": "1898-06-15",
              "end_date": "1899-01-16"
            },
            {
              "name": "ECLAIRAGE DU CENTRE, action privilégiée",
              "start_date": "1899-01-16",
              "end_date": "1899-01-16"
            }
          ]
        }
      },
      "listings_stats": {
        "start_date": "1898-06-15"
      },
      "spot_prices_stats": {
        "start_date": "1898-06-15",
        "end_date": "1898-12-15"
      }
    }
  },
  "prices_count": 14,
  "name": "ECLAIRAGE DU CENTRE, action privilégiée"
}