{
  "id": 3840,
  "share_type": {
    "id": 2,
    "name": "Bond (Obligation)"
  },
  "issuers": [
    {
      "id": 2546,
      "start_date": "1891-02-02",
      "end_date": "3999-12-31",
      "name": "SUISSE"
    }
  ],
  "types": [
    {
      "start_date": "1891-02-02",
      "end_date": "3999-12-31",
      "id": 1001,
      "name": "Obligation ordinaire ou classique",
      "stock_group": "B"
    }
  ],
  "is_mainstock": 0,
  "prices_period": [
    "1891-02-02",
    "1891-02-28"
  ],
  "stock_exchanges": {
    "1": {
      "id": 1,
      "name": "Paris (Official List)",
      "notations": {
        "4939": {
          "id": 4939,
          "sector_id": 67,
          "start_date": "1891-02-02",
          "end_date": "1891-03-06",
          "names": [
            {
              "name": "Suisse (Emprunt fédéral), Rente 3% des ch. de fer, ob. 30f. de rente, 30,5% p.",
              "start_date": "1891-02-02",
              "end_date": "3999-12-31"
            }
          ]
        }
      },
      "forward_prices_stats": {
        "start_date": "1891-02-02",
        "end_date": "1891-02-16"
      },
      "listings_stats": {
        "start_date": "1891-02-02"
      },
      "spot_prices_stats": {
        "start_date": "1891-02-02",
        "end_date": "1891-02-28"
      }
    }
  },
  "prices_count": 6,
  "name": "Suisse (Emprunt fédéral), Rente 3% des ch. de fer, ob. 30f. de rente, 30,5% p."
}