{
  "id": 40102,
  "share_type": {
    "id": 1,
    "name": "Stock (Action)"
  },
  "issuers": [
    {
      "id": 2902,
      "start_date": "1924-08-13",
      "end_date": "1949-12-20",
      "name": "COMPAGNIE GENERALE DES INDUSTRIES TEXTILES (Sté Anonyme des Etablissements Allart, Rousseau et Cie)"
    }
  ],
  "types": [
    {
      "start_date": "1000-01-01",
      "end_date": "3999-12-31",
      "id": 18,
      "name": "Action",
      "stock_group": "S"
    }
  ],
  "is_mainstock": 0,
  "prices_period": [
    "1924-08-18",
    "1949-12-15"
  ],
  "stock_exchanges": {
    "1": {
      "id": 1,
      "name": "Paris (Official List)",
      "notations": {
        "155102": {
          "id": 155102,
          "sector_id": 101,
          "start_date": "1924-08-13",
          "end_date": "1949-12-20",
          "names": [
            {
              "name": "Industrie Textiles (Cie Générale des), act. De jouiss. (titres nouv.)(c. 1 att.)",
              "start_date": "1924-08-13",
              "end_date": "1949-12-20"
            }
          ]
        }
      },
      "listings_stats": {
        "start_date": "1924-08-13"
      },
      "spot_prices_stats": {
        "start_date": "1924-08-18",
        "end_date": "1949-12-15"
      }
    }
  },
  "prices_count": 739,
  "name": "Industrie Textiles (Cie Générale des), act. De jouiss. (titres nouv.)(c. 1 att.)"
}