{
  "id": 19161,
  "share_type": {
    "id": 1,
    "name": "Stock (Action)"
  },
  "issuers": [
    {
      "id": 5897,
      "start_date": "1967-05-02",
      "end_date": "3999-12-31",
      "name": "Laboratoires Sarbach"
    }
  ],
  "types": [
    {
      "start_date": "1967-05-02",
      "end_date": "3999-12-31",
      "id": 18,
      "name": "Action",
      "stock_group": "S"
    }
  ],
  "is_mainstock": 0,
  "prices_period": [
    "1967-05-02",
    "1976-12-31"
  ],
  "stock_exchanges": {
    "1": {
      "id": 1,
      "name": "Paris (Official List)",
      "notations": {
        "149736": {
          "id": 149736,
          "sector_id": 351,
          "start_date": "1967-05-02",
          "end_date": "3999-12-31",
          "names": [
            {
              "name": "Lyon_Bourse Laboratoires Sarbach, act.",
              "start_date": "1967-05-02",
              "end_date": "3999-12-31"
            }
          ]
        }
      },
      "listings_stats": {
        "start_date": "1967-05-02"
      },
      "spot_prices_stats": {
        "start_date": "1967-05-02",
        "end_date": "1976-12-31"
      }
    }
  },
  "prices_count": 235,
  "name": "Lyon_Bourse Laboratoires Sarbach, act."
}