{
  "id": 19519,
  "share_type": {
    "id": 2,
    "name": "Bond (Obligation)"
  },
  "issuers": [
    {
      "id": 6012,
      "start_date": "1967-05-02",
      "end_date": "3999-12-31",
      "name": "Marcesche et Cie (Etabl.)"
    }
  ],
  "types": [
    {
      "start_date": "1967-05-02",
      "end_date": "3999-12-31",
      "id": 1001,
      "name": "Obligation ordinaire ou classique",
      "stock_group": "B"
    }
  ],
  "is_mainstock": 0,
  "prices_period": [
    "1967-05-02",
    "1971-11-30"
  ],
  "stock_exchanges": {
    "1": {
      "id": 1,
      "name": "Paris (Official List)",
      "notations": {
        "150094": {
          "id": 150094,
          "sector_id": 361,
          "start_date": "1967-05-02",
          "end_date": "1971-12-01",
          "names": [
            {
              "name": "Nantes_Bourse Marcesche et Cie (Etabl.) 5,5% 1959, remb. À 220 F. 1962-71",
              "start_date": "1967-05-02",
              "end_date": "1971-12-01"
            },
            {
              "name": "NANTES_BOURSE_Marcesche et Cie (Etabl.), 5,5% 1959, remb.à 220 F (Tir. 20/10/70) 1962-71",
              "start_date": "1967-05-02",
              "end_date": "3999-12-31"
            }
          ]
        }
      },
      "listings_stats": {
        "start_date": "1967-05-02"
      },
      "spot_prices_stats": {
        "start_date": "1967-05-02",
        "end_date": "1971-11-30"
      }
    }
  },
  "prices_count": 111,
  "name": "Nantes_Bourse Marcesche et Cie (Etabl.) 5,5% 1959, remb. À 220 F. 1962-71"
}