{
  "id": 106581,
  "share_type": {
    "id": 1,
    "name": "Stock (Action)"
  },
  "issuers": [
    {
      "id": 15493,
      "start_date": "1899-01-09",
      "end_date": "1899-01-16",
      "name": "Société Anonyme des Ateliers de Constructions Mécaniques, Fonderie et Chaudronnerie anciennement Ponomareff"
    }
  ],
  "types": [
    {
      "start_date": "1899-01-09",
      "end_date": "1899-01-16",
      "id": 18,
      "name": "Action",
      "stock_group": "S"
    }
  ],
  "is_mainstock": 0,
  "prices_period": [
    null,
    null
  ],
  "stock_exchanges": {
    "2": {
      "id": 2,
      "name": "Paris OTC (Coulisse)",
      "notations": {
        "207624": {
          "id": 207624,
          "sector_id": 682,
          "start_date": "1899-01-09",
          "end_date": "1899-01-16",
          "names": [
            {
              "name": "PONOMAREFF (Mécaniques)",
              "start_date": "1899-01-09",
              "end_date": "1899-01-16"
            },
            {
              "name": "PONOMAREFF (Mécaniques)",
              "start_date": "1899-01-09",
              "end_date": "1899-01-16"
            }
          ]
        }
      },
      "listings_stats": {
        "start_date": "1899-01-09"
      }
    }
  },
  "prices_count": 0,
  "name": "PONOMAREFF (Mécaniques)"
}