{
  "id": 2859,
  "share_type": {
    "id": 1,
    "name": "Stock (Action)"
  },
  "issuers": [
    {
      "id": 2215,
      "start_date": "1880-03-01",
      "end_date": "3999-12-31",
      "name": "Compagnie générale de chemins de fer brésiliens"
    }
  ],
  "types": [
    {
      "start_date": "1880-03-01",
      "end_date": "3999-12-31",
      "id": 18,
      "name": "Action",
      "stock_group": "S"
    }
  ],
  "is_mainstock": 1,
  "prices_period": [
    "1880-03-01",
    "1880-03-01"
  ],
  "stock_exchanges": {
    "1": {
      "id": 1,
      "name": "Paris (Official List)",
      "notations": {
        "3958": {
          "id": 3958,
          "sector_id": 73,
          "start_date": "1880-03-01",
          "end_date": "1892-05-05",
          "names": [
            {
              "name": "Brésiliens (Cie générale des ch.de fer) act.de 500f., 250f.p.",
              "start_date": "1880-03-01",
              "end_date": "1892-05-09"
            },
            {
              "name": "Brésiliens (Cie générale de chemins de fer)",
              "start_date": "1880-03-01",
              "end_date": "1903-10-26"
            }
          ]
        },
        "155596": {
          "id": 155596,
          "sector_id": 119,
          "start_date": "1892-05-09",
          "end_date": "1903-10-26",
          "names": [
            {
              "name": "Brésiliens (Cie générale des ch.de fer) act.de 500f., 250f.p.",
              "start_date": "1880-03-01",
              "end_date": "1903-10-26"
            },
            {
              "name": "Brésiliens (Cie générale de chemins de fer)",
              "start_date": "1892-05-09",
              "end_date": "1903-10-26"
            }
          ]
        }
      },
      "listings_stats": {
        "start_date": "1880-03-01"
      },
      "spot_prices_stats": {
        "start_date": "1880-03-01",
        "end_date": "1880-03-01"
      }
    }
  },
  "prices_count": 3,
  "name": "Brésiliens (Cie générale de chemins de fer)"
}