{
  "id": 103072,
  "share_type": {
    "id": 4,
    "name": "Rights (Droits)"
  },
  "issuers": [
    {
      "id": 4554,
      "start_date": "1000-01-01",
      "end_date": "1925-11-20",
      "name": "SOCIETE FRANÇAISE DES CARBURANTS"
    }
  ],
  "types": [
    {
      "start_date": "1000-01-01",
      "end_date": "1925-11-20",
      "id": 501,
      "name": "Droit de souscription",
      "stock_group": "R"
    }
  ],
  "is_mainstock": 0,
  "prices_period": [
    "1924-09-30",
    "1924-09-30"
  ],
  "stock_exchanges": {
    "1": {
      "id": 1,
      "name": "Paris (Official List)",
      "notations": {
        "203254": {
          "id": 203254,
          "sector_id": 657,
          "start_date": "1924-09-30",
          "end_date": "1925-11-21",
          "names": [
            {
              "name": "Act. Sté Française des Carburants (dr. Et c. 10)",
              "start_date": "1000-01-01",
              "end_date": "1925-11-21"
            }
          ]
        }
      },
      "listings_stats": {
        "start_date": "1924-09-30"
      },
      "spot_prices_stats": {
        "start_date": "1924-09-30",
        "end_date": "1924-09-30"
      }
    }
  },
  "prices_count": 0,
  "name": "Act. Sté Française des Carburants (dr. Et c. 10)"
}