{
  "id": 12887,
  "share_type": {
    "id": 2,
    "name": "Bond (Obligation)"
  },
  "issuers": [
    {
      "id": 100,
      "start_date": "1938-03-07",
      "end_date": "3999-12-31",
      "name": "RENTES FRANÇAISES"
    }
  ],
  "types": [
    {
      "start_date": "1938-03-07",
      "end_date": "3999-12-31",
      "id": 1030,
      "name": "Obligation du Trésor",
      "stock_group": "B"
    }
  ],
  "is_mainstock": 0,
  "prices_period": [
    "1938-03-07",
    "1941-10-31"
  ],
  "stock_exchanges": {
    "1": {
      "id": 1,
      "name": "Paris (Official List)",
      "notations": {
        "143462": {
          "id": 143462,
          "sector_id": 196,
          "start_date": "1938-03-07",
          "end_date": "1941-11-03",
          "names": [
            {
              "name": "Obligations du Trésor 4.5% 1938-1953 (1er semestre) (V. Avis, p. 19). Coup. 500 fr.",
              "start_date": "1938-03-07",
              "end_date": "3999-12-31"
            }
          ]
        }
      },
      "listings_stats": {
        "start_date": "1938-03-07"
      },
      "spot_prices_stats": {
        "start_date": "1938-03-07",
        "end_date": "1941-10-31"
      }
    }
  },
  "prices_count": 83,
  "name": "Obligations du Trésor 4.5% 1938-1953 (1er semestre) (V. Avis, p. 19). Coup. 500 fr."
}