{
  "id": 103184,
  "share_type": {
    "id": 4,
    "name": "Rights (Droits)"
  },
  "issuers": [
    {
      "id": 3097,
      "start_date": "1000-01-01",
      "end_date": "1948-03-17",
      "name": "SOCIÉTÉ PYRENEENNE D'ENERGIE ELECTRIQUE"
    }
  ],
  "types": [
    {
      "start_date": "1000-01-01",
      "end_date": "1948-03-17",
      "id": 501,
      "name": "Droit de souscription",
      "stock_group": "R"
    }
  ],
  "is_mainstock": 0,
  "prices_period": [
    "1941-12-31",
    "1943-03-15"
  ],
  "stock_exchanges": {
    "1": {
      "id": 1,
      "name": "Paris (Official List)",
      "notations": {
        "203366": {
          "id": 203366,
          "sector_id": 657,
          "start_date": "1941-12-31",
          "end_date": "1948-03-18",
          "names": [
            {
              "name": "Act.A.PYRENEENNE D'ENERGIE ELECTRIQUE (droit et coupon 36).Pour 2 act.A anc., 1 action A nouvelle émise à 530 francs",
              "start_date": "1000-01-01",
              "end_date": "1948-03-18"
            }
          ]
        }
      },
      "listings_stats": {
        "start_date": "1941-12-31"
      },
      "spot_prices_stats": {
        "start_date": "1941-12-31",
        "end_date": "1943-03-15"
      }
    }
  },
  "prices_count": 3,
  "name": "Act.A.PYRENEENNE D'ENERGIE ELECTRIQUE (droit et coupon 36).Pour 2 act.A anc., 1 action A nouvelle émise à 530 francs"
}