{
  "id": 105373,
  "share_type": {
    "id": 1,
    "name": "Stock (Action)"
  },
  "issuers": [
    {
      "id": 12401,
      "start_date": "1895-04-06",
      "end_date": "1897-02-01",
      "name": "Agnes Block"
    }
  ],
  "types": [
    {
      "start_date": "1895-04-06",
      "end_date": "1897-02-01",
      "id": 18,
      "name": "Action",
      "stock_group": "S"
    }
  ],
  "is_mainstock": 1,
  "prices_period": [
    "1895-04-06",
    "1896-12-31"
  ],
  "stock_exchanges": {
    "2": {
      "id": 2,
      "name": "Paris OTC (Coulisse)",
      "notations": {
        "206194": {
          "id": 206194,
          "sector_id": 669,
          "start_date": "1895-04-06",
          "end_date": "1897-02-01",
          "names": [
            {
              "name": "Agnes Block (au porteur)",
              "start_date": "1895-04-06",
              "end_date": "1897-02-01"
            }
          ]
        }
      },
      "listings_stats": {
        "start_date": "1895-04-06"
      },
      "spot_prices_stats": {
        "start_date": "1895-04-06",
        "end_date": "1896-12-31"
      }
    }
  },
  "prices_count": 36,
  "name": "Agnes Block (au porteur)"
}