{
  "id": 20954,
  "share_type": {
    "id": 1,
    "name": "Stock (Action)"
  },
  "issuers": [
    {
      "id": 6135,
      "start_date": "1972-05-23",
      "end_date": "3999-12-31",
      "name": "COGIFI (Compagnie d'Investissement Français Immobilier)"
    }
  ],
  "types": [
    {
      "start_date": "1972-05-23",
      "end_date": "3999-12-31",
      "id": 27,
      "name": "Promesse d'action",
      "stock_group": "S"
    }
  ],
  "is_mainstock": 0,
  "prices_period": [
    "1972-06-15",
    "1973-06-15"
  ],
  "stock_exchanges": {
    "1": {
      "id": 1,
      "name": "Paris (Official List)",
      "notations": {
        "151524": {
          "id": 151524,
          "sector_id": 598,
          "start_date": "1972-05-23",
          "end_date": "1973-07-02",
          "names": [
            {
              "name": "COGIFI (Cie d'Investis Franç Immobiliers), promesses (Jce 1/7/72)",
              "start_date": "1972-05-23",
              "end_date": "1973-07-02"
            },
            {
              "name": "COGIFI (Cie d'Invest Franç Immobiliers), act n° 2618751 à 3055208 (c. 11 A et B étoilés att.)",
              "start_date": "1972-05-23",
              "end_date": "3999-12-31"
            }
          ]
        }
      },
      "listings_stats": {
        "start_date": "1972-05-23"
      },
      "spot_prices_stats": {
        "start_date": "1972-06-15",
        "end_date": "1973-06-15"
      }
    }
  },
  "prices_count": 25,
  "name": "COGIFI (Cie d'Investis Franç Immobiliers), promesses (Jce 1/7/72)"
}