{
  "id": 18659,
  "share_type": {
    "id": 2,
    "name": "Bond (Obligation)"
  },
  "issuers": [
    {
      "id": 890,
      "start_date": "1967-05-02",
      "end_date": "3999-12-31",
      "name": "VILLE DE MARSEILLE"
    }
  ],
  "types": [
    {
      "start_date": "1967-05-02",
      "end_date": "3999-12-31",
      "id": 1001,
      "name": "Obligation ordinaire ou classique",
      "stock_group": "B"
    }
  ],
  "is_mainstock": 0,
  "prices_period": [
    "1967-05-03",
    "1976-12-31"
  ],
  "stock_exchanges": {
    "1": {
      "id": 1,
      "name": "Paris (Official List)",
      "notations": {
        "149234": {
          "id": 149234,
          "sector_id": 201,
          "start_date": "1967-05-02",
          "end_date": "3999-12-31",
          "names": [
            {
              "name": "Marseille_Bourse Marseille 4% mars 1943 1944-92",
              "start_date": "1967-05-02",
              "end_date": "3999-12-31"
            },
            {
              "name": "Marseille_Bourse Marseille 4% mars 1943 de 50 F (Tir. 8/1/76) 1944-92",
              "start_date": "1967-05-02",
              "end_date": "3999-12-31"
            }
          ]
        }
      },
      "listings_stats": {
        "start_date": "1967-05-02"
      },
      "spot_prices_stats": {
        "start_date": "1967-05-03",
        "end_date": "1976-12-31"
      }
    }
  },
  "prices_count": 233,
  "name": "Marseille_Bourse Marseille 4% mars 1943 1944-92"
}