{
  "id": 5941,
  "share_type": {
    "id": 1,
    "name": "Stock (Action)"
  },
  "issuers": [
    {
      "id": 3388,
      "start_date": "1910-12-01",
      "end_date": "3999-12-31",
      "name": "SOCIÉTÉ FONCIERE DU DOMAINE DE CHEIKH-FADL"
    }
  ],
  "types": [
    {
      "start_date": "1910-12-01",
      "end_date": "3999-12-31",
      "id": 18,
      "name": "Action",
      "stock_group": "S"
    }
  ],
  "is_mainstock": 1,
  "prices_period": [
    "1910-12-01",
    "1917-06-15"
  ],
  "stock_exchanges": {
    "1": {
      "id": 1,
      "name": "Paris (Official List)",
      "notations": {
        "8346": {
          "id": 8346,
          "sector_id": 82,
          "start_date": "1910-12-01",
          "end_date": "1911-04-18",
          "names": [
            {
              "name": "Ste Foncière du Domaine de Cheikh-Fadl, act. 100 fr. tout payé",
              "start_date": "1910-12-01",
              "end_date": "3999-12-31"
            }
          ]
        },
        "8515": {
          "id": 8515,
          "sector_id": 123,
          "start_date": "1911-04-18",
          "end_date": "1914-08-03",
          "names": [
            {
              "name": "Ste Foncière du Domaine de Cheikh-Fadl, act. 100 fr. tout payé",
              "start_date": "1910-12-01",
              "end_date": "3999-12-31"
            }
          ]
        },
        "9356": {
          "id": 9356,
          "sector_id": 123,
          "start_date": "1914-12-15",
          "end_date": "1917-07-02",
          "names": [
            {
              "name": "Ste Foncière du Domaine de Cheikh-Fadl, act. 100 fr. tout payé",
              "start_date": "1910-12-01",
              "end_date": "3999-12-31"
            }
          ]
        }
      },
      "listings_stats": {
        "start_date": "1910-12-01"
      },
      "spot_prices_stats": {
        "start_date": "1910-12-01",
        "end_date": "1917-06-15"
      }
    }
  },
  "prices_count": 17,
  "name": "Ste Foncière du Domaine de Cheikh-Fadl, act. 100 fr. tout payé"
}