{
  "id": 15767,
  "share_type": {
    "id": 2,
    "name": "Bond (Obligation)"
  },
  "issuers": [
    {
      "id": 4821,
      "start_date": "1959-01-02",
      "end_date": "3999-12-31",
      "name": "Compagnie des Chemins de Fer du Maroc"
    }
  ],
  "types": [
    {
      "start_date": "1959-01-02",
      "end_date": "3999-12-31",
      "id": 1001,
      "name": "Obligation ordinaire ou classique",
      "stock_group": "B"
    }
  ],
  "is_mainstock": 0,
  "prices_period": [
    "1959-01-05",
    "1976-12-31"
  ],
  "stock_exchanges": {
    "1": {
      "id": 1,
      "name": "Paris (Official List)",
      "notations": {
        "29316": {
          "id": 29316,
          "sector_id": 594,
          "start_date": "1963-03-04",
          "end_date": "3999-12-31",
          "names": [
            {
              "name": "Maroc (chemin de fer) 5,5% minimum aout 1958à int et prime de rembours variables (c 15/8/59 att)(Cf Avis n 34287) X1964-78",
              "start_date": "1959-01-02",
              "end_date": "3999-12-31"
            },
            {
              "name": "Maroc (Chemins de fer) 5,5% min. août 1958 à int. et prime de remb. variable (Avis 34287) 1964-78",
              "start_date": "1963-03-04",
              "end_date": "3999-12-31"
            },
            {
              "name": "Franco-Marocaine (Cie) (ex-Chemins de fer du Maroc) 5,5% min. août 1958 à intérêt et prime de remboursement variable (Tir. 19/6/64) (Avis 34287). 1964-78",
              "start_date": "1963-03-04",
              "end_date": "3999-12-31"
            }
          ]
        },
        "146342": {
          "id": 146342,
          "sector_id": 57,
          "start_date": "1959-01-02",
          "end_date": "1963-03-04",
          "names": [
            {
              "name": "Maroc (chemin de fer) 5,5% minimum aout 1958à int et prime de rembours variables (c 15/8/59 att)(Cf Avis n 34287) X1964-78",
              "start_date": "1959-01-02",
              "end_date": "1963-03-04"
            },
            {
              "name": "Maroc (Chemins de fer) 5,5% min. août 1958 à int. et prime de remb. variable (Avis 34287) 1964-78",
              "start_date": "1959-01-02",
              "end_date": "1964-03-02"
            },
            {
              "name": "Franco-Marocaine (Cie) (ex-Chemins de fer du Maroc) 5,5% min. août 1958 à intérêt et prime de remboursement variable (Tir. 19/6/64) (Avis 34287). 1964-78",
              "start_date": "1959-01-02",
              "end_date": "3999-12-31"
            }
          ]
        }
      },
      "listings_stats": {
        "start_date": "1959-01-02"
      },
      "spot_prices_stats": {
        "start_date": "1959-01-05",
        "end_date": "1976-12-31"
      }
    }
  },
  "prices_count": 434,
  "name": "Maroc (Chemins de fer) 5,5% min. août 1958 à int. et prime de remb. variable (Avis 34287) 1964-78"
}