{
  "id": 40535,
  "share_type": {
    "id": 2,
    "name": "Bond (Obligation)"
  },
  "issuers": [
    {
      "id": 4610,
      "start_date": "1000-01-01",
      "end_date": "3999-12-31",
      "name": "DEPARTEMENT DU NORD"
    }
  ],
  "types": [
    {
      "start_date": "1000-01-01",
      "end_date": "3999-12-31",
      "id": 1001,
      "name": "Obligation ordinaire ou classique",
      "stock_group": "B"
    }
  ],
  "is_mainstock": 0,
  "prices_period": [
    null,
    null
  ],
  "stock_exchanges": {
    "1": {
      "id": 1,
      "name": "Paris (Official List)",
      "notations": {
        "155469": {
          "id": 155469,
          "sector_id": 169,
          "start_date": "1894-10-12",
          "end_date": "1896-05-11",
          "names": [
            {
              "name": "Département du Nord 3,5% 1894",
              "start_date": "1894-10-12",
              "end_date": "1896-05-11"
            }
          ]
        }
      },
      "listings_stats": {
        "start_date": "1894-10-12"
      }
    }
  },
  "prices_count": 0,
  "name": "Département du Nord 3,5% 1894"
}