{
  "id": 13220,
  "share_type": {
    "id": 2,
    "name": "Bond (Obligation)"
  },
  "issuers": [
    {
      "id": 3775,
      "start_date": "1949-04-14",
      "end_date": "3999-12-31",
      "name": "Union des Groupements de Sinistrés de la Guerre 1914-1918"
    }
  ],
  "types": [
    {
      "start_date": "1949-04-14",
      "end_date": "3999-12-31",
      "id": 1001,
      "name": "Obligation ordinaire ou classique",
      "stock_group": "B"
    }
  ],
  "is_mainstock": 0,
  "prices_period": [
    "1949-04-20",
    "1961-07-31"
  ],
  "stock_exchanges": {
    "1": {
      "id": 1,
      "name": "Paris (Official List)",
      "notations": {
        "25200": {
          "id": 25200,
          "sector_id": 53,
          "start_date": "1955-12-01",
          "end_date": "1961-08-16",
          "names": [
            {
              "name": "Union des Groupements de Sinistrés de la Guerre 1914-1918 4%, r. à 10000 f. (Jce 15/2/49). 1949-61",
              "start_date": "1949-04-14",
              "end_date": "1961-08-16"
            },
            {
              "name": "Union des Groupements des Sinistrés de la Guerre 1914-1918 4% (Tir. 5/7/55) 1949-61",
              "start_date": "1955-12-01",
              "end_date": "1961-08-16"
            },
            {
              "name": "Union des Groupements de Sinistrés de la Guerre 1914-1918 4% (Tir. 24/6/60) 1949-61",
              "start_date": "1955-12-01",
              "end_date": "3999-12-31"
            }
          ]
        },
        "143795": {
          "id": 143795,
          "sector_id": 186,
          "start_date": "1949-04-14",
          "end_date": "1955-12-01",
          "names": [
            {
              "name": "Union des Groupements de Sinistrés de la Guerre 1914-1918 4%, r. à 10000 f. (Jce 15/2/49). 1949-61",
              "start_date": "1949-04-14",
              "end_date": "1955-12-01"
            },
            {
              "name": "Union des Groupements des Sinistrés de la Guerre 1914-1918 4% (Tir. 5/7/55) 1949-61",
              "start_date": "1949-04-14",
              "end_date": "1961-08-16"
            },
            {
              "name": "Union des Groupements de Sinistrés de la Guerre 1914-1918 4% (Tir. 24/6/60) 1949-61",
              "start_date": "1949-04-14",
              "end_date": "3999-12-31"
            }
          ]
        }
      },
      "listings_stats": {
        "start_date": "1949-04-14"
      },
      "spot_prices_stats": {
        "start_date": "1949-04-20",
        "end_date": "1961-07-31"
      }
    }
  },
  "prices_count": 311,
  "name": "Union des Groupements des Sinistrés de la Guerre 1914-1918 4% (Tir. 5/7/55) 1949-61"
}