{
  "id": 16912,
  "share_type": {
    "id": 1,
    "name": "Stock (Action)"
  },
  "issuers": [
    {
      "id": 4832,
      "start_date": "1962-01-02",
      "end_date": "3999-12-31",
      "name": "SOCIETE DES TRANSPORTS URBAINS ET RURAUX"
    }
  ],
  "types": [
    {
      "start_date": "1962-01-02",
      "end_date": "3999-12-31",
      "id": 18,
      "name": "Action",
      "stock_group": "S"
    }
  ],
  "is_mainstock": 0,
  "prices_period": [
    "1962-01-02",
    "1964-03-16"
  ],
  "stock_exchanges": {
    "1": {
      "id": 1,
      "name": "Paris (Official List)",
      "notations": {
        "30597": {
          "id": 30597,
          "sector_id": 353,
          "start_date": "1963-03-04",
          "end_date": "1964-03-17",
          "names": [
            {
              "name": "Transports Urbains et Ruraux (S.T.U.R.), actions",
              "start_date": "1962-01-02",
              "end_date": "1964-03-17"
            },
            {
              "name": "Transports Urbains et Ruraux(S.T.U.R.), actions (ex-dr.,",
              "start_date": "1962-10-01",
              "end_date": "1964-03-17"
            },
            {
              "name": "Transports Urbains et Ruraux(S.T.U.R.), actions.anc.(ex-dr.,",
              "start_date": "1962-10-02",
              "end_date": "1964-03-17"
            },
            {
              "name": "Transports Urbains et Ruraux (S.T.U.R.), Act. anc.",
              "start_date": "1963-03-04",
              "end_date": "3999-12-31"
            }
          ]
        },
        "147487": {
          "id": 147487,
          "sector_id": 417,
          "start_date": "1962-01-02",
          "end_date": "1963-03-04",
          "names": [
            {
              "name": "Transports Urbains et Ruraux (S.T.U.R.), actions",
              "start_date": "1962-01-02",
              "end_date": "1963-03-04"
            },
            {
              "name": "Transports Urbains et Ruraux(S.T.U.R.), actions (ex-dr.,",
              "start_date": "1962-01-02",
              "end_date": "1963-03-04"
            },
            {
              "name": "Transports Urbains et Ruraux(S.T.U.R.), actions.anc.(ex-dr.,",
              "start_date": "1962-01-02",
              "end_date": "1964-03-17"
            },
            {
              "name": "Transports Urbains et Ruraux (S.T.U.R.), Act. anc.",
              "start_date": "1962-01-02",
              "end_date": "3999-12-31"
            }
          ]
        }
      },
      "listings_stats": {
        "start_date": "1962-01-02"
      },
      "spot_prices_stats": {
        "start_date": "1962-01-02",
        "end_date": "1964-03-16"
      }
    }
  },
  "prices_count": 56,
  "name": "Transports Urbains et Ruraux(S.T.U.R.), actions (ex-dr.,"
}