{
  "id": 101515,
  "share_type": {
    "id": 4,
    "name": "Rights (Droits)"
  },
  "issuers": [
    {
      "id": 2996,
      "start_date": "1937-11-05",
      "end_date": "1937-11-29",
      "name": "STÉ FSE DES DISTILLERIES DE L'INDO-CHINE"
    }
  ],
  "types": [
    {
      "start_date": "1937-11-05",
      "end_date": "1937-11-29",
      "id": 501,
      "name": "Droit de souscription",
      "stock_group": "R"
    }
  ],
  "is_mainstock": 0,
  "prices_period": [
    "1937-11-05",
    "1937-11-15"
  ],
  "stock_exchanges": {
    "1": {
      "id": 1,
      "name": "Paris (Official List)",
      "notations": {
        "201660": {
          "id": 201660,
          "sector_id": 657,
          "start_date": "1937-11-05",
          "end_date": "1937-11-30",
          "names": [
            {
              "name": "Act. STE FRANçAISE DES DISTILLERIES DE L'INDOCHINE. (droit et coupon 5). Pour 66 coupons n° 5. 1 action nouvelle émise à 100 francs.",
              "start_date": "1937-11-05",
              "end_date": "1937-11-30"
            }
          ]
        }
      },
      "listings_stats": {
        "start_date": "1937-11-05"
      },
      "spot_prices_stats": {
        "start_date": "1937-11-05",
        "end_date": "1937-11-15"
      }
    }
  },
  "prices_count": 5,
  "name": "Act. STE FRANçAISE DES DISTILLERIES DE L'INDOCHINE. (droit et coupon 5). Pour 66 coupons n° 5. 1 action nouvelle émise à 100 francs."
}