{
  "id": 102668,
  "share_type": {
    "id": 4,
    "name": "Rights (Droits)"
  },
  "issuers": [
    {
      "id": 3482,
      "start_date": "1943-10-01",
      "end_date": "1943-10-28",
      "name": "L'URBAINE-COMPLEMENTAIRE Compagnie Anonyme d'Assurances et de Réassurances à Primes fixes contre les Accidents et Risques divers"
    }
  ],
  "types": [
    {
      "start_date": "1943-10-01",
      "end_date": "1943-10-28",
      "id": 501,
      "name": "Droit de souscription",
      "stock_group": "R"
    }
  ],
  "is_mainstock": 0,
  "prices_period": [
    "1943-10-11",
    "1943-10-15"
  ],
  "stock_exchanges": {
    "1": {
      "id": 1,
      "name": "Paris (Official List)",
      "notations": {
        "202850": {
          "id": 202850,
          "sector_id": 657,
          "start_date": "1943-10-01",
          "end_date": "1943-10-29",
          "names": [
            {
              "name": "Act. L'URBAINE-COMPLEMENTAIRE (CIE ANONYME D'ASSURANCES ET DE REASSURANCES A PRIMES FIXES CONTRE LES ACCIDENTS ET RISQUES DIVERS) (bon de droit). Pour 1 act. ancienne, 4 actions nouvelles émises à 100 francs",
              "start_date": "1943-10-01",
              "end_date": "1943-10-29"
            }
          ]
        }
      },
      "listings_stats": {
        "start_date": "1943-10-01"
      },
      "spot_prices_stats": {
        "start_date": "1943-10-11",
        "end_date": "1943-10-15"
      }
    }
  },
  "prices_count": 2,
  "name": "Act. L'URBAINE-COMPLEMENTAIRE (CIE ANONYME D'ASSURANCES ET DE REASSURANCES A PRIMES FIXES CONTRE LES ACCIDENTS ET RISQUES DIVERS) (bon de droit). Pour 1 act. ancienne, 4 actions nouvelles émises à 100 francs"
}