{
  "id": 3580,
  "share_type": {
    "id": 1,
    "name": "Stock (Action)"
  },
  "issuers": [
    {
      "id": 1804,
      "start_date": "1880-01-16",
      "end_date": "3999-12-31",
      "name": "BANQUE IMPÉRIALE ROYALE PRIVILÉGIÉE DES PAYS AUTRICHIENS"
    }
  ],
  "types": [
    {
      "start_date": "1880-01-16",
      "end_date": "3999-12-31",
      "id": 18,
      "name": "Action",
      "stock_group": "S"
    }
  ],
  "is_mainstock": 1,
  "prices_period": [
    "1881-02-03",
    "1922-05-15"
  ],
  "stock_exchanges": {
    "1": {
      "id": 1,
      "name": "Paris (Official List)",
      "notations": {
        "3807": {
          "id": 3807,
          "sector_id": 68,
          "start_date": "1881-02-03",
          "end_date": "1914-08-03",
          "names": [
            {
              "name": "Banque I.R.P.des Pays-Autrichiennes, act.500f., 250f.p.",
              "start_date": "1880-01-16",
              "end_date": "1914-08-03"
            },
            {
              "name": "Banque des Pays-Autrichiens, act. 200 florins papiers, t. p. . Estamp. du remboursement d'agio de flor. 38,5",
              "start_date": "1881-02-03",
              "end_date": "1914-08-03"
            },
            {
              "name": "Banque I.R.P. des Pays-Autrichiens, act. 400 couronnes, tout payé",
              "start_date": "1881-02-03",
              "end_date": "1918-04-02"
            },
            {
              "name": "Banque I.R.P.des Pays Autrichiens, act.400c.t.p.",
              "start_date": "1881-02-03",
              "end_date": "3999-12-31"
            }
          ]
        },
        "8815": {
          "id": 8815,
          "sector_id": 68,
          "start_date": "1914-12-15",
          "end_date": "1920-01-02",
          "names": [
            {
              "name": "Banque I.R.P.des Pays-Autrichiennes, act.500f., 250f.p.",
              "start_date": "1880-01-16",
              "end_date": "1920-01-02"
            },
            {
              "name": "Banque des Pays-Autrichiens, act. 200 florins papiers, t. p. . Estamp. du remboursement d'agio de flor. 38,5",
              "start_date": "1889-11-07",
              "end_date": "1920-01-02"
            },
            {
              "name": "Banque I.R.P. des Pays-Autrichiens, act. 400 couronnes, tout payé",
              "start_date": "1905-06-22",
              "end_date": "1920-01-02"
            },
            {
              "name": "Banque I.R.P.des Pays Autrichiens, act.400c.t.p.",
              "start_date": "1914-12-15",
              "end_date": "3999-12-31"
            }
          ]
        },
        "9579": {
          "id": 9579,
          "sector_id": 155,
          "start_date": "1920-01-02",
          "end_date": "1923-10-08",
          "names": [
            {
              "name": "Banque I.R.P.des Pays-Autrichiennes, act.500f., 250f.p.",
              "start_date": "1880-01-16",
              "end_date": "1923-10-08"
            },
            {
              "name": "Banque des Pays-Autrichiens, act. 200 florins papiers, t. p. . Estamp. du remboursement d'agio de flor. 38,5",
              "start_date": "1889-11-07",
              "end_date": "1923-10-08"
            },
            {
              "name": "Banque I.R.P. des Pays-Autrichiens, act. 400 couronnes, tout payé",
              "start_date": "1905-06-22",
              "end_date": "1923-10-08"
            },
            {
              "name": "Banque I.R.P.des Pays Autrichiens, act.400c.t.p.",
              "start_date": "1918-04-02",
              "end_date": "3999-12-31"
            }
          ]
        }
      },
      "forward_prices_stats": {
        "start_date": "1881-02-03",
        "end_date": "1914-06-02"
      },
      "listings_stats": {
        "start_date": "1881-02-03"
      },
      "options_prices_stats": {
        "start_date": "1881-02-03",
        "end_date": "1913-09-01"
      },
      "spot_prices_stats": {
        "start_date": "1881-02-03",
        "end_date": "1922-05-15"
      }
    },
    "2": {
      "id": 2,
      "name": "Paris OTC (Coulisse)",
      "notations": {
        "205349": {
          "id": 205349,
          "sector_id": 661,
          "start_date": "1880-01-16",
          "end_date": "1881-12-31",
          "names": [
            {
              "name": "Bque IRP Autrich",
              "start_date": "1880-01-16",
              "end_date": "1881-12-31"
            }
          ]
        }
      },
      "listings_stats": {
        "start_date": "1880-01-16"
      }
    }
  },
  "prices_count": 3176,
  "name": "Banque I.R.P.des Pays Autrichiens, act.400c.t.p."
}