{
  "id": 18764,
  "share_type": {
    "id": 1,
    "name": "Stock (Action)"
  },
  "issuers": [
    {
      "id": 5707,
      "start_date": "1967-11-16",
      "end_date": "3999-12-31",
      "name": "Acier-Investissement"
    }
  ],
  "types": [
    {
      "start_date": "1967-11-16",
      "end_date": "3999-12-31",
      "id": 27,
      "name": "Promesse d'action",
      "stock_group": "S"
    }
  ],
  "is_mainstock": 0,
  "prices_period": [
    "1967-11-17",
    "1968-11-15"
  ],
  "stock_exchanges": {
    "1": {
      "id": 1,
      "name": "Paris (Official List)",
      "notations": {
        "149339": {
          "id": 149339,
          "sector_id": 461,
          "start_date": "1967-11-16",
          "end_date": "1968-11-25",
          "names": [
            {
              "name": "Acier-Investissement, Promesses (Jce 10/10/67)",
              "start_date": "1967-11-16",
              "end_date": "3999-12-31"
            }
          ]
        }
      },
      "listings_stats": {
        "start_date": "1967-11-16"
      },
      "spot_prices_stats": {
        "start_date": "1967-11-17",
        "end_date": "1968-11-15"
      }
    }
  },
  "prices_count": 25,
  "name": "Acier-Investissement, Promesses (Jce 10/10/67)"
}