{
  "id": 104447,
  "share_type": {
    "id": 1,
    "name": "Stock (Action)"
  },
  "issuers": [
    {
      "id": 12055,
      "start_date": "1881-01-15",
      "end_date": "1886-12-31",
      "name": "Huitrières de Marennes"
    }
  ],
  "types": [
    {
      "start_date": "1881-01-15",
      "end_date": "1886-12-31",
      "id": 18,
      "name": "Action",
      "stock_group": "S"
    }
  ],
  "is_mainstock": 1,
  "prices_period": [
    "1881-09-30",
    "1884-09-15"
  ],
  "stock_exchanges": {
    "2": {
      "id": 2,
      "name": "Paris OTC (Coulisse)",
      "notations": {
        "204841": {
          "id": 204841,
          "sector_id": 672,
          "start_date": "1881-01-15",
          "end_date": "1886-12-31",
          "names": [
            {
              "name": "Huitrières Marennes",
              "start_date": "1881-01-15",
              "end_date": "1886-12-31"
            }
          ]
        }
      },
      "listings_stats": {
        "start_date": "1881-01-15"
      },
      "spot_prices_stats": {
        "start_date": "1881-09-30",
        "end_date": "1884-09-15"
      }
    }
  },
  "prices_count": 80,
  "name": "Huitrières Marennes"
}