{
  "id": 15104,
  "share_type": {
    "id": 1,
    "name": "Stock (Action)"
  },
  "issuers": [
    {
      "id": 1276,
      "start_date": "1955-10-03",
      "end_date": "3999-12-31",
      "name": "Union de Transports Aériens (U.T.A.)"
    }
  ],
  "types": [
    {
      "start_date": "1955-10-03",
      "end_date": "3999-12-31",
      "id": 11,
      "name": "Action ordinaire",
      "stock_group": "S"
    }
  ],
  "is_mainstock": 0,
  "prices_period": [
    "1955-10-03",
    "1962-01-02"
  ],
  "stock_exchanges": {
    "1": {
      "id": 1,
      "name": "Paris (Official List)",
      "notations": {
        "28169": {
          "id": 28169,
          "sector_id": 505,
          "start_date": "1961-12-30",
          "end_date": "1962-01-02",
          "names": [
            {
              "name": "Transports Aériens Internationaux (T. A. I.), act. 2500 fr., t. p. (Jce 1/1/55) (nom).",
              "start_date": "1955-10-03",
              "end_date": "1962-01-02"
            },
            {
              "name": "Transports Aériens Intercontinentaux (T. A. I.), act. (Jce 1/1/55) (nom.)",
              "start_date": "1955-12-01",
              "end_date": "1962-01-02"
            },
            {
              "name": "Transports aériens intercontinentaux (TAI), act anc (ex-dr, est du 28/3/60)(nom)",
              "start_date": "1960-01-15",
              "end_date": "3999-12-31"
            }
          ]
        },
        "145679": {
          "id": 145679,
          "sector_id": 105,
          "start_date": "1955-10-03",
          "end_date": "1961-12-30",
          "names": [
            {
              "name": "Transports Aériens Internationaux (T. A. I.), act. 2500 fr., t. p. (Jce 1/1/55) (nom).",
              "start_date": "1955-10-03",
              "end_date": "1961-12-30"
            },
            {
              "name": "Transports Aériens Intercontinentaux (T. A. I.), act. (Jce 1/1/55) (nom.)",
              "start_date": "1955-10-03",
              "end_date": "1961-12-30"
            },
            {
              "name": "Transports aériens intercontinentaux (TAI), act anc (ex-dr, est du 28/3/60)(nom)",
              "start_date": "1955-10-03",
              "end_date": "3999-12-31"
            }
          ]
        }
      },
      "listings_stats": {
        "start_date": "1955-10-03"
      },
      "spot_prices_stats": {
        "start_date": "1955-10-03",
        "end_date": "1962-01-02"
      }
    }
  },
  "prices_count": 171,
  "name": "Transports Aériens Intercontinentaux (T. A. I.), act. (Jce 1/1/55) (nom.)"
}