{
  "id": 8976,
  "share_type": {
    "id": 2,
    "name": "Bond (Obligation)"
  },
  "issuers": [
    {
      "id": 5083,
      "start_date": "1930-07-16",
      "end_date": "3999-12-31",
      "name": "ETATS : HONGRIE"
    }
  ],
  "types": [
    {
      "start_date": "1930-07-16",
      "end_date": "3999-12-31",
      "id": 1001,
      "name": "Obligation ordinaire ou classique",
      "stock_group": "B"
    }
  ],
  "is_mainstock": 0,
  "prices_period": [
    "1930-07-16",
    "1951-12-17"
  ],
  "stock_exchanges": {
    "1": {
      "id": 1,
      "name": "Paris (Official List)",
      "notations": {
        "21594": {
          "id": 21594,
          "sector_id": 234,
          "start_date": "1948-01-15",
          "end_date": "1954-04-15",
          "names": [
            {
              "name": "Hongrie 6% 1925. T. C de 1000 fr. (nos 1 à 39000 et 43001 à 46200)",
              "start_date": "1930-07-16",
              "end_date": "1954-04-15"
            },
            {
              "name": "Hongrie 6% 1925. Oblig. de 1000 fr (nos 1 à 39000 et 43001 à 46200).",
              "start_date": "1934-01-23",
              "end_date": "1954-04-15"
            },
            {
              "name": "Hongrie 6% 1925 (Jce 1/7/43). Oblig. 1000 fr. (n°s 1 à 39000 et 43001 à 46200) [Jouiss. Anc.1/32]",
              "start_date": "1938-07-11",
              "end_date": "1954-04-15"
            },
            {
              "name": "Hongrie 6% 1925 (Jce 1/7/43). Oblig. 1000 fr. (n°s 1 à 39000 et 43001 à 46200) Jouiss. Anc.",
              "start_date": "1948-01-02",
              "end_date": "3999-12-31"
            }
          ]
        },
        "22994": {
          "id": 22994,
          "sector_id": 74,
          "start_date": "1944-10-10",
          "end_date": "1948-01-02",
          "names": [
            {
              "name": "Hongrie 6% 1925. T. C de 1000 fr. (nos 1 à 39000 et 43001 à 46200)",
              "start_date": "1930-07-16",
              "end_date": "1948-01-02"
            },
            {
              "name": "Hongrie 6% 1925. Oblig. de 1000 fr (nos 1 à 39000 et 43001 à 46200).",
              "start_date": "1934-01-23",
              "end_date": "1948-01-02"
            },
            {
              "name": "Hongrie 6% 1925 (Jce 1/7/43). Oblig. 1000 fr. (n°s 1 à 39000 et 43001 à 46200) [Jouiss. Anc.1/32]",
              "start_date": "1938-07-11",
              "end_date": "1948-01-02"
            },
            {
              "name": "Hongrie 6% 1925 (Jce 1/7/43). Oblig. 1000 fr. (n°s 1 à 39000 et 43001 à 46200) Jouiss. Anc.",
              "start_date": "1944-10-10",
              "end_date": "3999-12-31"
            }
          ]
        },
        "136423": {
          "id": 136423,
          "sector_id": 74,
          "start_date": "1930-07-16",
          "end_date": "1940-06-11",
          "names": [
            {
              "name": "Hongrie 6% 1925. T. C de 1000 fr. (nos 1 à 39000 et 43001 à 46200)",
              "start_date": "1930-07-16",
              "end_date": "1940-06-11"
            },
            {
              "name": "Hongrie 6% 1925. Oblig. de 1000 fr (nos 1 à 39000 et 43001 à 46200).",
              "start_date": "1930-07-16",
              "end_date": "1940-06-11"
            },
            {
              "name": "Hongrie 6% 1925 (Jce 1/7/43). Oblig. 1000 fr. (n°s 1 à 39000 et 43001 à 46200) [Jouiss. Anc.1/32]",
              "start_date": "1930-07-16",
              "end_date": "1948-01-02"
            },
            {
              "name": "Hongrie 6% 1925 (Jce 1/7/43). Oblig. 1000 fr. (n°s 1 à 39000 et 43001 à 46200) Jouiss. Anc.",
              "start_date": "1930-07-16",
              "end_date": "3999-12-31"
            }
          ]
        }
      },
      "listings_stats": {
        "start_date": "1930-07-16"
      },
      "spot_prices_stats": {
        "start_date": "1930-07-16",
        "end_date": "1951-12-17"
      }
    }
  },
  "prices_count": 331,
  "name": "Hongrie 6% 1925 (Jce 1/7/43). Oblig. 1000 fr. (n°s 1 à 39000 et 43001 à 46200) Jouiss. Anc."
}