{
  "id": 6259,
  "share_type": {
    "id": 2,
    "name": "Bond (Obligation)"
  },
  "issuers": [
    {
      "id": 3452,
      "start_date": "1912-07-16",
      "end_date": "3999-12-31",
      "name": "BANCO \"EL HOGAR ARGENTINO\" (Crédit Foncier Mutuel)"
    }
  ],
  "types": [
    {
      "start_date": "1912-07-16",
      "end_date": "3999-12-31",
      "id": 1001,
      "name": "Obligation ordinaire ou classique",
      "stock_group": "B"
    }
  ],
  "is_mainstock": 0,
  "prices_period": [
    "1912-07-16",
    "1920-06-30"
  ],
  "stock_exchanges": {
    "1": {
      "id": 1,
      "name": "Paris (Official List)",
      "notations": {
        "9160": {
          "id": 9160,
          "sector_id": 127,
          "start_date": "1912-07-16",
          "end_date": "1914-08-03",
          "names": [
            {
              "name": "Banco El Hogar Argentino 4.5% 1911, remb. à 500 fr",
              "start_date": "1912-07-16",
              "end_date": "1920-07-01"
            },
            {
              "name": "Banco El Hogar Argentino 4.5% 1911, remb. à 500 fr (jouissance en juillet)",
              "start_date": "1912-07-16",
              "end_date": "3999-12-31"
            }
          ]
        },
        "9414": {
          "id": 9414,
          "sector_id": 127,
          "start_date": "1914-12-15",
          "end_date": "1926-03-29",
          "names": [
            {
              "name": "Banco El Hogar Argentino 4.5% 1911, remb. à 500 fr",
              "start_date": "1912-07-16",
              "end_date": "1926-03-29"
            },
            {
              "name": "Banco El Hogar Argentino 4.5% 1911, remb. à 500 fr (jouissance en juillet)",
              "start_date": "1914-12-15",
              "end_date": "3999-12-31"
            }
          ]
        }
      },
      "listings_stats": {
        "start_date": "1912-07-16"
      },
      "spot_prices_stats": {
        "start_date": "1912-07-16",
        "end_date": "1920-06-30"
      }
    }
  },
  "prices_count": 79,
  "name": "Banco El Hogar Argentino 4.5% 1911, remb. à 500 fr"
}