{
  "id": 102429,
  "share_type": {
    "id": 4,
    "name": "Rights (Droits)"
  },
  "issuers": [
    {
      "id": 2980,
      "start_date": "1948-03-01",
      "end_date": "3999-12-31",
      "name": "SOCIÉTÉ ANONYME DES CARRIERES DE L'OUEST (Etablissements BARRIER)"
    }
  ],
  "types": [
    {
      "start_date": "1948-03-01",
      "end_date": "3999-12-31",
      "id": 501,
      "name": "Droit de souscription",
      "stock_group": "R"
    }
  ],
  "is_mainstock": 0,
  "prices_period": [
    "1948-03-01",
    "1948-03-01"
  ],
  "stock_exchanges": {
    "1": {
      "id": 1,
      "name": "Paris (Official List)",
      "notations": {
        "202611": {
          "id": 202611,
          "sector_id": 657,
          "start_date": "1948-03-01",
          "end_date": "4000-01-01",
          "names": [
            {
              "name": "Act. et 10e part de fond. Carrières de l'Ouest (Etabl. Barrier) (bon de droit). 1 action nouvelle émise à 550 fr. pour 9 bons. (Voir Avis n° 24370)",
              "start_date": "1948-03-01",
              "end_date": "4000-01-01"
            }
          ]
        }
      },
      "listings_stats": {
        "start_date": "1948-03-01"
      },
      "spot_prices_stats": {
        "start_date": "1948-03-01",
        "end_date": "1948-03-01"
      }
    }
  },
  "prices_count": 1,
  "name": "Act. et 10e part de fond. Carrières de l'Ouest (Etabl. Barrier) (bon de droit). 1 action nouvelle émise à 550 fr. pour 9 bons. (Voir Avis n° 24370)"
}