{
  "id": 100995,
  "share_type": {
    "id": 4,
    "name": "Rights (Droits)"
  },
  "issuers": [
    {
      "id": 1376,
      "start_date": "1948-11-15",
      "end_date": "3999-12-31",
      "name": "MANUFRES DES GLACES ET PRODUITS CHIMIQUES DE SAINT-GOBAIN, CHAUNY ET CIREY"
    }
  ],
  "types": [
    {
      "start_date": "1948-11-15",
      "end_date": "3999-12-31",
      "id": 501,
      "name": "Droit de souscription",
      "stock_group": "R"
    }
  ],
  "is_mainstock": 0,
  "prices_period": [
    "1948-11-15",
    "1948-11-15"
  ],
  "stock_exchanges": {
    "1": {
      "id": 1,
      "name": "Paris (Official List)",
      "notations": {
        "201140": {
          "id": 201140,
          "sector_id": 657,
          "start_date": "1948-11-15",
          "end_date": "4000-01-01",
          "names": [
            {
              "name": "St-Gobain, Chauny et Cirey (Manufactures des Glaces et Produits Chimiques) (droit et coup. 43) (1 act. Nouv. Émise à 1125 fr. pour 4 act. Anc.)",
              "start_date": "1948-11-15",
              "end_date": "4000-01-01"
            }
          ]
        }
      },
      "listings_stats": {
        "start_date": "1948-11-15"
      },
      "spot_prices_stats": {
        "start_date": "1948-11-15",
        "end_date": "1948-11-15"
      }
    }
  },
  "prices_count": 2,
  "name": "St-Gobain, Chauny et Cirey (Manufactures des Glaces et Produits Chimiques) (droit et coup. 43) (1 act. Nouv. Émise à 1125 fr. pour 4 act. Anc.)"
}