{
  "id": 20911,
  "share_type": {
    "id": 3,
    "name": "OPTIONS"
  },
  "issuers": [
    {
      "id": 6166,
      "start_date": "1971-12-13",
      "end_date": "3999-12-31",
      "name": "Carrefour"
    }
  ],
  "types": [
    {
      "start_date": "1971-12-13",
      "end_date": "3999-12-31",
      "id": 2,
      "name": "Option",
      "stock_group": "M"
    }
  ],
  "is_mainstock": 0,
  "prices_period": [
    null,
    null
  ],
  "stock_exchanges": {
    "1": {
      "id": 1,
      "name": "Paris (Official List)",
      "notations": {
        "151481": {
          "id": 151481,
          "sector_id": 604,
          "start_date": "1971-12-13",
          "end_date": "1971-12-31",
          "names": [
            {
              "name": "Carrefour",
              "start_date": "1971-12-13",
              "end_date": "3999-12-31"
            }
          ]
        }
      },
      "listings_stats": {
        "start_date": "1971-12-13"
      }
    }
  },
  "prices_count": 0,
  "name": "Carrefour"
}