{
  "id": 5470,
  "share_type": {
    "id": 2,
    "name": "Bond (Obligation)"
  },
  "issuers": [
    {
      "id": 2221,
      "start_date": "1907-08-01",
      "end_date": "3999-12-31",
      "name": "Compagnie des Chemins de fer Andalous"
    }
  ],
  "types": [
    {
      "start_date": "1907-08-01",
      "end_date": "3999-12-31",
      "id": 1001,
      "name": "Obligation ordinaire ou classique",
      "stock_group": "B"
    }
  ],
  "is_mainstock": 0,
  "prices_period": [
    "1907-08-01",
    "1925-07-31"
  ],
  "stock_exchanges": {
    "1": {
      "id": 1,
      "name": "Paris (Official List)",
      "notations": {
        "7875": {
          "id": 7875,
          "sector_id": 68,
          "start_date": "1907-08-01",
          "end_date": "1914-08-03",
          "names": [
            {
              "name": "Andalous (chemins de fer) Obl. 500fr., 2e série, 3%, à revenu fixe, nos 32932 à 98793.",
              "start_date": "1907-08-01",
              "end_date": "1920-01-02"
            },
            {
              "name": "Andalous, obl 500 fr, 2e série, 3% à rev fixe (n° 32932 à 98793)",
              "start_date": "1907-08-01",
              "end_date": "1925-05-01"
            },
            {
              "name": "Andalous, oblig. 500 fr., 2e série, 3%, à rev. fixe. (nos 32932 à 98793) Jouiss. Courante",
              "start_date": "1907-08-01",
              "end_date": "1925-06-16"
            },
            {
              "name": "Andalous, oblig. 500 fr., 2e série, 3%, à rev. fixe. (nos 32932 à 98793) estamp.",
              "start_date": "1907-08-01",
              "end_date": "3999-12-31"
            }
          ]
        },
        "8868": {
          "id": 8868,
          "sector_id": 68,
          "start_date": "1914-12-15",
          "end_date": "1918-04-02",
          "names": [
            {
              "name": "Andalous (chemins de fer) Obl. 500fr., 2e série, 3%, à revenu fixe, nos 32932 à 98793.",
              "start_date": "1907-08-01",
              "end_date": "1920-01-02"
            },
            {
              "name": "Andalous, obl 500 fr, 2e série, 3% à rev fixe (n° 32932 à 98793)",
              "start_date": "1914-12-15",
              "end_date": "1925-05-01"
            },
            {
              "name": "Andalous, oblig. 500 fr., 2e série, 3%, à rev. fixe. (nos 32932 à 98793) Jouiss. Courante",
              "start_date": "1914-12-15",
              "end_date": "1925-06-16"
            },
            {
              "name": "Andalous, oblig. 500 fr., 2e série, 3%, à rev. fixe. (nos 32932 à 98793) estamp.",
              "start_date": "1914-12-15",
              "end_date": "3999-12-31"
            }
          ]
        },
        "9499": {
          "id": 9499,
          "sector_id": 144,
          "start_date": "1918-04-02",
          "end_date": "1925-05-01",
          "names": [
            {
              "name": "Andalous (chemins de fer) Obl. 500fr., 2e série, 3%, à revenu fixe, nos 32932 à 98793.",
              "start_date": "1907-08-01",
              "end_date": "1925-05-01"
            },
            {
              "name": "Andalous, obl 500 fr, 2e série, 3% à rev fixe (n° 32932 à 98793)",
              "start_date": "1918-04-02",
              "end_date": "1925-05-01"
            },
            {
              "name": "Andalous, oblig. 500 fr., 2e série, 3%, à rev. fixe. (nos 32932 à 98793) Jouiss. Courante",
              "start_date": "1918-04-02",
              "end_date": "1925-06-16"
            },
            {
              "name": "Andalous, oblig. 500 fr., 2e série, 3%, à rev. fixe. (nos 32932 à 98793) estamp.",
              "start_date": "1918-04-02",
              "end_date": "3999-12-31"
            }
          ]
        },
        "13617": {
          "id": 13617,
          "sector_id": 128,
          "start_date": "1925-05-01",
          "end_date": "1925-08-03",
          "names": [
            {
              "name": "Andalous (chemins de fer) Obl. 500fr., 2e série, 3%, à revenu fixe, nos 32932 à 98793.",
              "start_date": "1907-08-01",
              "end_date": "1925-08-03"
            },
            {
              "name": "Andalous, obl 500 fr, 2e série, 3% à rev fixe (n° 32932 à 98793)",
              "start_date": "1920-01-02",
              "end_date": "1925-08-03"
            },
            {
              "name": "Andalous, oblig. 500 fr., 2e série, 3%, à rev. fixe. (nos 32932 à 98793) Jouiss. Courante",
              "start_date": "1925-05-01",
              "end_date": "1925-08-03"
            },
            {
              "name": "Andalous, oblig. 500 fr., 2e série, 3%, à rev. fixe. (nos 32932 à 98793) estamp.",
              "start_date": "1925-05-01",
              "end_date": "3999-12-31"
            }
          ]
        }
      },
      "forward_prices_stats": {
        "start_date": "1907-08-01",
        "end_date": "1912-09-30"
      },
      "listings_stats": {
        "start_date": "1907-08-01"
      },
      "spot_prices_stats": {
        "start_date": "1907-08-01",
        "end_date": "1925-07-31"
      }
    }
  },
  "prices_count": 446,
  "name": "Andalous, oblig. 500 fr., 2e série, 3%, à rev. fixe. (nos 32932 à 98793) estamp."
}