{
  "id": 19530,
  "share_type": {
    "id": 2,
    "name": "Bond (Obligation)"
  },
  "issuers": [
    {
      "id": 4479,
      "start_date": "1967-05-02",
      "end_date": "3999-12-31",
      "name": "ETABLISSEMENTS CODER"
    }
  ],
  "types": [
    {
      "start_date": "1967-05-02",
      "end_date": "3999-12-31",
      "id": 1001,
      "name": "Obligation ordinaire ou classique",
      "stock_group": "B"
    }
  ],
  "is_mainstock": 0,
  "prices_period": [
    "1967-05-16",
    "1969-01-31"
  ],
  "stock_exchanges": {
    "1": {
      "id": 1,
      "name": "Paris (Official List)",
      "notations": {
        "150105": {
          "id": 150105,
          "sector_id": 363,
          "start_date": "1967-05-02",
          "end_date": "1969-02-03",
          "names": [
            {
              "name": "Marseille_Bourse Coder (Etabl.) 4,25% 1944. 1945-69",
              "start_date": "1967-05-02",
              "end_date": "1969-02-03"
            },
            {
              "name": "MARSEILLE_BOURSE Coder (Etabl.) 4,25% 1944 (Tir. 21/12/67) 1945-69",
              "start_date": "1967-05-02",
              "end_date": "3999-12-31"
            }
          ]
        }
      },
      "listings_stats": {
        "start_date": "1967-05-02"
      },
      "spot_prices_stats": {
        "start_date": "1967-05-16",
        "end_date": "1969-01-31"
      }
    }
  },
  "prices_count": 42,
  "name": "Marseille_Bourse Coder (Etabl.) 4,25% 1944. 1945-69"
}