{
  "id": 100829,
  "share_type": {
    "id": 4,
    "name": "Rights (Droits)"
  },
  "issuers": [
    {
      "id": 3474,
      "start_date": "1947-11-19",
      "end_date": "1951-05-16",
      "name": "STEMI (Société de Transports et Manutentions Industriels)"
    }
  ],
  "types": [
    {
      "start_date": "1947-11-19",
      "end_date": "1951-05-16",
      "id": 502,
      "name": "Droit d'attribution",
      "stock_group": "R"
    }
  ],
  "is_mainstock": 0,
  "prices_period": [
    "1947-11-19",
    "1947-11-19"
  ],
  "stock_exchanges": {
    "1": {
      "id": 1,
      "name": "Paris (Official List)",
      "notations": {
        "200974": {
          "id": 200974,
          "sector_id": 658,
          "start_date": "1947-11-19",
          "end_date": "1951-05-17",
          "names": [
            {
              "name": "S.T.E.M.I (Sté de Transp. et Manutentions Indust.) (dr. et c. 29). 1 act. nouv. pour 10 act. anc.",
              "start_date": "1947-11-19",
              "end_date": "1951-05-17"
            }
          ]
        }
      },
      "listings_stats": {
        "start_date": "1947-11-19"
      },
      "spot_prices_stats": {
        "start_date": "1947-11-19",
        "end_date": "1947-11-19"
      }
    }
  },
  "prices_count": 1,
  "name": "S.T.E.M.I (Sté de Transp. et Manutentions Indust.) (dr. et c. 29). 1 act. nouv. pour 10 act. anc."
}