{
  "id": 7731,
  "share_type": {
    "id": 1,
    "name": "Stock (Action)"
  },
  "issuers": [
    {
      "id": 3226,
      "start_date": "1925-01-21",
      "end_date": "3999-12-31",
      "name": "CHEMINS DE FER DU CONGO SUPÉRIEUR AUX GRANDS LACS AFRICAINS"
    }
  ],
  "types": [
    {
      "start_date": "1925-01-21",
      "end_date": "3999-12-31",
      "id": 18,
      "name": "Action",
      "stock_group": "S"
    }
  ],
  "is_mainstock": 0,
  "prices_period": [
    null,
    null
  ],
  "stock_exchanges": {
    "1": {
      "id": 1,
      "name": "Paris (Official List)",
      "notations": {
        "34601": {
          "id": 34601,
          "sector_id": 168,
          "start_date": "1925-01-21",
          "end_date": "1925-01-21",
          "names": [
            {
              "name": "Congo Supérieur aux Grands Lacs Africains, act. de cap. 250 fr., t. p.",
              "start_date": "1925-01-21",
              "end_date": "3999-12-31"
            }
          ]
        }
      },
      "listings_stats": {
        "start_date": "1925-01-21"
      }
    }
  },
  "prices_count": 0,
  "name": "Congo Supérieur aux Grands Lacs Africains, act. de cap. 250 fr., t. p."
}