{
  "id": 102009,
  "share_type": {
    "id": 4,
    "name": "Rights (Droits)"
  },
  "issuers": [
    {
      "id": 4589,
      "start_date": "1925-08-25",
      "end_date": "1925-09-28",
      "name": "CAOUTCHOUCS DE L'INDOCHINE"
    }
  ],
  "types": [
    {
      "start_date": "1925-08-25",
      "end_date": "1925-09-28",
      "id": 501,
      "name": "Droit de souscription",
      "stock_group": "R"
    }
  ],
  "is_mainstock": 0,
  "prices_period": [
    "1925-08-31",
    "1925-09-15"
  ],
  "stock_exchanges": {
    "1": {
      "id": 1,
      "name": "Paris (Official List)",
      "notations": {
        "202191": {
          "id": 202191,
          "sector_id": 657,
          "start_date": "1925-08-25",
          "end_date": "1925-09-29",
          "names": [
            {
              "name": "Act. Caoutchoucs de l'Indo-Chine (droit et coupon 6)",
              "start_date": "1925-08-25",
              "end_date": "1925-09-29"
            }
          ]
        }
      },
      "listings_stats": {
        "start_date": "1925-08-25"
      },
      "spot_prices_stats": {
        "start_date": "1925-08-31",
        "end_date": "1925-09-15"
      }
    }
  },
  "prices_count": 0,
  "name": "Act. Caoutchoucs de l'Indo-Chine (droit et coupon 6)"
}