{
  "id": 21515,
  "share_type": {
    "id": 1,
    "name": "Stock (Action)"
  },
  "issuers": [
    {
      "id": 5860,
      "start_date": "1975-04-28",
      "end_date": "3999-12-31",
      "name": "Magasins Génér. Lyon-Guillotière"
    }
  ],
  "types": [
    {
      "start_date": "1975-04-28",
      "end_date": "3999-12-31",
      "id": 18,
      "name": "Action",
      "stock_group": "S"
    }
  ],
  "is_mainstock": 0,
  "prices_period": [
    "1975-05-07",
    "1975-06-30"
  ],
  "stock_exchanges": {
    "1": {
      "id": 1,
      "name": "Paris (Official List)",
      "notations": {
        "152082": {
          "id": 152082,
          "sector_id": 346,
          "start_date": "1975-04-28",
          "end_date": "1975-07-15",
          "names": [
            {
              "name": "Lyon_Bourse Magasins Génér. Lyon-Gouillotière, act.(n° 21409 à 32112)(Jce.1/1/75)",
              "start_date": "1975-04-28",
              "end_date": "1975-07-15"
            },
            {
              "name": "LYON_BOURSE Magasins Génér.Lyon-Guillotière, act.(n° 21409 0 32112) (Jce 1/1/75)",
              "start_date": "1975-04-28",
              "end_date": "3999-12-31"
            }
          ]
        }
      },
      "listings_stats": {
        "start_date": "1975-04-28"
      },
      "spot_prices_stats": {
        "start_date": "1975-05-07",
        "end_date": "1975-06-30"
      }
    }
  },
  "prices_count": 5,
  "name": "LYON_BOURSE Magasins Génér.Lyon-Guillotière, act.(n° 21409 0 32112) (Jce 1/1/75)"
}