{
  "id": 21169,
  "share_type": {
    "id": 2,
    "name": "Bond (Obligation)"
  },
  "issuers": [
    {
      "id": 4428,
      "start_date": "1973-07-27",
      "end_date": "3999-12-31",
      "name": "Groupement de l'Industrie Siderurgique pour faciliter la reprise et le développement de la production"
    }
  ],
  "types": [
    {
      "start_date": "1973-07-27",
      "end_date": "3999-12-31",
      "id": 1001,
      "name": "Obligation ordinaire ou classique",
      "stock_group": "B"
    }
  ],
  "is_mainstock": 0,
  "prices_period": [
    "1973-07-31",
    "1976-12-31"
  ],
  "stock_exchanges": {
    "1": {
      "id": 1,
      "name": "Paris (Official List)",
      "notations": {
        "151739": {
          "id": 151739,
          "sector_id": 111,
          "start_date": "1973-07-27",
          "end_date": "3999-12-31",
          "names": [
            {
              "name": "Groupement de l'Industrie Sidérurgique \"G.I.S.\" 8,80% mai 1973 de 1000 F (c. 29/5/74 att.) (Avis 73-662). Remb. À 1000 F le 29/5/1993",
              "start_date": "1973-07-27",
              "end_date": "3999-12-31"
            }
          ]
        }
      },
      "listings_stats": {
        "start_date": "1973-07-27"
      },
      "spot_prices_stats": {
        "start_date": "1973-07-31",
        "end_date": "1976-12-31"
      }
    }
  },
  "prices_count": 84,
  "name": "Groupement de l'Industrie Sidérurgique \"G.I.S.\" 8,80% mai 1973 de 1000 F (c. 29/5/74 att.) (Avis 73-662). Remb. À 1000 F le 29/5/1993"
}