{
  "id": 2654,
  "share_type": {
    "id": 2,
    "name": "Bond (Obligation)"
  },
  "issuers": [
    {
      "id": 566,
      "start_date": "1885-04-11",
      "end_date": "3999-12-31",
      "name": "Crédit Foncier de France"
    }
  ],
  "types": [
    {
      "start_date": "1885-04-11",
      "end_date": "3999-12-31",
      "id": 1001,
      "name": "Obligation ordinaire ou classique",
      "stock_group": "B"
    }
  ],
  "is_mainstock": 0,
  "prices_period": [
    "1885-04-11",
    "1898-07-15"
  ],
  "stock_exchanges": {
    "1": {
      "id": 1,
      "name": "Paris (Official List)",
      "notations": {
        "3753": {
          "id": 3753,
          "sector_id": 574,
          "start_date": "1885-04-11",
          "end_date": "1898-07-26",
          "names": [
            {
              "name": "Crédit de Foncier de France, Obl.foncières 1885, 3%, r.à 500f., 40f.p.",
              "start_date": "1885-04-11",
              "end_date": "3999-12-31"
            }
          ]
        }
      },
      "forward_prices_stats": {
        "start_date": "1892-05-16",
        "end_date": "1892-07-15"
      },
      "listings_stats": {
        "start_date": "1885-04-11"
      },
      "spot_prices_stats": {
        "start_date": "1885-04-11",
        "end_date": "1898-07-15"
      }
    }
  },
  "prices_count": 816,
  "name": "Crédit de Foncier de France, Obl.foncières 1885, 3%, r.à 500f., 40f.p."
}