{
  "id": 20700,
  "share_type": {
    "id": 2,
    "name": "Bond (Obligation)"
  },
  "issuers": [
    {
      "id": 5356,
      "start_date": "1971-02-02",
      "end_date": "3999-12-31",
      "name": "Société Française des Laboratoires Labaz"
    }
  ],
  "types": [
    {
      "start_date": "1971-02-02",
      "end_date": "3999-12-31",
      "id": 1001,
      "name": "Obligation ordinaire ou classique",
      "stock_group": "B"
    }
  ],
  "is_mainstock": 0,
  "prices_period": [
    "1971-02-15",
    "1976-12-31"
  ],
  "stock_exchanges": {
    "1": {
      "id": 1,
      "name": "Paris (Official List)",
      "notations": {
        "151270": {
          "id": 151270,
          "sector_id": 247,
          "start_date": "1971-02-02",
          "end_date": "3999-12-31",
          "names": [
            {
              "name": "Labaz 7,25% avril 1969, remb. 560 à 600 F (Tir. 23/2/71) (Avis 69-777) 1970-84",
              "start_date": "1971-02-02",
              "end_date": "3999-12-31"
            }
          ]
        }
      },
      "listings_stats": {
        "start_date": "1971-02-02"
      },
      "spot_prices_stats": {
        "start_date": "1971-02-15",
        "end_date": "1976-12-31"
      }
    }
  },
  "prices_count": 142,
  "name": "Labaz 7,25% avril 1969, remb. 560 à 600 F (Tir. 23/2/71) (Avis 69-777) 1970-84"
}