{
  "id": 40026,
  "share_type": {
    "id": 1,
    "name": "Stock (Action)"
  },
  "issuers": [
    {
      "id": 2993,
      "start_date": "1947-02-17",
      "end_date": "1947-07-15",
      "name": "STE DES CIMENTS PORTLAND ARTIFICIELS DE L'INDOCHINE"
    }
  ],
  "types": [
    {
      "start_date": "1000-01-01",
      "end_date": "3999-12-31",
      "id": 18,
      "name": "Action",
      "stock_group": "S"
    }
  ],
  "is_mainstock": 0,
  "prices_period": [
    "1947-03-17",
    "1947-06-30"
  ],
  "stock_exchanges": {
    "1": {
      "id": 1,
      "name": "Paris (Official List)",
      "notations": {
        "155026": {
          "id": 155026,
          "sector_id": 181,
          "start_date": "1947-02-17",
          "end_date": "1947-07-15",
          "names": [
            {
              "name": "Ciments Portland Artificiels de l'Indo-Chine, act. 100 fr (n° 4275501 à 1140000)(c. 68)",
              "start_date": "1947-02-17",
              "end_date": "1947-07-15"
            }
          ]
        }
      },
      "listings_stats": {
        "start_date": "1947-02-17"
      },
      "spot_prices_stats": {
        "start_date": "1947-03-17",
        "end_date": "1947-06-30"
      }
    }
  },
  "prices_count": 10,
  "name": "Ciments Portland Artificiels de l'Indo-Chine, act. 100 fr (n° 4275501 à 1140000)(c. 68)"
}