{
  "id": 8743,
  "share_type": {
    "id": 2,
    "name": "Bond (Obligation)"
  },
  "issuers": [
    {
      "id": 3366,
      "start_date": "1928-03-29",
      "end_date": "3999-12-31",
      "name": "VILLES : BAHIA"
    }
  ],
  "types": [
    {
      "start_date": "1928-03-29",
      "end_date": "3999-12-31",
      "id": 1001,
      "name": "Obligation ordinaire ou classique",
      "stock_group": "B"
    }
  ],
  "is_mainstock": 0,
  "prices_period": [
    "1928-03-29",
    "1932-05-17"
  ],
  "stock_exchanges": {
    "1": {
      "id": 1,
      "name": "Paris (Official List)",
      "notations": {
        "136190": {
          "id": 136190,
          "sector_id": 126,
          "start_date": "1928-03-29",
          "end_date": "1932-08-01",
          "names": [
            {
              "name": "Ville de Bahia 5% 1905, remb. à 500 fr., Jouissance courante",
              "start_date": "1928-03-29",
              "end_date": "3999-12-31"
            }
          ]
        }
      },
      "listings_stats": {
        "start_date": "1928-03-29"
      },
      "spot_prices_stats": {
        "start_date": "1928-03-29",
        "end_date": "1932-05-17"
      }
    }
  },
  "prices_count": 64,
  "name": "Ville de Bahia 5% 1905, remb. à 500 fr., Jouissance courante"
}