{
  "id": 18141,
  "share_type": {
    "id": 2,
    "name": "Bond (Obligation)"
  },
  "issuers": [
    {
      "id": 5588,
      "start_date": "1963-12-30",
      "end_date": "3999-12-31",
      "name": "Groupement des Industries Agricoles, Alimentaires et de Grande Consommation (G.I.A.C.)"
    }
  ],
  "types": [
    {
      "start_date": "1963-12-30",
      "end_date": "3999-12-31",
      "id": 1001,
      "name": "Obligation ordinaire ou classique",
      "stock_group": "B"
    }
  ],
  "is_mainstock": 0,
  "prices_period": [
    "1963-12-30",
    "1975-04-30"
  ],
  "stock_exchanges": {
    "1": {
      "id": 1,
      "name": "Paris (Official List)",
      "notations": {
        "148716": {
          "id": 148716,
          "sector_id": 429,
          "start_date": "1963-12-30",
          "end_date": "1975-05-02",
          "names": [
            {
              "name": "Groupement des Industries Agricoles, Alimentaires et de Grande Consommation (G.I.A.C.) 5% mai 1963, r. à 205F min. (c. 1/5/64 att.). 1964-75",
              "start_date": "1963-12-30",
              "end_date": "3999-12-31"
            }
          ]
        }
      },
      "listings_stats": {
        "start_date": "1963-12-30"
      },
      "spot_prices_stats": {
        "start_date": "1963-12-30",
        "end_date": "1975-04-30"
      }
    }
  },
  "prices_count": 274,
  "name": "Groupement des Industries Agricoles, Alimentaires et de Grande Consommation (G.I.A.C.) 5% mai 1963, r. à 205F min. (c. 1/5/64 att.). 1964-75"
}