{
  "id": 104230,
  "share_type": {
    "id": 2,
    "name": "Bond (Obligation)"
  },
  "issuers": [
    {
      "id": 1266,
      "start_date": "1874-01-01",
      "end_date": "1875-09-30",
      "name": "ETATS-UNIS D'AMERIQUE"
    }
  ],
  "types": [
    {
      "start_date": "1874-01-01",
      "end_date": "1875-09-30",
      "id": 2,
      "name": "Option",
      "stock_group": "M"
    }
  ],
  "is_mainstock": 0,
  "prices_period": [
    "1874-01-15",
    "1875-09-15"
  ],
  "stock_exchanges": {
    "2": {
      "id": 2,
      "name": "Paris OTC (Coulisse)",
      "notations": {
        "204519": {
          "id": 204519,
          "sector_id": 660,
          "start_date": "1874-01-01",
          "end_date": "1875-09-30",
          "names": [
            {
              "name": "5% Americ. remb. dec. 74",
              "start_date": "1874-01-01",
              "end_date": "1875-09-30"
            },
            {
              "name": "5% Americ. janvier 75",
              "start_date": "1874-01-01",
              "end_date": "1875-09-30"
            }
          ]
        }
      },
      "listings_stats": {
        "start_date": "1874-01-01"
      },
      "spot_prices_stats": {
        "start_date": "1874-01-15",
        "end_date": "1875-09-15"
      }
    }
  },
  "prices_count": 29,
  "name": "5% Americ. janvier 75"
}