{
  "id": 22287,
  "share_type": {
    "id": 1,
    "name": "Stock (Action)"
  },
  "issuers": [
    {
      "id": 3268,
      "start_date": "1966-09-28",
      "end_date": "3999-12-31",
      "name": "COMPAGNIES RÉUNIES GAZ ET ÉLECTRICITÉ (Gaz et Electricité de Lisbonne)"
    }
  ],
  "types": [
    {
      "start_date": "1966-09-28",
      "end_date": "3999-12-31",
      "id": 18,
      "name": "Action",
      "stock_group": "S"
    }
  ],
  "is_mainstock": 0,
  "prices_period": [
    "1966-09-29",
    "1967-05-02"
  ],
  "stock_exchanges": {
    "1": {
      "id": 1,
      "name": "Paris (Official List)",
      "notations": {
        "152847": {
          "id": 152847,
          "sector_id": 543,
          "start_date": "1966-09-28",
          "end_date": "1967-05-05",
          "names": [
            {
              "name": "Gaz et Electricité (Lisbonne) (Cités Réunies), act. nouv. 175 ESC (n° 3851542 à 4102000) (c. 86 spéc. att.) Titres Unitaires",
              "start_date": "1966-09-28",
              "end_date": "3999-12-31"
            }
          ]
        }
      },
      "listings_stats": {
        "start_date": "1966-09-28"
      },
      "spot_prices_stats": {
        "start_date": "1966-09-29",
        "end_date": "1967-05-02"
      }
    }
  },
  "prices_count": 16,
  "name": "Gaz et Electricité (Lisbonne) (Cités Réunies), act. nouv. 175 ESC (n° 3851542 à 4102000) (c. 86 spéc. att.) Titres Unitaires"
}