{
  "id": 104756,
  "share_type": {
    "id": 8,
    "name": "Droit d'attribution"
  },
  "issuers": [
    {
      "id": 4118,
      "start_date": "1946-07-21",
      "end_date": "1946-08-10",
      "name": "SOCIÉTÉ GÉNÉRALE DE FONDERIE Anciens Etablissements Chappée, Etablissements Nanquette, Fonderie Caloria,"
    }
  ],
  "types": [
    {
      "start_date": "1946-07-21",
      "end_date": "1946-08-10",
      "id": 502,
      "name": "Droit d'attribution",
      "stock_group": "R"
    }
  ],
  "is_mainstock": 0,
  "prices_period": [
    "1946-07-31",
    "1946-07-31"
  ],
  "stock_exchanges": {
    "1": {
      "id": 1,
      "name": "Paris (Official List)",
      "notations": {
        "205159": {
          "id": 205159,
          "sector_id": 658,
          "start_date": "1946-07-21",
          "end_date": "1946-08-10",
          "names": [
            {
              "name": "Act. Générale de Fonderie ( Sté ) ( Droit et coupon 10 ou bon de droit )",
              "start_date": "1946-07-21",
              "end_date": "1946-08-10"
            }
          ]
        }
      },
      "listings_stats": {
        "start_date": "1946-07-21"
      },
      "spot_prices_stats": {
        "start_date": "1946-07-31",
        "end_date": "1946-07-31"
      }
    }
  },
  "prices_count": 1,
  "name": "Act. Générale de Fonderie ( Sté ) ( Droit et coupon 10 ou bon de droit )"
}