{
  "id": 100904,
  "share_type": {
    "id": 4,
    "name": "Rights (Droits)"
  },
  "issuers": [
    {
      "id": 5084,
      "start_date": "1948-04-16",
      "end_date": "1951-05-16",
      "name": "CIE FRANÇAISE DE TRAMWAYS ET D'ÉCLAIRAGE ÉLECTRIQUES DE SHANGHAÏ"
    }
  ],
  "types": [
    {
      "start_date": "1948-04-16",
      "end_date": "1951-05-16",
      "id": 502,
      "name": "Droit d'attribution",
      "stock_group": "R"
    }
  ],
  "is_mainstock": 0,
  "prices_period": [
    "1948-04-19",
    "1948-04-19"
  ],
  "stock_exchanges": {
    "1": {
      "id": 1,
      "name": "Paris (Official List)",
      "notations": {
        "201049": {
          "id": 201049,
          "sector_id": 658,
          "start_date": "1948-04-16",
          "end_date": "1951-05-17",
          "names": [
            {
              "name": "Tramways et d'Eclairage Electriques de Shanghaï (dr. Et c. 58). (1 action nouv. Pour 2 action anc.)",
              "start_date": "1948-04-16",
              "end_date": "1951-05-17"
            }
          ]
        }
      },
      "listings_stats": {
        "start_date": "1948-04-16"
      },
      "spot_prices_stats": {
        "start_date": "1948-04-19",
        "end_date": "1948-04-19"
      }
    }
  },
  "prices_count": 2,
  "name": "Tramways et d'Eclairage Electriques de Shanghaï (dr. Et c. 58). (1 action nouv. Pour 2 action anc.)"
}