{
  "id": 101416,
  "share_type": {
    "id": 4,
    "name": "Rights (Droits)"
  },
  "issuers": [
    {
      "id": 4320,
      "start_date": "1938-07-06",
      "end_date": "1938-07-21",
      "name": "L'AFRICAINE FRANÇAISE (Société d'exploitation des produits africains)"
    }
  ],
  "types": [
    {
      "start_date": "1938-07-06",
      "end_date": "1938-07-21",
      "id": 501,
      "name": "Droit de souscription",
      "stock_group": "R"
    }
  ],
  "is_mainstock": 0,
  "prices_period": [
    null,
    null
  ],
  "stock_exchanges": {
    "1": {
      "id": 1,
      "name": "Paris (Official List)",
      "notations": {
        "201561": {
          "id": 201561,
          "sector_id": 657,
          "start_date": "1938-07-06",
          "end_date": "1938-07-22",
          "names": [
            {
              "name": "Act. L'AFRICAINE FRANçAISE (Droit et coupon 12). (voir avis n° 18062). Pour 5 act. Anc. De 100 fr., 2 act. Nouv. De 250 francs, émises au pair.",
              "start_date": "1938-07-06",
              "end_date": "1938-07-22"
            }
          ]
        }
      },
      "listings_stats": {
        "start_date": "1938-07-06"
      }
    }
  },
  "prices_count": 0,
  "name": "Act. L'AFRICAINE FRANçAISE (Droit et coupon 12). (voir avis n° 18062). Pour 5 act. Anc. De 100 fr., 2 act. Nouv. De 250 francs, émises au pair."
}