{
  "id": 20575,
  "share_type": {
    "id": 2,
    "name": "Bond (Obligation)"
  },
  "issuers": [
    {
      "id": 5628,
      "start_date": "1970-12-02",
      "end_date": "3999-12-31",
      "name": "FONCIA-CREDIT"
    }
  ],
  "types": [
    {
      "start_date": "1970-12-02",
      "end_date": "3999-12-31",
      "id": 1001,
      "name": "Obligation ordinaire ou classique",
      "stock_group": "B"
    }
  ],
  "is_mainstock": 0,
  "prices_period": [
    "1970-12-02",
    "1976-12-31"
  ],
  "stock_exchanges": {
    "1": {
      "id": 1,
      "name": "Paris (Official List)",
      "notations": {
        "151147": {
          "id": 151147,
          "sector_id": 355,
          "start_date": "1970-12-02",
          "end_date": "3999-12-31",
          "names": [
            {
              "name": "Foncia-Crédit 8,75% septembre 1970 (c. 1/9/71 att.) 1971-85",
              "start_date": "1970-12-02",
              "end_date": "3999-12-31"
            }
          ]
        }
      },
      "listings_stats": {
        "start_date": "1970-12-02"
      },
      "spot_prices_stats": {
        "start_date": "1970-12-02",
        "end_date": "1976-12-31"
      }
    }
  },
  "prices_count": 148,
  "name": "Foncia-Crédit 8,75% septembre 1970 (c. 1/9/71 att.) 1971-85"
}