{
  "id": 5725,
  "share_type": {
    "id": 1,
    "name": "Stock (Action)"
  },
  "issuers": [
    {
      "id": 621,
      "start_date": "1910-10-15",
      "end_date": "3999-12-31",
      "name": "Entreprise générale des Omnibus"
    }
  ],
  "types": [
    {
      "start_date": "1910-10-15",
      "end_date": "3999-12-31",
      "id": 18,
      "name": "Action",
      "stock_group": "S"
    }
  ],
  "is_mainstock": 0,
  "prices_period": [
    "1910-10-15",
    "1911-12-15"
  ],
  "stock_exchanges": {
    "1": {
      "id": 1,
      "name": "Paris (Official List)",
      "notations": {
        "8130": {
          "id": 8130,
          "sector_id": 574,
          "start_date": "1910-10-15",
          "end_date": "1911-12-22",
          "names": [
            {
              "name": "Omnibus de Paris (Compagnie Générale des), action nouv., 125 fr. p., nom. (au comptant seulement)",
              "start_date": "1910-10-15",
              "end_date": "3999-12-31"
            }
          ]
        }
      },
      "listings_stats": {
        "start_date": "1910-10-15"
      },
      "spot_prices_stats": {
        "start_date": "1910-10-15",
        "end_date": "1911-12-15"
      }
    }
  },
  "prices_count": 46,
  "name": "Omnibus de Paris (Compagnie Générale des), action nouv., 125 fr. p., nom. (au comptant seulement)"
}