{
  "id": 12027,
  "share_type": {
    "id": 2,
    "name": "Bond (Obligation)"
  },
  "issuers": [
    {
      "id": 2330,
      "start_date": "1944-10-03",
      "end_date": "3999-12-31",
      "name": "SOCIÉTÉ DES CIMENTS FRANÇAIS et des Portland de Boulogne-sur-Mer et Cie des Portland de Desvres"
    }
  ],
  "types": [
    {
      "start_date": "1944-10-03",
      "end_date": "3999-12-31",
      "id": 1001,
      "name": "Obligation ordinaire ou classique",
      "stock_group": "B"
    }
  ],
  "is_mainstock": 0,
  "prices_period": [
    "1944-10-03",
    "1967-02-28"
  ],
  "stock_exchanges": {
    "1": {
      "id": 1,
      "name": "Paris (Official List)",
      "notations": {
        "26497": {
          "id": 26497,
          "sector_id": 433,
          "start_date": "1955-12-01",
          "end_date": "1963-03-04",
          "names": [
            {
              "name": "Ciments Français 4% février 1944, r. à 5000 f. (Jce 15/8/44) 1945-69",
              "start_date": "1944-10-03",
              "end_date": "1963-03-04"
            },
            {
              "name": "Ciments Français 4% février 44, r. à 5000 fr. 1945-69",
              "start_date": "1950-01-03",
              "end_date": "1963-03-04"
            },
            {
              "name": "Ciments français 4% 1944 (n°s 10001 à 17100) (Rachats ou Tirages) 1945-69",
              "start_date": "1955-12-01",
              "end_date": "1967-03-01"
            },
            {
              "name": "Ciments Français 4% février 1944 (nos 1001 à 17100) (Tir. 13/1/67) 1945-69",
              "start_date": "1955-12-01",
              "end_date": "3999-12-31"
            }
          ]
        },
        "30731": {
          "id": 30731,
          "sector_id": 360,
          "start_date": "1963-03-04",
          "end_date": "1967-03-01",
          "names": [
            {
              "name": "Ciments Français 4% février 1944, r. à 5000 f. (Jce 15/8/44) 1945-69",
              "start_date": "1944-10-03",
              "end_date": "1967-03-01"
            },
            {
              "name": "Ciments Français 4% février 44, r. à 5000 fr. 1945-69",
              "start_date": "1950-01-03",
              "end_date": "1967-03-01"
            },
            {
              "name": "Ciments français 4% 1944 (n°s 10001 à 17100) (Rachats ou Tirages) 1945-69",
              "start_date": "1955-12-01",
              "end_date": "1967-03-01"
            },
            {
              "name": "Ciments Français 4% février 1944 (nos 1001 à 17100) (Tir. 13/1/67) 1945-69",
              "start_date": "1963-03-04",
              "end_date": "3999-12-31"
            }
          ]
        },
        "142602": {
          "id": 142602,
          "sector_id": 184,
          "start_date": "1944-10-03",
          "end_date": "1955-12-01",
          "names": [
            {
              "name": "Ciments Français 4% février 1944, r. à 5000 f. (Jce 15/8/44) 1945-69",
              "start_date": "1944-10-03",
              "end_date": "1955-12-01"
            },
            {
              "name": "Ciments Français 4% février 44, r. à 5000 fr. 1945-69",
              "start_date": "1944-10-03",
              "end_date": "1955-12-01"
            },
            {
              "name": "Ciments français 4% 1944 (n°s 10001 à 17100) (Rachats ou Tirages) 1945-69",
              "start_date": "1944-10-03",
              "end_date": "1967-03-01"
            },
            {
              "name": "Ciments Français 4% février 1944 (nos 1001 à 17100) (Tir. 13/1/67) 1945-69",
              "start_date": "1944-10-03",
              "end_date": "3999-12-31"
            }
          ]
        }
      },
      "listings_stats": {
        "start_date": "1944-10-03"
      },
      "spot_prices_stats": {
        "start_date": "1944-10-03",
        "end_date": "1967-02-28"
      }
    }
  },
  "prices_count": 544,
  "name": "Ciments Français 4% février 1944, r. à 5000 f. (Jce 15/8/44) 1945-69"
}