{
  "id": 21058,
  "share_type": {
    "id": 2,
    "name": "Bond (Obligation)"
  },
  "issuers": [
    {
      "id": 5660,
      "start_date": "1973-07-20",
      "end_date": "3999-12-31",
      "name": "Aéroport de Paris"
    }
  ],
  "types": [
    {
      "start_date": "1973-07-20",
      "end_date": "3999-12-31",
      "id": 1009,
      "name": "Bons",
      "stock_group": "B"
    }
  ],
  "is_mainstock": 0,
  "prices_period": [
    "1973-07-24",
    "1976-12-31"
  ],
  "stock_exchanges": {
    "1": {
      "id": 1,
      "name": "Paris (Official List)",
      "notations": {
        "151628": {
          "id": 151628,
          "sector_id": 329,
          "start_date": "1973-07-20",
          "end_date": "3999-12-31",
          "names": [
            {
              "name": "Aéroport de Paris 8% 1972 de 2500 F (c. 18/10/73 att.) (Avis 73-648). 1978-97",
              "start_date": "1973-07-20",
              "end_date": "3999-12-31"
            }
          ]
        }
      },
      "listings_stats": {
        "start_date": "1973-07-20"
      },
      "spot_prices_stats": {
        "start_date": "1973-07-24",
        "end_date": "1976-12-31"
      }
    }
  },
  "prices_count": 84,
  "name": "Aéroport de Paris 8% 1972 de 2500 F (c. 18/10/73 att.) (Avis 73-648). 1978-97"
}