{
  "id": 11832,
  "share_type": {
    "id": 2,
    "name": "Bond (Obligation)"
  },
  "issuers": [
    {
      "id": 4728,
      "start_date": "1943-04-19",
      "end_date": "3999-12-31",
      "name": "COMPAGNIE DES EAUX ET DE L'OZONE (Procédés M.P. Otto)"
    }
  ],
  "types": [
    {
      "start_date": "1943-04-19",
      "end_date": "3999-12-31",
      "id": 1001,
      "name": "Obligation ordinaire ou classique",
      "stock_group": "B"
    }
  ],
  "is_mainstock": 0,
  "prices_period": [
    "1943-05-03",
    "1969-03-17"
  ],
  "stock_exchanges": {
    "1": {
      "id": 1,
      "name": "Paris (Official List)",
      "notations": {
        "22032": {
          "id": 22032,
          "sector_id": 245,
          "start_date": "1948-06-30",
          "end_date": "1955-12-01",
          "names": [
            {
              "name": "Eaux et de l'Ozone (Cie des) 4,25% 1943, remb. à 5000 fr. (Jce 1/1/43) 1944-78",
              "start_date": "1943-04-19",
              "end_date": "1955-12-01"
            },
            {
              "name": "Eaux et de l'Ozone 4,25% 1943, r. à 5000 fr. 1944-78",
              "start_date": "1948-06-30",
              "end_date": "1955-12-01"
            },
            {
              "name": "Eaux et de l'Ozone 4,25% 1943 (n°s 7001 à 12652) (Rach. Ou Tir.) 1944-78",
              "start_date": "1948-06-30",
              "end_date": "1969-03-31"
            },
            {
              "name": "Eaux et de l'Ozone 4,25% 1943 (n°s 7001 à 12652) (Tir. 27/11/68) 1944-78",
              "start_date": "1948-06-30",
              "end_date": "3999-12-31"
            }
          ]
        },
        "26866": {
          "id": 26866,
          "sector_id": 446,
          "start_date": "1955-12-01",
          "end_date": "1963-03-04",
          "names": [
            {
              "name": "Eaux et de l'Ozone (Cie des) 4,25% 1943, remb. à 5000 fr. (Jce 1/1/43) 1944-78",
              "start_date": "1943-04-19",
              "end_date": "1963-03-04"
            },
            {
              "name": "Eaux et de l'Ozone 4,25% 1943, r. à 5000 fr. 1944-78",
              "start_date": "1948-06-30",
              "end_date": "1963-03-04"
            },
            {
              "name": "Eaux et de l'Ozone 4,25% 1943 (n°s 7001 à 12652) (Rach. Ou Tir.) 1944-78",
              "start_date": "1955-12-01",
              "end_date": "1969-03-31"
            },
            {
              "name": "Eaux et de l'Ozone 4,25% 1943 (n°s 7001 à 12652) (Tir. 27/11/68) 1944-78",
              "start_date": "1955-12-01",
              "end_date": "3999-12-31"
            }
          ]
        },
        "31421": {
          "id": 31421,
          "sector_id": 372,
          "start_date": "1963-03-04",
          "end_date": "1969-03-31",
          "names": [
            {
              "name": "Eaux et de l'Ozone (Cie des) 4,25% 1943, remb. à 5000 fr. (Jce 1/1/43) 1944-78",
              "start_date": "1943-04-19",
              "end_date": "1969-03-31"
            },
            {
              "name": "Eaux et de l'Ozone 4,25% 1943, r. à 5000 fr. 1944-78",
              "start_date": "1948-06-30",
              "end_date": "1969-03-31"
            },
            {
              "name": "Eaux et de l'Ozone 4,25% 1943 (n°s 7001 à 12652) (Rach. Ou Tir.) 1944-78",
              "start_date": "1955-12-01",
              "end_date": "1969-03-31"
            },
            {
              "name": "Eaux et de l'Ozone 4,25% 1943 (n°s 7001 à 12652) (Tir. 27/11/68) 1944-78",
              "start_date": "1963-03-04",
              "end_date": "3999-12-31"
            }
          ]
        },
        "142407": {
          "id": 142407,
          "sector_id": 109,
          "start_date": "1943-04-19",
          "end_date": "1948-06-30",
          "names": [
            {
              "name": "Eaux et de l'Ozone (Cie des) 4,25% 1943, remb. à 5000 fr. (Jce 1/1/43) 1944-78",
              "start_date": "1943-04-19",
              "end_date": "1948-06-30"
            },
            {
              "name": "Eaux et de l'Ozone 4,25% 1943, r. à 5000 fr. 1944-78",
              "start_date": "1943-04-19",
              "end_date": "1955-12-01"
            },
            {
              "name": "Eaux et de l'Ozone 4,25% 1943 (n°s 7001 à 12652) (Rach. Ou Tir.) 1944-78",
              "start_date": "1943-04-19",
              "end_date": "1969-03-31"
            },
            {
              "name": "Eaux et de l'Ozone 4,25% 1943 (n°s 7001 à 12652) (Tir. 27/11/68) 1944-78",
              "start_date": "1943-04-19",
              "end_date": "3999-12-31"
            }
          ]
        }
      },
      "listings_stats": {
        "start_date": "1943-04-19"
      },
      "spot_prices_stats": {
        "start_date": "1943-05-03",
        "end_date": "1969-03-17"
      }
    }
  },
  "prices_count": 628,
  "name": "Eaux et de l'Ozone 4,25% 1943 (n°s 7001 à 12652) (Tir. 27/11/68) 1944-78"
}