{
  "id": 15297,
  "share_type": {
    "id": 2,
    "name": "Bond (Obligation)"
  },
  "issuers": [
    {
      "id": 2488,
      "start_date": "1956-06-26",
      "end_date": "3999-12-31",
      "name": "Postes, Télégraphes et Téléphones"
    }
  ],
  "types": [
    {
      "start_date": "1956-06-26",
      "end_date": "3999-12-31",
      "id": 1001,
      "name": "Obligation ordinaire ou classique",
      "stock_group": "B"
    }
  ],
  "is_mainstock": 0,
  "prices_period": [
    "1956-06-26",
    "1971-04-30"
  ],
  "stock_exchanges": {
    "1": {
      "id": 1,
      "name": "Paris (Official List)",
      "notations": {
        "145872": {
          "id": 145872,
          "sector_id": 54,
          "start_date": "1956-06-26",
          "end_date": "1971-05-03",
          "names": [
            {
              "name": "Postes, Télégraphes et Téléphones, Bons 5,5%, 1956, remb. À 105000 f. (c. 1/5/57 att.) 1957-71",
              "start_date": "1956-06-26",
              "end_date": "3999-12-31"
            }
          ]
        }
      },
      "listings_stats": {
        "start_date": "1956-06-26"
      },
      "spot_prices_stats": {
        "start_date": "1956-06-26",
        "end_date": "1971-04-30"
      }
    }
  },
  "prices_count": 364,
  "name": "Postes, Télégraphes et Téléphones, Bons 5,5%, 1956, remb. À 105000 f. (c. 1/5/57 att.) 1957-71"
}