{
  "id": 16182,
  "share_type": {
    "id": 1,
    "name": "Stock (Action)"
  },
  "issuers": [
    {
      "id": 4759,
      "start_date": "1960-03-09",
      "end_date": "3999-12-31",
      "name": "SOCIÉTÉ ANONYME DES ÉTABLISSEMENTS FOURNIER OSTERTAG ET LE BOULENGER"
    }
  ],
  "types": [
    {
      "start_date": "1960-03-09",
      "end_date": "3999-12-31",
      "id": 27,
      "name": "Promesse d'action",
      "stock_group": "S"
    }
  ],
  "is_mainstock": 0,
  "prices_period": [
    "1960-03-15",
    "1960-06-15"
  ],
  "stock_exchanges": {
    "1": {
      "id": 1,
      "name": "Paris (Official List)",
      "notations": {
        "146757": {
          "id": 146757,
          "sector_id": 414,
          "start_date": "1960-03-09",
          "end_date": "1960-06-17",
          "names": [
            {
              "name": "Laboratoires lelong, promesses (jce 1/1/60)",
              "start_date": "1960-03-09",
              "end_date": "3999-12-31"
            }
          ]
        }
      },
      "listings_stats": {
        "start_date": "1960-03-09"
      },
      "spot_prices_stats": {
        "start_date": "1960-03-15",
        "end_date": "1960-06-15"
      }
    }
  },
  "prices_count": 8,
  "name": "Laboratoires lelong, promesses (jce 1/1/60)"
}