{
  "id": 19361,
  "share_type": {
    "id": 2,
    "name": "Bond (Obligation)"
  },
  "issuers": [
    {
      "id": 4674,
      "start_date": "1967-05-02",
      "end_date": "3999-12-31",
      "name": "Société Alsacienne de developpement et d'expansion"
    }
  ],
  "types": [
    {
      "start_date": "1967-05-02",
      "end_date": "3999-12-31",
      "id": 1001,
      "name": "Obligation ordinaire ou classique",
      "stock_group": "B"
    }
  ],
  "is_mainstock": 0,
  "prices_period": [
    "1967-05-02",
    "1976-12-31"
  ],
  "stock_exchanges": {
    "1": {
      "id": 1,
      "name": "Paris (Official List)",
      "notations": {
        "149936": {
          "id": 149936,
          "sector_id": 615,
          "start_date": "1967-05-02",
          "end_date": "3999-12-31",
          "names": [
            {
              "name": "Nancy_Bourse SADE (Alsacienne Dévelop. Et Expansion) 5% 1962, remb. À 220 F (Tir. 27/4/67) 1963-77",
              "start_date": "1967-05-02",
              "end_date": "3999-12-31"
            }
          ]
        }
      },
      "listings_stats": {
        "start_date": "1967-05-02"
      },
      "spot_prices_stats": {
        "start_date": "1967-05-02",
        "end_date": "1976-12-31"
      }
    }
  },
  "prices_count": 232,
  "name": "Nancy_Bourse SADE (Alsacienne Dévelop. Et Expansion) 5% 1962, remb. À 220 F (Tir. 27/4/67) 1963-77"
}