{
  "id": 6504,
  "share_type": {
    "id": 1,
    "name": "Stock (Action)"
  },
  "issuers": [
    {
      "id": 2894,
      "start_date": "1918-09-19",
      "end_date": "3999-12-31",
      "name": "The Nitrate Railways Company limited"
    }
  ],
  "types": [
    {
      "start_date": "1918-09-19",
      "end_date": "3999-12-31",
      "id": 18,
      "name": "Action",
      "stock_group": "S"
    }
  ],
  "is_mainstock": 0,
  "prices_period": [
    "1918-09-19",
    "1919-01-27"
  ],
  "stock_exchanges": {
    "1": {
      "id": 1,
      "name": "Paris (Official List)",
      "notations": {
        "10555": {
          "id": 10555,
          "sector_id": 68,
          "start_date": "1918-09-19",
          "end_date": "1919-01-27",
          "names": [
            {
              "name": "Nitrate Railways Cy Ld, act.ord.10£, t.p.coup.de 5 et 10",
              "start_date": "1918-09-19",
              "end_date": "3999-12-31"
            }
          ]
        }
      },
      "listings_stats": {
        "start_date": "1918-09-19"
      },
      "spot_prices_stats": {
        "start_date": "1918-09-19",
        "end_date": "1919-01-27"
      }
    }
  },
  "prices_count": 4,
  "name": "Nitrate Railways Cy Ld, act.ord.10£, t.p.coup.de 5 et 10"
}