{
  "id": 100454,
  "share_type": {
    "id": 4,
    "name": "Rights (Droits)"
  },
  "issuers": [
    {
      "id": 3419,
      "start_date": "1945-04-25",
      "end_date": "1945-05-24",
      "name": "SOCIÉTÉ DES EAUX MINÉRALES D'ÉVIAN-LES-BAINS"
    }
  ],
  "types": [
    {
      "start_date": "1945-04-25",
      "end_date": "1945-05-24",
      "id": 501,
      "name": "Droit de souscription",
      "stock_group": "R"
    }
  ],
  "is_mainstock": 0,
  "prices_period": [
    "1945-04-25",
    "1945-05-15"
  ],
  "stock_exchanges": {
    "1": {
      "id": 1,
      "name": "Paris (Official List)",
      "notations": {
        "200481": {
          "id": 200481,
          "sector_id": 657,
          "start_date": "1945-04-25",
          "end_date": "1945-05-25",
          "names": [
            {
              "name": "Act. Eaux Minérales d'Evian-les-Bains (droit et coupon 23 ou bon de droit)",
              "start_date": "1945-04-25",
              "end_date": "1945-05-25"
            }
          ]
        }
      },
      "listings_stats": {
        "start_date": "1945-04-25"
      },
      "spot_prices_stats": {
        "start_date": "1945-04-25",
        "end_date": "1945-05-15"
      }
    }
  },
  "prices_count": 3,
  "name": "Act. Eaux Minérales d'Evian-les-Bains (droit et coupon 23 ou bon de droit)"
}