{
  "id": 14626,
  "share_type": {
    "id": 2,
    "name": "Bond (Obligation)"
  },
  "issuers": [
    {
      "id": 100,
      "start_date": "1953-04-01",
      "end_date": "3999-12-31",
      "name": "RENTES FRANÇAISES"
    }
  ],
  "types": [
    {
      "start_date": "1953-04-01",
      "end_date": "3999-12-31",
      "id": 1001,
      "name": "Obligation ordinaire ou classique",
      "stock_group": "B"
    }
  ],
  "is_mainstock": 0,
  "prices_period": [
    "1953-04-01",
    "1960-11-30"
  ],
  "stock_exchanges": {
    "1": {
      "id": 1,
      "name": "Paris (Official List)",
      "notations": {
        "27424": {
          "id": 27424,
          "sector_id": 10,
          "start_date": "1960-01-04",
          "end_date": "1960-12-01",
          "names": [
            {
              "name": "obligations du Trésor 1952 à 2, 4, 6 ou 8 ans, de 100000 fr.",
              "start_date": "1953-04-01",
              "end_date": "1960-12-01"
            },
            {
              "name": "Obligations du trésor 1952, remb à 114% le 1 er décembre 1960, de 1000 NF",
              "start_date": "1960-01-04",
              "end_date": "3999-12-31"
            }
          ]
        },
        "145201": {
          "id": 145201,
          "sector_id": 196,
          "start_date": "1953-04-01",
          "end_date": "1960-01-04",
          "names": [
            {
              "name": "obligations du Trésor 1952 à 2, 4, 6 ou 8 ans, de 100000 fr.",
              "start_date": "1953-04-01",
              "end_date": "1960-12-01"
            },
            {
              "name": "Obligations du trésor 1952, remb à 114% le 1 er décembre 1960, de 1000 NF",
              "start_date": "1953-04-01",
              "end_date": "3999-12-31"
            }
          ]
        }
      },
      "listings_stats": {
        "start_date": "1953-04-01"
      },
      "spot_prices_stats": {
        "start_date": "1953-04-01",
        "end_date": "1960-11-30"
      }
    }
  },
  "prices_count": 203,
  "name": "obligations du Trésor 1952 à 2, 4, 6 ou 8 ans, de 100000 fr."
}