{
  "id": 103934,
  "share_type": {
    "id": 4,
    "name": "Rights (Droits)"
  },
  "issuers": [
    {
      "id": 4321,
      "start_date": "1923-10-01",
      "end_date": "1923-11-07",
      "name": "STÉ ANONYME DES ANCIENS ÉTABLISSEMENTS C. & E. CHAPAL FRÈRES ET Cie"
    }
  ],
  "types": [
    {
      "start_date": "1923-10-01",
      "end_date": "1923-11-07",
      "id": 501,
      "name": "Droit de souscription",
      "stock_group": "R"
    }
  ],
  "is_mainstock": 0,
  "prices_period": [
    null,
    null
  ],
  "stock_exchanges": {
    "1": {
      "id": 1,
      "name": "Paris (Official List)",
      "notations": {
        "204118": {
          "id": 204118,
          "sector_id": 657,
          "start_date": "1923-10-01",
          "end_date": "1923-11-07",
          "names": [
            {
              "name": "Act. Anc. Etablissement C. et E. Chapal Frères et Cie ( droit à la repartition et la souscription et coupon 28)",
              "start_date": "1923-10-01",
              "end_date": "1923-11-07"
            }
          ]
        }
      },
      "listings_stats": {
        "start_date": "1923-10-01"
      }
    }
  },
  "prices_count": 0,
  "name": "Act. Anc. Etablissement C. et E. Chapal Frères et Cie ( droit à la repartition et la souscription et coupon 28)"
}