{
  "id": 8348,
  "share_type": {
    "id": 2,
    "name": "Bond (Obligation)"
  },
  "issuers": [
    {
      "id": 4823,
      "start_date": "1927-11-02",
      "end_date": "3999-12-31",
      "name": "CHEMINS DE FER DE TANGER A FEZ (Compagnie Franco-Espagnole)"
    }
  ],
  "types": [
    {
      "start_date": "1927-11-02",
      "end_date": "3999-12-31",
      "id": 1001,
      "name": "Obligation ordinaire ou classique",
      "stock_group": "B"
    }
  ],
  "is_mainstock": 0,
  "prices_period": [
    "1927-11-03",
    "1929-02-28"
  ],
  "stock_exchanges": {
    "1": {
      "id": 1,
      "name": "Paris (Official List)",
      "notations": {
        "135795": {
          "id": 135795,
          "sector_id": 128,
          "start_date": "1927-11-02",
          "end_date": "1929-03-15",
          "names": [
            {
              "name": "Tanger à Fez (Cie Franco-Espagnole du Ch. de fer de), oblig. franç. 7%, 6e série, remb. à 500 fr. (Int. et amort. gar. par Gouv. français dans les cond. dét. par la convention du 18 mars 1914 approuvée par la loi du 11 août 1914)",
              "start_date": "1927-11-02",
              "end_date": "1929-03-15"
            },
            {
              "name": "Tanger à Fez (Cie Franco-Espagnole du Ch. de fer de), Oblig. franç. 7%, 6e série, remb. à 500 fr. le 15 mars 1929",
              "start_date": "1927-11-02",
              "end_date": "3999-12-31"
            }
          ]
        }
      },
      "listings_stats": {
        "start_date": "1927-11-02"
      },
      "spot_prices_stats": {
        "start_date": "1927-11-03",
        "end_date": "1929-02-28"
      }
    }
  },
  "prices_count": 30,
  "name": "Tanger à Fez (Cie Franco-Espagnole du Ch. de fer de), Oblig. franç. 7%, 6e série, remb. à 500 fr. le 15 mars 1929"
}