{
  "id": 11210,
  "share_type": {
    "id": 1,
    "name": "Stock (Action)"
  },
  "issuers": [
    {
      "id": 3421,
      "start_date": "1938-05-16",
      "end_date": "3999-12-31",
      "name": "L'ENERGIE INDUSTRIELLE"
    }
  ],
  "types": [
    {
      "start_date": "1938-05-16",
      "end_date": "3999-12-31",
      "id": 18,
      "name": "Action",
      "stock_group": "S"
    }
  ],
  "is_mainstock": 1,
  "prices_period": [
    "1938-05-16",
    "1954-02-15"
  ],
  "stock_exchanges": {
    "1": {
      "id": 1,
      "name": "Paris (Official List)",
      "notations": {
        "141785": {
          "id": 141785,
          "sector_id": 116,
          "start_date": "1938-05-16",
          "end_date": "1954-03-01",
          "names": [
            {
              "name": "Energie industrielle (L'), act. 500 fr., t.p.",
              "start_date": "1938-05-16",
              "end_date": "1954-03-01"
            },
            {
              "name": "Energie Industrielle (L'), act. 500 fr., t. p. (ex-dr.-oblig., )",
              "start_date": "1938-05-16",
              "end_date": "3999-12-31"
            }
          ]
        }
      },
      "listings_stats": {
        "start_date": "1938-05-16"
      },
      "spot_prices_stats": {
        "start_date": "1938-05-16",
        "end_date": "1954-02-15"
      }
    }
  },
  "prices_count": 458,
  "name": "Energie industrielle (L'), act. 500 fr., t.p."
}