{
  "id": 104385,
  "share_type": {
    "id": 2,
    "name": "Bond (Obligation)"
  },
  "issuers": [
    {
      "id": 811,
      "start_date": "1879-01-15",
      "end_date": "1881-12-31",
      "name": "Gaz de l'Ouest"
    }
  ],
  "types": [
    {
      "start_date": "1879-01-15",
      "end_date": "1881-12-31",
      "id": 2,
      "name": "Option",
      "stock_group": "M"
    }
  ],
  "is_mainstock": 0,
  "prices_period": [
    "1879-08-14",
    "1881-03-31"
  ],
  "stock_exchanges": {
    "2": {
      "id": 2,
      "name": "Paris OTC (Coulisse)",
      "notations": {
        "204771": {
          "id": 204771,
          "sector_id": 673,
          "start_date": "1879-01-15",
          "end_date": "1881-12-31",
          "names": [
            {
              "name": "Gaz de l'Ouest",
              "start_date": "1879-01-15",
              "end_date": "1881-12-31"
            }
          ]
        }
      },
      "listings_stats": {
        "start_date": "1879-01-15"
      },
      "spot_prices_stats": {
        "start_date": "1879-08-14",
        "end_date": "1881-03-31"
      }
    }
  },
  "prices_count": 19,
  "name": "Gaz de l'Ouest"
}