{
  "id": 17681,
  "share_type": {
    "id": 1,
    "name": "Stock (Action)"
  },
  "issuers": [
    {
      "id": 4959,
      "start_date": "1962-01-02",
      "end_date": "3999-12-31",
      "name": "BRITISH-AMERICAN TOBACCO Cy Ltd"
    }
  ],
  "types": [
    {
      "start_date": "1962-01-02",
      "end_date": "3999-12-31",
      "id": 18,
      "name": "Action",
      "stock_group": "S"
    }
  ],
  "is_mainstock": 0,
  "prices_period": [
    "1962-01-04",
    "1976-12-31"
  ],
  "stock_exchanges": {
    "1": {
      "id": 1,
      "name": "Paris (Official List)",
      "notations": {
        "148256": {
          "id": 148256,
          "sector_id": 547,
          "start_date": "1962-01-02",
          "end_date": "3999-12-31",
          "names": [
            {
              "name": "British American Tobacco Cy, Ltd, Titres de 20 unités de stock ord. De £ 0 : 10 : 0",
              "start_date": "1962-01-02",
              "end_date": "3999-12-31"
            },
            {
              "name": "British American Tobacco Cy, cd. Titres de 2 unités de stock ord.de £ 0: 10: 0 - Tit.de 20 unités de stock ord.de £ 0:10:0",
              "start_date": "1962-01-02",
              "end_date": "3999-12-31"
            },
            {
              "name": "British American Tobacco Cy, cd. Titres de 40 unités de stock ord.de £ 0: 10: 0 - Tit.de 20 unités de stock ord.de £ 0:10:0",
              "start_date": "1962-01-02",
              "end_date": "3999-12-31"
            }
          ]
        }
      },
      "listings_stats": {
        "start_date": "1962-01-02"
      },
      "spot_prices_stats": {
        "start_date": "1962-01-04",
        "end_date": "1976-12-31"
      }
    }
  },
  "prices_count": 361,
  "name": "British American Tobacco Cy, cd. Titres de 2 unités de stock ord.de £ 0: 10: 0 - Tit.de 20 unités de stock ord.de £ 0:10:0"
}