{
  "id": 101097,
  "share_type": {
    "id": 4,
    "name": "Rights (Droits)"
  },
  "issuers": [
    {
      "id": 4737,
      "start_date": "1949-08-29",
      "end_date": "3999-12-31",
      "name": "SOCIETE MAROCAINE DE DISTRIBUTION D'EAU, DE GAZ ET D'ELECTRICITE"
    }
  ],
  "types": [
    {
      "start_date": "1949-08-29",
      "end_date": "3999-12-31",
      "id": 501,
      "name": "Droit de souscription",
      "stock_group": "R"
    }
  ],
  "is_mainstock": 0,
  "prices_period": [
    "1949-08-31",
    "1949-09-01"
  ],
  "stock_exchanges": {
    "1": {
      "id": 1,
      "name": "Paris (Official List)",
      "notations": {
        "201242": {
          "id": 201242,
          "sector_id": 657,
          "start_date": "1949-08-29",
          "end_date": "4000-01-01",
          "names": [
            {
              "name": "Marocaine de Distrib. d'Eau, de Gaz et d'Electricité (droit et coupon 53) (1 action nouv. de 1000 fr. émise à 1050 fr. pour 2 actions anciennes) (Voir Avis n° 25944)",
              "start_date": "1949-08-29",
              "end_date": "4000-01-01"
            }
          ]
        }
      },
      "listings_stats": {
        "start_date": "1949-08-29"
      },
      "spot_prices_stats": {
        "start_date": "1949-08-31",
        "end_date": "1949-09-01"
      }
    }
  },
  "prices_count": 1,
  "name": "Marocaine de Distrib. d'Eau, de Gaz et d'Electricité (droit et coupon 53) (1 action nouv. de 1000 fr. émise à 1050 fr. pour 2 actions anciennes) (Voir Avis n° 25944)"
}