{
  "id": 21768,
  "share_type": {
    "id": 1,
    "name": "Stock (Action)"
  },
  "issuers": [
    {
      "id": 3929,
      "start_date": "1955-12-01",
      "end_date": "3999-12-31",
      "name": "SOCIETE DES PNEUMATIQUES DUNLOP"
    }
  ],
  "types": [
    {
      "start_date": "1955-12-01",
      "end_date": "3999-12-31",
      "id": 27,
      "name": "Promesse d'action",
      "stock_group": "S"
    }
  ],
  "is_mainstock": 0,
  "prices_period": [
    "1955-12-01",
    "1956-01-16"
  ],
  "stock_exchanges": {
    "1": {
      "id": 1,
      "name": "Paris (Official List)",
      "notations": {
        "152333": {
          "id": 152333,
          "sector_id": 337,
          "start_date": "1955-12-01",
          "end_date": "1956-01-30",
          "names": [
            {
              "name": "Dunlop (Pneumatiques), Promesses (Jce 1/7/55)",
              "start_date": "1955-12-01",
              "end_date": "3999-12-31"
            }
          ]
        }
      },
      "listings_stats": {
        "start_date": "1955-12-01"
      },
      "spot_prices_stats": {
        "start_date": "1955-12-01",
        "end_date": "1956-01-16"
      }
    }
  },
  "prices_count": 5,
  "name": "Dunlop (Pneumatiques), Promesses (Jce 1/7/55)"
}