{
  "id": 22053,
  "share_type": {
    "id": 1,
    "name": "Stock (Action)"
  },
  "issuers": [
    {
      "id": 4109,
      "start_date": "1958-06-27",
      "end_date": "3999-12-31",
      "name": "ANCIENS ÉTABLISSETS BRISSONNEAU ET LOTZ"
    }
  ],
  "types": [
    {
      "start_date": "1958-06-27",
      "end_date": "3999-12-31",
      "id": 27,
      "name": "Promesse d'action",
      "stock_group": "S"
    }
  ],
  "is_mainstock": 0,
  "prices_period": [
    "1958-06-27",
    "1958-09-01"
  ],
  "stock_exchanges": {
    "1": {
      "id": 1,
      "name": "Paris (Official List)",
      "notations": {
        "152614": {
          "id": 152614,
          "sector_id": 397,
          "start_date": "1958-06-27",
          "end_date": "1958-09-10",
          "names": [
            {
              "name": "Brissonneau et Lotz (anc. Etabl.) Promesses (Jce 1/7/58)",
              "start_date": "1958-06-27",
              "end_date": "1958-09-10"
            }
          ]
        }
      },
      "listings_stats": {
        "start_date": "1958-06-27"
      },
      "spot_prices_stats": {
        "start_date": "1958-06-27",
        "end_date": "1958-09-01"
      }
    }
  },
  "prices_count": 6,
  "name": "Brissonneau et Lotz (anc. Etabl.) Promesses (Jce 1/7/58)"
}