{
  "id": 21956,
  "share_type": {
    "id": 3,
    "name": "OPTIONS"
  },
  "issuers": [
    {
      "id": 4976,
      "start_date": "1976-01-29",
      "end_date": "3999-12-31",
      "name": "Free State Geduld Ltd"
    }
  ],
  "types": [
    {
      "start_date": "1976-01-29",
      "end_date": "3999-12-31",
      "id": 2,
      "name": "Option",
      "stock_group": "M"
    }
  ],
  "is_mainstock": 0,
  "prices_period": [
    null,
    null
  ],
  "stock_exchanges": {
    "1": {
      "id": 1,
      "name": "Paris (Official List)",
      "notations": {
        "152517": {
          "id": 152517,
          "sector_id": 604,
          "start_date": "1976-01-29",
          "end_date": "1976-02-03",
          "names": [
            {
              "name": "Free State Geduld",
              "start_date": "1976-01-29",
              "end_date": "3999-12-31"
            }
          ]
        }
      },
      "listings_stats": {
        "start_date": "1976-01-29"
      }
    }
  },
  "prices_count": 0,
  "name": "Free State Geduld"
}