{
  "id": 20608,
  "share_type": {
    "id": 2,
    "name": "Bond (Obligation)"
  },
  "issuers": [
    {
      "id": 4674,
      "start_date": "1970-05-13",
      "end_date": "3999-12-31",
      "name": "Société Alsacienne de developpement et d'expansion"
    }
  ],
  "types": [
    {
      "start_date": "1970-05-13",
      "end_date": "3999-12-31",
      "id": 1001,
      "name": "Obligation ordinaire ou classique",
      "stock_group": "B"
    }
  ],
  "is_mainstock": 0,
  "prices_period": [
    "1970-06-15",
    "1976-12-31"
  ],
  "stock_exchanges": {
    "1": {
      "id": 1,
      "name": "Paris (Official List)",
      "notations": {
        "151178": {
          "id": 151178,
          "sector_id": 615,
          "start_date": "1970-05-13",
          "end_date": "3999-12-31",
          "names": [
            {
              "name": "NANCY_BOURSE SADE (Alsacienne Dévelop. Et Expansion) 8,50% 70 (c. 23/2/71 att.) (Avis 70-324) 1971-85",
              "start_date": "1970-05-13",
              "end_date": "3999-12-31"
            }
          ]
        }
      },
      "listings_stats": {
        "start_date": "1970-05-13"
      },
      "spot_prices_stats": {
        "start_date": "1970-06-15",
        "end_date": "1976-12-31"
      }
    }
  },
  "prices_count": 156,
  "name": "NANCY_BOURSE SADE (Alsacienne Dévelop. Et Expansion) 8,50% 70 (c. 23/2/71 att.) (Avis 70-324) 1971-85"
}