{
  "id": 100769,
  "share_type": {
    "id": 4,
    "name": "Rights (Droits)"
  },
  "issuers": [
    {
      "id": 2296,
      "start_date": "1947-06-18",
      "end_date": "3999-12-31",
      "name": "AU PRINTEMPS (Laguionie et Cie)"
    }
  ],
  "types": [
    {
      "start_date": "1947-06-18",
      "end_date": "3999-12-31",
      "id": 501,
      "name": "Droit de souscription",
      "stock_group": "R"
    }
  ],
  "is_mainstock": 0,
  "prices_period": [
    "1947-06-18",
    "1947-06-18"
  ],
  "stock_exchanges": {
    "1": {
      "id": 1,
      "name": "Paris (Official List)",
      "notations": {
        "200914": {
          "id": 200914,
          "sector_id": 657,
          "start_date": "1947-06-18",
          "end_date": "4000-01-01",
          "names": [
            {
              "name": "Au Printemps (droit et coupon 43). 1 act. nouv. émise à 290 fr. pour 1 act. Anc.",
              "start_date": "1947-06-18",
              "end_date": "4000-01-01"
            }
          ]
        }
      },
      "listings_stats": {
        "start_date": "1947-06-18"
      },
      "spot_prices_stats": {
        "start_date": "1947-06-18",
        "end_date": "1947-06-18"
      }
    }
  },
  "prices_count": 1,
  "name": "Au Printemps (droit et coupon 43). 1 act. nouv. émise à 290 fr. pour 1 act. Anc."
}