{
  "id": 14855,
  "share_type": {
    "id": 1,
    "name": "Stock (Action)"
  },
  "issuers": [
    {
      "id": 4557,
      "start_date": "1954-01-04",
      "end_date": "3999-12-31",
      "name": "Standard Française des Petroles"
    }
  ],
  "types": [
    {
      "start_date": "1954-01-04",
      "end_date": "3999-12-31",
      "id": 11,
      "name": "Action ordinaire",
      "stock_group": "S"
    }
  ],
  "is_mainstock": 0,
  "prices_period": [
    null,
    null
  ],
  "stock_exchanges": {
    "1": {
      "id": 1,
      "name": "Paris (Official List)",
      "notations": {
        "145430": {
          "id": 145430,
          "sector_id": 18,
          "start_date": "1954-01-04",
          "end_date": "1956-05-23",
          "names": [
            {
              "name": "Esso Standard (Sté Anon. Franç.), act. 5000 fr., t. p. (par 25 actions)",
              "start_date": "1954-01-04",
              "end_date": "1956-05-23"
            },
            {
              "name": "Esso Standard (Sté Anonyme Française), act. 5000 fr. (par actions)",
              "start_date": "1954-01-04",
              "end_date": "3999-12-31"
            }
          ]
        }
      },
      "listings_stats": {
        "start_date": "1954-01-04"
      }
    }
  },
  "prices_count": 0,
  "name": "Esso Standard (Sté Anonyme Française), act. 5000 fr. (par actions)"
}