{
  "id": 104605,
  "share_type": {
    "id": 5,
    "name": "Droits de souscription"
  },
  "issuers": [
    {
      "id": 2664,
      "start_date": "1944-04-07",
      "end_date": "1944-04-27",
      "name": "CiE FRANÇAISE DE L'AFRIQUE OCCIDENTALE"
    }
  ],
  "types": [
    {
      "start_date": "1944-04-07",
      "end_date": "1944-04-27",
      "id": 501,
      "name": "Droit de souscription",
      "stock_group": "R"
    }
  ],
  "is_mainstock": 0,
  "prices_period": [
    null,
    null
  ],
  "stock_exchanges": {
    "1": {
      "id": 1,
      "name": "Paris (Official List)",
      "notations": {
        "205008": {
          "id": 205008,
          "sector_id": 657,
          "start_date": "1944-04-07",
          "end_date": "1944-04-27",
          "names": [
            {
              "name": "Act. CIE FRANCAISE DE MATERIEL DE CHEM. DE FER ( droit et coupon 122 ou bon de droit)",
              "start_date": "1944-04-07",
              "end_date": "1944-04-27"
            }
          ]
        }
      },
      "listings_stats": {
        "start_date": "1944-04-07"
      }
    }
  },
  "prices_count": 0,
  "name": "Act. CIE FRANCAISE DE MATERIEL DE CHEM. DE FER ( droit et coupon 122 ou bon de droit)"
}