{
  "id": 17394,
  "share_type": {
    "id": 1,
    "name": "Stock (Action)"
  },
  "issuers": [
    {
      "id": 3836,
      "start_date": "1962-01-02",
      "end_date": "3999-12-31",
      "name": "DISTILLERIE DE BRETAGNE ET DE NORMANDIE (Anciens Etablissements Auffray, Robillard, Avril)"
    }
  ],
  "types": [
    {
      "start_date": "1962-01-02",
      "end_date": "3999-12-31",
      "id": 20,
      "name": "Part de bénéfice (part bénéficiaire)",
      "stock_group": "S"
    }
  ],
  "is_mainstock": 0,
  "prices_period": [
    "1962-01-02",
    "1969-04-15"
  ],
  "stock_exchanges": {
    "1": {
      "id": 1,
      "name": "Paris (Official List)",
      "notations": {
        "29780": {
          "id": 29780,
          "sector_id": 492,
          "start_date": "1963-03-04",
          "end_date": "1969-04-25",
          "names": [
            {
              "name": "Distilleries Réunies de Bretagne et de Normandie, parts bénéf.",
              "start_date": "1962-01-02",
              "end_date": "1969-04-25"
            },
            {
              "name": "Disitillerie Réunies de Bretagne et de Normandie, Parts bénéf.",
              "start_date": "1963-03-04",
              "end_date": "1969-04-25"
            },
            {
              "name": "Distillerie Réunies, Parts bénef.",
              "start_date": "1963-03-04",
              "end_date": "1969-04-25"
            },
            {
              "name": "Distilleries Réunis, Parts Bénéf.",
              "start_date": "1963-03-04",
              "end_date": "3999-12-31"
            }
          ]
        },
        "147969": {
          "id": 147969,
          "sector_id": 388,
          "start_date": "1962-01-02",
          "end_date": "1963-03-04",
          "names": [
            {
              "name": "Distilleries Réunies de Bretagne et de Normandie, parts bénéf.",
              "start_date": "1962-01-02",
              "end_date": "1966-02-13"
            },
            {
              "name": "Disitillerie Réunies de Bretagne et de Normandie, Parts bénéf.",
              "start_date": "1962-01-02",
              "end_date": "1966-02-14"
            },
            {
              "name": "Distillerie Réunies, Parts bénef.",
              "start_date": "1962-01-02",
              "end_date": "1969-04-25"
            },
            {
              "name": "Distilleries Réunis, Parts Bénéf.",
              "start_date": "1962-01-02",
              "end_date": "3999-12-31"
            }
          ]
        }
      },
      "listings_stats": {
        "start_date": "1962-01-02"
      },
      "spot_prices_stats": {
        "start_date": "1962-01-02",
        "end_date": "1969-04-15"
      }
    }
  },
  "prices_count": 177,
  "name": "Distillerie Réunies, Parts bénef."
}