{
  "id": 14365,
  "share_type": {
    "id": 1,
    "name": "Stock (Action)"
  },
  "issuers": [
    {
      "id": 5142,
      "start_date": "1952-02-04",
      "end_date": "3999-12-31",
      "name": "SOCIÉTÉ ANONYME DES CHAUX ET CIMENTS DE LAFARGE ET DU TEIL"
    }
  ],
  "types": [
    {
      "start_date": "1952-02-04",
      "end_date": "3999-12-31",
      "id": 10,
      "name": "Action de capital",
      "stock_group": "S"
    }
  ],
  "is_mainstock": 0,
  "prices_period": [
    "1952-02-04",
    "1976-12-31"
  ],
  "stock_exchanges": {
    "1": {
      "id": 1,
      "name": "Paris (Official List)",
      "notations": {
        "25777": {
          "id": 25777,
          "sector_id": 393,
          "start_date": "1955-12-01",
          "end_date": "1963-03-04",
          "names": [
            {
              "name": "Chaux et Ciments de Lafarge et du Teil, act. 5000 fr., t.p.",
              "start_date": "1952-02-04",
              "end_date": "1963-03-04"
            },
            {
              "name": "Chaux et Ciments de Lafarge et du Teil, act.",
              "start_date": "1955-12-01",
              "end_date": "1963-03-04"
            },
            {
              "name": "Ciments Lafarge, act.",
              "start_date": "1955-12-01",
              "end_date": "1974-09-16"
            },
            {
              "name": "Ciments Lafarge, act (n° 6 à 4650007) (n° 6 à 2878000, tit nouv c.31 att) (avis 73-561 et 73-738)",
              "start_date": "1955-12-01",
              "end_date": "1974-09-17"
            },
            {
              "name": "Lafarge, actions (n° 6 à 4650007) (avis 73-561 et 73-738)",
              "start_date": "1955-12-01",
              "end_date": "3999-12-31"
            }
          ]
        },
        "29872": {
          "id": 29872,
          "sector_id": 338,
          "start_date": "1963-03-04",
          "end_date": "3999-12-31",
          "names": [
            {
              "name": "Chaux et Ciments de Lafarge et du Teil, act. 5000 fr., t.p.",
              "start_date": "1952-02-04",
              "end_date": "3999-12-31"
            },
            {
              "name": "Chaux et Ciments de Lafarge et du Teil, act.",
              "start_date": "1955-12-01",
              "end_date": "3999-12-31"
            },
            {
              "name": "Ciments Lafarge, act.",
              "start_date": "1957-08-13",
              "end_date": "3999-12-31"
            },
            {
              "name": "Ciments Lafarge, act (n° 6 à 4650007) (n° 6 à 2878000, tit nouv c.31 att) (avis 73-561 et 73-738)",
              "start_date": "1963-03-04",
              "end_date": "3999-12-31"
            },
            {
              "name": "Lafarge, actions (n° 6 à 4650007) (avis 73-561 et 73-738)",
              "start_date": "1963-03-04",
              "end_date": "3999-12-31"
            }
          ]
        },
        "144940": {
          "id": 144940,
          "sector_id": 231,
          "start_date": "1952-02-04",
          "end_date": "1955-12-01",
          "names": [
            {
              "name": "Chaux et Ciments de Lafarge et du Teil, act. 5000 fr., t.p.",
              "start_date": "1952-02-04",
              "end_date": "1955-12-01"
            },
            {
              "name": "Chaux et Ciments de Lafarge et du Teil, act.",
              "start_date": "1952-02-04",
              "end_date": "1957-08-13"
            },
            {
              "name": "Ciments Lafarge, act.",
              "start_date": "1952-02-04",
              "end_date": "1974-09-16"
            },
            {
              "name": "Ciments Lafarge, act (n° 6 à 4650007) (n° 6 à 2878000, tit nouv c.31 att) (avis 73-561 et 73-738)",
              "start_date": "1952-02-04",
              "end_date": "1974-09-17"
            },
            {
              "name": "Lafarge, actions (n° 6 à 4650007) (avis 73-561 et 73-738)",
              "start_date": "1952-02-04",
              "end_date": "3999-12-31"
            }
          ]
        }
      },
      "listings_stats": {
        "start_date": "1952-02-04"
      },
      "spot_prices_stats": {
        "start_date": "1952-02-04",
        "end_date": "1976-12-31"
      }
    }
  },
  "prices_count": 822,
  "name": "Chaux et Ciments de Lafarge et du Teil, act."
}