{
  "id": 211,
  "share_type": {
    "id": 2,
    "name": "Bond (Obligation)"
  },
  "issuers": [
    {
      "id": 100,
      "start_date": "1832-03-10",
      "end_date": "3999-12-31",
      "name": "RENTES FRANÇAISES"
    }
  ],
  "types": [
    {
      "start_date": "1832-03-10",
      "end_date": "3999-12-31",
      "id": 1013,
      "name": "Bons du Trésor",
      "stock_group": "B"
    }
  ],
  "is_mainstock": 0,
  "prices_period": [
    "1833-07-01",
    "1835-08-17"
  ],
  "stock_exchanges": {
    "1": {
      "id": 1,
      "name": "Paris (Official List)",
      "notations": {
        "281": {
          "id": 281,
          "sector_id": 10,
          "start_date": "1832-03-10",
          "end_date": "1833-08-06",
          "names": [
            {
              "name": "Bons du Trésor – janvier",
              "start_date": "1832-03-10",
              "end_date": "3999-12-31"
            }
          ]
        },
        "320": {
          "id": 320,
          "sector_id": 574,
          "start_date": "1833-08-06",
          "end_date": "1840-12-01",
          "names": [
            {
              "name": "Bons du Trésor – janvier",
              "start_date": "1832-03-10",
              "end_date": "3999-12-31"
            }
          ]
        }
      },
      "listings_stats": {
        "start_date": "1832-03-10"
      },
      "spot_prices_stats": {
        "start_date": "1833-07-01",
        "end_date": "1835-08-17"
      }
    }
  },
  "prices_count": 5,
  "name": "Bons du Trésor – janvier"
}