{
  "id": 100749,
  "share_type": {
    "id": 4,
    "name": "Rights (Droits)"
  },
  "issuers": [
    {
      "id": 3978,
      "start_date": "1947-04-24",
      "end_date": "3999-12-31",
      "name": "SOCIETE ANONYME DES CIMENTS VICAT"
    }
  ],
  "types": [
    {
      "start_date": "1947-04-24",
      "end_date": "3999-12-31",
      "id": 501,
      "name": "Droit de souscription",
      "stock_group": "R"
    }
  ],
  "is_mainstock": 0,
  "prices_period": [
    "1947-04-24",
    "1947-04-24"
  ],
  "stock_exchanges": {
    "1": {
      "id": 1,
      "name": "Paris (Official List)",
      "notations": {
        "200894": {
          "id": 200894,
          "sector_id": 657,
          "start_date": "1947-04-24",
          "end_date": "4000-01-01",
          "names": [
            {
              "name": "Ciments Vicat (droit et coupon 39). 1 act. nouv. émise à 650 fr. pour 1 act. Anc.",
              "start_date": "1947-04-24",
              "end_date": "4000-01-01"
            }
          ]
        }
      },
      "listings_stats": {
        "start_date": "1947-04-24"
      },
      "spot_prices_stats": {
        "start_date": "1947-04-24",
        "end_date": "1947-04-24"
      }
    }
  },
  "prices_count": 1,
  "name": "Ciments Vicat (droit et coupon 39). 1 act. nouv. émise à 650 fr. pour 1 act. Anc."
}