{
  "id": 106577,
  "share_type": {
    "id": 1,
    "name": "Stock (Action)"
  },
  "issuers": [
    {
      "id": 15492,
      "start_date": "1899-01-09",
      "end_date": "1899-01-16",
      "name": "Société des forges et aciéries d'Ekaterinoslaw"
    }
  ],
  "types": [
    {
      "start_date": "1899-01-09",
      "end_date": "1899-01-16",
      "id": 21,
      "name": "Part de fondateur",
      "stock_group": "S"
    }
  ],
  "is_mainstock": 0,
  "prices_period": [
    null,
    null
  ],
  "stock_exchanges": {
    "2": {
      "id": 2,
      "name": "Paris OTC (Coulisse)",
      "notations": {
        "207620": {
          "id": 207620,
          "sector_id": 682,
          "start_date": "1899-01-09",
          "end_date": "1899-01-16",
          "names": [
            {
              "name": "EKATERINOSLAW (Forges et Aciéries d’) 1/10 parts fondateurs",
              "start_date": "1899-01-09",
              "end_date": "1899-01-16"
            },
            {
              "name": "EKATERINOSLAW (Forges et Aciéries d’) 1/10 parts fondateurs",
              "start_date": "1899-01-09",
              "end_date": "1899-01-16"
            }
          ]
        }
      },
      "listings_stats": {
        "start_date": "1899-01-09"
      }
    }
  },
  "prices_count": 0,
  "name": "EKATERINOSLAW (Forges et Aciéries d’) 1/10 parts fondateurs"
}