{
  "id": 104414,
  "share_type": {
    "id": 2,
    "name": "Bond (Obligation)"
  },
  "issuers": [
    {
      "id": 10447,
      "start_date": "1951-06-06",
      "end_date": "1951-06-22",
      "name": "MAROC (EMPIRE CHÉRIFIEN) (PROTECTORAT DE LA REPUBLIQUE FRANÇAISE AU MAROC)"
    }
  ],
  "types": [
    {
      "start_date": "1951-06-06",
      "end_date": "1951-06-22",
      "id": 1013,
      "name": "Bons du Trésor",
      "stock_group": "B"
    }
  ],
  "is_mainstock": 0,
  "prices_period": [
    "1951-06-15",
    "1951-06-15"
  ],
  "stock_exchanges": {
    "1": {
      "id": 1,
      "name": "Paris (Official List)",
      "notations": {
        "204802": {
          "id": 204802,
          "sector_id": 84,
          "start_date": "1951-06-06",
          "end_date": "1951-06-22",
          "names": [
            {
              "name": "Maroc 3,5% 1942, remb. À 2000 fr. 1943-99 titres livrables",
              "start_date": "1951-06-06",
              "end_date": "1951-06-22"
            }
          ]
        }
      },
      "listings_stats": {
        "start_date": "1951-06-06"
      },
      "spot_prices_stats": {
        "start_date": "1951-06-15",
        "end_date": "1951-06-15"
      }
    }
  },
  "prices_count": 1,
  "name": "Maroc 3,5% 1942, remb. À 2000 fr. 1943-99 titres livrables"
}