{
  "id": 650,
  "share_type": {
    "id": 2,
    "name": "Bond (Obligation)"
  },
  "issuers": [
    {
      "id": 449,
      "start_date": "1852-02-10",
      "end_date": "3999-12-31",
      "name": "EMPRUNT ESPAGNOL"
    }
  ],
  "types": [
    {
      "start_date": "1852-02-10",
      "end_date": "3999-12-31",
      "id": 1001,
      "name": "Obligation ordinaire ou classique",
      "stock_group": "B"
    }
  ],
  "is_mainstock": 0,
  "prices_period": [
    "1852-02-10",
    "1852-02-10"
  ],
  "stock_exchanges": {
    "1": {
      "id": 1,
      "name": "Paris (Official List)",
      "notations": {
        "876": {
          "id": 876,
          "sector_id": 74,
          "start_date": "1852-02-10",
          "end_date": "1852-02-17",
          "names": [
            {
              "name": "Espagne, dette act. diverses écheances",
              "start_date": "1852-02-10",
              "end_date": "3999-12-31"
            }
          ]
        }
      },
      "listings_stats": {
        "start_date": "1852-02-10"
      },
      "spot_prices_stats": {
        "start_date": "1852-02-10",
        "end_date": "1852-02-10"
      }
    }
  },
  "prices_count": 1,
  "name": "Espagne, dette act. diverses écheances"
}