{
  "id": 101098,
  "share_type": {
    "id": 4,
    "name": "Rights (Droits)"
  },
  "issuers": [
    {
      "id": 3743,
      "start_date": "1949-09-02",
      "end_date": "3999-12-31",
      "name": "Brasserie de la Meuse"
    }
  ],
  "types": [
    {
      "start_date": "1949-09-02",
      "end_date": "3999-12-31",
      "id": 501,
      "name": "Droit de souscription",
      "stock_group": "R"
    }
  ],
  "is_mainstock": 0,
  "prices_period": [
    "1949-09-02",
    "1949-09-02"
  ],
  "stock_exchanges": {
    "1": {
      "id": 1,
      "name": "Paris (Official List)",
      "notations": {
        "201243": {
          "id": 201243,
          "sector_id": 657,
          "start_date": "1949-09-02",
          "end_date": "4000-01-01",
          "names": [
            {
              "name": "Brasseries de la Meuse (droit et coup. 75) (1 act. nouvelle émise à 1250 fr. pour 1 action anc.)",
              "start_date": "1949-09-02",
              "end_date": "4000-01-01"
            }
          ]
        }
      },
      "listings_stats": {
        "start_date": "1949-09-02"
      },
      "spot_prices_stats": {
        "start_date": "1949-09-02",
        "end_date": "1949-09-02"
      }
    }
  },
  "prices_count": 1,
  "name": "Brasseries de la Meuse (droit et coup. 75) (1 act. nouvelle émise à 1250 fr. pour 1 action anc.)"
}