{
  "id": 18458,
  "share_type": {
    "id": 1,
    "name": "Stock (Action)"
  },
  "issuers": [
    {
      "id": 4630,
      "start_date": "1965-10-17",
      "end_date": "3999-12-31",
      "name": "ETABLISSEMENTS KUHLMANN Manufactures de Produits Chimiques du Nord"
    }
  ],
  "types": [
    {
      "start_date": "1965-10-17",
      "end_date": "3999-12-31",
      "id": 27,
      "name": "Promesse d'action",
      "stock_group": "S"
    }
  ],
  "is_mainstock": 0,
  "prices_period": [
    "1965-10-17",
    "1966-06-30"
  ],
  "stock_exchanges": {
    "1": {
      "id": 1,
      "name": "Paris (Official List)",
      "notations": {
        "149033": {
          "id": 149033,
          "sector_id": 351,
          "start_date": "1965-10-17",
          "end_date": "1966-07-05",
          "names": [
            {
              "name": "KUHLMANN (Etabl.), Promesses (Jce 1/7/65)",
              "start_date": "1965-10-17",
              "end_date": "1966-07-05"
            },
            {
              "name": "KUHLMANN (Etabl.), act. (n° 2757119 à 3346397) (c. 20 spéc. Att.)",
              "start_date": "1965-10-17",
              "end_date": "3999-12-31"
            }
          ]
        }
      },
      "listings_stats": {
        "start_date": "1965-10-17"
      },
      "spot_prices_stats": {
        "start_date": "1965-10-17",
        "end_date": "1966-06-30"
      }
    }
  },
  "prices_count": 23,
  "name": "KUHLMANN (Etabl.), Promesses (Jce 1/7/65)"
}