{
  "id": 14139,
  "share_type": {
    "id": 1,
    "name": "Stock (Action)"
  },
  "issuers": [
    {
      "id": 3762,
      "start_date": "1951-10-29",
      "end_date": "3999-12-31",
      "name": "DOMAINES DU KEROULIS"
    }
  ],
  "types": [
    {
      "start_date": "1951-10-29",
      "end_date": "3999-12-31",
      "id": 11,
      "name": "Action ordinaire",
      "stock_group": "S"
    }
  ],
  "is_mainstock": 0,
  "prices_period": [
    "1951-10-29",
    "1961-12-15"
  ],
  "stock_exchanges": {
    "1": {
      "id": 1,
      "name": "Paris (Official List)",
      "notations": {
        "25714": {
          "id": 25714,
          "sector_id": 389,
          "start_date": "1955-12-01",
          "end_date": "1962-01-02",
          "names": [
            {
              "name": "Kéroulis (Domaine du), act. 12000 fr., 1500 fr. am. (c. 16 att.)",
              "start_date": "1951-10-29",
              "end_date": "1962-01-02"
            },
            {
              "name": "Kéroulis (Domaines du), Act. 1500 fr. amort. (ex-dr., )",
              "start_date": "1955-12-01",
              "end_date": "3999-12-31"
            }
          ]
        },
        "144714": {
          "id": 144714,
          "sector_id": 277,
          "start_date": "1951-10-29",
          "end_date": "1955-12-01",
          "names": [
            {
              "name": "Kéroulis (Domaine du), act. 12000 fr., 1500 fr. am. (c. 16 att.)",
              "start_date": "1951-10-29",
              "end_date": "1955-12-01"
            },
            {
              "name": "Kéroulis (Domaines du), Act. 1500 fr. amort. (ex-dr., )",
              "start_date": "1951-10-29",
              "end_date": "3999-12-31"
            }
          ]
        }
      },
      "listings_stats": {
        "start_date": "1951-10-29"
      },
      "spot_prices_stats": {
        "start_date": "1951-10-29",
        "end_date": "1961-12-15"
      }
    }
  },
  "prices_count": 267,
  "name": "Kéroulis (Domaines du), Act. 1500 fr. amort. (ex-dr., )"
}