{
  "id": 10327,
  "share_type": {
    "id": 1,
    "name": "Stock (Action)"
  },
  "issuers": [
    {
      "id": 2426,
      "start_date": "1933-03-03",
      "end_date": "3999-12-31",
      "name": "\"LA HENIN\" COMPAGNIE FINANCIÈRE INDUSTRIELLE ET IMMOBILIÈRE"
    }
  ],
  "types": [
    {
      "start_date": "1933-03-03",
      "end_date": "3999-12-31",
      "id": 18,
      "name": "Action",
      "stock_group": "S"
    }
  ],
  "is_mainstock": 1,
  "prices_period": [
    "1933-03-03",
    "1951-08-31"
  ],
  "stock_exchanges": {
    "1": {
      "id": 1,
      "name": "Paris (Official List)",
      "notations": {
        "140902": {
          "id": 140902,
          "sector_id": 182,
          "start_date": "1933-03-03",
          "end_date": "1951-09-03",
          "names": [
            {
              "name": "Hénin (La)(Cie financière, Industrielle et Immobilière), act. 2e série 100 fr., t. p. (nos 38001 à 380000)",
              "start_date": "1933-03-03",
              "end_date": "1951-09-03"
            },
            {
              "name": "Hénin (La) (Cie Financière, Industrielle et Immobilière), act. 100 fr., t.p. (nos 38001 à 380000)",
              "start_date": "1933-03-03",
              "end_date": "1951-09-03"
            },
            {
              "name": "Hénin (La) (Cie Financière, Industrielle et Immobil.), act. 100 fr., t. p.",
              "start_date": "1933-03-03",
              "end_date": "1951-09-03"
            },
            {
              "name": "Hénin (La) (Cie Financière, Industrielle et Immobil.), act. 250 fr., t. p.",
              "start_date": "1933-03-03",
              "end_date": "1951-09-03"
            },
            {
              "name": "Hénin (La) (Cie Financière, Industrielle et Immobil.), a. anc. 250 f., t.p. (tit. Liv.)",
              "start_date": "1933-03-03",
              "end_date": "3999-12-31"
            }
          ]
        }
      },
      "listings_stats": {
        "start_date": "1933-03-03"
      },
      "spot_prices_stats": {
        "start_date": "1933-03-03",
        "end_date": "1951-08-31"
      }
    }
  },
  "prices_count": 487,
  "name": "Hénin (La) (Cie Financière, Industrielle et Immobil.), act. 100 fr., t. p."
}