{
  "id": 16388,
  "share_type": {
    "id": 1,
    "name": "Stock (Action)"
  },
  "issuers": [
    {
      "id": 3931,
      "start_date": "1961-04-04",
      "end_date": "3999-12-31",
      "name": "SOCIETE ANONYME FRANÇAISE DU FERODO"
    }
  ],
  "types": [
    {
      "start_date": "1961-04-04",
      "end_date": "3999-12-31",
      "id": 18,
      "name": "Action",
      "stock_group": "S"
    }
  ],
  "is_mainstock": 0,
  "prices_period": [
    "1961-04-04",
    "1961-06-30"
  ],
  "stock_exchanges": {
    "1": {
      "id": 1,
      "name": "Paris (Official List)",
      "notations": {
        "146963": {
          "id": 146963,
          "sector_id": 337,
          "start_date": "1961-04-04",
          "end_date": "1961-07-03",
          "names": [
            {
              "name": "Ferodo (SA)(sté Fr du), act nouv (jce 1/1/61) numérotées à partir de 256501",
              "start_date": "1961-04-04",
              "end_date": "3999-12-31"
            }
          ]
        }
      },
      "listings_stats": {
        "start_date": "1961-04-04"
      },
      "spot_prices_stats": {
        "start_date": "1961-04-04",
        "end_date": "1961-06-30"
      }
    }
  },
  "prices_count": 10,
  "name": "Ferodo (SA)(sté Fr du), act nouv (jce 1/1/61) numérotées à partir de 256501"
}