{
  "id": 9133,
  "share_type": {
    "id": 1,
    "name": "Stock (Action)"
  },
  "issuers": [
    {
      "id": 4659,
      "start_date": "1928-06-21",
      "end_date": "3999-12-31",
      "name": "SOCIETE DES ETABLISSEMENTS P. LINET"
    }
  ],
  "types": [
    {
      "start_date": "1928-06-21",
      "end_date": "3999-12-31",
      "id": 18,
      "name": "Action",
      "stock_group": "S"
    }
  ],
  "is_mainstock": 1,
  "prices_period": [
    "1928-06-21",
    "1953-02-02"
  ],
  "stock_exchanges": {
    "1": {
      "id": 1,
      "name": "Paris (Official List)",
      "notations": {
        "21941": {
          "id": 21941,
          "sector_id": 242,
          "start_date": "1948-06-30",
          "end_date": "1953-02-09",
          "names": [
            {
              "name": "Linet (Etabl. P.), act. 250 fr., t.p.",
              "start_date": "1928-06-21",
              "end_date": "1953-02-09"
            },
            {
              "name": "Linet (Etabl. P.), act. 250 f., t.p. (nos 1 à 40000)",
              "start_date": "1941-03-19",
              "end_date": "1953-02-09"
            },
            {
              "name": "Linet (Etabl. P.), act. 250 fr., t. p.",
              "start_date": "1948-06-30",
              "end_date": "1953-02-09"
            },
            {
              "name": "Linet (Etabl. P.), act. Anc. 250 f., t. p.",
              "start_date": "1948-06-30",
              "end_date": "3999-12-31"
            }
          ]
        },
        "136580": {
          "id": 136580,
          "sector_id": 135,
          "start_date": "1928-06-21",
          "end_date": "1948-06-30",
          "names": [
            {
              "name": "Linet (Etabl. P.), act. 250 fr., t.p.",
              "start_date": "1928-06-21",
              "end_date": "1948-06-30"
            },
            {
              "name": "Linet (Etabl. P.), act. 250 f., t.p. (nos 1 à 40000)",
              "start_date": "1928-06-21",
              "end_date": "1948-06-30"
            },
            {
              "name": "Linet (Etabl. P.), act. 250 fr., t. p.",
              "start_date": "1928-06-21",
              "end_date": "1952-07-07"
            },
            {
              "name": "Linet (Etabl. P.), act. Anc. 250 f., t. p.",
              "start_date": "1928-06-21",
              "end_date": "3999-12-31"
            }
          ]
        }
      },
      "listings_stats": {
        "start_date": "1928-06-21"
      },
      "spot_prices_stats": {
        "start_date": "1928-06-21",
        "end_date": "1953-02-02"
      }
    }
  },
  "prices_count": 575,
  "name": "Linet (Etabl. P.), act. 250 fr., t.p."
}