{
  "id": 106086,
  "share_type": {
    "id": 1,
    "name": "Stock (Action)"
  },
  "issuers": [
    {
      "id": 2958,
      "start_date": "1960-02-15",
      "end_date": "1960-05-31",
      "name": "SOCIÉTÉ CHIMIQUE DES USINES DU RHONE (Anciennement Gilliard, P. Monnet et Cartier.)"
    }
  ],
  "types": [
    {
      "start_date": "1960-02-15",
      "end_date": "1960-05-31",
      "id": 27,
      "name": "Promesse d'action",
      "stock_group": "S"
    }
  ],
  "is_mainstock": 0,
  "prices_period": [
    "1960-02-15",
    "1960-05-31"
  ],
  "stock_exchanges": {
    "1": {
      "id": 1,
      "name": "Paris (Official List)",
      "notations": {
        "206943": {
          "id": 206943,
          "sector_id": 351,
          "start_date": "1960-02-15",
          "end_date": "1960-05-31",
          "names": [
            {
              "name": "Rhône-Poulenc (Usines Chimiques), Promesses (Jce 1/1/60)",
              "start_date": "1960-02-15",
              "end_date": "1960-05-31"
            }
          ]
        }
      },
      "listings_stats": {
        "start_date": "1960-02-15"
      },
      "spot_prices_stats": {
        "start_date": "1960-02-15",
        "end_date": "1960-05-31"
      }
    }
  },
  "prices_count": 10,
  "name": "Rhône-Poulenc (Usines Chimiques), Promesses (Jce 1/1/60)"
}