{
  "id": 3662,
  "share_type": {
    "id": 2,
    "name": "Bond (Obligation)"
  },
  "issuers": [
    {
      "id": 2563,
      "start_date": "1890-01-27",
      "end_date": "3999-12-31",
      "name": "CIE universelle du Canal interocéanique de Panama"
    }
  ],
  "types": [
    {
      "start_date": "1890-01-27",
      "end_date": "3999-12-31",
      "id": 1018,
      "name": "Obligations à Lots",
      "stock_group": "B"
    }
  ],
  "is_mainstock": 0,
  "prices_period": [
    "1890-01-30",
    "1904-11-30"
  ],
  "stock_exchanges": {
    "1": {
      "id": 1,
      "name": "Paris (Official List)",
      "notations": {
        "4761": {
          "id": 4761,
          "sector_id": 70,
          "start_date": "1890-01-27",
          "end_date": "1902-05-26",
          "names": [
            {
              "name": "Canal Interocéanique (Panama), obl. à lots, 110 fr. payés",
              "start_date": "1890-01-27",
              "end_date": "1904-06-16"
            },
            {
              "name": "Canal interocéanique (Panama) oblig. à lots non estampillées, 110 fr. payés",
              "start_date": "1890-01-27",
              "end_date": "3999-12-31"
            }
          ]
        },
        "6298": {
          "id": 6298,
          "sector_id": 113,
          "start_date": "1902-05-26",
          "end_date": "1904-12-01",
          "names": [
            {
              "name": "Canal Interocéanique (Panama), obl. à lots, 110 fr. payés",
              "start_date": "1890-01-27",
              "end_date": "1904-12-01"
            },
            {
              "name": "Canal interocéanique (Panama) oblig. à lots non estampillées, 110 fr. payés",
              "start_date": "1902-05-26",
              "end_date": "3999-12-31"
            }
          ]
        }
      },
      "listings_stats": {
        "start_date": "1890-01-27"
      },
      "spot_prices_stats": {
        "start_date": "1890-01-30",
        "end_date": "1904-11-30"
      }
    }
  },
  "prices_count": 189,
  "name": "Canal Interocéanique (Panama), obl. à lots, 110 fr. payés"
}