{
  "id": 18183,
  "share_type": {
    "id": 1,
    "name": "Stock (Action)"
  },
  "issuers": [
    {
      "id": 5591,
      "start_date": "1964-06-23",
      "end_date": "3999-12-31",
      "name": "Etudes Financières de Compagnies d’Assurances \"SEFICA\""
    }
  ],
  "types": [
    {
      "start_date": "1964-06-23",
      "end_date": "3999-12-31",
      "id": 27,
      "name": "Promesse d'action",
      "stock_group": "S"
    }
  ],
  "is_mainstock": 0,
  "prices_period": [
    "1964-06-25",
    "1964-09-15"
  ],
  "stock_exchanges": {
    "1": {
      "id": 1,
      "name": "Paris (Official List)",
      "notations": {
        "148758": {
          "id": 148758,
          "sector_id": 462,
          "start_date": "1964-06-23",
          "end_date": "1964-09-18",
          "names": [
            {
              "name": "Etudes Financières de Compagnies d'Assurances \"SEFICA\", Promesses (Jce 1/1/64)",
              "start_date": "1964-06-23",
              "end_date": "3999-12-31"
            }
          ]
        }
      },
      "listings_stats": {
        "start_date": "1964-06-23"
      },
      "spot_prices_stats": {
        "start_date": "1964-06-25",
        "end_date": "1964-09-15"
      }
    }
  },
  "prices_count": 7,
  "name": "Etudes Financières de Compagnies d'Assurances \"SEFICA\", Promesses (Jce 1/1/64)"
}