{
  "id": 105416,
  "share_type": {
    "id": 1,
    "name": "Stock (Action)"
  },
  "issuers": [
    {
      "id": 12476,
      "start_date": "1895-09-14",
      "end_date": "1897-10-31",
      "name": "Union-Waihi Gold mining"
    }
  ],
  "types": [
    {
      "start_date": "1895-09-14",
      "end_date": "1897-10-31",
      "id": 18,
      "name": "Action",
      "stock_group": "S"
    }
  ],
  "is_mainstock": 1,
  "prices_period": [
    "1895-09-14",
    "1896-12-31"
  ],
  "stock_exchanges": {
    "2": {
      "id": 2,
      "name": "Paris OTC (Coulisse)",
      "notations": {
        "206239": {
          "id": 206239,
          "sector_id": 669,
          "start_date": "1895-09-14",
          "end_date": "1897-10-31",
          "names": [
            {
              "name": "Union-Waihi Gold mining",
              "start_date": "1895-09-14",
              "end_date": "1897-10-31"
            }
          ]
        }
      },
      "listings_stats": {
        "start_date": "1895-09-14"
      },
      "spot_prices_stats": {
        "start_date": "1895-09-14",
        "end_date": "1896-12-31"
      }
    }
  },
  "prices_count": 30,
  "name": "Union-Waihi Gold mining"
}