{
  "id": 5483,
  "share_type": {
    "id": 1,
    "name": "Stock (Action)"
  },
  "issuers": [
    {
      "id": 3352,
      "start_date": "1908-07-27",
      "end_date": "3999-12-31",
      "name": "THE CENTRAL MINING AND INVESTMENT CORPORATION LTD"
    }
  ],
  "types": [
    {
      "start_date": "1908-07-27",
      "end_date": "3999-12-31",
      "id": 18,
      "name": "Action",
      "stock_group": "S"
    }
  ],
  "is_mainstock": 0,
  "prices_period": [
    "1908-07-27",
    "1908-12-31"
  ],
  "stock_exchanges": {
    "1": {
      "id": 1,
      "name": "Paris (Official List)",
      "notations": {
        "7888": {
          "id": 7888,
          "sector_id": 68,
          "start_date": "1908-07-27",
          "end_date": "1909-01-04",
          "names": [
            {
              "name": "Central Mining and Investment Corporation, limited, act. 20£, t.p. (c. 1 att.) Gr. Coup",
              "start_date": "1908-07-27",
              "end_date": "3999-12-31"
            }
          ]
        }
      },
      "listings_stats": {
        "start_date": "1908-07-27"
      },
      "options_prices_stats": {
        "start_date": "1908-07-31",
        "end_date": "1908-07-31"
      },
      "spot_prices_stats": {
        "start_date": "1908-07-27",
        "end_date": "1908-12-31"
      }
    }
  },
  "prices_count": 12,
  "name": "Central Mining and Investment Corporation, limited, act. 20£, t.p. (c. 1 att.) Gr. Coup"
}