{
  "id": 14481,
  "share_type": {
    "id": 1,
    "name": "Stock (Action)"
  },
  "issuers": [
    {
      "id": 3683,
      "start_date": "1952-05-19",
      "end_date": "3999-12-31",
      "name": "CONSORTIUM DU NORD"
    }
  ],
  "types": [
    {
      "start_date": "1952-05-19",
      "end_date": "3999-12-31",
      "id": 11,
      "name": "Action ordinaire",
      "stock_group": "S"
    }
  ],
  "is_mainstock": 0,
  "prices_period": [
    "1952-05-19",
    "1958-12-31"
  ],
  "stock_exchanges": {
    "1": {
      "id": 1,
      "name": "Paris (Official List)",
      "notations": {
        "24652": {
          "id": 24652,
          "sector_id": 319,
          "start_date": "1952-07-01",
          "end_date": "1955-12-01",
          "names": [
            {
              "name": "Consortium du Nord, act. 3000 fr., t.p. (c. 1 att.)",
              "start_date": "1952-05-19",
              "end_date": "1955-12-01"
            },
            {
              "name": "Consortium du Nord, act. (n°s 1 à 40833 et 52501 à 180600) (ex-dr., )",
              "start_date": "1952-07-01",
              "end_date": "1959-01-02"
            },
            {
              "name": "Consortium du nord, a (ex-dr, )",
              "start_date": "1952-07-01",
              "end_date": "3999-12-31"
            }
          ]
        },
        "25591": {
          "id": 25591,
          "sector_id": 383,
          "start_date": "1955-12-01",
          "end_date": "1959-01-02",
          "names": [
            {
              "name": "Consortium du Nord, act. 3000 fr., t.p. (c. 1 att.)",
              "start_date": "1952-05-19",
              "end_date": "1959-01-02"
            },
            {
              "name": "Consortium du Nord, act. (n°s 1 à 40833 et 52501 à 180600) (ex-dr., )",
              "start_date": "1955-12-01",
              "end_date": "1959-01-02"
            },
            {
              "name": "Consortium du nord, a (ex-dr, )",
              "start_date": "1955-12-01",
              "end_date": "3999-12-31"
            }
          ]
        },
        "145056": {
          "id": 145056,
          "sector_id": 182,
          "start_date": "1952-05-19",
          "end_date": "1952-07-01",
          "names": [
            {
              "name": "Consortium du Nord, act. 3000 fr., t.p. (c. 1 att.)",
              "start_date": "1952-05-19",
              "end_date": "1955-12-01"
            },
            {
              "name": "Consortium du Nord, act. (n°s 1 à 40833 et 52501 à 180600) (ex-dr., )",
              "start_date": "1952-05-19",
              "end_date": "1959-01-02"
            },
            {
              "name": "Consortium du nord, a (ex-dr, )",
              "start_date": "1952-05-19",
              "end_date": "3999-12-31"
            }
          ]
        }
      },
      "listings_stats": {
        "start_date": "1952-05-19"
      },
      "spot_prices_stats": {
        "start_date": "1952-05-19",
        "end_date": "1958-12-31"
      }
    }
  },
  "prices_count": 176,
  "name": "Consortium du Nord, act. 3000 fr., t.p. (c. 1 att.)"
}