{
  "id": 103180,
  "share_type": {
    "id": 4,
    "name": "Rights (Droits)"
  },
  "issuers": [
    {
      "id": 2303,
      "start_date": "1000-01-01",
      "end_date": "1942-01-29",
      "name": "Gaz et Eaux"
    }
  ],
  "types": [
    {
      "start_date": "1000-01-01",
      "end_date": "1942-01-29",
      "id": 501,
      "name": "Droit de souscription",
      "stock_group": "R"
    }
  ],
  "is_mainstock": 0,
  "prices_period": [
    "1941-12-31",
    "1942-01-15"
  ],
  "stock_exchanges": {
    "1": {
      "id": 1,
      "name": "Paris (Official List)",
      "notations": {
        "203362": {
          "id": 203362,
          "sector_id": 657,
          "start_date": "1941-12-31",
          "end_date": "1942-01-30",
          "names": [
            {
              "name": "Act.250 francs.GAZ ET EAUX (droit et coupon 95).Pour 2 act.anc.de 250 fr., 1 action nouvelle émise à 275 francs.",
              "start_date": "1000-01-01",
              "end_date": "1942-01-30"
            }
          ]
        }
      },
      "listings_stats": {
        "start_date": "1941-12-31"
      },
      "spot_prices_stats": {
        "start_date": "1941-12-31",
        "end_date": "1942-01-15"
      }
    }
  },
  "prices_count": 1,
  "name": "Act.250 francs.GAZ ET EAUX (droit et coupon 95).Pour 2 act.anc.de 250 fr., 1 action nouvelle émise à 275 francs."
}