{
  "id": 22078,
  "share_type": {
    "id": 1,
    "name": "Stock (Action)"
  },
  "issuers": [
    {
      "id": 5499,
      "start_date": "1961-12-11",
      "end_date": "3999-12-31",
      "name": "America-valor (Sté Française d'Investissement en Valeurs Américaines)"
    }
  ],
  "types": [
    {
      "start_date": "1961-12-11",
      "end_date": "3999-12-31",
      "id": 18,
      "name": "Action",
      "stock_group": "S"
    }
  ],
  "is_mainstock": 0,
  "prices_period": [
    "1961-12-11",
    "1968-10-31"
  ],
  "stock_exchanges": {
    "1": {
      "id": 1,
      "name": "Paris (Official List)",
      "notations": {
        "27780": {
          "id": 27780,
          "sector_id": 489,
          "start_date": "1962-01-02",
          "end_date": "1963-03-04",
          "names": [
            {
              "name": "America-valor (Sté Française d'Investissement en Valeurs Américaines) (c. 1 att.)",
              "start_date": "1961-12-11",
              "end_date": "3999-12-31"
            }
          ]
        },
        "29594": {
          "id": 29594,
          "sector_id": 461,
          "start_date": "1963-03-04",
          "end_date": "1968-11-06",
          "names": [
            {
              "name": "America-valor (Sté Française d'Investissement en Valeurs Américaines) (c. 1 att.)",
              "start_date": "1961-12-11",
              "end_date": "3999-12-31"
            }
          ]
        },
        "152639": {
          "id": 152639,
          "sector_id": 461,
          "start_date": "1961-12-11",
          "end_date": "1962-01-02",
          "names": [
            {
              "name": "America-valor (Sté Française d'Investissement en Valeurs Américaines) (c. 1 att.)",
              "start_date": "1961-12-11",
              "end_date": "3999-12-31"
            }
          ]
        }
      },
      "listings_stats": {
        "start_date": "1961-12-11"
      },
      "spot_prices_stats": {
        "start_date": "1961-12-11",
        "end_date": "1968-10-31"
      }
    }
  },
  "prices_count": 167,
  "name": "America-valor (Sté Française d'Investissement en Valeurs Américaines) (c. 1 att.)"
}