{
  "id": 105192,
  "share_type": {
    "id": 2,
    "name": "Bond (Obligation)"
  },
  "issuers": [
    {
      "id": 2491,
      "start_date": "1890-05-16",
      "end_date": "1891-05-15",
      "name": "Bouillons de Paris, Société d'alimentation et de fondoirs générales"
    }
  ],
  "types": [
    {
      "start_date": "1890-05-16",
      "end_date": "1891-05-15",
      "id": 1001,
      "name": "Obligation ordinaire ou classique",
      "stock_group": "B"
    }
  ],
  "is_mainstock": 0,
  "prices_period": [
    "1890-05-16",
    "1893-05-01"
  ],
  "stock_exchanges": {
    "2": {
      "id": 2,
      "name": "Paris OTC (Coulisse)",
      "notations": {
        "205870": {
          "id": 205870,
          "sector_id": 673,
          "start_date": "1890-05-16",
          "end_date": "1893-05-01",
          "names": [
            {
              "name": "Bouillons Parisiens (Grands)",
              "start_date": "1890-05-16",
              "end_date": "1893-05-01"
            }
          ]
        }
      },
      "listings_stats": {
        "start_date": "1890-05-16"
      },
      "spot_prices_stats": {
        "start_date": "1890-05-16",
        "end_date": "1893-05-01"
      }
    }
  },
  "prices_count": 73,
  "name": "Bouillons Parisiens (Grands)"
}