{
  "id": 15011,
  "share_type": {
    "id": 1,
    "name": "Stock (Action)"
  },
  "issuers": [
    {
      "id": 4317,
      "start_date": "1955-04-22",
      "end_date": "3999-12-31",
      "name": "SOCIETE COMMERCIALE DE L'OUEST AFRICAIN"
    }
  ],
  "types": [
    {
      "start_date": "1955-04-22",
      "end_date": "3999-12-31",
      "id": 11,
      "name": "Action ordinaire",
      "stock_group": "S"
    }
  ],
  "is_mainstock": 0,
  "prices_period": [
    null,
    null
  ],
  "stock_exchanges": {
    "1": {
      "id": 1,
      "name": "Paris (Official List)",
      "notations": {
        "26476": {
          "id": 26476,
          "sector_id": 15,
          "start_date": "1955-12-01",
          "end_date": "1959-03-02",
          "names": [
            {
              "name": "Ouest-Africain (Sté Commerc. de l'), act. 5000 fr., t. p. (c. 1 att.) (par 25 actions)",
              "start_date": "1955-04-22",
              "end_date": "1959-03-02"
            },
            {
              "name": "Ouest-Africain (Sté Commerciale de l'), act. 5000 fr. (ex-dr., ) (par 25 actions)",
              "start_date": "1955-12-01",
              "end_date": "1959-03-02"
            },
            {
              "name": "Ouest-africain (sté commerciale de l') act 5000 fr (par 25 actions)",
              "start_date": "1955-12-01",
              "end_date": "1960-01-04"
            },
            {
              "name": "Ouest-africain (sté commerciale de l'), act 50 NF (par 25 actions)",
              "start_date": "1955-12-01",
              "end_date": "1963-09-23"
            },
            {
              "name": "Ouest Africain (Sté Commerciale de l'), act. 50F (par 25 actions)",
              "start_date": "1955-12-01",
              "end_date": "1972-04-04"
            },
            {
              "name": "SCOA, (Sté commerciale de l'ouest Africain), act. de 50",
              "start_date": "1955-12-01",
              "end_date": "1976-12-31"
            },
            {
              "name": "SCOA, act. 50F (par 25 actions)",
              "start_date": "1955-12-01",
              "end_date": "3999-12-31"
            }
          ]
        },
        "27199": {
          "id": 27199,
          "sector_id": 1,
          "start_date": "1959-03-02",
          "end_date": "1960-01-04",
          "names": [
            {
              "name": "Ouest-Africain (Sté Commerc. de l'), act. 5000 fr., t. p. (c. 1 att.) (par 25 actions)",
              "start_date": "1955-04-22",
              "end_date": "1960-01-04"
            },
            {
              "name": "Ouest-Africain (Sté Commerciale de l'), act. 5000 fr. (ex-dr., ) (par 25 actions)",
              "start_date": "1955-12-01",
              "end_date": "1960-01-04"
            },
            {
              "name": "Ouest-africain (sté commerciale de l') act 5000 fr (par 25 actions)",
              "start_date": "1959-03-02",
              "end_date": "1960-01-04"
            },
            {
              "name": "Ouest-africain (sté commerciale de l'), act 50 NF (par 25 actions)",
              "start_date": "1959-03-02",
              "end_date": "1963-09-23"
            },
            {
              "name": "Ouest Africain (Sté Commerciale de l'), act. 50F (par 25 actions)",
              "start_date": "1959-03-02",
              "end_date": "1972-04-04"
            },
            {
              "name": "SCOA, (Sté commerciale de l'ouest Africain), act. de 50",
              "start_date": "1959-03-02",
              "end_date": "1976-12-31"
            },
            {
              "name": "SCOA, act. 50F (par 25 actions)",
              "start_date": "1959-03-02",
              "end_date": "3999-12-31"
            }
          ]
        },
        "27307": {
          "id": 27307,
          "sector_id": 15,
          "start_date": "1960-01-04",
          "end_date": "1963-09-23",
          "names": [
            {
              "name": "Ouest-Africain (Sté Commerc. de l'), act. 5000 fr., t. p. (c. 1 att.) (par 25 actions)",
              "start_date": "1955-04-22",
              "end_date": "1963-09-23"
            },
            {
              "name": "Ouest-Africain (Sté Commerciale de l'), act. 5000 fr. (ex-dr., ) (par 25 actions)",
              "start_date": "1955-12-01",
              "end_date": "1963-09-23"
            },
            {
              "name": "Ouest-africain (sté commerciale de l') act 5000 fr (par 25 actions)",
              "start_date": "1959-03-02",
              "end_date": "1963-09-23"
            },
            {
              "name": "Ouest-africain (sté commerciale de l'), act 50 NF (par 25 actions)",
              "start_date": "1960-01-04",
              "end_date": "1963-09-23"
            },
            {
              "name": "Ouest Africain (Sté Commerciale de l'), act. 50F (par 25 actions)",
              "start_date": "1960-01-04",
              "end_date": "1972-04-04"
            },
            {
              "name": "SCOA, (Sté commerciale de l'ouest Africain), act. de 50",
              "start_date": "1960-01-04",
              "end_date": "1976-12-31"
            },
            {
              "name": "SCOA, act. 50F (par 25 actions)",
              "start_date": "1960-01-04",
              "end_date": "3999-12-31"
            }
          ]
        },
        "31705": {
          "id": 31705,
          "sector_id": 1,
          "start_date": "1963-09-23",
          "end_date": "1969-03-25",
          "names": [
            {
              "name": "Ouest-Africain (Sté Commerc. de l'), act. 5000 fr., t. p. (c. 1 att.) (par 25 actions)",
              "start_date": "1955-04-22",
              "end_date": "1969-03-25"
            },
            {
              "name": "Ouest-Africain (Sté Commerciale de l'), act. 5000 fr. (ex-dr., ) (par 25 actions)",
              "start_date": "1955-12-01",
              "end_date": "1969-03-25"
            },
            {
              "name": "Ouest-africain (sté commerciale de l') act 5000 fr (par 25 actions)",
              "start_date": "1959-03-02",
              "end_date": "1969-03-25"
            },
            {
              "name": "Ouest-africain (sté commerciale de l'), act 50 NF (par 25 actions)",
              "start_date": "1960-01-04",
              "end_date": "1969-03-25"
            },
            {
              "name": "Ouest Africain (Sté Commerciale de l'), act. 50F (par 25 actions)",
              "start_date": "1963-09-23",
              "end_date": "1972-04-04"
            },
            {
              "name": "SCOA, (Sté commerciale de l'ouest Africain), act. de 50",
              "start_date": "1963-09-23",
              "end_date": "1976-12-31"
            },
            {
              "name": "SCOA, act. 50F (par 25 actions)",
              "start_date": "1963-09-23",
              "end_date": "3999-12-31"
            }
          ]
        },
        "32186": {
          "id": 32186,
          "sector_id": 471,
          "start_date": "1969-03-25",
          "end_date": "3999-12-31",
          "names": [
            {
              "name": "Ouest-Africain (Sté Commerc. de l'), act. 5000 fr., t. p. (c. 1 att.) (par 25 actions)",
              "start_date": "1955-04-22",
              "end_date": "3999-12-31"
            },
            {
              "name": "Ouest-Africain (Sté Commerciale de l'), act. 5000 fr. (ex-dr., ) (par 25 actions)",
              "start_date": "1955-12-01",
              "end_date": "3999-12-31"
            },
            {
              "name": "Ouest-africain (sté commerciale de l') act 5000 fr (par 25 actions)",
              "start_date": "1959-03-02",
              "end_date": "3999-12-31"
            },
            {
              "name": "Ouest-africain (sté commerciale de l'), act 50 NF (par 25 actions)",
              "start_date": "1960-01-04",
              "end_date": "3999-12-31"
            },
            {
              "name": "Ouest Africain (Sté Commerciale de l'), act. 50F (par 25 actions)",
              "start_date": "1963-09-23",
              "end_date": "3999-12-31"
            },
            {
              "name": "SCOA, (Sté commerciale de l'ouest Africain), act. de 50",
              "start_date": "1969-03-25",
              "end_date": "3999-12-31"
            },
            {
              "name": "SCOA, act. 50F (par 25 actions)",
              "start_date": "1969-03-25",
              "end_date": "3999-12-31"
            }
          ]
        },
        "145586": {
          "id": 145586,
          "sector_id": 8,
          "start_date": "1955-04-22",
          "end_date": "1955-12-01",
          "names": [
            {
              "name": "Ouest-Africain (Sté Commerc. de l'), act. 5000 fr., t. p. (c. 1 att.) (par 25 actions)",
              "start_date": "1955-04-22",
              "end_date": "1955-12-01"
            },
            {
              "name": "Ouest-Africain (Sté Commerciale de l'), act. 5000 fr. (ex-dr., ) (par 25 actions)",
              "start_date": "1955-04-22",
              "end_date": "1959-03-02"
            },
            {
              "name": "Ouest-africain (sté commerciale de l') act 5000 fr (par 25 actions)",
              "start_date": "1955-04-22",
              "end_date": "1960-01-04"
            },
            {
              "name": "Ouest-africain (sté commerciale de l'), act 50 NF (par 25 actions)",
              "start_date": "1955-04-22",
              "end_date": "1963-09-23"
            },
            {
              "name": "Ouest Africain (Sté Commerciale de l'), act. 50F (par 25 actions)",
              "start_date": "1955-04-22",
              "end_date": "1972-04-04"
            },
            {
              "name": "SCOA, (Sté commerciale de l'ouest Africain), act. de 50",
              "start_date": "1955-04-22",
              "end_date": "1976-12-31"
            },
            {
              "name": "SCOA, act. 50F (par 25 actions)",
              "start_date": "1955-04-22",
              "end_date": "3999-12-31"
            }
          ]
        }
      },
      "listings_stats": {
        "start_date": "1955-04-22"
      }
    }
  },
  "prices_count": 0,
  "name": "Ouest Africain (Sté Commerciale de l'), act. 50F (par 25 actions)"
}