{
  "id": 13708,
  "share_type": {
    "id": 1,
    "name": "Stock (Action)"
  },
  "issuers": [
    {
      "id": 4562,
      "start_date": "1950-04-25",
      "end_date": "3999-12-31",
      "name": "PECHELBRONN (Société anonyme d'Exploitations minières)"
    }
  ],
  "types": [
    {
      "start_date": "1950-04-25",
      "end_date": "3999-12-31",
      "id": 18,
      "name": "Action",
      "stock_group": "S"
    }
  ],
  "is_mainstock": 0,
  "prices_period": [
    "1950-04-25",
    "1976-12-31"
  ],
  "stock_exchanges": {
    "1": {
      "id": 1,
      "name": "Paris (Official List)",
      "notations": {
        "26149": {
          "id": 26149,
          "sector_id": 411,
          "start_date": "1955-12-01",
          "end_date": "1963-03-04",
          "names": [
            {
              "name": "Pechelbronn (Sté d'Exploitations Minières), actions 2500 fr., t. p. (nom.)",
              "start_date": "1950-04-25",
              "end_date": "1963-03-04"
            },
            {
              "name": "Pechelbronn, act. (ex-dr. Est. Du 18/4/55) (nom.)",
              "start_date": "1955-12-01",
              "end_date": "1973-02-21"
            },
            {
              "name": "Pechelbronn, act. (ex-dr., )",
              "start_date": "1955-12-01",
              "end_date": "3999-12-31"
            }
          ]
        },
        "30366": {
          "id": 30366,
          "sector_id": 349,
          "start_date": "1963-03-04",
          "end_date": "1973-02-21",
          "names": [
            {
              "name": "Pechelbronn (Sté d'Exploitations Minières), actions 2500 fr., t. p. (nom.)",
              "start_date": "1950-04-25",
              "end_date": "1973-02-21"
            },
            {
              "name": "Pechelbronn, act. (ex-dr. Est. Du 18/4/55) (nom.)",
              "start_date": "1955-12-01",
              "end_date": "1973-02-21"
            },
            {
              "name": "Pechelbronn, act. (ex-dr., )",
              "start_date": "1963-03-04",
              "end_date": "3999-12-31"
            }
          ]
        },
        "100006": {
          "id": 100006,
          "sector_id": 462,
          "start_date": "1973-02-21",
          "end_date": "3999-12-31",
          "names": [
            {
              "name": "Pechelbronn (Sté d'Exploitations Minières), actions 2500 fr., t. p. (nom.)",
              "start_date": "1950-04-25",
              "end_date": "3999-12-31"
            },
            {
              "name": "Pechelbronn, act. (ex-dr. Est. Du 18/4/55) (nom.)",
              "start_date": "1955-12-01",
              "end_date": "3999-12-31"
            },
            {
              "name": "Pechelbronn, act. (ex-dr., )",
              "start_date": "1973-02-21",
              "end_date": "3999-12-31"
            }
          ]
        },
        "144283": {
          "id": 144283,
          "sector_id": 135,
          "start_date": "1950-04-25",
          "end_date": "1955-12-01",
          "names": [
            {
              "name": "Pechelbronn (Sté d'Exploitations Minières), actions 2500 fr., t. p. (nom.)",
              "start_date": "1950-04-25",
              "end_date": "1955-12-01"
            },
            {
              "name": "Pechelbronn, act. (ex-dr. Est. Du 18/4/55) (nom.)",
              "start_date": "1950-04-25",
              "end_date": "1973-02-21"
            },
            {
              "name": "Pechelbronn, act. (ex-dr., )",
              "start_date": "1950-04-25",
              "end_date": "3999-12-31"
            }
          ]
        }
      },
      "listings_stats": {
        "start_date": "1950-04-25"
      },
      "spot_prices_stats": {
        "start_date": "1950-04-25",
        "end_date": "1976-12-31"
      }
    }
  },
  "prices_count": 892,
  "name": "Pechelbronn, act. (ex-dr. Est. Du 18/4/55) (nom.)"
}