{
  "id": 5442,
  "share_type": {
    "id": 1,
    "name": "Stock (Action)"
  },
  "issuers": [
    {
      "id": 2394,
      "start_date": "1906-07-06",
      "end_date": "3999-12-31",
      "name": "BANQUE DE GUANAJUATO"
    }
  ],
  "types": [
    {
      "start_date": "1906-07-06",
      "end_date": "3999-12-31",
      "id": 18,
      "name": "Action",
      "stock_group": "S"
    }
  ],
  "is_mainstock": 0,
  "prices_period": [
    "1906-07-06",
    "1906-11-30"
  ],
  "stock_exchanges": {
    "1": {
      "id": 1,
      "name": "Paris (Official List)",
      "notations": {
        "7847": {
          "id": 7847,
          "sector_id": 82,
          "start_date": "1906-07-06",
          "end_date": "1911-04-18",
          "names": [
            {
              "name": "Banque de Guanajuato, act. 100 piastres, t. p C. 10",
              "start_date": "1906-07-06",
              "end_date": "3999-12-31"
            }
          ]
        },
        "8508": {
          "id": 8508,
          "sector_id": 123,
          "start_date": "1911-04-18",
          "end_date": "1914-08-03",
          "names": [
            {
              "name": "Banque de Guanajuato, act. 100 piastres, t. p C. 10",
              "start_date": "1906-07-06",
              "end_date": "3999-12-31"
            }
          ]
        }
      },
      "listings_stats": {
        "start_date": "1906-07-06"
      },
      "spot_prices_stats": {
        "start_date": "1906-07-06",
        "end_date": "1906-11-30"
      }
    }
  },
  "prices_count": 14,
  "name": "Banque de Guanajuato, act. 100 piastres, t. p C. 10"
}