{
  "id": 13113,
  "share_type": {
    "id": 1,
    "name": "Stock (Action)"
  },
  "issuers": [
    {
      "id": 1632,
      "start_date": "1859-11-15",
      "end_date": "3999-12-31",
      "name": "COMPAGNIE DES MINES D'ANICHE"
    }
  ],
  "types": [
    {
      "start_date": "1600-01-01",
      "end_date": "3999-12-31",
      "id": 1,
      "name": "UNKNOWN",
      "stock_group": "U"
    }
  ],
  "is_mainstock": 0,
  "prices_period": [
    "1859-11-15",
    "1859-11-15"
  ],
  "stock_exchanges": {
    "1": {
      "id": 1,
      "name": "Paris (Official List)",
      "notations": {
        "143688": {
          "id": 143688,
          "sector_id": 576,
          "start_date": "1859-11-15",
          "end_date": "1859-11-30",
          "names": [
            {
              "name": "Mines d'Aniche",
              "start_date": "1859-11-15",
              "end_date": "3999-12-31"
            }
          ]
        }
      },
      "listings_stats": {
        "start_date": "1859-11-15"
      },
      "spot_prices_stats": {
        "start_date": "1859-11-15",
        "end_date": "1859-11-15"
      }
    }
  },
  "prices_count": 1,
  "name": "Mines d'Aniche"
}