{
  "id": 104308,
  "share_type": {
    "id": 2,
    "name": "Bond (Obligation)"
  },
  "issuers": [
    {
      "id": 11869,
      "start_date": "1878-01-16",
      "end_date": "1891-12-31",
      "name": "Tramways de Roubaix"
    }
  ],
  "types": [
    {
      "start_date": "1878-01-16",
      "end_date": "1891-12-31",
      "id": 1001,
      "name": "Obligation ordinaire ou classique",
      "stock_group": "B"
    }
  ],
  "is_mainstock": 0,
  "prices_period": [
    "1878-02-28",
    "1891-06-03"
  ],
  "stock_exchanges": {
    "2": {
      "id": 2,
      "name": "Paris OTC (Coulisse)",
      "notations": {
        "204673": {
          "id": 204673,
          "sector_id": 664,
          "start_date": "1878-01-16",
          "end_date": "1891-12-31",
          "names": [
            {
              "name": "Obl. Tramways de Roubaix, oct. 78",
              "start_date": "1878-01-16",
              "end_date": "1891-12-31"
            }
          ]
        }
      },
      "listings_stats": {
        "start_date": "1878-01-16"
      },
      "spot_prices_stats": {
        "start_date": "1878-02-28",
        "end_date": "1891-06-03"
      }
    }
  },
  "prices_count": 346,
  "name": "Obl. Tramways de Roubaix, oct. 78"
}