{
  "id": 18596,
  "share_type": {
    "id": 2,
    "name": "Bond (Obligation)"
  },
  "issuers": [
    {
      "id": 566,
      "start_date": "1967-04-10",
      "end_date": "3999-12-31",
      "name": "Crédit Foncier de France"
    }
  ],
  "types": [
    {
      "start_date": "1967-04-10",
      "end_date": "3999-12-31",
      "id": 1001,
      "name": "Obligation ordinaire ou classique",
      "stock_group": "B"
    }
  ],
  "is_mainstock": 0,
  "prices_period": [
    "1967-04-10",
    "1976-12-31"
  ],
  "stock_exchanges": {
    "1": {
      "id": 1,
      "name": "Paris (Official List)",
      "notations": {
        "149171": {
          "id": 149171,
          "sector_id": 190,
          "start_date": "1967-04-10",
          "end_date": "3999-12-31",
          "names": [
            {
              "name": "Foncier et Communal 6, 25% janvier 1967, à lots (c. 10/2/68 att.) 1968-87",
              "start_date": "1967-04-10",
              "end_date": "3999-12-31"
            }
          ]
        }
      },
      "listings_stats": {
        "start_date": "1967-04-10"
      },
      "spot_prices_stats": {
        "start_date": "1967-04-10",
        "end_date": "1976-12-31"
      }
    }
  },
  "prices_count": 240,
  "name": "Foncier et Communal 6, 25% janvier 1967, à lots (c. 10/2/68 att.) 1968-87"
}