{
  "id": 103034,
  "share_type": {
    "id": 4,
    "name": "Rights (Droits)"
  },
  "issuers": [
    {
      "id": 5067,
      "start_date": "1000-01-01",
      "end_date": "1924-01-30",
      "name": "SOCIÉTÉ DE MÉCANIQUE DE GENNEVILLIERS"
    }
  ],
  "types": [
    {
      "start_date": "1000-01-01",
      "end_date": "1924-01-30",
      "id": 501,
      "name": "Droit de souscription",
      "stock_group": "R"
    }
  ],
  "is_mainstock": 0,
  "prices_period": [
    "1924-01-23",
    "1924-01-23"
  ],
  "stock_exchanges": {
    "1": {
      "id": 1,
      "name": "Paris (Official List)",
      "notations": {
        "203216": {
          "id": 203216,
          "sector_id": 657,
          "start_date": "1924-01-15",
          "end_date": "1924-01-31",
          "names": [
            {
              "name": "Act. Sté de mécanique de Gennevilliers (dr. Et c. 7)",
              "start_date": "1000-01-01",
              "end_date": "1924-01-31"
            }
          ]
        }
      },
      "listings_stats": {
        "start_date": "1924-01-15"
      },
      "spot_prices_stats": {
        "start_date": "1924-01-23",
        "end_date": "1924-01-23"
      }
    }
  },
  "prices_count": 0,
  "name": "Act. Sté de mécanique de Gennevilliers (dr. Et c. 7)"
}