{
  "id": 10121,
  "share_type": {
    "id": 2,
    "name": "Bond (Obligation)"
  },
  "issuers": [
    {
      "id": 933,
      "start_date": "1933-10-17",
      "end_date": "3999-12-31",
      "name": "TURQUIE"
    }
  ],
  "types": [
    {
      "start_date": "1933-10-17",
      "end_date": "3999-12-31",
      "id": 1001,
      "name": "Obligation ordinaire ou classique",
      "stock_group": "B"
    }
  ],
  "is_mainstock": 0,
  "prices_period": [
    "1933-10-17",
    "1933-12-15"
  ],
  "stock_exchanges": {
    "1": {
      "id": 1,
      "name": "Paris (Official List)",
      "notations": {
        "140696": {
          "id": 140696,
          "sector_id": 74,
          "start_date": "1933-10-17",
          "end_date": "1934-01-02",
          "names": [
            {
              "name": "Turquie. Dette Ottomane Convertie Unifiée 4%. Oblig. 500 fr. rente",
              "start_date": "1933-10-17",
              "end_date": "3999-12-31"
            }
          ]
        }
      },
      "listings_stats": {
        "start_date": "1933-10-17"
      },
      "spot_prices_stats": {
        "start_date": "1933-10-17",
        "end_date": "1933-12-15"
      }
    }
  },
  "prices_count": 4,
  "name": "Turquie. Dette Ottomane Convertie Unifiée 4%. Oblig. 500 fr. rente"
}