{
  "id": 4525,
  "share_type": {
    "id": 1,
    "name": "Stock (Action)"
  },
  "issuers": [
    {
      "id": 2872,
      "start_date": "1898-04-07",
      "end_date": "3999-12-31",
      "name": "COMPAGNIE DES PHOSPHATES ET DU CHEMIN DE FER DE GAFSA"
    }
  ],
  "types": [
    {
      "start_date": "1898-04-07",
      "end_date": "3999-12-31",
      "id": 20,
      "name": "Part de bénéfice (part bénéficiaire)",
      "stock_group": "S"
    }
  ],
  "is_mainstock": 0,
  "prices_period": [
    "1898-04-15",
    "1939-03-15"
  ],
  "stock_exchanges": {
    "1": {
      "id": 1,
      "name": "Paris (Official List)",
      "notations": {
        "1825": {
          "id": 1825,
          "sector_id": 106,
          "start_date": "1902-05-26",
          "end_date": "1913-02-01",
          "names": [
            {
              "name": "Cie des Phosphates et du Chemin de fer de Gafsa, Parts de bénéfices",
              "start_date": "1892-05-05",
              "end_date": "1913-02-01"
            },
            {
              "name": "Phosphates et Chemin de fer de Gafsa, parts entières",
              "start_date": "1902-05-26",
              "end_date": "1913-02-01"
            },
            {
              "name": "Phosphates et Chemin de fer de Gafsa, act. 100 fr., Cinquièmes part de bénéfices (c. 11 attaché)",
              "start_date": "1902-05-26",
              "end_date": "1920-01-02"
            },
            {
              "name": "Phosphates et Ch. De Fer de Gasfa, act. 100 fr., t. p, Cinquièmes part de bénéfices",
              "start_date": "1902-05-26",
              "end_date": "1925-05-01"
            },
            {
              "name": "Phosphate et Chemin de Gafsa, cinquièmes part de bénéf.",
              "start_date": "1902-05-26",
              "end_date": "1938-12-30"
            },
            {
              "name": "Phosphate et Chemin de Fer de Gafsa, cinquièmes part de bénéf.",
              "start_date": "1902-05-26",
              "end_date": "3999-12-31"
            }
          ]
        },
        "5624": {
          "id": 5624,
          "sector_id": 73,
          "start_date": "1898-04-07",
          "end_date": "1902-05-26",
          "names": [
            {
              "name": "Cie des Phosphates et du Chemin de fer de Gafsa, Parts de bénéfices",
              "start_date": "1892-05-05",
              "end_date": "1913-01-31"
            },
            {
              "name": "Phosphates et Chemin de fer de Gafsa, parts entières",
              "start_date": "1898-04-07",
              "end_date": "1913-01-31"
            },
            {
              "name": "Phosphates et Chemin de fer de Gafsa, act. 100 fr., Cinquièmes part de bénéfices (c. 11 attaché)",
              "start_date": "1898-04-07",
              "end_date": "1920-01-02"
            },
            {
              "name": "Phosphates et Ch. De Fer de Gasfa, act. 100 fr., t. p, Cinquièmes part de bénéfices",
              "start_date": "1898-04-07",
              "end_date": "1925-05-01"
            },
            {
              "name": "Phosphate et Chemin de Gafsa, cinquièmes part de bénéf.",
              "start_date": "1898-04-07",
              "end_date": "1938-12-30"
            },
            {
              "name": "Phosphate et Chemin de Fer de Gafsa, cinquièmes part de bénéf.",
              "start_date": "1898-04-07",
              "end_date": "3999-12-31"
            }
          ]
        },
        "8630": {
          "id": 8630,
          "sector_id": 574,
          "start_date": "1913-03-27",
          "end_date": "1914-08-03",
          "names": [
            {
              "name": "Cie des Phosphates et du Chemin de fer de Gafsa, Parts de bénéfices",
              "start_date": "1892-05-05",
              "end_date": "1914-08-03"
            },
            {
              "name": "Phosphates et Chemin de fer de Gafsa, parts entières",
              "start_date": "1913-01-31",
              "end_date": "1914-08-03"
            },
            {
              "name": "Phosphates et Chemin de fer de Gafsa, act. 100 fr., Cinquièmes part de bénéfices (c. 11 attaché)",
              "start_date": "1913-02-01",
              "end_date": "1920-01-02"
            },
            {
              "name": "Phosphates et Ch. De Fer de Gasfa, act. 100 fr., t. p, Cinquièmes part de bénéfices",
              "start_date": "1913-03-27",
              "end_date": "1925-05-01"
            },
            {
              "name": "Phosphate et Chemin de Gafsa, cinquièmes part de bénéf.",
              "start_date": "1913-03-27",
              "end_date": "1938-12-30"
            },
            {
              "name": "Phosphate et Chemin de Fer de Gafsa, cinquièmes part de bénéf.",
              "start_date": "1913-03-27",
              "end_date": "3999-12-31"
            }
          ]
        },
        "8728": {
          "id": 8728,
          "sector_id": 574,
          "start_date": "1914-12-15",
          "end_date": "1920-01-02",
          "names": [
            {
              "name": "Cie des Phosphates et du Chemin de fer de Gafsa, Parts de bénéfices",
              "start_date": "1892-05-05",
              "end_date": "1920-01-02"
            },
            {
              "name": "Phosphates et Chemin de fer de Gafsa, parts entières",
              "start_date": "1913-01-31",
              "end_date": "1920-01-02"
            },
            {
              "name": "Phosphates et Chemin de fer de Gafsa, act. 100 fr., Cinquièmes part de bénéfices (c. 11 attaché)",
              "start_date": "1913-02-01",
              "end_date": "1920-01-02"
            },
            {
              "name": "Phosphates et Ch. De Fer de Gasfa, act. 100 fr., t. p, Cinquièmes part de bénéfices",
              "start_date": "1914-12-15",
              "end_date": "1925-05-01"
            },
            {
              "name": "Phosphate et Chemin de Gafsa, cinquièmes part de bénéf.",
              "start_date": "1914-12-15",
              "end_date": "1938-12-30"
            },
            {
              "name": "Phosphate et Chemin de Fer de Gafsa, cinquièmes part de bénéf.",
              "start_date": "1914-12-15",
              "end_date": "3999-12-31"
            }
          ]
        },
        "10753": {
          "id": 10753,
          "sector_id": 150,
          "start_date": "1920-01-02",
          "end_date": "1921-12-01",
          "names": [
            {
              "name": "Cie des Phosphates et du Chemin de fer de Gafsa, Parts de bénéfices",
              "start_date": "1892-05-05",
              "end_date": "1921-12-01"
            },
            {
              "name": "Phosphates et Chemin de fer de Gafsa, parts entières",
              "start_date": "1913-01-31",
              "end_date": "1921-12-01"
            },
            {
              "name": "Phosphates et Chemin de fer de Gafsa, act. 100 fr., Cinquièmes part de bénéfices (c. 11 attaché)",
              "start_date": "1913-02-01",
              "end_date": "1921-12-01"
            },
            {
              "name": "Phosphates et Ch. De Fer de Gasfa, act. 100 fr., t. p, Cinquièmes part de bénéfices",
              "start_date": "1920-01-02",
              "end_date": "1925-05-01"
            },
            {
              "name": "Phosphate et Chemin de Gafsa, cinquièmes part de bénéf.",
              "start_date": "1920-01-02",
              "end_date": "1938-12-30"
            },
            {
              "name": "Phosphate et Chemin de Fer de Gafsa, cinquièmes part de bénéf.",
              "start_date": "1920-01-02",
              "end_date": "3999-12-31"
            }
          ]
        },
        "10894": {
          "id": 10894,
          "sector_id": 175,
          "start_date": "1921-12-01",
          "end_date": "1925-05-01",
          "names": [
            {
              "name": "Cie des Phosphates et du Chemin de fer de Gafsa, Parts de bénéfices",
              "start_date": "1892-05-05",
              "end_date": "1925-05-01"
            },
            {
              "name": "Phosphates et Chemin de fer de Gafsa, parts entières",
              "start_date": "1913-01-31",
              "end_date": "1925-05-01"
            },
            {
              "name": "Phosphates et Chemin de fer de Gafsa, act. 100 fr., Cinquièmes part de bénéfices (c. 11 attaché)",
              "start_date": "1913-02-01",
              "end_date": "1925-05-01"
            },
            {
              "name": "Phosphates et Ch. De Fer de Gasfa, act. 100 fr., t. p, Cinquièmes part de bénéfices",
              "start_date": "1920-01-02",
              "end_date": "1925-05-01"
            },
            {
              "name": "Phosphate et Chemin de Gafsa, cinquièmes part de bénéf.",
              "start_date": "1921-12-01",
              "end_date": "1938-12-30"
            },
            {
              "name": "Phosphate et Chemin de Fer de Gafsa, cinquièmes part de bénéf.",
              "start_date": "1921-12-01",
              "end_date": "3999-12-31"
            }
          ]
        },
        "13788": {
          "id": 13788,
          "sector_id": 135,
          "start_date": "1925-05-01",
          "end_date": "1939-03-16",
          "names": [
            {
              "name": "Cie des Phosphates et du Chemin de fer de Gafsa, Parts de bénéfices",
              "start_date": "1892-05-05",
              "end_date": "1939-03-16"
            },
            {
              "name": "Phosphates et Chemin de fer de Gafsa, parts entières",
              "start_date": "1913-01-31",
              "end_date": "1939-03-16"
            },
            {
              "name": "Phosphates et Chemin de fer de Gafsa, act. 100 fr., Cinquièmes part de bénéfices (c. 11 attaché)",
              "start_date": "1913-02-01",
              "end_date": "1939-03-16"
            },
            {
              "name": "Phosphates et Ch. De Fer de Gasfa, act. 100 fr., t. p, Cinquièmes part de bénéfices",
              "start_date": "1920-01-02",
              "end_date": "1939-03-16"
            },
            {
              "name": "Phosphate et Chemin de Gafsa, cinquièmes part de bénéf.",
              "start_date": "1925-05-01",
              "end_date": "1939-03-16"
            },
            {
              "name": "Phosphate et Chemin de Fer de Gafsa, cinquièmes part de bénéf.",
              "start_date": "1925-05-01",
              "end_date": "3999-12-31"
            }
          ]
        },
        "155767": {
          "id": 155767,
          "sector_id": 122,
          "start_date": "1892-05-05",
          "end_date": "1913-02-01",
          "names": [
            {
              "name": "Cie des Phosphates et du Chemin de fer de Gafsa, Parts de bénéfices",
              "start_date": "1892-05-05",
              "end_date": "1913-02-01"
            },
            {
              "name": "Phosphates et Chemin de fer de Gafsa, parts entières",
              "start_date": "1892-05-05",
              "end_date": "1913-02-01"
            },
            {
              "name": "Phosphates et Chemin de fer de Gafsa, act. 100 fr., Cinquièmes part de bénéfices (c. 11 attaché)",
              "start_date": "1892-05-05",
              "end_date": "1920-01-02"
            },
            {
              "name": "Phosphates et Ch. De Fer de Gasfa, act. 100 fr., t. p, Cinquièmes part de bénéfices",
              "start_date": "1892-05-05",
              "end_date": "1925-05-01"
            },
            {
              "name": "Phosphate et Chemin de Gafsa, cinquièmes part de bénéf.",
              "start_date": "1892-05-05",
              "end_date": "1938-12-30"
            },
            {
              "name": "Phosphate et Chemin de Fer de Gafsa, cinquièmes part de bénéf.",
              "start_date": "1892-05-05",
              "end_date": "3999-12-31"
            }
          ]
        },
        "200182": {
          "id": 200182,
          "sector_id": 106,
          "start_date": "1913-02-01",
          "end_date": "1913-03-27",
          "names": [
            {
              "name": "Cie des Phosphates et du Chemin de fer de Gafsa, Parts de bénéfices",
              "start_date": "1892-05-05",
              "end_date": "1913-03-27"
            },
            {
              "name": "Phosphates et Chemin de fer de Gafsa, parts entières",
              "start_date": "1913-01-31",
              "end_date": "1913-03-27"
            },
            {
              "name": "Phosphates et Chemin de fer de Gafsa, act. 100 fr., Cinquièmes part de bénéfices (c. 11 attaché)",
              "start_date": "1913-02-01",
              "end_date": "1920-01-02"
            },
            {
              "name": "Phosphates et Ch. De Fer de Gasfa, act. 100 fr., t. p, Cinquièmes part de bénéfices",
              "start_date": "1913-02-01",
              "end_date": "1925-05-01"
            },
            {
              "name": "Phosphate et Chemin de Gafsa, cinquièmes part de bénéf.",
              "start_date": "1913-02-01",
              "end_date": "1938-12-30"
            },
            {
              "name": "Phosphate et Chemin de Fer de Gafsa, cinquièmes part de bénéf.",
              "start_date": "1913-02-01",
              "end_date": "3999-12-31"
            }
          ]
        }
      },
      "forward_prices_stats": {
        "start_date": "1913-03-27",
        "end_date": "1914-06-02"
      },
      "listings_stats": {
        "start_date": "1892-05-05"
      },
      "spot_prices_stats": {
        "start_date": "1898-04-15",
        "end_date": "1939-03-15"
      }
    }
  },
  "prices_count": 1918,
  "name": "Phosphate et Chemin de Fer de Gafsa, cinquièmes part de bénéf."
}