{
  "id": 104582,
  "share_type": {
    "id": 8,
    "name": "Droit d'attribution"
  },
  "issuers": [
    {
      "id": 2296,
      "start_date": "1946-07-06",
      "end_date": "1946-07-26",
      "name": "AU PRINTEMPS (Laguionie et Cie)"
    }
  ],
  "types": [
    {
      "start_date": "1946-07-06",
      "end_date": "1946-07-26",
      "id": 502,
      "name": "Droit d'attribution",
      "stock_group": "R"
    }
  ],
  "is_mainstock": 0,
  "prices_period": [
    "1946-07-16",
    "1946-07-16"
  ],
  "stock_exchanges": {
    "1": {
      "id": 1,
      "name": "Paris (Official List)",
      "notations": {
        "204985": {
          "id": 204985,
          "sector_id": 658,
          "start_date": "1946-07-06",
          "end_date": "1946-07-26",
          "names": [
            {
              "name": "Printemps ( Au ), coupo. 40.",
              "start_date": "1946-07-06",
              "end_date": "1946-07-26"
            }
          ]
        }
      },
      "listings_stats": {
        "start_date": "1946-07-06"
      },
      "spot_prices_stats": {
        "start_date": "1946-07-16",
        "end_date": "1946-07-16"
      }
    }
  },
  "prices_count": 1,
  "name": "Printemps ( Au ), coupo. 40."
}