{
  "id": 10903,
  "share_type": {
    "id": 2,
    "name": "Bond (Obligation)"
  },
  "issuers": [
    {
      "id": 100,
      "start_date": "1937-02-01",
      "end_date": "3999-12-31",
      "name": "RENTES FRANÇAISES"
    }
  ],
  "types": [
    {
      "start_date": "1937-02-01",
      "end_date": "3999-12-31",
      "id": 1030,
      "name": "Obligation du Trésor",
      "stock_group": "B"
    }
  ],
  "is_mainstock": 0,
  "prices_period": [
    "1937-02-01",
    "1938-07-15"
  ],
  "stock_exchanges": {
    "1": {
      "id": 1,
      "name": "Paris (Official List)",
      "notations": {
        "141478": {
          "id": 141478,
          "sector_id": 196,
          "start_date": "1937-02-01",
          "end_date": "1939-12-18",
          "names": [
            {
              "name": "Obligations du Trésor 3.5% 1936, catégorie A, remb. à 140% le 15 decembre 1939, Titres barrés",
              "start_date": "1937-02-01",
              "end_date": "3999-12-31"
            }
          ]
        }
      },
      "listings_stats": {
        "start_date": "1937-02-01"
      },
      "spot_prices_stats": {
        "start_date": "1937-02-01",
        "end_date": "1938-07-15"
      }
    }
  },
  "prices_count": 18,
  "name": "Obligations du Trésor 3.5% 1936, catégorie A, remb. à 140% le 15 decembre 1939, Titres barrés"
}