{
  "id": 5285,
  "share_type": {
    "id": 1,
    "name": "Stock (Action)"
  },
  "issuers": [
    {
      "id": 2407,
      "start_date": "1905-06-21",
      "end_date": "3999-12-31",
      "name": "THE LAND BANK OF EGYPT"
    }
  ],
  "types": [
    {
      "start_date": "1905-06-21",
      "end_date": "3999-12-31",
      "id": 11,
      "name": "Action ordinaire",
      "stock_group": "S"
    }
  ],
  "is_mainstock": 0,
  "prices_period": [
    "1905-06-21",
    "1911-10-16"
  ],
  "stock_exchanges": {
    "1": {
      "id": 1,
      "name": "Paris (Official List)",
      "notations": {
        "7690": {
          "id": 7690,
          "sector_id": 68,
          "start_date": "1905-06-21",
          "end_date": "1911-10-24",
          "names": [
            {
              "name": "The Land Bank of Egypt, act. Ordinaires de 5£, t. p. Gr. coup.",
              "start_date": "1905-06-21",
              "end_date": "3999-12-31"
            }
          ]
        }
      },
      "listings_stats": {
        "start_date": "1905-06-21"
      },
      "options_prices_stats": {
        "start_date": "1905-06-21",
        "end_date": "1905-06-21"
      },
      "spot_prices_stats": {
        "start_date": "1905-06-22",
        "end_date": "1911-10-16"
      }
    }
  },
  "prices_count": 56,
  "name": "The Land Bank of Egypt, act. Ordinaires de 5£, t. p. Gr. coup."
}