{
  "id": 103230,
  "share_type": {
    "id": 4,
    "name": "Rights (Droits)"
  },
  "issuers": [
    {
      "id": 4316,
      "start_date": "1941-03-19",
      "end_date": "1941-05-30",
      "name": "ETABLISSEMENTS MAUREL ET PROM"
    }
  ],
  "types": [
    {
      "start_date": "1941-03-19",
      "end_date": "1941-05-30",
      "id": 502,
      "name": "Droit d'attribution",
      "stock_group": "R"
    }
  ],
  "is_mainstock": 0,
  "prices_period": [
    "1941-03-19",
    "1941-05-15"
  ],
  "stock_exchanges": {
    "1": {
      "id": 1,
      "name": "Paris (Official List)",
      "notations": {
        "203412": {
          "id": 203412,
          "sector_id": 657,
          "start_date": "1941-03-19",
          "end_date": "1941-05-31",
          "names": [
            {
              "name": "Act.ETABLISSEMENTS MAUREL ET PROM (dr.et coup.5 ou bon de droit).Pour 2 actions anciennes, 1 act.nouvelle attribuée gratuitement",
              "start_date": "1941-03-19",
              "end_date": "1941-05-31"
            }
          ]
        }
      },
      "listings_stats": {
        "start_date": "1941-03-19"
      },
      "spot_prices_stats": {
        "start_date": "1941-03-19",
        "end_date": "1941-05-15"
      }
    }
  },
  "prices_count": 4,
  "name": "Act.ETABLISSEMENTS MAUREL ET PROM (dr.et coup.5 ou bon de droit).Pour 2 actions anciennes, 1 act.nouvelle attribuée gratuitement"
}