{
  "id": 105868,
  "share_type": {
    "id": 1,
    "name": "Stock (Action)"
  },
  "issuers": [
    {
      "id": 4631,
      "start_date": "1922-04-12",
      "end_date": "3999-12-31",
      "name": "PRODUITS DU \"LION NOIR\" (Établissements Fernand George)"
    }
  ],
  "types": [
    {
      "start_date": "1922-04-12",
      "end_date": "3999-12-31",
      "id": 18,
      "name": "Action",
      "stock_group": "S"
    }
  ],
  "is_mainstock": 0,
  "prices_period": [
    "1922-04-18",
    "1923-02-28"
  ],
  "stock_exchanges": {
    "1": {
      "id": 1,
      "name": "Paris (Official List)",
      "notations": {
        "11020": {
          "id": 11020,
          "sector_id": 182,
          "start_date": "1922-12-01",
          "end_date": "1923-03-01",
          "names": [
            {
              "name": "Produits du Lion Noir, act. anc. 100 fr., t. p. (ex-dr..)",
              "start_date": "1922-04-12",
              "end_date": "3999-12-31"
            }
          ]
        },
        "50435": {
          "id": 50435,
          "sector_id": 106,
          "start_date": "1923-03-01",
          "end_date": "1926-01-01",
          "names": [
            {
              "name": "Produits du Lion Noir, act. anc. 100 fr., t. p. (ex-dr..)",
              "start_date": "1922-04-12",
              "end_date": "3999-12-31"
            }
          ]
        },
        "206726": {
          "id": 206726,
          "sector_id": 106,
          "start_date": "1922-04-12",
          "end_date": "1922-12-01",
          "names": [
            {
              "name": "Produits du Lion Noir, act. anc. 100 fr., t. p. (ex-dr..)",
              "start_date": "1922-04-12",
              "end_date": "3999-12-31"
            }
          ]
        }
      },
      "listings_stats": {
        "start_date": "1922-04-12"
      },
      "spot_prices_stats": {
        "start_date": "1922-04-18",
        "end_date": "1923-02-28"
      }
    }
  },
  "prices_count": 22,
  "name": "Produits du Lion Noir, act. anc. 100 fr., t. p. (ex-dr..)"
}