{
  "id": 102441,
  "share_type": {
    "id": 4,
    "name": "Rights (Droits)"
  },
  "issuers": [
    {
      "id": 5306,
      "start_date": "1929-08-12",
      "end_date": "1929-08-27",
      "name": "SOCIÉTÉ SAINT-RAPHAEL"
    }
  ],
  "types": [
    {
      "start_date": "1929-08-12",
      "end_date": "1929-08-27",
      "id": 501,
      "name": "Droit de souscription",
      "stock_group": "R"
    }
  ],
  "is_mainstock": 0,
  "prices_period": [
    "1929-08-13",
    "1929-08-16"
  ],
  "stock_exchanges": {
    "1": {
      "id": 1,
      "name": "Paris (Official List)",
      "notations": {
        "202623": {
          "id": 202623,
          "sector_id": 657,
          "start_date": "1929-08-12",
          "end_date": "1929-08-28",
          "names": [
            {
              "name": "Act. Etabliss. A. Dufour et Cie (droit et coupon n° 9). Pour 3 act. Anciennes, 1 act. nouvelle émise à 150 francs.",
              "start_date": "1929-08-12",
              "end_date": "1929-08-28"
            }
          ]
        }
      },
      "listings_stats": {
        "start_date": "1929-08-12"
      },
      "spot_prices_stats": {
        "start_date": "1929-08-13",
        "end_date": "1929-08-16"
      }
    }
  },
  "prices_count": 2,
  "name": "Act. Etabliss. A. Dufour et Cie (droit et coupon n° 9). Pour 3 act. Anciennes, 1 act. nouvelle émise à 150 francs."
}