{
  "id": 21568,
  "share_type": {
    "id": 2,
    "name": "Bond (Obligation)"
  },
  "issuers": [
    {
      "id": 6316,
      "start_date": "1975-05-12",
      "end_date": "3999-12-31",
      "name": "Groupement des Industries de la Mer et des Activités Sous-Marines"
    }
  ],
  "types": [
    {
      "start_date": "1975-05-12",
      "end_date": "3999-12-31",
      "id": 1001,
      "name": "Obligation ordinaire ou classique",
      "stock_group": "B"
    }
  ],
  "is_mainstock": 0,
  "prices_period": [
    "1975-05-12",
    "1976-12-31"
  ],
  "stock_exchanges": {
    "1": {
      "id": 1,
      "name": "Paris (Official List)",
      "notations": {
        "152133": {
          "id": 152133,
          "sector_id": 374,
          "start_date": "1975-05-12",
          "end_date": "3999-12-31",
          "names": [
            {
              "name": "Groupement des Industries de la Mer et des Activités sous-Marines «GIMER» 12% 1975 de 1000 F (c.9/3/76 att.)(Avis 75-301) 1977-85",
              "start_date": "1975-05-12",
              "end_date": "3999-12-31"
            }
          ]
        }
      },
      "listings_stats": {
        "start_date": "1975-05-12"
      },
      "spot_prices_stats": {
        "start_date": "1975-05-12",
        "end_date": "1976-12-31"
      }
    }
  },
  "prices_count": 41,
  "name": "Groupement des Industries de la Mer et des Activités sous-Marines «GIMER» 12% 1975 de 1000 F (c.9/3/76 att.)(Avis 75-301) 1977-85"
}