{
  "id": 14073,
  "share_type": {
    "id": 1,
    "name": "Stock (Action)"
  },
  "issuers": [
    {
      "id": 3565,
      "start_date": "1951-05-15",
      "end_date": "3999-12-31",
      "name": "L'HYDRO-ENERGIE"
    }
  ],
  "types": [
    {
      "start_date": "1951-05-15",
      "end_date": "3999-12-31",
      "id": 11,
      "name": "Action ordinaire",
      "stock_group": "S"
    }
  ],
  "is_mainstock": 0,
  "prices_period": [
    "1951-05-15",
    "1976-12-31"
  ],
  "stock_exchanges": {
    "1": {
      "id": 1,
      "name": "Paris (Official List)",
      "notations": {
        "25508": {
          "id": 25508,
          "sector_id": 378,
          "start_date": "1955-12-01",
          "end_date": "1963-03-04",
          "names": [
            {
              "name": "Hydro-Energie (L'), act. 2500 fr., t. p. (c.1 att.)",
              "start_date": "1951-05-15",
              "end_date": "1963-03-04"
            },
            {
              "name": "Hydro-Energie (L'), act. 5000 fr., t. p. (Cf avis n° 30060)",
              "start_date": "1953-07-06",
              "end_date": "1963-03-04"
            },
            {
              "name": "Hydro-Energie (L'), act.",
              "start_date": "1955-12-01",
              "end_date": "3999-12-31"
            }
          ]
        },
        "29427": {
          "id": 29427,
          "sector_id": 333,
          "start_date": "1963-03-04",
          "end_date": "3999-12-31",
          "names": [
            {
              "name": "Hydro-Energie (L'), act. 2500 fr., t. p. (c.1 att.)",
              "start_date": "1951-05-15",
              "end_date": "3999-12-31"
            },
            {
              "name": "Hydro-Energie (L'), act. 5000 fr., t. p. (Cf avis n° 30060)",
              "start_date": "1953-07-06",
              "end_date": "3999-12-31"
            },
            {
              "name": "Hydro-Energie (L'), act.",
              "start_date": "1955-12-01",
              "end_date": "3999-12-31"
            }
          ]
        },
        "144648": {
          "id": 144648,
          "sector_id": 99,
          "start_date": "1951-05-15",
          "end_date": "1955-12-01",
          "names": [
            {
              "name": "Hydro-Energie (L'), act. 2500 fr., t. p. (c.1 att.)",
              "start_date": "1951-05-15",
              "end_date": "1955-12-01"
            },
            {
              "name": "Hydro-Energie (L'), act. 5000 fr., t. p. (Cf avis n° 30060)",
              "start_date": "1951-05-15",
              "end_date": "1955-12-01"
            },
            {
              "name": "Hydro-Energie (L'), act.",
              "start_date": "1951-05-15",
              "end_date": "3999-12-31"
            }
          ]
        }
      },
      "listings_stats": {
        "start_date": "1951-05-15"
      },
      "spot_prices_stats": {
        "start_date": "1951-05-15",
        "end_date": "1976-12-31"
      }
    }
  },
  "prices_count": 653,
  "name": "Hydro-Energie (L'), act. 2500 fr., t. p. (c.1 att.)"
}