{
  "id": 103240,
  "share_type": {
    "id": 4,
    "name": "Rights (Droits)"
  },
  "issuers": [
    {
      "id": 671,
      "start_date": "1941-04-30",
      "end_date": "1941-05-13",
      "name": "Société Générale de CREDIT INDUSTRIEL ET COMMERCIAL"
    }
  ],
  "types": [
    {
      "start_date": "1941-04-30",
      "end_date": "1941-05-13",
      "id": 501,
      "name": "Droit de souscription",
      "stock_group": "R"
    }
  ],
  "is_mainstock": 0,
  "prices_period": [
    "1941-04-30",
    "1941-05-02"
  ],
  "stock_exchanges": {
    "1": {
      "id": 1,
      "name": "Paris (Official List)",
      "notations": {
        "203422": {
          "id": 203422,
          "sector_id": 657,
          "start_date": "1941-04-30",
          "end_date": "1941-05-14",
          "names": [
            {
              "name": "Act.lib.et non lib.STE GENERALE DE CREDIT INDUSTRIEL ET COMMERCIAL (droit et coup.52).Pour 1 act.anc.lib.ou n.lib., act.nouv.émise à 525 francs",
              "start_date": "1941-04-30",
              "end_date": "1941-05-14"
            }
          ]
        }
      },
      "listings_stats": {
        "start_date": "1941-04-30"
      },
      "spot_prices_stats": {
        "start_date": "1941-04-30",
        "end_date": "1941-05-02"
      }
    }
  },
  "prices_count": 1,
  "name": "Act.lib.et non lib.STE GENERALE DE CREDIT INDUSTRIEL ET COMMERCIAL (droit et coup.52).Pour 1 act.anc.lib.ou n.lib., act.nouv.émise à 525 francs"
}