{
  "id": 40139,
  "share_type": {
    "id": 1,
    "name": "Stock (Action)"
  },
  "issuers": [
    {
      "id": 7009,
      "start_date": "1000-01-01",
      "end_date": "3999-12-31",
      "name": "Canal du Verdon"
    }
  ],
  "types": [
    {
      "start_date": "1000-01-01",
      "end_date": "3999-12-31",
      "id": 1,
      "name": "UNKNOWN",
      "stock_group": "U"
    }
  ],
  "is_mainstock": 0,
  "prices_period": [
    "1892-05-31",
    "1896-10-15"
  ],
  "stock_exchanges": {
    "1": {
      "id": 1,
      "name": "Paris (Official List)",
      "notations": {
        "155139": {
          "id": 155139,
          "sector_id": 119,
          "start_date": "1892-05-09",
          "end_date": "1897-07-12",
          "names": [
            {
              "name": "Canal de Verdon",
              "start_date": "1892-05-05",
              "end_date": "1920-01-02"
            }
          ]
        }
      },
      "listings_stats": {
        "start_date": "1892-05-09"
      },
      "spot_prices_stats": {
        "start_date": "1892-05-31",
        "end_date": "1896-10-15"
      }
    }
  },
  "prices_count": 50,
  "name": "Canal de Verdon"
}