{
  "id": 105650,
  "share_type": {
    "id": 8,
    "name": "Droit d'attribution"
  },
  "issuers": [
    {
      "id": 3720,
      "start_date": "1951-01-02",
      "end_date": "1951-08-31",
      "name": "SOCIETE DES HUILERIES VALABREGUE"
    }
  ],
  "types": [
    {
      "start_date": "1951-01-02",
      "end_date": "1951-08-31",
      "id": 502,
      "name": "Droit d'attribution",
      "stock_group": "R"
    }
  ],
  "is_mainstock": 0,
  "prices_period": [
    null,
    null
  ],
  "stock_exchanges": {
    "1": {
      "id": 1,
      "name": "Paris (Official List)",
      "notations": {
        "206512": {
          "id": 206512,
          "sector_id": 658,
          "start_date": "1951-01-02",
          "end_date": "1951-08-31",
          "names": [
            {
              "name": "Act. 5000 fr. Nouvelles Huileries Calvé-Delft (droit et coupon 9) (1 action nouvelle, jce 1/1/50, pour 4 actions anciennes)",
              "start_date": "1951-01-02",
              "end_date": "1951-08-31"
            }
          ]
        }
      },
      "listings_stats": {
        "start_date": "1951-01-02"
      }
    }
  },
  "prices_count": 0,
  "name": "Act. 5000 fr. Nouvelles Huileries Calvé-Delft (droit et coupon 9) (1 action nouvelle, jce 1/1/50, pour 4 actions anciennes)"
}