{
  "id": 103002,
  "share_type": {
    "id": 4,
    "name": "Rights (Droits)"
  },
  "issuers": [
    {
      "id": 2715,
      "start_date": "1000-01-01",
      "end_date": "1935-11-13",
      "name": "LE TRIPHASE"
    }
  ],
  "types": [
    {
      "start_date": "1000-01-01",
      "end_date": "1935-11-13",
      "id": 501,
      "name": "Droit de souscription",
      "stock_group": "R"
    }
  ],
  "is_mainstock": 0,
  "prices_period": [
    "1935-10-28",
    "1935-10-31"
  ],
  "stock_exchanges": {
    "1": {
      "id": 1,
      "name": "Paris (Official List)",
      "notations": {
        "203184": {
          "id": 203184,
          "sector_id": 657,
          "start_date": "1935-10-28",
          "end_date": "1935-11-14",
          "names": [
            {
              "name": "Act. Société Nord-Lumière (Le Triphasé) (droit et coupon 23). Pour 3 act. Anciennes, 1 action nouvelle émise à 500 francs",
              "start_date": "1000-01-01",
              "end_date": "1935-11-14"
            }
          ]
        }
      },
      "listings_stats": {
        "start_date": "1935-10-28"
      },
      "spot_prices_stats": {
        "start_date": "1935-10-28",
        "end_date": "1935-10-31"
      }
    }
  },
  "prices_count": 4,
  "name": "Act. Société Nord-Lumière (Le Triphasé) (droit et coupon 23). Pour 3 act. Anciennes, 1 action nouvelle émise à 500 francs"
}