{
  "id": 9124,
  "share_type": {
    "id": 1,
    "name": "Stock (Action)"
  },
  "issuers": [
    {
      "id": 2845,
      "start_date": "1929-01-10",
      "end_date": "3999-12-31",
      "name": "ASSOCIATION MINIERE"
    }
  ],
  "types": [
    {
      "start_date": "1929-01-10",
      "end_date": "3999-12-31",
      "id": 11,
      "name": "Action ordinaire",
      "stock_group": "S"
    }
  ],
  "is_mainstock": 0,
  "prices_period": [
    "1929-01-10",
    "1929-01-15"
  ],
  "stock_exchanges": {
    "1": {
      "id": 1,
      "name": "Paris (Official List)",
      "notations": {
        "136571": {
          "id": 136571,
          "sector_id": 134,
          "start_date": "1929-01-10",
          "end_date": "1929-01-19",
          "names": [
            {
              "name": "Association Minière, act. 250 fr., t.p. (nos 1 à 100000) (dr. et c. 17 att.)",
              "start_date": "1929-01-10",
              "end_date": "3999-12-31"
            }
          ]
        }
      },
      "listings_stats": {
        "start_date": "1929-01-10"
      },
      "spot_prices_stats": {
        "start_date": "1929-01-10",
        "end_date": "1929-01-15"
      }
    }
  },
  "prices_count": 2,
  "name": "Association Minière, act. 250 fr., t.p. (nos 1 à 100000) (dr. et c. 17 att.)"
}