{
  "id": 10633,
  "share_type": {
    "id": 2,
    "name": "Bond (Obligation)"
  },
  "issuers": [
    {
      "id": 2912,
      "start_date": "1936-03-07",
      "end_date": "3999-12-31",
      "name": "ETATS : ALGERIE"
    }
  ],
  "types": [
    {
      "start_date": "1936-03-07",
      "end_date": "3999-12-31",
      "id": 1001,
      "name": "Obligation ordinaire ou classique",
      "stock_group": "B"
    }
  ],
  "is_mainstock": 0,
  "prices_period": [
    "1936-03-16",
    "1942-07-15"
  ],
  "stock_exchanges": {
    "1": {
      "id": 1,
      "name": "Paris (Official List)",
      "notations": {
        "141208": {
          "id": 141208,
          "sector_id": 95,
          "start_date": "1936-03-07",
          "end_date": "1942-07-20",
          "names": [
            {
              "name": "Algérie 5% octobre 1935, oblig. remb. à 1000 fr",
              "start_date": "1936-03-07",
              "end_date": "1942-07-20"
            },
            {
              "name": "Algérie 5% octobre 1935, remb. À 1000 fr. 1936-55",
              "start_date": "1936-03-07",
              "end_date": "1942-07-20"
            },
            {
              "name": "Algérie 5% octobre 1935, r. À 1000 fr.. Le 20 juil. 42",
              "start_date": "1936-03-07",
              "end_date": "3999-12-31"
            }
          ]
        }
      },
      "listings_stats": {
        "start_date": "1936-03-07"
      },
      "spot_prices_stats": {
        "start_date": "1936-03-16",
        "end_date": "1942-07-15"
      }
    }
  },
  "prices_count": 228,
  "name": "Algérie 5% octobre 1935, remb. À 1000 fr. 1936-55"
}