{
  "id": 3129,
  "share_type": {
    "id": 1,
    "name": "Stock (Action)"
  },
  "issuers": [
    {
      "id": 2530,
      "start_date": "1884-03-12",
      "end_date": "3999-12-31",
      "name": "Grande tuilerie de Bourgogne"
    }
  ],
  "types": [
    {
      "start_date": "1884-03-12",
      "end_date": "3999-12-31",
      "id": 18,
      "name": "Action",
      "stock_group": "S"
    }
  ],
  "is_mainstock": 0,
  "prices_period": [
    "1885-02-16",
    "1885-02-16"
  ],
  "stock_exchanges": {
    "1": {
      "id": 1,
      "name": "Paris (Official List)",
      "notations": {
        "4228": {
          "id": 4228,
          "sector_id": 73,
          "start_date": "1884-03-12",
          "end_date": "1886-10-29",
          "names": [
            {
              "name": "Grande Tuilerie de Bourgogne act.500f., tout payé",
              "start_date": "1884-03-12",
              "end_date": "3999-12-31"
            }
          ]
        }
      },
      "listings_stats": {
        "start_date": "1884-03-12"
      },
      "spot_prices_stats": {
        "start_date": "1885-02-16",
        "end_date": "1885-02-16"
      }
    }
  },
  "prices_count": 1,
  "name": "Grande Tuilerie de Bourgogne act.500f., tout payé"
}