{
  "id": 17512,
  "share_type": {
    "id": 1,
    "name": "Stock (Action)"
  },
  "issuers": [
    {
      "id": 4961,
      "start_date": "1962-01-02",
      "end_date": "3999-12-31",
      "name": "BULOH KASAP RUBBER PLANTATIONS LIMITED"
    }
  ],
  "types": [
    {
      "start_date": "1962-01-02",
      "end_date": "3999-12-31",
      "id": 11,
      "name": "Action ordinaire",
      "stock_group": "S"
    }
  ],
  "is_mainstock": 0,
  "prices_period": [
    "1962-01-02",
    "1963-06-17"
  ],
  "stock_exchanges": {
    "1": {
      "id": 1,
      "name": "Paris (Official List)",
      "notations": {
        "148087": {
          "id": 148087,
          "sector_id": 530,
          "start_date": "1962-01-02",
          "end_date": "1963-07-01",
          "names": [
            {
              "name": "New Buloh Kasap Rubber Plantations, Ltd, act. ord. £7",
              "start_date": "1962-01-02",
              "end_date": "3999-12-31"
            }
          ]
        }
      },
      "listings_stats": {
        "start_date": "1962-01-02"
      },
      "spot_prices_stats": {
        "start_date": "1962-01-02",
        "end_date": "1963-06-17"
      }
    }
  },
  "prices_count": 37,
  "name": "New Buloh Kasap Rubber Plantations, Ltd, act. ord. £7"
}