{
  "id": 6464,
  "share_type": {
    "id": 2,
    "name": "Bond (Obligation)"
  },
  "issuers": [
    {
      "id": 2221,
      "start_date": "1917-02-09",
      "end_date": "3999-12-31",
      "name": "Compagnie des Chemins de fer Andalous"
    }
  ],
  "types": [
    {
      "start_date": "1917-02-09",
      "end_date": "3999-12-31",
      "id": 1027,
      "name": "Certificats de Prêts à l'Etat Français",
      "stock_group": "B"
    }
  ],
  "is_mainstock": 0,
  "prices_period": [
    "1918-04-02",
    "1918-12-16"
  ],
  "stock_exchanges": {
    "1": {
      "id": 1,
      "name": "Paris (Official List)",
      "notations": {
        "9496": {
          "id": 9496,
          "sector_id": 144,
          "start_date": "1918-04-02",
          "end_date": "1919-06-18",
          "names": [
            {
              "name": "Chemins de fer Andalous, obl. 3% à revenu fixe, 1re série",
              "start_date": "1917-02-09",
              "end_date": "1919-06-18"
            },
            {
              "name": "Andalous, 1re série, 3% à revenu fixe, Certific.de prêts",
              "start_date": "1918-04-02",
              "end_date": "3999-12-31"
            }
          ]
        },
        "10515": {
          "id": 10515,
          "sector_id": 582,
          "start_date": "1917-02-09",
          "end_date": "1918-04-02",
          "names": [
            {
              "name": "Chemins de fer Andalous, obl. 3% à revenu fixe, 1re série",
              "start_date": "1917-02-09",
              "end_date": "1918-04-02"
            },
            {
              "name": "Andalous, 1re série, 3% à revenu fixe, Certific.de prêts",
              "start_date": "1917-02-09",
              "end_date": "3999-12-31"
            }
          ]
        }
      },
      "listings_stats": {
        "start_date": "1917-02-09"
      },
      "spot_prices_stats": {
        "start_date": "1918-04-02",
        "end_date": "1918-12-16"
      }
    }
  },
  "prices_count": 2,
  "name": "Andalous, 1re série, 3% à revenu fixe, Certific.de prêts"
}