{
  "id": 106001,
  "share_type": {
    "id": 2,
    "name": "Bond (Obligation)"
  },
  "issuers": [
    {
      "id": 15468,
      "start_date": "1898-06-15",
      "end_date": "1898-12-31",
      "name": "Société Anonyme d'Eclairage du Centre"
    }
  ],
  "types": [
    {
      "start_date": "1898-06-15",
      "end_date": "1898-12-31",
      "id": 1001,
      "name": "Obligation ordinaire ou classique",
      "stock_group": "B"
    }
  ],
  "is_mainstock": 0,
  "prices_period": [
    "1898-06-15",
    "1898-12-31"
  ],
  "stock_exchanges": {
    "2": {
      "id": 2,
      "name": "Paris OTC (Coulisse)",
      "notations": {
        "206860": {
          "id": 206860,
          "sector_id": 667,
          "start_date": "1898-06-15",
          "end_date": "1898-12-31",
          "names": [
            {
              "name": "Oblig. Eclairage du Centre 3,60%, j. sept. 98",
              "start_date": "1898-06-15",
              "end_date": "1898-12-31"
            },
            {
              "name": "ECLAIRAGE DU CENTRE, 3,60 %",
              "start_date": "1898-06-15",
              "end_date": "1899-01-16"
            }
          ]
        },
        "207953": {
          "id": 207953,
          "sector_id": 688,
          "start_date": "1899-01-16",
          "end_date": "1899-01-16",
          "names": [
            {
              "name": "Oblig. Eclairage du Centre 3,60%, j. sept. 98",
              "start_date": "1898-06-15",
              "end_date": "1899-01-16"
            },
            {
              "name": "ECLAIRAGE DU CENTRE, 3,60 %",
              "start_date": "1899-01-16",
              "end_date": "1899-01-16"
            }
          ]
        }
      },
      "listings_stats": {
        "start_date": "1898-06-15"
      },
      "spot_prices_stats": {
        "start_date": "1898-06-15",
        "end_date": "1898-12-31"
      }
    }
  },
  "prices_count": 14,
  "name": "ECLAIRAGE DU CENTRE, 3,60 %"
}