{
  "id": 3418,
  "share_type": {
    "id": 1,
    "name": "Stock (Action)"
  },
  "issuers": [
    {
      "id": 2313,
      "start_date": "1881-12-28",
      "end_date": "3999-12-31",
      "name": "Compagnie internationale des téléphones"
    }
  ],
  "types": [
    {
      "start_date": "1881-12-28",
      "end_date": "3999-12-31",
      "id": 18,
      "name": "Action",
      "stock_group": "S"
    }
  ],
  "is_mainstock": 1,
  "prices_period": [
    "1881-12-28",
    "1885-03-16"
  ],
  "stock_exchanges": {
    "1": {
      "id": 1,
      "name": "Paris (Official List)",
      "notations": {
        "4517": {
          "id": 4517,
          "sector_id": 82,
          "start_date": "1881-12-28",
          "end_date": "1885-07-01",
          "names": [
            {
              "name": "Téléphones (Ce Internationale des), act.100fr., t.p.",
              "start_date": "1881-12-28",
              "end_date": "3999-12-31"
            }
          ]
        }
      },
      "listings_stats": {
        "start_date": "1881-12-28"
      },
      "spot_prices_stats": {
        "start_date": "1881-12-28",
        "end_date": "1885-03-16"
      }
    }
  },
  "prices_count": 56,
  "name": "Téléphones (Ce Internationale des), act.100fr., t.p."
}