{
  "id": 13964,
  "share_type": {
    "id": 1,
    "name": "Stock (Action)"
  },
  "issuers": [
    {
      "id": 4150,
      "start_date": "1951-02-20",
      "end_date": "3999-12-31",
      "name": "Société Commerciale d'Affrètements et de Commission"
    }
  ],
  "types": [
    {
      "start_date": "1951-02-20",
      "end_date": "3999-12-31",
      "id": 11,
      "name": "Action ordinaire",
      "stock_group": "S"
    }
  ],
  "is_mainstock": 0,
  "prices_period": [
    "1951-02-20",
    "1959-03-16"
  ],
  "stock_exchanges": {
    "1": {
      "id": 1,
      "name": "Paris (Official List)",
      "notations": {
        "26281": {
          "id": 26281,
          "sector_id": 417,
          "start_date": "1955-12-01",
          "end_date": "1959-03-31",
          "names": [
            {
              "name": "Affrètements et de Commission (Sté Commerciale d'), act. 2500 fr., 1000 fr. amort. (c. 1 att.)",
              "start_date": "1951-02-20",
              "end_date": "1959-03-31"
            },
            {
              "name": "Affrètements et de Commission (Sté Commerciale d'), act. 5000 fr., 1000 fr. amort.",
              "start_date": "1952-12-16",
              "end_date": "1959-03-31"
            },
            {
              "name": "Affrètements et de Commission (Sté Commerc. D'), Act., 1000 fr. amort.",
              "start_date": "1955-12-01",
              "end_date": "1959-03-31"
            },
            {
              "name": "Affretements et de commission, act 1000 fr amort (n 1 à 6000)",
              "start_date": "1955-12-01",
              "end_date": "3999-12-31"
            }
          ]
        },
        "144539": {
          "id": 144539,
          "sector_id": 105,
          "start_date": "1951-02-20",
          "end_date": "1955-12-01",
          "names": [
            {
              "name": "Affrètements et de Commission (Sté Commerciale d'), act. 2500 fr., 1000 fr. amort. (c. 1 att.)",
              "start_date": "1951-02-20",
              "end_date": "1955-12-01"
            },
            {
              "name": "Affrètements et de Commission (Sté Commerciale d'), act. 5000 fr., 1000 fr. amort.",
              "start_date": "1951-02-20",
              "end_date": "1955-12-01"
            },
            {
              "name": "Affrètements et de Commission (Sté Commerc. D'), Act., 1000 fr. amort.",
              "start_date": "1951-02-20",
              "end_date": "1959-03-31"
            },
            {
              "name": "Affretements et de commission, act 1000 fr amort (n 1 à 6000)",
              "start_date": "1951-02-20",
              "end_date": "3999-12-31"
            }
          ]
        }
      },
      "listings_stats": {
        "start_date": "1951-02-20"
      },
      "spot_prices_stats": {
        "start_date": "1951-02-20",
        "end_date": "1959-03-16"
      }
    }
  },
  "prices_count": 212,
  "name": "Affrètements et de Commission (Sté Commerciale d'), act. 5000 fr., 1000 fr. amort."
}