{
  "id": 20920,
  "share_type": {
    "id": 1,
    "name": "Stock (Action)"
  },
  "issuers": [
    {
      "id": 5590,
      "start_date": "1972-04-21",
      "end_date": "3999-12-31",
      "name": "Union pour l’Habitation"
    }
  ],
  "types": [
    {
      "start_date": "1972-04-21",
      "end_date": "3999-12-31",
      "id": 27,
      "name": "Promesse d'action",
      "stock_group": "S"
    }
  ],
  "is_mainstock": 0,
  "prices_period": [
    "1972-09-15",
    "1973-07-02"
  ],
  "stock_exchanges": {
    "1": {
      "id": 1,
      "name": "Paris (Official List)",
      "notations": {
        "151490": {
          "id": 151490,
          "sector_id": 598,
          "start_date": "1972-04-21",
          "end_date": "1973-07-16",
          "names": [
            {
              "name": "Union pour l'Habitation, promesses (Jce 1/7/72)",
              "start_date": "1972-04-21",
              "end_date": "1973-07-16"
            },
            {
              "name": "Union pour l'habitation, act (n°1500001 à 1875000) (c. 27 et 28 barrés att.)",
              "start_date": "1972-04-21",
              "end_date": "3999-12-31"
            }
          ]
        }
      },
      "listings_stats": {
        "start_date": "1972-04-21"
      },
      "spot_prices_stats": {
        "start_date": "1972-09-15",
        "end_date": "1973-07-02"
      }
    }
  },
  "prices_count": 20,
  "name": "Union pour l'Habitation, promesses (Jce 1/7/72)"
}