{
  "id": 5553,
  "share_type": {
    "id": 2,
    "name": "Bond (Obligation)"
  },
  "issuers": [
    {
      "id": 449,
      "start_date": "1916-05-15",
      "end_date": "3999-12-31",
      "name": "EMPRUNT ESPAGNOL"
    }
  ],
  "types": [
    {
      "start_date": "1916-05-15",
      "end_date": "3999-12-31",
      "id": 1027,
      "name": "Certificats de Prêts à l'Etat Français",
      "stock_group": "B"
    }
  ],
  "is_mainstock": 0,
  "prices_period": [
    "1918-07-31",
    "1918-07-31"
  ],
  "stock_exchanges": {
    "1": {
      "id": 1,
      "name": "Paris (Official List)",
      "notations": {
        "6473": {
          "id": 6473,
          "sector_id": 67,
          "start_date": "1918-04-02",
          "end_date": "1919-06-18",
          "names": [
            {
              "name": "Espagne Extérieure 4%. C. 960p.",
              "start_date": "1916-05-15",
              "end_date": "1919-06-18"
            },
            {
              "name": "Espagne Extérieure 4%. C. 960p. (CERTIFICATS DE PRETS à l'ETAT FRANCAIS)",
              "start_date": "1916-06-15",
              "end_date": "1919-06-18"
            },
            {
              "name": "Espagne 4% Extérieure. (Titres estampillés) nég.ch.fixe 1fr.), C.960 pesetas rente, Certific.de prêts",
              "start_date": "1918-04-02",
              "end_date": "3999-12-31"
            }
          ]
        },
        "7958": {
          "id": 7958,
          "sector_id": 582,
          "start_date": "1916-05-15",
          "end_date": "1918-04-02",
          "names": [
            {
              "name": "Espagne Extérieure 4%. C. 960p.",
              "start_date": "1916-05-15",
              "end_date": "1918-04-02"
            },
            {
              "name": "Espagne Extérieure 4%. C. 960p. (CERTIFICATS DE PRETS à l'ETAT FRANCAIS)",
              "start_date": "1916-05-15",
              "end_date": "1918-04-02"
            },
            {
              "name": "Espagne 4% Extérieure. (Titres estampillés) nég.ch.fixe 1fr.), C.960 pesetas rente, Certific.de prêts",
              "start_date": "1916-05-15",
              "end_date": "3999-12-31"
            }
          ]
        }
      },
      "listings_stats": {
        "start_date": "1916-05-15"
      },
      "spot_prices_stats": {
        "start_date": "1918-07-31",
        "end_date": "1918-07-31"
      }
    }
  },
  "prices_count": 1,
  "name": "Espagne Extérieure 4%. C. 960p."
}