{
  "id": 11457,
  "share_type": {
    "id": 2,
    "name": "Bond (Obligation)"
  },
  "issuers": [
    {
      "id": 4642,
      "start_date": "1940-11-27",
      "end_date": "3999-12-31",
      "name": "SOCIÉTÉ DES PRODUITS AZOTES"
    }
  ],
  "types": [
    {
      "start_date": "1940-11-27",
      "end_date": "3999-12-31",
      "id": 1001,
      "name": "Obligation ordinaire ou classique",
      "stock_group": "B"
    }
  ],
  "is_mainstock": 0,
  "prices_period": [
    "1940-12-02",
    "1943-01-04"
  ],
  "stock_exchanges": {
    "1": {
      "id": 1,
      "name": "Paris (Official List)",
      "notations": {
        "142032": {
          "id": 142032,
          "sector_id": 138,
          "start_date": "1940-11-27",
          "end_date": "1948-06-30",
          "names": [
            {
              "name": "Produits azotés 6,5% 1940, r.à 1000 fr. (Jce 15/7/40). 1941-60",
              "start_date": "1940-11-27",
              "end_date": "3999-12-31"
            }
          ]
        }
      },
      "listings_stats": {
        "start_date": "1940-11-27"
      },
      "spot_prices_stats": {
        "start_date": "1940-12-02",
        "end_date": "1943-01-04"
      }
    }
  },
  "prices_count": 51,
  "name": "Produits azotés 6,5% 1940, r.à 1000 fr. (Jce 15/7/40). 1941-60"
}