{
  "id": 3918,
  "share_type": {
    "id": 2,
    "name": "Bond (Obligation)"
  },
  "issuers": [
    {
      "id": 1265,
      "start_date": "1893-04-10",
      "end_date": "3999-12-31",
      "name": "EGYPTE"
    }
  ],
  "types": [
    {
      "start_date": "1893-04-10",
      "end_date": "3999-12-31",
      "id": 1001,
      "name": "Obligation ordinaire ou classique",
      "stock_group": "B"
    }
  ],
  "is_mainstock": 0,
  "prices_period": [
    "1893-04-11",
    "1911-06-30"
  ],
  "stock_exchanges": {
    "1": {
      "id": 1,
      "name": "Paris (Official List)",
      "notations": {
        "5017": {
          "id": 5017,
          "sector_id": 67,
          "start_date": "1893-04-10",
          "end_date": "1913-06-02",
          "names": [
            {
              "name": "Egypte (Oblig. Domaniales hypth. d') 1878, converties à 4,25% à partir du 1er juin 1893. (Décrets des 18 et 25 mars 1893) (négociation change fixe 25 fr. 25). Coup. de 100 £",
              "start_date": "1893-04-10",
              "end_date": "3999-12-31"
            }
          ]
        }
      },
      "listings_stats": {
        "start_date": "1893-04-10"
      },
      "spot_prices_stats": {
        "start_date": "1893-04-11",
        "end_date": "1911-06-30"
      }
    }
  },
  "prices_count": 227,
  "name": "Egypte (Oblig. Domaniales hypth. d') 1878, converties à 4,25% à partir du 1er juin 1893. (Décrets des 18 et 25 mars 1893) (négociation change fixe 25 fr. 25). Coup. de 100 £"
}