{
  "id": 6654,
  "share_type": {
    "id": 2,
    "name": "Bond (Obligation)"
  },
  "issuers": [
    {
      "id": 1776,
      "start_date": "1892-05-09",
      "end_date": "3999-12-31",
      "name": "Société Générale Alsacienne de Banque"
    }
  ],
  "types": [
    {
      "start_date": "1899-01-16",
      "end_date": "3999-12-31",
      "id": 1001,
      "name": "Obligation ordinaire ou classique",
      "stock_group": "B"
    }
  ],
  "is_mainstock": 0,
  "prices_period": [
    "1899-01-16",
    "1910-12-31"
  ],
  "stock_exchanges": {
    "1": {
      "id": 1,
      "name": "Paris (Official List)",
      "notations": {
        "33526": {
          "id": 33526,
          "sector_id": 89,
          "start_date": "1920-01-02",
          "end_date": "1920-05-14",
          "names": [
            {
              "name": "Société Générale Alsacienne de Banque (estamp.)",
              "start_date": "1892-05-05",
              "end_date": "1920-05-14"
            },
            {
              "name": "Société Générale Alsacienne de Banque",
              "start_date": "1906-03-12",
              "end_date": "1920-05-14"
            },
            {
              "name": "Société Générale Alsacienne de Banque, act. 500 fr., t. p.",
              "start_date": "1920-01-02",
              "end_date": "3999-12-31"
            }
          ]
        },
        "155577": {
          "id": 155577,
          "sector_id": 170,
          "start_date": "1892-05-09",
          "end_date": "1906-03-12",
          "names": [
            {
              "name": "Société Générale Alsacienne de Banque (estamp.)",
              "start_date": "1892-05-05",
              "end_date": "1906-03-12"
            },
            {
              "name": "Société Générale Alsacienne de Banque",
              "start_date": "1892-05-09",
              "end_date": "1920-01-02"
            },
            {
              "name": "Société Générale Alsacienne de Banque, act. 500 fr., t. p.",
              "start_date": "1892-05-09",
              "end_date": "3999-12-31"
            }
          ]
        }
      },
      "listings_stats": {
        "start_date": "1892-05-09"
      },
      "spot_prices_stats": {
        "start_date": "1899-01-16",
        "end_date": "1910-12-31"
      }
    }
  },
  "prices_count": 38,
  "name": "Société Générale Alsacienne de Banque (estamp.)"
}