{
  "id": 15039,
  "share_type": {
    "id": 2,
    "name": "Bond (Obligation)"
  },
  "issuers": [
    {
      "id": 2912,
      "start_date": "1955-08-01",
      "end_date": "3999-12-31",
      "name": "ETATS : ALGERIE"
    }
  ],
  "types": [
    {
      "start_date": "1955-08-01",
      "end_date": "3999-12-31",
      "id": 1001,
      "name": "Obligation ordinaire ou classique",
      "stock_group": "B"
    }
  ],
  "is_mainstock": 0,
  "prices_period": [
    "1955-08-02",
    "1965-09-15"
  ],
  "stock_exchanges": {
    "1": {
      "id": 1,
      "name": "Paris (Official List)",
      "notations": {
        "31578": {
          "id": 31578,
          "sector_id": 596,
          "start_date": "1963-03-04",
          "end_date": "1965-09-20",
          "names": [
            {
              "name": "Algérie Bon 6% 1955, de 100000 fr. (n°s 100001 à 129000 ou 1 à 3000) (A à H ou J et K) (c. 1/4/56 att.) 1956-65",
              "start_date": "1955-08-01",
              "end_date": "1965-09-20"
            },
            {
              "name": "Algérie Bons 6% 1955 de 1000000 fr. (n°s 100001 à 129000 ou 1 à 3000) (A à H ou J et K) (c. 1/4/56 att.) 1956-65",
              "start_date": "1955-09-06",
              "end_date": "1965-09-20"
            },
            {
              "name": "Algérie Bon 6% 1955 (n°s 100001 à 129000 ou 1 à 3000) (A à H ou J à K) (c. 1/4/56 att.) 1956-65",
              "start_date": "1955-12-01",
              "end_date": "1965-09-20"
            },
            {
              "name": "Algérie Bons 6% 1955 (1er tr.) (n° 100001 à 129000 ou 1 à 3000) (A à H ou J et K) (éch. 1/4/64) (Tir. 8/1/65)",
              "start_date": "1963-03-04",
              "end_date": "3999-12-31"
            }
          ]
        },
        "145614": {
          "id": 145614,
          "sector_id": 95,
          "start_date": "1955-08-01",
          "end_date": "1963-03-04",
          "names": [
            {
              "name": "Algérie Bon 6% 1955, de 100000 fr. (n°s 100001 à 129000 ou 1 à 3000) (A à H ou J et K) (c. 1/4/56 att.) 1956-65",
              "start_date": "1955-08-01",
              "end_date": "1963-03-04"
            },
            {
              "name": "Algérie Bons 6% 1955 de 1000000 fr. (n°s 100001 à 129000 ou 1 à 3000) (A à H ou J et K) (c. 1/4/56 att.) 1956-65",
              "start_date": "1955-08-01",
              "end_date": "1963-03-04"
            },
            {
              "name": "Algérie Bon 6% 1955 (n°s 100001 à 129000 ou 1 à 3000) (A à H ou J à K) (c. 1/4/56 att.) 1956-65",
              "start_date": "1955-08-01",
              "end_date": "1965-09-20"
            },
            {
              "name": "Algérie Bons 6% 1955 (1er tr.) (n° 100001 à 129000 ou 1 à 3000) (A à H ou J et K) (éch. 1/4/64) (Tir. 8/1/65)",
              "start_date": "1955-08-01",
              "end_date": "3999-12-31"
            }
          ]
        }
      },
      "listings_stats": {
        "start_date": "1955-08-01"
      },
      "spot_prices_stats": {
        "start_date": "1955-08-02",
        "end_date": "1965-09-15"
      }
    }
  },
  "prices_count": 261,
  "name": "Algérie Bon 6% 1955, de 100000 fr. (n°s 100001 à 129000 ou 1 à 3000) (A à H ou J et K) (c. 1/4/56 att.) 1956-65"
}