{
  "id": 3534,
  "share_type": {
    "id": 2,
    "name": "Bond (Obligation)"
  },
  "issuers": [
    {
      "id": 461,
      "start_date": "1889-06-06",
      "end_date": "3999-12-31",
      "name": "ETATS : RUSSIE"
    }
  ],
  "types": [
    {
      "start_date": "1889-06-06",
      "end_date": "3999-12-31",
      "id": 1001,
      "name": "Obligation ordinaire ou classique",
      "stock_group": "B"
    }
  ],
  "is_mainstock": 0,
  "prices_period": [
    "1889-06-06",
    "1889-07-01"
  ],
  "stock_exchanges": {
    "1": {
      "id": 1,
      "name": "Paris (Official List)",
      "notations": {
        "4633": {
          "id": 4633,
          "sector_id": 67,
          "start_date": "1889-06-06",
          "end_date": "1889-07-05",
          "names": [
            {
              "name": "Russie 1889, consolidé 4% 2e série. certif. russes, t. p. obl. de 12500 fr.",
              "start_date": "1889-06-06",
              "end_date": "3999-12-31"
            }
          ]
        }
      },
      "listings_stats": {
        "start_date": "1889-06-06"
      },
      "spot_prices_stats": {
        "start_date": "1889-06-06",
        "end_date": "1889-07-01"
      }
    }
  },
  "prices_count": 10,
  "name": "Russie 1889, consolidé 4% 2e série. certif. russes, t. p. obl. de 12500 fr."
}