{
  "id": 13731,
  "share_type": {
    "id": 1,
    "name": "Stock (Action)"
  },
  "issuers": [
    {
      "id": 3582,
      "start_date": "1950-05-04",
      "end_date": "3999-12-31",
      "name": "SOCIETE POUR LE TRAVAIL ELECTRIQUE DES METAUX (T.E.M.)"
    }
  ],
  "types": [
    {
      "start_date": "1950-05-04",
      "end_date": "3999-12-31",
      "id": 18,
      "name": "Action",
      "stock_group": "S"
    }
  ],
  "is_mainstock": 0,
  "prices_period": [
    "1950-05-04",
    "1955-04-15"
  ],
  "stock_exchanges": {
    "1": {
      "id": 1,
      "name": "Paris (Official List)",
      "notations": {
        "24206": {
          "id": 24206,
          "sector_id": 271,
          "start_date": "1951-01-02",
          "end_date": "1955-05-02",
          "names": [
            {
              "name": "Travail Electrique des Métaux (T. E. M.) (Sté pour le), act. 3000 fr., t. p. (c. 44 att.)",
              "start_date": "1950-05-04",
              "end_date": "1955-05-02"
            },
            {
              "name": "Travail Electrique des Métaux (T. E. M.) (Sté pour le), act. 3000 fr., t. p.",
              "start_date": "1951-01-02",
              "end_date": "1955-05-02"
            },
            {
              "name": "Travail Electrique des Métaux (T.E.M.) (Sté pour le) (en liquidation), act. 3000 fr., t. p.",
              "start_date": "1951-01-02",
              "end_date": "1955-05-02"
            },
            {
              "name": "Travail Electrique des Métaux (T.E.M.) (Sté pour le) (en liquidation), Act. 3000 fr., . p.",
              "start_date": "1951-01-02",
              "end_date": "3999-12-31"
            }
          ]
        },
        "144306": {
          "id": 144306,
          "sector_id": 182,
          "start_date": "1950-05-04",
          "end_date": "1951-01-02",
          "names": [
            {
              "name": "Travail Electrique des Métaux (T. E. M.) (Sté pour le), act. 3000 fr., t. p. (c. 44 att.)",
              "start_date": "1950-05-04",
              "end_date": "1951-01-02"
            },
            {
              "name": "Travail Electrique des Métaux (T. E. M.) (Sté pour le), act. 3000 fr., t. p.",
              "start_date": "1950-05-04",
              "end_date": "1954-07-23"
            },
            {
              "name": "Travail Electrique des Métaux (T.E.M.) (Sté pour le) (en liquidation), act. 3000 fr., t. p.",
              "start_date": "1950-05-04",
              "end_date": "1955-05-02"
            },
            {
              "name": "Travail Electrique des Métaux (T.E.M.) (Sté pour le) (en liquidation), Act. 3000 fr., . p.",
              "start_date": "1950-05-04",
              "end_date": "3999-12-31"
            }
          ]
        }
      },
      "listings_stats": {
        "start_date": "1950-05-04"
      },
      "spot_prices_stats": {
        "start_date": "1950-05-04",
        "end_date": "1955-04-15"
      }
    }
  },
  "prices_count": 120,
  "name": "Travail Electrique des Métaux (T. E. M.) (Sté pour le), act. 3000 fr., t. p."
}