{
  "id": 18007,
  "share_type": {
    "id": 2,
    "name": "Bond (Obligation)"
  },
  "issuers": [
    {
      "id": 2760,
      "start_date": "1963-06-05",
      "end_date": "3999-12-31",
      "name": "SOCIETE DES HAUTS FOURNEAUX DE SAULNES (Jean Raty et Cie)"
    }
  ],
  "types": [
    {
      "start_date": "1963-06-05",
      "end_date": "3999-12-31",
      "id": 1001,
      "name": "Obligation ordinaire ou classique",
      "stock_group": "B"
    }
  ],
  "is_mainstock": 0,
  "prices_period": [
    "1963-06-05",
    "1976-12-31"
  ],
  "stock_exchanges": {
    "1": {
      "id": 1,
      "name": "Paris (Official List)",
      "notations": {
        "148582": {
          "id": 148582,
          "sector_id": 111,
          "start_date": "1963-06-05",
          "end_date": "3999-12-31",
          "names": [
            {
              "name": "Saulnes et Gorcy (Hauts Fourneaux et Forges de) 5% 1962, remboursables à 215F minimum (c. 20/12/63 att.) 1963-80",
              "start_date": "1963-06-05",
              "end_date": "3999-12-31"
            },
            {
              "name": "Saulnes et Gorcy (Hauts Fourneaux et Forges de) 5% 1962, remb.215 à 235F (Tir.18/11/63)(Avis 37963) 1963-80.",
              "start_date": "1963-06-05",
              "end_date": "3999-12-31"
            },
            {
              "name": "Saulnes et Gorcy (Forges de) 5% 1962, r. 215 à 235 F (Tir. 18/11/66) (Avis 37963) 1963-80",
              "start_date": "1963-06-05",
              "end_date": "3999-12-31"
            }
          ]
        }
      },
      "listings_stats": {
        "start_date": "1963-06-05"
      },
      "spot_prices_stats": {
        "start_date": "1963-06-05",
        "end_date": "1976-12-31"
      }
    }
  },
  "prices_count": 327,
  "name": "Saulnes et Gorcy (Hauts Fourneaux et Forges de) 5% 1962, remb.215 à 235F (Tir.18/11/63)(Avis 37963) 1963-80."
}