{
  "id": 21026,
  "share_type": {
    "id": 1,
    "name": "Stock (Action)"
  },
  "issuers": [
    {
      "id": 4225,
      "start_date": "1972-09-19",
      "end_date": "3999-12-31",
      "name": "COMPAGN E DU PORT DE FEDALA"
    }
  ],
  "types": [
    {
      "start_date": "1972-09-19",
      "end_date": "3999-12-31",
      "id": 11,
      "name": "Action ordinaire",
      "stock_group": "S"
    }
  ],
  "is_mainstock": 0,
  "prices_period": [
    "1972-09-19",
    "1976-12-31"
  ],
  "stock_exchanges": {
    "1": {
      "id": 1,
      "name": "Paris (Official List)",
      "notations": {
        "151596": {
          "id": 151596,
          "sector_id": 537,
          "start_date": "1972-09-19",
          "end_date": "3999-12-31",
          "names": [
            {
              "name": "Honeywell Inc, act ord $ US 1,50 (nom) (3e trimestre dividende attaché) (livraison en crédit SICOVAM)",
              "start_date": "1972-09-19",
              "end_date": "3999-12-31"
            }
          ]
        }
      },
      "listings_stats": {
        "start_date": "1972-09-19"
      },
      "spot_prices_stats": {
        "start_date": "1972-09-19",
        "end_date": "1976-12-31"
      }
    }
  },
  "prices_count": 110,
  "name": "Honeywell Inc, act ord $ US 1,50 (nom) (3e trimestre dividende attaché) (livraison en crédit SICOVAM)"
}