{
  "id": 17295,
  "share_type": {
    "id": 2,
    "name": "Bond (Obligation)"
  },
  "issuers": [
    {
      "id": 450,
      "start_date": "1894-10-29",
      "end_date": "3999-12-31",
      "name": "Dette d'Autriche"
    }
  ],
  "types": [
    {
      "start_date": "1894-10-29",
      "end_date": "3999-12-31",
      "id": 1001,
      "name": "Obligation ordinaire ou classique",
      "stock_group": "B"
    }
  ],
  "is_mainstock": 0,
  "prices_period": [
    null,
    null
  ],
  "stock_exchanges": {
    "1": {
      "id": 1,
      "name": "Paris (Official List)",
      "notations": {
        "147870": {
          "id": 147870,
          "sector_id": 74,
          "start_date": "1894-10-29",
          "end_date": "1903-07-01",
          "names": [
            {
              "name": "Autriche. Dette 5% convertie (négociations ch. fixe 2f.50) Oblig. 5 flor. de rente (papier) [jouissance : août 1894]",
              "start_date": "1894-10-29",
              "end_date": "3999-12-31"
            }
          ]
        }
      },
      "listings_stats": {
        "start_date": "1894-10-29"
      }
    }
  },
  "prices_count": 0,
  "name": "Autriche. Dette 5% convertie (négociations ch. fixe 2f.50) Oblig. 5 flor. de rente (papier) [jouissance : août 1894]"
}