{
  "id": 103011,
  "share_type": {
    "id": 4,
    "name": "Rights (Droits)"
  },
  "issuers": [
    {
      "id": 1381,
      "start_date": "1000-01-01",
      "end_date": "3999-12-31",
      "name": "Sous-Comptoir des Entrepreneurs"
    }
  ],
  "types": [
    {
      "start_date": "1000-01-01",
      "end_date": "3999-12-31",
      "id": 501,
      "name": "Droit de souscription",
      "stock_group": "R"
    }
  ],
  "is_mainstock": 0,
  "prices_period": [
    null,
    null
  ],
  "stock_exchanges": {
    "1": {
      "id": 1,
      "name": "Paris (Official List)",
      "notations": {
        "203193": {
          "id": 203193,
          "sector_id": 657,
          "start_date": "1947-03-17",
          "end_date": "4000-01-01",
          "names": [
            {
              "name": "Act. Sous-Comptoir des Entrepreneurs. 1 act. nouv. avril 1945 émise à 350 fr. pour 1 bon",
              "start_date": "1000-01-01",
              "end_date": "4000-01-01"
            }
          ]
        }
      },
      "listings_stats": {
        "start_date": "1947-03-17"
      }
    }
  },
  "prices_count": 0,
  "name": "Act. Sous-Comptoir des Entrepreneurs. 1 act. nouv. avril 1945 émise à 350 fr. pour 1 bon"
}