{
  "id": 101633,
  "share_type": {
    "id": 4,
    "name": "Rights (Droits)"
  },
  "issuers": [
    {
      "id": 3116,
      "start_date": "1943-02-10",
      "end_date": "1944-03-11",
      "name": "L'UNION ELECTRIQUE"
    }
  ],
  "types": [
    {
      "start_date": "1943-02-10",
      "end_date": "1944-03-11",
      "id": 501,
      "name": "Droit de souscription",
      "stock_group": "R"
    }
  ],
  "is_mainstock": 0,
  "prices_period": [
    "1943-02-10",
    "1943-03-15"
  ],
  "stock_exchanges": {
    "1": {
      "id": 1,
      "name": "Paris (Official List)",
      "notations": {
        "201788": {
          "id": 201788,
          "sector_id": 657,
          "start_date": "1943-02-10",
          "end_date": "1944-03-12",
          "names": [
            {
              "name": "Act. L'UNION ELECTRIQUE (dr. et coup. 23 ou bon de droit). Pour 1 act. ancienne, 1 action nouvelle émise à 110 francs",
              "start_date": "1943-02-10",
              "end_date": "1944-03-12"
            }
          ]
        }
      },
      "listings_stats": {
        "start_date": "1943-02-10"
      },
      "spot_prices_stats": {
        "start_date": "1943-02-10",
        "end_date": "1943-03-15"
      }
    }
  },
  "prices_count": 3,
  "name": "Act. L'UNION ELECTRIQUE (dr. et coup. 23 ou bon de droit). Pour 1 act. ancienne, 1 action nouvelle émise à 110 francs"
}