{
  "id": 15256,
  "share_type": {
    "id": 1,
    "name": "Stock (Action)"
  },
  "issuers": [
    {
      "id": 2620,
      "start_date": "1956-02-01",
      "end_date": "3999-12-31",
      "name": "SOCIÉTÉ DES TRAMWAYS ALGERIENS"
    }
  ],
  "types": [
    {
      "start_date": "1956-02-01",
      "end_date": "3999-12-31",
      "id": 22,
      "name": "Action de jouissance",
      "stock_group": "S"
    }
  ],
  "is_mainstock": 0,
  "prices_period": [
    "1956-02-01",
    "1960-09-30"
  ],
  "stock_exchanges": {
    "1": {
      "id": 1,
      "name": "Paris (Official List)",
      "notations": {
        "145831": {
          "id": 145831,
          "sector_id": 418,
          "start_date": "1956-02-01",
          "end_date": "1960-10-03",
          "names": [
            {
              "name": "Tramways Algériens, act. De jouiss.",
              "start_date": "1956-02-01",
              "end_date": "1960-10-03"
            },
            {
              "name": "Tramways algeriens, act de jouiss (teinte verte)(ex-c 8, 9, 10 et 11 sans valeur)",
              "start_date": "1956-02-01",
              "end_date": "3999-12-31"
            }
          ]
        }
      },
      "listings_stats": {
        "start_date": "1956-02-01"
      },
      "spot_prices_stats": {
        "start_date": "1956-02-01",
        "end_date": "1960-09-30"
      }
    }
  },
  "prices_count": 128,
  "name": "Tramways Algériens, act. De jouiss."
}