{
  "id": 21667,
  "share_type": {
    "id": 2,
    "name": "Bond (Obligation)"
  },
  "issuers": [
    {
      "id": 5250,
      "start_date": "1976-01-02",
      "end_date": "3999-12-31",
      "name": "SOCIÉTÉ NATIONALE DES CHEMINS DE FER FRANÇAIS"
    }
  ],
  "types": [
    {
      "start_date": "1976-01-02",
      "end_date": "3999-12-31",
      "id": 1039,
      "name": "Bons à lots",
      "stock_group": "B"
    }
  ],
  "is_mainstock": 0,
  "prices_period": [
    "1976-01-02",
    "1976-12-31"
  ],
  "stock_exchanges": {
    "1": {
      "id": 1,
      "name": "Paris (Official List)",
      "notations": {
        "152232": {
          "id": 152232,
          "sector_id": 57,
          "start_date": "1976-01-02",
          "end_date": "3999-12-31",
          "names": [
            {
              "name": "S.N.C.F Bons 5,75% 1975 à lots-kilomètres de 250 F (c. 1/1/77 att.) (Avis 75-1044).Remb.à 250 F le 1/1/1986",
              "start_date": "1976-01-02",
              "end_date": "3999-12-31"
            }
          ]
        }
      },
      "listings_stats": {
        "start_date": "1976-01-02"
      },
      "spot_prices_stats": {
        "start_date": "1976-01-02",
        "end_date": "1976-12-31"
      }
    }
  },
  "prices_count": 25,
  "name": "S.N.C.F Bons 5,75% 1975 à lots-kilomètres de 250 F (c. 1/1/77 att.) (Avis 75-1044).Remb.à 250 F le 1/1/1986"
}