{
  "id": 21552,
  "share_type": {
    "id": 2,
    "name": "Bond (Obligation)"
  },
  "issuers": [
    {
      "id": 5508,
      "start_date": "1975-04-28",
      "end_date": "3999-12-31",
      "name": "Groupement des Grands Magasins et Magasins Populaires"
    }
  ],
  "types": [
    {
      "start_date": "1975-04-28",
      "end_date": "3999-12-31",
      "id": 1001,
      "name": "Obligation ordinaire ou classique",
      "stock_group": "B"
    }
  ],
  "is_mainstock": 0,
  "prices_period": [
    "1975-04-28",
    "1976-12-31"
  ],
  "stock_exchanges": {
    "1": {
      "id": 1,
      "name": "Paris (Official List)",
      "notations": {
        "152118": {
          "id": 152118,
          "sector_id": 368,
          "start_date": "1975-04-28",
          "end_date": "3999-12-31",
          "names": [
            {
              "name": "Groupement des Grands Magasins et Magasins Populaires 12% 1974 de 1000 F (c.2/12/75 att.)(Avis 75-273)1982-91",
              "start_date": "1975-04-28",
              "end_date": "3999-12-31"
            }
          ]
        }
      },
      "listings_stats": {
        "start_date": "1975-04-28"
      },
      "spot_prices_stats": {
        "start_date": "1975-04-28",
        "end_date": "1976-12-31"
      }
    }
  },
  "prices_count": 42,
  "name": "Groupement des Grands Magasins et Magasins Populaires 12% 1974 de 1000 F (c.2/12/75 att.)(Avis 75-273)1982-91"
}