{
  "id": 3657,
  "share_type": {
    "id": 2,
    "name": "Bond (Obligation)"
  },
  "issuers": [
    {
      "id": 2563,
      "start_date": "1888-03-31",
      "end_date": "3999-12-31",
      "name": "CIE universelle du Canal interocéanique de Panama"
    }
  ],
  "types": [
    {
      "start_date": "1888-03-31",
      "end_date": "1888-08-15",
      "id": 1001,
      "name": "Obligation ordinaire ou classique",
      "stock_group": "B"
    },
    {
      "start_date": "1888-08-15",
      "end_date": "1889-11-15",
      "id": 1001,
      "name": "Obligation ordinaire ou classique",
      "stock_group": "B"
    },
    {
      "start_date": "1889-11-15",
      "end_date": "3999-12-31",
      "id": 1001,
      "name": "Obligation ordinaire ou classique",
      "stock_group": "B"
    }
  ],
  "is_mainstock": 0,
  "prices_period": [
    "1888-03-31",
    "1904-11-30"
  ],
  "stock_exchanges": {
    "1": {
      "id": 1,
      "name": "Paris (Official List)",
      "notations": {
        "4756": {
          "id": 4756,
          "sector_id": 70,
          "start_date": "1889-11-15",
          "end_date": "1902-05-26",
          "names": [
            {
              "name": "Canal Interocéanique (Panama), (en liq.) obl. nouv., remb. à 1000 fr. (3e série)",
              "start_date": "1889-11-15",
              "end_date": "1904-06-16"
            },
            {
              "name": "Canal interocéanique (Panama) nouv. (3e série), remb. à 1000 fr.(coupons attachés)",
              "start_date": "1889-11-15",
              "end_date": "3999-12-31"
            }
          ]
        },
        "6361": {
          "id": 6361,
          "sector_id": 113,
          "start_date": "1902-05-26",
          "end_date": "1904-12-01",
          "names": [
            {
              "name": "Canal Interocéanique (Panama), (en liq.) obl. nouv., remb. à 1000 fr. (3e série)",
              "start_date": "1889-11-15",
              "end_date": "1904-12-01"
            },
            {
              "name": "Canal interocéanique (Panama) nouv. (3e série), remb. à 1000 fr.(coupons attachés)",
              "start_date": "1902-05-26",
              "end_date": "3999-12-31"
            }
          ]
        }
      },
      "listings_stats": {
        "start_date": "1889-11-15"
      },
      "spot_prices_stats": {
        "start_date": "1889-11-15",
        "end_date": "1904-11-30"
      }
    },
    "2": {
      "id": 2,
      "name": "Paris OTC (Coulisse)",
      "notations": {
        "205713": {
          "id": 205713,
          "sector_id": 662,
          "start_date": "1888-03-31",
          "end_date": "1888-08-15",
          "names": [
            {
              "name": "Obl. Panama 3e serie, lib",
              "start_date": "1888-03-31",
              "end_date": "1888-08-15"
            },
            {
              "name": "Obl. Panama (3es) lib., j. juin 88",
              "start_date": "1888-03-31",
              "end_date": "1889-11-15"
            }
          ]
        },
        "205714": {
          "id": 205714,
          "sector_id": 664,
          "start_date": "1888-08-15",
          "end_date": "1889-11-15",
          "names": [
            {
              "name": "Obl. Panama 3e serie, lib",
              "start_date": "1888-03-31",
              "end_date": "1889-11-15"
            },
            {
              "name": "Obl. Panama (3es) lib., j. juin 88",
              "start_date": "1888-08-15",
              "end_date": "1889-11-15"
            }
          ]
        }
      },
      "listings_stats": {
        "start_date": "1888-03-31"
      },
      "spot_prices_stats": {
        "start_date": "1888-03-31",
        "end_date": "1889-10-31"
      }
    }
  },
  "prices_count": 602,
  "name": "Obl. Panama (3es) lib., j. juin 88"
}