{
  "id": 21562,
  "share_type": {
    "id": 2,
    "name": "Bond (Obligation)"
  },
  "issuers": [
    {
      "id": 6217,
      "start_date": "1974-12-30",
      "end_date": "3999-12-31",
      "name": "Cofiroute"
    }
  ],
  "types": [
    {
      "start_date": "1975-01-02",
      "end_date": "3999-12-31",
      "id": 1001,
      "name": "Obligation ordinaire ou classique",
      "stock_group": "B"
    }
  ],
  "is_mainstock": 0,
  "prices_period": [
    "1974-12-31",
    "1976-12-31"
  ],
  "stock_exchanges": {
    "1": {
      "id": 1,
      "name": "Paris (Official List)",
      "notations": {
        "152127": {
          "id": 152127,
          "sector_id": 372,
          "start_date": "1974-12-30",
          "end_date": "3999-12-31",
          "names": [
            {
              "name": "Cofiroute 11,40% 1974 de 1000F (c. 16/9/75 att) (avis 74-1020) (Garenti par l'Etat) … I 1985-94",
              "start_date": "1974-12-30",
              "end_date": "3999-12-31"
            }
          ]
        }
      },
      "listings_stats": {
        "start_date": "1974-12-30"
      },
      "spot_prices_stats": {
        "start_date": "1974-12-31",
        "end_date": "1976-12-31"
      }
    }
  },
  "prices_count": 49,
  "name": "Cofiroute 11,40% 1974 de 1000F (c. 16/9/75 att) (avis 74-1020) (Garenti par l'Etat) … I 1985-94"
}