{
  "id": 12106,
  "share_type": {
    "id": 2,
    "name": "Bond (Obligation)"
  },
  "issuers": [
    {
      "id": 4731,
      "start_date": "1945-01-24",
      "end_date": "3999-12-31",
      "name": "SOCIETE DES FORCES MOTRICES DU CANTAL"
    }
  ],
  "types": [
    {
      "start_date": "1945-01-24",
      "end_date": "3999-12-31",
      "id": 1001,
      "name": "Obligation ordinaire ou classique",
      "stock_group": "B"
    }
  ],
  "is_mainstock": 0,
  "prices_period": [
    "1945-01-24",
    "1953-06-01"
  ],
  "stock_exchanges": {
    "1": {
      "id": 1,
      "name": "Paris (Official List)",
      "notations": {
        "142681": {
          "id": 142681,
          "sector_id": 117,
          "start_date": "1945-01-24",
          "end_date": "1953-06-11",
          "names": [
            {
              "name": "Forces Motrices du Cantal 4,25% 1943, r. à 5000 fr. (Jce 1/9/44) 1945-69",
              "start_date": "1945-01-24",
              "end_date": "3999-12-31"
            }
          ]
        }
      },
      "listings_stats": {
        "start_date": "1945-01-24"
      },
      "spot_prices_stats": {
        "start_date": "1945-01-24",
        "end_date": "1953-06-01"
      }
    }
  },
  "prices_count": 193,
  "name": "Forces Motrices du Cantal 4,25% 1943, r. à 5000 fr. (Jce 1/9/44) 1945-69"
}