{
  "id": 19489,
  "share_type": {
    "id": 2,
    "name": "Bond (Obligation)"
  },
  "issuers": [
    {
      "id": 3953,
      "start_date": "1967-05-02",
      "end_date": "3999-12-31",
      "name": "MONET ET GOYON"
    }
  ],
  "types": [
    {
      "start_date": "1967-05-02",
      "end_date": "3999-12-31",
      "id": 1001,
      "name": "Obligation ordinaire ou classique",
      "stock_group": "B"
    }
  ],
  "is_mainstock": 0,
  "prices_period": [
    "1967-05-16",
    "1969-03-17"
  ],
  "stock_exchanges": {
    "1": {
      "id": 1,
      "name": "Paris (Official List)",
      "notations": {
        "150064": {
          "id": 150064,
          "sector_id": 359,
          "start_date": "1967-05-02",
          "end_date": "1969-03-31",
          "names": [
            {
              "name": "Lyon_Bourse Monet-Goyon 4,25% 1944, 10% concordataires. 1945-69",
              "start_date": "1967-05-02",
              "end_date": "1969-03-31"
            },
            {
              "name": "LYON_BOURSE Monetgoyon 4,25% 1944, 10% concordataires (rach) 1945-69",
              "start_date": "1967-05-02",
              "end_date": "3999-12-31"
            }
          ]
        }
      },
      "listings_stats": {
        "start_date": "1967-05-02"
      },
      "spot_prices_stats": {
        "start_date": "1967-05-16",
        "end_date": "1969-03-17"
      }
    }
  },
  "prices_count": 45,
  "name": "Lyon_Bourse Monet-Goyon 4,25% 1944, 10% concordataires. 1945-69"
}