{
  "id": 18589,
  "share_type": {
    "id": 2,
    "name": "Bond (Obligation)"
  },
  "issuers": [
    {
      "id": 2488,
      "start_date": "1966-12-05",
      "end_date": "3999-12-31",
      "name": "Postes, Télégraphes et Téléphones"
    }
  ],
  "types": [
    {
      "start_date": "1966-12-05",
      "end_date": "3999-12-31",
      "id": 1009,
      "name": "Bons",
      "stock_group": "B"
    }
  ],
  "is_mainstock": 0,
  "prices_period": [
    "1966-12-05",
    "1976-12-31"
  ],
  "stock_exchanges": {
    "1": {
      "id": 1,
      "name": "Paris (Official List)",
      "notations": {
        "149164": {
          "id": 149164,
          "sector_id": 54,
          "start_date": "1966-12-05",
          "end_date": "3999-12-31",
          "names": [
            {
              "name": "Postes, Télégraphes et Téléphones, Bons 5,75% 1966, r. 2060 à 2300 F)",
              "start_date": "1966-12-05",
              "end_date": "3999-12-31"
            }
          ]
        }
      },
      "listings_stats": {
        "start_date": "1966-12-05"
      },
      "spot_prices_stats": {
        "start_date": "1966-12-05",
        "end_date": "1976-12-31"
      }
    }
  },
  "prices_count": 243,
  "name": "Postes, Télégraphes et Téléphones, Bons 5,75% 1966, r. 2060 à 2300 F)"
}