{
  "id": 9361,
  "share_type": {
    "id": 1,
    "name": "Stock (Action)"
  },
  "issuers": [
    {
      "id": 4501,
      "start_date": "1929-09-17",
      "end_date": "3999-12-31",
      "name": "MINES DE BOU ARFA"
    }
  ],
  "types": [
    {
      "start_date": "1929-09-17",
      "end_date": "3999-12-31",
      "id": 11,
      "name": "Action ordinaire",
      "stock_group": "S"
    }
  ],
  "is_mainstock": 1,
  "prices_period": [
    "1929-09-17",
    "1951-10-31"
  ],
  "stock_exchanges": {
    "1": {
      "id": 1,
      "name": "Paris (Official List)",
      "notations": {
        "136808": {
          "id": 136808,
          "sector_id": 134,
          "start_date": "1929-09-17",
          "end_date": "1951-11-02",
          "names": [
            {
              "name": "Bou-Arfa (Mines de), act. 500 fr., t.p. (ex-dr., )",
              "start_date": "1929-09-17",
              "end_date": "1951-11-02"
            },
            {
              "name": "Bou-Arfa (Mines de), act. 150 fr., t.p. (ex-dr., )",
              "start_date": "1929-09-17",
              "end_date": "1951-11-02"
            },
            {
              "name": "Bou-Arfa (Mines de), act. 200 f., t. p. (ex-dr., )",
              "start_date": "1929-09-17",
              "end_date": "1951-11-02"
            },
            {
              "name": "Bou-Arfa (Mines de), act. 250 fr., t. p.",
              "start_date": "1929-09-17",
              "end_date": "1951-11-02"
            },
            {
              "name": "Bou-Arfa (Mines de), act. Anc. 250 fr., t. p. (n°1 à 448208)",
              "start_date": "1929-09-17",
              "end_date": "3999-12-31"
            }
          ]
        }
      },
      "listings_stats": {
        "start_date": "1929-09-17"
      },
      "spot_prices_stats": {
        "start_date": "1929-09-17",
        "end_date": "1951-10-31"
      }
    }
  },
  "prices_count": 572,
  "name": "Bou-Arfa (Mines de), act. 150 fr., t.p. (ex-dr., )"
}