{
  "id": 16944,
  "share_type": {
    "id": 1,
    "name": "Stock (Action)"
  },
  "issuers": [
    {
      "id": 2193,
      "start_date": "1962-01-02",
      "end_date": "3999-12-31",
      "name": "Compagnie Immobilière Franco-Marocaine"
    }
  ],
  "types": [
    {
      "start_date": "1963-06-20",
      "end_date": "3999-12-31",
      "id": 18,
      "name": "Action",
      "stock_group": "S"
    }
  ],
  "is_mainstock": 0,
  "prices_period": [
    "1963-06-20",
    "1963-06-20"
  ],
  "stock_exchanges": {
    "1": {
      "id": 1,
      "name": "Paris (Official List)",
      "notations": {
        "31761": {
          "id": 31761,
          "sector_id": 1,
          "start_date": "1963-09-23",
          "end_date": "1965-07-08",
          "names": [
            {
              "name": "Thomson-Houston (Cie Française), actions nouv 50F (Jce 1/7/63) (par 25 actions)",
              "start_date": "1963-06-20",
              "end_date": "1965-07-08"
            },
            {
              "name": "Thomson-Houston (Cie Française), act. Nouv. 60 F (c. 18 étoile att.)",
              "start_date": "1963-09-23",
              "end_date": "3999-12-31"
            }
          ]
        },
        "147519": {
          "id": 147519,
          "sector_id": 13,
          "start_date": "1963-06-20",
          "end_date": "1963-09-23",
          "names": [
            {
              "name": "Thomson-Houston (Cie Française), actions nouv 50F (Jce 1/7/63) (par 25 actions)",
              "start_date": "1963-06-20",
              "end_date": "1965-07-08"
            },
            {
              "name": "Thomson-Houston (Cie Française), act. Nouv. 60 F (c. 18 étoile att.)",
              "start_date": "1963-06-20",
              "end_date": "3999-12-31"
            }
          ]
        }
      },
      "forward_prices_stats": {
        "start_date": "1963-06-20",
        "end_date": "1963-06-20"
      },
      "listings_stats": {
        "start_date": "1963-06-20"
      }
    }
  },
  "prices_count": 1,
  "name": "Thomson-Houston (Cie Française), act. Nouv. 60 F (c. 18 étoile att.)"
}