{
  "id": 5291,
  "share_type": {
    "id": 2,
    "name": "Bond (Obligation)"
  },
  "issuers": [
    {
      "id": 2685,
      "start_date": "1915-04-06",
      "end_date": "3999-12-31",
      "name": "ETATS : BRESIL"
    }
  ],
  "types": [
    {
      "start_date": "1915-04-06",
      "end_date": "3999-12-31",
      "id": 1001,
      "name": "Obligation ordinaire ou classique",
      "stock_group": "B"
    }
  ],
  "is_mainstock": 0,
  "prices_period": [
    null,
    null
  ],
  "stock_exchanges": {
    "1": {
      "id": 1,
      "name": "Paris (Official List)",
      "notations": {
        "7696": {
          "id": 7696,
          "sector_id": 67,
          "start_date": "1915-04-06",
          "end_date": "1917-10-01",
          "names": [
            {
              "name": "Brésil 4.5% 1888. jouissance courante (nég. ch. fixe 25 f 20)",
              "start_date": "1915-04-06",
              "end_date": "3999-12-31"
            }
          ]
        }
      },
      "listings_stats": {
        "start_date": "1915-04-06"
      }
    }
  },
  "prices_count": 0,
  "name": "Brésil 4.5% 1888. jouissance courante (nég. ch. fixe 25 f 20)"
}