{
  "id": 20737,
  "share_type": {
    "id": 1,
    "name": "Stock (Action)"
  },
  "issuers": [
    {
      "id": 5404,
      "start_date": "1971-03-09",
      "end_date": "3999-12-31",
      "name": "SOCIETE DES AUTOS-TAXIS MARSEILLAIS"
    }
  ],
  "types": [
    {
      "start_date": "1971-03-09",
      "end_date": "3999-12-31",
      "id": 18,
      "name": "Action",
      "stock_group": "S"
    }
  ],
  "is_mainstock": 0,
  "prices_period": [
    "1971-03-09",
    "1975-12-31"
  ],
  "stock_exchanges": {
    "1": {
      "id": 1,
      "name": "Paris (Official List)",
      "notations": {
        "151307": {
          "id": 151307,
          "sector_id": 528,
          "start_date": "1971-03-09",
          "end_date": "1976-01-02",
          "names": [
            {
              "name": "Commerzbank Aktiengesellschaft, act. 1000 DM",
              "start_date": "1971-03-09",
              "end_date": "1976-01-02"
            },
            {
              "name": "Commerzbank Aktlengesellschaft, act.1000 DM (ex-dr., )",
              "start_date": "1971-03-09",
              "end_date": "3999-12-31"
            }
          ]
        }
      },
      "listings_stats": {
        "start_date": "1971-03-09"
      },
      "spot_prices_stats": {
        "start_date": "1971-03-09",
        "end_date": "1975-12-31"
      }
    }
  },
  "prices_count": 118,
  "name": "Commerzbank Aktiengesellschaft, act. 1000 DM"
}