{
  "id": 6294,
  "share_type": {
    "id": 1,
    "name": "Stock (Action)"
  },
  "issuers": [
    {
      "id": 3163,
      "start_date": "1911-02-27",
      "end_date": "3999-12-31",
      "name": "COMPAGNIE FRANÇAISE DES MINES DE BOR"
    }
  ],
  "types": [
    {
      "start_date": "1912-08-31",
      "end_date": "3999-12-31",
      "id": 11,
      "name": "Action ordinaire",
      "stock_group": "S"
    }
  ],
  "is_mainstock": 1,
  "prices_period": [
    "1912-08-31",
    "1940-06-10"
  ],
  "stock_exchanges": {
    "1": {
      "id": 1,
      "name": "Paris (Official List)",
      "notations": {
        "9195": {
          "id": 9195,
          "sector_id": 103,
          "start_date": "1913-12-08",
          "end_date": "1914-08-03",
          "names": [
            {
              "name": "Mines de Bor, actions ordinaires (n° 6701 à 11000)",
              "start_date": "1892-05-05",
              "end_date": "1914-08-03"
            },
            {
              "name": "Mines de Bor, act. ordin. 100 fr., t.p. (c. 7 att.)",
              "start_date": "1913-12-08",
              "end_date": "1920-01-02"
            },
            {
              "name": "Bor (Mines de), Act. ord. 100 fr., t. p. (nos 48501 à 70000)",
              "start_date": "1913-12-08",
              "end_date": "1923-12-17"
            },
            {
              "name": "Bor (Mines de), Act ord. 100 fr., t. p. (n°48501 à 140000)",
              "start_date": "1913-12-08",
              "end_date": "1937-08-31"
            },
            {
              "name": "Bor (Mines de), Act. ord. 100 fr., t.p. (nos 48501 à 140000) (titres nouv., teinte verte)",
              "start_date": "1913-12-08",
              "end_date": "1939-06-07"
            },
            {
              "name": "Bor (Mines de), act. Ord. 100 fr., t, p. (n°48501 à 590000)",
              "start_date": "1913-12-08",
              "end_date": "3999-12-31"
            }
          ]
        },
        "10073": {
          "id": 10073,
          "sector_id": 103,
          "start_date": "1914-12-15",
          "end_date": "1917-01-02",
          "names": [
            {
              "name": "Mines de Bor, actions ordinaires (n° 6701 à 11000)",
              "start_date": "1892-05-05",
              "end_date": "1917-01-02"
            },
            {
              "name": "Mines de Bor, act. ordin. 100 fr., t.p. (c. 7 att.)",
              "start_date": "1913-12-08",
              "end_date": "1920-01-02"
            },
            {
              "name": "Bor (Mines de), Act. ord. 100 fr., t. p. (nos 48501 à 70000)",
              "start_date": "1914-12-15",
              "end_date": "1923-12-17"
            },
            {
              "name": "Bor (Mines de), Act ord. 100 fr., t. p. (n°48501 à 140000)",
              "start_date": "1914-12-15",
              "end_date": "1937-08-31"
            },
            {
              "name": "Bor (Mines de), Act. ord. 100 fr., t.p. (nos 48501 à 140000) (titres nouv., teinte verte)",
              "start_date": "1914-12-15",
              "end_date": "1939-06-07"
            },
            {
              "name": "Bor (Mines de), act. Ord. 100 fr., t, p. (n°48501 à 590000)",
              "start_date": "1914-12-15",
              "end_date": "3999-12-31"
            }
          ]
        },
        "10488": {
          "id": 10488,
          "sector_id": 134,
          "start_date": "1917-01-02",
          "end_date": "1937-08-31",
          "names": [
            {
              "name": "Mines de Bor, actions ordinaires (n° 6701 à 11000)",
              "start_date": "1892-05-05",
              "end_date": "1937-08-31"
            },
            {
              "name": "Mines de Bor, act. ordin. 100 fr., t.p. (c. 7 att.)",
              "start_date": "1913-12-08",
              "end_date": "1937-08-31"
            },
            {
              "name": "Bor (Mines de), Act. ord. 100 fr., t. p. (nos 48501 à 70000)",
              "start_date": "1917-01-02",
              "end_date": "1937-08-31"
            },
            {
              "name": "Bor (Mines de), Act ord. 100 fr., t. p. (n°48501 à 140000)",
              "start_date": "1917-01-02",
              "end_date": "1937-08-31"
            },
            {
              "name": "Bor (Mines de), Act. ord. 100 fr., t.p. (nos 48501 à 140000) (titres nouv., teinte verte)",
              "start_date": "1917-01-02",
              "end_date": "1939-06-07"
            },
            {
              "name": "Bor (Mines de), act. Ord. 100 fr., t, p. (n°48501 à 590000)",
              "start_date": "1917-01-02",
              "end_date": "3999-12-31"
            }
          ]
        },
        "19001": {
          "id": 19001,
          "sector_id": 215,
          "start_date": "1937-08-31",
          "end_date": "1940-06-11",
          "names": [
            {
              "name": "Mines de Bor, actions ordinaires (n° 6701 à 11000)",
              "start_date": "1892-05-05",
              "end_date": "1940-06-11"
            },
            {
              "name": "Mines de Bor, act. ordin. 100 fr., t.p. (c. 7 att.)",
              "start_date": "1913-12-08",
              "end_date": "1940-06-11"
            },
            {
              "name": "Bor (Mines de), Act. ord. 100 fr., t. p. (nos 48501 à 70000)",
              "start_date": "1920-01-02",
              "end_date": "1940-06-11"
            },
            {
              "name": "Bor (Mines de), Act ord. 100 fr., t. p. (n°48501 à 140000)",
              "start_date": "1923-12-17",
              "end_date": "1940-06-11"
            },
            {
              "name": "Bor (Mines de), Act. ord. 100 fr., t.p. (nos 48501 à 140000) (titres nouv., teinte verte)",
              "start_date": "1937-08-31",
              "end_date": "1940-06-11"
            },
            {
              "name": "Bor (Mines de), act. Ord. 100 fr., t, p. (n°48501 à 590000)",
              "start_date": "1937-08-31",
              "end_date": "3999-12-31"
            }
          ]
        },
        "155846": {
          "id": 155846,
          "sector_id": 121,
          "start_date": "1911-02-27",
          "end_date": "1913-12-08",
          "names": [
            {
              "name": "Mines de Bor, actions ordinaires (n° 6701 à 11000)",
              "start_date": "1892-05-05",
              "end_date": "1913-12-08"
            },
            {
              "name": "Mines de Bor, act. ordin. 100 fr., t.p. (c. 7 att.)",
              "start_date": "1911-02-27",
              "end_date": "1920-01-02"
            },
            {
              "name": "Bor (Mines de), Act. ord. 100 fr., t. p. (nos 48501 à 70000)",
              "start_date": "1911-02-27",
              "end_date": "1923-12-17"
            },
            {
              "name": "Bor (Mines de), Act ord. 100 fr., t. p. (n°48501 à 140000)",
              "start_date": "1911-02-27",
              "end_date": "1937-08-31"
            },
            {
              "name": "Bor (Mines de), Act. ord. 100 fr., t.p. (nos 48501 à 140000) (titres nouv., teinte verte)",
              "start_date": "1911-02-27",
              "end_date": "1939-06-07"
            },
            {
              "name": "Bor (Mines de), act. Ord. 100 fr., t, p. (n°48501 à 590000)",
              "start_date": "1911-02-27",
              "end_date": "3999-12-31"
            }
          ]
        }
      },
      "listings_stats": {
        "start_date": "1911-02-27"
      },
      "spot_prices_stats": {
        "start_date": "1912-08-31",
        "end_date": "1940-06-10"
      }
    }
  },
  "prices_count": 1077,
  "name": "Bor (Mines de), Act ord. 100 fr., t. p. (n°48501 à 140000)"
}