{
  "id": 15564,
  "share_type": {
    "id": 2,
    "name": "Bond (Obligation)"
  },
  "issuers": [
    {
      "id": 3435,
      "start_date": "1958-02-17",
      "end_date": "3999-12-31",
      "name": "GOUVERNEMENT GÉNÉRAL DE L'AFRIQUE OCCIDENTALE FRANÇAISE"
    }
  ],
  "types": [
    {
      "start_date": "1958-02-17",
      "end_date": "3999-12-31",
      "id": 1001,
      "name": "Obligation ordinaire ou classique",
      "stock_group": "B"
    }
  ],
  "is_mainstock": 0,
  "prices_period": [
    "1958-02-17",
    "1973-08-31"
  ],
  "stock_exchanges": {
    "1": {
      "id": 1,
      "name": "Paris (Official List)",
      "notations": {
        "29289": {
          "id": 29289,
          "sector_id": 594,
          "start_date": "1963-03-04",
          "end_date": "1973-09-17",
          "names": [
            {
              "name": "Afrique Occidentale Française 5,5% 1933-1957 (c. 1/9/58 att.) 1958-83",
              "start_date": "1958-02-17",
              "end_date": "1973-09-17"
            },
            {
              "name": "Afrique Occidentale Française 5,5% 1933-1957 (Tir. 17/10/62) 1958-83",
              "start_date": "1963-03-04",
              "end_date": "1973-09-17"
            },
            {
              "name": "Afrique Occidentale Française 5,50% 1933-57 de 100 F (T. 20/9/72). 1958-83",
              "start_date": "1963-03-04",
              "end_date": "3999-12-31"
            }
          ]
        },
        "146139": {
          "id": 146139,
          "sector_id": 84,
          "start_date": "1958-02-17",
          "end_date": "1963-03-04",
          "names": [
            {
              "name": "Afrique Occidentale Française 5,5% 1933-1957 (c. 1/9/58 att.) 1958-83",
              "start_date": "1958-02-17",
              "end_date": "1963-03-04"
            },
            {
              "name": "Afrique Occidentale Française 5,5% 1933-1957 (Tir. 17/10/62) 1958-83",
              "start_date": "1958-02-17",
              "end_date": "1973-09-17"
            },
            {
              "name": "Afrique Occidentale Française 5,50% 1933-57 de 100 F (T. 20/9/72). 1958-83",
              "start_date": "1958-02-17",
              "end_date": "3999-12-31"
            }
          ]
        }
      },
      "listings_stats": {
        "start_date": "1958-02-17"
      },
      "spot_prices_stats": {
        "start_date": "1958-02-17",
        "end_date": "1973-08-31"
      }
    }
  },
  "prices_count": 375,
  "name": "Afrique Occidentale Française 5,5% 1933-1957 (Tir. 17/10/62) 1958-83"
}