{
  "id": 15082,
  "share_type": {
    "id": 1,
    "name": "Stock (Action)"
  },
  "issuers": [
    {
      "id": 2283,
      "start_date": "1955-10-05",
      "end_date": "3999-12-31",
      "name": "Le Nickel"
    }
  ],
  "types": [
    {
      "start_date": "1955-10-05",
      "end_date": "3999-12-31",
      "id": 11,
      "name": "Action ordinaire",
      "stock_group": "S"
    }
  ],
  "is_mainstock": 0,
  "prices_period": [
    "1955-10-05",
    "1956-07-16"
  ],
  "stock_exchanges": {
    "1": {
      "id": 1,
      "name": "Paris (Official List)",
      "notations": {
        "26117": {
          "id": 26117,
          "sector_id": 409,
          "start_date": "1955-12-01",
          "end_date": "1956-07-25",
          "names": [
            {
              "name": "Nickel (Le), actions 5000 fr., t. p. (n°s. 196801 à 295200) (c. 2 att.)",
              "start_date": "1955-10-05",
              "end_date": "1956-07-25"
            },
            {
              "name": "Nickel (Le), Act. (n°s 196801 à 295200) (c. 2 att.)",
              "start_date": "1955-12-01",
              "end_date": "3999-12-31"
            }
          ]
        },
        "145657": {
          "id": 145657,
          "sector_id": 231,
          "start_date": "1955-10-05",
          "end_date": "1955-12-01",
          "names": [
            {
              "name": "Nickel (Le), actions 5000 fr., t. p. (n°s. 196801 à 295200) (c. 2 att.)",
              "start_date": "1955-10-05",
              "end_date": "1955-12-01"
            },
            {
              "name": "Nickel (Le), Act. (n°s 196801 à 295200) (c. 2 att.)",
              "start_date": "1955-10-05",
              "end_date": "3999-12-31"
            }
          ]
        }
      },
      "listings_stats": {
        "start_date": "1955-10-05"
      },
      "spot_prices_stats": {
        "start_date": "1955-10-05",
        "end_date": "1956-07-16"
      }
    }
  },
  "prices_count": 38,
  "name": "Nickel (Le), Act. (n°s 196801 à 295200) (c. 2 att.)"
}