{
  "id": 12900,
  "share_type": {
    "id": 1,
    "name": "Stock (Action)"
  },
  "issuers": [
    {
      "id": 4134,
      "start_date": "1946-05-29",
      "end_date": "3999-12-31",
      "name": "SOCIETE RATEAU"
    }
  ],
  "types": [
    {
      "start_date": "1946-05-29",
      "end_date": "3999-12-31",
      "id": 18,
      "name": "Action",
      "stock_group": "S"
    }
  ],
  "is_mainstock": 0,
  "prices_period": [
    "1946-06-11",
    "1946-06-28"
  ],
  "stock_exchanges": {
    "1": {
      "id": 1,
      "name": "Paris (Official List)",
      "notations": {
        "143475": {
          "id": 143475,
          "sector_id": 104,
          "start_date": "1946-05-29",
          "end_date": "1946-07-01",
          "names": [
            {
              "name": "Rateau (Sté), Act. 500 fr., t. p. (n°s 100001 à 142242)",
              "start_date": "1946-05-29",
              "end_date": "3999-12-31"
            }
          ]
        }
      },
      "listings_stats": {
        "start_date": "1946-05-29"
      },
      "spot_prices_stats": {
        "start_date": "1946-06-11",
        "end_date": "1946-06-28"
      }
    }
  },
  "prices_count": 3,
  "name": "Rateau (Sté), Act. 500 fr., t. p. (n°s 100001 à 142242)"
}