{
  "id": 101979,
  "share_type": {
    "id": 4,
    "name": "Rights (Droits)"
  },
  "issuers": [
    {
      "id": 3051,
      "start_date": "1942-05-11",
      "end_date": "1942-05-20",
      "name": "CREDIT ESPANOL DEL RIO DE LA PLATA (Anciennement Banco Espanol del Rio de la Plata)"
    }
  ],
  "types": [
    {
      "start_date": "1942-05-11",
      "end_date": "1942-05-20",
      "id": 501,
      "name": "Droit de souscription",
      "stock_group": "R"
    }
  ],
  "is_mainstock": 0,
  "prices_period": [
    "1942-05-11",
    "1942-05-15"
  ],
  "stock_exchanges": {
    "1": {
      "id": 1,
      "name": "Paris (Official List)",
      "notations": {
        "202161": {
          "id": 202161,
          "sector_id": 657,
          "start_date": "1942-05-11",
          "end_date": "1942-05-21",
          "names": [
            {
              "name": "Act. BANQUE FRANCAISE DU RIO DE LA PLATA (droit et coupon 16) (impôt non encore perçu). Coup. De 10. Pour 14 act. anciennes, 1 action nouvelle émise à 126 piastres (Vr Avis n° 19501)",
              "start_date": "1942-05-11",
              "end_date": "1942-05-21"
            }
          ]
        }
      },
      "listings_stats": {
        "start_date": "1942-05-11"
      },
      "spot_prices_stats": {
        "start_date": "1942-05-11",
        "end_date": "1942-05-15"
      }
    }
  },
  "prices_count": 2,
  "name": "Act. BANQUE FRANCAISE DU RIO DE LA PLATA (droit et coupon 16) (impôt non encore perçu). Coup. De 10. Pour 14 act. anciennes, 1 action nouvelle émise à 126 piastres (Vr Avis n° 19501)"
}