{
  "id": 8530,
  "share_type": {
    "id": 2,
    "name": "Bond (Obligation)"
  },
  "issuers": [
    {
      "id": 1273,
      "start_date": "1928-09-28",
      "end_date": "3999-12-31",
      "name": "DETTE TUNISIENNE"
    }
  ],
  "types": [
    {
      "start_date": "1928-09-28",
      "end_date": "3999-12-31",
      "id": 1001,
      "name": "Obligation ordinaire ou classique",
      "stock_group": "B"
    }
  ],
  "is_mainstock": 0,
  "prices_period": [
    "1928-09-28",
    "1931-03-31"
  ],
  "stock_exchanges": {
    "1": {
      "id": 1,
      "name": "Paris (Official List)",
      "notations": {
        "135977": {
          "id": 135977,
          "sector_id": 95,
          "start_date": "1928-09-28",
          "end_date": "1931-04-10",
          "names": [
            {
              "name": "Tunisie 6% 1928, remb. à 1000 fr.",
              "start_date": "1928-09-28",
              "end_date": "1931-04-10"
            },
            {
              "name": "Tunisie 6% 1928, remb. à 1000 fr. le 10 avril 1931",
              "start_date": "1928-09-28",
              "end_date": "3999-12-31"
            }
          ]
        }
      },
      "listings_stats": {
        "start_date": "1928-09-28"
      },
      "spot_prices_stats": {
        "start_date": "1928-09-28",
        "end_date": "1931-03-31"
      }
    }
  },
  "prices_count": 64,
  "name": "Tunisie 6% 1928, remb. à 1000 fr."
}