{
  "id": 14513,
  "share_type": {
    "id": 1,
    "name": "Stock (Action)"
  },
  "issuers": [
    {
      "id": 2892,
      "start_date": "1952-08-22",
      "end_date": "3999-12-31",
      "name": "UNION CORPORATION, LIMITED (Anciennement A. GOERZ AND COMPANY, LIMITED)"
    }
  ],
  "types": [
    {
      "start_date": "1952-08-22",
      "end_date": "3999-12-31",
      "id": 11,
      "name": "Action ordinaire",
      "stock_group": "S"
    }
  ],
  "is_mainstock": 0,
  "prices_period": [
    "1955-05-02",
    "1955-05-02"
  ],
  "stock_exchanges": {
    "1": {
      "id": 1,
      "name": "Paris (Official List)",
      "notations": {
        "27054": {
          "id": 27054,
          "sector_id": 82,
          "start_date": "1955-12-01",
          "end_date": "1962-01-02",
          "names": [
            {
              "name": "Union Corporation, Ltd, . Titres de 250 act. De £ 0: 2: 6, anct coup. De 50.",
              "start_date": "1952-08-22",
              "end_date": "1962-01-02"
            },
            {
              "name": "Union Corporation, Ltd., . Tit. de 250 act. de £ 0 : 2 : 6 (ancᵗ coup. de 50)",
              "start_date": "1955-12-01",
              "end_date": "1962-01-02"
            },
            {
              "name": "Union Corporation, Ltd., . Titres de 250 act. de 0,25 R (Avis 36129)",
              "start_date": "1955-12-01",
              "end_date": "1962-01-02"
            },
            {
              "name": "Union corporation. Ltd, talon 5 att.).titres de 250 act. De 0,25 R (Avis 36129)",
              "start_date": "1955-12-01",
              "end_date": "3999-12-31"
            }
          ]
        },
        "28814": {
          "id": 28814,
          "sector_id": 539,
          "start_date": "1962-01-02",
          "end_date": "1962-04-06",
          "names": [
            {
              "name": "Union Corporation, Ltd, . Titres de 250 act. De £ 0: 2: 6, anct coup. De 50.",
              "start_date": "1952-08-22",
              "end_date": "1962-04-06"
            },
            {
              "name": "Union Corporation, Ltd., . Tit. de 250 act. de £ 0 : 2 : 6 (ancᵗ coup. de 50)",
              "start_date": "1961-07-10",
              "end_date": "1962-04-06"
            },
            {
              "name": "Union Corporation, Ltd., . Titres de 250 act. de 0,25 R (Avis 36129)",
              "start_date": "1961-07-11",
              "end_date": "1962-04-06"
            },
            {
              "name": "Union corporation. Ltd, talon 5 att.).titres de 250 act. De 0,25 R (Avis 36129)",
              "start_date": "1962-01-02",
              "end_date": "3999-12-31"
            }
          ]
        },
        "145088": {
          "id": 145088,
          "sector_id": 235,
          "start_date": "1952-08-22",
          "end_date": "1955-12-01",
          "names": [
            {
              "name": "Union Corporation, Ltd, . Titres de 250 act. De £ 0: 2: 6, anct coup. De 50.",
              "start_date": "1952-08-22",
              "end_date": "1961-07-10"
            },
            {
              "name": "Union Corporation, Ltd., . Tit. de 250 act. de £ 0 : 2 : 6 (ancᵗ coup. de 50)",
              "start_date": "1952-08-22",
              "end_date": "1961-07-11"
            },
            {
              "name": "Union Corporation, Ltd., . Titres de 250 act. de 0,25 R (Avis 36129)",
              "start_date": "1952-08-22",
              "end_date": "1962-01-02"
            },
            {
              "name": "Union corporation. Ltd, talon 5 att.).titres de 250 act. De 0,25 R (Avis 36129)",
              "start_date": "1952-08-22",
              "end_date": "3999-12-31"
            }
          ]
        }
      },
      "listings_stats": {
        "start_date": "1952-08-22"
      },
      "spot_prices_stats": {
        "start_date": "1955-05-02",
        "end_date": "1955-05-02"
      }
    }
  },
  "prices_count": 1,
  "name": "Union Corporation, Ltd., . Titres de 250 act. de 0,25 R (Avis 36129)"
}