{
  "id": 21754,
  "share_type": {
    "id": 2,
    "name": "Bond (Obligation)"
  },
  "issuers": [
    {
      "id": 3489,
      "start_date": "1942-06-01",
      "end_date": "3999-12-31",
      "name": "ENERGIE ELECTRIQUE DE LA MOYENNE DORDOGNE"
    }
  ],
  "types": [
    {
      "start_date": "1942-06-01",
      "end_date": "3999-12-31",
      "id": 1001,
      "name": "Obligation ordinaire ou classique",
      "stock_group": "B"
    }
  ],
  "is_mainstock": 0,
  "prices_period": [
    "1942-06-01",
    "1960-02-29"
  ],
  "stock_exchanges": {
    "1": {
      "id": 1,
      "name": "Paris (Official List)",
      "notations": {
        "25357": {
          "id": 25357,
          "sector_id": 324,
          "start_date": "1955-12-01",
          "end_date": "1960-03-01",
          "names": [
            {
              "name": "Energie Electrique de la Moyenne Dordogne 5% 41, remb. à 5000 fr.",
              "start_date": "1942-06-01",
              "end_date": "1960-03-01"
            },
            {
              "name": "Energie Electrique de la Moyenne Dordogne 5% 41, remb. à 5000 fr. (13)",
              "start_date": "1955-08-01",
              "end_date": "1960-03-01"
            },
            {
              "name": "Energie Electrique de la Moyenne- Dordogne 5% 1941 (R. ou Tir.) E 1946-75 (Garanti par l'Etat)",
              "start_date": "1955-12-01",
              "end_date": "3999-12-31"
            }
          ]
        },
        "152319": {
          "id": 152319,
          "sector_id": 117,
          "start_date": "1942-06-01",
          "end_date": "1955-12-01",
          "names": [
            {
              "name": "Energie Electrique de la Moyenne Dordogne 5% 41, remb. à 5000 fr.",
              "start_date": "1942-06-01",
              "end_date": "1955-12-01"
            },
            {
              "name": "Energie Electrique de la Moyenne Dordogne 5% 41, remb. à 5000 fr. (13)",
              "start_date": "1942-06-01",
              "end_date": "1955-12-01"
            },
            {
              "name": "Energie Electrique de la Moyenne- Dordogne 5% 1941 (R. ou Tir.) E 1946-75 (Garanti par l'Etat)",
              "start_date": "1942-06-01",
              "end_date": "3999-12-31"
            }
          ]
        }
      },
      "listings_stats": {
        "start_date": "1942-06-01"
      },
      "spot_prices_stats": {
        "start_date": "1942-06-01",
        "end_date": "1960-02-29"
      }
    }
  },
  "prices_count": 431,
  "name": "Energie Electrique de la Moyenne Dordogne 5% 41, remb. à 5000 fr. (13)"
}