{
  "id": 9185,
  "share_type": {
    "id": 1,
    "name": "Stock (Action)"
  },
  "issuers": [
    {
      "id": 5062,
      "start_date": "1928-07-11",
      "end_date": "3999-12-31",
      "name": "PARIS-MAROC"
    }
  ],
  "types": [
    {
      "start_date": "1928-07-11",
      "end_date": "3999-12-31",
      "id": 11,
      "name": "Action ordinaire",
      "stock_group": "S"
    }
  ],
  "is_mainstock": 0,
  "prices_period": [
    "1928-07-11",
    "1928-07-16"
  ],
  "stock_exchanges": {
    "1": {
      "id": 1,
      "name": "Paris (Official List)",
      "notations": {
        "136632": {
          "id": 136632,
          "sector_id": 187,
          "start_date": "1928-07-11",
          "end_date": "1928-07-20",
          "names": [
            {
              "name": "Paris-Maroc, act. 100 fr., t.p. (droit et c. 12 att.)",
              "start_date": "1928-07-11",
              "end_date": "3999-12-31"
            }
          ]
        }
      },
      "listings_stats": {
        "start_date": "1928-07-11"
      },
      "spot_prices_stats": {
        "start_date": "1928-07-11",
        "end_date": "1928-07-16"
      }
    }
  },
  "prices_count": 2,
  "name": "Paris-Maroc, act. 100 fr., t.p. (droit et c. 12 att.)"
}