{
  "id": 101274,
  "share_type": {
    "id": 4,
    "name": "Rights (Droits)"
  },
  "issuers": [
    {
      "id": 2960,
      "start_date": "1938-06-20",
      "end_date": "1938-08-12",
      "name": "DINAMITE NOBEL"
    }
  ],
  "types": [
    {
      "start_date": "1938-06-20",
      "end_date": "1938-08-12",
      "id": 502,
      "name": "Droit d'attribution",
      "stock_group": "R"
    }
  ],
  "is_mainstock": 0,
  "prices_period": [
    "1938-06-20",
    "1938-08-01"
  ],
  "stock_exchanges": {
    "1": {
      "id": 1,
      "name": "Paris (Official List)",
      "notations": {
        "201419": {
          "id": 201419,
          "sector_id": 657,
          "start_date": "1938-06-20",
          "end_date": "1938-08-13",
          "names": [
            {
              "name": "Act de capital et de jouiss. DINAMITE NOBEL (droit et coupon 31 muni du récépissé du bordereau de paiement de l’impôt français). (voir avis n° 18041). Pour 8 act. Anc. De capital ou de jouiss., 1 act. Nouv. Attribuée gratuitement.",
              "start_date": "1938-06-20",
              "end_date": "1938-08-13"
            }
          ]
        }
      },
      "listings_stats": {
        "start_date": "1938-06-20"
      },
      "spot_prices_stats": {
        "start_date": "1938-06-20",
        "end_date": "1938-08-01"
      }
    }
  },
  "prices_count": 5,
  "name": "Act de capital et de jouiss. DINAMITE NOBEL (droit et coupon 31 muni du récépissé du bordereau de paiement de l’impôt français). (voir avis n° 18041). Pour 8 act. Anc. De capital ou de jouiss., 1 act. Nouv. Attribuée gratuitement."
}