{
  "id": 105782,
  "share_type": {
    "id": 5,
    "name": "Droits de souscription"
  },
  "issuers": [
    {
      "id": 3932,
      "start_date": "1951-01-01",
      "end_date": "1952-12-31",
      "name": "GLAENZER SPICER"
    }
  ],
  "types": [
    {
      "start_date": "1951-01-01",
      "end_date": "1952-12-31",
      "id": 501,
      "name": "Droit de souscription",
      "stock_group": "R"
    }
  ],
  "is_mainstock": 0,
  "prices_period": [
    null,
    null
  ],
  "stock_exchanges": {
    "1": {
      "id": 1,
      "name": "Paris (Official List)",
      "notations": {
        "206644": {
          "id": 206644,
          "sector_id": 657,
          "start_date": "1951-01-01",
          "end_date": "1952-12-31",
          "names": [
            {
              "name": "Act. 750 fr. 1 à 150000 et 175001 à 200000. Glaenzer-Spicer (dr. et c. 48) (1 act. nouv. 3000 fr. émise à 3000 fr. jce 1/1/52 pour 20 actions anc. 750 fr.)",
              "start_date": "1951-01-01",
              "end_date": "1952-12-31"
            }
          ]
        }
      },
      "listings_stats": {
        "start_date": "1951-01-01"
      }
    }
  },
  "prices_count": 0,
  "name": "Act. 750 fr. 1 à 150000 et 175001 à 200000. Glaenzer-Spicer (dr. et c. 48) (1 act. nouv. 3000 fr. émise à 3000 fr. jce 1/1/52 pour 20 actions anc. 750 fr.)"
}