{
  "id": 1298,
  "share_type": {
    "id": 2,
    "name": "Bond (Obligation)"
  },
  "issuers": [
    {
      "id": 497,
      "start_date": "1863-06-11",
      "end_date": "3999-12-31",
      "name": "Compagnie des Chemins de fer de l'Est"
    },
    {
      "id": 1252,
      "start_date": "1862-10-30",
      "end_date": "1863-06-11",
      "name": "Dieuze"
    }
  ],
  "types": [
    {
      "start_date": "1862-10-30",
      "end_date": "3999-12-31",
      "id": 1001,
      "name": "Obligation ordinaire ou classique",
      "stock_group": "B"
    }
  ],
  "is_mainstock": 0,
  "prices_period": [
    "1862-10-30",
    "1949-06-30"
  ],
  "stock_exchanges": {
    "1": {
      "id": 1,
      "name": "Paris (Official List)",
      "notations": {
        "1870": {
          "id": 1870,
          "sector_id": 107,
          "start_date": "1902-05-26",
          "end_date": "1914-08-03",
          "names": [
            {
              "name": "Dieuze, j. jet",
              "start_date": "1862-10-30",
              "end_date": "1914-08-03"
            },
            {
              "name": "Dieuze, Remboursables à 500fr.",
              "start_date": "1866-02-18",
              "end_date": "1914-08-03"
            },
            {
              "name": "Dieuze, 3%, emb à 500fr.",
              "start_date": "1867-02-08",
              "end_date": "1914-08-03"
            },
            {
              "name": "Dieuze, 3%, Rembs à 500fr.",
              "start_date": "1871-12-31",
              "end_date": "1920-01-02"
            },
            {
              "name": "Est, Dieuze 3%, remb. À 500 fr. 1864-1950",
              "start_date": "1902-05-26",
              "end_date": "1949-03-15"
            },
            {
              "name": "EST Dieuze 3%, remb. à 500 fr. le 1/7/49",
              "start_date": "1902-05-26",
              "end_date": "3999-12-31"
            }
          ]
        },
        "2407": {
          "id": 2407,
          "sector_id": 70,
          "start_date": "1862-10-30",
          "end_date": "1902-05-26",
          "names": [
            {
              "name": "Dieuze, j. jet",
              "start_date": "1862-10-30",
              "end_date": "1902-05-26"
            },
            {
              "name": "Dieuze, Remboursables à 500fr.",
              "start_date": "1862-10-30",
              "end_date": "1902-05-26"
            },
            {
              "name": "Dieuze, 3%, emb à 500fr.",
              "start_date": "1862-10-30",
              "end_date": "1902-05-26"
            },
            {
              "name": "Dieuze, 3%, Rembs à 500fr.",
              "start_date": "1862-10-30",
              "end_date": "1920-01-02"
            },
            {
              "name": "Est, Dieuze 3%, remb. À 500 fr. 1864-1950",
              "start_date": "1862-10-30",
              "end_date": "1949-03-15"
            },
            {
              "name": "EST Dieuze 3%, remb. à 500 fr. le 1/7/49",
              "start_date": "1862-10-30",
              "end_date": "3999-12-31"
            }
          ]
        },
        "10273": {
          "id": 10273,
          "sector_id": 107,
          "start_date": "1914-12-15",
          "end_date": "1940-06-11",
          "names": [
            {
              "name": "Dieuze, j. jet",
              "start_date": "1862-10-30",
              "end_date": "1940-06-11"
            },
            {
              "name": "Dieuze, Remboursables à 500fr.",
              "start_date": "1866-02-18",
              "end_date": "1940-06-11"
            },
            {
              "name": "Dieuze, 3%, emb à 500fr.",
              "start_date": "1867-02-08",
              "end_date": "1940-06-11"
            },
            {
              "name": "Dieuze, 3%, Rembs à 500fr.",
              "start_date": "1871-12-31",
              "end_date": "1940-06-11"
            },
            {
              "name": "Est, Dieuze 3%, remb. À 500 fr. 1864-1950",
              "start_date": "1914-12-15",
              "end_date": "1949-03-15"
            },
            {
              "name": "EST Dieuze 3%, remb. à 500 fr. le 1/7/49",
              "start_date": "1914-12-15",
              "end_date": "3999-12-31"
            }
          ]
        },
        "19470": {
          "id": 19470,
          "sector_id": 107,
          "start_date": "1940-10-14",
          "end_date": "1949-07-01",
          "names": [
            {
              "name": "Dieuze, j. jet",
              "start_date": "1862-10-30",
              "end_date": "1949-07-01"
            },
            {
              "name": "Dieuze, Remboursables à 500fr.",
              "start_date": "1866-02-18",
              "end_date": "1949-07-01"
            },
            {
              "name": "Dieuze, 3%, emb à 500fr.",
              "start_date": "1867-02-08",
              "end_date": "1949-07-01"
            },
            {
              "name": "Dieuze, 3%, Rembs à 500fr.",
              "start_date": "1871-12-31",
              "end_date": "1949-07-01"
            },
            {
              "name": "Est, Dieuze 3%, remb. À 500 fr. 1864-1950",
              "start_date": "1920-01-02",
              "end_date": "1949-07-01"
            },
            {
              "name": "EST Dieuze 3%, remb. à 500 fr. le 1/7/49",
              "start_date": "1940-10-14",
              "end_date": "3999-12-31"
            }
          ]
        }
      },
      "listings_stats": {
        "start_date": "1862-10-30"
      },
      "spot_prices_stats": {
        "start_date": "1862-10-30",
        "end_date": "1949-06-30"
      }
    }
  },
  "prices_count": 351,
  "name": "Dieuze, 3%, emb à 500fr."
}