{
  "id": 11447,
  "share_type": {
    "id": 2,
    "name": "Bond (Obligation)"
  },
  "issuers": [
    {
      "id": 703,
      "start_date": "1940-12-02",
      "end_date": "3999-12-31",
      "name": "Compagnie des Forges de Châtillon et Commentry"
    }
  ],
  "types": [
    {
      "start_date": "1940-12-02",
      "end_date": "3999-12-31",
      "id": 1001,
      "name": "Obligation ordinaire ou classique",
      "stock_group": "B"
    }
  ],
  "is_mainstock": 0,
  "prices_period": [
    "1940-12-03",
    "1942-02-02"
  ],
  "stock_exchanges": {
    "1": {
      "id": 1,
      "name": "Paris (Official List)",
      "notations": {
        "142022": {
          "id": 142022,
          "sector_id": 111,
          "start_date": "1940-12-02",
          "end_date": "1942-02-16",
          "names": [
            {
              "name": "Châtillon, Commentry et Neuves-Maisons 6% 1940, r. À 1000 fr. (Jce 1/8/40). 1941-60",
              "start_date": "1940-12-02",
              "end_date": "1942-02-16"
            },
            {
              "name": "Châtillon, Commentry et Neuves-Maisons 6% 1940, remb. À 1000 fr. le 16 février 1942",
              "start_date": "1940-12-02",
              "end_date": "3999-12-31"
            }
          ]
        }
      },
      "listings_stats": {
        "start_date": "1940-12-02"
      },
      "spot_prices_stats": {
        "start_date": "1940-12-03",
        "end_date": "1942-02-02"
      }
    }
  },
  "prices_count": 29,
  "name": "Châtillon, Commentry et Neuves-Maisons 6% 1940, r. À 1000 fr. (Jce 1/8/40). 1941-60"
}