{
  "id": 7414,
  "share_type": {
    "id": 2,
    "name": "Bond (Obligation)"
  },
  "issuers": [
    {
      "id": 5093,
      "start_date": "1922-12-21",
      "end_date": "3999-12-31",
      "name": "GROUPEMENT POUR LA RECONSTRUCTION DE MULHOUSE"
    }
  ],
  "types": [
    {
      "start_date": "1922-12-21",
      "end_date": "3999-12-31",
      "id": 1001,
      "name": "Obligation ordinaire ou classique",
      "stock_group": "B"
    }
  ],
  "is_mainstock": 0,
  "prices_period": [
    "1922-12-21",
    "1931-07-15"
  ],
  "stock_exchanges": {
    "1": {
      "id": 1,
      "name": "Paris (Official List)",
      "notations": {
        "34284": {
          "id": 34284,
          "sector_id": 186,
          "start_date": "1922-12-21",
          "end_date": "1931-10-01",
          "names": [
            {
              "name": "Mulhouse et environ (Reconstruction de), oblig 6% 1922, r à 500 fr.",
              "start_date": "1922-12-21",
              "end_date": "1931-10-01"
            },
            {
              "name": "Mulhouse et Environs (Reconstr. de), oblig. 6% 1922, remb. à 500 fr. le 1er octobre 1931",
              "start_date": "1922-12-21",
              "end_date": "3999-12-31"
            }
          ]
        }
      },
      "listings_stats": {
        "start_date": "1922-12-21"
      },
      "spot_prices_stats": {
        "start_date": "1922-12-21",
        "end_date": "1931-07-15"
      }
    }
  },
  "prices_count": 203,
  "name": "Mulhouse et environ (Reconstruction de), oblig 6% 1922, r à 500 fr."
}