{
  "id": 4900,
  "share_type": {
    "id": 1,
    "name": "Stock (Action)"
  },
  "issuers": [
    {
      "id": 1643,
      "start_date": "1901-04-27",
      "end_date": "3999-12-31",
      "name": "CIE DES MINES DE HOUILLE DE COURRIERES"
    }
  ],
  "types": [
    {
      "start_date": "1901-04-27",
      "end_date": "1949-07-29",
      "id": 18,
      "name": "Action",
      "stock_group": "S"
    }
  ],
  "is_mainstock": 1,
  "prices_period": [
    "1901-06-15",
    "1949-07-29"
  ],
  "stock_exchanges": {
    "1": {
      "id": 1,
      "name": "Paris (Official List)",
      "notations": {
        "1739": {
          "id": 1739,
          "sector_id": 103,
          "start_date": "1902-05-26",
          "end_date": "1914-08-03",
          "names": [
            {
              "name": "Mines [de houille] de Courrières, act. 100fr., t.p.",
              "start_date": "1901-04-27",
              "end_date": "1914-12-15"
            },
            {
              "name": "Mines de Courrières, act. 100 fr., t.p.",
              "start_date": "1902-05-26",
              "end_date": "1921-01-31"
            },
            {
              "name": "Mines de Courrières, act. 100 fr., t.p.",
              "start_date": "1902-05-26",
              "end_date": "1923-06-16"
            },
            {
              "name": "Mines de Houille de Courrières, act. 100 fr., t. p. (A TERME)",
              "start_date": "1902-05-26",
              "end_date": "1925-04-30"
            },
            {
              "name": "Mines de Courrières, act. 100 fr., t. p.",
              "start_date": "1902-05-26",
              "end_date": "1929-04-20"
            },
            {
              "name": "Mines de Courrières, act. A 100 fr., t. p.",
              "start_date": "1902-05-26",
              "end_date": "1932-07-04"
            },
            {
              "name": "Mines de Courrières, act. 100 fr., t. p.(c.1att.) (nos 1 à 1080000 et 1100001 à 2200000) (titres nouveaux teinte verte)",
              "start_date": "1902-05-26",
              "end_date": "1940-08-07"
            },
            {
              "name": "Mines de Courrières, a. 100 f., t.p. (sans val.)",
              "start_date": "1902-05-26",
              "end_date": "1945-07-30"
            },
            {
              "name": "Mines de Courrières, act. 200 fr., t.p.",
              "start_date": "1902-05-26",
              "end_date": "3999-12-31"
            }
          ]
        },
        "5999": {
          "id": 5999,
          "sector_id": 73,
          "start_date": "1901-04-27",
          "end_date": "1902-05-26",
          "names": [
            {
              "name": "Mines [de houille] de Courrières, act. 100fr., t.p.",
              "start_date": "1901-04-27",
              "end_date": "1914-12-15"
            },
            {
              "name": "Mines de Courrières, act. 100 fr., t.p.",
              "start_date": "1901-04-27",
              "end_date": "1921-01-31"
            },
            {
              "name": "Mines de Courrières, act. 100 fr., t.p.",
              "start_date": "1901-04-27",
              "end_date": "1923-06-16"
            },
            {
              "name": "Mines de Houille de Courrières, act. 100 fr., t. p. (A TERME)",
              "start_date": "1901-04-27",
              "end_date": "1925-04-30"
            },
            {
              "name": "Mines de Courrières, act. 100 fr., t. p.",
              "start_date": "1901-04-27",
              "end_date": "1929-04-20"
            },
            {
              "name": "Mines de Courrières, act. A 100 fr., t. p.",
              "start_date": "1901-04-27",
              "end_date": "1932-07-04"
            },
            {
              "name": "Mines de Courrières, act. 100 fr., t. p.(c.1att.) (nos 1 à 1080000 et 1100001 à 2200000) (titres nouveaux teinte verte)",
              "start_date": "1901-04-27",
              "end_date": "1940-08-07"
            },
            {
              "name": "Mines de Courrières, a. 100 f., t.p. (sans val.)",
              "start_date": "1901-04-27",
              "end_date": "1945-07-30"
            },
            {
              "name": "Mines de Courrières, act. 200 fr., t.p.",
              "start_date": "1901-04-27",
              "end_date": "3999-12-31"
            }
          ]
        },
        "10060": {
          "id": 10060,
          "sector_id": 103,
          "start_date": "1914-12-15",
          "end_date": "1921-02-01",
          "names": [
            {
              "name": "Mines [de houille] de Courrières, act. 100fr., t.p.",
              "start_date": "1901-04-27",
              "end_date": "1921-02-01"
            },
            {
              "name": "Mines de Courrières, act. 100 fr., t.p.",
              "start_date": "1914-12-15",
              "end_date": "1921-02-01"
            },
            {
              "name": "Mines de Courrières, act. 100 fr., t.p.",
              "start_date": "1914-12-15",
              "end_date": "1923-06-16"
            },
            {
              "name": "Mines de Houille de Courrières, act. 100 fr., t. p. (A TERME)",
              "start_date": "1914-12-15",
              "end_date": "1925-04-30"
            },
            {
              "name": "Mines de Courrières, act. 100 fr., t. p.",
              "start_date": "1914-12-15",
              "end_date": "1929-04-20"
            },
            {
              "name": "Mines de Courrières, act. A 100 fr., t. p.",
              "start_date": "1914-12-15",
              "end_date": "1932-07-04"
            },
            {
              "name": "Mines de Courrières, act. 100 fr., t. p.(c.1att.) (nos 1 à 1080000 et 1100001 à 2200000) (titres nouveaux teinte verte)",
              "start_date": "1914-12-15",
              "end_date": "1940-08-07"
            },
            {
              "name": "Mines de Courrières, a. 100 f., t.p. (sans val.)",
              "start_date": "1914-12-15",
              "end_date": "1945-07-30"
            },
            {
              "name": "Mines de Courrières, act. 200 fr., t.p.",
              "start_date": "1914-12-15",
              "end_date": "3999-12-31"
            }
          ]
        },
        "11038": {
          "id": 11038,
          "sector_id": 150,
          "start_date": "1923-06-18",
          "end_date": "1925-05-01",
          "names": [
            {
              "name": "Mines [de houille] de Courrières, act. 100fr., t.p.",
              "start_date": "1901-04-27",
              "end_date": "1925-05-01"
            },
            {
              "name": "Mines de Courrières, act. 100 fr., t.p.",
              "start_date": "1914-12-15",
              "end_date": "1925-05-01"
            },
            {
              "name": "Mines de Courrières, act. 100 fr., t.p.",
              "start_date": "1921-01-31",
              "end_date": "1925-05-01"
            },
            {
              "name": "Mines de Houille de Courrières, act. 100 fr., t. p. (A TERME)",
              "start_date": "1923-06-16",
              "end_date": "1925-05-01"
            },
            {
              "name": "Mines de Courrières, act. 100 fr., t. p.",
              "start_date": "1923-06-18",
              "end_date": "1929-04-20"
            },
            {
              "name": "Mines de Courrières, act. A 100 fr., t. p.",
              "start_date": "1923-06-18",
              "end_date": "1932-07-04"
            },
            {
              "name": "Mines de Courrières, act. 100 fr., t. p.(c.1att.) (nos 1 à 1080000 et 1100001 à 2200000) (titres nouveaux teinte verte)",
              "start_date": "1923-06-18",
              "end_date": "1940-08-07"
            },
            {
              "name": "Mines de Courrières, a. 100 f., t.p. (sans val.)",
              "start_date": "1923-06-18",
              "end_date": "1945-07-30"
            },
            {
              "name": "Mines de Courrières, act. 200 fr., t.p.",
              "start_date": "1923-06-18",
              "end_date": "3999-12-31"
            }
          ]
        },
        "19536": {
          "id": 19536,
          "sector_id": 103,
          "start_date": "1941-03-19",
          "end_date": "1949-08-01",
          "names": [
            {
              "name": "Mines [de houille] de Courrières, act. 100fr., t.p.",
              "start_date": "1901-04-27",
              "end_date": "1949-08-01"
            },
            {
              "name": "Mines de Courrières, act. 100 fr., t.p.",
              "start_date": "1914-12-15",
              "end_date": "1949-08-01"
            },
            {
              "name": "Mines de Courrières, act. 100 fr., t.p.",
              "start_date": "1921-01-31",
              "end_date": "1949-08-01"
            },
            {
              "name": "Mines de Houille de Courrières, act. 100 fr., t. p. (A TERME)",
              "start_date": "1923-06-16",
              "end_date": "1949-08-01"
            },
            {
              "name": "Mines de Courrières, act. 100 fr., t. p.",
              "start_date": "1925-04-30",
              "end_date": "1949-08-01"
            },
            {
              "name": "Mines de Courrières, act. A 100 fr., t. p.",
              "start_date": "1929-04-20",
              "end_date": "1949-08-01"
            },
            {
              "name": "Mines de Courrières, act. 100 fr., t. p.(c.1att.) (nos 1 à 1080000 et 1100001 à 2200000) (titres nouveaux teinte verte)",
              "start_date": "1932-07-04",
              "end_date": "1949-08-01"
            },
            {
              "name": "Mines de Courrières, a. 100 f., t.p. (sans val.)",
              "start_date": "1941-03-18",
              "end_date": "1949-08-01"
            },
            {
              "name": "Mines de Courrières, act. 200 fr., t.p.",
              "start_date": "1941-03-19",
              "end_date": "3999-12-31"
            }
          ]
        },
        "34632": {
          "id": 34632,
          "sector_id": 164,
          "start_date": "1923-06-18",
          "end_date": "1932-07-06",
          "names": [
            {
              "name": "Mines [de houille] de Courrières, act. 100fr., t.p.",
              "start_date": "1901-04-27",
              "end_date": "1932-07-06"
            },
            {
              "name": "Mines de Courrières, act. 100 fr., t.p.",
              "start_date": "1914-12-15",
              "end_date": "1932-07-06"
            },
            {
              "name": "Mines de Courrières, act. 100 fr., t.p.",
              "start_date": "1921-01-31",
              "end_date": "1932-07-06"
            },
            {
              "name": "Mines de Houille de Courrières, act. 100 fr., t. p. (A TERME)",
              "start_date": "1923-06-16",
              "end_date": "1932-07-06"
            },
            {
              "name": "Mines de Courrières, act. 100 fr., t. p.",
              "start_date": "1923-06-18",
              "end_date": "1932-07-06"
            },
            {
              "name": "Mines de Courrières, act. A 100 fr., t. p.",
              "start_date": "1923-06-18",
              "end_date": "1932-07-06"
            },
            {
              "name": "Mines de Courrières, act. 100 fr., t. p.(c.1att.) (nos 1 à 1080000 et 1100001 à 2200000) (titres nouveaux teinte verte)",
              "start_date": "1923-06-18",
              "end_date": "1940-08-07"
            },
            {
              "name": "Mines de Courrières, a. 100 f., t.p. (sans val.)",
              "start_date": "1923-06-18",
              "end_date": "1945-07-30"
            },
            {
              "name": "Mines de Courrières, act. 200 fr., t.p.",
              "start_date": "1923-06-18",
              "end_date": "3999-12-31"
            }
          ]
        },
        "141333": {
          "id": 141333,
          "sector_id": 215,
          "start_date": "1936-05-11",
          "end_date": "1940-08-07",
          "names": [
            {
              "name": "Mines [de houille] de Courrières, act. 100fr., t.p.",
              "start_date": "1901-04-27",
              "end_date": "1940-08-07"
            },
            {
              "name": "Mines de Courrières, act. 100 fr., t.p.",
              "start_date": "1914-12-15",
              "end_date": "1940-08-07"
            },
            {
              "name": "Mines de Courrières, act. 100 fr., t.p.",
              "start_date": "1921-01-31",
              "end_date": "1940-08-07"
            },
            {
              "name": "Mines de Houille de Courrières, act. 100 fr., t. p. (A TERME)",
              "start_date": "1923-06-16",
              "end_date": "1940-08-07"
            },
            {
              "name": "Mines de Courrières, act. 100 fr., t. p.",
              "start_date": "1925-04-30",
              "end_date": "1940-08-07"
            },
            {
              "name": "Mines de Courrières, act. A 100 fr., t. p.",
              "start_date": "1929-04-20",
              "end_date": "1940-08-07"
            },
            {
              "name": "Mines de Courrières, act. 100 fr., t. p.(c.1att.) (nos 1 à 1080000 et 1100001 à 2200000) (titres nouveaux teinte verte)",
              "start_date": "1932-07-04",
              "end_date": "1940-08-07"
            },
            {
              "name": "Mines de Courrières, a. 100 f., t.p. (sans val.)",
              "start_date": "1936-05-11",
              "end_date": "1945-07-30"
            },
            {
              "name": "Mines de Courrières, act. 200 fr., t.p.",
              "start_date": "1936-05-11",
              "end_date": "3999-12-31"
            }
          ]
        },
        "155112": {
          "id": 155112,
          "sector_id": 164,
          "start_date": "1932-07-06",
          "end_date": "1940-06-11",
          "names": [
            {
              "name": "Mines [de houille] de Courrières, act. 100fr., t.p.",
              "start_date": "1901-04-27",
              "end_date": "1940-06-11"
            },
            {
              "name": "Mines de Courrières, act. 100 fr., t.p.",
              "start_date": "1914-12-15",
              "end_date": "1940-06-11"
            },
            {
              "name": "Mines de Courrières, act. 100 fr., t.p.",
              "start_date": "1921-01-31",
              "end_date": "1940-06-11"
            },
            {
              "name": "Mines de Houille de Courrières, act. 100 fr., t. p. (A TERME)",
              "start_date": "1923-06-16",
              "end_date": "1940-06-11"
            },
            {
              "name": "Mines de Courrières, act. 100 fr., t. p.",
              "start_date": "1925-04-30",
              "end_date": "1940-06-11"
            },
            {
              "name": "Mines de Courrières, act. A 100 fr., t. p.",
              "start_date": "1929-04-20",
              "end_date": "1940-06-11"
            },
            {
              "name": "Mines de Courrières, act. 100 fr., t. p.(c.1att.) (nos 1 à 1080000 et 1100001 à 2200000) (titres nouveaux teinte verte)",
              "start_date": "1932-07-04",
              "end_date": "1940-08-07"
            },
            {
              "name": "Mines de Courrières, a. 100 f., t.p. (sans val.)",
              "start_date": "1932-07-06",
              "end_date": "1945-07-30"
            },
            {
              "name": "Mines de Courrières, act. 200 fr., t.p.",
              "start_date": "1932-07-06",
              "end_date": "3999-12-31"
            }
          ]
        },
        "158410": {
          "id": 158410,
          "sector_id": 103,
          "start_date": "1921-02-01",
          "end_date": "1923-06-18",
          "names": [
            {
              "name": "Mines [de houille] de Courrières, act. 100fr., t.p.",
              "start_date": "1901-04-27",
              "end_date": "1923-06-18"
            },
            {
              "name": "Mines de Courrières, act. 100 fr., t.p.",
              "start_date": "1914-12-15",
              "end_date": "1923-06-18"
            },
            {
              "name": "Mines de Courrières, act. 100 fr., t.p.",
              "start_date": "1921-01-31",
              "end_date": "1923-06-18"
            },
            {
              "name": "Mines de Houille de Courrières, act. 100 fr., t. p. (A TERME)",
              "start_date": "1921-02-01",
              "end_date": "1925-04-30"
            },
            {
              "name": "Mines de Courrières, act. 100 fr., t. p.",
              "start_date": "1921-02-01",
              "end_date": "1929-04-20"
            },
            {
              "name": "Mines de Courrières, act. A 100 fr., t. p.",
              "start_date": "1921-02-01",
              "end_date": "1932-07-04"
            },
            {
              "name": "Mines de Courrières, act. 100 fr., t. p.(c.1att.) (nos 1 à 1080000 et 1100001 à 2200000) (titres nouveaux teinte verte)",
              "start_date": "1921-02-01",
              "end_date": "1940-08-07"
            },
            {
              "name": "Mines de Courrières, a. 100 f., t.p. (sans val.)",
              "start_date": "1921-02-01",
              "end_date": "1945-07-30"
            },
            {
              "name": "Mines de Courrières, act. 200 fr., t.p.",
              "start_date": "1921-02-01",
              "end_date": "3999-12-31"
            }
          ]
        }
      },
      "forward_prices_stats": {
        "start_date": "1923-07-02",
        "end_date": "1937-12-31"
      },
      "listings_stats": {
        "start_date": "1901-04-27"
      },
      "options_prices_stats": {
        "start_date": "1923-08-16",
        "end_date": "1937-12-31"
      },
      "spot_prices_stats": {
        "start_date": "1901-06-15",
        "end_date": "1949-07-29"
      }
    }
  },
  "prices_count": 5432,
  "name": "Mines de Courrières, act. 100 fr., t. p."
}