{
  "id": 2094,
  "share_type": {
    "id": 2,
    "name": "Bond (Obligation)"
  },
  "issuers": [
    {
      "id": 449,
      "start_date": "1875-12-16",
      "end_date": "3999-12-31",
      "name": "EMPRUNT ESPAGNOL"
    }
  ],
  "types": [
    {
      "start_date": "1875-12-16",
      "end_date": "3999-12-31",
      "id": 1001,
      "name": "Obligation ordinaire ou classique",
      "stock_group": "B"
    }
  ],
  "is_mainstock": 0,
  "prices_period": [
    "1876-01-15",
    "1877-07-31"
  ],
  "stock_exchanges": {
    "1": {
      "id": 1,
      "name": "Paris (Official List)",
      "notations": {
        "3193": {
          "id": 3193,
          "sector_id": 67,
          "start_date": "1875-12-16",
          "end_date": "1877-08-08",
          "names": [
            {
              "name": "Espagne, 3%, Intérieure, Petites coupures, jouissance juillet 1875",
              "start_date": "1875-12-16",
              "end_date": "3999-12-31"
            }
          ]
        }
      },
      "listings_stats": {
        "start_date": "1875-12-16"
      },
      "spot_prices_stats": {
        "start_date": "1876-01-15",
        "end_date": "1877-07-31"
      }
    }
  },
  "prices_count": 42,
  "name": "Espagne, 3%, Intérieure, Petites coupures, jouissance juillet 1875"
}