{
  "id": 19742,
  "share_type": {
    "id": 2,
    "name": "Bond (Obligation)"
  },
  "issuers": [
    {
      "id": 6074,
      "start_date": "1967-05-02",
      "end_date": "3999-12-31",
      "name": "Maison Pascal Valluit et Cie"
    }
  ],
  "types": [
    {
      "start_date": "1967-05-02",
      "end_date": "3999-12-31",
      "id": 1001,
      "name": "Obligation ordinaire ou classique",
      "stock_group": "B"
    }
  ],
  "is_mainstock": 0,
  "prices_period": [
    "1967-05-02",
    "1973-08-31"
  ],
  "stock_exchanges": {
    "1": {
      "id": 1,
      "name": "Paris (Official List)",
      "notations": {
        "150317": {
          "id": 150317,
          "sector_id": 194,
          "start_date": "1967-05-02",
          "end_date": "1973-09-17",
          "names": [
            {
              "name": "Lyon_Bourse Maison Pascal Valluit et Cie 4% 1945. 1947-76",
              "start_date": "1967-05-02",
              "end_date": "1973-09-17"
            },
            {
              "name": "LYON_BOURSE_Maison Pascal Valluit et Cie 4% 1945 de 50 F (Tir. 30/10/72). 1947-76",
              "start_date": "1967-05-02",
              "end_date": "3999-12-31"
            }
          ]
        }
      },
      "listings_stats": {
        "start_date": "1967-05-02"
      },
      "spot_prices_stats": {
        "start_date": "1967-05-02",
        "end_date": "1973-08-31"
      }
    }
  },
  "prices_count": 154,
  "name": "Lyon_Bourse Maison Pascal Valluit et Cie 4% 1945. 1947-76"
}