{
  "id": 40195,
  "share_type": {
    "id": 1,
    "name": "Stock (Action)"
  },
  "issuers": [
    {
      "id": 7046,
      "start_date": "1000-01-01",
      "end_date": "3999-12-31",
      "name": "CHEMIN DE FER DE NEMOURS A MARNIA ET PROLONGEMENTS"
    }
  ],
  "types": [
    {
      "start_date": "1000-01-01",
      "end_date": "3999-12-31",
      "id": 1,
      "name": "UNKNOWN",
      "stock_group": "U"
    }
  ],
  "is_mainstock": 0,
  "prices_period": [
    "1911-03-15",
    "1912-01-15"
  ],
  "stock_exchanges": {
    "1": {
      "id": 1,
      "name": "Paris (Official List)",
      "notations": {
        "155196": {
          "id": 155196,
          "sector_id": 119,
          "start_date": "1911-03-04",
          "end_date": "1913-12-27",
          "names": [
            {
              "name": "Nemours à Marnia et prolongements (Chemin de fer de)",
              "start_date": "1892-05-05",
              "end_date": "1920-01-02"
            }
          ]
        }
      },
      "listings_stats": {
        "start_date": "1911-03-04"
      },
      "spot_prices_stats": {
        "start_date": "1911-03-15",
        "end_date": "1912-01-15"
      }
    }
  },
  "prices_count": 18,
  "name": "Nemours à Marnia et prolongements (Chemin de fer de)"
}