{
  "id": 5868,
  "share_type": {
    "id": 1,
    "name": "Stock (Action)"
  },
  "issuers": [
    {
      "id": 2359,
      "start_date": "1910-06-15",
      "end_date": "3999-12-31",
      "name": "COMPAGNIE DES AUTOS-FIACRES"
    }
  ],
  "types": [
    {
      "start_date": "1910-06-15",
      "end_date": "3999-12-31",
      "id": 18,
      "name": "Action",
      "stock_group": "S"
    }
  ],
  "is_mainstock": 1,
  "prices_period": [
    "1910-06-15",
    "1915-03-01"
  ],
  "stock_exchanges": {
    "1": {
      "id": 1,
      "name": "Paris (Official List)",
      "notations": {
        "8273": {
          "id": 8273,
          "sector_id": 105,
          "start_date": "1910-06-15",
          "end_date": "1914-08-03",
          "names": [
            {
              "name": "Autos-Fiacres, act. 100 fr., t.p.",
              "start_date": "1910-06-15",
              "end_date": "3999-12-31"
            }
          ]
        },
        "10146": {
          "id": 10146,
          "sector_id": 105,
          "start_date": "1914-12-15",
          "end_date": "1915-03-15",
          "names": [
            {
              "name": "Autos-Fiacres, act. 100 fr., t.p.",
              "start_date": "1910-06-15",
              "end_date": "3999-12-31"
            }
          ]
        }
      },
      "listings_stats": {
        "start_date": "1910-06-15"
      },
      "spot_prices_stats": {
        "start_date": "1910-06-15",
        "end_date": "1915-03-01"
      }
    }
  },
  "prices_count": 135,
  "name": "Autos-Fiacres, act. 100 fr., t.p."
}