{
  "id": 101224,
  "share_type": {
    "id": 4,
    "name": "Rights (Droits)"
  },
  "issuers": [
    {
      "id": 3565,
      "start_date": "1950-10-12",
      "end_date": "3999-12-31",
      "name": "L'HYDRO-ENERGIE"
    }
  ],
  "types": [
    {
      "start_date": "1950-10-12",
      "end_date": "3999-12-31",
      "id": 501,
      "name": "Droit de souscription",
      "stock_group": "R"
    }
  ],
  "is_mainstock": 0,
  "prices_period": [
    "1950-10-12",
    "1950-10-12"
  ],
  "stock_exchanges": {
    "1": {
      "id": 1,
      "name": "Paris (Official List)",
      "notations": {
        "201369": {
          "id": 201369,
          "sector_id": 657,
          "start_date": "1950-10-12",
          "end_date": "4000-01-01",
          "names": [
            {
              "name": "Act. De jouiss. Hydro-Energie (droit et coupon 23) (1 act. Nouv. 2500 fr. émise à 2500 fr., jce 1/1/51, pour 30 actions de jouissance)",
              "start_date": "1950-10-12",
              "end_date": "4000-01-01"
            }
          ]
        }
      },
      "listings_stats": {
        "start_date": "1950-10-12"
      },
      "spot_prices_stats": {
        "start_date": "1950-10-12",
        "end_date": "1950-10-12"
      }
    }
  },
  "prices_count": 1,
  "name": "Act. De jouiss. Hydro-Energie (droit et coupon 23) (1 act. Nouv. 2500 fr. émise à 2500 fr., jce 1/1/51, pour 30 actions de jouissance)"
}