{
  "id": 8200,
  "share_type": {
    "id": 1,
    "name": "Stock (Action)"
  },
  "issuers": [
    {
      "id": 4510,
      "start_date": "1925-06-15",
      "end_date": "3999-12-31",
      "name": "SOCIETE FRANÇAISE DES MINES D'ETAIN DE TEKKAH"
    }
  ],
  "types": [
    {
      "start_date": "1925-06-15",
      "end_date": "3999-12-31",
      "id": 21,
      "name": "Part de fondateur",
      "stock_group": "S"
    }
  ],
  "is_mainstock": 0,
  "prices_period": [
    "1925-06-15",
    "1962-03-15"
  ],
  "stock_exchanges": {
    "1": {
      "id": 1,
      "name": "Paris (Official List)",
      "notations": {
        "21112": {
          "id": 21112,
          "sector_id": 134,
          "start_date": "1941-10-15",
          "end_date": "1955-12-01",
          "names": [
            {
              "name": "Tekkah (Sté Fse des Mines d'Etain de), Parts de fondateur",
              "start_date": "1925-06-15",
              "end_date": "1955-12-01"
            },
            {
              "name": "Tekkah (Sté Française des Mines d'Etain de), parts de fond.",
              "start_date": "1941-10-15",
              "end_date": "1962-04-02"
            },
            {
              "name": "Tekkah (Française des Mines d'Etains du) (en liq.), part de fondateur",
              "start_date": "1941-10-15",
              "end_date": "3999-12-31"
            }
          ]
        },
        "26129": {
          "id": 26129,
          "sector_id": 410,
          "start_date": "1955-12-01",
          "end_date": "1961-12-30",
          "names": [
            {
              "name": "Tekkah (Sté Fse des Mines d'Etain de), Parts de fondateur",
              "start_date": "1925-06-15",
              "end_date": "1961-12-30"
            },
            {
              "name": "Tekkah (Sté Française des Mines d'Etain de), parts de fond.",
              "start_date": "1941-10-15",
              "end_date": "1962-04-02"
            },
            {
              "name": "Tekkah (Française des Mines d'Etains du) (en liq.), part de fondateur",
              "start_date": "1955-12-01",
              "end_date": "3999-12-31"
            }
          ]
        },
        "28110": {
          "id": 28110,
          "sector_id": 409,
          "start_date": "1961-12-30",
          "end_date": "1962-04-02",
          "names": [
            {
              "name": "Tekkah (Sté Fse des Mines d'Etain de), Parts de fondateur",
              "start_date": "1925-06-15",
              "end_date": "1962-04-02"
            },
            {
              "name": "Tekkah (Sté Française des Mines d'Etain de), parts de fond.",
              "start_date": "1941-10-15",
              "end_date": "1962-04-02"
            },
            {
              "name": "Tekkah (Française des Mines d'Etains du) (en liq.), part de fondateur",
              "start_date": "1961-12-30",
              "end_date": "3999-12-31"
            }
          ]
        },
        "135647": {
          "id": 135647,
          "sector_id": 134,
          "start_date": "1925-06-15",
          "end_date": "1940-06-11",
          "names": [
            {
              "name": "Tekkah (Sté Fse des Mines d'Etain de), Parts de fondateur",
              "start_date": "1925-06-15",
              "end_date": "1941-10-15"
            },
            {
              "name": "Tekkah (Sté Française des Mines d'Etain de), parts de fond.",
              "start_date": "1925-06-15",
              "end_date": "1962-04-02"
            },
            {
              "name": "Tekkah (Française des Mines d'Etains du) (en liq.), part de fondateur",
              "start_date": "1925-06-15",
              "end_date": "3999-12-31"
            }
          ]
        }
      },
      "listings_stats": {
        "start_date": "1925-06-15"
      },
      "spot_prices_stats": {
        "start_date": "1925-06-15",
        "end_date": "1962-03-15"
      }
    }
  },
  "prices_count": 1170,
  "name": "Tekkah (Sté Fse des Mines d'Etain de), Parts de fondateur"
}