{
  "id": 21340,
  "share_type": {
    "id": 2,
    "name": "Bond (Obligation)"
  },
  "issuers": [
    {
      "id": 5728,
      "start_date": "1974-03-25",
      "end_date": "3999-12-31",
      "name": "Costimex"
    }
  ],
  "types": [
    {
      "start_date": "1974-03-25",
      "end_date": "3999-12-31",
      "id": 1002,
      "name": "Obligation convertible",
      "stock_group": "B"
    }
  ],
  "is_mainstock": 0,
  "prices_period": [
    "1974-03-26",
    "1976-12-31"
  ],
  "stock_exchanges": {
    "1": {
      "id": 1,
      "name": "Paris (Official List)",
      "notations": {
        "151909": {
          "id": 151909,
          "sector_id": 429,
          "start_date": "1974-03-25",
          "end_date": "3999-12-31",
          "names": [
            {
              "name": "Nancy_Bourse Costimex 8% 1974 de 100F, conv. En act. À tout moment à partir du 1/1/75 (1 act. Pour 1 obl.) remb. À 120F à partir du 1/1/79 (avis 73-1034 et 74-236) Remb. Le 1/1/86",
              "start_date": "1974-03-25",
              "end_date": "3999-12-31"
            }
          ]
        }
      },
      "listings_stats": {
        "start_date": "1974-03-25"
      },
      "spot_prices_stats": {
        "start_date": "1974-03-26",
        "end_date": "1976-12-31"
      }
    }
  },
  "prices_count": 68,
  "name": "Nancy_Bourse Costimex 8% 1974 de 100F, conv. En act. À tout moment à partir du 1/1/75 (1 act. Pour 1 obl.) remb. À 120F à partir du 1/1/79 (avis 73-1034 et 74-236) Remb. Le 1/1/86"
}