{
  "id": 9053,
  "share_type": {
    "id": 2,
    "name": "Bond (Obligation)"
  },
  "issuers": [
    {
      "id": 5048,
      "start_date": "1930-07-07",
      "end_date": "3999-12-31",
      "name": "FORGES ET ACIERIES DE DILLING"
    }
  ],
  "types": [
    {
      "start_date": "1930-07-07",
      "end_date": "3999-12-31",
      "id": 1001,
      "name": "Obligation ordinaire ou classique",
      "stock_group": "B"
    }
  ],
  "is_mainstock": 0,
  "prices_period": [
    "1930-07-07",
    "1940-06-10"
  ],
  "stock_exchanges": {
    "1": {
      "id": 1,
      "name": "Paris (Official List)",
      "notations": {
        "136500": {
          "id": 136500,
          "sector_id": 133,
          "start_date": "1930-07-07",
          "end_date": "1940-06-11",
          "names": [
            {
              "name": "Forges et Aciéries de Dilling 5,5% 1929, remb. à 1000 fr.",
              "start_date": "1930-07-07",
              "end_date": "3999-12-31"
            }
          ]
        }
      },
      "listings_stats": {
        "start_date": "1930-07-07"
      },
      "spot_prices_stats": {
        "start_date": "1930-07-07",
        "end_date": "1940-06-10"
      }
    }
  },
  "prices_count": 257,
  "name": "Forges et Aciéries de Dilling 5,5% 1929, remb. à 1000 fr."
}