{
  "id": 13688,
  "share_type": {
    "id": 1,
    "name": "Stock (Action)"
  },
  "issuers": [
    {
      "id": 4138,
      "start_date": "1950-05-19",
      "end_date": "3999-12-31",
      "name": "USINES ET ACIERIES DE SAMBRE-ET-MEUSE"
    }
  ],
  "types": [
    {
      "start_date": "1950-05-19",
      "end_date": "3999-12-31",
      "id": 18,
      "name": "Action",
      "stock_group": "S"
    }
  ],
  "is_mainstock": 0,
  "prices_period": [
    "1950-09-15",
    "1953-04-30"
  ],
  "stock_exchanges": {
    "1": {
      "id": 1,
      "name": "Paris (Official List)",
      "notations": {
        "144263": {
          "id": 144263,
          "sector_id": 104,
          "start_date": "1950-05-19",
          "end_date": "1953-05-11",
          "names": [
            {
              "name": "Aciéries de Sambre-et-Meuse (Usines et), actions 2500 fr., 1750 fr. payés (n°s 176001 à 264000) (nom.)",
              "start_date": "1950-05-19",
              "end_date": "1953-05-11"
            },
            {
              "name": "Aciéries Sambre-et-Meuse, act. 2500 fr., t.p. (lib. En 1952) (n° 176001 à 264000)",
              "start_date": "1950-05-19",
              "end_date": "3999-12-31"
            }
          ]
        }
      },
      "listings_stats": {
        "start_date": "1950-05-19"
      },
      "spot_prices_stats": {
        "start_date": "1950-09-15",
        "end_date": "1953-04-30"
      }
    }
  },
  "prices_count": 63,
  "name": "Aciéries Sambre-et-Meuse, act. 2500 fr., t.p. (lib. En 1952) (n° 176001 à 264000)"
}