{
  "id": 7967,
  "share_type": {
    "id": 1,
    "name": "Stock (Action)"
  },
  "issuers": [
    {
      "id": 3003,
      "start_date": "1925-04-14",
      "end_date": "3999-12-31",
      "name": "SOCIETE DES GRANDS TRAVAUX DE MARSEILLE"
    }
  ],
  "types": [
    {
      "start_date": "1925-04-14",
      "end_date": "3999-12-31",
      "id": 18,
      "name": "Action",
      "stock_group": "S"
    }
  ],
  "is_mainstock": 0,
  "prices_period": [
    "1925-04-14",
    "1925-05-15"
  ],
  "stock_exchanges": {
    "1": {
      "id": 1,
      "name": "Paris (Official List)",
      "notations": {
        "34837": {
          "id": 34837,
          "sector_id": 182,
          "start_date": "1925-04-14",
          "end_date": "1925-05-29",
          "names": [
            {
              "name": "Grands Travaux de Marseille, Act. 500 fr., t. p. (nos 48001 à 60000)",
              "start_date": "1925-04-14",
              "end_date": "3999-12-31"
            }
          ]
        }
      },
      "listings_stats": {
        "start_date": "1925-04-14"
      },
      "spot_prices_stats": {
        "start_date": "1925-04-14",
        "end_date": "1925-05-15"
      }
    }
  },
  "prices_count": 4,
  "name": "Grands Travaux de Marseille, Act. 500 fr., t. p. (nos 48001 à 60000)"
}