{
  "id": 18200,
  "share_type": {
    "id": 1,
    "name": "Stock (Action)"
  },
  "issuers": [
    {
      "id": 5542,
      "start_date": "1964-06-22",
      "end_date": "3999-12-31",
      "name": "Routière Colas"
    }
  ],
  "types": [
    {
      "start_date": "1964-06-22",
      "end_date": "3999-12-31",
      "id": 27,
      "name": "Promesse d'action",
      "stock_group": "S"
    }
  ],
  "is_mainstock": 0,
  "prices_period": [
    "1964-06-22",
    "1964-09-30"
  ],
  "stock_exchanges": {
    "1": {
      "id": 1,
      "name": "Paris (Official List)",
      "notations": {
        "148775": {
          "id": 148775,
          "sector_id": 338,
          "start_date": "1964-06-22",
          "end_date": "1964-10-01",
          "names": [
            {
              "name": "Routière Colas, Promesses (Jce 1/1/64)",
              "start_date": "1964-06-22",
              "end_date": "3999-12-31"
            }
          ]
        }
      },
      "listings_stats": {
        "start_date": "1964-06-22"
      },
      "spot_prices_stats": {
        "start_date": "1964-06-22",
        "end_date": "1964-09-30"
      }
    }
  },
  "prices_count": 8,
  "name": "Routière Colas, Promesses (Jce 1/1/64)"
}