{
  "id": 12991,
  "share_type": {
    "id": 2,
    "name": "Bond (Obligation)"
  },
  "issuers": [
    {
      "id": 2095,
      "start_date": "1948-11-30",
      "end_date": "3999-12-31",
      "name": "Uclaf (Usines Chimiques des Laboratoires Français)"
    }
  ],
  "types": [
    {
      "start_date": "1948-11-30",
      "end_date": "3999-12-31",
      "id": 1001,
      "name": "Obligation ordinaire ou classique",
      "stock_group": "B"
    }
  ],
  "is_mainstock": 0,
  "prices_period": [
    "1948-12-01",
    "1955-09-30"
  ],
  "stock_exchanges": {
    "1": {
      "id": 1,
      "name": "Paris (Official List)",
      "notations": {
        "143566": {
          "id": 143566,
          "sector_id": 247,
          "start_date": "1948-11-30",
          "end_date": "1955-10-17",
          "names": [
            {
              "name": "Usines Chimiques des Laboratoires Français (U.C.L.A.F.) 4,25% 1944, r. à 2000 f. (Jce 15/10/48) 1945-69",
              "start_date": "1948-11-30",
              "end_date": "1955-10-17"
            },
            {
              "name": "UCLAF 4,25% 44, r. 2000 fr. (n°s 10001 à 16762). Le 15/10/55",
              "start_date": "1948-11-30",
              "end_date": "3999-12-31"
            }
          ]
        }
      },
      "listings_stats": {
        "start_date": "1948-11-30"
      },
      "spot_prices_stats": {
        "start_date": "1948-12-01",
        "end_date": "1955-09-30"
      }
    }
  },
  "prices_count": 162,
  "name": "UCLAF 4,25% 44, r. 2000 fr. (n°s 10001 à 16762). Le 15/10/55"
}