{
  "id": 12214,
  "share_type": {
    "id": 2,
    "name": "Bond (Obligation)"
  },
  "issuers": [
    {
      "id": 3494,
      "start_date": "1946-04-30",
      "end_date": "3999-12-31",
      "name": "COMPAGNIE NATIONALE DU RHONE"
    }
  ],
  "types": [
    {
      "start_date": "1946-04-30",
      "end_date": "3999-12-31",
      "id": 1001,
      "name": "Obligation ordinaire ou classique",
      "stock_group": "B"
    }
  ],
  "is_mainstock": 0,
  "prices_period": [
    "1946-04-30",
    "1976-12-31"
  ],
  "stock_exchanges": {
    "1": {
      "id": 1,
      "name": "Paris (Official List)",
      "notations": {
        "25366": {
          "id": 25366,
          "sector_id": 326,
          "start_date": "1955-12-01",
          "end_date": "1960-01-09",
          "names": [
            {
              "name": "Nationale du Rhône 3,5% 1945, r. à 10000 f. (Jce 15/10/45) (Cf. Avis n° 22093) 1951-95",
              "start_date": "1946-04-30",
              "end_date": "1960-01-09"
            },
            {
              "name": "Nationale du Rhône 3,5% 1945 (Rachats ou Tirages) (Cf Avis n° 22093) E 1951-95",
              "start_date": "1955-12-01",
              "end_date": "1963-03-04"
            },
            {
              "name": "Nationale du Rhône 3,5% 1945 (R. ou T.) (Avis 22093) 1951-95",
              "start_date": "1955-12-01",
              "end_date": "1973-07-31"
            },
            {
              "name": "Nationale du Rhône 3,50% 1945 de 100 F (n° 25001 à 45440) (Rach. Ou Tir.) (Avis 22093). 1951-95",
              "start_date": "1955-12-01",
              "end_date": "3999-12-31"
            }
          ]
        },
        "29164": {
          "id": 29164,
          "sector_id": 60,
          "start_date": "1960-01-09",
          "end_date": "1963-03-04",
          "names": [
            {
              "name": "Nationale du Rhône 3,5% 1945, r. à 10000 f. (Jce 15/10/45) (Cf. Avis n° 22093) 1951-95",
              "start_date": "1946-04-30",
              "end_date": "1963-03-04"
            },
            {
              "name": "Nationale du Rhône 3,5% 1945 (Rachats ou Tirages) (Cf Avis n° 22093) E 1951-95",
              "start_date": "1955-12-01",
              "end_date": "1963-03-04"
            },
            {
              "name": "Nationale du Rhône 3,5% 1945 (R. ou T.) (Avis 22093) 1951-95",
              "start_date": "1960-01-09",
              "end_date": "1973-07-31"
            },
            {
              "name": "Nationale du Rhône 3,50% 1945 de 100 F (n° 25001 à 45440) (Rach. Ou Tir.) (Avis 22093). 1951-95",
              "start_date": "1960-01-09",
              "end_date": "3999-12-31"
            }
          ]
        },
        "29342": {
          "id": 29342,
          "sector_id": 59,
          "start_date": "1963-03-04",
          "end_date": "1973-07-31",
          "names": [
            {
              "name": "Nationale du Rhône 3,5% 1945, r. à 10000 f. (Jce 15/10/45) (Cf. Avis n° 22093) 1951-95",
              "start_date": "1946-04-30",
              "end_date": "1973-07-31"
            },
            {
              "name": "Nationale du Rhône 3,5% 1945 (Rachats ou Tirages) (Cf Avis n° 22093) E 1951-95",
              "start_date": "1955-12-01",
              "end_date": "1973-07-31"
            },
            {
              "name": "Nationale du Rhône 3,5% 1945 (R. ou T.) (Avis 22093) 1951-95",
              "start_date": "1963-03-04",
              "end_date": "1973-07-31"
            },
            {
              "name": "Nationale du Rhône 3,50% 1945 de 100 F (n° 25001 à 45440) (Rach. Ou Tir.) (Avis 22093). 1951-95",
              "start_date": "1963-03-04",
              "end_date": "3999-12-31"
            }
          ]
        },
        "100072": {
          "id": 100072,
          "sector_id": 622,
          "start_date": "1973-07-31",
          "end_date": "3999-12-31",
          "names": [
            {
              "name": "Nationale du Rhône 3,5% 1945, r. à 10000 f. (Jce 15/10/45) (Cf. Avis n° 22093) 1951-95",
              "start_date": "1946-04-30",
              "end_date": "3999-12-31"
            },
            {
              "name": "Nationale du Rhône 3,5% 1945 (Rachats ou Tirages) (Cf Avis n° 22093) E 1951-95",
              "start_date": "1955-12-01",
              "end_date": "3999-12-31"
            },
            {
              "name": "Nationale du Rhône 3,5% 1945 (R. ou T.) (Avis 22093) 1951-95",
              "start_date": "1963-03-04",
              "end_date": "3999-12-31"
            },
            {
              "name": "Nationale du Rhône 3,50% 1945 de 100 F (n° 25001 à 45440) (Rach. Ou Tir.) (Avis 22093). 1951-95",
              "start_date": "1973-07-31",
              "end_date": "3999-12-31"
            }
          ]
        },
        "142789": {
          "id": 142789,
          "sector_id": 117,
          "start_date": "1946-04-30",
          "end_date": "1955-12-01",
          "names": [
            {
              "name": "Nationale du Rhône 3,5% 1945, r. à 10000 f. (Jce 15/10/45) (Cf. Avis n° 22093) 1951-95",
              "start_date": "1946-04-30",
              "end_date": "1955-12-01"
            },
            {
              "name": "Nationale du Rhône 3,5% 1945 (Rachats ou Tirages) (Cf Avis n° 22093) E 1951-95",
              "start_date": "1946-04-30",
              "end_date": "1963-03-04"
            },
            {
              "name": "Nationale du Rhône 3,5% 1945 (R. ou T.) (Avis 22093) 1951-95",
              "start_date": "1946-04-30",
              "end_date": "1973-07-31"
            },
            {
              "name": "Nationale du Rhône 3,50% 1945 de 100 F (n° 25001 à 45440) (Rach. Ou Tir.) (Avis 22093). 1951-95",
              "start_date": "1946-04-30",
              "end_date": "3999-12-31"
            }
          ]
        }
      },
      "listings_stats": {
        "start_date": "1946-04-30"
      },
      "spot_prices_stats": {
        "start_date": "1946-04-30",
        "end_date": "1976-12-31"
      }
    }
  },
  "prices_count": 751,
  "name": "Nationale du Rhône 3,5% 1945 (R. ou T.) (Avis 22093) 1951-95"
}