{
  "id": 15848,
  "share_type": {
    "id": 1,
    "name": "Stock (Action)"
  },
  "issuers": [
    {
      "id": 4553,
      "start_date": "1959-04-22",
      "end_date": "3999-12-31",
      "name": "Société Française d'Investissements Pétroliers"
    }
  ],
  "types": [
    {
      "start_date": "1959-04-22",
      "end_date": "3999-12-31",
      "id": 27,
      "name": "Promesse d'action",
      "stock_group": "S"
    }
  ],
  "is_mainstock": 0,
  "prices_period": [
    "1959-04-22",
    "1959-06-15"
  ],
  "stock_exchanges": {
    "1": {
      "id": 1,
      "name": "Paris (Official List)",
      "notations": {
        "146423": {
          "id": 146423,
          "sector_id": 383,
          "start_date": "1959-04-22",
          "end_date": "1959-06-18",
          "names": [
            {
              "name": "Investissements petroliers, promesses (jce 1/3/59)",
              "start_date": "1959-04-22",
              "end_date": "3999-12-31"
            }
          ]
        }
      },
      "listings_stats": {
        "start_date": "1959-04-22"
      },
      "spot_prices_stats": {
        "start_date": "1959-04-22",
        "end_date": "1959-06-15"
      }
    }
  },
  "prices_count": 6,
  "name": "Investissements petroliers, promesses (jce 1/3/59)"
}