{
  "id": 251,
  "share_type": {
    "id": 2,
    "name": "Bond (Obligation)"
  },
  "issuers": [
    {
      "id": 468,
      "start_date": "1834-01-20",
      "end_date": "3999-12-31",
      "name": "EMPRUNTS HELLENIQUES"
    }
  ],
  "types": [
    {
      "start_date": "1834-01-20",
      "end_date": "3999-12-31",
      "id": 1012,
      "name": "Certificat de l'Emprunt",
      "stock_group": "B"
    }
  ],
  "is_mainstock": 0,
  "prices_period": [
    null,
    null
  ],
  "stock_exchanges": {
    "1": {
      "id": 1,
      "name": "Paris (Official List)",
      "notations": {
        "350": {
          "id": 350,
          "sector_id": 67,
          "start_date": "1834-01-20",
          "end_date": "1844-05-20",
          "names": [
            {
              "name": "Emprunt Grec certificats russe",
              "start_date": "1834-01-20",
              "end_date": "1844-05-20"
            },
            {
              "name": "Emp. Grec, jouiss de sept 1843, certif. russe",
              "start_date": "1834-01-20",
              "end_date": "1850-12-31"
            },
            {
              "name": "Emp. Grec, jouiss de sept, certif. russe",
              "start_date": "1834-01-20",
              "end_date": "3999-12-31"
            }
          ]
        },
        "421": {
          "id": 421,
          "sector_id": 74,
          "start_date": "1844-05-20",
          "end_date": "1852-04-26",
          "names": [
            {
              "name": "Emprunt Grec certificats russe",
              "start_date": "1834-01-20",
              "end_date": "1852-04-26"
            },
            {
              "name": "Emp. Grec, jouiss de sept 1843, certif. russe",
              "start_date": "1844-05-20",
              "end_date": "1852-04-26"
            },
            {
              "name": "Emp. Grec, jouiss de sept, certif. russe",
              "start_date": "1844-05-20",
              "end_date": "3999-12-31"
            }
          ]
        }
      },
      "listings_stats": {
        "start_date": "1834-01-20"
      }
    }
  },
  "prices_count": 0,
  "name": "Emp. Grec, jouiss de sept, certif. russe"
}