{
  "id": 105560,
  "share_type": {
    "id": 1,
    "name": "Stock (Action)"
  },
  "issuers": [
    {
      "id": 3149,
      "start_date": "1897-11-30",
      "end_date": "1898-12-31",
      "name": "LOUVROIL ET RECOUIGNIES Société française pour la fabrication des tubes et emboutis)"
    }
  ],
  "types": [
    {
      "start_date": "1897-11-30",
      "end_date": "1898-12-31",
      "id": 18,
      "name": "Action",
      "stock_group": "S"
    }
  ],
  "is_mainstock": 0,
  "prices_period": [
    "1897-11-30",
    "1898-12-31"
  ],
  "stock_exchanges": {
    "2": {
      "id": 2,
      "name": "Paris OTC (Coulisse)",
      "notations": {
        "206422": {
          "id": 206422,
          "sector_id": 667,
          "start_date": "1897-11-30",
          "end_date": "1898-12-31",
          "names": [
            {
              "name": "Tubes a Louvroil (Comp. franc. Des) ex-c. 7",
              "start_date": "1897-11-30",
              "end_date": "1898-12-31"
            },
            {
              "name": "TUBES A LOUVROIL (Société française des)",
              "start_date": "1897-11-30",
              "end_date": "1899-01-16"
            }
          ]
        },
        "207788": {
          "id": 207788,
          "sector_id": 682,
          "start_date": "1899-01-16",
          "end_date": "1899-01-16",
          "names": [
            {
              "name": "Tubes a Louvroil (Comp. franc. Des) ex-c. 7",
              "start_date": "1897-11-30",
              "end_date": "1899-01-16"
            },
            {
              "name": "TUBES A LOUVROIL (Société française des)",
              "start_date": "1899-01-16",
              "end_date": "1899-01-16"
            }
          ]
        }
      },
      "listings_stats": {
        "start_date": "1897-11-30"
      },
      "spot_prices_stats": {
        "start_date": "1897-11-30",
        "end_date": "1898-12-31"
      }
    }
  },
  "prices_count": 31,
  "name": "TUBES A LOUVROIL (Société française des)"
}