{
  "id": 106673,
  "share_type": {
    "id": 1,
    "name": "Stock (Action)"
  },
  "issuers": [
    {
      "id": 2892,
      "start_date": "1899-04-12",
      "end_date": "1899-04-12",
      "name": "UNION CORPORATION, LIMITED (Anciennement A. GOERZ AND COMPANY, LIMITED)"
    }
  ],
  "types": [
    {
      "start_date": "1899-04-12",
      "end_date": "1899-04-12",
      "id": 18,
      "name": "Action",
      "stock_group": "S"
    }
  ],
  "is_mainstock": 0,
  "prices_period": [
    null,
    null
  ],
  "stock_exchanges": {
    "2": {
      "id": 2,
      "name": "Paris OTC (Coulisse)",
      "notations": {
        "208012": {
          "id": 208012,
          "sector_id": 684,
          "start_date": "1899-04-12",
          "end_date": "1899-04-12",
          "names": [
            {
              "name": "GOERZ (A.) et Cie Limited (Société)",
              "start_date": "1899-04-12",
              "end_date": "1899-04-12"
            }
          ]
        }
      },
      "listings_stats": {
        "start_date": "1899-04-12"
      }
    }
  },
  "prices_count": 0,
  "name": "GOERZ (A.) et Cie Limited (Société)"
}