{
  "id": 100478,
  "share_type": {
    "id": 4,
    "name": "Rights (Droits)"
  },
  "issuers": [
    {
      "id": 5125,
      "start_date": "1945-09-13",
      "end_date": "3999-12-31",
      "name": "ELECTRO-CABLE"
    }
  ],
  "types": [
    {
      "start_date": "1945-09-13",
      "end_date": "3999-12-31",
      "id": 502,
      "name": "Droit d'attribution",
      "stock_group": "R"
    }
  ],
  "is_mainstock": 0,
  "prices_period": [
    "1945-09-13",
    "1945-09-13"
  ],
  "stock_exchanges": {
    "1": {
      "id": 1,
      "name": "Paris (Official List)",
      "notations": {
        "200509": {
          "id": 200509,
          "sector_id": 658,
          "start_date": "1945-09-13",
          "end_date": "4000-01-01",
          "names": [
            {
              "name": "Act. 1 à 72000. Electro-Câble (droit et coupon 6 ou bon de droit)",
              "start_date": "1945-09-13",
              "end_date": "4000-01-01"
            }
          ]
        }
      },
      "listings_stats": {
        "start_date": "1945-09-13"
      },
      "spot_prices_stats": {
        "start_date": "1945-09-13",
        "end_date": "1945-09-13"
      }
    }
  },
  "prices_count": 1,
  "name": "Act. 1 à 72000. Electro-Câble (droit et coupon 6 ou bon de droit)"
}