{
  "id": 51605,
  "share_type": {
    "id": 1,
    "name": "Stock (Action)"
  },
  "issuers": [
    {
      "id": 2804,
      "start_date": "1894-06-14",
      "end_date": "1898-12-31",
      "name": "Luipaard's Vlei Estate and Gold Mining Company, Ld"
    }
  ],
  "types": [
    {
      "start_date": "1894-06-14",
      "end_date": "1898-12-31",
      "id": 18,
      "name": "Action",
      "stock_group": "S"
    }
  ],
  "is_mainstock": 1,
  "prices_period": [
    "1894-06-14",
    "1898-12-31"
  ],
  "stock_exchanges": {
    "2": {
      "id": 2,
      "name": "Paris OTC (Coulisse)",
      "notations": {
        "157528": {
          "id": 157528,
          "sector_id": 669,
          "start_date": "1894-06-14",
          "end_date": "1898-12-31",
          "names": [
            {
              "name": "Langlaagte Estate Gold Mining Cy",
              "start_date": "1894-06-14",
              "end_date": "1898-12-31"
            },
            {
              "name": "LANGLAAGTE ESTATE",
              "start_date": "1894-06-14",
              "end_date": "1899-01-16"
            }
          ]
        },
        "207845": {
          "id": 207845,
          "sector_id": 684,
          "start_date": "1899-01-16",
          "end_date": "1899-01-16",
          "names": [
            {
              "name": "Langlaagte Estate Gold Mining Cy",
              "start_date": "1894-06-14",
              "end_date": "1899-01-16"
            },
            {
              "name": "LANGLAAGTE ESTATE",
              "start_date": "1899-01-16",
              "end_date": "1899-01-16"
            }
          ]
        }
      },
      "listings_stats": {
        "start_date": "1894-06-14"
      },
      "spot_prices_stats": {
        "start_date": "1894-06-14",
        "end_date": "1898-12-31"
      }
    }
  },
  "prices_count": 180,
  "name": "LANGLAAGTE ESTATE"
}