{
  "id": 103707,
  "share_type": {
    "id": 4,
    "name": "Rights (Droits)"
  },
  "issuers": [
    {
      "id": 2338,
      "start_date": "1949-10-24",
      "end_date": "3999-12-31",
      "name": "La Confience (Incendie)"
    }
  ],
  "types": [
    {
      "start_date": "1949-10-24",
      "end_date": "3999-12-31",
      "id": 502,
      "name": "Droit d'attribution",
      "stock_group": "R"
    }
  ],
  "is_mainstock": 0,
  "prices_period": [
    "1949-11-03",
    "1949-11-03"
  ],
  "stock_exchanges": {
    "1": {
      "id": 1,
      "name": "Paris (Official List)",
      "notations": {
        "203889": {
          "id": 203889,
          "sector_id": 658,
          "start_date": "1949-10-24",
          "end_date": "4000-01-01",
          "names": [
            {
              "name": "La Confiance (Incendie) (bon de droit) (1 action nouvelle pour 3 actions anciennes)",
              "start_date": "1949-10-24",
              "end_date": "4000-01-01"
            }
          ]
        }
      },
      "listings_stats": {
        "start_date": "1949-10-24"
      },
      "spot_prices_stats": {
        "start_date": "1949-11-03",
        "end_date": "1949-11-03"
      }
    }
  },
  "prices_count": 1,
  "name": "La Confiance (Incendie) (bon de droit) (1 action nouvelle pour 3 actions anciennes)"
}