{
  "id": 5346,
  "share_type": {
    "id": 1,
    "name": "Stock (Action)"
  },
  "issuers": [
    {
      "id": 2391,
      "start_date": "1906-04-05",
      "end_date": "3999-12-31",
      "name": "BANQUE D'ATHENES"
    }
  ],
  "types": [
    {
      "start_date": "1906-04-05",
      "end_date": "1913-05-15",
      "id": 11,
      "name": "Action ordinaire",
      "stock_group": "S"
    },
    {
      "start_date": "1913-05-15",
      "end_date": "1921-01-12",
      "id": 11,
      "name": "Action ordinaire",
      "stock_group": "S"
    },
    {
      "start_date": "1921-01-12",
      "end_date": "1929-12-09",
      "id": 11,
      "name": "Action ordinaire",
      "stock_group": "S"
    },
    {
      "start_date": "1929-12-09",
      "end_date": "3999-12-31",
      "id": 11,
      "name": "Action ordinaire",
      "stock_group": "S"
    },
    {
      "start_date": "1951-08-13",
      "end_date": "3999-12-31",
      "id": 11,
      "name": "Action ordinaire",
      "stock_group": "S"
    }
  ],
  "is_mainstock": 0,
  "prices_period": [
    "1906-04-05",
    "1958-12-31"
  ],
  "stock_exchanges": {
    "1": {
      "id": 1,
      "name": "Paris (Official List)",
      "notations": {
        "7751": {
          "id": 7751,
          "sector_id": 68,
          "start_date": "1906-04-05",
          "end_date": "1913-05-15",
          "names": [
            {
              "name": "Banque d'Athènes, act. 100 drachmes, tout payé . Coup. de 5",
              "start_date": "1906-04-05",
              "end_date": "1913-05-15"
            },
            {
              "name": "Banque d'Athènes, actions nouvelles 100 drachmes, tout payé (c. 38 att.) Coup. de 5",
              "start_date": "1906-04-05",
              "end_date": "1918-04-02"
            },
            {
              "name": "Banque d'Athènes, act.100 drachmes, t.p., coup.de 5",
              "start_date": "1906-04-05",
              "end_date": "1921-01-11"
            },
            {
              "name": "Banque d'Athènes, act. nouv. de 100 fr, t.p., COUP de 5, titres carmins (ex c 39)",
              "start_date": "1906-04-05",
              "end_date": "1925-05-01"
            },
            {
              "name": "Banque d'Athènes, act. 100 dr., t. p.Coup. de 5 (nos 1 à 240000, 480001 à 540000 et 720001 à 770000)",
              "start_date": "1906-04-05",
              "end_date": "1929-12-08"
            },
            {
              "name": "Banque d'Athènes, a. 100 dr., t.p., coup. de 5 (nos 240001 à 480000, 540001 à 720000 et 770001 à 1008000)",
              "start_date": "1906-04-05",
              "end_date": "1929-12-08"
            },
            {
              "name": "Banque d'Athènes, act. 100 dr., t.p., coup. de 5 (nos 240001 à 480000 et 540001 à 720000)",
              "start_date": "1906-04-05",
              "end_date": "1932-12-09"
            },
            {
              "name": "Banque d'Athènes, act., 100 dr., Coup. de 5 (nos 240001 à 480000, 540001 à 720000 et 770001 à 1008000).",
              "start_date": "1906-04-05",
              "end_date": "1944-10-10"
            },
            {
              "name": "Banque d'Athènes, act. 100 dr., t. p. Coup. De 5 (n°s 240001 à 480000, 540001 à 720000 et 770001 à 1008000)",
              "start_date": "1906-04-05",
              "end_date": "1951-08-12"
            },
            {
              "name": "Banque d'Athènes, Coup. De 5",
              "start_date": "1906-04-05",
              "end_date": "1955-12-01"
            },
            {
              "name": "Banque d'Athènes. Act. 1000 dr. (nom) Coup de 5",
              "start_date": "1906-04-05",
              "end_date": "3999-12-31"
            }
          ]
        },
        "8814": {
          "id": 8814,
          "sector_id": 68,
          "start_date": "1914-12-15",
          "end_date": "1920-01-02",
          "names": [
            {
              "name": "Banque d'Athènes, act. 100 drachmes, tout payé . Coup. de 5",
              "start_date": "1906-04-05",
              "end_date": "1920-01-02"
            },
            {
              "name": "Banque d'Athènes, actions nouvelles 100 drachmes, tout payé (c. 38 att.) Coup. de 5",
              "start_date": "1913-05-15",
              "end_date": "1920-01-02"
            },
            {
              "name": "Banque d'Athènes, act.100 drachmes, t.p., coup.de 5",
              "start_date": "1914-12-15",
              "end_date": "1921-01-11"
            },
            {
              "name": "Banque d'Athènes, act. nouv. de 100 fr, t.p., COUP de 5, titres carmins (ex c 39)",
              "start_date": "1914-12-15",
              "end_date": "1925-05-01"
            },
            {
              "name": "Banque d'Athènes, act. 100 dr., t. p.Coup. de 5 (nos 1 à 240000, 480001 à 540000 et 720001 à 770000)",
              "start_date": "1914-12-15",
              "end_date": "1929-12-08"
            },
            {
              "name": "Banque d'Athènes, a. 100 dr., t.p., coup. de 5 (nos 240001 à 480000, 540001 à 720000 et 770001 à 1008000)",
              "start_date": "1914-12-15",
              "end_date": "1929-12-08"
            },
            {
              "name": "Banque d'Athènes, act. 100 dr., t.p., coup. de 5 (nos 240001 à 480000 et 540001 à 720000)",
              "start_date": "1914-12-15",
              "end_date": "1932-12-09"
            },
            {
              "name": "Banque d'Athènes, act., 100 dr., Coup. de 5 (nos 240001 à 480000, 540001 à 720000 et 770001 à 1008000).",
              "start_date": "1914-12-15",
              "end_date": "1944-10-10"
            },
            {
              "name": "Banque d'Athènes, act. 100 dr., t. p. Coup. De 5 (n°s 240001 à 480000, 540001 à 720000 et 770001 à 1008000)",
              "start_date": "1914-12-15",
              "end_date": "1951-08-12"
            },
            {
              "name": "Banque d'Athènes, Coup. De 5",
              "start_date": "1914-12-15",
              "end_date": "1955-12-01"
            },
            {
              "name": "Banque d'Athènes. Act. 1000 dr. (nom) Coup de 5",
              "start_date": "1914-12-15",
              "end_date": "3999-12-31"
            }
          ]
        },
        "9046": {
          "id": 9046,
          "sector_id": 68,
          "start_date": "1913-05-15",
          "end_date": "1914-08-03",
          "names": [
            {
              "name": "Banque d'Athènes, act. 100 drachmes, tout payé . Coup. de 5",
              "start_date": "1906-04-05",
              "end_date": "1914-08-03"
            },
            {
              "name": "Banque d'Athènes, actions nouvelles 100 drachmes, tout payé (c. 38 att.) Coup. de 5",
              "start_date": "1913-05-15",
              "end_date": "1918-04-02"
            },
            {
              "name": "Banque d'Athènes, act.100 drachmes, t.p., coup.de 5",
              "start_date": "1913-05-15",
              "end_date": "1921-01-11"
            },
            {
              "name": "Banque d'Athènes, act. nouv. de 100 fr, t.p., COUP de 5, titres carmins (ex c 39)",
              "start_date": "1913-05-15",
              "end_date": "1925-05-01"
            },
            {
              "name": "Banque d'Athènes, act. 100 dr., t. p.Coup. de 5 (nos 1 à 240000, 480001 à 540000 et 720001 à 770000)",
              "start_date": "1913-05-15",
              "end_date": "1929-12-08"
            },
            {
              "name": "Banque d'Athènes, a. 100 dr., t.p., coup. de 5 (nos 240001 à 480000, 540001 à 720000 et 770001 à 1008000)",
              "start_date": "1913-05-15",
              "end_date": "1929-12-08"
            },
            {
              "name": "Banque d'Athènes, act. 100 dr., t.p., coup. de 5 (nos 240001 à 480000 et 540001 à 720000)",
              "start_date": "1913-05-15",
              "end_date": "1932-12-09"
            },
            {
              "name": "Banque d'Athènes, act., 100 dr., Coup. de 5 (nos 240001 à 480000, 540001 à 720000 et 770001 à 1008000).",
              "start_date": "1913-05-15",
              "end_date": "1944-10-10"
            },
            {
              "name": "Banque d'Athènes, act. 100 dr., t. p. Coup. De 5 (n°s 240001 à 480000, 540001 à 720000 et 770001 à 1008000)",
              "start_date": "1913-05-15",
              "end_date": "1951-08-12"
            },
            {
              "name": "Banque d'Athènes, Coup. De 5",
              "start_date": "1913-05-15",
              "end_date": "1955-12-01"
            },
            {
              "name": "Banque d'Athènes. Act. 1000 dr. (nom) Coup de 5",
              "start_date": "1913-05-15",
              "end_date": "3999-12-31"
            }
          ]
        },
        "9578": {
          "id": 9578,
          "sector_id": 155,
          "start_date": "1920-01-02",
          "end_date": "1921-01-12",
          "names": [
            {
              "name": "Banque d'Athènes, act. 100 drachmes, tout payé . Coup. de 5",
              "start_date": "1906-04-05",
              "end_date": "1921-01-12"
            },
            {
              "name": "Banque d'Athènes, actions nouvelles 100 drachmes, tout payé (c. 38 att.) Coup. de 5",
              "start_date": "1913-05-15",
              "end_date": "1921-01-12"
            },
            {
              "name": "Banque d'Athènes, act.100 drachmes, t.p., coup.de 5",
              "start_date": "1918-04-02",
              "end_date": "1921-01-12"
            },
            {
              "name": "Banque d'Athènes, act. nouv. de 100 fr, t.p., COUP de 5, titres carmins (ex c 39)",
              "start_date": "1920-01-02",
              "end_date": "1925-05-01"
            },
            {
              "name": "Banque d'Athènes, act. 100 dr., t. p.Coup. de 5 (nos 1 à 240000, 480001 à 540000 et 720001 à 770000)",
              "start_date": "1920-01-02",
              "end_date": "1929-12-08"
            },
            {
              "name": "Banque d'Athènes, a. 100 dr., t.p., coup. de 5 (nos 240001 à 480000, 540001 à 720000 et 770001 à 1008000)",
              "start_date": "1920-01-02",
              "end_date": "1929-12-08"
            },
            {
              "name": "Banque d'Athènes, act. 100 dr., t.p., coup. de 5 (nos 240001 à 480000 et 540001 à 720000)",
              "start_date": "1920-01-02",
              "end_date": "1932-12-09"
            },
            {
              "name": "Banque d'Athènes, act., 100 dr., Coup. de 5 (nos 240001 à 480000, 540001 à 720000 et 770001 à 1008000).",
              "start_date": "1920-01-02",
              "end_date": "1944-10-10"
            },
            {
              "name": "Banque d'Athènes, act. 100 dr., t. p. Coup. De 5 (n°s 240001 à 480000, 540001 à 720000 et 770001 à 1008000)",
              "start_date": "1920-01-02",
              "end_date": "1951-08-12"
            },
            {
              "name": "Banque d'Athènes, Coup. De 5",
              "start_date": "1920-01-02",
              "end_date": "1955-12-01"
            },
            {
              "name": "Banque d'Athènes. Act. 1000 dr. (nom) Coup de 5",
              "start_date": "1920-01-02",
              "end_date": "3999-12-31"
            }
          ]
        },
        "13551": {
          "id": 13551,
          "sector_id": 123,
          "start_date": "1925-05-01",
          "end_date": "1929-12-09",
          "names": [
            {
              "name": "Banque d'Athènes, act. 100 drachmes, tout payé . Coup. de 5",
              "start_date": "1906-04-05",
              "end_date": "1929-12-09"
            },
            {
              "name": "Banque d'Athènes, actions nouvelles 100 drachmes, tout payé (c. 38 att.) Coup. de 5",
              "start_date": "1913-05-15",
              "end_date": "1929-12-09"
            },
            {
              "name": "Banque d'Athènes, act.100 drachmes, t.p., coup.de 5",
              "start_date": "1918-04-02",
              "end_date": "1929-12-09"
            },
            {
              "name": "Banque d'Athènes, act. nouv. de 100 fr, t.p., COUP de 5, titres carmins (ex c 39)",
              "start_date": "1921-01-12",
              "end_date": "1929-12-09"
            },
            {
              "name": "Banque d'Athènes, act. 100 dr., t. p.Coup. de 5 (nos 1 à 240000, 480001 à 540000 et 720001 à 770000)",
              "start_date": "1925-05-01",
              "end_date": "1929-12-09"
            },
            {
              "name": "Banque d'Athènes, a. 100 dr., t.p., coup. de 5 (nos 240001 à 480000, 540001 à 720000 et 770001 à 1008000)",
              "start_date": "1925-05-01",
              "end_date": "1929-12-09"
            },
            {
              "name": "Banque d'Athènes, act. 100 dr., t.p., coup. de 5 (nos 240001 à 480000 et 540001 à 720000)",
              "start_date": "1925-05-01",
              "end_date": "1932-12-09"
            },
            {
              "name": "Banque d'Athènes, act., 100 dr., Coup. de 5 (nos 240001 à 480000, 540001 à 720000 et 770001 à 1008000).",
              "start_date": "1925-05-01",
              "end_date": "1944-10-10"
            },
            {
              "name": "Banque d'Athènes, act. 100 dr., t. p. Coup. De 5 (n°s 240001 à 480000, 540001 à 720000 et 770001 à 1008000)",
              "start_date": "1925-05-01",
              "end_date": "1951-08-12"
            },
            {
              "name": "Banque d'Athènes, Coup. De 5",
              "start_date": "1925-05-01",
              "end_date": "1955-12-01"
            },
            {
              "name": "Banque d'Athènes. Act. 1000 dr. (nom) Coup de 5",
              "start_date": "1925-05-01",
              "end_date": "3999-12-31"
            }
          ]
        },
        "22672": {
          "id": 22672,
          "sector_id": 123,
          "start_date": "1944-10-10",
          "end_date": "1944-12-29",
          "names": [
            {
              "name": "Banque d'Athènes, act. 100 drachmes, tout payé . Coup. de 5",
              "start_date": "1906-04-05",
              "end_date": "1944-12-29"
            },
            {
              "name": "Banque d'Athènes, actions nouvelles 100 drachmes, tout payé (c. 38 att.) Coup. de 5",
              "start_date": "1913-05-15",
              "end_date": "1944-12-29"
            },
            {
              "name": "Banque d'Athènes, act.100 drachmes, t.p., coup.de 5",
              "start_date": "1918-04-02",
              "end_date": "1944-12-29"
            },
            {
              "name": "Banque d'Athènes, act. nouv. de 100 fr, t.p., COUP de 5, titres carmins (ex c 39)",
              "start_date": "1921-01-12",
              "end_date": "1944-12-29"
            },
            {
              "name": "Banque d'Athènes, act. 100 dr., t. p.Coup. de 5 (nos 1 à 240000, 480001 à 540000 et 720001 à 770000)",
              "start_date": "1925-05-01",
              "end_date": "1944-12-29"
            },
            {
              "name": "Banque d'Athènes, a. 100 dr., t.p., coup. de 5 (nos 240001 à 480000, 540001 à 720000 et 770001 à 1008000)",
              "start_date": "1929-12-08",
              "end_date": "1944-12-29"
            },
            {
              "name": "Banque d'Athènes, act. 100 dr., t.p., coup. de 5 (nos 240001 à 480000 et 540001 à 720000)",
              "start_date": "1929-12-09",
              "end_date": "1944-12-29"
            },
            {
              "name": "Banque d'Athènes, act., 100 dr., Coup. de 5 (nos 240001 à 480000, 540001 à 720000 et 770001 à 1008000).",
              "start_date": "1932-12-09",
              "end_date": "1944-12-29"
            },
            {
              "name": "Banque d'Athènes, act. 100 dr., t. p. Coup. De 5 (n°s 240001 à 480000, 540001 à 720000 et 770001 à 1008000)",
              "start_date": "1944-10-10",
              "end_date": "1951-08-12"
            },
            {
              "name": "Banque d'Athènes, Coup. De 5",
              "start_date": "1944-10-10",
              "end_date": "1955-12-01"
            },
            {
              "name": "Banque d'Athènes. Act. 1000 dr. (nom) Coup de 5",
              "start_date": "1944-10-10",
              "end_date": "3999-12-31"
            }
          ]
        },
        "23022": {
          "id": 23022,
          "sector_id": 82,
          "start_date": "1944-12-29",
          "end_date": "1951-08-13",
          "names": [
            {
              "name": "Banque d'Athènes, act. 100 drachmes, tout payé . Coup. de 5",
              "start_date": "1906-04-05",
              "end_date": "1951-08-13"
            },
            {
              "name": "Banque d'Athènes, actions nouvelles 100 drachmes, tout payé (c. 38 att.) Coup. de 5",
              "start_date": "1913-05-15",
              "end_date": "1951-08-13"
            },
            {
              "name": "Banque d'Athènes, act.100 drachmes, t.p., coup.de 5",
              "start_date": "1918-04-02",
              "end_date": "1951-08-13"
            },
            {
              "name": "Banque d'Athènes, act. nouv. de 100 fr, t.p., COUP de 5, titres carmins (ex c 39)",
              "start_date": "1921-01-12",
              "end_date": "1951-08-13"
            },
            {
              "name": "Banque d'Athènes, act. 100 dr., t. p.Coup. de 5 (nos 1 à 240000, 480001 à 540000 et 720001 à 770000)",
              "start_date": "1925-05-01",
              "end_date": "1951-08-13"
            },
            {
              "name": "Banque d'Athènes, a. 100 dr., t.p., coup. de 5 (nos 240001 à 480000, 540001 à 720000 et 770001 à 1008000)",
              "start_date": "1929-12-08",
              "end_date": "1951-08-13"
            },
            {
              "name": "Banque d'Athènes, act. 100 dr., t.p., coup. de 5 (nos 240001 à 480000 et 540001 à 720000)",
              "start_date": "1929-12-09",
              "end_date": "1951-08-13"
            },
            {
              "name": "Banque d'Athènes, act., 100 dr., Coup. de 5 (nos 240001 à 480000, 540001 à 720000 et 770001 à 1008000).",
              "start_date": "1932-12-09",
              "end_date": "1951-08-13"
            },
            {
              "name": "Banque d'Athènes, act. 100 dr., t. p. Coup. De 5 (n°s 240001 à 480000, 540001 à 720000 et 770001 à 1008000)",
              "start_date": "1944-10-10",
              "end_date": "1951-08-13"
            },
            {
              "name": "Banque d'Athènes, Coup. De 5",
              "start_date": "1944-12-29",
              "end_date": "1955-12-01"
            },
            {
              "name": "Banque d'Athènes. Act. 1000 dr. (nom) Coup de 5",
              "start_date": "1944-12-29",
              "end_date": "3999-12-31"
            }
          ]
        },
        "26962": {
          "id": 26962,
          "sector_id": 82,
          "start_date": "1955-12-01",
          "end_date": "1959-01-02",
          "names": [
            {
              "name": "Banque d'Athènes, act. 100 drachmes, tout payé . Coup. de 5",
              "start_date": "1906-04-05",
              "end_date": "1959-01-02"
            },
            {
              "name": "Banque d'Athènes, actions nouvelles 100 drachmes, tout payé (c. 38 att.) Coup. de 5",
              "start_date": "1913-05-15",
              "end_date": "1959-01-02"
            },
            {
              "name": "Banque d'Athènes, act.100 drachmes, t.p., coup.de 5",
              "start_date": "1918-04-02",
              "end_date": "1959-01-02"
            },
            {
              "name": "Banque d'Athènes, act. nouv. de 100 fr, t.p., COUP de 5, titres carmins (ex c 39)",
              "start_date": "1921-01-12",
              "end_date": "1959-01-02"
            },
            {
              "name": "Banque d'Athènes, act. 100 dr., t. p.Coup. de 5 (nos 1 à 240000, 480001 à 540000 et 720001 à 770000)",
              "start_date": "1925-05-01",
              "end_date": "1959-01-02"
            },
            {
              "name": "Banque d'Athènes, a. 100 dr., t.p., coup. de 5 (nos 240001 à 480000, 540001 à 720000 et 770001 à 1008000)",
              "start_date": "1929-12-08",
              "end_date": "1959-01-02"
            },
            {
              "name": "Banque d'Athènes, act. 100 dr., t.p., coup. de 5 (nos 240001 à 480000 et 540001 à 720000)",
              "start_date": "1929-12-09",
              "end_date": "1959-01-02"
            },
            {
              "name": "Banque d'Athènes, act., 100 dr., Coup. de 5 (nos 240001 à 480000, 540001 à 720000 et 770001 à 1008000).",
              "start_date": "1932-12-09",
              "end_date": "1959-01-02"
            },
            {
              "name": "Banque d'Athènes, act. 100 dr., t. p. Coup. De 5 (n°s 240001 à 480000, 540001 à 720000 et 770001 à 1008000)",
              "start_date": "1944-10-10",
              "end_date": "1959-01-02"
            },
            {
              "name": "Banque d'Athènes, Coup. De 5",
              "start_date": "1951-08-13",
              "end_date": "1959-01-02"
            },
            {
              "name": "Banque d'Athènes. Act. 1000 dr. (nom) Coup de 5",
              "start_date": "1955-12-01",
              "end_date": "3999-12-31"
            }
          ]
        },
        "136269": {
          "id": 136269,
          "sector_id": 123,
          "start_date": "1929-12-09",
          "end_date": "1940-06-11",
          "names": [
            {
              "name": "Banque d'Athènes, act. 100 drachmes, tout payé . Coup. de 5",
              "start_date": "1906-04-05",
              "end_date": "1940-06-11"
            },
            {
              "name": "Banque d'Athènes, actions nouvelles 100 drachmes, tout payé (c. 38 att.) Coup. de 5",
              "start_date": "1913-05-15",
              "end_date": "1940-06-11"
            },
            {
              "name": "Banque d'Athènes, act.100 drachmes, t.p., coup.de 5",
              "start_date": "1918-04-02",
              "end_date": "1940-06-11"
            },
            {
              "name": "Banque d'Athènes, act. nouv. de 100 fr, t.p., COUP de 5, titres carmins (ex c 39)",
              "start_date": "1921-01-12",
              "end_date": "1940-06-11"
            },
            {
              "name": "Banque d'Athènes, act. 100 dr., t. p.Coup. de 5 (nos 1 à 240000, 480001 à 540000 et 720001 à 770000)",
              "start_date": "1925-05-01",
              "end_date": "1940-06-11"
            },
            {
              "name": "Banque d'Athènes, a. 100 dr., t.p., coup. de 5 (nos 240001 à 480000, 540001 à 720000 et 770001 à 1008000)",
              "start_date": "1929-12-08",
              "end_date": "1940-06-11"
            },
            {
              "name": "Banque d'Athènes, act. 100 dr., t.p., coup. de 5 (nos 240001 à 480000 et 540001 à 720000)",
              "start_date": "1929-12-09",
              "end_date": "1940-06-11"
            },
            {
              "name": "Banque d'Athènes, act., 100 dr., Coup. de 5 (nos 240001 à 480000, 540001 à 720000 et 770001 à 1008000).",
              "start_date": "1929-12-09",
              "end_date": "1944-10-10"
            },
            {
              "name": "Banque d'Athènes, act. 100 dr., t. p. Coup. De 5 (n°s 240001 à 480000, 540001 à 720000 et 770001 à 1008000)",
              "start_date": "1929-12-09",
              "end_date": "1951-08-12"
            },
            {
              "name": "Banque d'Athènes, Coup. De 5",
              "start_date": "1929-12-09",
              "end_date": "1955-12-01"
            },
            {
              "name": "Banque d'Athènes. Act. 1000 dr. (nom) Coup de 5",
              "start_date": "1929-12-09",
              "end_date": "3999-12-31"
            }
          ]
        },
        "140922": {
          "id": 140922,
          "sector_id": 155,
          "start_date": "1921-01-12",
          "end_date": "1925-05-01",
          "names": [
            {
              "name": "Banque d'Athènes, act. 100 drachmes, tout payé . Coup. de 5",
              "start_date": "1906-04-05",
              "end_date": "1925-05-01"
            },
            {
              "name": "Banque d'Athènes, actions nouvelles 100 drachmes, tout payé (c. 38 att.) Coup. de 5",
              "start_date": "1913-05-15",
              "end_date": "1925-05-01"
            },
            {
              "name": "Banque d'Athènes, act.100 drachmes, t.p., coup.de 5",
              "start_date": "1918-04-02",
              "end_date": "1925-05-01"
            },
            {
              "name": "Banque d'Athènes, act. nouv. de 100 fr, t.p., COUP de 5, titres carmins (ex c 39)",
              "start_date": "1921-01-12",
              "end_date": "1925-05-01"
            },
            {
              "name": "Banque d'Athènes, act. 100 dr., t. p.Coup. de 5 (nos 1 à 240000, 480001 à 540000 et 720001 à 770000)",
              "start_date": "1921-01-12",
              "end_date": "1929-12-08"
            },
            {
              "name": "Banque d'Athènes, a. 100 dr., t.p., coup. de 5 (nos 240001 à 480000, 540001 à 720000 et 770001 à 1008000)",
              "start_date": "1921-01-12",
              "end_date": "1929-12-08"
            },
            {
              "name": "Banque d'Athènes, act. 100 dr., t.p., coup. de 5 (nos 240001 à 480000 et 540001 à 720000)",
              "start_date": "1921-01-12",
              "end_date": "1932-12-09"
            },
            {
              "name": "Banque d'Athènes, act., 100 dr., Coup. de 5 (nos 240001 à 480000, 540001 à 720000 et 770001 à 1008000).",
              "start_date": "1921-01-12",
              "end_date": "1944-10-10"
            },
            {
              "name": "Banque d'Athènes, act. 100 dr., t. p. Coup. De 5 (n°s 240001 à 480000, 540001 à 720000 et 770001 à 1008000)",
              "start_date": "1921-01-12",
              "end_date": "1951-08-12"
            },
            {
              "name": "Banque d'Athènes, Coup. De 5",
              "start_date": "1921-01-12",
              "end_date": "1955-12-01"
            },
            {
              "name": "Banque d'Athènes. Act. 1000 dr. (nom) Coup de 5",
              "start_date": "1921-01-12",
              "end_date": "3999-12-31"
            }
          ]
        },
        "144862": {
          "id": 144862,
          "sector_id": 82,
          "start_date": "1951-08-13",
          "end_date": "1955-12-01",
          "names": [
            {
              "name": "Banque d'Athènes, act. 100 drachmes, tout payé . Coup. de 5",
              "start_date": "1906-04-05",
              "end_date": "1955-12-01"
            },
            {
              "name": "Banque d'Athènes, actions nouvelles 100 drachmes, tout payé (c. 38 att.) Coup. de 5",
              "start_date": "1913-05-15",
              "end_date": "1955-12-01"
            },
            {
              "name": "Banque d'Athènes, act.100 drachmes, t.p., coup.de 5",
              "start_date": "1918-04-02",
              "end_date": "1955-12-01"
            },
            {
              "name": "Banque d'Athènes, act. nouv. de 100 fr, t.p., COUP de 5, titres carmins (ex c 39)",
              "start_date": "1921-01-12",
              "end_date": "1955-12-01"
            },
            {
              "name": "Banque d'Athènes, act. 100 dr., t. p.Coup. de 5 (nos 1 à 240000, 480001 à 540000 et 720001 à 770000)",
              "start_date": "1925-05-01",
              "end_date": "1955-12-01"
            },
            {
              "name": "Banque d'Athènes, a. 100 dr., t.p., coup. de 5 (nos 240001 à 480000, 540001 à 720000 et 770001 à 1008000)",
              "start_date": "1929-12-08",
              "end_date": "1955-12-01"
            },
            {
              "name": "Banque d'Athènes, act. 100 dr., t.p., coup. de 5 (nos 240001 à 480000 et 540001 à 720000)",
              "start_date": "1929-12-09",
              "end_date": "1955-12-01"
            },
            {
              "name": "Banque d'Athènes, act., 100 dr., Coup. de 5 (nos 240001 à 480000, 540001 à 720000 et 770001 à 1008000).",
              "start_date": "1932-12-09",
              "end_date": "1955-12-01"
            },
            {
              "name": "Banque d'Athènes, act. 100 dr., t. p. Coup. De 5 (n°s 240001 à 480000, 540001 à 720000 et 770001 à 1008000)",
              "start_date": "1944-10-10",
              "end_date": "1955-12-01"
            },
            {
              "name": "Banque d'Athènes, Coup. De 5",
              "start_date": "1951-08-13",
              "end_date": "1955-12-01"
            },
            {
              "name": "Banque d'Athènes. Act. 1000 dr. (nom) Coup de 5",
              "start_date": "1951-08-13",
              "end_date": "3999-12-31"
            }
          ]
        }
      },
      "forward_prices_stats": {
        "start_date": "1910-08-31",
        "end_date": "1910-11-02"
      },
      "listings_stats": {
        "start_date": "1906-04-05"
      },
      "spot_prices_stats": {
        "start_date": "1906-04-05",
        "end_date": "1958-12-31"
      }
    }
  },
  "prices_count": 1045,
  "name": "Banque d'Athènes, act. 100 dr., t.p., coup. de 5 (nos 240001 à 480000 et 540001 à 720000)"
}