{
  "id": 10523,
  "share_type": {
    "id": 2,
    "name": "Bond (Obligation)"
  },
  "issuers": [
    {
      "id": 3315,
      "start_date": "1935-04-23",
      "end_date": "3999-12-31",
      "name": "COLONIE DE LA GUADELOUPE"
    }
  ],
  "types": [
    {
      "start_date": "1935-04-23",
      "end_date": "3999-12-31",
      "id": 1001,
      "name": "Obligation ordinaire ou classique",
      "stock_group": "B"
    }
  ],
  "is_mainstock": 0,
  "prices_period": [
    "1935-04-23",
    "1973-08-31"
  ],
  "stock_exchanges": {
    "1": {
      "id": 1,
      "name": "Paris (Official List)",
      "notations": {
        "141098": {
          "id": 141098,
          "sector_id": 84,
          "start_date": "1935-04-23",
          "end_date": "1973-09-15",
          "names": [
            {
              "name": "Guadeloupe 5% 1934-1935. Obl. remb. à 5000 f. (nos 16894 à 18022 et 33938 à 36381) [Int. et amort. gar. par Gouv. franç.-- Art. 5, loi du 10 juillet 1931.]",
              "start_date": "1935-04-23",
              "end_date": "1973-09-15"
            },
            {
              "name": "Guadeloupe 5% 1934-1935 (n°s 16894 à 18022 et 33938 à 36381) (Rach. Ou Tir.)",
              "start_date": "1935-04-23",
              "end_date": "3999-12-31"
            }
          ]
        }
      },
      "listings_stats": {
        "start_date": "1935-04-23"
      },
      "spot_prices_stats": {
        "start_date": "1935-04-23",
        "end_date": "1973-08-31"
      }
    }
  },
  "prices_count": 932,
  "name": "Guadeloupe 5% 1934-1935 (n°s 16894 à 18022 et 33938 à 36381) (Rach. Ou Tir.)"
}