{
  "id": 20059,
  "share_type": {
    "id": 2,
    "name": "Bond (Obligation)"
  },
  "issuers": [
    {
      "id": 118,
      "start_date": "1969-09-02",
      "end_date": "3999-12-31",
      "name": "Trois Ponts sur la Seine"
    }
  ],
  "types": [
    {
      "start_date": "1969-09-02",
      "end_date": "3999-12-31",
      "id": 1001,
      "name": "Obligation ordinaire ou classique",
      "stock_group": "B"
    }
  ],
  "is_mainstock": 0,
  "prices_period": [
    "1969-09-10",
    "1976-12-31"
  ],
  "stock_exchanges": {
    "1": {
      "id": 1,
      "name": "Paris (Official List)",
      "notations": {
        "150634": {
          "id": 150634,
          "sector_id": 201,
          "start_date": "1969-09-02",
          "end_date": "3999-12-31",
          "names": [
            {
              "name": "Paris 1969 8%, à lots (c. 7/4/70 att.) (Avis 69-568) 1970-89",
              "start_date": "1969-09-02",
              "end_date": "3999-12-31"
            },
            {
              "name": "Paris 1969 8% de 400 F, à lots (c. 7/4/70 att.) (Avis 69-568) 1970-89",
              "start_date": "1969-09-02",
              "end_date": "3999-12-31"
            }
          ]
        }
      },
      "listings_stats": {
        "start_date": "1969-09-02"
      },
      "spot_prices_stats": {
        "start_date": "1969-09-10",
        "end_date": "1976-12-31"
      }
    }
  },
  "prices_count": 177,
  "name": "Paris 1969 8%, à lots (c. 7/4/70 att.) (Avis 69-568) 1970-89"
}