{
  "id": 14465,
  "share_type": {
    "id": 1,
    "name": "Stock (Action)"
  },
  "issuers": [
    {
      "id": 4771,
      "start_date": "1952-05-12",
      "end_date": "3999-12-31",
      "name": "VALISERE Société grenobloise des gants d'étoffes"
    }
  ],
  "types": [
    {
      "start_date": "1952-05-12",
      "end_date": "3999-12-31",
      "id": 11,
      "name": "Action ordinaire",
      "stock_group": "S"
    }
  ],
  "is_mainstock": 0,
  "prices_period": [
    "1952-05-12",
    "1976-12-31"
  ],
  "stock_exchanges": {
    "1": {
      "id": 1,
      "name": "Paris (Official List)",
      "notations": {
        "28155": {
          "id": 28155,
          "sector_id": 503,
          "start_date": "1961-12-30",
          "end_date": "1963-03-04",
          "names": [
            {
              "name": "Valisère (Sté Grenobloise des Gants d'Etoffes), act. L 3000 fr., t.p. (n° 29001 à 58000) (c. 1 att.)",
              "start_date": "1952-05-12",
              "end_date": "1963-03-04"
            },
            {
              "name": "Valisère (Sté Grenobloise des Gants d'Etoffes), act. L (n°s 29001 à 58000)",
              "start_date": "1955-12-01",
              "end_date": "1967-05-15"
            },
            {
              "name": "Valisère (Sté Grenobl. Des Gants d'Etoffes), a. (n°s 1 à 110110 et 121650 à 140000) (ex-dr., ) (Av. 66-401)",
              "start_date": "1961-12-30",
              "end_date": "1967-05-16"
            },
            {
              "name": "Lyon_Bourse Valisère (Sté Grenobl. Des Gants d'Etoffes), a. (n°s 1 à 110110 et 121650 à 140000) (ex-dr., ) (Av. 66-401)",
              "start_date": "1961-12-30",
              "end_date": "1968-11-28"
            },
            {
              "name": "Lyon_Bourse Valisère, act. (n°s 1 à 110110 et 121650 à 140000) (ex-dr., ) (Av. 66-401)",
              "start_date": "1961-12-30",
              "end_date": "1972-10-11"
            },
            {
              "name": "Lyon_Bourse Valisère (Financière), act.(ex-dr., )",
              "start_date": "1961-12-30",
              "end_date": "1976-12-31"
            },
            {
              "name": "Lyon_Bourse Valisère (Financière), act.",
              "start_date": "1961-12-30",
              "end_date": "3999-12-31"
            }
          ]
        },
        "30530": {
          "id": 30530,
          "sector_id": 101,
          "start_date": "1963-03-04",
          "end_date": "3999-12-31",
          "names": [
            {
              "name": "Valisère (Sté Grenobloise des Gants d'Etoffes), act. L 3000 fr., t.p. (n° 29001 à 58000) (c. 1 att.)",
              "start_date": "1952-05-12",
              "end_date": "3999-12-31"
            },
            {
              "name": "Valisère (Sté Grenobloise des Gants d'Etoffes), act. L (n°s 29001 à 58000)",
              "start_date": "1955-12-01",
              "end_date": "3999-12-31"
            },
            {
              "name": "Valisère (Sté Grenobl. Des Gants d'Etoffes), a. (n°s 1 à 110110 et 121650 à 140000) (ex-dr., ) (Av. 66-401)",
              "start_date": "1963-03-04",
              "end_date": "3999-12-31"
            },
            {
              "name": "Lyon_Bourse Valisère (Sté Grenobl. Des Gants d'Etoffes), a. (n°s 1 à 110110 et 121650 à 140000) (ex-dr., ) (Av. 66-401)",
              "start_date": "1963-03-04",
              "end_date": "3999-12-31"
            },
            {
              "name": "Lyon_Bourse Valisère, act. (n°s 1 à 110110 et 121650 à 140000) (ex-dr., ) (Av. 66-401)",
              "start_date": "1963-03-04",
              "end_date": "3999-12-31"
            },
            {
              "name": "Lyon_Bourse Valisère (Financière), act.(ex-dr., )",
              "start_date": "1963-03-04",
              "end_date": "3999-12-31"
            },
            {
              "name": "Lyon_Bourse Valisère (Financière), act.",
              "start_date": "1963-03-04",
              "end_date": "3999-12-31"
            }
          ]
        },
        "145040": {
          "id": 145040,
          "sector_id": 101,
          "start_date": "1952-05-12",
          "end_date": "1961-12-30",
          "names": [
            {
              "name": "Valisère (Sté Grenobloise des Gants d'Etoffes), act. L 3000 fr., t.p. (n° 29001 à 58000) (c. 1 att.)",
              "start_date": "1952-05-12",
              "end_date": "1961-12-30"
            },
            {
              "name": "Valisère (Sté Grenobloise des Gants d'Etoffes), act. L (n°s 29001 à 58000)",
              "start_date": "1952-05-12",
              "end_date": "1967-05-15"
            },
            {
              "name": "Valisère (Sté Grenobl. Des Gants d'Etoffes), a. (n°s 1 à 110110 et 121650 à 140000) (ex-dr., ) (Av. 66-401)",
              "start_date": "1952-05-12",
              "end_date": "1967-05-16"
            },
            {
              "name": "Lyon_Bourse Valisère (Sté Grenobl. Des Gants d'Etoffes), a. (n°s 1 à 110110 et 121650 à 140000) (ex-dr., ) (Av. 66-401)",
              "start_date": "1952-05-12",
              "end_date": "1968-11-28"
            },
            {
              "name": "Lyon_Bourse Valisère, act. (n°s 1 à 110110 et 121650 à 140000) (ex-dr., ) (Av. 66-401)",
              "start_date": "1952-05-12",
              "end_date": "1972-10-11"
            },
            {
              "name": "Lyon_Bourse Valisère (Financière), act.(ex-dr., )",
              "start_date": "1952-05-12",
              "end_date": "1976-12-31"
            },
            {
              "name": "Lyon_Bourse Valisère (Financière), act.",
              "start_date": "1952-05-12",
              "end_date": "3999-12-31"
            }
          ]
        }
      },
      "listings_stats": {
        "start_date": "1952-05-12"
      },
      "spot_prices_stats": {
        "start_date": "1952-05-12",
        "end_date": "1976-12-31"
      }
    }
  },
  "prices_count": 618,
  "name": "Valisère (Sté Grenobloise des Gants d'Etoffes), act. L (n°s 29001 à 58000)"
}