{
  "id": 16540,
  "share_type": {
    "id": 1,
    "name": "Stock (Action)"
  },
  "issuers": [
    {
      "id": 3796,
      "start_date": "1962-01-02",
      "end_date": "3999-12-31",
      "name": "\"L'ÉPARGNE\" (Société anonyme d'Alimentation et d'Approvisionnement)"
    }
  ],
  "types": [
    {
      "start_date": "1962-01-02",
      "end_date": "3999-12-31",
      "id": 18,
      "name": "Action",
      "stock_group": "S"
    }
  ],
  "is_mainstock": 0,
  "prices_period": [
    null,
    null
  ],
  "stock_exchanges": {
    "1": {
      "id": 1,
      "name": "Paris (Official List)",
      "notations": {
        "29222": {
          "id": 29222,
          "sector_id": 587,
          "start_date": "1962-11-03",
          "end_date": "1963-09-23",
          "names": [
            {
              "name": "Epargne (L'), act. 50 NF (ex-dr., )",
              "start_date": "1962-01-02",
              "end_date": "1963-09-23"
            },
            {
              "name": "Epargne (L'), act. 50F (par 10 actions)",
              "start_date": "1962-11-03",
              "end_date": "3999-12-31"
            }
          ]
        },
        "31909": {
          "id": 31909,
          "sector_id": 1,
          "start_date": "1963-09-23",
          "end_date": "1965-12-24",
          "names": [
            {
              "name": "Epargne (L'), act. 50 NF (ex-dr., )",
              "start_date": "1962-01-02",
              "end_date": "1965-12-24"
            },
            {
              "name": "Epargne (L'), act. 50F (par 10 actions)",
              "start_date": "1963-09-23",
              "end_date": "3999-12-31"
            }
          ]
        },
        "147115": {
          "id": 147115,
          "sector_id": 459,
          "start_date": "1962-01-02",
          "end_date": "1962-11-03",
          "names": [
            {
              "name": "Epargne (L'), act. 50 NF (ex-dr., )",
              "start_date": "1962-01-02",
              "end_date": "1963-09-23"
            },
            {
              "name": "Epargne (L'), act. 50F (par 10 actions)",
              "start_date": "1962-01-02",
              "end_date": "3999-12-31"
            }
          ]
        }
      },
      "listings_stats": {
        "start_date": "1962-01-02"
      }
    }
  },
  "prices_count": 0,
  "name": "Epargne (L'), act. 50 NF (ex-dr., )"
}