{
  "id": 9265,
  "share_type": {
    "id": 1,
    "name": "Stock (Action)"
  },
  "issuers": [
    {
      "id": 5420,
      "start_date": "1929-05-14",
      "end_date": "3999-12-31",
      "name": "UNION ELECTRIQUE RURALE (En liquidation)"
    }
  ],
  "types": [
    {
      "start_date": "1929-05-14",
      "end_date": "3999-12-31",
      "id": 11,
      "name": "Action ordinaire",
      "stock_group": "S"
    }
  ],
  "is_mainstock": 0,
  "prices_period": [
    "1929-05-14",
    "1929-07-01"
  ],
  "stock_exchanges": {
    "1": {
      "id": 1,
      "name": "Paris (Official List)",
      "notations": {
        "136712": {
          "id": 136712,
          "sector_id": 116,
          "start_date": "1929-05-14",
          "end_date": "1929-07-16",
          "names": [
            {
              "name": "Union Electrique Rurale (L'), act. A 100 fr., t.p. (nos 181851 à 304500)",
              "start_date": "1929-05-14",
              "end_date": "3999-12-31"
            }
          ]
        }
      },
      "listings_stats": {
        "start_date": "1929-05-14"
      },
      "spot_prices_stats": {
        "start_date": "1929-05-14",
        "end_date": "1929-07-01"
      }
    }
  },
  "prices_count": 8,
  "name": "Union Electrique Rurale (L'), act. A 100 fr., t.p. (nos 181851 à 304500)"
}