{
  "id": 17081,
  "share_type": {
    "id": 2,
    "name": "Bond (Obligation)"
  },
  "issuers": [
    {
      "id": 4177,
      "start_date": "1962-01-02",
      "end_date": "3999-12-31",
      "name": "ANCIENS ETABLISSEMENTS HOTCHKISS & Cie"
    }
  ],
  "types": [
    {
      "start_date": "1962-01-02",
      "end_date": "3999-12-31",
      "id": 1001,
      "name": "Obligation ordinaire ou classique",
      "stock_group": "B"
    }
  ],
  "is_mainstock": 0,
  "prices_period": [
    "1962-01-02",
    "1973-08-31"
  ],
  "stock_exchanges": {
    "1": {
      "id": 1,
      "name": "Paris (Official List)",
      "notations": {
        "30900": {
          "id": 30900,
          "sector_id": 363,
          "start_date": "1963-03-04",
          "end_date": "1966-11-14",
          "names": [
            {
              "name": "Hotchkiss-Brandt 6,5 % 1950 1951-75",
              "start_date": "1962-01-02",
              "end_date": "1966-11-14"
            },
            {
              "name": "Thomson-Brandt 6,5% 1950 (ex-Hotchkiss-Brandt) (Tirage 16/3/66) 1951-75",
              "start_date": "1963-03-04",
              "end_date": "1973-09-17"
            },
            {
              "name": "Thomson-Brandt 6,50% 1950 de 100 F (ex-Hotchkiss-Brandt) (Tir. 15/3/73). 1951-75",
              "start_date": "1963-03-04",
              "end_date": "3999-12-31"
            }
          ]
        },
        "32013": {
          "id": 32013,
          "sector_id": 369,
          "start_date": "1966-11-14",
          "end_date": "1973-09-17",
          "names": [
            {
              "name": "Hotchkiss-Brandt 6,5 % 1950 1951-75",
              "start_date": "1962-01-02",
              "end_date": "1973-09-17"
            },
            {
              "name": "Thomson-Brandt 6,5% 1950 (ex-Hotchkiss-Brandt) (Tirage 16/3/66) 1951-75",
              "start_date": "1966-11-14",
              "end_date": "1973-09-17"
            },
            {
              "name": "Thomson-Brandt 6,50% 1950 de 100 F (ex-Hotchkiss-Brandt) (Tir. 15/3/73). 1951-75",
              "start_date": "1966-11-14",
              "end_date": "3999-12-31"
            }
          ]
        },
        "147656": {
          "id": 147656,
          "sector_id": 512,
          "start_date": "1962-01-02",
          "end_date": "1963-03-04",
          "names": [
            {
              "name": "Hotchkiss-Brandt 6,5 % 1950 1951-75",
              "start_date": "1962-01-02",
              "end_date": "1966-11-14"
            },
            {
              "name": "Thomson-Brandt 6,5% 1950 (ex-Hotchkiss-Brandt) (Tirage 16/3/66) 1951-75",
              "start_date": "1962-01-02",
              "end_date": "1973-09-17"
            },
            {
              "name": "Thomson-Brandt 6,50% 1950 de 100 F (ex-Hotchkiss-Brandt) (Tir. 15/3/73). 1951-75",
              "start_date": "1962-01-02",
              "end_date": "3999-12-31"
            }
          ]
        }
      },
      "listings_stats": {
        "start_date": "1962-01-02"
      },
      "spot_prices_stats": {
        "start_date": "1962-01-02",
        "end_date": "1973-08-31"
      }
    }
  },
  "prices_count": 281,
  "name": "Thomson-Brandt 6,5% 1950 (ex-Hotchkiss-Brandt) (Tirage 16/3/66) 1951-75"
}