{
  "id": 25299,
  "share_type": {
    "id": 1,
    "name": "Stock (Action)"
  },
  "issuers": [
    {
      "id": 1749,
      "start_date": "1919-07-10",
      "end_date": "3999-12-31",
      "name": "BANQUE TRANSATLANTIQUE"
    }
  ],
  "types": [
    {
      "start_date": "1000-01-01",
      "end_date": "3999-12-31",
      "id": 1,
      "name": "UNKNOWN",
      "stock_group": "U"
    }
  ],
  "is_mainstock": 0,
  "prices_period": [
    "1919-07-15",
    "1919-07-15"
  ],
  "stock_exchanges": {
    "1": {
      "id": 1,
      "name": "Paris (Official List)",
      "notations": {
        "90299": {
          "id": 90299,
          "sector_id": 574,
          "start_date": "1919-07-10",
          "end_date": "1919-07-17",
          "names": [
            {
              "name": "Banque Transatlantique, non estampilees",
              "start_date": "1919-07-10",
              "end_date": "3999-12-31"
            }
          ]
        }
      },
      "listings_stats": {
        "start_date": "1919-07-10"
      },
      "spot_prices_stats": {
        "start_date": "1919-07-15",
        "end_date": "1919-07-15"
      }
    }
  },
  "prices_count": 1,
  "name": "Banque Transatlantique, non estampilees"
}