{
  "id": 103324,
  "share_type": {
    "id": 4,
    "name": "Rights (Droits)"
  },
  "issuers": [
    {
      "id": 3590,
      "start_date": "1920-06-07",
      "end_date": "1920-06-23",
      "name": "BANQUE FRANÇAISE ET ITALIENNE POUR L'AMERIQUE DU SUD"
    }
  ],
  "types": [
    {
      "start_date": "1920-06-07",
      "end_date": "1920-06-23",
      "id": 501,
      "name": "Droit de souscription",
      "stock_group": "R"
    }
  ],
  "is_mainstock": 0,
  "prices_period": [
    "1920-06-07",
    "1920-06-07"
  ],
  "stock_exchanges": {
    "1": {
      "id": 1,
      "name": "Paris (Official List)",
      "notations": {
        "203506": {
          "id": 203506,
          "sector_id": 657,
          "start_date": "1920-06-07",
          "end_date": "1920-06-24",
          "names": [
            {
              "name": "Actions Banque Française pour le commerce et l'Industrie (droit et coupon n° 21)",
              "start_date": "1920-06-07",
              "end_date": "1920-06-24"
            }
          ]
        }
      },
      "listings_stats": {
        "start_date": "1920-06-07"
      },
      "spot_prices_stats": {
        "start_date": "1920-06-07",
        "end_date": "1920-06-07"
      }
    }
  },
  "prices_count": 0,
  "name": "Actions Banque Française pour le commerce et l'Industrie (droit et coupon n° 21)"
}