{
  "id": 3746,
  "share_type": {
    "id": 2,
    "name": "Bond (Obligation)"
  },
  "issuers": [
    {
      "id": 2455,
      "start_date": "1892-06-27",
      "end_date": "3999-12-31",
      "name": "STÉ GLE DES CHEMINS DE FER ÉCONOMIQUES"
    }
  ],
  "types": [
    {
      "start_date": "1892-06-27",
      "end_date": "3999-12-31",
      "id": 1001,
      "name": "Obligation ordinaire ou classique",
      "stock_group": "B"
    }
  ],
  "is_mainstock": 0,
  "prices_period": [
    "1892-06-27",
    "1955-10-17"
  ],
  "stock_exchanges": {
    "1": {
      "id": 1,
      "name": "Paris (Official List)",
      "notations": {
        "4845": {
          "id": 4845,
          "sector_id": 574,
          "start_date": "1892-06-27",
          "end_date": "1918-04-02",
          "names": [
            {
              "name": "Economiques (Soc. Génle des Chemins de fer), oblig. 3%, r. à 500 fr. (garantie de l'Etat ou des départ. et de l'Etat, conformt aux lois des 22 août 1881, 11 sept. 1885 et autres)",
              "start_date": "1892-06-27",
              "end_date": "1918-04-02"
            },
            {
              "name": "Economiques (Soc. gle des Chem. de fer), obl. 3%, r. à 500 f. (gartie de l'Etat ou des départs et de l'Etat, dans les conditions déterminées par les conventions et lois en vigueur)",
              "start_date": "1892-06-27",
              "end_date": "1920-01-02"
            },
            {
              "name": "Economiques (Sté Gén.) 3%, remb. à 500 fr. (Garantie de l'Etat ou des départ. et Etat dans cond. déterm. par conventions et lois en vigueur)",
              "start_date": "1892-06-27",
              "end_date": "1940-10-14"
            },
            {
              "name": "Economiques (Société générale) 3%, r. à 500 fr. 1886-1981",
              "start_date": "1892-06-27",
              "end_date": "1948-06-30"
            },
            {
              "name": "Economiques (Sté Gén.) 3%, remboursables à 500 fr. 1886-1981",
              "start_date": "1892-06-27",
              "end_date": "1955-05-02"
            },
            {
              "name": "Economiques (Sté Gén.) 3% ancien, remboursables à 500 Francs 1886-1981",
              "start_date": "1892-06-27",
              "end_date": "1955-11-02"
            },
            {
              "name": "Economiques (Sté Gén.) 3% ancien, remboursables à 500 francs (12) (13) 1886-1981",
              "start_date": "1892-06-27",
              "end_date": "3999-12-31"
            }
          ]
        },
        "9781": {
          "id": 9781,
          "sector_id": 143,
          "start_date": "1918-04-02",
          "end_date": "1920-01-02",
          "names": [
            {
              "name": "Economiques (Soc. Génle des Chemins de fer), oblig. 3%, r. à 500 fr. (garantie de l'Etat ou des départ. et de l'Etat, conformt aux lois des 22 août 1881, 11 sept. 1885 et autres)",
              "start_date": "1892-06-27",
              "end_date": "1920-01-02"
            },
            {
              "name": "Economiques (Soc. gle des Chem. de fer), obl. 3%, r. à 500 f. (gartie de l'Etat ou des départs et de l'Etat, dans les conditions déterminées par les conventions et lois en vigueur)",
              "start_date": "1899-08-17",
              "end_date": "1920-01-02"
            },
            {
              "name": "Economiques (Sté Gén.) 3%, remb. à 500 fr. (Garantie de l'Etat ou des départ. et Etat dans cond. déterm. par conventions et lois en vigueur)",
              "start_date": "1918-04-02",
              "end_date": "1940-10-14"
            },
            {
              "name": "Economiques (Société générale) 3%, r. à 500 fr. 1886-1981",
              "start_date": "1918-04-02",
              "end_date": "1948-06-30"
            },
            {
              "name": "Economiques (Sté Gén.) 3%, remboursables à 500 fr. 1886-1981",
              "start_date": "1918-04-02",
              "end_date": "1955-05-02"
            },
            {
              "name": "Economiques (Sté Gén.) 3% ancien, remboursables à 500 Francs 1886-1981",
              "start_date": "1918-04-02",
              "end_date": "1955-11-02"
            },
            {
              "name": "Economiques (Sté Gén.) 3% ancien, remboursables à 500 francs (12) (13) 1886-1981",
              "start_date": "1918-04-02",
              "end_date": "3999-12-31"
            }
          ]
        },
        "10840": {
          "id": 10840,
          "sector_id": 154,
          "start_date": "1920-01-02",
          "end_date": "1925-05-01",
          "names": [
            {
              "name": "Economiques (Soc. Génle des Chemins de fer), oblig. 3%, r. à 500 fr. (garantie de l'Etat ou des départ. et de l'Etat, conformt aux lois des 22 août 1881, 11 sept. 1885 et autres)",
              "start_date": "1892-06-27",
              "end_date": "1925-05-01"
            },
            {
              "name": "Economiques (Soc. gle des Chem. de fer), obl. 3%, r. à 500 f. (gartie de l'Etat ou des départs et de l'Etat, dans les conditions déterminées par les conventions et lois en vigueur)",
              "start_date": "1899-08-17",
              "end_date": "1925-05-01"
            },
            {
              "name": "Economiques (Sté Gén.) 3%, remb. à 500 fr. (Garantie de l'Etat ou des départ. et Etat dans cond. déterm. par conventions et lois en vigueur)",
              "start_date": "1920-01-02",
              "end_date": "1940-10-14"
            },
            {
              "name": "Economiques (Société générale) 3%, r. à 500 fr. 1886-1981",
              "start_date": "1920-01-02",
              "end_date": "1948-06-30"
            },
            {
              "name": "Economiques (Sté Gén.) 3%, remboursables à 500 fr. 1886-1981",
              "start_date": "1920-01-02",
              "end_date": "1955-05-02"
            },
            {
              "name": "Economiques (Sté Gén.) 3% ancien, remboursables à 500 Francs 1886-1981",
              "start_date": "1920-01-02",
              "end_date": "1955-11-02"
            },
            {
              "name": "Economiques (Sté Gén.) 3% ancien, remboursables à 500 francs (12) (13) 1886-1981",
              "start_date": "1920-01-02",
              "end_date": "3999-12-31"
            }
          ]
        },
        "13897": {
          "id": 13897,
          "sector_id": 107,
          "start_date": "1925-05-01",
          "end_date": "1940-06-11",
          "names": [
            {
              "name": "Economiques (Soc. Génle des Chemins de fer), oblig. 3%, r. à 500 fr. (garantie de l'Etat ou des départ. et de l'Etat, conformt aux lois des 22 août 1881, 11 sept. 1885 et autres)",
              "start_date": "1892-06-27",
              "end_date": "1940-06-11"
            },
            {
              "name": "Economiques (Soc. gle des Chem. de fer), obl. 3%, r. à 500 f. (gartie de l'Etat ou des départs et de l'Etat, dans les conditions déterminées par les conventions et lois en vigueur)",
              "start_date": "1899-08-17",
              "end_date": "1940-06-11"
            },
            {
              "name": "Economiques (Sté Gén.) 3%, remb. à 500 fr. (Garantie de l'Etat ou des départ. et Etat dans cond. déterm. par conventions et lois en vigueur)",
              "start_date": "1920-01-02",
              "end_date": "1940-10-14"
            },
            {
              "name": "Economiques (Société générale) 3%, r. à 500 fr. 1886-1981",
              "start_date": "1925-05-01",
              "end_date": "1948-06-30"
            },
            {
              "name": "Economiques (Sté Gén.) 3%, remboursables à 500 fr. 1886-1981",
              "start_date": "1925-05-01",
              "end_date": "1955-05-02"
            },
            {
              "name": "Economiques (Sté Gén.) 3% ancien, remboursables à 500 Francs 1886-1981",
              "start_date": "1925-05-01",
              "end_date": "1955-11-02"
            },
            {
              "name": "Economiques (Sté Gén.) 3% ancien, remboursables à 500 francs (12) (13) 1886-1981",
              "start_date": "1925-05-01",
              "end_date": "3999-12-31"
            }
          ]
        },
        "19460": {
          "id": 19460,
          "sector_id": 107,
          "start_date": "1940-10-14",
          "end_date": "1955-11-02",
          "names": [
            {
              "name": "Economiques (Soc. Génle des Chemins de fer), oblig. 3%, r. à 500 fr. (garantie de l'Etat ou des départ. et de l'Etat, conformt aux lois des 22 août 1881, 11 sept. 1885 et autres)",
              "start_date": "1892-06-27",
              "end_date": "1955-11-02"
            },
            {
              "name": "Economiques (Soc. gle des Chem. de fer), obl. 3%, r. à 500 f. (gartie de l'Etat ou des départs et de l'Etat, dans les conditions déterminées par les conventions et lois en vigueur)",
              "start_date": "1899-08-17",
              "end_date": "1955-11-02"
            },
            {
              "name": "Economiques (Sté Gén.) 3%, remb. à 500 fr. (Garantie de l'Etat ou des départ. et Etat dans cond. déterm. par conventions et lois en vigueur)",
              "start_date": "1920-01-02",
              "end_date": "1955-11-02"
            },
            {
              "name": "Economiques (Société générale) 3%, r. à 500 fr. 1886-1981",
              "start_date": "1940-10-14",
              "end_date": "1955-11-02"
            },
            {
              "name": "Economiques (Sté Gén.) 3%, remboursables à 500 fr. 1886-1981",
              "start_date": "1940-10-14",
              "end_date": "1955-11-02"
            },
            {
              "name": "Economiques (Sté Gén.) 3% ancien, remboursables à 500 Francs 1886-1981",
              "start_date": "1940-10-14",
              "end_date": "1955-11-02"
            },
            {
              "name": "Economiques (Sté Gén.) 3% ancien, remboursables à 500 francs (12) (13) 1886-1981",
              "start_date": "1940-10-14",
              "end_date": "3999-12-31"
            }
          ]
        }
      },
      "forward_prices_stats": {
        "start_date": "1895-05-15",
        "end_date": "1895-05-15"
      },
      "listings_stats": {
        "start_date": "1892-06-27"
      },
      "spot_prices_stats": {
        "start_date": "1892-06-27",
        "end_date": "1955-10-17"
      }
    }
  },
  "prices_count": 1631,
  "name": "Economiques (Sté Gén.) 3% ancien, remboursables à 500 Francs 1886-1981"
}