{
  "id": 5270,
  "share_type": {
    "id": 1,
    "name": "Stock (Action)"
  },
  "issuers": [
    {
      "id": 623,
      "start_date": "1905-03-03",
      "end_date": "3999-12-31",
      "name": "Compagnie générale Transatlantique"
    }
  ],
  "types": [
    {
      "start_date": "1905-03-03",
      "end_date": "1933-10-16",
      "id": 14,
      "name": "Action prioritaire",
      "stock_group": "S"
    }
  ],
  "is_mainstock": 0,
  "prices_period": [
    "1905-03-03",
    "1933-11-15"
  ],
  "stock_exchanges": {
    "1": {
      "id": 1,
      "name": "Paris (Official List)",
      "notations": {
        "7675": {
          "id": 7675,
          "sector_id": 574,
          "start_date": "1905-03-03",
          "end_date": "1914-08-03",
          "names": [
            {
              "name": "Cie Générale Transatlantique, Action de priorité 250fr., t.p.",
              "start_date": "1905-03-03",
              "end_date": "1920-01-02"
            },
            {
              "name": "Transatlantique (Cie Gle), act. prior. 150 fr., t. p. (A TERME)",
              "start_date": "1905-03-03",
              "end_date": "1920-01-03"
            },
            {
              "name": "Transatlantique (Cie Gle), act. prior. 150 fr., t. p. (n°80001 à 160000)",
              "start_date": "1905-03-03",
              "end_date": "1925-05-01"
            },
            {
              "name": "Transatlantique (Cie Gén.), act. de prior. 150 fr., t. p. (nos 80001 à 160000)",
              "start_date": "1905-03-03",
              "end_date": "1927-06-09"
            },
            {
              "name": "Transatlantique (Cie Gén.), Act. de prior. 600 fr., t. p.",
              "start_date": "1905-03-03",
              "end_date": "1928-05-20"
            },
            {
              "name": "Transatlantique (Cie Gén.), Act. de prior. 600 fr., t.p., 100 fr. remb. (ex-droit, )",
              "start_date": "1905-03-03",
              "end_date": "3999-12-31"
            }
          ]
        },
        "8680": {
          "id": 8680,
          "sector_id": 574,
          "start_date": "1914-12-15",
          "end_date": "1920-01-02",
          "names": [
            {
              "name": "Cie Générale Transatlantique, Action de priorité 250fr., t.p.",
              "start_date": "1905-03-03",
              "end_date": "1920-01-02"
            },
            {
              "name": "Transatlantique (Cie Gle), act. prior. 150 fr., t. p. (A TERME)",
              "start_date": "1914-12-15",
              "end_date": "1920-01-03"
            },
            {
              "name": "Transatlantique (Cie Gle), act. prior. 150 fr., t. p. (n°80001 à 160000)",
              "start_date": "1914-12-15",
              "end_date": "1925-05-01"
            },
            {
              "name": "Transatlantique (Cie Gén.), act. de prior. 150 fr., t. p. (nos 80001 à 160000)",
              "start_date": "1914-12-15",
              "end_date": "1927-06-09"
            },
            {
              "name": "Transatlantique (Cie Gén.), Act. de prior. 600 fr., t. p.",
              "start_date": "1914-12-15",
              "end_date": "1928-05-20"
            },
            {
              "name": "Transatlantique (Cie Gén.), Act. de prior. 600 fr., t.p., 100 fr. remb. (ex-droit, )",
              "start_date": "1914-12-15",
              "end_date": "3999-12-31"
            }
          ]
        },
        "10759": {
          "id": 10759,
          "sector_id": 151,
          "start_date": "1920-01-02",
          "end_date": "1925-05-01",
          "names": [
            {
              "name": "Cie Générale Transatlantique, Action de priorité 250fr., t.p.",
              "start_date": "1905-03-03",
              "end_date": "1925-05-01"
            },
            {
              "name": "Transatlantique (Cie Gle), act. prior. 150 fr., t. p. (A TERME)",
              "start_date": "1920-01-02",
              "end_date": "1925-05-01"
            },
            {
              "name": "Transatlantique (Cie Gle), act. prior. 150 fr., t. p. (n°80001 à 160000)",
              "start_date": "1920-01-02",
              "end_date": "1925-05-01"
            },
            {
              "name": "Transatlantique (Cie Gén.), act. de prior. 150 fr., t. p. (nos 80001 à 160000)",
              "start_date": "1920-01-02",
              "end_date": "1927-06-09"
            },
            {
              "name": "Transatlantique (Cie Gén.), Act. de prior. 600 fr., t. p.",
              "start_date": "1920-01-02",
              "end_date": "1928-05-20"
            },
            {
              "name": "Transatlantique (Cie Gén.), Act. de prior. 600 fr., t.p., 100 fr. remb. (ex-droit, )",
              "start_date": "1920-01-02",
              "end_date": "3999-12-31"
            }
          ]
        },
        "13794": {
          "id": 13794,
          "sector_id": 105,
          "start_date": "1925-05-01",
          "end_date": "1927-06-10",
          "names": [
            {
              "name": "Cie Générale Transatlantique, Action de priorité 250fr., t.p.",
              "start_date": "1905-03-03",
              "end_date": "1927-06-10"
            },
            {
              "name": "Transatlantique (Cie Gle), act. prior. 150 fr., t. p. (A TERME)",
              "start_date": "1920-01-02",
              "end_date": "1927-06-10"
            },
            {
              "name": "Transatlantique (Cie Gle), act. prior. 150 fr., t. p. (n°80001 à 160000)",
              "start_date": "1920-01-03",
              "end_date": "1927-06-10"
            },
            {
              "name": "Transatlantique (Cie Gén.), act. de prior. 150 fr., t. p. (nos 80001 à 160000)",
              "start_date": "1925-05-01",
              "end_date": "1927-06-10"
            },
            {
              "name": "Transatlantique (Cie Gén.), Act. de prior. 600 fr., t. p.",
              "start_date": "1925-05-01",
              "end_date": "1928-05-20"
            },
            {
              "name": "Transatlantique (Cie Gén.), Act. de prior. 600 fr., t.p., 100 fr. remb. (ex-droit, )",
              "start_date": "1925-05-01",
              "end_date": "3999-12-31"
            }
          ]
        },
        "33960": {
          "id": 33960,
          "sector_id": 165,
          "start_date": "1920-01-02",
          "end_date": "1923-10-16",
          "names": [
            {
              "name": "Cie Générale Transatlantique, Action de priorité 250fr., t.p.",
              "start_date": "1905-03-03",
              "end_date": "1923-10-16"
            },
            {
              "name": "Transatlantique (Cie Gle), act. prior. 150 fr., t. p. (A TERME)",
              "start_date": "1920-01-02",
              "end_date": "1923-10-16"
            },
            {
              "name": "Transatlantique (Cie Gle), act. prior. 150 fr., t. p. (n°80001 à 160000)",
              "start_date": "1920-01-02",
              "end_date": "1925-05-01"
            },
            {
              "name": "Transatlantique (Cie Gén.), act. de prior. 150 fr., t. p. (nos 80001 à 160000)",
              "start_date": "1920-01-02",
              "end_date": "1927-06-09"
            },
            {
              "name": "Transatlantique (Cie Gén.), Act. de prior. 600 fr., t. p.",
              "start_date": "1920-01-02",
              "end_date": "1928-05-20"
            },
            {
              "name": "Transatlantique (Cie Gén.), Act. de prior. 600 fr., t.p., 100 fr. remb. (ex-droit, )",
              "start_date": "1920-01-02",
              "end_date": "3999-12-31"
            }
          ]
        },
        "136057": {
          "id": 136057,
          "sector_id": 105,
          "start_date": "1927-06-10",
          "end_date": "1933-12-19",
          "names": [
            {
              "name": "Cie Générale Transatlantique, Action de priorité 250fr., t.p.",
              "start_date": "1905-03-03",
              "end_date": "1933-12-19"
            },
            {
              "name": "Transatlantique (Cie Gle), act. prior. 150 fr., t. p. (A TERME)",
              "start_date": "1920-01-02",
              "end_date": "1933-12-19"
            },
            {
              "name": "Transatlantique (Cie Gle), act. prior. 150 fr., t. p. (n°80001 à 160000)",
              "start_date": "1920-01-03",
              "end_date": "1933-12-19"
            },
            {
              "name": "Transatlantique (Cie Gén.), act. de prior. 150 fr., t. p. (nos 80001 à 160000)",
              "start_date": "1925-05-01",
              "end_date": "1933-12-19"
            },
            {
              "name": "Transatlantique (Cie Gén.), Act. de prior. 600 fr., t. p.",
              "start_date": "1927-06-09",
              "end_date": "1933-12-19"
            },
            {
              "name": "Transatlantique (Cie Gén.), Act. de prior. 600 fr., t.p., 100 fr. remb. (ex-droit, )",
              "start_date": "1927-06-10",
              "end_date": "3999-12-31"
            }
          ]
        }
      },
      "forward_prices_stats": {
        "start_date": "1905-03-03",
        "end_date": "1923-01-31"
      },
      "listings_stats": {
        "start_date": "1905-03-03"
      },
      "options_prices_stats": {
        "start_date": "1905-03-15",
        "end_date": "1905-10-16"
      },
      "spot_prices_stats": {
        "start_date": "1905-03-03",
        "end_date": "1933-11-15"
      }
    }
  },
  "prices_count": 1233,
  "name": "Transatlantique (Cie Gén.), Act. de prior. 600 fr., t. p."
}