{
  "id": 104808,
  "share_type": {
    "id": 5,
    "name": "Droits de souscription"
  },
  "issuers": [
    {
      "id": 4621,
      "start_date": "1947-01-21",
      "end_date": "1947-02-10",
      "name": "SOCIETE DES ENGRAIS DE ROUBAIX"
    }
  ],
  "types": [
    {
      "start_date": "1947-01-21",
      "end_date": "1947-02-10",
      "id": 501,
      "name": "Droit de souscription",
      "stock_group": "R"
    }
  ],
  "is_mainstock": 0,
  "prices_period": [
    "1947-01-31",
    "1947-01-31"
  ],
  "stock_exchanges": {
    "1": {
      "id": 1,
      "name": "Paris (Official List)",
      "notations": {
        "205211": {
          "id": 205211,
          "sector_id": 657,
          "start_date": "1947-01-21",
          "end_date": "1947-02-10",
          "names": [
            {
              "name": "Engrais de Roubaix, act. 1 à 120000 ( dr. Et coup. 24)",
              "start_date": "1947-01-21",
              "end_date": "1947-02-10"
            }
          ]
        }
      },
      "listings_stats": {
        "start_date": "1947-01-21"
      },
      "spot_prices_stats": {
        "start_date": "1947-01-31",
        "end_date": "1947-01-31"
      }
    }
  },
  "prices_count": 1,
  "name": "Engrais de Roubaix, act. 1 à 120000 ( dr. Et coup. 24)"
}