{
  "id": 4608,
  "share_type": {
    "id": 1,
    "name": "Stock (Action)"
  },
  "issuers": [
    {
      "id": 2717,
      "start_date": "1896-04-16",
      "end_date": "3999-12-31",
      "name": "Cie générale Madrilène d'Electricité"
    }
  ],
  "types": [
    {
      "start_date": "1896-04-16",
      "end_date": "3999-12-31",
      "id": 18,
      "name": "Action",
      "stock_group": "S"
    }
  ],
  "is_mainstock": 1,
  "prices_period": [
    "1896-04-18",
    "1912-05-15"
  ],
  "stock_exchanges": {
    "1": {
      "id": 1,
      "name": "Paris (Official List)",
      "notations": {
        "5707": {
          "id": 5707,
          "sector_id": 82,
          "start_date": "1896-04-16",
          "end_date": "1911-04-18",
          "names": [
            {
              "name": "Cie Gle Madrilène d'électricité, act. 500 p., t. p.",
              "start_date": "1896-04-16",
              "end_date": "1911-04-18"
            },
            {
              "name": "Cie Gle Madrilène d'Electricité, a. 100 p., t.p.",
              "start_date": "1896-04-16",
              "end_date": "3999-12-31"
            }
          ]
        },
        "8527": {
          "id": 8527,
          "sector_id": 125,
          "start_date": "1911-04-18",
          "end_date": "1914-04-01",
          "names": [
            {
              "name": "Cie Gle Madrilène d'électricité, act. 500 p., t. p.",
              "start_date": "1896-04-16",
              "end_date": "1914-04-01"
            },
            {
              "name": "Cie Gle Madrilène d'Electricité, a. 100 p., t.p.",
              "start_date": "1908-04-13",
              "end_date": "3999-12-31"
            }
          ]
        },
        "8638": {
          "id": 8638,
          "sector_id": 130,
          "start_date": "1914-04-01",
          "end_date": "1914-08-03",
          "names": [
            {
              "name": "Cie Gle Madrilène d'électricité, act. 500 p., t. p.",
              "start_date": "1896-04-16",
              "end_date": "1914-08-03"
            },
            {
              "name": "Cie Gle Madrilène d'Electricité, a. 100 p., t.p.",
              "start_date": "1908-04-13",
              "end_date": "3999-12-31"
            }
          ]
        },
        "9366": {
          "id": 9366,
          "sector_id": 130,
          "start_date": "1914-12-15",
          "end_date": "1916-12-31",
          "names": [
            {
              "name": "Cie Gle Madrilène d'électricité, act. 500 p., t. p.",
              "start_date": "1896-04-16",
              "end_date": "1916-12-31"
            },
            {
              "name": "Cie Gle Madrilène d'Electricité, a. 100 p., t.p.",
              "start_date": "1908-04-13",
              "end_date": "3999-12-31"
            }
          ]
        }
      },
      "listings_stats": {
        "start_date": "1896-04-16"
      },
      "spot_prices_stats": {
        "start_date": "1896-04-18",
        "end_date": "1912-05-15"
      }
    }
  },
  "prices_count": 6,
  "name": "Cie Gle Madrilène d'Electricité, a. 100 p., t.p."
}