{
  "id": 102378,
  "share_type": {
    "id": 4,
    "name": "Rights (Droits)"
  },
  "issuers": [
    {
      "id": 5124,
      "start_date": "1927-09-15",
      "end_date": "1927-10-12",
      "name": "Schwartz et Cie (Filatures de Laine)"
    }
  ],
  "types": [
    {
      "start_date": "1927-09-15",
      "end_date": "1927-10-12",
      "id": 501,
      "name": "Droit de souscription",
      "stock_group": "R"
    }
  ],
  "is_mainstock": 0,
  "prices_period": [
    "1927-09-15",
    "1927-09-30"
  ],
  "stock_exchanges": {
    "1": {
      "id": 1,
      "name": "Paris (Official List)",
      "notations": {
        "202560": {
          "id": 202560,
          "sector_id": 657,
          "start_date": "1927-09-15",
          "end_date": "1927-10-13",
          "names": [
            {
              "name": "Act. De priorité. Filatures de Laines Schwartz et Cie (droit et coupon 6). Pour 3 act. De priorité. Anc., 1 action nouvelle émise à 550 francs.",
              "start_date": "1927-09-15",
              "end_date": "1927-10-13"
            }
          ]
        }
      },
      "listings_stats": {
        "start_date": "1927-09-15"
      },
      "spot_prices_stats": {
        "start_date": "1927-09-15",
        "end_date": "1927-09-30"
      }
    }
  },
  "prices_count": 0,
  "name": "Act. De priorité. Filatures de Laines Schwartz et Cie (droit et coupon 6). Pour 3 act. De priorité. Anc., 1 action nouvelle émise à 550 francs."
}