{
  "id": 17330,
  "share_type": {
    "id": 2,
    "name": "Bond (Obligation)"
  },
  "issuers": [
    {
      "id": 4793,
      "start_date": "1962-01-02",
      "end_date": "3999-12-31",
      "name": "Etablissements Ruby S.A."
    }
  ],
  "types": [
    {
      "start_date": "1962-01-02",
      "end_date": "3999-12-31",
      "id": 1001,
      "name": "Obligation ordinaire ou classique",
      "stock_group": "B"
    }
  ],
  "is_mainstock": 0,
  "prices_period": [
    "1962-01-02",
    "1974-06-17"
  ],
  "stock_exchanges": {
    "1": {
      "id": 1,
      "name": "Paris (Official List)",
      "notations": {
        "31479": {
          "id": 31479,
          "sector_id": 194,
          "start_date": "1963-03-04",
          "end_date": "1974-07-01",
          "names": [
            {
              "name": "Ruby (Etabl.) 5,5 % 1959 1963-72",
              "start_date": "1962-01-02",
              "end_date": "1974-07-01"
            },
            {
              "name": "Ruby 5,5% 1959, remb. à 125 F (Tir. 8/6/66) 1963-72",
              "start_date": "1963-03-04",
              "end_date": "1974-07-01"
            },
            {
              "name": "Ruby (Et.) 5,5% 1959, remb. À 125 F (Tirage 8/6/67) 1963-74",
              "start_date": "1963-03-04",
              "end_date": "1974-07-01"
            },
            {
              "name": "Lyon_Bourse Ruby (Et.) 5,5% 1959, remb. À 125 F (Tirage 8/6/67) 1963-74",
              "start_date": "1963-03-04",
              "end_date": "1974-07-01"
            },
            {
              "name": "Lyon_Bourse Ruby (etabl) 5,5% 1959 de 100F, rembours à 125F (tir 28/5/73) 1969-80",
              "start_date": "1963-03-04",
              "end_date": "3999-12-31"
            }
          ]
        },
        "147905": {
          "id": 147905,
          "sector_id": 520,
          "start_date": "1962-01-02",
          "end_date": "1963-03-04",
          "names": [
            {
              "name": "Ruby (Etabl.) 5,5 % 1959 1963-72",
              "start_date": "1962-01-02",
              "end_date": "1967-03-01"
            },
            {
              "name": "Ruby 5,5% 1959, remb. à 125 F (Tir. 8/6/66) 1963-72",
              "start_date": "1962-01-02",
              "end_date": "1967-05-15"
            },
            {
              "name": "Ruby (Et.) 5,5% 1959, remb. À 125 F (Tirage 8/6/67) 1963-74",
              "start_date": "1962-01-02",
              "end_date": "1967-05-16"
            },
            {
              "name": "Lyon_Bourse Ruby (Et.) 5,5% 1959, remb. À 125 F (Tirage 8/6/67) 1963-74",
              "start_date": "1962-01-02",
              "end_date": "1974-07-01"
            },
            {
              "name": "Lyon_Bourse Ruby (etabl) 5,5% 1959 de 100F, rembours à 125F (tir 28/5/73) 1969-80",
              "start_date": "1962-01-02",
              "end_date": "3999-12-31"
            }
          ]
        }
      },
      "listings_stats": {
        "start_date": "1962-01-02"
      },
      "spot_prices_stats": {
        "start_date": "1962-01-02",
        "end_date": "1974-06-17"
      }
    }
  },
  "prices_count": 300,
  "name": "Ruby (Et.) 5,5% 1959, remb. À 125 F (Tirage 8/6/67) 1963-74"
}