{
  "id": 12275,
  "share_type": {
    "id": 2,
    "name": "Bond (Obligation)"
  },
  "issuers": [
    {
      "id": 4632,
      "start_date": "1946-04-08",
      "end_date": "3999-12-31",
      "name": "UNION PHOTOGRAPHIQUE INDUSTRIELLE (Établissements Lumière et Jougla réunis)"
    }
  ],
  "types": [
    {
      "start_date": "1946-04-08",
      "end_date": "3999-12-31",
      "id": 1001,
      "name": "Obligation ordinaire ou classique",
      "stock_group": "B"
    }
  ],
  "is_mainstock": 0,
  "prices_period": [
    "1946-04-15",
    "1962-07-02"
  ],
  "stock_exchanges": {
    "1": {
      "id": 1,
      "name": "Paris (Official List)",
      "notations": {
        "22088": {
          "id": 22088,
          "sector_id": 247,
          "start_date": "1948-06-30",
          "end_date": "1962-01-02",
          "names": [
            {
              "name": "Lumière (Sté) 4% 1945, remb. À 5000 fr. (Jce 15/7/45) 1949-70",
              "start_date": "1946-04-08",
              "end_date": "1962-01-02"
            },
            {
              "name": "Lumière (Sté) 4% 1945, remb. À 5000 fr. 1949-70",
              "start_date": "1948-06-30",
              "end_date": "1962-01-02"
            },
            {
              "name": "Lumière (Sté) 4% 1945 (Rach. Ou Tir.) 1949-70",
              "start_date": "1948-06-30",
              "end_date": "1962-07-16"
            },
            {
              "name": "Lumière, 4% 1945, Tir.26/05/61), remb.15/7/62",
              "start_date": "1948-06-30",
              "end_date": "3999-12-31"
            }
          ]
        },
        "28574": {
          "id": 28574,
          "sector_id": 519,
          "start_date": "1962-01-02",
          "end_date": "1962-07-16",
          "names": [
            {
              "name": "Lumière (Sté) 4% 1945, remb. À 5000 fr. (Jce 15/7/45) 1949-70",
              "start_date": "1946-04-08",
              "end_date": "1962-07-16"
            },
            {
              "name": "Lumière (Sté) 4% 1945, remb. À 5000 fr. 1949-70",
              "start_date": "1948-06-30",
              "end_date": "1962-07-16"
            },
            {
              "name": "Lumière (Sté) 4% 1945 (Rach. Ou Tir.) 1949-70",
              "start_date": "1955-12-01",
              "end_date": "1962-07-16"
            },
            {
              "name": "Lumière, 4% 1945, Tir.26/05/61), remb.15/7/62",
              "start_date": "1962-01-02",
              "end_date": "3999-12-31"
            }
          ]
        },
        "142850": {
          "id": 142850,
          "sector_id": 138,
          "start_date": "1946-04-08",
          "end_date": "1948-06-30",
          "names": [
            {
              "name": "Lumière (Sté) 4% 1945, remb. À 5000 fr. (Jce 15/7/45) 1949-70",
              "start_date": "1946-04-08",
              "end_date": "1948-06-30"
            },
            {
              "name": "Lumière (Sté) 4% 1945, remb. À 5000 fr. 1949-70",
              "start_date": "1946-04-08",
              "end_date": "1955-12-01"
            },
            {
              "name": "Lumière (Sté) 4% 1945 (Rach. Ou Tir.) 1949-70",
              "start_date": "1946-04-08",
              "end_date": "1962-07-16"
            },
            {
              "name": "Lumière, 4% 1945, Tir.26/05/61), remb.15/7/62",
              "start_date": "1946-04-08",
              "end_date": "3999-12-31"
            }
          ]
        }
      },
      "listings_stats": {
        "start_date": "1946-04-08"
      },
      "spot_prices_stats": {
        "start_date": "1946-04-15",
        "end_date": "1962-07-02"
      }
    }
  },
  "prices_count": 399,
  "name": "Lumière (Sté) 4% 1945, remb. À 5000 fr. 1949-70"
}