{
  "id": 10635,
  "share_type": {
    "id": 2,
    "name": "Bond (Obligation)"
  },
  "issuers": [
    {
      "id": 5195,
      "start_date": "1935-09-23",
      "end_date": "3999-12-31",
      "name": "DEPARTEMENT DES BOUCHES-DU-RHONE"
    }
  ],
  "types": [
    {
      "start_date": "1935-09-23",
      "end_date": "3999-12-31",
      "id": 1001,
      "name": "Obligation ordinaire ou classique",
      "stock_group": "B"
    }
  ],
  "is_mainstock": 0,
  "prices_period": [
    "1935-09-23",
    "1945-02-28"
  ],
  "stock_exchanges": {
    "1": {
      "id": 1,
      "name": "Paris (Official List)",
      "notations": {
        "141210": {
          "id": 141210,
          "sector_id": 189,
          "start_date": "1935-09-23",
          "end_date": "1945-04-03",
          "names": [
            {
              "name": "Bouches-du-Rhône, Bons 5% 1935, remb. à 1000 fr.(DEPARTEMENT)",
              "start_date": "1935-09-23",
              "end_date": "1945-04-03"
            },
            {
              "name": "Bouches-du-Rhône, bons 5% 1935, r. à 1000 fr. 1936-45",
              "start_date": "1935-09-23",
              "end_date": "3999-12-31"
            }
          ]
        }
      },
      "listings_stats": {
        "start_date": "1935-09-23"
      },
      "spot_prices_stats": {
        "start_date": "1935-09-23",
        "end_date": "1945-02-28"
      }
    }
  },
  "prices_count": 258,
  "name": "Bouches-du-Rhône, bons 5% 1935, r. à 1000 fr. 1936-45"
}