{
  "id": 101003,
  "share_type": {
    "id": 4,
    "name": "Rights (Droits)"
  },
  "issuers": [
    {
      "id": 3583,
      "start_date": "1948-11-30",
      "end_date": "3999-12-31",
      "name": "BANQUE INDUSTRIELLE DE L'AFRIQUE DU NORD"
    }
  ],
  "types": [
    {
      "start_date": "1948-11-30",
      "end_date": "3999-12-31",
      "id": 501,
      "name": "Droit de souscription",
      "stock_group": "R"
    }
  ],
  "is_mainstock": 0,
  "prices_period": [
    "1948-12-01",
    "1948-12-01"
  ],
  "stock_exchanges": {
    "1": {
      "id": 1,
      "name": "Paris (Official List)",
      "notations": {
        "201148": {
          "id": 201148,
          "sector_id": 657,
          "start_date": "1948-11-30",
          "end_date": "4000-01-01",
          "names": [
            {
              "name": "Banque Industrielle de l'Afrique du Nord (droit et coupon 30) (3 act. nouvelles de 300 fr. émises à 300 fr. pour 2 actions anciennes de 100 fr.)",
              "start_date": "1948-11-30",
              "end_date": "4000-01-01"
            }
          ]
        }
      },
      "listings_stats": {
        "start_date": "1948-11-30"
      },
      "spot_prices_stats": {
        "start_date": "1948-12-01",
        "end_date": "1948-12-01"
      }
    }
  },
  "prices_count": 1,
  "name": "Banque Industrielle de l'Afrique du Nord (droit et coupon 30) (3 act. nouvelles de 300 fr. émises à 300 fr. pour 2 actions anciennes de 100 fr.)"
}