{
  "id": 12607,
  "share_type": {
    "id": 2,
    "name": "Bond (Obligation)"
  },
  "issuers": [
    {
      "id": 10007,
      "start_date": "1947-12-19",
      "end_date": "3999-12-31",
      "name": "SOCIÉTÉ FRANÇAISE DE CONSTRUCTIONS MÉCANIQUES (Anciens Etablissements Cail)"
    }
  ],
  "types": [
    {
      "start_date": "1947-12-19",
      "end_date": "3999-12-31",
      "id": 1001,
      "name": "Obligation ordinaire ou classique",
      "stock_group": "B"
    }
  ],
  "is_mainstock": 0,
  "prices_period": [
    "1947-12-30",
    "1969-03-17"
  ],
  "stock_exchanges": {
    "1": {
      "id": 1,
      "name": "Paris (Official List)",
      "notations": {
        "26568": {
          "id": 26568,
          "sector_id": 363,
          "start_date": "1955-12-01",
          "end_date": "1962-01-02",
          "names": [
            {
              "name": "Constructions Mécaniques (Sté Franç. de) 4,5% 46, remb. à 5000 f. (Jce 15/12/47) 1947-76",
              "start_date": "1947-12-19",
              "end_date": "1962-01-02"
            },
            {
              "name": "Constructions Mécaniques (Sté Fr. de) (Anc. Et. Cail) 4,5% 1946 (Tir. 24/10/55) 1947-76",
              "start_date": "1955-12-01",
              "end_date": "1969-03-31"
            },
            {
              "name": "Constructions Mécaniques (Anc. Etabliss. Cail) (Sté Française de) 4,5% 1946 (Tirage 25/10/68) 1947-76",
              "start_date": "1955-12-01",
              "end_date": "3999-12-31"
            }
          ]
        },
        "29087": {
          "id": 29087,
          "sector_id": 512,
          "start_date": "1962-01-02",
          "end_date": "1963-03-04",
          "names": [
            {
              "name": "Constructions Mécaniques (Sté Franç. de) 4,5% 46, remb. à 5000 f. (Jce 15/12/47) 1947-76",
              "start_date": "1947-12-19",
              "end_date": "1963-03-04"
            },
            {
              "name": "Constructions Mécaniques (Sté Fr. de) (Anc. Et. Cail) 4,5% 1946 (Tir. 24/10/55) 1947-76",
              "start_date": "1955-12-01",
              "end_date": "1969-03-31"
            },
            {
              "name": "Constructions Mécaniques (Anc. Etabliss. Cail) (Sté Française de) 4,5% 1946 (Tirage 25/10/68) 1947-76",
              "start_date": "1962-01-02",
              "end_date": "3999-12-31"
            }
          ]
        },
        "30835": {
          "id": 30835,
          "sector_id": 363,
          "start_date": "1963-03-04",
          "end_date": "1969-03-31",
          "names": [
            {
              "name": "Constructions Mécaniques (Sté Franç. de) 4,5% 46, remb. à 5000 f. (Jce 15/12/47) 1947-76",
              "start_date": "1947-12-19",
              "end_date": "1969-03-31"
            },
            {
              "name": "Constructions Mécaniques (Sté Fr. de) (Anc. Et. Cail) 4,5% 1946 (Tir. 24/10/55) 1947-76",
              "start_date": "1955-12-01",
              "end_date": "1969-03-31"
            },
            {
              "name": "Constructions Mécaniques (Anc. Etabliss. Cail) (Sté Française de) 4,5% 1946 (Tirage 25/10/68) 1947-76",
              "start_date": "1963-03-04",
              "end_date": "3999-12-31"
            }
          ]
        },
        "143182": {
          "id": 143182,
          "sector_id": 111,
          "start_date": "1947-12-19",
          "end_date": "1955-12-01",
          "names": [
            {
              "name": "Constructions Mécaniques (Sté Franç. de) 4,5% 46, remb. à 5000 f. (Jce 15/12/47) 1947-76",
              "start_date": "1947-12-19",
              "end_date": "1955-12-01"
            },
            {
              "name": "Constructions Mécaniques (Sté Fr. de) (Anc. Et. Cail) 4,5% 1946 (Tir. 24/10/55) 1947-76",
              "start_date": "1947-12-19",
              "end_date": "1969-03-31"
            },
            {
              "name": "Constructions Mécaniques (Anc. Etabliss. Cail) (Sté Française de) 4,5% 1946 (Tirage 25/10/68) 1947-76",
              "start_date": "1947-12-19",
              "end_date": "3999-12-31"
            }
          ]
        }
      },
      "listings_stats": {
        "start_date": "1947-12-19"
      },
      "spot_prices_stats": {
        "start_date": "1947-12-30",
        "end_date": "1969-03-17"
      }
    }
  },
  "prices_count": 526,
  "name": "Constructions Mécaniques (Sté Fr. de) (Anc. Et. Cail) 4,5% 1946 (Tir. 24/10/55) 1947-76"
}