{
  "id": 15865,
  "share_type": {
    "id": 1,
    "name": "Stock (Action)"
  },
  "issuers": [
    {
      "id": 1352,
      "start_date": "1959-05-14",
      "end_date": "3999-12-31",
      "name": "SOCIETE INDUSTRIELLE DE MECANIQUE ET CARROSSERIE AUTOMOBILE S.I.M.C.A."
    }
  ],
  "types": [
    {
      "start_date": "1959-05-14",
      "end_date": "3999-12-31",
      "id": 27,
      "name": "Promesse d'action",
      "stock_group": "S"
    }
  ],
  "is_mainstock": 0,
  "prices_period": [
    "1959-05-14",
    "1959-08-17"
  ],
  "stock_exchanges": {
    "1": {
      "id": 1,
      "name": "Paris (Official List)",
      "notations": {
        "146440": {
          "id": 146440,
          "sector_id": 337,
          "start_date": "1959-05-14",
          "end_date": "1959-08-20",
          "names": [
            {
              "name": "Simca, promesses (jce 1/1/59)",
              "start_date": "1959-05-14",
              "end_date": "1959-08-20"
            },
            {
              "name": "Simca, act nouv (jce 1/1/59)",
              "start_date": "1959-05-14",
              "end_date": "3999-12-31"
            }
          ]
        }
      },
      "listings_stats": {
        "start_date": "1959-05-14"
      },
      "spot_prices_stats": {
        "start_date": "1959-05-14",
        "end_date": "1959-08-17"
      }
    }
  },
  "prices_count": 9,
  "name": "Simca, act nouv (jce 1/1/59)"
}