{
  "id": 105325,
  "share_type": {
    "id": 1,
    "name": "Stock (Action)"
  },
  "issuers": [
    {
      "id": 2971,
      "start_date": "1892-08-31",
      "end_date": "1893-05-31",
      "name": "Société anonyme pour la fabrication de la Soie de Chardonnet"
    }
  ],
  "types": [
    {
      "start_date": "1892-08-31",
      "end_date": "1893-05-31",
      "id": 18,
      "name": "Action",
      "stock_group": "S"
    }
  ],
  "is_mainstock": 0,
  "prices_period": [
    "1892-08-31",
    "1893-04-14"
  ],
  "stock_exchanges": {
    "2": {
      "id": 2,
      "name": "Paris OTC (Coulisse)",
      "notations": {
        "206061": {
          "id": 206061,
          "sector_id": 672,
          "start_date": "1892-08-31",
          "end_date": "1893-05-31",
          "names": [
            {
              "name": "Soie de Chardonnet liberee de 250 fr.",
              "start_date": "1892-08-31",
              "end_date": "1893-05-31"
            }
          ]
        }
      },
      "listings_stats": {
        "start_date": "1892-08-31"
      },
      "spot_prices_stats": {
        "start_date": "1892-08-31",
        "end_date": "1893-04-14"
      }
    }
  },
  "prices_count": 16,
  "name": "Soie de Chardonnet liberee de 250 fr."
}