{
  "id": 2685,
  "share_type": {
    "id": 2,
    "name": "Bond (Obligation)"
  },
  "issuers": [
    {
      "id": 468,
      "start_date": "1879-07-21",
      "end_date": "3999-12-31",
      "name": "EMPRUNTS HELLENIQUES"
    }
  ],
  "types": [
    {
      "start_date": "1879-07-21",
      "end_date": "3999-12-31",
      "id": 1001,
      "name": "Obligation ordinaire ou classique",
      "stock_group": "B"
    }
  ],
  "is_mainstock": 0,
  "prices_period": [
    "1879-07-21",
    "1889-07-31"
  ],
  "stock_exchanges": {
    "1": {
      "id": 1,
      "name": "Paris (Official List)",
      "notations": {
        "3784": {
          "id": 3784,
          "sector_id": 67,
          "start_date": "1879-07-21",
          "end_date": "1889-08-01",
          "names": [
            {
              "name": "Emp. Hellénique, 1879, 6%, r.à 500f.",
              "start_date": "1879-07-21",
              "end_date": "1889-08-01"
            },
            {
              "name": "Gouvernement Hellénique, 1879, 6%, r.à 500f.",
              "start_date": "1879-07-21",
              "end_date": "3999-12-31"
            }
          ]
        }
      },
      "forward_prices_stats": {
        "start_date": "1879-07-21",
        "end_date": "1887-05-31"
      },
      "listings_stats": {
        "start_date": "1879-07-21"
      },
      "spot_prices_stats": {
        "start_date": "1879-07-21",
        "end_date": "1889-07-31"
      }
    }
  },
  "prices_count": 662,
  "name": "Emp. Hellénique, 1879, 6%, r.à 500f."
}