{
  "id": 102481,
  "share_type": {
    "id": 4,
    "name": "Rights (Droits)"
  },
  "issuers": [
    {
      "id": 2998,
      "start_date": "1921-02-18",
      "end_date": "1921-03-08",
      "name": "ETABLISSEMENTS OROSDI-BACK"
    }
  ],
  "types": [
    {
      "start_date": "1921-02-18",
      "end_date": "1921-03-08",
      "id": 501,
      "name": "Droit de souscription",
      "stock_group": "R"
    }
  ],
  "is_mainstock": 0,
  "prices_period": [
    null,
    null
  ],
  "stock_exchanges": {
    "1": {
      "id": 1,
      "name": "Paris (Official List)",
      "notations": {
        "202663": {
          "id": 202663,
          "sector_id": 657,
          "start_date": "1921-02-18",
          "end_date": "1921-03-09",
          "names": [
            {
              "name": "Act. Etablissements Orosdi-Back (droit et coupon n° 40). Rompus",
              "start_date": "1921-02-18",
              "end_date": "1921-03-09"
            }
          ]
        }
      },
      "listings_stats": {
        "start_date": "1921-02-18"
      }
    }
  },
  "prices_count": 0,
  "name": "Act. Etablissements Orosdi-Back (droit et coupon n° 40). Rompus"
}