{
  "id": 8589,
  "share_type": {
    "id": 2,
    "name": "Bond (Obligation)"
  },
  "issuers": [
    {
      "id": 5262,
      "start_date": "1929-01-25",
      "end_date": "3999-12-31",
      "name": "COMPAGNIE GÉNÉRALE AÉROPOSTALE"
    }
  ],
  "types": [
    {
      "start_date": "1929-01-25",
      "end_date": "3999-12-31",
      "id": 1001,
      "name": "Obligation ordinaire ou classique",
      "stock_group": "B"
    }
  ],
  "is_mainstock": 0,
  "prices_period": [
    "1929-01-25",
    "1931-02-28"
  ],
  "stock_exchanges": {
    "1": {
      "id": 1,
      "name": "Paris (Official List)",
      "notations": {
        "136036": {
          "id": 136036,
          "sector_id": 112,
          "start_date": "1929-01-25",
          "end_date": "1931-04-20",
          "names": [
            {
              "name": "Aéropostale (Cie Gén.), Bons 6% 1928, remb. à 500 fr. (Subventions de l'Etat dans les conditions spécifiées par convention et avenant annexés aux décrets des 8 août 1924 et 14 septembre 1927)",
              "start_date": "1929-01-25",
              "end_date": "3999-12-31"
            }
          ]
        }
      },
      "listings_stats": {
        "start_date": "1929-01-25"
      },
      "spot_prices_stats": {
        "start_date": "1929-01-25",
        "end_date": "1931-02-28"
      }
    }
  },
  "prices_count": 61,
  "name": "Aéropostale (Cie Gén.), Bons 6% 1928, remb. à 500 fr. (Subventions de l'Etat dans les conditions spécifiées par convention et avenant annexés aux décrets des 8 août 1924 et 14 septembre 1927)"
}