{
  "id": 1624,
  "share_type": {
    "id": 2,
    "name": "Bond (Obligation)"
  },
  "issuers": [
    {
      "id": 638,
      "start_date": "1868-05-06",
      "end_date": "3999-12-31",
      "name": "Compagnie parisienne d'éclairage et de chauffage par le gaz"
    }
  ],
  "types": [
    {
      "start_date": "1868-05-06",
      "end_date": "3999-12-31",
      "id": 1011,
      "name": "Reconnaissances de liquidation",
      "stock_group": "B"
    }
  ],
  "is_mainstock": 0,
  "prices_period": [
    "1868-05-06",
    "1871-03-15"
  ],
  "stock_exchanges": {
    "1": {
      "id": 1,
      "name": "Paris (Official List)",
      "notations": {
        "2733": {
          "id": 2733,
          "sector_id": 70,
          "start_date": "1868-05-06",
          "end_date": "1871-06-26",
          "names": [
            {
              "name": "Ce Parisienne du Gaz, 5%, 150f t. p.",
              "start_date": "1868-05-06",
              "end_date": "1871-06-26"
            },
            {
              "name": "Ce Parisienne du Gaz, 5%, 350f p.",
              "start_date": "1868-05-06",
              "end_date": "3999-12-31"
            }
          ]
        }
      },
      "listings_stats": {
        "start_date": "1868-05-06"
      },
      "spot_prices_stats": {
        "start_date": "1868-05-06",
        "end_date": "1871-03-15"
      }
    }
  },
  "prices_count": 58,
  "name": "Ce Parisienne du Gaz, 5%, 350f p."
}