{
  "id": 105824,
  "share_type": {
    "id": 1,
    "name": "Stock (Action)"
  },
  "issuers": [
    {
      "id": 4300,
      "start_date": "1939-05-03",
      "end_date": "3999-12-31",
      "name": "SOCIETE \"AU BON MARCHÉ\" (Maison Aristide BOUCICAUT)"
    }
  ],
  "types": [
    {
      "start_date": "1939-05-03",
      "end_date": "3999-12-31",
      "id": 18,
      "name": "Action",
      "stock_group": "S"
    }
  ],
  "is_mainstock": 0,
  "prices_period": [
    "1939-05-15",
    "1951-06-15"
  ],
  "stock_exchanges": {
    "1": {
      "id": 1,
      "name": "Paris (Official List)",
      "notations": {
        "206685": {
          "id": 206685,
          "sector_id": 187,
          "start_date": "1939-05-03",
          "end_date": "1951-07-02",
          "names": [
            {
              "name": "Bon Marché (Au), coup. d'act. (100 fr. nominal) (nom.) (nos à partir de 500001)",
              "start_date": "1939-05-03",
              "end_date": "1951-07-02"
            },
            {
              "name": "Bon marché (Au), Coup. D'act. (100 fr. nominal) (nom.) (n°s à partir de 500001) (ex-dr., est.)",
              "start_date": "1939-05-03",
              "end_date": "1951-07-02"
            },
            {
              "name": "Bon marché (Au), Coup. D'act. (100 fr. nominal) (nom.) (n°s à partir de 500001)",
              "start_date": "1939-05-03",
              "end_date": "1951-07-02"
            },
            {
              "name": "Bon marché (Au) Coup. D'act. (100 fr. nominal) rompus (n°s à partir de 500001) (ex-dr. Est. Du 20/10/48) (nom.) (Cf Avis n°s 18298)",
              "start_date": "1939-05-03",
              "end_date": "1951-07-02"
            },
            {
              "name": "Bon marché (Au) Coup. D'act. (100 fr. nominal) rompus (n°s à partir de 500001) (nom.) (Cf Avis n°s 18298)",
              "start_date": "1939-05-03",
              "end_date": "1951-07-02"
            },
            {
              "name": "Bon Marché (Au), coup. D'act. (100 fr. nominal) rompus (n° à partir de 500001) (nom.)",
              "start_date": "1939-05-03",
              "end_date": "3999-12-31"
            }
          ]
        }
      },
      "listings_stats": {
        "start_date": "1939-05-03"
      },
      "spot_prices_stats": {
        "start_date": "1939-05-15",
        "end_date": "1951-06-15"
      }
    }
  },
  "prices_count": 258,
  "name": "Bon Marché (Au), coup. D'act. (100 fr. nominal) rompus (n° à partir de 500001) (nom.)"
}