{
  "id": 5743,
  "share_type": {
    "id": 2,
    "name": "Bond (Obligation)"
  },
  "issuers": [
    {
      "id": 3376,
      "start_date": "1910-12-27",
      "end_date": "3999-12-31",
      "name": "Cleveland Cincinnati Chicago and Saint-Louis Railway Cy"
    }
  ],
  "types": [
    {
      "start_date": "1910-12-27",
      "end_date": "3999-12-31",
      "id": 1001,
      "name": "Obligation ordinaire ou classique",
      "stock_group": "B"
    }
  ],
  "is_mainstock": 0,
  "prices_period": [
    "1910-12-31",
    "1930-05-15"
  ],
  "stock_exchanges": {
    "1": {
      "id": 1,
      "name": "Paris (Official List)",
      "notations": {
        "8148": {
          "id": 8148,
          "sector_id": 68,
          "start_date": "1910-12-27",
          "end_date": "1914-08-03",
          "names": [
            {
              "name": "Cleveland Cincinnati Chicago and Saint-Louis Railway Cy 4% 1910-1930, obl. 500 fr. t.p.",
              "start_date": "1910-12-27",
              "end_date": "1920-01-02"
            },
            {
              "name": "Cleveland-Cincinnati-Chicago and Saint-Louis Railway Cy 4% 1910-1930, r. à 500 f.",
              "start_date": "1910-12-27",
              "end_date": "3999-12-31"
            }
          ]
        },
        "8889": {
          "id": 8889,
          "sector_id": 68,
          "start_date": "1914-12-15",
          "end_date": "1918-04-02",
          "names": [
            {
              "name": "Cleveland Cincinnati Chicago and Saint-Louis Railway Cy 4% 1910-1930, obl. 500 fr. t.p.",
              "start_date": "1910-12-27",
              "end_date": "1920-01-02"
            },
            {
              "name": "Cleveland-Cincinnati-Chicago and Saint-Louis Railway Cy 4% 1910-1930, r. à 500 f.",
              "start_date": "1914-12-15",
              "end_date": "3999-12-31"
            }
          ]
        },
        "9503": {
          "id": 9503,
          "sector_id": 144,
          "start_date": "1918-04-02",
          "end_date": "1925-05-01",
          "names": [
            {
              "name": "Cleveland Cincinnati Chicago and Saint-Louis Railway Cy 4% 1910-1930, obl. 500 fr. t.p.",
              "start_date": "1910-12-27",
              "end_date": "1925-05-01"
            },
            {
              "name": "Cleveland-Cincinnati-Chicago and Saint-Louis Railway Cy 4% 1910-1930, r. à 500 f.",
              "start_date": "1918-04-02",
              "end_date": "3999-12-31"
            }
          ]
        },
        "13620": {
          "id": 13620,
          "sector_id": 128,
          "start_date": "1925-05-01",
          "end_date": "1930-06-02",
          "names": [
            {
              "name": "Cleveland Cincinnati Chicago and Saint-Louis Railway Cy 4% 1910-1930, obl. 500 fr. t.p.",
              "start_date": "1910-12-27",
              "end_date": "1930-06-02"
            },
            {
              "name": "Cleveland-Cincinnati-Chicago and Saint-Louis Railway Cy 4% 1910-1930, r. à 500 f.",
              "start_date": "1920-01-02",
              "end_date": "3999-12-31"
            }
          ]
        }
      },
      "listings_stats": {
        "start_date": "1910-12-27"
      },
      "spot_prices_stats": {
        "start_date": "1910-12-31",
        "end_date": "1930-05-15"
      }
    }
  },
  "prices_count": 304,
  "name": "Cleveland-Cincinnati-Chicago and Saint-Louis Railway Cy 4% 1910-1930, r. à 500 f."
}