{
  "id": 12977,
  "share_type": {
    "id": 1,
    "name": "Stock (Action)"
  },
  "issuers": [
    {
      "id": 5131,
      "start_date": "1948-10-21",
      "end_date": "3999-12-31",
      "name": "ETABLISSEMENTS HENRY HAMELLE"
    }
  ],
  "types": [
    {
      "start_date": "1948-10-21",
      "end_date": "3999-12-31",
      "id": 18,
      "name": "Action",
      "stock_group": "S"
    }
  ],
  "is_mainstock": 0,
  "prices_period": [
    "1948-10-21",
    "1949-11-15"
  ],
  "stock_exchanges": {
    "1": {
      "id": 1,
      "name": "Paris (Official List)",
      "notations": {
        "143552": {
          "id": 143552,
          "sector_id": 182,
          "start_date": "1948-10-21",
          "end_date": "1949-11-18",
          "names": [
            {
              "name": "Hamelle (Etabl. Henry), act. 500 fr., t.p. (n°s 90001 à 180000)",
              "start_date": "1948-10-21",
              "end_date": "3999-12-31"
            }
          ]
        }
      },
      "listings_stats": {
        "start_date": "1948-10-21"
      },
      "spot_prices_stats": {
        "start_date": "1948-10-21",
        "end_date": "1949-11-15"
      }
    }
  },
  "prices_count": 27,
  "name": "Hamelle (Etabl. Henry), act. 500 fr., t.p. (n°s 90001 à 180000)"
}