{
  "id": 19686,
  "share_type": {
    "id": 2,
    "name": "Bond (Obligation)"
  },
  "issuers": [
    {
      "id": 4718,
      "start_date": "1967-05-02",
      "end_date": "3999-12-31",
      "name": "SOCIETE CHIMIQUE DE GERLAND"
    }
  ],
  "types": [
    {
      "start_date": "1967-05-02",
      "end_date": "3999-12-31",
      "id": 1001,
      "name": "Obligation ordinaire ou classique",
      "stock_group": "B"
    }
  ],
  "is_mainstock": 0,
  "prices_period": [
    "1967-05-02",
    "1976-12-31"
  ],
  "stock_exchanges": {
    "1": {
      "id": 1,
      "name": "Paris (Official List)",
      "notations": {
        "150261": {
          "id": 150261,
          "sector_id": 247,
          "start_date": "1967-05-02",
          "end_date": "3999-12-31",
          "names": [
            {
              "name": "Lyon_Bourse Gerland (Chimique de) 5% 1960, remb. 225 F à 250 F (T. 15/6/67). 1961-80",
              "start_date": "1967-05-02",
              "end_date": "3999-12-31"
            }
          ]
        }
      },
      "listings_stats": {
        "start_date": "1967-05-02"
      },
      "spot_prices_stats": {
        "start_date": "1967-05-02",
        "end_date": "1976-12-31"
      }
    }
  },
  "prices_count": 234,
  "name": "Lyon_Bourse Gerland (Chimique de) 5% 1960, remb. 225 F à 250 F (T. 15/6/67). 1961-80"
}