{
  "id": 40182,
  "share_type": {
    "id": 2,
    "name": "Bond (Obligation)"
  },
  "issuers": [
    {
      "id": 7035,
      "start_date": "1000-01-01",
      "end_date": "3999-12-31",
      "name": "Jaffa à Jérusalem et prolongements"
    }
  ],
  "types": [
    {
      "start_date": "1000-01-01",
      "end_date": "3999-12-31",
      "id": 1001,
      "name": "Obligation ordinaire ou classique",
      "stock_group": "B"
    }
  ],
  "is_mainstock": 0,
  "prices_period": [
    "1892-01-02",
    "1895-09-14"
  ],
  "stock_exchanges": {
    "1": {
      "id": 1,
      "name": "Paris (Official List)",
      "notations": {
        "155183": {
          "id": 155183,
          "sector_id": 89,
          "start_date": "1892-05-09",
          "end_date": "1895-01-21",
          "names": [
            {
              "name": "Jaffa à Jérusalem et prolongements, oblig. 5%",
              "start_date": "1892-05-05",
              "end_date": "1920-01-02"
            }
          ]
        }
      },
      "listings_stats": {
        "start_date": "1892-05-09"
      },
      "spot_prices_stats": {
        "start_date": "1892-10-15",
        "end_date": "1893-03-31"
      }
    },
    "2": {
      "id": 2,
      "name": "Paris OTC (Coulisse)",
      "notations": {
        "205937": {
          "id": 205937,
          "sector_id": 662,
          "start_date": "1892-01-02",
          "end_date": "1892-01-15",
          "names": [
            {
              "name": "Obl. Jaffa a Jerusalem 5%",
              "start_date": "1892-01-02",
              "end_date": "1895-09-14"
            }
          ]
        },
        "206008": {
          "id": 206008,
          "sector_id": 664,
          "start_date": "1892-01-15",
          "end_date": "1895-09-14",
          "names": [
            {
              "name": "Obl. Jaffa a Jerusalem 5%",
              "start_date": "1892-01-02",
              "end_date": "1895-09-14"
            }
          ]
        }
      },
      "listings_stats": {
        "start_date": "1892-01-02"
      },
      "spot_prices_stats": {
        "start_date": "1892-01-02",
        "end_date": "1895-09-14"
      }
    }
  },
  "prices_count": 85,
  "name": "Obl. Jaffa a Jerusalem 5%"
}