{
  "id": 105542,
  "share_type": {
    "id": 1,
    "name": "Stock (Action)"
  },
  "issuers": [
    {
      "id": 12499,
      "start_date": "1897-11-15",
      "end_date": "1898-12-31",
      "name": "L'Innovatrice (Compagnie d'assurance)"
    }
  ],
  "types": [
    {
      "start_date": "1897-11-15",
      "end_date": "1898-12-31",
      "id": 18,
      "name": "Action",
      "stock_group": "S"
    }
  ],
  "is_mainstock": 1,
  "prices_period": [
    "1897-11-15",
    "1898-12-31"
  ],
  "stock_exchanges": {
    "2": {
      "id": 2,
      "name": "Paris OTC (Coulisse)",
      "notations": {
        "206404": {
          "id": 206404,
          "sector_id": 667,
          "start_date": "1897-11-15",
          "end_date": "1898-12-31",
          "names": [
            {
              "name": "Innovatrice (L') (Cie d'assur. Incendie)",
              "start_date": "1897-11-15",
              "end_date": "1898-12-31"
            }
          ]
        }
      },
      "listings_stats": {
        "start_date": "1897-11-15"
      },
      "spot_prices_stats": {
        "start_date": "1897-11-15",
        "end_date": "1898-12-31"
      }
    }
  },
  "prices_count": 28,
  "name": "Innovatrice (L') (Cie d'assur. Incendie)"
}