{
  "id": 103142,
  "share_type": {
    "id": 4,
    "name": "Rights (Droits)"
  },
  "issuers": [
    {
      "id": 4656,
      "start_date": "1000-01-01",
      "end_date": "1947-01-17",
      "name": "Société Cherifienne d'Engrais et de Produits Chimiques"
    }
  ],
  "types": [
    {
      "start_date": "1000-01-01",
      "end_date": "1947-01-17",
      "id": 501,
      "name": "Droit de souscription",
      "stock_group": "R"
    }
  ],
  "is_mainstock": 0,
  "prices_period": [
    "1946-12-23",
    "1947-01-02"
  ],
  "stock_exchanges": {
    "1": {
      "id": 1,
      "name": "Paris (Official List)",
      "notations": {
        "203324": {
          "id": 203324,
          "sector_id": 657,
          "start_date": "1946-12-23",
          "end_date": "1947-01-18",
          "names": [
            {
              "name": "Act. Superp. et Produits Chim. du Maroc (dr. et c. 18). 5 act. Sté Chérif. d'Engrais et de Produits Chim. émises à 1000 fr. marocains pour 1 act. Anc.",
              "start_date": "1000-01-01",
              "end_date": "1947-01-18"
            }
          ]
        }
      },
      "listings_stats": {
        "start_date": "1946-12-23"
      },
      "spot_prices_stats": {
        "start_date": "1946-12-23",
        "end_date": "1947-01-02"
      }
    }
  },
  "prices_count": 1,
  "name": "Act. Superp. et Produits Chim. du Maroc (dr. et c. 18). 5 act. Sté Chérif. d'Engrais et de Produits Chim. émises à 1000 fr. marocains pour 1 act. Anc."
}