{
  "id": 103290,
  "share_type": {
    "id": 4,
    "name": "Rights (Droits)"
  },
  "issuers": [
    {
      "id": 1931,
      "start_date": "1921-06-20",
      "end_date": "1921-07-08",
      "name": "COMPAGNIE GENERALE DES TABACS"
    }
  ],
  "types": [
    {
      "start_date": "1921-06-20",
      "end_date": "1921-07-08",
      "id": 501,
      "name": "Droit de souscription",
      "stock_group": "R"
    }
  ],
  "is_mainstock": 0,
  "prices_period": [
    "1921-06-24",
    "1921-06-30"
  ],
  "stock_exchanges": {
    "1": {
      "id": 1,
      "name": "Paris (Official List)",
      "notations": {
        "203472": {
          "id": 203472,
          "sector_id": 657,
          "start_date": "1921-06-20",
          "end_date": "1921-07-09",
          "names": [
            {
              "name": "Action Cie Gle des Tabacs (droit et coupon n° 3).",
              "start_date": "1921-06-20",
              "end_date": "1921-07-09"
            }
          ]
        }
      },
      "listings_stats": {
        "start_date": "1921-06-20"
      },
      "spot_prices_stats": {
        "start_date": "1921-06-24",
        "end_date": "1921-06-30"
      }
    }
  },
  "prices_count": 0,
  "name": "Action Cie Gle des Tabacs (droit et coupon n° 3)."
}