{
  "id": 20490,
  "share_type": {
    "id": 1,
    "name": "Stock (Action)"
  },
  "issuers": [
    {
      "id": 4450,
      "start_date": "1970-11-06",
      "end_date": "3999-12-31",
      "name": "SOCIÉTÉ DE WENDEL ET Cie"
    }
  ],
  "types": [
    {
      "start_date": "1970-11-06",
      "end_date": "3999-12-31",
      "id": 27,
      "name": "Promesse d'action",
      "stock_group": "S"
    }
  ],
  "is_mainstock": 0,
  "prices_period": [
    "1970-11-16",
    "1971-02-01"
  ],
  "stock_exchanges": {
    "1": {
      "id": 1,
      "name": "Paris (Official List)",
      "notations": {
        "151065": {
          "id": 151065,
          "sector_id": 104,
          "start_date": "1970-11-06",
          "end_date": "1971-02-08",
          "names": [
            {
              "name": "Wendel et Cie (de), act.(ex-dr., ) - Promesses (Jce 1/7/70)",
              "start_date": "1970-11-06",
              "end_date": "3999-12-31"
            }
          ]
        }
      },
      "listings_stats": {
        "start_date": "1970-11-06"
      },
      "spot_prices_stats": {
        "start_date": "1970-11-16",
        "end_date": "1971-02-01"
      }
    }
  },
  "prices_count": 7,
  "name": "Wendel et Cie (de), act.(ex-dr., ) - Promesses (Jce 1/7/70)"
}