{
  "id": 102997,
  "share_type": {
    "id": 4,
    "name": "Rights (Droits)"
  },
  "issuers": [
    {
      "id": 2766,
      "start_date": "1000-01-01",
      "end_date": "1924-07-16",
      "name": "SOCIETÉ MÉTALLURGIQUE DE SENELLE-MAUBEUGE"
    }
  ],
  "types": [
    {
      "start_date": "1000-01-01",
      "end_date": "1924-07-16",
      "id": 501,
      "name": "Droit de souscription",
      "stock_group": "R"
    }
  ],
  "is_mainstock": 0,
  "prices_period": [
    "1924-06-25",
    "1924-07-15"
  ],
  "stock_exchanges": {
    "1": {
      "id": 1,
      "name": "Paris (Official List)",
      "notations": {
        "203179": {
          "id": 203179,
          "sector_id": 657,
          "start_date": "1924-06-25",
          "end_date": "1924-07-17",
          "names": [
            {
              "name": "Act. Société Métallurgique de Senelle-Maubeuge (droit et coupon 34)",
              "start_date": "1000-01-01",
              "end_date": "1924-07-17"
            }
          ]
        }
      },
      "listings_stats": {
        "start_date": "1924-06-25"
      },
      "spot_prices_stats": {
        "start_date": "1924-06-25",
        "end_date": "1924-07-15"
      }
    }
  },
  "prices_count": 0,
  "name": "Act. Société Métallurgique de Senelle-Maubeuge (droit et coupon 34)"
}