{
  "id": 3149,
  "share_type": {
    "id": 1,
    "name": "Stock (Action)"
  },
  "issuers": [
    {
      "id": 2453,
      "start_date": "1886-06-30",
      "end_date": "3999-12-31",
      "name": "Cie DE CHEMINS DE FER DÉPARTEMENTAUX"
    }
  ],
  "types": [
    {
      "start_date": "1886-06-30",
      "end_date": "3999-12-31",
      "id": 18,
      "name": "Action",
      "stock_group": "S"
    }
  ],
  "is_mainstock": 1,
  "prices_period": [
    "1886-06-30",
    "1951-10-31"
  ],
  "stock_exchanges": {
    "1": {
      "id": 1,
      "name": "Paris (Official List)",
      "notations": {
        "4248": {
          "id": 4248,
          "sector_id": 73,
          "start_date": "1886-06-30",
          "end_date": "1892-05-16",
          "names": [
            {
              "name": "Départementaux (Cie de chem.de fer), act.500f., 200f.payés (nominatives)",
              "start_date": "1886-06-30",
              "end_date": "1892-05-16"
            },
            {
              "name": "Départementaux (Cie de chemins de fer), act. de 500 fr., 250 fr. payés",
              "start_date": "1886-06-30",
              "end_date": "1918-04-02"
            },
            {
              "name": "Départementaux, act.500fr., 300fr.p.",
              "start_date": "1886-06-30",
              "end_date": "1918-12-31"
            },
            {
              "name": "Départementaux, act. de 500 fr., 300 fr. payés",
              "start_date": "1886-06-30",
              "end_date": "1925-05-01"
            },
            {
              "name": "Départementaux, act. 500 fr., 300 fr. p.",
              "start_date": "1886-06-30",
              "end_date": "1938-06-12"
            },
            {
              "name": "Départementaux, act. 500 fr., 400 fr. p. (titres nouv., teinte verte) (c. 1 att.)",
              "start_date": "1886-06-30",
              "end_date": "1941-03-19"
            },
            {
              "name": "Départementaux, act. 500 fr., 400 fr. p.",
              "start_date": "1886-06-30",
              "end_date": "1948-06-30"
            },
            {
              "name": "Départementaux, act. 500 fr., t. p.",
              "start_date": "1886-06-30",
              "end_date": "1950-08-31"
            },
            {
              "name": "Départementaux, act. 750 fr., t. p.",
              "start_date": "1886-06-30",
              "end_date": "1951-04-02"
            },
            {
              "name": "Départementaux, act. Anc. 750 fr., t. p.",
              "start_date": "1886-06-30",
              "end_date": "3999-12-31"
            }
          ]
        },
        "4843": {
          "id": 4843,
          "sector_id": 574,
          "start_date": "1892-05-16",
          "end_date": "1920-01-02",
          "names": [
            {
              "name": "Départementaux (Cie de chem.de fer), act.500f., 200f.payés (nominatives)",
              "start_date": "1886-06-30",
              "end_date": "1920-01-02"
            },
            {
              "name": "Départementaux (Cie de chemins de fer), act. de 500 fr., 250 fr. payés",
              "start_date": "1887-10-26",
              "end_date": "1920-01-02"
            },
            {
              "name": "Départementaux, act.500fr., 300fr.p.",
              "start_date": "1892-05-16",
              "end_date": "1920-01-02"
            },
            {
              "name": "Départementaux, act. de 500 fr., 300 fr. payés",
              "start_date": "1892-05-16",
              "end_date": "1925-05-01"
            },
            {
              "name": "Départementaux, act. 500 fr., 300 fr. p.",
              "start_date": "1892-05-16",
              "end_date": "1938-06-12"
            },
            {
              "name": "Départementaux, act. 500 fr., 400 fr. p. (titres nouv., teinte verte) (c. 1 att.)",
              "start_date": "1892-05-16",
              "end_date": "1941-03-19"
            },
            {
              "name": "Départementaux, act. 500 fr., 400 fr. p.",
              "start_date": "1892-05-16",
              "end_date": "1948-06-30"
            },
            {
              "name": "Départementaux, act. 500 fr., t. p.",
              "start_date": "1892-05-16",
              "end_date": "1950-08-31"
            },
            {
              "name": "Départementaux, act. 750 fr., t. p.",
              "start_date": "1892-05-16",
              "end_date": "1951-04-02"
            },
            {
              "name": "Départementaux, act. Anc. 750 fr., t. p.",
              "start_date": "1892-05-16",
              "end_date": "3999-12-31"
            }
          ]
        },
        "10713": {
          "id": 10713,
          "sector_id": 147,
          "start_date": "1920-01-02",
          "end_date": "1925-05-01",
          "names": [
            {
              "name": "Départementaux (Cie de chem.de fer), act.500f., 200f.payés (nominatives)",
              "start_date": "1886-06-30",
              "end_date": "1925-05-01"
            },
            {
              "name": "Départementaux (Cie de chemins de fer), act. de 500 fr., 250 fr. payés",
              "start_date": "1887-10-26",
              "end_date": "1925-05-01"
            },
            {
              "name": "Départementaux, act.500fr., 300fr.p.",
              "start_date": "1918-04-02",
              "end_date": "1925-05-01"
            },
            {
              "name": "Départementaux, act. de 500 fr., 300 fr. payés",
              "start_date": "1918-12-31",
              "end_date": "1925-05-01"
            },
            {
              "name": "Départementaux, act. 500 fr., 300 fr. p.",
              "start_date": "1920-01-02",
              "end_date": "1938-06-12"
            },
            {
              "name": "Départementaux, act. 500 fr., 400 fr. p. (titres nouv., teinte verte) (c. 1 att.)",
              "start_date": "1920-01-02",
              "end_date": "1941-03-19"
            },
            {
              "name": "Départementaux, act. 500 fr., 400 fr. p.",
              "start_date": "1920-01-02",
              "end_date": "1948-06-30"
            },
            {
              "name": "Départementaux, act. 500 fr., t. p.",
              "start_date": "1920-01-02",
              "end_date": "1950-08-31"
            },
            {
              "name": "Départementaux, act. 750 fr., t. p.",
              "start_date": "1920-01-02",
              "end_date": "1951-04-02"
            },
            {
              "name": "Départementaux, act. Anc. 750 fr., t. p.",
              "start_date": "1920-01-02",
              "end_date": "3999-12-31"
            }
          ]
        },
        "13737": {
          "id": 13737,
          "sector_id": 98,
          "start_date": "1925-05-01",
          "end_date": "1938-06-13",
          "names": [
            {
              "name": "Départementaux (Cie de chem.de fer), act.500f., 200f.payés (nominatives)",
              "start_date": "1886-06-30",
              "end_date": "1938-06-13"
            },
            {
              "name": "Départementaux (Cie de chemins de fer), act. de 500 fr., 250 fr. payés",
              "start_date": "1887-10-26",
              "end_date": "1938-06-13"
            },
            {
              "name": "Départementaux, act.500fr., 300fr.p.",
              "start_date": "1918-04-02",
              "end_date": "1938-06-13"
            },
            {
              "name": "Départementaux, act. de 500 fr., 300 fr. payés",
              "start_date": "1918-12-31",
              "end_date": "1938-06-13"
            },
            {
              "name": "Départementaux, act. 500 fr., 300 fr. p.",
              "start_date": "1925-05-01",
              "end_date": "1938-06-13"
            },
            {
              "name": "Départementaux, act. 500 fr., 400 fr. p. (titres nouv., teinte verte) (c. 1 att.)",
              "start_date": "1925-05-01",
              "end_date": "1941-03-19"
            },
            {
              "name": "Départementaux, act. 500 fr., 400 fr. p.",
              "start_date": "1925-05-01",
              "end_date": "1948-06-30"
            },
            {
              "name": "Départementaux, act. 500 fr., t. p.",
              "start_date": "1925-05-01",
              "end_date": "1950-08-31"
            },
            {
              "name": "Départementaux, act. 750 fr., t. p.",
              "start_date": "1925-05-01",
              "end_date": "1951-04-02"
            },
            {
              "name": "Départementaux, act. Anc. 750 fr., t. p.",
              "start_date": "1925-05-01",
              "end_date": "3999-12-31"
            }
          ]
        },
        "23777": {
          "id": 23777,
          "sector_id": 240,
          "start_date": "1950-01-03",
          "end_date": "1951-11-02",
          "names": [
            {
              "name": "Départementaux (Cie de chem.de fer), act.500f., 200f.payés (nominatives)",
              "start_date": "1886-06-30",
              "end_date": "1951-11-02"
            },
            {
              "name": "Départementaux (Cie de chemins de fer), act. de 500 fr., 250 fr. payés",
              "start_date": "1887-10-26",
              "end_date": "1951-11-02"
            },
            {
              "name": "Départementaux, act.500fr., 300fr.p.",
              "start_date": "1918-04-02",
              "end_date": "1951-11-02"
            },
            {
              "name": "Départementaux, act. de 500 fr., 300 fr. payés",
              "start_date": "1918-12-31",
              "end_date": "1951-11-02"
            },
            {
              "name": "Départementaux, act. 500 fr., 300 fr. p.",
              "start_date": "1925-05-01",
              "end_date": "1951-11-02"
            },
            {
              "name": "Départementaux, act. 500 fr., 400 fr. p. (titres nouv., teinte verte) (c. 1 att.)",
              "start_date": "1938-06-12",
              "end_date": "1951-11-02"
            },
            {
              "name": "Départementaux, act. 500 fr., 400 fr. p.",
              "start_date": "1941-03-19",
              "end_date": "1951-11-02"
            },
            {
              "name": "Départementaux, act. 500 fr., t. p.",
              "start_date": "1948-06-30",
              "end_date": "1951-11-02"
            },
            {
              "name": "Départementaux, act. 750 fr., t. p.",
              "start_date": "1950-01-03",
              "end_date": "1951-11-02"
            },
            {
              "name": "Départementaux, act. Anc. 750 fr., t. p.",
              "start_date": "1950-01-03",
              "end_date": "3999-12-31"
            }
          ]
        },
        "155030": {
          "id": 155030,
          "sector_id": 98,
          "start_date": "1938-06-13",
          "end_date": "1950-01-03",
          "names": [
            {
              "name": "Départementaux (Cie de chem.de fer), act.500f., 200f.payés (nominatives)",
              "start_date": "1886-06-30",
              "end_date": "1950-01-03"
            },
            {
              "name": "Départementaux (Cie de chemins de fer), act. de 500 fr., 250 fr. payés",
              "start_date": "1887-10-26",
              "end_date": "1950-01-03"
            },
            {
              "name": "Départementaux, act.500fr., 300fr.p.",
              "start_date": "1918-04-02",
              "end_date": "1950-01-03"
            },
            {
              "name": "Départementaux, act. de 500 fr., 300 fr. payés",
              "start_date": "1918-12-31",
              "end_date": "1950-01-03"
            },
            {
              "name": "Départementaux, act. 500 fr., 300 fr. p.",
              "start_date": "1925-05-01",
              "end_date": "1950-01-03"
            },
            {
              "name": "Départementaux, act. 500 fr., 400 fr. p. (titres nouv., teinte verte) (c. 1 att.)",
              "start_date": "1938-06-12",
              "end_date": "1950-01-03"
            },
            {
              "name": "Départementaux, act. 500 fr., 400 fr. p.",
              "start_date": "1938-06-13",
              "end_date": "1950-01-03"
            },
            {
              "name": "Départementaux, act. 500 fr., t. p.",
              "start_date": "1938-06-13",
              "end_date": "1950-08-31"
            },
            {
              "name": "Départementaux, act. 750 fr., t. p.",
              "start_date": "1938-06-13",
              "end_date": "1951-04-02"
            },
            {
              "name": "Départementaux, act. Anc. 750 fr., t. p.",
              "start_date": "1938-06-13",
              "end_date": "3999-12-31"
            }
          ]
        }
      },
      "forward_prices_stats": {
        "start_date": "1892-05-16",
        "end_date": "1906-03-15"
      },
      "listings_stats": {
        "start_date": "1886-06-30"
      },
      "spot_prices_stats": {
        "start_date": "1886-06-30",
        "end_date": "1951-10-31"
      }
    }
  },
  "prices_count": 1461,
  "name": "Départementaux, act. 500 fr., 300 fr. p."
}