{
  "id": 4698,
  "share_type": {
    "id": 2,
    "name": "Bond (Obligation)"
  },
  "issuers": [
    {
      "id": 100,
      "start_date": "1902-11-03",
      "end_date": "3999-12-31",
      "name": "RENTES FRANÇAISES"
    }
  ],
  "types": [
    {
      "start_date": "1902-11-03",
      "end_date": "3999-12-31",
      "id": 1028,
      "name": "Promesses d'Inscription",
      "stock_group": "B"
    }
  ],
  "is_mainstock": 0,
  "prices_period": [
    "1902-11-03",
    "1907-11-30"
  ],
  "stock_exchanges": {
    "1": {
      "id": 1,
      "name": "Paris (Official List)",
      "notations": {
        "5797": {
          "id": 5797,
          "sector_id": 10,
          "start_date": "1902-11-03",
          "end_date": "1907-12-16",
          "names": [
            {
              "name": "Promesses d'inscriptions 3% 1902",
              "start_date": "1902-11-03",
              "end_date": "3999-12-31"
            }
          ]
        }
      },
      "listings_stats": {
        "start_date": "1902-11-03"
      },
      "spot_prices_stats": {
        "start_date": "1902-11-03",
        "end_date": "1907-11-30"
      }
    }
  },
  "prices_count": 126,
  "name": "Promesses d'inscriptions 3% 1902"
}