{
  "id": 102201,
  "share_type": {
    "id": 4,
    "name": "Rights (Droits)"
  },
  "issuers": [
    {
      "id": 3048,
      "start_date": "1921-01-25",
      "end_date": "1921-02-12",
      "name": "Comptoir Lyon-Alemand"
    }
  ],
  "types": [
    {
      "start_date": "1921-01-25",
      "end_date": "1921-02-12",
      "id": 502,
      "name": "Droit d'attribution",
      "stock_group": "R"
    }
  ],
  "is_mainstock": 0,
  "prices_period": [
    "1921-01-25",
    "1921-01-25"
  ],
  "stock_exchanges": {
    "1": {
      "id": 1,
      "name": "Paris (Official List)",
      "notations": {
        "202383": {
          "id": 202383,
          "sector_id": 657,
          "start_date": "1921-01-25",
          "end_date": "1921-02-13",
          "names": [
            {
              "name": "Act. Comptoir Lyon-Alemand ( droit et coupon n°17). Attributions",
              "start_date": "1921-01-25",
              "end_date": "1921-02-13"
            }
          ]
        }
      },
      "listings_stats": {
        "start_date": "1921-01-25"
      },
      "spot_prices_stats": {
        "start_date": "1921-01-25",
        "end_date": "1921-01-25"
      }
    }
  },
  "prices_count": 0,
  "name": "Act. Comptoir Lyon-Alemand ( droit et coupon n°17). Attributions"
}