{
  "id": 106455,
  "share_type": {
    "id": 1,
    "name": "Stock (Action)"
  },
  "issuers": [
    {
      "id": 4362,
      "start_date": "1970-04-30",
      "end_date": "1970-06-15",
      "name": "SOCIETE DES ACCUMULATEURS FIXES ET DE TRACTION"
    }
  ],
  "types": [
    {
      "start_date": "1970-04-30",
      "end_date": "1970-06-15",
      "id": 27,
      "name": "Promesse d'action",
      "stock_group": "S"
    }
  ],
  "is_mainstock": 0,
  "prices_period": [
    "1970-05-15",
    "1970-06-15"
  ],
  "stock_exchanges": {
    "1": {
      "id": 1,
      "name": "Paris (Official List)",
      "notations": {
        "207315": {
          "id": 207315,
          "sector_id": 347,
          "start_date": "1970-04-30",
          "end_date": "1970-06-15",
          "names": [
            {
              "name": "Accumulateurs fixes et de tractions, Promesses (Jce 1/1/70)",
              "start_date": "1970-04-30",
              "end_date": "1970-06-15"
            }
          ]
        }
      },
      "listings_stats": {
        "start_date": "1970-04-30"
      },
      "spot_prices_stats": {
        "start_date": "1970-05-15",
        "end_date": "1970-06-15"
      }
    }
  },
  "prices_count": 3,
  "name": "Accumulateurs fixes et de tractions, Promesses (Jce 1/1/70)"
}