{
  "id": 3025,
  "share_type": {
    "id": 1,
    "name": "Stock (Action)"
  },
  "issuers": [
    {
      "id": 2318,
      "start_date": "1881-10-17",
      "end_date": "3999-12-31",
      "name": "Société anonyme de la Grande distillerie E. Cusenier fils aîné et Cie"
    }
  ],
  "types": [
    {
      "start_date": "1881-10-17",
      "end_date": "3999-12-31",
      "id": 18,
      "name": "Action",
      "stock_group": "S"
    }
  ],
  "is_mainstock": 0,
  "prices_period": [
    null,
    null
  ],
  "stock_exchanges": {
    "1": {
      "id": 1,
      "name": "Paris (Official List)",
      "notations": {
        "4124": {
          "id": 4124,
          "sector_id": 73,
          "start_date": "1881-10-17",
          "end_date": "1883-04-16",
          "names": [
            {
              "name": "Grande Distillerie E.cusenier fils ainé et ce, act.500f.t.p.",
              "start_date": "1881-10-17",
              "end_date": "3999-12-31"
            }
          ]
        }
      },
      "listings_stats": {
        "start_date": "1881-10-17"
      }
    }
  },
  "prices_count": 0,
  "name": "Grande Distillerie E.cusenier fils ainé et ce, act.500f.t.p."
}