{
  "id": 9420,
  "share_type": {
    "id": 1,
    "name": "Stock (Action)"
  },
  "issuers": [
    {
      "id": 5129,
      "start_date": "1930-01-17",
      "end_date": "3999-12-31",
      "name": "Magondeaux (Société des Appareils)"
    }
  ],
  "types": [
    {
      "start_date": "1930-01-17",
      "end_date": "3999-12-31",
      "id": 11,
      "name": "Action ordinaire",
      "stock_group": "S"
    }
  ],
  "is_mainstock": 0,
  "prices_period": [
    "1930-01-17",
    "1932-08-01"
  ],
  "stock_exchanges": {
    "1": {
      "id": 1,
      "name": "Paris (Official List)",
      "notations": {
        "136867": {
          "id": 136867,
          "sector_id": 182,
          "start_date": "1930-01-17",
          "end_date": "1932-10-05",
          "names": [
            {
              "name": "Magondeaux - B.R.C., Act. 100 fr., t. p. (nos 105001 à 120000)",
              "start_date": "1930-01-17",
              "end_date": "3999-12-31"
            }
          ]
        }
      },
      "listings_stats": {
        "start_date": "1930-01-17"
      },
      "spot_prices_stats": {
        "start_date": "1930-01-17",
        "end_date": "1932-08-01"
      }
    }
  },
  "prices_count": 63,
  "name": "Magondeaux - B.R.C., Act. 100 fr., t. p. (nos 105001 à 120000)"
}