{
  "id": 3285,
  "share_type": {
    "id": 2,
    "name": "Bond (Obligation)"
  },
  "issuers": [
    {
      "id": 2686,
      "start_date": "1887-05-13",
      "end_date": "3999-12-31",
      "name": "ETATS : ARGENTINE"
    }
  ],
  "types": [
    {
      "start_date": "1887-05-13",
      "end_date": "3999-12-31",
      "id": 1001,
      "name": "Obligation ordinaire ou classique",
      "stock_group": "B"
    }
  ],
  "is_mainstock": 0,
  "prices_period": [
    "1887-05-16",
    "1887-05-16"
  ],
  "stock_exchanges": {
    "1": {
      "id": 1,
      "name": "Paris (Official List)",
      "notations": {
        "4384": {
          "id": 4384,
          "sector_id": 74,
          "start_date": "1887-05-13",
          "end_date": "1889-01-13",
          "names": [
            {
              "name": "Gouvt Argentin 6%, 1881, r.à 500f., coup.de 5",
              "start_date": "1887-05-13",
              "end_date": "3999-12-31"
            }
          ]
        }
      },
      "listings_stats": {
        "start_date": "1887-05-13"
      },
      "spot_prices_stats": {
        "start_date": "1887-05-16",
        "end_date": "1887-05-16"
      }
    }
  },
  "prices_count": 1,
  "name": "Gouvt Argentin 6%, 1881, r.à 500f., coup.de 5"
}