{
  "id": 15595,
  "share_type": {
    "id": 1,
    "name": "Stock (Action)"
  },
  "issuers": [
    {
      "id": 2992,
      "start_date": "1958-06-20",
      "end_date": "3999-12-31",
      "name": "SOCIETE REUNIES EVERITE-SITUBE (Produits en amiante, ciment et en béton)"
    }
  ],
  "types": [
    {
      "start_date": "1958-06-20",
      "end_date": "3999-12-31",
      "id": 27,
      "name": "Promesse d'action",
      "stock_group": "S"
    }
  ],
  "is_mainstock": 0,
  "prices_period": [
    "1958-06-24",
    "1959-06-30"
  ],
  "stock_exchanges": {
    "1": {
      "id": 1,
      "name": "Paris (Official List)",
      "notations": {
        "146170": {
          "id": 146170,
          "sector_id": 393,
          "start_date": "1958-06-20",
          "end_date": "1959-07-01",
          "names": [
            {
              "name": "Everitube, Promesses (Jce 1/7/58)",
              "start_date": "1958-06-20",
              "end_date": "1959-07-01"
            },
            {
              "name": "Everitube Act. (n° 300001 à 500000) (c. 13 spéc. Att.)",
              "start_date": "1958-06-20",
              "end_date": "3999-12-31"
            }
          ]
        }
      },
      "listings_stats": {
        "start_date": "1958-06-20"
      },
      "spot_prices_stats": {
        "start_date": "1958-06-24",
        "end_date": "1959-06-30"
      }
    }
  },
  "prices_count": 26,
  "name": "Everitube, Promesses (Jce 1/7/58)"
}