{
  "id": 102977,
  "share_type": {
    "id": 4,
    "name": "Rights (Droits)"
  },
  "issuers": [
    {
      "id": 739,
      "start_date": "1000-01-01",
      "end_date": "3999-12-31",
      "name": "SOCIETE GENERALE pour favoriser le développement du Commerce et de l'Industrie en France"
    }
  ],
  "types": [
    {
      "start_date": "1000-01-01",
      "end_date": "3999-12-31",
      "id": 501,
      "name": "Droit de souscription",
      "stock_group": "R"
    }
  ],
  "is_mainstock": 0,
  "prices_period": [
    "1943-02-15",
    "1944-10-31"
  ],
  "stock_exchanges": {
    "1": {
      "id": 1,
      "name": "Paris (Official List)",
      "notations": {
        "203159": {
          "id": 203159,
          "sector_id": 657,
          "start_date": "1943-01-19",
          "end_date": "4000-01-01",
          "names": [
            {
              "name": "Act. Société Générale. 1 act. nouv. oct. 1942 émise à 540 fr. pour 5 bons",
              "start_date": "1000-01-01",
              "end_date": "4000-01-01"
            }
          ]
        }
      },
      "listings_stats": {
        "start_date": "1943-01-19"
      },
      "spot_prices_stats": {
        "start_date": "1943-02-15",
        "end_date": "1944-10-31"
      }
    }
  },
  "prices_count": 28,
  "name": "Act. Société Générale. 1 act. nouv. oct. 1942 émise à 540 fr. pour 5 bons"
}