{
  "id": 970,
  "share_type": {
    "id": 2,
    "name": "Bond (Obligation)"
  },
  "issuers": [
    {
      "id": 100,
      "start_date": "1859-05-31",
      "end_date": "3999-12-31",
      "name": "RENTES FRANÇAISES"
    }
  ],
  "types": [
    {
      "start_date": "1859-05-31",
      "end_date": "3999-12-31",
      "id": 1001,
      "name": "Obligation ordinaire ou classique",
      "stock_group": "B"
    }
  ],
  "is_mainstock": 0,
  "prices_period": [
    "1859-05-31",
    "1860-11-30"
  ],
  "stock_exchanges": {
    "1": {
      "id": 1,
      "name": "Paris (Official List)",
      "notations": {
        "2079": {
          "id": 2079,
          "sector_id": 10,
          "start_date": "1859-05-31",
          "end_date": "1860-12-12",
          "names": [
            {
              "name": "3% Empt 1859, j. 22 déc. 1858",
              "start_date": "1859-05-31",
              "end_date": "3999-12-31"
            }
          ]
        }
      },
      "forward_prices_stats": {
        "start_date": "1859-05-31",
        "end_date": "1860-11-30"
      },
      "listings_stats": {
        "start_date": "1859-05-31"
      },
      "spot_prices_stats": {
        "start_date": "1859-05-31",
        "end_date": "1860-10-31"
      }
    }
  },
  "prices_count": 158,
  "name": "3% Empt 1859, j. 22 déc. 1858"
}