{
  "id": 25356,
  "share_type": {
    "id": 1,
    "name": "Stock (Action)"
  },
  "issuers": [
    {
      "id": 1204,
      "start_date": "1921-05-22",
      "end_date": "3999-12-31",
      "name": "Electro Métallurgique Française"
    }
  ],
  "types": [
    {
      "start_date": "1000-01-01",
      "end_date": "3999-12-31",
      "id": 18,
      "name": "Action",
      "stock_group": "S"
    }
  ],
  "is_mainstock": 0,
  "prices_period": [
    "1921-05-31",
    "1921-05-31"
  ],
  "stock_exchanges": {
    "1": {
      "id": 1,
      "name": "Paris (Official List)",
      "notations": {
        "90356": {
          "id": 90356,
          "sector_id": 104,
          "start_date": "1921-05-22",
          "end_date": "1921-06-01",
          "names": [
            {
              "name": "Electro-Metallurgique Française (Sté), act. 250 fr., t. p., non estampillées",
              "start_date": "1921-05-22",
              "end_date": "3999-12-31"
            }
          ]
        }
      },
      "listings_stats": {
        "start_date": "1921-05-22"
      },
      "spot_prices_stats": {
        "start_date": "1921-05-31",
        "end_date": "1921-05-31"
      }
    }
  },
  "prices_count": 1,
  "name": "Electro-Metallurgique Française (Sté), act. 250 fr., t. p., non estampillées"
}