{
  "id": 4697,
  "share_type": {
    "id": 1,
    "name": "Stock (Action)"
  },
  "issuers": [
    {
      "id": 2643,
      "start_date": "1897-05-26",
      "end_date": "3999-12-31",
      "name": "Compagnie des Tramways de Roubaix et de Tourcoing"
    }
  ],
  "types": [
    {
      "start_date": "1897-05-31",
      "end_date": "3999-12-31",
      "id": 18,
      "name": "Action",
      "stock_group": "S"
    }
  ],
  "is_mainstock": 1,
  "prices_period": [
    "1897-05-31",
    "1923-02-28"
  ],
  "stock_exchanges": {
    "1": {
      "id": 1,
      "name": "Paris (Official List)",
      "notations": {
        "1671": {
          "id": 1671,
          "sector_id": 98,
          "start_date": "1902-05-26",
          "end_date": "1914-08-03",
          "names": [
            {
              "name": "Tramways de Roubaix et Tourcoing (Cie nouv. des)",
              "start_date": "1892-05-05",
              "end_date": "1914-08-03"
            },
            {
              "name": "Tramways de Roubaix et Tourcoing (Cie nouvelle des), act. 500 fr., t. p.",
              "start_date": "1899-12-20",
              "end_date": "1914-12-15"
            },
            {
              "name": "Tramways de Roubaix et de Tourcoing, act. 500 fr., tout payé",
              "start_date": "1902-05-26",
              "end_date": "3999-12-31"
            }
          ]
        },
        "5796": {
          "id": 5796,
          "sector_id": 73,
          "start_date": "1899-12-20",
          "end_date": "1902-05-26",
          "names": [
            {
              "name": "Tramways de Roubaix et Tourcoing (Cie nouv. des)",
              "start_date": "1892-05-05",
              "end_date": "1902-05-26"
            },
            {
              "name": "Tramways de Roubaix et Tourcoing (Cie nouvelle des), act. 500 fr., t. p.",
              "start_date": "1899-12-20",
              "end_date": "1914-12-15"
            },
            {
              "name": "Tramways de Roubaix et de Tourcoing, act. 500 fr., tout payé",
              "start_date": "1899-12-20",
              "end_date": "3999-12-31"
            }
          ]
        },
        "9948": {
          "id": 9948,
          "sector_id": 98,
          "start_date": "1914-12-15",
          "end_date": "1923-03-03",
          "names": [
            {
              "name": "Tramways de Roubaix et Tourcoing (Cie nouv. des)",
              "start_date": "1892-05-05",
              "end_date": "1923-03-03"
            },
            {
              "name": "Tramways de Roubaix et Tourcoing (Cie nouvelle des), act. 500 fr., t. p.",
              "start_date": "1899-12-20",
              "end_date": "1923-03-03"
            },
            {
              "name": "Tramways de Roubaix et de Tourcoing, act. 500 fr., tout payé",
              "start_date": "1914-12-15",
              "end_date": "3999-12-31"
            }
          ]
        },
        "155707": {
          "id": 155707,
          "sector_id": 119,
          "start_date": "1897-05-26",
          "end_date": "1899-12-18",
          "names": [
            {
              "name": "Tramways de Roubaix et Tourcoing (Cie nouv. des)",
              "start_date": "1892-05-05",
              "end_date": "1899-12-18"
            },
            {
              "name": "Tramways de Roubaix et Tourcoing (Cie nouvelle des), act. 500 fr., t. p.",
              "start_date": "1897-05-26",
              "end_date": "1914-12-15"
            },
            {
              "name": "Tramways de Roubaix et de Tourcoing, act. 500 fr., tout payé",
              "start_date": "1897-05-26",
              "end_date": "3999-12-31"
            }
          ]
        }
      },
      "listings_stats": {
        "start_date": "1897-05-26"
      },
      "spot_prices_stats": {
        "start_date": "1897-05-31",
        "end_date": "1923-02-28"
      }
    },
    "2": {
      "id": 2,
      "name": "Paris OTC (Coulisse)",
      "notations": {
        "207740": {
          "id": 207740,
          "sector_id": 680,
          "start_date": "1899-01-16",
          "end_date": "1899-01-16",
          "names": [
            {
              "name": "TRAMWAYS ROUBAIX-TOURCOING",
              "start_date": "1899-01-16",
              "end_date": "1899-01-16"
            }
          ]
        }
      },
      "listings_stats": {
        "start_date": "1899-01-16"
      }
    }
  },
  "prices_count": 573,
  "name": "Tramways de Roubaix et Tourcoing (Cie nouv. des)"
}