{
  "id": 100795,
  "share_type": {
    "id": 4,
    "name": "Rights (Droits)"
  },
  "issuers": [
    {
      "id": 2580,
      "start_date": "1947-09-01",
      "end_date": "3999-12-31",
      "name": "CHEMINS DE FER DU MIDI DE L'ITALIE"
    }
  ],
  "types": [
    {
      "start_date": "1947-09-01",
      "end_date": "3999-12-31",
      "id": 501,
      "name": "Droit de souscription",
      "stock_group": "R"
    }
  ],
  "is_mainstock": 0,
  "prices_period": [
    "1947-09-03",
    "1947-09-03"
  ],
  "stock_exchanges": {
    "1": {
      "id": 1,
      "name": "Paris (Official List)",
      "notations": {
        "200940": {
          "id": 200940,
          "sector_id": 657,
          "start_date": "1947-09-01",
          "end_date": "4000-01-01",
          "names": [
            {
              "name": "Act. 100 fr. Banque Commerciale Africaine (droit et coupon 6). 1 action nouvelle de 500 fr. émise à 525 fr. pour 10 actions anciennes de 100 fr.",
              "start_date": "1947-09-01",
              "end_date": "4000-01-01"
            }
          ]
        }
      },
      "listings_stats": {
        "start_date": "1947-09-01"
      },
      "spot_prices_stats": {
        "start_date": "1947-09-03",
        "end_date": "1947-09-03"
      }
    }
  },
  "prices_count": 1,
  "name": "Act. 100 fr. Banque Commerciale Africaine (droit et coupon 6). 1 action nouvelle de 500 fr. émise à 525 fr. pour 10 actions anciennes de 100 fr."
}