{
  "id": 18471,
  "share_type": {
    "id": 1,
    "name": "Stock (Action)"
  },
  "issuers": [
    {
      "id": 5419,
      "start_date": "1965-11-09",
      "end_date": "3999-12-31",
      "name": "Simotra (Société Industrielle d’Exploitation des moyens de Transport)"
    }
  ],
  "types": [
    {
      "start_date": "1965-11-09",
      "end_date": "3999-12-31",
      "id": 27,
      "name": "Promesse d'action",
      "stock_group": "S"
    }
  ],
  "is_mainstock": 0,
  "prices_period": [
    "1965-11-09",
    "1966-06-30"
  ],
  "stock_exchanges": {
    "1": {
      "id": 1,
      "name": "Paris (Official List)",
      "notations": {
        "149046": {
          "id": 149046,
          "sector_id": 353,
          "start_date": "1965-11-09",
          "end_date": "1966-07-06",
          "names": [
            {
              "name": "Simotra (Sté Industr. D'Exploitation des Moyens de Transp.), Promesses (Jce 1/1/66)",
              "start_date": "1965-11-09",
              "end_date": "1966-07-06"
            },
            {
              "name": "Simotra (Sté Industr. D'Exploitation des Moyens de Transp.), act. (n° 225001 à 250000) (c. 8 att.)",
              "start_date": "1965-11-09",
              "end_date": "3999-12-31"
            }
          ]
        }
      },
      "listings_stats": {
        "start_date": "1965-11-09"
      },
      "spot_prices_stats": {
        "start_date": "1965-11-09",
        "end_date": "1966-06-30"
      }
    }
  },
  "prices_count": 17,
  "name": "Simotra (Sté Industr. D'Exploitation des Moyens de Transp.), Promesses (Jce 1/1/66)"
}