{
  "id": 40230,
  "share_type": {
    "id": 1,
    "name": "Stock (Action)"
  },
  "issuers": [
    {
      "id": 350,
      "start_date": "1000-01-01",
      "end_date": "3999-12-31",
      "name": "Mélusine (Compagnie d'Assurances Maritimes et Prêtes à la Grosse)"
    }
  ],
  "types": [
    {
      "start_date": "1000-01-01",
      "end_date": "3999-12-31",
      "id": 1,
      "name": "UNKNOWN",
      "stock_group": "U"
    }
  ],
  "is_mainstock": 0,
  "prices_period": [
    null,
    null
  ],
  "stock_exchanges": {
    "1": {
      "id": 1,
      "name": "Paris (Official List)",
      "notations": {
        "155232": {
          "id": 155232,
          "sector_id": 118,
          "start_date": "1892-12-26",
          "end_date": "1902-05-05",
          "names": [
            {
              "name": "La Mélusine-Prévoyance-Réassurances, nominat.",
              "start_date": "1892-12-26",
              "end_date": "1902-05-05"
            }
          ]
        }
      },
      "listings_stats": {
        "start_date": "1892-12-26"
      }
    }
  },
  "prices_count": 0,
  "name": "La Mélusine-Prévoyance-Réassurances, nominat."
}