{
  "id": 18506,
  "share_type": {
    "id": 2,
    "name": "Bond (Obligation)"
  },
  "issuers": [
    {
      "id": 4319,
      "start_date": "1965-11-03",
      "end_date": "3999-12-31",
      "name": "L'UNION COMMERCIALE INDO-CHINOISE"
    }
  ],
  "types": [
    {
      "start_date": "1965-11-03",
      "end_date": "3999-12-31",
      "id": 1001,
      "name": "Obligation ordinaire ou classique",
      "stock_group": "B"
    }
  ],
  "is_mainstock": 0,
  "prices_period": [
    "1965-11-03",
    "1967-02-28"
  ],
  "stock_exchanges": {
    "1": {
      "id": 1,
      "name": "Paris (Official List)",
      "notations": {
        "149081": {
          "id": 149081,
          "sector_id": 368,
          "start_date": "1965-11-03",
          "end_date": "1967-03-01",
          "names": [
            {
              "name": "Lucia 4,25% 1946 1947-76",
              "start_date": "1965-11-03",
              "end_date": "1967-03-01"
            },
            {
              "name": "Lucia 4, 25% 1946 (Tir. 16/6/65) 1947-76",
              "start_date": "1965-11-03",
              "end_date": "3999-12-31"
            }
          ]
        }
      },
      "listings_stats": {
        "start_date": "1965-11-03"
      },
      "spot_prices_stats": {
        "start_date": "1965-11-03",
        "end_date": "1967-02-28"
      }
    }
  },
  "prices_count": 34,
  "name": "Lucia 4,25% 1946 1947-76"
}