{
  "id": 5564,
  "share_type": {
    "id": 2,
    "name": "Bond (Obligation)"
  },
  "issuers": [
    {
      "id": 1220,
      "start_date": "1916-05-15",
      "end_date": "3999-12-31",
      "name": "CHEMINS DE FER DU NORD DE L'ESPAGNE"
    }
  ],
  "types": [
    {
      "start_date": "1916-05-15",
      "end_date": "3999-12-31",
      "id": 1027,
      "name": "Certificats de Prêts à l'Etat Français",
      "stock_group": "B"
    }
  ],
  "is_mainstock": 0,
  "prices_period": [
    null,
    null
  ],
  "stock_exchanges": {
    "1": {
      "id": 1,
      "name": "Paris (Official List)",
      "notations": {
        "7969": {
          "id": 7969,
          "sector_id": 582,
          "start_date": "1916-05-15",
          "end_date": "1918-04-02",
          "names": [
            {
              "name": "Nord de l'Espagne, Asturies 3% 2e hyp",
              "start_date": "1916-05-15",
              "end_date": "1918-04-02"
            },
            {
              "name": "Nord de l'Espagne, Asturies 3% 2e hyp (CERTIFICATS DE PRETS à l'ETAT FRANCAIS)",
              "start_date": "1916-05-15",
              "end_date": "1918-04-02"
            },
            {
              "name": "Nord-Espagne Asturies 3%, r.à 500fr., 2e hyp., Certificat.de prêt",
              "start_date": "1916-05-15",
              "end_date": "3999-12-31"
            }
          ]
        },
        "9531": {
          "id": 9531,
          "sector_id": 144,
          "start_date": "1918-04-02",
          "end_date": "1919-06-18",
          "names": [
            {
              "name": "Nord de l'Espagne, Asturies 3% 2e hyp",
              "start_date": "1916-05-15",
              "end_date": "1919-06-18"
            },
            {
              "name": "Nord de l'Espagne, Asturies 3% 2e hyp (CERTIFICATS DE PRETS à l'ETAT FRANCAIS)",
              "start_date": "1916-06-15",
              "end_date": "1919-06-18"
            },
            {
              "name": "Nord-Espagne Asturies 3%, r.à 500fr., 2e hyp., Certificat.de prêt",
              "start_date": "1918-04-02",
              "end_date": "3999-12-31"
            }
          ]
        }
      },
      "listings_stats": {
        "start_date": "1916-05-15"
      }
    }
  },
  "prices_count": 0,
  "name": "Nord de l'Espagne, Asturies 3% 2e hyp"
}