{
  "id": 1684,
  "share_type": {
    "id": 2,
    "name": "Bond (Obligation)"
  },
  "issuers": [
    {
      "id": 1251,
      "start_date": "1875-12-01",
      "end_date": "3999-12-31",
      "name": "Compagnie universelle du Canal maritime de Suez"
    }
  ],
  "types": [
    {
      "start_date": "1875-12-01",
      "end_date": "3999-12-31",
      "id": 1026,
      "name": "Délégations",
      "stock_group": "B"
    }
  ],
  "is_mainstock": 0,
  "prices_period": [
    "1875-12-01",
    "1894-05-31"
  ],
  "stock_exchanges": {
    "1": {
      "id": 1,
      "name": "Paris (Official List)",
      "notations": {
        "2786": {
          "id": 2786,
          "sector_id": 574,
          "start_date": "1875-12-01",
          "end_date": "1894-06-09",
          "names": [
            {
              "name": "Canal Maritime de Suez, Délégations, remb. a. 500f., t.p. (coupons 12 et antérieurs détachés)",
              "start_date": "1875-12-01",
              "end_date": "1894-06-09"
            },
            {
              "name": "Canal maritime de Suez Délégations, remb.à 500f., t.p.",
              "start_date": "1875-12-01",
              "end_date": "3999-12-31"
            }
          ]
        }
      },
      "forward_prices_stats": {
        "start_date": "1875-12-01",
        "end_date": "1892-08-31"
      },
      "listings_stats": {
        "start_date": "1875-12-01"
      },
      "options_prices_stats": {
        "start_date": "1875-12-01",
        "end_date": "1885-11-16"
      },
      "spot_prices_stats": {
        "start_date": "1875-12-01",
        "end_date": "1894-05-31"
      }
    }
  },
  "prices_count": 1718,
  "name": "Canal maritime de Suez Délégations, remb.à 500f., t.p."
}