{
  "id": 35085,
  "share_type": {
    "id": 1,
    "name": "Stock (Action)"
  },
  "issuers": [
    {
      "id": 5464,
      "start_date": "1972-05-24",
      "end_date": "3999-12-31",
      "name": "Nestlé and Anglo-Swiss Condensed Milk Cy"
    }
  ],
  "types": [
    {
      "start_date": "1972-05-24",
      "end_date": "3999-12-31",
      "id": 18,
      "name": "Action",
      "stock_group": "S"
    }
  ],
  "is_mainstock": 0,
  "prices_period": [
    null,
    null
  ],
  "stock_exchanges": {
    "1": {
      "id": 1,
      "name": "Paris (Official List)",
      "notations": {
        "152946": {
          "id": 152946,
          "sector_id": 311,
          "start_date": "1972-05-24",
          "end_date": "3999-12-31",
          "names": [
            {
              "name": "Nestlé Alimentana S.A. act 100 FS",
              "start_date": "1972-05-24",
              "end_date": "3999-12-31"
            }
          ]
        }
      },
      "listings_stats": {
        "start_date": "1972-05-24"
      }
    }
  },
  "prices_count": 0,
  "name": "Nestlé Alimentana S.A. act 100 FS"
}