{
  "id": 8421,
  "share_type": {
    "id": 2,
    "name": "Bond (Obligation)"
  },
  "issuers": [
    {
      "id": 4736,
      "start_date": "1927-03-11",
      "end_date": "3999-12-31",
      "name": "ENERGIE ELECTRIQUE DU MAROC"
    }
  ],
  "types": [
    {
      "start_date": "1927-03-11",
      "end_date": "3999-12-31",
      "id": 1001,
      "name": "Obligation ordinaire ou classique",
      "stock_group": "B"
    }
  ],
  "is_mainstock": 0,
  "prices_period": [
    "1927-03-11",
    "1936-06-02"
  ],
  "stock_exchanges": {
    "1": {
      "id": 1,
      "name": "Paris (Official List)",
      "notations": {
        "135868": {
          "id": 135868,
          "sector_id": 117,
          "start_date": "1927-03-11",
          "end_date": "1936-07-01",
          "names": [
            {
              "name": "Energie Electrique du Maroc Bons 7% 1926, remb. à 750 f. (Int. et amort. garantis par Etat chérifien)",
              "start_date": "1927-03-11",
              "end_date": "3999-12-31"
            }
          ]
        }
      },
      "listings_stats": {
        "start_date": "1927-03-11"
      },
      "spot_prices_stats": {
        "start_date": "1927-03-11",
        "end_date": "1936-06-02"
      }
    }
  },
  "prices_count": 219,
  "name": "Energie Electrique du Maroc Bons 7% 1926, remb. à 750 f. (Int. et amort. garantis par Etat chérifien)"
}