{
  "id": 17017,
  "share_type": {
    "id": 1,
    "name": "Stock (Action)"
  },
  "issuers": [
    {
      "id": 2381,
      "start_date": "1963-09-23",
      "end_date": "3999-12-31",
      "name": "CREDIT DU NORD"
    }
  ],
  "types": [
    {
      "start_date": "1963-09-23",
      "end_date": "3999-12-31",
      "id": 18,
      "name": "Action",
      "stock_group": "S"
    }
  ],
  "is_mainstock": 0,
  "prices_period": [
    null,
    null
  ],
  "stock_exchanges": {
    "1": {
      "id": 1,
      "name": "Paris (Official List)",
      "notations": {
        "32285": {
          "id": 32285,
          "sector_id": 471,
          "start_date": "1969-03-25",
          "end_date": "3999-12-31",
          "names": [
            {
              "name": "Crédit du Nord, actions 50F (ex-dr., ) (par 25 actions)",
              "start_date": "1963-09-23",
              "end_date": "3999-12-31"
            },
            {
              "name": "Crédit du Nord et Union Parisienne, act 50F (par 25 actions)",
              "start_date": "1969-03-25",
              "end_date": "3999-12-31"
            },
            {
              "name": "Crédit du Nord actions 50F (par 25 actions)",
              "start_date": "1969-03-25",
              "end_date": "3999-12-31"
            }
          ]
        },
        "147592": {
          "id": 147592,
          "sector_id": 1,
          "start_date": "1963-09-23",
          "end_date": "1969-03-25",
          "names": [
            {
              "name": "Crédit du Nord, actions 50F (ex-dr., ) (par 25 actions)",
              "start_date": "1963-09-23",
              "end_date": "1974-07-01"
            },
            {
              "name": "Crédit du Nord et Union Parisienne, act 50F (par 25 actions)",
              "start_date": "1963-09-23",
              "end_date": "1976-05-24"
            },
            {
              "name": "Crédit du Nord actions 50F (par 25 actions)",
              "start_date": "1963-09-23",
              "end_date": "3999-12-31"
            }
          ]
        }
      },
      "listings_stats": {
        "start_date": "1963-09-23"
      }
    }
  },
  "prices_count": 0,
  "name": "Crédit du Nord actions 50F (par 25 actions)"
}