{
  "id": 106244,
  "share_type": {
    "id": 1,
    "name": "Stock (Action)"
  },
  "issuers": [
    {
      "id": 2109,
      "start_date": "1950-11-02",
      "end_date": "3999-12-31",
      "name": "Le Nord, Compagnie d'assurances sur la vie et de prêts viagers"
    }
  ],
  "types": [],
  "is_mainstock": 0,
  "prices_period": [
    "1950-11-15",
    "1952-01-02"
  ],
  "stock_exchanges": {},
  "prices_count": 19
}