{
  "id": 2538,
  "share_type": {
    "id": 2,
    "name": "Bond (Obligation)"
  },
  "issuers": [
    {
      "id": 100,
      "start_date": "1883-10-03",
      "end_date": "3999-12-31",
      "name": "RENTES FRANÇAISES"
    }
  ],
  "types": [
    {
      "start_date": "1883-10-03",
      "end_date": "3999-12-31",
      "id": 1013,
      "name": "Bons du Trésor",
      "stock_group": "B"
    }
  ],
  "is_mainstock": 0,
  "prices_period": [
    "1884-03-15",
    "1884-03-15"
  ],
  "stock_exchanges": {
    "1": {
      "id": 1,
      "name": "Paris (Official List)",
      "notations": {
        "3637": {
          "id": 3637,
          "sector_id": 10,
          "start_date": "1883-10-03",
          "end_date": "1886-03-01",
          "names": [
            {
              "name": "Bons du Trésor 4%, éch. 1er mars 1886 (coup. De 5000f.)",
              "start_date": "1883-10-03",
              "end_date": "3999-12-31"
            }
          ]
        }
      },
      "listings_stats": {
        "start_date": "1883-10-03"
      },
      "spot_prices_stats": {
        "start_date": "1884-03-15",
        "end_date": "1884-03-15"
      }
    }
  },
  "prices_count": 1,
  "name": "Bons du Trésor 4%, éch. 1er mars 1886 (coup. De 5000f.)"
}