{
  "id": 20569,
  "share_type": {
    "id": 2,
    "name": "Bond (Obligation)"
  },
  "issuers": [
    {
      "id": 4435,
      "start_date": "1970-05-27",
      "end_date": "3999-12-31",
      "name": "PETROFIGAZ"
    }
  ],
  "types": [
    {
      "start_date": "1970-05-27",
      "end_date": "3999-12-31",
      "id": 1001,
      "name": "Obligation ordinaire ou classique",
      "stock_group": "B"
    }
  ],
  "is_mainstock": 0,
  "prices_period": [
    "1970-05-27",
    "1976-12-31"
  ],
  "stock_exchanges": {
    "1": {
      "id": 1,
      "name": "Paris (Official List)",
      "notations": {
        "151144": {
          "id": 151144,
          "sector_id": 355,
          "start_date": "1970-05-27",
          "end_date": "3999-12-31",
          "names": [
            {
              "name": "Pétrofigaz 6%-6,5% mars 1958 à bon suppl. en int.et cap.var.(Tir, 26/2/70) (Emprunt Aluminium-Lacq) (Avis 34049) - 8,75% 1970 (c. 1/2/71 att.) 1971-85",
              "start_date": "1970-05-27",
              "end_date": "3999-12-31"
            }
          ]
        }
      },
      "listings_stats": {
        "start_date": "1970-05-27"
      },
      "spot_prices_stats": {
        "start_date": "1970-05-27",
        "end_date": "1976-12-31"
      }
    }
  },
  "prices_count": 160,
  "name": "Pétrofigaz 6%-6,5% mars 1958 à bon suppl. en int.et cap.var.(Tir, 26/2/70) (Emprunt Aluminium-Lacq) (Avis 34049) - 8,75% 1970 (c. 1/2/71 att.) 1971-85"
}