{
  "id": 22056,
  "share_type": {
    "id": 2,
    "name": "Bond (Obligation)"
  },
  "issuers": [
    {
      "id": 3929,
      "start_date": "1952-11-20",
      "end_date": "3999-12-31",
      "name": "SOCIETE DES PNEUMATIQUES DUNLOP"
    }
  ],
  "types": [
    {
      "start_date": "1952-11-20",
      "end_date": "3999-12-31",
      "id": 1001,
      "name": "Obligation ordinaire ou classique",
      "stock_group": "B"
    }
  ],
  "is_mainstock": 0,
  "prices_period": [
    "1952-11-20",
    "1958-12-31"
  ],
  "stock_exchanges": {
    "1": {
      "id": 1,
      "name": "Paris (Official List)",
      "notations": {
        "26433": {
          "id": 26433,
          "sector_id": 359,
          "start_date": "1955-12-01",
          "end_date": "1959-01-02",
          "names": [
            {
              "name": "Dunlop 4% juillet 1942 (n°s 28001 à 29858) (T. 6/6/55) 1943-60",
              "start_date": "1952-11-20",
              "end_date": "1959-01-02"
            },
            {
              "name": "Dunlop 4% juillet 1942 (n 28001 à 29858)(tirage 5/6/58) 1943-60",
              "start_date": "1955-12-01",
              "end_date": "3999-12-31"
            }
          ]
        },
        "152617": {
          "id": 152617,
          "sector_id": 223,
          "start_date": "1952-11-20",
          "end_date": "1955-12-01",
          "names": [
            {
              "name": "Dunlop 4% juillet 1942 (n°s 28001 à 29858) (T. 6/6/55) 1943-60",
              "start_date": "1952-11-20",
              "end_date": "1959-01-02"
            },
            {
              "name": "Dunlop 4% juillet 1942 (n 28001 à 29858)(tirage 5/6/58) 1943-60",
              "start_date": "1952-11-20",
              "end_date": "3999-12-31"
            }
          ]
        }
      },
      "listings_stats": {
        "start_date": "1952-11-20"
      },
      "spot_prices_stats": {
        "start_date": "1952-11-20",
        "end_date": "1958-12-31"
      }
    }
  },
  "prices_count": 164,
  "name": "Dunlop 4% juillet 1942 (n°s 28001 à 29858) (T. 6/6/55) 1943-60"
}