{
  "id": 9039,
  "share_type": {
    "id": 1,
    "name": "Stock (Action)"
  },
  "issuers": [
    {
      "id": 3106,
      "start_date": "1928-07-16",
      "end_date": "3999-12-31",
      "name": "\" EST-LUMIERE \" (Compagnie d'Electricité de l'Est-Parisien)"
    }
  ],
  "types": [
    {
      "start_date": "1928-07-16",
      "end_date": "3999-12-31",
      "id": 11,
      "name": "Action ordinaire",
      "stock_group": "S"
    }
  ],
  "is_mainstock": 0,
  "prices_period": [
    "1928-07-16",
    "1928-09-17"
  ],
  "stock_exchanges": {
    "1": {
      "id": 1,
      "name": "Paris (Official List)",
      "notations": {
        "136486": {
          "id": 136486,
          "sector_id": 116,
          "start_date": "1928-07-16",
          "end_date": "1928-10-01",
          "names": [
            {
              "name": "Est Lumière (Est Parisien), act. 100 fr., 25 fr. p. (nos 100001 à 300000) (nom.) (dr. à la répart. att.)",
              "start_date": "1928-07-16",
              "end_date": "3999-12-31"
            }
          ]
        }
      },
      "listings_stats": {
        "start_date": "1928-07-16"
      },
      "spot_prices_stats": {
        "start_date": "1928-07-16",
        "end_date": "1928-09-17"
      }
    }
  },
  "prices_count": 8,
  "name": "Est Lumière (Est Parisien), act. 100 fr., 25 fr. p. (nos 100001 à 300000) (nom.) (dr. à la répart. att.)"
}