{
  "id": 14952,
  "share_type": {
    "id": 1,
    "name": "Stock (Action)"
  },
  "issuers": [
    {
      "id": 2545,
      "start_date": "1955-03-01",
      "end_date": "3999-12-31",
      "name": "Compagnie Internationale des Wagons-lits et des grands Express européens"
    }
  ],
  "types": [
    {
      "start_date": "1955-03-01",
      "end_date": "3999-12-31",
      "id": 11,
      "name": "Action ordinaire",
      "stock_group": "S"
    }
  ],
  "is_mainstock": 0,
  "prices_period": [
    "1955-03-08",
    "1975-04-01"
  ],
  "stock_exchanges": {
    "1": {
      "id": 1,
      "name": "Paris (Official List)",
      "notations": {
        "28901": {
          "id": 28901,
          "sector_id": 546,
          "start_date": "1962-01-02",
          "end_date": "1975-04-04",
          "names": [
            {
              "name": "Wagons-Lits, act. Ord. 500 fr. Belges, t. p. (n° 1 à 126500) (c. 41 att.) coup de 5",
              "start_date": "1955-03-01",
              "end_date": "1975-04-04"
            },
            {
              "name": "Wagons-Lits, actions ord. 500 fr. belges, t. p. (n°s 1 à 1256500) Coup. De 5",
              "start_date": "1955-12-01",
              "end_date": "1975-04-04"
            },
            {
              "name": "Wagons-Lits, Act.ord.500 FB (n° 1 à 1256500), oup. De 5",
              "start_date": "1962-01-02",
              "end_date": "3999-12-31"
            }
          ]
        },
        "145527": {
          "id": 145527,
          "sector_id": 82,
          "start_date": "1955-03-01",
          "end_date": "1962-01-02",
          "names": [
            {
              "name": "Wagons-Lits, act. Ord. 500 fr. Belges, t. p. (n° 1 à 126500) (c. 41 att.) coup de 5",
              "start_date": "1955-03-01",
              "end_date": "1962-01-02"
            },
            {
              "name": "Wagons-Lits, actions ord. 500 fr. belges, t. p. (n°s 1 à 1256500) Coup. De 5",
              "start_date": "1955-03-01",
              "end_date": "1962-01-02"
            },
            {
              "name": "Wagons-Lits, Act.ord.500 FB (n° 1 à 1256500), oup. De 5",
              "start_date": "1955-03-01",
              "end_date": "3999-12-31"
            }
          ]
        }
      },
      "listings_stats": {
        "start_date": "1955-03-01"
      },
      "spot_prices_stats": {
        "start_date": "1955-03-08",
        "end_date": "1975-04-01"
      }
    }
  },
  "prices_count": 524,
  "name": "Wagons-Lits, actions ord. 500 fr. belges, t. p. (n°s 1 à 1256500) Coup. De 5"
}