{
  "id": 3805,
  "share_type": {
    "id": 2,
    "name": "Bond (Obligation)"
  },
  "issuers": [
    {
      "id": 460,
      "start_date": "1891-09-02",
      "end_date": "3999-12-31",
      "name": "ETATS : PORTUGAL"
    }
  ],
  "types": [
    {
      "start_date": "1891-09-02",
      "end_date": "3999-12-31",
      "id": 1001,
      "name": "Obligation ordinaire ou classique",
      "stock_group": "B"
    }
  ],
  "is_mainstock": 0,
  "prices_period": [
    "1891-09-02",
    "1927-01-31"
  ],
  "stock_exchanges": {
    "1": {
      "id": 1,
      "name": "Paris (Official List)",
      "notations": {
        "4904": {
          "id": 4904,
          "sector_id": 67,
          "start_date": "1891-09-02",
          "end_date": "1914-08-03",
          "names": [
            {
              "name": "Portugal 4,5% 1891, Obl. garant. par la Société des Tabacs de Portugal, r. 500 f.",
              "start_date": "1891-09-02",
              "end_date": "1914-08-03"
            },
            {
              "name": "Portugal 4,5% 1891, Obl. garant. par la Société des Tabacs de Portugal, r. 500 f. c. de 500 f",
              "start_date": "1891-09-02",
              "end_date": "1914-08-03"
            },
            {
              "name": "Portugal 4,5% 1891. Obl. gar. par la Société des Tabacs de Portugal, r. à 500 fr.",
              "start_date": "1891-09-02",
              "end_date": "1914-08-17"
            },
            {
              "name": "Tabacs Portugais, oblig. 4.5%",
              "start_date": "1891-09-02",
              "end_date": "1914-12-15"
            },
            {
              "name": "Portugal 4,5% 1891. Obl. gar. par la Société des Tabacs de Portugal, r. à 500 fr.",
              "start_date": "1891-09-02",
              "end_date": "1925-05-01"
            },
            {
              "name": "Portugal 4,5% 1891. Obl. gar. par la Société des Tabacs de Portugal, r. au pair",
              "start_date": "1891-09-02",
              "end_date": "1926-05-12"
            },
            {
              "name": "Portugal 4,5% 1891. Obl. garanties par la Société des Tabacs de Portugal, remboursables le 1er octobre 1926 (Consulter listes de tirages.)",
              "start_date": "1891-09-02",
              "end_date": "3999-12-31"
            }
          ]
        },
        "6449": {
          "id": 6449,
          "sector_id": 74,
          "start_date": "1914-08-17",
          "end_date": "1914-08-18",
          "names": [
            {
              "name": "Portugal 4,5% 1891, Obl. garant. par la Société des Tabacs de Portugal, r. 500 f.",
              "start_date": "1891-09-02",
              "end_date": "1914-08-18"
            },
            {
              "name": "Portugal 4,5% 1891, Obl. garant. par la Société des Tabacs de Portugal, r. 500 f. c. de 500 f",
              "start_date": "1891-12-11",
              "end_date": "1914-08-18"
            },
            {
              "name": "Portugal 4,5% 1891. Obl. gar. par la Société des Tabacs de Portugal, r. à 500 fr.",
              "start_date": "1901-04-01",
              "end_date": "1914-08-18"
            },
            {
              "name": "Tabacs Portugais, oblig. 4.5%",
              "start_date": "1914-08-17",
              "end_date": "1914-12-15"
            },
            {
              "name": "Portugal 4,5% 1891. Obl. gar. par la Société des Tabacs de Portugal, r. à 500 fr.",
              "start_date": "1914-08-17",
              "end_date": "1925-05-01"
            },
            {
              "name": "Portugal 4,5% 1891. Obl. gar. par la Société des Tabacs de Portugal, r. au pair",
              "start_date": "1914-08-17",
              "end_date": "1926-05-12"
            },
            {
              "name": "Portugal 4,5% 1891. Obl. garanties par la Société des Tabacs de Portugal, remboursables le 1er octobre 1926 (Consulter listes de tirages.)",
              "start_date": "1914-08-17",
              "end_date": "3999-12-31"
            }
          ]
        },
        "6785": {
          "id": 6785,
          "sector_id": 67,
          "start_date": "1914-12-15",
          "end_date": "1925-05-01",
          "names": [
            {
              "name": "Portugal 4,5% 1891, Obl. garant. par la Société des Tabacs de Portugal, r. 500 f.",
              "start_date": "1891-09-02",
              "end_date": "1925-05-01"
            },
            {
              "name": "Portugal 4,5% 1891, Obl. garant. par la Société des Tabacs de Portugal, r. 500 f. c. de 500 f",
              "start_date": "1891-12-11",
              "end_date": "1925-05-01"
            },
            {
              "name": "Portugal 4,5% 1891. Obl. gar. par la Société des Tabacs de Portugal, r. à 500 fr.",
              "start_date": "1901-04-01",
              "end_date": "1925-05-01"
            },
            {
              "name": "Tabacs Portugais, oblig. 4.5%",
              "start_date": "1914-08-17",
              "end_date": "1925-05-01"
            },
            {
              "name": "Portugal 4,5% 1891. Obl. gar. par la Société des Tabacs de Portugal, r. à 500 fr.",
              "start_date": "1914-12-15",
              "end_date": "1925-05-01"
            },
            {
              "name": "Portugal 4,5% 1891. Obl. gar. par la Société des Tabacs de Portugal, r. au pair",
              "start_date": "1914-12-15",
              "end_date": "1926-05-12"
            },
            {
              "name": "Portugal 4,5% 1891. Obl. garanties par la Société des Tabacs de Portugal, remboursables le 1er octobre 1926 (Consulter listes de tirages.)",
              "start_date": "1914-12-15",
              "end_date": "3999-12-31"
            }
          ]
        },
        "13340": {
          "id": 13340,
          "sector_id": 74,
          "start_date": "1925-05-01",
          "end_date": "1927-04-01",
          "names": [
            {
              "name": "Portugal 4,5% 1891, Obl. garant. par la Société des Tabacs de Portugal, r. 500 f.",
              "start_date": "1891-09-02",
              "end_date": "1927-04-01"
            },
            {
              "name": "Portugal 4,5% 1891, Obl. garant. par la Société des Tabacs de Portugal, r. 500 f. c. de 500 f",
              "start_date": "1891-12-11",
              "end_date": "1927-04-01"
            },
            {
              "name": "Portugal 4,5% 1891. Obl. gar. par la Société des Tabacs de Portugal, r. à 500 fr.",
              "start_date": "1901-04-01",
              "end_date": "1927-04-01"
            },
            {
              "name": "Tabacs Portugais, oblig. 4.5%",
              "start_date": "1914-08-17",
              "end_date": "1927-04-01"
            },
            {
              "name": "Portugal 4,5% 1891. Obl. gar. par la Société des Tabacs de Portugal, r. à 500 fr.",
              "start_date": "1914-12-15",
              "end_date": "1927-04-01"
            },
            {
              "name": "Portugal 4,5% 1891. Obl. gar. par la Société des Tabacs de Portugal, r. au pair",
              "start_date": "1925-05-01",
              "end_date": "1927-04-01"
            },
            {
              "name": "Portugal 4,5% 1891. Obl. garanties par la Société des Tabacs de Portugal, remboursables le 1er octobre 1926 (Consulter listes de tirages.)",
              "start_date": "1925-05-01",
              "end_date": "3999-12-31"
            }
          ]
        }
      },
      "forward_prices_stats": {
        "start_date": "1891-09-15",
        "end_date": "1913-07-31"
      },
      "listings_stats": {
        "start_date": "1891-09-02"
      },
      "options_prices_stats": {
        "start_date": "1894-01-02",
        "end_date": "1894-07-31"
      },
      "spot_prices_stats": {
        "start_date": "1891-09-02",
        "end_date": "1927-01-31"
      }
    }
  },
  "prices_count": 1953,
  "name": "Portugal 4,5% 1891, Obl. garant. par la Société des Tabacs de Portugal, r. 500 f."
}