{
  "id": 13434,
  "share_type": {
    "id": 2,
    "name": "Bond (Obligation)"
  },
  "issuers": [
    {
      "id": 3543,
      "start_date": "1950-01-03",
      "end_date": "3999-12-31",
      "name": "COMPAGNIE GENERALE INDUSTRIELLE"
    }
  ],
  "types": [
    {
      "start_date": "1950-01-03",
      "end_date": "3999-12-31",
      "id": 1001,
      "name": "Obligation ordinaire ou classique",
      "stock_group": "B"
    }
  ],
  "is_mainstock": 0,
  "prices_period": [
    "1950-01-03",
    "1965-02-15"
  ],
  "stock_exchanges": {
    "1": {
      "id": 1,
      "name": "Paris (Official List)",
      "notations": {
        "26350": {
          "id": 26350,
          "sector_id": 425,
          "start_date": "1955-12-01",
          "end_date": "1963-03-04",
          "names": [
            {
              "name": "Banque Générale Industrielle 4% 1942, r. à 5000 fr. 1943-72",
              "start_date": "1950-01-03",
              "end_date": "1963-03-04"
            },
            {
              "name": "Banque Générale Industrielle La Hénin 4% 1942, remb. À 5000 fr. 1943-72",
              "start_date": "1953-01-26",
              "end_date": "1963-03-04"
            },
            {
              "name": "Banque Générale Industrielle La Hénin 4% 1942 (Rach. Ou Tir.) 1943-72",
              "start_date": "1955-12-01",
              "end_date": "1963-11-25"
            },
            {
              "name": "Union des Mines-La Hénin (L') 4% 1942 (Rach. ou Tir.). 1943-72",
              "start_date": "1955-12-01",
              "end_date": "3999-12-31"
            }
          ]
        },
        "30636": {
          "id": 30636,
          "sector_id": 355,
          "start_date": "1963-03-04",
          "end_date": "1965-03-01",
          "names": [
            {
              "name": "Banque Générale Industrielle 4% 1942, r. à 5000 fr. 1943-72",
              "start_date": "1950-01-03",
              "end_date": "1965-03-01"
            },
            {
              "name": "Banque Générale Industrielle La Hénin 4% 1942, remb. À 5000 fr. 1943-72",
              "start_date": "1953-01-26",
              "end_date": "1965-03-01"
            },
            {
              "name": "Banque Générale Industrielle La Hénin 4% 1942 (Rach. Ou Tir.) 1943-72",
              "start_date": "1955-12-01",
              "end_date": "1965-03-01"
            },
            {
              "name": "Union des Mines-La Hénin (L') 4% 1942 (Rach. ou Tir.). 1943-72",
              "start_date": "1963-03-04",
              "end_date": "3999-12-31"
            }
          ]
        },
        "144009": {
          "id": 144009,
          "sector_id": 108,
          "start_date": "1950-01-03",
          "end_date": "1955-12-01",
          "names": [
            {
              "name": "Banque Générale Industrielle 4% 1942, r. à 5000 fr. 1943-72",
              "start_date": "1950-01-03",
              "end_date": "1955-12-01"
            },
            {
              "name": "Banque Générale Industrielle La Hénin 4% 1942, remb. À 5000 fr. 1943-72",
              "start_date": "1950-01-03",
              "end_date": "1955-12-01"
            },
            {
              "name": "Banque Générale Industrielle La Hénin 4% 1942 (Rach. Ou Tir.) 1943-72",
              "start_date": "1950-01-03",
              "end_date": "1963-11-25"
            },
            {
              "name": "Union des Mines-La Hénin (L') 4% 1942 (Rach. ou Tir.). 1943-72",
              "start_date": "1950-01-03",
              "end_date": "3999-12-31"
            }
          ]
        }
      },
      "listings_stats": {
        "start_date": "1950-01-03"
      },
      "spot_prices_stats": {
        "start_date": "1950-01-03",
        "end_date": "1965-02-15"
      }
    }
  },
  "prices_count": 379,
  "name": "Banque Générale Industrielle La Hénin 4% 1942 (Rach. Ou Tir.) 1943-72"
}