{
  "id": 100006,
  "share_type": {
    "id": 6,
    "name": "UNKNOWN"
  },
  "issuers": [
    {
      "id": 1749,
      "start_date": "1892-05-05",
      "end_date": "1920-01-01",
      "name": "BANQUE TRANSATLANTIQUE"
    }
  ],
  "types": [
    {
      "start_date": "1892-05-05",
      "end_date": "1920-01-01",
      "id": 18,
      "name": "Action",
      "stock_group": "S"
    }
  ],
  "is_mainstock": 0,
  "prices_period": [
    null,
    null
  ],
  "stock_exchanges": {
    "1": {
      "id": 1,
      "name": "Paris (Official List)",
      "notations": {
        "200017": {
          "id": 200017,
          "sector_id": 170,
          "start_date": "1892-05-05",
          "end_date": "1920-01-02",
          "names": [
            {
              "name": "Banque Transatlantique",
              "start_date": "1892-05-05",
              "end_date": "1920-01-02"
            }
          ]
        }
      },
      "listings_stats": {
        "start_date": "1892-05-05"
      }
    }
  },
  "prices_count": 0,
  "name": "Banque Transatlantique"
}