{
  "id": 6699,
  "share_type": {
    "id": 2,
    "name": "Bond (Obligation)"
  },
  "issuers": [
    {
      "id": 10510,
      "start_date": "1917-08-09",
      "end_date": "3999-12-31",
      "name": "SOCIÉTÉ NORMANDE DE MÉTALLURGIE"
    }
  ],
  "types": [
    {
      "start_date": "1917-08-09",
      "end_date": "3999-12-31",
      "id": 1001,
      "name": "Obligation ordinaire ou classique",
      "stock_group": "B"
    }
  ],
  "is_mainstock": 0,
  "prices_period": [
    "1917-08-09",
    "1924-03-31"
  ],
  "stock_exchanges": {
    "1": {
      "id": 1,
      "name": "Paris (Official List)",
      "notations": {
        "33571": {
          "id": 33571,
          "sector_id": 111,
          "start_date": "1917-08-09",
          "end_date": "1924-04-07",
          "names": [
            {
              "name": "Sté Normande de Métallurgie 6%, r.à 500fr.",
              "start_date": "1917-08-09",
              "end_date": "3999-12-31"
            }
          ]
        }
      },
      "listings_stats": {
        "start_date": "1917-08-09"
      },
      "spot_prices_stats": {
        "start_date": "1917-08-09",
        "end_date": "1924-03-31"
      }
    }
  },
  "prices_count": 158,
  "name": "Sté Normande de Métallurgie 6%, r.à 500fr."
}