{
  "id": 8000,
  "share_type": {
    "id": 2,
    "name": "Bond (Obligation)"
  },
  "issuers": [
    {
      "id": 795,
      "start_date": "1922-11-10",
      "end_date": "3999-12-31",
      "name": "ETATS : ITALIE"
    }
  ],
  "types": [
    {
      "start_date": "1922-11-10",
      "end_date": "3999-12-31",
      "id": 1001,
      "name": "Obligation ordinaire ou classique",
      "stock_group": "B"
    }
  ],
  "is_mainstock": 0,
  "prices_period": [
    null,
    null
  ],
  "stock_exchanges": {
    "1": {
      "id": 1,
      "name": "Paris (Official List)",
      "notations": {
        "12003": {
          "id": 12003,
          "sector_id": 67,
          "start_date": "1922-11-10",
          "end_date": "1922-11-18",
          "names": [
            {
              "name": "Italie 3% Coup. 150 et 300",
              "start_date": "1922-11-10",
              "end_date": "3999-12-31"
            }
          ]
        },
        "32137": {
          "id": 32137,
          "sector_id": 67,
          "start_date": "1923-04-27",
          "end_date": "1923-05-12",
          "names": [
            {
              "name": "Italie 3% Coup. 150 et 300",
              "start_date": "1922-11-10",
              "end_date": "3999-12-31"
            }
          ]
        },
        "32138": {
          "id": 32138,
          "sector_id": 67,
          "start_date": "1924-06-11",
          "end_date": "1924-08-28",
          "names": [
            {
              "name": "Italie 3% Coup. 150 et 300",
              "start_date": "1922-11-10",
              "end_date": "3999-12-31"
            }
          ]
        },
        "34870": {
          "id": 34870,
          "sector_id": 67,
          "start_date": "1922-12-05",
          "end_date": "1923-02-13",
          "names": [
            {
              "name": "Italie 3% Coup. 150 et 300",
              "start_date": "1922-11-10",
              "end_date": "3999-12-31"
            }
          ]
        }
      },
      "listings_stats": {
        "start_date": "1922-11-10"
      }
    }
  },
  "prices_count": 0,
  "name": "Italie 3% Coup. 150 et 300"
}