{
  "id": 13428,
  "share_type": {
    "id": 1,
    "name": "Stock (Action)"
  },
  "issuers": [
    {
      "id": 4111,
      "start_date": "1949-10-17",
      "end_date": "3999-12-31",
      "name": "COMPAGNIE CONTINENTALE POUR LA FABRICATION DES COMPTEURS A GAZ ET AUTRES APPAREILS"
    }
  ],
  "types": [
    {
      "start_date": "1949-10-17",
      "end_date": "3999-12-31",
      "id": 18,
      "name": "Action",
      "stock_group": "S"
    }
  ],
  "is_mainstock": 0,
  "prices_period": [
    "1949-10-25",
    "1950-12-15"
  ],
  "stock_exchanges": {
    "1": {
      "id": 1,
      "name": "Paris (Official List)",
      "notations": {
        "144003": {
          "id": 144003,
          "sector_id": 182,
          "start_date": "1949-10-17",
          "end_date": "1951-01-02",
          "names": [
            {
              "name": "Continentale pour la Fabrication des Compteurs et autres Appareils, Act. 300 fr., t. p. (n°s 325754 à 547364)",
              "start_date": "1949-10-17",
              "end_date": "1951-01-02"
            },
            {
              "name": "Continentale pour la Fabrication des Compteurs et autres Appareils, Act. 600 fr., t. p. (n°s 325754 à 547364)",
              "start_date": "1949-10-17",
              "end_date": "1951-01-02"
            },
            {
              "name": "Continentale pour la Fabrication des Compteurs et autres Appareils, act. 600 fr., t. p. (n°325754 à 547234)",
              "start_date": "1949-10-17",
              "end_date": "3999-12-31"
            }
          ]
        }
      },
      "listings_stats": {
        "start_date": "1949-10-17"
      },
      "spot_prices_stats": {
        "start_date": "1949-10-25",
        "end_date": "1950-12-15"
      }
    }
  },
  "prices_count": 29,
  "name": "Continentale pour la Fabrication des Compteurs et autres Appareils, Act. 600 fr., t. p. (n°s 325754 à 547364)"
}