{
  "id": 2227,
  "share_type": {
    "id": 2,
    "name": "Bond (Obligation)"
  },
  "issuers": [
    {
      "id": 1266,
      "start_date": "1875-03-25",
      "end_date": "3999-12-31",
      "name": "ETATS-UNIS D'AMERIQUE"
    }
  ],
  "types": [
    {
      "start_date": "1875-03-25",
      "end_date": "3999-12-31",
      "id": 1001,
      "name": "Obligation ordinaire ou classique",
      "stock_group": "B"
    }
  ],
  "is_mainstock": 0,
  "prices_period": [
    "1875-03-30",
    "1875-11-15"
  ],
  "stock_exchanges": {
    "1": {
      "id": 1,
      "name": "Paris (Official List)",
      "notations": {
        "3326": {
          "id": 3326,
          "sector_id": 74,
          "start_date": "1875-03-25",
          "end_date": "1876-12-19",
          "names": [
            {
              "name": "Etats-Unis 5-20 62, bons remb. 11 juin 75",
              "start_date": "1875-03-25",
              "end_date": "3999-12-31"
            }
          ]
        }
      },
      "listings_stats": {
        "start_date": "1875-03-25"
      },
      "spot_prices_stats": {
        "start_date": "1875-03-30",
        "end_date": "1875-11-15"
      }
    }
  },
  "prices_count": 7,
  "name": "Etats-Unis 5-20 62, bons remb. 11 juin 75"
}