{
  "id": 12565,
  "share_type": {
    "id": 2,
    "name": "Bond (Obligation)"
  },
  "issuers": [
    {
      "id": 4369,
      "start_date": "1947-02-04",
      "end_date": "3999-12-31",
      "name": "COMPAGNIE DES LAMPES"
    }
  ],
  "types": [
    {
      "start_date": "1947-02-04",
      "end_date": "3999-12-31",
      "id": 1001,
      "name": "Obligation ordinaire ou classique",
      "stock_group": "B"
    }
  ],
  "is_mainstock": 0,
  "prices_period": [
    "1947-02-04",
    "1969-03-17"
  ],
  "stock_exchanges": {
    "1": {
      "id": 1,
      "name": "Paris (Official List)",
      "notations": {
        "23664": {
          "id": 23664,
          "sector_id": 272,
          "start_date": "1949-10-03",
          "end_date": "1955-12-01",
          "names": [
            {
              "name": "Lampes (Cie des) 4% 1946, remb. À 5000 fr. 1947-76",
              "start_date": "1947-02-04",
              "end_date": "1955-12-01"
            },
            {
              "name": "Lampes (Cie des) 4% 1946 (Rach. Ou Tir.) 1947-76",
              "start_date": "1949-10-03",
              "end_date": "1969-03-31"
            },
            {
              "name": "Lampes (Cie des) 4% 1946 (Tir. 3/1/69) 1947-76",
              "start_date": "1949-10-03",
              "end_date": "3999-12-31"
            }
          ]
        },
        "26734": {
          "id": 26734,
          "sector_id": 369,
          "start_date": "1955-12-01",
          "end_date": "1962-01-02",
          "names": [
            {
              "name": "Lampes (Cie des) 4% 1946, remb. À 5000 fr. 1947-76",
              "start_date": "1947-02-04",
              "end_date": "1962-01-02"
            },
            {
              "name": "Lampes (Cie des) 4% 1946 (Rach. Ou Tir.) 1947-76",
              "start_date": "1955-12-01",
              "end_date": "1969-03-31"
            },
            {
              "name": "Lampes (Cie des) 4% 1946 (Tir. 3/1/69) 1947-76",
              "start_date": "1955-12-01",
              "end_date": "3999-12-31"
            }
          ]
        },
        "28349": {
          "id": 28349,
          "sector_id": 516,
          "start_date": "1962-01-02",
          "end_date": "1963-03-04",
          "names": [
            {
              "name": "Lampes (Cie des) 4% 1946, remb. À 5000 fr. 1947-76",
              "start_date": "1947-02-04",
              "end_date": "1963-03-04"
            },
            {
              "name": "Lampes (Cie des) 4% 1946 (Rach. Ou Tir.) 1947-76",
              "start_date": "1955-12-01",
              "end_date": "1969-03-31"
            },
            {
              "name": "Lampes (Cie des) 4% 1946 (Tir. 3/1/69) 1947-76",
              "start_date": "1962-01-02",
              "end_date": "3999-12-31"
            }
          ]
        },
        "31039": {
          "id": 31039,
          "sector_id": 369,
          "start_date": "1963-03-04",
          "end_date": "1969-03-31",
          "names": [
            {
              "name": "Lampes (Cie des) 4% 1946, remb. À 5000 fr. 1947-76",
              "start_date": "1947-02-04",
              "end_date": "1969-03-31"
            },
            {
              "name": "Lampes (Cie des) 4% 1946 (Rach. Ou Tir.) 1947-76",
              "start_date": "1955-12-01",
              "end_date": "1969-03-31"
            },
            {
              "name": "Lampes (Cie des) 4% 1946 (Tir. 3/1/69) 1947-76",
              "start_date": "1963-03-04",
              "end_date": "3999-12-31"
            }
          ]
        },
        "143140": {
          "id": 143140,
          "sector_id": 117,
          "start_date": "1947-02-04",
          "end_date": "1949-10-03",
          "names": [
            {
              "name": "Lampes (Cie des) 4% 1946, remb. À 5000 fr. 1947-76",
              "start_date": "1947-02-04",
              "end_date": "1955-12-01"
            },
            {
              "name": "Lampes (Cie des) 4% 1946 (Rach. Ou Tir.) 1947-76",
              "start_date": "1947-02-04",
              "end_date": "1969-03-31"
            },
            {
              "name": "Lampes (Cie des) 4% 1946 (Tir. 3/1/69) 1947-76",
              "start_date": "1947-02-04",
              "end_date": "3999-12-31"
            }
          ]
        }
      },
      "listings_stats": {
        "start_date": "1947-02-04"
      },
      "spot_prices_stats": {
        "start_date": "1947-02-04",
        "end_date": "1969-03-17"
      }
    }
  },
  "prices_count": 544,
  "name": "Lampes (Cie des) 4% 1946 (Tir. 3/1/69) 1947-76"
}