{
  "id": 103523,
  "share_type": {
    "id": 4,
    "name": "Rights (Droits)"
  },
  "issuers": [
    {
      "id": 2958,
      "start_date": "1921-02-14",
      "end_date": "1921-03-11",
      "name": "SOCIÉTÉ CHIMIQUE DES USINES DU RHONE (Anciennement Gilliard, P. Monnet et Cartier.)"
    }
  ],
  "types": [
    {
      "start_date": "1921-02-14",
      "end_date": "1921-03-11",
      "id": 501,
      "name": "Droit de souscription",
      "stock_group": "R"
    }
  ],
  "is_mainstock": 0,
  "prices_period": [
    "1921-03-01",
    "1921-03-01"
  ],
  "stock_exchanges": {
    "1": {
      "id": 1,
      "name": "Paris (Official List)",
      "notations": {
        "203705": {
          "id": 203705,
          "sector_id": 657,
          "start_date": "1921-02-14",
          "end_date": "1921-03-12",
          "names": [
            {
              "name": "Actions ordinaires Usines du Rhône (droit et coupons n° 17 et 18). Rompus",
              "start_date": "1921-02-14",
              "end_date": "1921-03-12"
            }
          ]
        }
      },
      "listings_stats": {
        "start_date": "1921-02-14"
      },
      "spot_prices_stats": {
        "start_date": "1921-03-01",
        "end_date": "1921-03-01"
      }
    }
  },
  "prices_count": 0,
  "name": "Actions ordinaires Usines du Rhône (droit et coupons n° 17 et 18). Rompus"
}