{
  "id": 2149,
  "share_type": {
    "id": 2,
    "name": "Bond (Obligation)"
  },
  "issuers": [
    {
      "id": 2042,
      "start_date": "1870-07-04",
      "end_date": "3999-12-31",
      "name": "Compagnie du Chemin de fer de Lisieux à Orbec"
    }
  ],
  "types": [
    {
      "start_date": "1870-07-04",
      "end_date": "3999-12-31",
      "id": 1001,
      "name": "Obligation ordinaire ou classique",
      "stock_group": "B"
    }
  ],
  "is_mainstock": 0,
  "prices_period": [
    "1870-07-04",
    "1892-07-15"
  ],
  "stock_exchanges": {
    "1": {
      "id": 1,
      "name": "Paris (Official List)",
      "notations": {
        "3248": {
          "id": 3248,
          "sector_id": 70,
          "start_date": "1870-07-04",
          "end_date": "1892-05-05",
          "names": [
            {
              "name": "Lisieux à Orbec, 3%, remb. à 500f",
              "start_date": "1870-07-04",
              "end_date": "1892-05-09"
            },
            {
              "name": "Lisieux à Orbec, obligations",
              "start_date": "1870-07-04",
              "end_date": "1920-01-02"
            }
          ]
        },
        "155588": {
          "id": 155588,
          "sector_id": 119,
          "start_date": "1892-05-09",
          "end_date": "1893-08-07",
          "names": [
            {
              "name": "Lisieux à Orbec, 3%, remb. à 500f",
              "start_date": "1870-07-04",
              "end_date": "1893-08-07"
            },
            {
              "name": "Lisieux à Orbec, obligations",
              "start_date": "1892-05-09",
              "end_date": "1920-01-02"
            }
          ]
        }
      },
      "listings_stats": {
        "start_date": "1870-07-04"
      },
      "spot_prices_stats": {
        "start_date": "1870-07-04",
        "end_date": "1892-07-15"
      }
    }
  },
  "prices_count": 92,
  "name": "Lisieux à Orbec, obligations"
}