{
  "id": 20751,
  "share_type": {
    "id": 1,
    "name": "Stock (Action)"
  },
  "issuers": [
    {
      "id": 5482,
      "start_date": "1969-11-13",
      "end_date": "3999-12-31",
      "name": "Thyssen-Hutte (August. )"
    }
  ],
  "types": [
    {
      "start_date": "1969-11-13",
      "end_date": "3999-12-31",
      "id": 18,
      "name": "Action",
      "stock_group": "S"
    }
  ],
  "is_mainstock": 0,
  "prices_period": [
    "1969-12-31",
    "1976-12-31"
  ],
  "stock_exchanges": {
    "1": {
      "id": 1,
      "name": "Paris (Official List)",
      "notations": {
        "151321": {
          "id": 151321,
          "sector_id": 538,
          "start_date": "1969-11-13",
          "end_date": "3999-12-31",
          "names": [
            {
              "name": "Thyssen-Hutte (August.) (A.G.), act. 50 DM (nos 5000001 à 5600000) (c 14 spécial att)",
              "start_date": "1969-11-13",
              "end_date": "3999-12-31"
            },
            {
              "name": "Thyssen-Hutte (August.) (A.G.), act. 50 DM (ex-dr., )",
              "start_date": "1969-11-13",
              "end_date": "3999-12-31"
            }
          ]
        }
      },
      "listings_stats": {
        "start_date": "1969-11-13"
      },
      "spot_prices_stats": {
        "start_date": "1969-12-31",
        "end_date": "1976-12-31"
      }
    }
  },
  "prices_count": 170,
  "name": "Thyssen-Hutte (August.) (A.G.), act. 50 DM (ex-dr., )"
}