{
  "id": 5700,
  "share_type": {
    "id": 2,
    "name": "Bond (Obligation)"
  },
  "issuers": [
    {
      "id": 2603,
      "start_date": "1907-10-16",
      "end_date": "3999-12-31",
      "name": "CHEMIN DE FER DES ALPES BERNOISES BERNE-LŒTSCHBERG-SIMPLON"
    }
  ],
  "types": [
    {
      "start_date": "1907-10-16",
      "end_date": "3999-12-31",
      "id": 1001,
      "name": "Obligation ordinaire ou classique",
      "stock_group": "B"
    }
  ],
  "is_mainstock": 0,
  "prices_period": [
    "1907-10-16",
    "1924-09-01"
  ],
  "stock_exchanges": {
    "1": {
      "id": 1,
      "name": "Paris (Official List)",
      "notations": {
        "8105": {
          "id": 8105,
          "sector_id": 83,
          "start_date": "1907-10-16",
          "end_date": "1911-04-18",
          "names": [
            {
              "name": "Alpes Bernoises (Berne-Loetschberg-Simplon), 4%, 1er hypoth., remb. à 500 fr. (Cap. et int. pay. au ch.)",
              "start_date": "1907-10-16",
              "end_date": "3999-12-31"
            }
          ]
        },
        "8578": {
          "id": 8578,
          "sector_id": 128,
          "start_date": "1911-04-18",
          "end_date": "1914-08-03",
          "names": [
            {
              "name": "Alpes Bernoises (Berne-Loetschberg-Simplon), 4%, 1er hypoth., remb. à 500 fr. (Cap. et int. pay. au ch.)",
              "start_date": "1907-10-16",
              "end_date": "3999-12-31"
            }
          ]
        },
        "9434": {
          "id": 9434,
          "sector_id": 128,
          "start_date": "1914-12-15",
          "end_date": "1918-01-22",
          "names": [
            {
              "name": "Alpes Bernoises (Berne-Loetschberg-Simplon), 4%, 1er hypoth., remb. à 500 fr. (Cap. et int. pay. au ch.)",
              "start_date": "1907-10-16",
              "end_date": "3999-12-31"
            }
          ]
        },
        "9489": {
          "id": 9489,
          "sector_id": 128,
          "start_date": "1918-01-23",
          "end_date": "1924-10-17",
          "names": [
            {
              "name": "Alpes Bernoises (Berne-Loetschberg-Simplon), 4%, 1er hypoth., remb. à 500 fr. (Cap. et int. pay. au ch.)",
              "start_date": "1907-10-16",
              "end_date": "3999-12-31"
            }
          ]
        }
      },
      "listings_stats": {
        "start_date": "1907-10-16"
      },
      "spot_prices_stats": {
        "start_date": "1907-10-16",
        "end_date": "1924-09-01"
      }
    }
  },
  "prices_count": 327,
  "name": "Alpes Bernoises (Berne-Loetschberg-Simplon), 4%, 1er hypoth., remb. à 500 fr. (Cap. et int. pay. au ch.)"
}