{
  "id": 105896,
  "share_type": {
    "id": 1,
    "name": "Stock (Action)"
  },
  "issuers": [
    {
      "id": 3517,
      "start_date": "1937-03-05",
      "end_date": "3999-12-31",
      "name": "COMPAGNIE GÉNÉRALE D'ASSURANCES CONTRE LES ACCIDENTS ET LES RISQUES DIVERS"
    }
  ],
  "types": [
    {
      "start_date": "1937-03-05",
      "end_date": "3999-12-31",
      "id": 18,
      "name": "Action",
      "stock_group": "S"
    }
  ],
  "is_mainstock": 0,
  "prices_period": [
    null,
    null
  ],
  "stock_exchanges": {
    "1": {
      "id": 1,
      "name": "Paris (Official List)",
      "notations": {
        "206757": {
          "id": 206757,
          "sector_id": 96,
          "start_date": "1937-03-05",
          "end_date": "1937-09-01",
          "names": [
            {
              "name": "Générale d'Assurance (Cie) (accidents), Act. ord. Anc. 100 fr., t.p. (nos 6001 à 96000) (ex-dr., )",
              "start_date": "1937-03-05",
              "end_date": "3999-12-31"
            }
          ]
        }
      },
      "listings_stats": {
        "start_date": "1937-03-05"
      }
    }
  },
  "prices_count": 0,
  "name": "Générale d'Assurance (Cie) (accidents), Act. ord. Anc. 100 fr., t.p. (nos 6001 à 96000) (ex-dr., )"
}