{
  "id": 8219,
  "share_type": {
    "id": 1,
    "name": "Stock (Action)"
  },
  "issuers": [
    {
      "id": 5200,
      "start_date": "1925-09-23",
      "end_date": "3999-12-31",
      "name": "Le Zénith"
    }
  ],
  "types": [
    {
      "start_date": "1925-09-23",
      "end_date": "3999-12-31",
      "id": 18,
      "name": "Action",
      "stock_group": "S"
    }
  ],
  "is_mainstock": 1,
  "prices_period": [
    "1925-09-28",
    "1927-08-31"
  ],
  "stock_exchanges": {
    "1": {
      "id": 1,
      "name": "Paris (Official List)",
      "notations": {
        "135666": {
          "id": 135666,
          "sector_id": 96,
          "start_date": "1925-09-23",
          "end_date": "1930-01-02",
          "names": [
            {
              "name": "Zénith (Le) (tous riques), act. 500 fr., t. p.",
              "start_date": "1925-09-23",
              "end_date": "3999-12-31"
            }
          ]
        }
      },
      "listings_stats": {
        "start_date": "1925-09-23"
      },
      "spot_prices_stats": {
        "start_date": "1925-09-28",
        "end_date": "1927-08-31"
      }
    }
  },
  "prices_count": 19,
  "name": "Zénith (Le) (tous riques), act. 500 fr., t. p."
}