{
  "id": 686,
  "share_type": {
    "id": 6,
    "name": "UNKNOWN"
  },
  "issuers": [
    {
      "id": 392,
      "start_date": "1852-03-24",
      "end_date": "1857-04-11",
      "name": "Compagnie Reconstitué de Chemin de Fer de la Loire d'Andrezieux à Roanne"
    },
    {
      "id": 653,
      "start_date": "1857-04-11",
      "end_date": "3999-12-31",
      "name": "Compagnie des Chemins de fer de PARIS A LYON ET A LA MÉDITERRANÉE"
    }
  ],
  "types": [
    {
      "start_date": "1852-03-24",
      "end_date": "3999-12-31",
      "id": 1,
      "name": "UNKNOWN",
      "stock_group": "U"
    }
  ],
  "is_mainstock": 0,
  "prices_period": [
    "1852-03-24",
    "1853-01-26"
  ],
  "stock_exchanges": {
    "1": {
      "id": 1,
      "name": "Paris (Official List)",
      "notations": {
        "917": {
          "id": 917,
          "sector_id": 576,
          "start_date": "1852-03-24",
          "end_date": "1852-05-03",
          "names": [
            {
              "name": "Andrezieux à Roanne",
              "start_date": "1852-03-24",
              "end_date": "3999-12-31"
            }
          ]
        },
        "981": {
          "id": 981,
          "sector_id": 576,
          "start_date": "1852-10-28",
          "end_date": "1852-11-02",
          "names": [
            {
              "name": "Andrezieux à Roanne",
              "start_date": "1852-03-24",
              "end_date": "3999-12-31"
            }
          ]
        },
        "1025": {
          "id": 1025,
          "sector_id": 576,
          "start_date": "1853-01-26",
          "end_date": "1853-02-12",
          "names": [
            {
              "name": "Andrezieux à Roanne",
              "start_date": "1852-03-24",
              "end_date": "3999-12-31"
            }
          ]
        }
      },
      "listings_stats": {
        "start_date": "1852-03-24"
      },
      "spot_prices_stats": {
        "start_date": "1852-03-24",
        "end_date": "1853-01-26"
      }
    }
  },
  "prices_count": 2,
  "name": "Andrezieux à Roanne"
}