{
  "id": 101845,
  "share_type": {
    "id": 4,
    "name": "Rights (Droits)"
  },
  "issuers": [
    {
      "id": 2757,
      "start_date": "1929-11-18",
      "end_date": "1929-12-03",
      "name": "SOCIETE D'ELECTRO METALLURGIE DE DIVES"
    }
  ],
  "types": [
    {
      "start_date": "1929-11-18",
      "end_date": "1929-12-03",
      "id": 501,
      "name": "Droit de souscription",
      "stock_group": "R"
    }
  ],
  "is_mainstock": 0,
  "prices_period": [
    "1929-11-18",
    "1929-11-30"
  ],
  "stock_exchanges": {
    "1": {
      "id": 1,
      "name": "Paris (Official List)",
      "notations": {
        "202027": {
          "id": 202027,
          "sector_id": 657,
          "start_date": "1929-11-18",
          "end_date": "1929-12-04",
          "names": [
            {
              "name": "Act. A. Sté d'Electro-Métallurgie de Dives (droit et coupon 37). Pour 2 actions anc., 1 action A nouvelle émise à 1500 francs.",
              "start_date": "1929-11-18",
              "end_date": "1929-12-04"
            }
          ]
        }
      },
      "listings_stats": {
        "start_date": "1929-11-18"
      },
      "spot_prices_stats": {
        "start_date": "1929-11-18",
        "end_date": "1929-11-30"
      }
    }
  },
  "prices_count": 8,
  "name": "Act. A. Sté d'Electro-Métallurgie de Dives (droit et coupon 37). Pour 2 actions anc., 1 action A nouvelle émise à 1500 francs."
}