{
  "id": 25402,
  "share_type": {
    "id": 1,
    "name": "Stock (Action)"
  },
  "issuers": [
    {
      "id": 2389,
      "start_date": "1912-08-30",
      "end_date": "3999-12-31",
      "name": "BANQUE CENTRALE MEXICAINE"
    }
  ],
  "types": [
    {
      "start_date": "1000-01-01",
      "end_date": "3999-12-31",
      "id": 18,
      "name": "Action",
      "stock_group": "S"
    }
  ],
  "is_mainstock": 0,
  "prices_period": [
    "1912-08-31",
    "1912-08-31"
  ],
  "stock_exchanges": {
    "1": {
      "id": 1,
      "name": "Paris (Official List)",
      "notations": {
        "90402": {
          "id": 90402,
          "sector_id": 68,
          "start_date": "1912-08-30",
          "end_date": "1912-09-14",
          "names": [
            {
              "name": "Banque Centrale Mexicaine, act. 100 piastres, Série A, tout payé coup de 10",
              "start_date": "1912-08-30",
              "end_date": "3999-12-31"
            }
          ]
        }
      },
      "listings_stats": {
        "start_date": "1912-08-30"
      },
      "spot_prices_stats": {
        "start_date": "1912-08-31",
        "end_date": "1912-08-31"
      }
    }
  },
  "prices_count": 1,
  "name": "Banque Centrale Mexicaine, act. 100 piastres, Série A, tout payé coup de 10"
}