{
  "id": 104101,
  "share_type": {
    "id": 1,
    "name": "Stock (Action)"
  },
  "issuers": [
    {
      "id": 1378,
      "start_date": "1945-01-04",
      "end_date": "1945-06-25",
      "name": "Compagnie des Salins du Midi"
    }
  ],
  "types": [
    {
      "start_date": "1945-01-04",
      "end_date": "1945-06-25",
      "id": 33,
      "name": "Action A",
      "stock_group": "S"
    }
  ],
  "is_mainstock": 0,
  "prices_period": [
    "1945-01-15",
    "1945-04-30"
  ],
  "stock_exchanges": {
    "1": {
      "id": 1,
      "name": "Paris (Official List)",
      "notations": {
        "204286": {
          "id": 204286,
          "sector_id": 135,
          "start_date": "1945-01-04",
          "end_date": "1945-06-25",
          "names": [
            {
              "name": "Salins du Midi, act. A 250 fr., t. p. (nos 17776 a 77775) (ex-c. 21).",
              "start_date": "1945-01-04",
              "end_date": "1945-06-25"
            }
          ]
        }
      },
      "listings_stats": {
        "start_date": "1945-01-04"
      },
      "spot_prices_stats": {
        "start_date": "1945-01-15",
        "end_date": "1945-04-30"
      }
    }
  },
  "prices_count": 4,
  "name": "Salins du Midi, act. A 250 fr., t. p. (nos 17776 a 77775) (ex-c. 21)."
}