{
  "id": 101074,
  "share_type": {
    "id": 4,
    "name": "Rights (Droits)"
  },
  "issuers": [
    {
      "id": 2662,
      "start_date": "1949-06-01",
      "end_date": "3999-12-31",
      "name": "SOCIÉTÉ COMMERCIALE, INDUSTRIELLE ET AGRICOLE DU HAUT-OGOOUÉ"
    }
  ],
  "types": [
    {
      "start_date": "1949-06-01",
      "end_date": "3999-12-31",
      "id": 501,
      "name": "Droit de souscription",
      "stock_group": "R"
    }
  ],
  "is_mainstock": 0,
  "prices_period": [
    "1949-06-01",
    "1949-06-01"
  ],
  "stock_exchanges": {
    "1": {
      "id": 1,
      "name": "Paris (Official List)",
      "notations": {
        "201219": {
          "id": 201219,
          "sector_id": 657,
          "start_date": "1949-06-01",
          "end_date": "4000-01-01",
          "names": [
            {
              "name": "Act. anc. ordinaire 1 à 8000 et 20001 à 244000 et privilégiée 8001 à 20000 Haut-Ogooué (Droit et coupon 13) (2 act. nouv. Émises à 280 fr. pour 1 act. ordinaire ou privilégiée)",
              "start_date": "1949-06-01",
              "end_date": "4000-01-01"
            }
          ]
        }
      },
      "listings_stats": {
        "start_date": "1949-06-01"
      },
      "spot_prices_stats": {
        "start_date": "1949-06-01",
        "end_date": "1949-06-01"
      }
    }
  },
  "prices_count": 1,
  "name": "Act. anc. ordinaire 1 à 8000 et 20001 à 244000 et privilégiée 8001 à 20000 Haut-Ogooué (Droit et coupon 13) (2 act. nouv. Émises à 280 fr. pour 1 act. ordinaire ou privilégiée)"
}