{
  "id": 13180,
  "share_type": {
    "id": 2,
    "name": "Bond (Obligation)"
  },
  "issuers": [
    {
      "id": 100,
      "start_date": "1864-11-30",
      "end_date": "3999-12-31",
      "name": "RENTES FRANÇAISES"
    }
  ],
  "types": [
    {
      "start_date": "1600-01-01",
      "end_date": "3999-12-31",
      "id": 1001,
      "name": "Obligation ordinaire ou classique",
      "stock_group": "B"
    }
  ],
  "is_mainstock": 0,
  "prices_period": [
    null,
    null
  ],
  "stock_exchanges": {
    "1": {
      "id": 1,
      "name": "Paris (Official List)",
      "notations": {
        "143755": {
          "id": 143755,
          "sector_id": 10,
          "start_date": "1864-11-30",
          "end_date": "1864-12-01",
          "names": [
            {
              "name": "3% Emp 1864",
              "start_date": "1864-11-30",
              "end_date": "3999-12-31"
            }
          ]
        }
      },
      "listings_stats": {
        "start_date": "1864-11-30"
      }
    }
  },
  "prices_count": 0,
  "name": "3% Emp 1864"
}