{
  "id": 1814,
  "share_type": {
    "id": 1,
    "name": "Stock (Action)"
  },
  "issuers": [
    {
      "id": 2472,
      "start_date": "1874-11-09",
      "end_date": "3999-12-31",
      "name": "Compagnie du Chemin de fer de Mézidon à Dives (Calvados)"
    }
  ],
  "types": [
    {
      "start_date": "1874-11-09",
      "end_date": "3999-12-31",
      "id": 18,
      "name": "Action",
      "stock_group": "S"
    }
  ],
  "is_mainstock": 1,
  "prices_period": [
    null,
    null
  ],
  "stock_exchanges": {
    "1": {
      "id": 1,
      "name": "Paris (Official List)",
      "notations": {
        "2913": {
          "id": 2913,
          "sector_id": 73,
          "start_date": "1874-11-09",
          "end_date": "1886-01-13",
          "names": [
            {
              "name": "Mézidon à Dives (Calvados), ac. 500f., 145f.p",
              "start_date": "1874-11-09",
              "end_date": "1886-01-13"
            },
            {
              "name": "Mézidon à Dives a.500f.,125fp. (en liq.)",
              "start_date": "1874-11-09",
              "end_date": "3999-12-31"
            }
          ]
        }
      },
      "listings_stats": {
        "start_date": "1874-11-09"
      }
    }
  },
  "prices_count": 0,
  "name": "Mézidon à Dives a.500f.,125fp. (en liq.)"
}