{
  "id": 20194,
  "share_type": {
    "id": 1,
    "name": "Stock (Action)"
  },
  "issuers": [
    {
      "id": 6132,
      "start_date": "1969-10-24",
      "end_date": "3999-12-31",
      "name": "Immindo S. A."
    }
  ],
  "types": [
    {
      "start_date": "1969-10-24",
      "end_date": "3999-12-31",
      "id": 27,
      "name": "Promesse d'action",
      "stock_group": "S"
    }
  ],
  "is_mainstock": 0,
  "prices_period": [
    "1969-12-01",
    "1970-01-15"
  ],
  "stock_exchanges": {
    "1": {
      "id": 1,
      "name": "Paris (Official List)",
      "notations": {
        "150769": {
          "id": 150769,
          "sector_id": 598,
          "start_date": "1969-10-24",
          "end_date": "1970-01-26",
          "names": [
            {
              "name": "Immindo S.A, promesses (Jce 1/1/70)",
              "start_date": "1969-10-24",
              "end_date": "1970-01-26"
            },
            {
              "name": "Immindo S.A., ac. (c.6 A et B att.) (ex-dr., A et B du 22/9/69) - Promesses (Jce 1/1/70)",
              "start_date": "1969-10-24",
              "end_date": "3999-12-31"
            }
          ]
        }
      },
      "listings_stats": {
        "start_date": "1969-10-24"
      },
      "spot_prices_stats": {
        "start_date": "1969-12-01",
        "end_date": "1970-01-15"
      }
    }
  },
  "prices_count": 4,
  "name": "Immindo S.A, promesses (Jce 1/1/70)"
}