{
  "id": 2366,
  "share_type": {
    "id": 2,
    "name": "Bond (Obligation)"
  },
  "issuers": [
    {
      "id": 1266,
      "start_date": "1876-09-25",
      "end_date": "3999-12-31",
      "name": "ETATS-UNIS D'AMERIQUE"
    }
  ],
  "types": [
    {
      "start_date": "1876-09-25",
      "end_date": "3999-12-31",
      "id": 1001,
      "name": "Obligation ordinaire ou classique",
      "stock_group": "B"
    }
  ],
  "is_mainstock": 0,
  "prices_period": [
    null,
    null
  ],
  "stock_exchanges": {
    "1": {
      "id": 1,
      "name": "Paris (Official List)",
      "notations": {
        "3465": {
          "id": 3465,
          "sector_id": 74,
          "start_date": "1876-09-25",
          "end_date": "1879-01-06",
          "names": [
            {
              "name": "Etats-Unis 5-20 65 Bons remb. 21 déc.76",
              "start_date": "1876-09-25",
              "end_date": "1879-01-06"
            },
            {
              "name": "Etats-Unis, B. 64 et 65 remb. 21 déc. 76",
              "start_date": "1876-09-25",
              "end_date": "3999-12-31"
            }
          ]
        }
      },
      "listings_stats": {
        "start_date": "1876-09-25"
      }
    }
  },
  "prices_count": 0,
  "name": "Etats-Unis 5-20 65 Bons remb. 21 déc.76"
}