{
  "id": 17272,
  "share_type": {
    "id": 2,
    "name": "Bond (Obligation)"
  },
  "issuers": [
    {
      "id": 4693,
      "start_date": "1962-01-02",
      "end_date": "3999-12-31",
      "name": "PRODUITS CHIMIQUES DE CLAMECY"
    }
  ],
  "types": [
    {
      "start_date": "1962-01-02",
      "end_date": "3999-12-31",
      "id": 1001,
      "name": "Obligation ordinaire ou classique",
      "stock_group": "B"
    }
  ],
  "is_mainstock": 0,
  "prices_period": [
    "1962-01-02",
    "1967-06-30"
  ],
  "stock_exchanges": {
    "1": {
      "id": 1,
      "name": "Paris (Official List)",
      "notations": {
        "31401": {
          "id": 31401,
          "sector_id": 247,
          "start_date": "1963-03-04",
          "end_date": "1967-07-03",
          "names": [
            {
              "name": "Produits Chimiques de Clamecy 4,25 % 1946 1947-76",
              "start_date": "1962-01-02",
              "end_date": "1967-07-03"
            },
            {
              "name": "Produits Chimiques de Clamency, 4,25% 1946,1947-76",
              "start_date": "1962-12-06",
              "end_date": "1967-07-03"
            },
            {
              "name": "Progil (ex-Produits Chimiques de Clamency), 4,25% 1946,1947-76",
              "start_date": "1962-12-07",
              "end_date": "3999-12-31"
            }
          ]
        },
        "147847": {
          "id": 147847,
          "sector_id": 519,
          "start_date": "1962-01-02",
          "end_date": "1963-03-04",
          "names": [
            {
              "name": "Produits Chimiques de Clamecy 4,25 % 1946 1947-76",
              "start_date": "1962-01-02",
              "end_date": "1963-03-04"
            },
            {
              "name": "Produits Chimiques de Clamency, 4,25% 1946,1947-76",
              "start_date": "1962-01-02",
              "end_date": "1963-03-04"
            },
            {
              "name": "Progil (ex-Produits Chimiques de Clamency), 4,25% 1946,1947-76",
              "start_date": "1962-01-02",
              "end_date": "3999-12-31"
            }
          ]
        }
      },
      "listings_stats": {
        "start_date": "1962-01-02"
      },
      "spot_prices_stats": {
        "start_date": "1962-01-02",
        "end_date": "1967-06-30"
      }
    }
  },
  "prices_count": 132,
  "name": "Produits Chimiques de Clamency, 4,25% 1946,1947-76"
}