{
  "id": 16111,
  "share_type": {
    "id": 2,
    "name": "Bond (Obligation)"
  },
  "issuers": [
    {
      "id": 4383,
      "start_date": "1960-01-18",
      "end_date": "3999-12-31",
      "name": "COMPAGNIE GENERALE DE RADIOLOGIE (Anciennement Etablissements Gaiffe-Gallot et Pilon)"
    }
  ],
  "types": [
    {
      "start_date": "1960-01-18",
      "end_date": "3999-12-31",
      "id": 1001,
      "name": "Obligation ordinaire ou classique",
      "stock_group": "B"
    }
  ],
  "is_mainstock": 0,
  "prices_period": [
    "1960-01-22",
    "1974-06-17"
  ],
  "stock_exchanges": {
    "1": {
      "id": 1,
      "name": "Paris (Official List)",
      "notations": {
        "28368": {
          "id": 28368,
          "sector_id": 516,
          "start_date": "1962-01-02",
          "end_date": "1963-03-04",
          "names": [
            {
              "name": "Radiologie (cie gle de) 5,5% 1959 r à NF 112,5 minim (c 1/7/60 att)(tir 27/5/60) 1960-74",
              "start_date": "1960-01-18",
              "end_date": "1974-07-01"
            },
            {
              "name": "Radiologie 5,5% 1959 de 100F, remb 112,50F à 120F (tir 29/5/73) (avis 35014) 1960-74",
              "start_date": "1962-01-02",
              "end_date": "3999-12-31"
            }
          ]
        },
        "31091": {
          "id": 31091,
          "sector_id": 369,
          "start_date": "1963-03-04",
          "end_date": "1974-07-01",
          "names": [
            {
              "name": "Radiologie (cie gle de) 5,5% 1959 r à NF 112,5 minim (c 1/7/60 att)(tir 27/5/60) 1960-74",
              "start_date": "1960-01-18",
              "end_date": "1974-07-01"
            },
            {
              "name": "Radiologie 5,5% 1959 de 100F, remb 112,50F à 120F (tir 29/5/73) (avis 35014) 1960-74",
              "start_date": "1963-03-04",
              "end_date": "3999-12-31"
            }
          ]
        },
        "146686": {
          "id": 146686,
          "sector_id": 369,
          "start_date": "1960-01-18",
          "end_date": "1962-01-02",
          "names": [
            {
              "name": "Radiologie (cie gle de) 5,5% 1959 r à NF 112,5 minim (c 1/7/60 att)(tir 27/5/60) 1960-74",
              "start_date": "1960-01-18",
              "end_date": "1974-07-01"
            },
            {
              "name": "Radiologie 5,5% 1959 de 100F, remb 112,50F à 120F (tir 29/5/73) (avis 35014) 1960-74",
              "start_date": "1960-01-18",
              "end_date": "3999-12-31"
            }
          ]
        }
      },
      "listings_stats": {
        "start_date": "1960-01-18"
      },
      "spot_prices_stats": {
        "start_date": "1960-01-22",
        "end_date": "1974-06-17"
      }
    }
  },
  "prices_count": 347,
  "name": "Radiologie 5,5% 1959 de 100F, remb 112,50F à 120F (tir 29/5/73) (avis 35014) 1960-74"
}