{
  "id": 100872,
  "share_type": {
    "id": 4,
    "name": "Rights (Droits)"
  },
  "issuers": [
    {
      "id": 4759,
      "start_date": "1948-02-11",
      "end_date": "3999-12-31",
      "name": "SOCIÉTÉ ANONYME DES ÉTABLISSEMENTS FOURNIER OSTERTAG ET LE BOULENGER"
    }
  ],
  "types": [
    {
      "start_date": "1948-02-11",
      "end_date": "3999-12-31",
      "id": 501,
      "name": "Droit de souscription",
      "stock_group": "R"
    }
  ],
  "is_mainstock": 0,
  "prices_period": [
    "1948-02-11",
    "1948-02-11"
  ],
  "stock_exchanges": {
    "1": {
      "id": 1,
      "name": "Paris (Official List)",
      "notations": {
        "201017": {
          "id": 201017,
          "sector_id": 657,
          "start_date": "1948-02-11",
          "end_date": "4000-01-01",
          "names": [
            {
              "name": "Act. de cap. et de jouiss. Fournier, Ostertag et Le Boulenger (droit et coupon 49). 1 action nouv. émise à 200 fr. pour 1 action ancienne de capital ou de jouissance",
              "start_date": "1948-02-11",
              "end_date": "4000-01-01"
            }
          ]
        }
      },
      "listings_stats": {
        "start_date": "1948-02-11"
      },
      "spot_prices_stats": {
        "start_date": "1948-02-11",
        "end_date": "1948-02-11"
      }
    }
  },
  "prices_count": 1,
  "name": "Act. de cap. et de jouiss. Fournier, Ostertag et Le Boulenger (droit et coupon 49). 1 action nouv. émise à 200 fr. pour 1 action ancienne de capital ou de jouissance"
}