{
  "id": 4480,
  "share_type": {
    "id": 2,
    "name": "Bond (Obligation)"
  },
  "issuers": [
    {
      "id": 461,
      "start_date": "1898-07-05",
      "end_date": "3999-12-31",
      "name": "ETATS : RUSSIE"
    }
  ],
  "types": [
    {
      "start_date": "1898-07-05",
      "end_date": "3999-12-31",
      "id": 1001,
      "name": "Obligation ordinaire ou classique",
      "stock_group": "B"
    }
  ],
  "is_mainstock": 0,
  "prices_period": [
    "1899-01-31",
    "1976-12-31"
  ],
  "stock_exchanges": {
    "1": {
      "id": 1,
      "name": "Paris (Official List)",
      "notations": {
        "5579": {
          "id": 5579,
          "sector_id": 67,
          "start_date": "1898-07-05",
          "end_date": "1914-08-03",
          "names": [
            {
              "name": "Russie 4%, obl. chemin de fer Transcaucasien, remb. au pair. Coup. De 200 fr. de rente",
              "start_date": "1898-07-05",
              "end_date": "1925-05-01"
            },
            {
              "name": "Russie Oblig. 4% Ch. de fer Transcaucasien, r. au pair. C. 200 fr. rente",
              "start_date": "1898-07-05",
              "end_date": "1934-01-02"
            },
            {
              "name": "Russie Oblig. 4% Ch de fer Transcaucasien, r. au pair, T. 5000 fr. capital",
              "start_date": "1898-07-05",
              "end_date": "1934-01-23"
            },
            {
              "name": "Russie Oblig. 4% Ch de fer Transcaucasien, r. au pair, Oblig. 5000 fr. capital",
              "start_date": "1898-07-05",
              "end_date": "1948-01-15"
            },
            {
              "name": "Russie Oblig. 4% Ch. Fer Transcaucasien, r. au pair. C. 200 fr. rente.",
              "start_date": "1898-07-05",
              "end_date": "1960-01-03"
            },
            {
              "name": "Russie 4% ch de fer transcoucasien, r au pair (18) oblig 5000 fr cap ou 200 fr rente",
              "start_date": "1898-07-05",
              "end_date": "1960-01-04"
            },
            {
              "name": "Russie 4% ch de fer transcaucasien, r au pair (1) T de 10 oblig",
              "start_date": "1898-07-05",
              "end_date": "1962-01-02"
            },
            {
              "name": "Russie 4% Ch. de fer Transcaucasien rembours. au pair (16), T. de 10 oblig.",
              "start_date": "1898-07-05",
              "end_date": "3999-12-31"
            }
          ]
        },
        "6869": {
          "id": 6869,
          "sector_id": 67,
          "start_date": "1914-12-15",
          "end_date": "1925-05-01",
          "names": [
            {
              "name": "Russie 4%, obl. chemin de fer Transcaucasien, remb. au pair. Coup. De 200 fr. de rente",
              "start_date": "1898-07-05",
              "end_date": "1925-05-01"
            },
            {
              "name": "Russie Oblig. 4% Ch. de fer Transcaucasien, r. au pair. C. 200 fr. rente",
              "start_date": "1914-12-15",
              "end_date": "1934-01-02"
            },
            {
              "name": "Russie Oblig. 4% Ch de fer Transcaucasien, r. au pair, T. 5000 fr. capital",
              "start_date": "1914-12-15",
              "end_date": "1934-01-23"
            },
            {
              "name": "Russie Oblig. 4% Ch de fer Transcaucasien, r. au pair, Oblig. 5000 fr. capital",
              "start_date": "1914-12-15",
              "end_date": "1948-01-15"
            },
            {
              "name": "Russie Oblig. 4% Ch. Fer Transcaucasien, r. au pair. C. 200 fr. rente.",
              "start_date": "1914-12-15",
              "end_date": "1960-01-03"
            },
            {
              "name": "Russie 4% ch de fer transcoucasien, r au pair (18) oblig 5000 fr cap ou 200 fr rente",
              "start_date": "1914-12-15",
              "end_date": "1960-01-04"
            },
            {
              "name": "Russie 4% ch de fer transcaucasien, r au pair (1) T de 10 oblig",
              "start_date": "1914-12-15",
              "end_date": "1962-01-02"
            },
            {
              "name": "Russie 4% Ch. de fer Transcaucasien rembours. au pair (16), T. de 10 oblig.",
              "start_date": "1914-12-15",
              "end_date": "3999-12-31"
            }
          ]
        },
        "13421": {
          "id": 13421,
          "sector_id": 74,
          "start_date": "1925-05-01",
          "end_date": "1940-06-11",
          "names": [
            {
              "name": "Russie 4%, obl. chemin de fer Transcaucasien, remb. au pair. Coup. De 200 fr. de rente",
              "start_date": "1898-07-05",
              "end_date": "1940-06-11"
            },
            {
              "name": "Russie Oblig. 4% Ch. de fer Transcaucasien, r. au pair. C. 200 fr. rente",
              "start_date": "1925-05-01",
              "end_date": "1940-06-11"
            },
            {
              "name": "Russie Oblig. 4% Ch de fer Transcaucasien, r. au pair, T. 5000 fr. capital",
              "start_date": "1925-05-01",
              "end_date": "1940-06-11"
            },
            {
              "name": "Russie Oblig. 4% Ch de fer Transcaucasien, r. au pair, Oblig. 5000 fr. capital",
              "start_date": "1925-05-01",
              "end_date": "1948-01-15"
            },
            {
              "name": "Russie Oblig. 4% Ch. Fer Transcaucasien, r. au pair. C. 200 fr. rente.",
              "start_date": "1925-05-01",
              "end_date": "1960-01-03"
            },
            {
              "name": "Russie 4% ch de fer transcoucasien, r au pair (18) oblig 5000 fr cap ou 200 fr rente",
              "start_date": "1925-05-01",
              "end_date": "1960-01-04"
            },
            {
              "name": "Russie 4% ch de fer transcaucasien, r au pair (1) T de 10 oblig",
              "start_date": "1925-05-01",
              "end_date": "1962-01-02"
            },
            {
              "name": "Russie 4% Ch. de fer Transcaucasien rembours. au pair (16), T. de 10 oblig.",
              "start_date": "1925-05-01",
              "end_date": "3999-12-31"
            }
          ]
        },
        "21789": {
          "id": 21789,
          "sector_id": 234,
          "start_date": "1948-01-15",
          "end_date": "1962-01-02",
          "names": [
            {
              "name": "Russie 4%, obl. chemin de fer Transcaucasien, remb. au pair. Coup. De 200 fr. de rente",
              "start_date": "1898-07-05",
              "end_date": "1962-01-02"
            },
            {
              "name": "Russie Oblig. 4% Ch. de fer Transcaucasien, r. au pair. C. 200 fr. rente",
              "start_date": "1925-05-01",
              "end_date": "1962-01-02"
            },
            {
              "name": "Russie Oblig. 4% Ch de fer Transcaucasien, r. au pair, T. 5000 fr. capital",
              "start_date": "1934-01-02",
              "end_date": "1962-01-02"
            },
            {
              "name": "Russie Oblig. 4% Ch de fer Transcaucasien, r. au pair, Oblig. 5000 fr. capital",
              "start_date": "1934-01-23",
              "end_date": "1962-01-02"
            },
            {
              "name": "Russie Oblig. 4% Ch. Fer Transcaucasien, r. au pair. C. 200 fr. rente.",
              "start_date": "1948-01-15",
              "end_date": "1962-01-02"
            },
            {
              "name": "Russie 4% ch de fer transcoucasien, r au pair (18) oblig 5000 fr cap ou 200 fr rente",
              "start_date": "1948-01-15",
              "end_date": "1962-01-02"
            },
            {
              "name": "Russie 4% ch de fer transcaucasien, r au pair (1) T de 10 oblig",
              "start_date": "1948-01-15",
              "end_date": "1962-01-02"
            },
            {
              "name": "Russie 4% Ch. de fer Transcaucasien rembours. au pair (16), T. de 10 oblig.",
              "start_date": "1948-01-15",
              "end_date": "3999-12-31"
            }
          ]
        },
        "29023": {
          "id": 29023,
          "sector_id": 74,
          "start_date": "1962-01-02",
          "end_date": "3999-12-31",
          "names": [
            {
              "name": "Russie 4%, obl. chemin de fer Transcaucasien, remb. au pair. Coup. De 200 fr. de rente",
              "start_date": "1898-07-05",
              "end_date": "3999-12-31"
            },
            {
              "name": "Russie Oblig. 4% Ch. de fer Transcaucasien, r. au pair. C. 200 fr. rente",
              "start_date": "1925-05-01",
              "end_date": "3999-12-31"
            },
            {
              "name": "Russie Oblig. 4% Ch de fer Transcaucasien, r. au pair, T. 5000 fr. capital",
              "start_date": "1934-01-02",
              "end_date": "3999-12-31"
            },
            {
              "name": "Russie Oblig. 4% Ch de fer Transcaucasien, r. au pair, Oblig. 5000 fr. capital",
              "start_date": "1934-01-23",
              "end_date": "3999-12-31"
            },
            {
              "name": "Russie Oblig. 4% Ch. Fer Transcaucasien, r. au pair. C. 200 fr. rente.",
              "start_date": "1948-01-15",
              "end_date": "3999-12-31"
            },
            {
              "name": "Russie 4% ch de fer transcoucasien, r au pair (18) oblig 5000 fr cap ou 200 fr rente",
              "start_date": "1960-01-03",
              "end_date": "3999-12-31"
            },
            {
              "name": "Russie 4% ch de fer transcaucasien, r au pair (1) T de 10 oblig",
              "start_date": "1960-01-04",
              "end_date": "3999-12-31"
            },
            {
              "name": "Russie 4% Ch. de fer Transcaucasien rembours. au pair (16), T. de 10 oblig.",
              "start_date": "1962-01-02",
              "end_date": "3999-12-31"
            }
          ]
        }
      },
      "listings_stats": {
        "start_date": "1898-07-05"
      },
      "spot_prices_stats": {
        "start_date": "1899-01-31",
        "end_date": "1976-12-31"
      }
    }
  },
  "prices_count": 551,
  "name": "Russie Oblig. 4% Ch. de fer Transcaucasien, r. au pair. C. 200 fr. rente"
}