{
  "id": 40131,
  "share_type": {
    "id": 2,
    "name": "Bond (Obligation)"
  },
  "issuers": [
    {
      "id": 7003,
      "start_date": "1000-01-01",
      "end_date": "3999-12-31",
      "name": "Biskra et de l'Oued Rirh (Cie de)"
    }
  ],
  "types": [
    {
      "start_date": "1000-01-01",
      "end_date": "3999-12-31",
      "id": 1001,
      "name": "Obligation ordinaire ou classique",
      "stock_group": "B"
    }
  ],
  "is_mainstock": 0,
  "prices_period": [
    "1892-12-15",
    "1894-12-15"
  ],
  "stock_exchanges": {
    "1": {
      "id": 1,
      "name": "Paris (Official List)",
      "notations": {
        "155131": {
          "id": 155131,
          "sector_id": 122,
          "start_date": "1892-12-01",
          "end_date": "1896-01-10",
          "names": [
            {
              "name": "Biskra et de l'Oued Rirh (Cie de), Oblig. hypothécaires 3%",
              "start_date": "1892-05-05",
              "end_date": "1920-01-02"
            }
          ]
        }
      },
      "listings_stats": {
        "start_date": "1892-12-01"
      },
      "spot_prices_stats": {
        "start_date": "1892-12-15",
        "end_date": "1894-12-15"
      }
    }
  },
  "prices_count": 5,
  "name": "Biskra et de l'Oued Rirh (Cie de), Oblig. hypothécaires 3%"
}