{
  "id": 520,
  "share_type": {
    "id": 6,
    "name": "UNKNOWN"
  },
  "issuers": [
    {
      "id": 853,
      "start_date": "1847-05-19",
      "end_date": "3999-12-31",
      "name": "Charbons Belges, la Grappe"
    }
  ],
  "types": [
    {
      "start_date": "1847-05-19",
      "end_date": "3999-12-31",
      "id": 1,
      "name": "UNKNOWN",
      "stock_group": "U"
    }
  ],
  "is_mainstock": 0,
  "prices_period": [
    "1847-05-19",
    "1849-03-22"
  ],
  "stock_exchanges": {
    "1": {
      "id": 1,
      "name": "Paris (Official List)",
      "notations": {
        "722": {
          "id": 722,
          "sector_id": 576,
          "start_date": "1847-05-19",
          "end_date": "1847-07-30",
          "names": [
            {
              "name": "Charbons Belges, la Grappe",
              "start_date": "1847-05-19",
              "end_date": "1849-03-21"
            },
            {
              "name": "Charbons Belges La Grappe",
              "start_date": "1847-05-19",
              "end_date": "3999-12-31"
            }
          ]
        },
        "762": {
          "id": 762,
          "sector_id": 576,
          "start_date": "1849-03-22",
          "end_date": "1849-06-21",
          "names": [
            {
              "name": "Charbons Belges, la Grappe",
              "start_date": "1847-05-19",
              "end_date": "1849-06-21"
            },
            {
              "name": "Charbons Belges La Grappe",
              "start_date": "1849-03-21",
              "end_date": "3999-12-31"
            }
          ]
        }
      },
      "listings_stats": {
        "start_date": "1847-05-19"
      },
      "spot_prices_stats": {
        "start_date": "1847-05-19",
        "end_date": "1849-03-22"
      }
    }
  },
  "prices_count": 3,
  "name": "Charbons Belges La Grappe"
}