{
  "id": 2426,
  "share_type": {
    "id": 2,
    "name": "Bond (Obligation)"
  },
  "issuers": [
    {
      "id": 1681,
      "start_date": "1877-02-12",
      "end_date": "3999-12-31",
      "name": "COMPAGNIE DE FIVES-LILLE"
    }
  ],
  "types": [
    {
      "start_date": "1877-02-12",
      "end_date": "3999-12-31",
      "id": 1001,
      "name": "Obligation ordinaire ou classique",
      "stock_group": "B"
    }
  ],
  "is_mainstock": 0,
  "prices_period": [
    "1877-02-12",
    "1905-11-15"
  ],
  "stock_exchanges": {
    "1": {
      "id": 1,
      "name": "Paris (Official List)",
      "notations": {
        "1955": {
          "id": 1955,
          "sector_id": 111,
          "start_date": "1902-05-26",
          "end_date": "1906-01-02",
          "names": [
            {
              "name": "Fives-Lille, 6%, 1re et 2e émis. r. À 450f.",
              "start_date": "1877-02-12",
              "end_date": "3999-12-31"
            }
          ]
        },
        "3525": {
          "id": 3525,
          "sector_id": 70,
          "start_date": "1877-02-12",
          "end_date": "1902-05-26",
          "names": [
            {
              "name": "Fives-Lille, 6%, 1re et 2e émis. r. À 450f.",
              "start_date": "1877-02-12",
              "end_date": "3999-12-31"
            }
          ]
        }
      },
      "listings_stats": {
        "start_date": "1877-02-12"
      },
      "spot_prices_stats": {
        "start_date": "1877-02-12",
        "end_date": "1905-11-15"
      }
    }
  },
  "prices_count": 625,
  "name": "Fives-Lille, 6%, 1re et 2e émis. r. À 450f."
}