{
  "id": 5866,
  "share_type": {
    "id": 2,
    "name": "Bond (Obligation)"
  },
  "issuers": [
    {
      "id": 461,
      "start_date": "1919-08-01",
      "end_date": "3999-12-31",
      "name": "ETATS : RUSSIE"
    }
  ],
  "types": [
    {
      "start_date": "1919-08-01",
      "end_date": "3999-12-31",
      "id": 1001,
      "name": "Obligation ordinaire ou classique",
      "stock_group": "B"
    }
  ],
  "is_mainstock": 0,
  "prices_period": [
    null,
    null
  ],
  "stock_exchanges": {
    "1": {
      "id": 1,
      "name": "Paris (Official List)",
      "notations": {
        "8271": {
          "id": 8271,
          "sector_id": 67,
          "start_date": "1919-08-01",
          "end_date": "1923-03-27",
          "names": [
            {
              "name": "Russie Intérieur 4% 1894 (Série 1 à 112)(nég.ch.fixe 2f6667), C.4f.rente., non estamp",
              "start_date": "1919-08-01",
              "end_date": "3999-12-31"
            }
          ]
        }
      },
      "listings_stats": {
        "start_date": "1919-08-01"
      }
    }
  },
  "prices_count": 0,
  "name": "Russie Intérieur 4% 1894 (Série 1 à 112)(nég.ch.fixe 2f6667), C.4f.rente., non estamp"
}