{
  "id": 6935,
  "share_type": {
    "id": 1,
    "name": "Stock (Action)"
  },
  "issuers": [
    {
      "id": 1931,
      "start_date": "1919-07-16",
      "end_date": "3999-12-31",
      "name": "COMPAGNIE GENERALE DES TABACS"
    }
  ],
  "types": [
    {
      "start_date": "1919-07-16",
      "end_date": "1933-02-28",
      "id": 18,
      "name": "Action",
      "stock_group": "S"
    }
  ],
  "is_mainstock": 1,
  "prices_period": [
    "1919-07-16",
    "1933-02-28"
  ],
  "stock_exchanges": {
    "1": {
      "id": 1,
      "name": "Paris (Official List)",
      "notations": {
        "11026": {
          "id": 11026,
          "sector_id": 182,
          "start_date": "1922-12-01",
          "end_date": "1928-02-02",
          "names": [
            {
              "name": "Tabacs (Cie générale des), act.500fr., t.p.",
              "start_date": "1919-07-16",
              "end_date": "1928-02-02"
            },
            {
              "name": "Tabacs (Cie Gén. des), act. 250 fr., t. p. (ex-dr., )",
              "start_date": "1922-10-18",
              "end_date": "1928-02-02"
            },
            {
              "name": "Tabacs (Cie Gén. des), act. ord. 250 fr., t.p.",
              "start_date": "1922-12-01",
              "end_date": "3999-12-31"
            }
          ]
        },
        "33807": {
          "id": 33807,
          "sector_id": 106,
          "start_date": "1919-07-16",
          "end_date": "1922-12-01",
          "names": [
            {
              "name": "Tabacs (Cie générale des), act.500fr., t.p.",
              "start_date": "1919-07-16",
              "end_date": "1922-12-01"
            },
            {
              "name": "Tabacs (Cie Gén. des), act. 250 fr., t. p. (ex-dr., )",
              "start_date": "1919-07-16",
              "end_date": "1928-02-01"
            },
            {
              "name": "Tabacs (Cie Gén. des), act. ord. 250 fr., t.p.",
              "start_date": "1919-07-16",
              "end_date": "3999-12-31"
            }
          ]
        },
        "136363": {
          "id": 136363,
          "sector_id": 182,
          "start_date": "1928-02-02",
          "end_date": "1933-04-18",
          "names": [
            {
              "name": "Tabacs (Cie générale des), act.500fr., t.p.",
              "start_date": "1919-07-16",
              "end_date": "1933-04-18"
            },
            {
              "name": "Tabacs (Cie Gén. des), act. 250 fr., t. p. (ex-dr., )",
              "start_date": "1922-10-18",
              "end_date": "1933-04-18"
            },
            {
              "name": "Tabacs (Cie Gén. des), act. ord. 250 fr., t.p.",
              "start_date": "1928-02-01",
              "end_date": "3999-12-31"
            }
          ]
        }
      },
      "listings_stats": {
        "start_date": "1919-07-16"
      },
      "spot_prices_stats": {
        "start_date": "1919-07-16",
        "end_date": "1933-02-28"
      }
    }
  },
  "prices_count": 423,
  "name": "Tabacs (Cie Gén. des), act. ord. 250 fr., t.p."
}