{
  "id": 18927,
  "share_type": {
    "id": 1,
    "name": "Stock (Action)"
  },
  "issuers": [
    {
      "id": 4027,
      "start_date": "1967-05-02",
      "end_date": "3999-12-31",
      "name": "IMPORTATION DES BOIS DU NORD ET D'AMERIQUE HAILAUST ET GUTZEIT"
    }
  ],
  "types": [
    {
      "start_date": "1967-05-02",
      "end_date": "3999-12-31",
      "id": 18,
      "name": "Action",
      "stock_group": "S"
    }
  ],
  "is_mainstock": 0,
  "prices_period": [
    "1967-05-02",
    "1969-03-17"
  ],
  "stock_exchanges": {
    "1": {
      "id": 1,
      "name": "Paris (Official List)",
      "notations": {
        "149502": {
          "id": 149502,
          "sector_id": 338,
          "start_date": "1967-05-02",
          "end_date": "1969-03-31",
          "names": [
            {
              "name": "Nantes_Bourse Hailaust et Gutzeit (Imp. Bois du Nord de l'Amérique), act.",
              "start_date": "1967-05-02",
              "end_date": "1969-03-31"
            },
            {
              "name": "NANTES_BOURSE Hallaust et Gutzelt (Imp. Bois du Nord de l'Amérique), act.",
              "start_date": "1967-05-02",
              "end_date": "3999-12-31"
            }
          ]
        }
      },
      "listings_stats": {
        "start_date": "1967-05-02"
      },
      "spot_prices_stats": {
        "start_date": "1967-05-02",
        "end_date": "1969-03-17"
      }
    }
  },
  "prices_count": 47,
  "name": "Nantes_Bourse Hailaust et Gutzeit (Imp. Bois du Nord de l'Amérique), act."
}