{
  "id": 12062,
  "share_type": {
    "id": 2,
    "name": "Bond (Obligation)"
  },
  "issuers": [
    {
      "id": 100,
      "start_date": "1944-12-13",
      "end_date": "3999-12-31",
      "name": "RENTES FRANÇAISES"
    }
  ],
  "types": [
    {
      "start_date": "1944-12-13",
      "end_date": "3999-12-31",
      "id": 1005,
      "name": "Rentes (sur l'Etat)",
      "stock_group": "B"
    }
  ],
  "is_mainstock": 0,
  "prices_period": [
    "1944-12-13",
    "1945-01-15"
  ],
  "stock_exchanges": {
    "1": {
      "id": 1,
      "name": "Paris (Official List)",
      "notations": {
        "142637": {
          "id": 142637,
          "sector_id": 196,
          "start_date": "1944-12-13",
          "end_date": "1945-02-07",
          "names": [
            {
              "name": "4,5% 1932, tranche A (Jce 1/8/44) Coup. De 22 fr. 50 de rente, remb. Le 1er février 1943",
              "start_date": "1944-12-13",
              "end_date": "3999-12-31"
            }
          ]
        }
      },
      "listings_stats": {
        "start_date": "1944-12-13"
      },
      "spot_prices_stats": {
        "start_date": "1944-12-13",
        "end_date": "1945-01-15"
      }
    }
  },
  "prices_count": 4,
  "name": "4,5% 1932, tranche A (Jce 1/8/44) Coup. De 22 fr. 50 de rente, remb. Le 1er février 1943"
}