{
  "id": 1489,
  "share_type": {
    "id": 1,
    "name": "Stock (Action)"
  },
  "issuers": [
    {
      "id": 493,
      "start_date": "1857-07-02",
      "end_date": "3999-12-31",
      "name": "Compagnie du Chemin de fer du NORD"
    }
  ],
  "types": [
    {
      "start_date": "1857-07-02",
      "end_date": "3999-12-31",
      "id": 18,
      "name": "Action",
      "stock_group": "S"
    }
  ],
  "is_mainstock": 0,
  "prices_period": [
    "1857-07-02",
    "1859-09-15"
  ],
  "stock_exchanges": {
    "1": {
      "id": 1,
      "name": "Paris (Official List)",
      "notations": {
        "2598": {
          "id": 2598,
          "sector_id": 68,
          "start_date": "1857-07-02",
          "end_date": "1859-09-20",
          "names": [
            {
              "name": "Nord, act. nouvelles, j. Jet (Emission à 575 f., 200 f. payés) [Nord, act. nles 200 f p., j. 1er jet]",
              "start_date": "1857-07-02",
              "end_date": "3999-12-31"
            }
          ]
        }
      },
      "forward_prices_stats": {
        "start_date": "1857-07-02",
        "end_date": "1859-09-15"
      },
      "listings_stats": {
        "start_date": "1857-07-02"
      },
      "spot_prices_stats": {
        "start_date": "1857-07-02",
        "end_date": "1859-09-15"
      }
    }
  },
  "prices_count": 243,
  "name": "Nord, act. nouvelles, j. Jet (Emission à 575 f., 200 f. payés) [Nord, act. nles 200 f p., j. 1er jet]"
}