{
  "id": 7709,
  "share_type": {
    "id": 2,
    "name": "Bond (Obligation)"
  },
  "issuers": [
    {
      "id": 3376,
      "start_date": "1924-06-06",
      "end_date": "3999-12-31",
      "name": "Cleveland Cincinnati Chicago and Saint-Louis Railway Cy"
    }
  ],
  "types": [
    {
      "start_date": "1924-06-06",
      "end_date": "3999-12-31",
      "id": 1001,
      "name": "Obligation ordinaire ou classique",
      "stock_group": "B"
    }
  ],
  "is_mainstock": 0,
  "prices_period": [
    "1924-06-17",
    "1930-05-15"
  ],
  "stock_exchanges": {
    "1": {
      "id": 1,
      "name": "Paris (Official List)",
      "notations": {
        "13621": {
          "id": 13621,
          "sector_id": 128,
          "start_date": "1925-05-01",
          "end_date": "1930-06-02",
          "names": [
            {
              "name": "Cleveland-Cincinnati-Chicago and Saint-Louis Railway Cy 4% 1910-1930, remb. à 500 fr. Jouissance courante",
              "start_date": "1924-06-06",
              "end_date": "1930-06-02"
            },
            {
              "name": "Cleveland-Cincinnati-Chicago and St-Louis Railway Cy Jouissance courante.",
              "start_date": "1925-05-01",
              "end_date": "3999-12-31"
            }
          ]
        },
        "34579": {
          "id": 34579,
          "sector_id": 144,
          "start_date": "1924-06-06",
          "end_date": "1925-05-01",
          "names": [
            {
              "name": "Cleveland-Cincinnati-Chicago and Saint-Louis Railway Cy 4% 1910-1930, remb. à 500 fr. Jouissance courante",
              "start_date": "1924-06-06",
              "end_date": "1930-06-01"
            },
            {
              "name": "Cleveland-Cincinnati-Chicago and St-Louis Railway Cy Jouissance courante.",
              "start_date": "1924-06-06",
              "end_date": "3999-12-31"
            }
          ]
        }
      },
      "listings_stats": {
        "start_date": "1924-06-06"
      },
      "spot_prices_stats": {
        "start_date": "1924-06-17",
        "end_date": "1930-05-15"
      }
    }
  },
  "prices_count": 91,
  "name": "Cleveland-Cincinnati-Chicago and St-Louis Railway Cy Jouissance courante."
}