{
  "id": 102688,
  "share_type": {
    "id": 4,
    "name": "Rights (Droits)"
  },
  "issuers": [
    {
      "id": 3702,
      "start_date": "1928-02-15",
      "end_date": "1928-03-13",
      "name": "Messageries Fluviales de Cochinchine"
    }
  ],
  "types": [
    {
      "start_date": "1928-02-15",
      "end_date": "1928-03-13",
      "id": 502,
      "name": "Droit d'attribution",
      "stock_group": "R"
    }
  ],
  "is_mainstock": 0,
  "prices_period": [
    "1928-02-23",
    "1928-02-23"
  ],
  "stock_exchanges": {
    "1": {
      "id": 1,
      "name": "Paris (Official List)",
      "notations": {
        "202870": {
          "id": 202870,
          "sector_id": 657,
          "start_date": "1928-02-15",
          "end_date": "1928-03-14",
          "names": [
            {
              "name": "Act. Messageries Fluviales de Cochinchine (droit à l'attribution des Parts et coupon 35). (voir Avis n°12492).",
              "start_date": "1928-02-15",
              "end_date": "1928-03-14"
            }
          ]
        }
      },
      "listings_stats": {
        "start_date": "1928-02-15"
      },
      "spot_prices_stats": {
        "start_date": "1928-02-23",
        "end_date": "1928-02-23"
      }
    }
  },
  "prices_count": 0,
  "name": "Act. Messageries Fluviales de Cochinchine (droit à l'attribution des Parts et coupon 35). (voir Avis n°12492)."
}