{
  "id": 5080,
  "share_type": {
    "id": 2,
    "name": "Bond (Obligation)"
  },
  "issuers": [
    {
      "id": 3338,
      "start_date": "1910-12-19",
      "end_date": "3999-12-31",
      "name": "PROVINCES : BUENOS-AYRES"
    }
  ],
  "types": [
    {
      "start_date": "1910-12-19",
      "end_date": "3999-12-31",
      "id": 1001,
      "name": "Obligation ordinaire ou classique",
      "stock_group": "B"
    }
  ],
  "is_mainstock": 0,
  "prices_period": [
    "1910-12-19",
    "1946-01-15"
  ],
  "stock_exchanges": {
    "1": {
      "id": 1,
      "name": "Paris (Official List)",
      "notations": {
        "6179": {
          "id": 6179,
          "sector_id": 67,
          "start_date": "1910-12-19",
          "end_date": "1914-08-03",
          "names": [
            {
              "name": "Buenos-Aires (Province de) 4.5% or 1910, remb. à 500 fr.",
              "start_date": "1910-12-19",
              "end_date": "1914-08-31"
            },
            {
              "name": "Buenos-Aires 4.5% 1910",
              "start_date": "1910-12-19",
              "end_date": "1918-12-31"
            },
            {
              "name": "Buenos-Aires 4.5% or 1910, r au pair",
              "start_date": "1910-12-19",
              "end_date": "1925-05-01"
            },
            {
              "name": "Buenos-Aires 4,5% 1910, remb. au pair.",
              "start_date": "1910-12-19",
              "end_date": "1934-01-02"
            },
            {
              "name": "Buenos-Aires 4,5% or 1910, remb. à 100 pes ou 500 fr.",
              "start_date": "1910-12-19",
              "end_date": "1944-10-10"
            },
            {
              "name": "Buenos-Aires 4,5% or 1910, obl. 100 pes. Ou 500 fr. (Jce 25/5/42)",
              "start_date": "1910-12-19",
              "end_date": "3999-12-31"
            }
          ]
        },
        "6428": {
          "id": 6428,
          "sector_id": 74,
          "start_date": "1914-08-31",
          "end_date": "1914-12-07",
          "names": [
            {
              "name": "Buenos-Aires (Province de) 4.5% or 1910, remb. à 500 fr.",
              "start_date": "1910-12-19",
              "end_date": "1914-12-07"
            },
            {
              "name": "Buenos-Aires 4.5% 1910",
              "start_date": "1914-08-31",
              "end_date": "1918-12-31"
            },
            {
              "name": "Buenos-Aires 4.5% or 1910, r au pair",
              "start_date": "1914-08-31",
              "end_date": "1925-05-01"
            },
            {
              "name": "Buenos-Aires 4,5% 1910, remb. au pair.",
              "start_date": "1914-08-31",
              "end_date": "1934-01-02"
            },
            {
              "name": "Buenos-Aires 4,5% or 1910, remb. à 100 pes ou 500 fr.",
              "start_date": "1914-08-31",
              "end_date": "1944-10-10"
            },
            {
              "name": "Buenos-Aires 4,5% or 1910, obl. 100 pes. Ou 500 fr. (Jce 25/5/42)",
              "start_date": "1914-08-31",
              "end_date": "3999-12-31"
            }
          ]
        },
        "6619": {
          "id": 6619,
          "sector_id": 67,
          "start_date": "1914-12-15",
          "end_date": "1925-05-01",
          "names": [
            {
              "name": "Buenos-Aires (Province de) 4.5% or 1910, remb. à 500 fr.",
              "start_date": "1910-12-19",
              "end_date": "1925-05-01"
            },
            {
              "name": "Buenos-Aires 4.5% 1910",
              "start_date": "1914-08-31",
              "end_date": "1925-05-01"
            },
            {
              "name": "Buenos-Aires 4.5% or 1910, r au pair",
              "start_date": "1914-12-15",
              "end_date": "1925-05-01"
            },
            {
              "name": "Buenos-Aires 4,5% 1910, remb. au pair.",
              "start_date": "1914-12-15",
              "end_date": "1934-01-02"
            },
            {
              "name": "Buenos-Aires 4,5% or 1910, remb. à 100 pes ou 500 fr.",
              "start_date": "1914-12-15",
              "end_date": "1944-10-10"
            },
            {
              "name": "Buenos-Aires 4,5% or 1910, obl. 100 pes. Ou 500 fr. (Jce 25/5/42)",
              "start_date": "1914-12-15",
              "end_date": "3999-12-31"
            }
          ]
        },
        "13192": {
          "id": 13192,
          "sector_id": 74,
          "start_date": "1925-05-01",
          "end_date": "1935-11-25",
          "names": [
            {
              "name": "Buenos-Aires (Province de) 4.5% or 1910, remb. à 500 fr.",
              "start_date": "1910-12-19",
              "end_date": "1935-11-25"
            },
            {
              "name": "Buenos-Aires 4.5% 1910",
              "start_date": "1914-08-31",
              "end_date": "1935-11-25"
            },
            {
              "name": "Buenos-Aires 4.5% or 1910, r au pair",
              "start_date": "1918-12-31",
              "end_date": "1935-11-25"
            },
            {
              "name": "Buenos-Aires 4,5% 1910, remb. au pair.",
              "start_date": "1925-05-01",
              "end_date": "1935-11-25"
            },
            {
              "name": "Buenos-Aires 4,5% or 1910, remb. à 100 pes ou 500 fr.",
              "start_date": "1925-05-01",
              "end_date": "1944-10-10"
            },
            {
              "name": "Buenos-Aires 4,5% or 1910, obl. 100 pes. Ou 500 fr. (Jce 25/5/42)",
              "start_date": "1925-05-01",
              "end_date": "3999-12-31"
            }
          ]
        },
        "23379": {
          "id": 23379,
          "sector_id": 74,
          "start_date": "1935-11-25",
          "end_date": "1940-06-11",
          "names": [
            {
              "name": "Buenos-Aires (Province de) 4.5% or 1910, remb. à 500 fr.",
              "start_date": "1910-12-19",
              "end_date": "1940-06-11"
            },
            {
              "name": "Buenos-Aires 4.5% 1910",
              "start_date": "1914-08-31",
              "end_date": "1940-06-11"
            },
            {
              "name": "Buenos-Aires 4.5% or 1910, r au pair",
              "start_date": "1918-12-31",
              "end_date": "1940-06-11"
            },
            {
              "name": "Buenos-Aires 4,5% 1910, remb. au pair.",
              "start_date": "1925-05-01",
              "end_date": "1940-06-11"
            },
            {
              "name": "Buenos-Aires 4,5% or 1910, remb. à 100 pes ou 500 fr.",
              "start_date": "1934-01-02",
              "end_date": "1944-10-10"
            },
            {
              "name": "Buenos-Aires 4,5% or 1910, obl. 100 pes. Ou 500 fr. (Jce 25/5/42)",
              "start_date": "1935-11-25",
              "end_date": "3999-12-31"
            }
          ]
        },
        "23383": {
          "id": 23383,
          "sector_id": 74,
          "start_date": "1944-10-10",
          "end_date": "1946-01-16",
          "names": [
            {
              "name": "Buenos-Aires (Province de) 4.5% or 1910, remb. à 500 fr.",
              "start_date": "1910-12-19",
              "end_date": "1946-01-16"
            },
            {
              "name": "Buenos-Aires 4.5% 1910",
              "start_date": "1914-08-31",
              "end_date": "1946-01-16"
            },
            {
              "name": "Buenos-Aires 4.5% or 1910, r au pair",
              "start_date": "1918-12-31",
              "end_date": "1946-01-16"
            },
            {
              "name": "Buenos-Aires 4,5% 1910, remb. au pair.",
              "start_date": "1925-05-01",
              "end_date": "1946-01-16"
            },
            {
              "name": "Buenos-Aires 4,5% or 1910, remb. à 100 pes ou 500 fr.",
              "start_date": "1934-01-02",
              "end_date": "1946-01-16"
            },
            {
              "name": "Buenos-Aires 4,5% or 1910, obl. 100 pes. Ou 500 fr. (Jce 25/5/42)",
              "start_date": "1944-10-10",
              "end_date": "3999-12-31"
            }
          ]
        }
      },
      "forward_prices_stats": {
        "start_date": "1910-12-19",
        "end_date": "1912-02-29"
      },
      "listings_stats": {
        "start_date": "1910-12-19"
      },
      "spot_prices_stats": {
        "start_date": "1910-12-19",
        "end_date": "1946-01-15"
      }
    }
  },
  "prices_count": 796,
  "name": "Buenos-Aires 4,5% 1910, remb. au pair."
}