{
  "id": 1162,
  "share_type": {
    "id": 1,
    "name": "Stock (Action)"
  },
  "issuers": [
    {
      "id": 959,
      "start_date": "1860-10-20",
      "end_date": "3999-12-31",
      "name": "Compagnie des chemins de fer de Madrid à Saragosse et à Alicante"
    }
  ],
  "types": [
    {
      "start_date": "1860-10-20",
      "end_date": "3999-12-31",
      "id": 18,
      "name": "Action",
      "stock_group": "S"
    }
  ],
  "is_mainstock": 0,
  "prices_period": [
    "1860-10-20",
    "1862-06-30"
  ],
  "stock_exchanges": {
    "1": {
      "id": 1,
      "name": "Paris (Official List)",
      "notations": {
        "2271": {
          "id": 2271,
          "sector_id": 68,
          "start_date": "1860-10-20",
          "end_date": "1862-07-06",
          "names": [
            {
              "name": "Saragosse, j. jet 1860, t. payé [Saragosse, lib.]",
              "start_date": "1860-10-20",
              "end_date": "1862-09-29"
            },
            {
              "name": "Saragosse (tout payé) [Saragosse, lib.]",
              "start_date": "1860-10-20",
              "end_date": "3999-12-31"
            }
          ]
        }
      },
      "forward_prices_stats": {
        "start_date": "1860-10-20",
        "end_date": "1862-06-30"
      },
      "listings_stats": {
        "start_date": "1860-10-20"
      },
      "spot_prices_stats": {
        "start_date": "1860-10-20",
        "end_date": "1862-06-30"
      }
    }
  },
  "prices_count": 84,
  "name": "Saragosse (tout payé) [Saragosse, lib.]"
}