{
  "id": 578,
  "share_type": {
    "id": 2,
    "name": "Bond (Obligation)"
  },
  "issuers": [
    {
      "id": 795,
      "start_date": "1850-10-24",
      "end_date": "3999-12-31",
      "name": "ETATS : ITALIE"
    }
  ],
  "types": [
    {
      "start_date": "1850-10-24",
      "end_date": "3999-12-31",
      "id": 1001,
      "name": "Obligation ordinaire ou classique",
      "stock_group": "B"
    }
  ],
  "is_mainstock": 0,
  "prices_period": [
    "1850-10-24",
    "1851-02-15"
  ],
  "stock_exchanges": {
    "1": {
      "id": 1,
      "name": "Paris (Official List)",
      "notations": {
        "787": {
          "id": 787,
          "sector_id": 67,
          "start_date": "1850-10-24",
          "end_date": "1852-01-02",
          "names": [
            {
              "name": "Emprunt Piémont 1850",
              "start_date": "1850-10-24",
              "end_date": "3999-12-31"
            }
          ]
        }
      },
      "forward_prices_stats": {
        "start_date": "1850-10-24",
        "end_date": "1850-10-24"
      },
      "listings_stats": {
        "start_date": "1850-10-24"
      },
      "spot_prices_stats": {
        "start_date": "1850-10-24",
        "end_date": "1851-02-15"
      }
    }
  },
  "prices_count": 14,
  "name": "Emprunt Piémont 1850"
}