{
  "id": 7010,
  "share_type": {
    "id": 1,
    "name": "Stock (Action)"
  },
  "issuers": [
    {
      "id": 4606,
      "start_date": "1911-11-18",
      "end_date": "3999-12-31",
      "name": "COMPAGNIE UNIVERSELLE D'ACETYLÈNE ET D'ÉLECTRO-MÉTALLURGIE"
    }
  ],
  "types": [
    {
      "start_date": "1912-03-30",
      "end_date": "3999-12-31",
      "id": 18,
      "name": "Action",
      "stock_group": "S"
    }
  ],
  "is_mainstock": 1,
  "prices_period": [
    "1912-03-30",
    "1951-08-31"
  ],
  "stock_exchanges": {
    "1": {
      "id": 1,
      "name": "Paris (Official List)",
      "notations": {
        "13935": {
          "id": 13935,
          "sector_id": 104,
          "start_date": "1925-05-01",
          "end_date": "1951-09-03",
          "names": [
            {
              "name": "Cie Universelle d'Acétylène et d'Electro-Métallurgie",
              "start_date": "1892-05-05",
              "end_date": "1951-09-03"
            },
            {
              "name": "Acétylène et d'Electro-Métallurgie (Cie Universelle d'), act. 500 fr. t. p.",
              "start_date": "1920-01-02",
              "end_date": "1951-09-03"
            },
            {
              "name": "Acétylène et d'Electro-Métallurgie (Cie Universel d'), act. 100 fr., t. p.",
              "start_date": "1925-05-01",
              "end_date": "1951-09-03"
            },
            {
              "name": "Acétylène et d'Electro-Métallurgie (Cie Universel d'), act. 250 fr., t. p.",
              "start_date": "1925-05-01",
              "end_date": "1951-09-03"
            },
            {
              "name": "Acétylène et d'Electro-Metallurgie (Cie Universel d'), act. Anc. 250 fr., t.p. (tit. Liv.)",
              "start_date": "1925-05-01",
              "end_date": "3999-12-31"
            }
          ]
        },
        "33880": {
          "id": 33880,
          "sector_id": 104,
          "start_date": "1920-01-02",
          "end_date": "1925-05-01",
          "names": [
            {
              "name": "Cie Universelle d'Acétylène et d'Electro-Métallurgie",
              "start_date": "1892-05-05",
              "end_date": "1925-05-01"
            },
            {
              "name": "Acétylène et d'Electro-Métallurgie (Cie Universelle d'), act. 500 fr. t. p.",
              "start_date": "1920-01-02",
              "end_date": "1925-09-30"
            },
            {
              "name": "Acétylène et d'Electro-Métallurgie (Cie Universel d'), act. 100 fr., t. p.",
              "start_date": "1920-01-02",
              "end_date": "1950-02-15"
            },
            {
              "name": "Acétylène et d'Electro-Métallurgie (Cie Universel d'), act. 250 fr., t. p.",
              "start_date": "1920-01-02",
              "end_date": "1951-09-03"
            },
            {
              "name": "Acétylène et d'Electro-Metallurgie (Cie Universel d'), act. Anc. 250 fr., t.p. (tit. Liv.)",
              "start_date": "1920-01-02",
              "end_date": "3999-12-31"
            }
          ]
        },
        "155893": {
          "id": 155893,
          "sector_id": 121,
          "start_date": "1911-11-18",
          "end_date": "1920-01-02",
          "names": [
            {
              "name": "Cie Universelle d'Acétylène et d'Electro-Métallurgie",
              "start_date": "1892-05-05",
              "end_date": "1920-01-02"
            },
            {
              "name": "Acétylène et d'Electro-Métallurgie (Cie Universelle d'), act. 500 fr. t. p.",
              "start_date": "1911-11-18",
              "end_date": "1925-09-30"
            },
            {
              "name": "Acétylène et d'Electro-Métallurgie (Cie Universel d'), act. 100 fr., t. p.",
              "start_date": "1911-11-18",
              "end_date": "1950-02-15"
            },
            {
              "name": "Acétylène et d'Electro-Métallurgie (Cie Universel d'), act. 250 fr., t. p.",
              "start_date": "1911-11-18",
              "end_date": "1951-09-03"
            },
            {
              "name": "Acétylène et d'Electro-Metallurgie (Cie Universel d'), act. Anc. 250 fr., t.p. (tit. Liv.)",
              "start_date": "1911-11-18",
              "end_date": "3999-12-31"
            }
          ]
        }
      },
      "listings_stats": {
        "start_date": "1911-11-18"
      },
      "spot_prices_stats": {
        "start_date": "1912-03-30",
        "end_date": "1951-08-31"
      }
    }
  },
  "prices_count": 1007,
  "name": "Acétylène et d'Electro-Métallurgie (Cie Universel d'), act. 250 fr., t. p."
}