{
  "id": 18497,
  "share_type": {
    "id": 2,
    "name": "Bond (Obligation)"
  },
  "issuers": [
    {
      "id": 5509,
      "start_date": "1966-03-01",
      "end_date": "3999-12-31",
      "name": "Indenor (Industrie de l’Est et du Nord)"
    }
  ],
  "types": [
    {
      "start_date": "1966-03-01",
      "end_date": "3999-12-31",
      "id": 1001,
      "name": "Obligation ordinaire ou classique",
      "stock_group": "B"
    }
  ],
  "is_mainstock": 0,
  "prices_period": [
    "1966-03-01",
    "1976-12-31"
  ],
  "stock_exchanges": {
    "1": {
      "id": 1,
      "name": "Paris (Official List)",
      "notations": {
        "149072": {
          "id": 149072,
          "sector_id": 359,
          "start_date": "1966-03-01",
          "end_date": "3999-12-31",
          "names": [
            {
              "name": "Peugeot (Sté Indus. Et Commerce des Automobiles) 5% 1962, rembours. 210 à 230 F (Tir. 19/7/65) (Avis 38140) 1963-77",
              "start_date": "1966-03-01",
              "end_date": "3999-12-31"
            },
            {
              "name": "Peugeot (Automobiles) 5% 1962, rembours. 210 à 230 F (Tir. 28/7/76) (Avis 38140) 1963-77",
              "start_date": "1966-03-01",
              "end_date": "3999-12-31"
            }
          ]
        }
      },
      "listings_stats": {
        "start_date": "1966-03-01"
      },
      "spot_prices_stats": {
        "start_date": "1966-03-01",
        "end_date": "1976-12-31"
      }
    }
  },
  "prices_count": 261,
  "name": "Peugeot (Automobiles) 5% 1962, rembours. 210 à 230 F (Tir. 28/7/76) (Avis 38140) 1963-77"
}