{
  "id": 15188,
  "share_type": {
    "id": 2,
    "name": "Bond (Obligation)"
  },
  "issuers": [
    {
      "id": 4308,
      "start_date": "1956-01-17",
      "end_date": "3999-12-31",
      "name": "AUX TROIS QUARTIERS"
    }
  ],
  "types": [
    {
      "start_date": "1956-01-17",
      "end_date": "3999-12-31",
      "id": 1001,
      "name": "Obligation ordinaire ou classique",
      "stock_group": "B"
    }
  ],
  "is_mainstock": 0,
  "prices_period": [
    "1956-01-17",
    "1969-03-17"
  ],
  "stock_exchanges": {
    "1": {
      "id": 1,
      "name": "Paris (Official List)",
      "notations": {
        "31007": {
          "id": 31007,
          "sector_id": 368,
          "start_date": "1963-03-04",
          "end_date": "1969-03-31",
          "names": [
            {
              "name": "Trois Quartiers (Aux) 6% août 1955, remb. À 10500 fr. minimum (c. 15/8/56 att.) 1956-70",
              "start_date": "1956-01-17",
              "end_date": "1969-03-31"
            },
            {
              "name": "Trois Quartiers (Aux) 6% août 1955, rembours. À 105 F min. (Tir. 28/6/68) (Avis 32319) 1956-70",
              "start_date": "1963-03-04",
              "end_date": "3999-12-31"
            }
          ]
        },
        "145763": {
          "id": 145763,
          "sector_id": 440,
          "start_date": "1956-01-17",
          "end_date": "1963-03-04",
          "names": [
            {
              "name": "Trois Quartiers (Aux) 6% août 1955, remb. À 10500 fr. minimum (c. 15/8/56 att.) 1956-70",
              "start_date": "1956-01-17",
              "end_date": "1969-03-31"
            },
            {
              "name": "Trois Quartiers (Aux) 6% août 1955, rembours. À 105 F min. (Tir. 28/6/68) (Avis 32319) 1956-70",
              "start_date": "1956-01-17",
              "end_date": "3999-12-31"
            }
          ]
        }
      },
      "listings_stats": {
        "start_date": "1956-01-17"
      },
      "spot_prices_stats": {
        "start_date": "1956-01-17",
        "end_date": "1969-03-17"
      }
    }
  },
  "prices_count": 333,
  "name": "Trois Quartiers (Aux) 6% août 1955, remb. À 10500 fr. minimum (c. 15/8/56 att.) 1956-70"
}