{
  "id": 6771,
  "share_type": {
    "id": 1,
    "name": "Stock (Action)"
  },
  "issuers": [
    {
      "id": 4861,
      "start_date": "1918-09-16",
      "end_date": "3999-12-31",
      "name": "FORGES ET ACIÉRIES ÉLECTRIQUES PAUL GIROD"
    }
  ],
  "types": [
    {
      "start_date": "1918-09-16",
      "end_date": "3999-12-31",
      "id": 18,
      "name": "Action",
      "stock_group": "S"
    }
  ],
  "is_mainstock": 1,
  "prices_period": [
    "1918-09-19",
    "1923-11-30"
  ],
  "stock_exchanges": {
    "1": {
      "id": 1,
      "name": "Paris (Official List)",
      "notations": {
        "33643": {
          "id": 33643,
          "sector_id": 104,
          "start_date": "1918-09-16",
          "end_date": "1924-01-02",
          "names": [
            {
              "name": "Forges et Aciéries électriques Paul Girod, act.500fr., t.p.",
              "start_date": "1918-09-16",
              "end_date": "3999-12-31"
            }
          ]
        }
      },
      "listings_stats": {
        "start_date": "1918-09-16"
      },
      "spot_prices_stats": {
        "start_date": "1918-09-19",
        "end_date": "1923-11-30"
      }
    }
  },
  "prices_count": 143,
  "name": "Forges et Aciéries électriques Paul Girod, act.500fr., t.p."
}