{
  "id": 106507,
  "share_type": {
    "id": 1,
    "name": "Stock (Action)"
  },
  "issuers": [
    {
      "id": 4135,
      "start_date": "1974-12-31",
      "end_date": "1975-02-28",
      "name": "ETABLISSEMENTS ROFFO"
    }
  ],
  "types": [
    {
      "start_date": "1974-12-31",
      "end_date": "1975-02-28",
      "id": 18,
      "name": "Action",
      "stock_group": "S"
    }
  ],
  "is_mainstock": 0,
  "prices_period": [
    "1974-12-31",
    "1975-02-28"
  ],
  "stock_exchanges": {
    "1": {
      "id": 1,
      "name": "Paris (Official List)",
      "notations": {
        "207549": {
          "id": 207549,
          "sector_id": 341,
          "start_date": "1974-12-31",
          "end_date": "1975-02-28",
          "names": [
            {
              "name": "Roffo (Sté des Etablissements), Act. (n 228691 a 304920) (c. 23 att.)",
              "start_date": "1974-12-31",
              "end_date": "1975-02-28"
            }
          ]
        }
      },
      "listings_stats": {
        "start_date": "1974-12-31"
      },
      "spot_prices_stats": {
        "start_date": "1974-12-31",
        "end_date": "1975-02-28"
      }
    }
  },
  "prices_count": 5,
  "name": "Roffo (Sté des Etablissements), Act. (n 228691 a 304920) (c. 23 att.)"
}