{
  "id": 20748,
  "share_type": {
    "id": 1,
    "name": "Stock (Action)"
  },
  "issuers": [
    {
      "id": 5475,
      "start_date": "1971-09-15",
      "end_date": "3999-12-31",
      "name": "Siemens Aktiengesellschaft"
    }
  ],
  "types": [
    {
      "start_date": "1971-09-15",
      "end_date": "3999-12-31",
      "id": 11,
      "name": "Action ordinaire",
      "stock_group": "S"
    }
  ],
  "is_mainstock": 0,
  "prices_period": [
    "1971-09-16",
    "1972-04-04"
  ],
  "stock_exchanges": {
    "1": {
      "id": 1,
      "name": "Paris (Official List)",
      "notations": {
        "151318": {
          "id": 151318,
          "sector_id": 537,
          "start_date": "1971-09-15",
          "end_date": "1972-04-07",
          "names": [
            {
              "name": "Siemens A. G., act. Ord. Nouv. 50 DM (c. 8 spécial att.)",
              "start_date": "1971-09-15",
              "end_date": "3999-12-31"
            }
          ]
        }
      },
      "listings_stats": {
        "start_date": "1971-09-15"
      },
      "spot_prices_stats": {
        "start_date": "1971-09-16",
        "end_date": "1972-04-04"
      }
    }
  },
  "prices_count": 14,
  "name": "Siemens A. G., act. Ord. Nouv. 50 DM (c. 8 spécial att.)"
}