{
  "id": 103923,
  "share_type": {
    "id": 1,
    "name": "Stock (Action)"
  },
  "issuers": [
    {
      "id": 1752,
      "start_date": "1939-12-29",
      "end_date": "1940-01-06",
      "name": "SOCIETE BORDELAISE DE CREDIT INDUSTRIEL ET COMMERCIAL"
    }
  ],
  "types": [
    {
      "start_date": "1939-12-29",
      "end_date": "1940-01-06",
      "id": 18,
      "name": "Action",
      "stock_group": "S"
    }
  ],
  "is_mainstock": 0,
  "prices_period": [
    null,
    null
  ],
  "stock_exchanges": {
    "1": {
      "id": 1,
      "name": "Paris (Official List)",
      "notations": {
        "204107": {
          "id": 204107,
          "sector_id": 99,
          "start_date": "1939-12-29",
          "end_date": "1940-01-06",
          "names": [
            {
              "name": "Société Bordelaise de Crédit Industriel et Commercial, act. 500., t. p. (dr. et c. 114)",
              "start_date": "1939-12-29",
              "end_date": "1940-01-06"
            }
          ]
        }
      },
      "listings_stats": {
        "start_date": "1939-12-29"
      }
    }
  },
  "prices_count": 0,
  "name": "Société Bordelaise de Crédit Industriel et Commercial, act. 500., t. p. (dr. et c. 114)"
}