{
  "id": 19542,
  "share_type": {
    "id": 2,
    "name": "Bond (Obligation)"
  },
  "issuers": [
    {
      "id": 4492,
      "start_date": "1967-05-02",
      "end_date": "3999-12-31",
      "name": "SOCIETE DES MOTEURS BAUDOUIN"
    }
  ],
  "types": [
    {
      "start_date": "1967-05-02",
      "end_date": "3999-12-31",
      "id": 1001,
      "name": "Obligation ordinaire ou classique",
      "stock_group": "B"
    }
  ],
  "is_mainstock": 0,
  "prices_period": [
    "1967-05-05",
    "1969-03-17"
  ],
  "stock_exchanges": {
    "1": {
      "id": 1,
      "name": "Paris (Official List)",
      "notations": {
        "150117": {
          "id": 150117,
          "sector_id": 363,
          "start_date": "1967-05-02",
          "end_date": "1969-03-31",
          "names": [
            {
              "name": "Marseille Moteurs Baudouin 4,25% 44 (Tir. 14/4/67). 1945-74",
              "start_date": "1967-05-02",
              "end_date": "1969-03-31"
            },
            {
              "name": "MARSEILLE_BOURSE Moteurs Baudoin 4,25% 44 (Tir. 10/4/68) 1945-74",
              "start_date": "1967-05-02",
              "end_date": "3999-12-31"
            }
          ]
        }
      },
      "listings_stats": {
        "start_date": "1967-05-02"
      },
      "spot_prices_stats": {
        "start_date": "1967-05-05",
        "end_date": "1969-03-17"
      }
    }
  },
  "prices_count": 46,
  "name": "Marseille Moteurs Baudouin 4,25% 44 (Tir. 14/4/67). 1945-74"
}