{
  "id": 7837,
  "share_type": {
    "id": 1,
    "name": "Stock (Action)"
  },
  "issuers": [
    {
      "id": 3586,
      "start_date": "1925-03-19",
      "end_date": "3999-12-31",
      "name": "BNCI (Océan Indien)"
    }
  ],
  "types": [
    {
      "start_date": "1925-03-19",
      "end_date": "3999-12-31",
      "id": 18,
      "name": "Action",
      "stock_group": "S"
    }
  ],
  "is_mainstock": 1,
  "prices_period": [
    "1925-03-19",
    "1938-03-31"
  ],
  "stock_exchanges": {
    "1": {
      "id": 1,
      "name": "Paris (Official List)",
      "notations": {
        "34707": {
          "id": 34707,
          "sector_id": 99,
          "start_date": "1925-03-19",
          "end_date": "1938-04-01",
          "names": [
            {
              "name": "Crédit Foncier de Madagascar, act. 500 fr., t. p.",
              "start_date": "1925-03-19",
              "end_date": "1938-04-01"
            },
            {
              "name": "Crédit Foncier de Madagascar, act. 100 fr., t.p. (c. 17 att.)",
              "start_date": "1925-03-19",
              "end_date": "3999-12-31"
            }
          ]
        }
      },
      "listings_stats": {
        "start_date": "1925-03-19"
      },
      "spot_prices_stats": {
        "start_date": "1925-03-19",
        "end_date": "1938-03-31"
      }
    }
  },
  "prices_count": 185,
  "name": "Crédit Foncier de Madagascar, act. 500 fr., t. p."
}