{
  "id": 104643,
  "share_type": {
    "id": 5,
    "name": "Droits de souscription"
  },
  "issuers": [
    {
      "id": 3166,
      "start_date": "1947-01-05",
      "end_date": "1947-01-25",
      "name": "SOCIÉTÉ DES MINES DE ZINC DU GUERGOUR"
    }
  ],
  "types": [
    {
      "start_date": "1947-01-05",
      "end_date": "1947-01-25",
      "id": 501,
      "name": "Droit de souscription",
      "stock_group": "R"
    }
  ],
  "is_mainstock": 0,
  "prices_period": [
    "1947-01-15",
    "1947-01-15"
  ],
  "stock_exchanges": {
    "1": {
      "id": 1,
      "name": "Paris (Official List)",
      "notations": {
        "205046": {
          "id": 205046,
          "sector_id": 657,
          "start_date": "1947-01-05",
          "end_date": "1947-01-25",
          "names": [
            {
              "name": "Parts de fond. Guergour ( Mines de Zinc de ) ( droit et coup. 10)",
              "start_date": "1947-01-05",
              "end_date": "1947-01-25"
            }
          ]
        }
      },
      "listings_stats": {
        "start_date": "1947-01-05"
      },
      "spot_prices_stats": {
        "start_date": "1947-01-15",
        "end_date": "1947-01-15"
      }
    }
  },
  "prices_count": 1,
  "name": "Parts de fond. Guergour ( Mines de Zinc de ) ( droit et coup. 10)"
}