{
  "id": 103787,
  "share_type": {
    "id": 4,
    "name": "Rights (Droits)"
  },
  "issuers": [
    {
      "id": 3208,
      "start_date": "1921-01-29",
      "end_date": "1921-02-12",
      "name": "Compagnie Industrielle des Pétroles"
    }
  ],
  "types": [
    {
      "start_date": "1921-01-29",
      "end_date": "1921-02-12",
      "id": 501,
      "name": "Droit de souscription",
      "stock_group": "R"
    }
  ],
  "is_mainstock": 0,
  "prices_period": [
    "1921-02-05",
    "1921-02-05"
  ],
  "stock_exchanges": {
    "1": {
      "id": 1,
      "name": "Paris (Official List)",
      "notations": {
        "203969": {
          "id": 203969,
          "sector_id": 657,
          "start_date": "1921-01-29",
          "end_date": "1921-02-13",
          "names": [
            {
              "name": "Parts Cie Industrielle des Pétroles. Rompus",
              "start_date": "1921-01-29",
              "end_date": "1921-02-13"
            }
          ]
        }
      },
      "listings_stats": {
        "start_date": "1921-01-29"
      },
      "spot_prices_stats": {
        "start_date": "1921-02-05",
        "end_date": "1921-02-05"
      }
    }
  },
  "prices_count": 0,
  "name": "Parts Cie Industrielle des Pétroles. Rompus"
}