{
  "id": 19370,
  "share_type": {
    "id": 2,
    "name": "Bond (Obligation)"
  },
  "issuers": [
    {
      "id": 4909,
      "start_date": "1967-05-02",
      "end_date": "3999-12-31",
      "name": "Développement régional de l’Ouest (Sodero )"
    }
  ],
  "types": [
    {
      "start_date": "1967-05-02",
      "end_date": "3999-12-31",
      "id": 1001,
      "name": "Obligation ordinaire ou classique",
      "stock_group": "B"
    }
  ],
  "is_mainstock": 0,
  "prices_period": [
    "1967-05-02",
    "1974-12-31"
  ],
  "stock_exchanges": {
    "1": {
      "id": 1,
      "name": "Paris (Official List)",
      "notations": {
        "149945": {
          "id": 149945,
          "sector_id": 615,
          "start_date": "1967-05-02",
          "end_date": "1975-01-10",
          "names": [
            {
              "name": "Nantes_Bourse S.O.D.E.R.O. 5% 1959, remb. À 225 F. 1961-75",
              "start_date": "1967-05-02",
              "end_date": "1975-01-10"
            },
            {
              "name": "Nantes_Bourse S.O.D.E.R.O. 5% 1959 de 200 F, remb. À 225 F (Tir.10/12/73)1961-75",
              "start_date": "1967-05-02",
              "end_date": "3999-12-31"
            }
          ]
        }
      },
      "listings_stats": {
        "start_date": "1967-05-02"
      },
      "spot_prices_stats": {
        "start_date": "1967-05-02",
        "end_date": "1974-12-31"
      }
    }
  },
  "prices_count": 185,
  "name": "Nantes_Bourse S.O.D.E.R.O. 5% 1959, remb. À 225 F. 1961-75"
}