{
  "id": 103508,
  "share_type": {
    "id": 4,
    "name": "Rights (Droits)"
  },
  "issuers": [
    {
      "id": 1667,
      "start_date": "1920-05-25",
      "end_date": "1920-06-11",
      "name": "COMPAGNIE DES MINERAIS DE FER MAGNÉTIQUE DE MOKTA-EL-HADID"
    }
  ],
  "types": [
    {
      "start_date": "1920-05-25",
      "end_date": "1920-06-11",
      "id": 501,
      "name": "Droit de souscription",
      "stock_group": "R"
    }
  ],
  "is_mainstock": 0,
  "prices_period": [
    "1920-05-31",
    "1920-05-31"
  ],
  "stock_exchanges": {
    "1": {
      "id": 1,
      "name": "Paris (Official List)",
      "notations": {
        "203690": {
          "id": 203690,
          "sector_id": 657,
          "start_date": "1920-05-25",
          "end_date": "1920-06-12",
          "names": [
            {
              "name": "Actions Mokta-el-Hadid (droit et coupon n° 108)",
              "start_date": "1920-05-25",
              "end_date": "1920-06-12"
            }
          ]
        }
      },
      "listings_stats": {
        "start_date": "1920-05-25"
      },
      "spot_prices_stats": {
        "start_date": "1920-05-31",
        "end_date": "1920-05-31"
      }
    }
  },
  "prices_count": 0,
  "name": "Actions Mokta-el-Hadid (droit et coupon n° 108)"
}