{
  "id": 7204,
  "share_type": {
    "id": 1,
    "name": "Stock (Action)"
  },
  "issuers": [
    {
      "id": 3102,
      "start_date": "1920-04-06",
      "end_date": "3999-12-31",
      "name": "COMPAGNiE GÉNÉRALE D'ÉLECTRICITÉ"
    }
  ],
  "types": [
    {
      "start_date": "1920-04-06",
      "end_date": "3999-12-31",
      "id": 18,
      "name": "Action",
      "stock_group": "S"
    }
  ],
  "is_mainstock": 0,
  "prices_period": [
    "1920-04-15",
    "1925-04-30"
  ],
  "stock_exchanges": {
    "1": {
      "id": 1,
      "name": "Paris (Official List)",
      "notations": {
        "34074": {
          "id": 34074,
          "sector_id": 163,
          "start_date": "1920-04-06",
          "end_date": "1925-05-01",
          "names": [
            {
              "name": "Electricité (Cie Générale d'), act. 500 fr., t. p. (A TERME)",
              "start_date": "1920-04-06",
              "end_date": "3999-12-31"
            }
          ]
        }
      },
      "forward_prices_stats": {
        "start_date": "1920-04-15",
        "end_date": "1925-04-30"
      },
      "listings_stats": {
        "start_date": "1920-04-06"
      },
      "options_prices_stats": {
        "start_date": "1921-08-31",
        "end_date": "1924-04-15"
      }
    }
  },
  "prices_count": 353,
  "name": "Electricité (Cie Générale d'), act. 500 fr., t. p. (A TERME)"
}