{
  "id": 15142,
  "share_type": {
    "id": 1,
    "name": "Stock (Action)"
  },
  "issuers": [
    {
      "id": 3934,
      "start_date": "1955-12-27",
      "end_date": "3999-12-31",
      "name": "Anciens Etablissements Panhard et Levassor"
    }
  ],
  "types": [
    {
      "start_date": "1955-12-27",
      "end_date": "3999-12-31",
      "id": 11,
      "name": "Action ordinaire",
      "stock_group": "S"
    }
  ],
  "is_mainstock": 0,
  "prices_period": [
    "1956-01-03",
    "1956-04-16"
  ],
  "stock_exchanges": {
    "1": {
      "id": 1,
      "name": "Paris (Official List)",
      "notations": {
        "145717": {
          "id": 145717,
          "sector_id": 337,
          "start_date": "1955-12-27",
          "end_date": "1956-04-18",
          "names": [
            {
              "name": "Panhard et Levassor, act. (nos 280001 à 560000) (c. 9 att.)",
              "start_date": "1955-12-27",
              "end_date": "3999-12-31"
            }
          ]
        }
      },
      "listings_stats": {
        "start_date": "1955-12-27"
      },
      "spot_prices_stats": {
        "start_date": "1956-01-03",
        "end_date": "1956-04-16"
      }
    }
  },
  "prices_count": 15,
  "name": "Panhard et Levassor, act. (nos 280001 à 560000) (c. 9 att.)"
}