{
  "id": 21554,
  "share_type": {
    "id": 2,
    "name": "Bond (Obligation)"
  },
  "issuers": [
    {
      "id": 4367,
      "start_date": "1975-05-20",
      "end_date": "3999-12-31",
      "name": "Groupement des Industries de la Construction Electrique (Electromécanique, Electrique et Electronique)"
    }
  ],
  "types": [
    {
      "start_date": "1975-05-20",
      "end_date": "3999-12-31",
      "id": 1001,
      "name": "Obligation ordinaire ou classique",
      "stock_group": "B"
    }
  ],
  "is_mainstock": 0,
  "prices_period": [
    "1975-05-20",
    "1976-12-31"
  ],
  "stock_exchanges": {
    "1": {
      "id": 1,
      "name": "Paris (Official List)",
      "notations": {
        "152120": {
          "id": 152120,
          "sector_id": 369,
          "start_date": "1975-05-20",
          "end_date": "3999-12-31",
          "names": [
            {
              "name": "Groupement des Industries de la Construction Electrique (Electromécanique, Electr. Et Electronique)(G.I.C.E.L.) 11,40% 1975 de 1000 F (c.5/4/76 att.)(Avis 75-326)1983-90",
              "start_date": "1975-05-20",
              "end_date": "3999-12-31"
            }
          ]
        }
      },
      "listings_stats": {
        "start_date": "1975-05-20"
      },
      "spot_prices_stats": {
        "start_date": "1975-05-20",
        "end_date": "1976-12-31"
      }
    }
  },
  "prices_count": 40,
  "name": "Groupement des Industries de la Construction Electrique (Electromécanique, Electr. Et Electronique)(G.I.C.E.L.) 11,40% 1975 de 1000 F (c.5/4/76 att.)(Avis 75-326)1983-90"
}