{
  "id": 8765,
  "share_type": {
    "id": 2,
    "name": "Bond (Obligation)"
  },
  "issuers": [
    {
      "id": 3430,
      "start_date": "1929-07-26",
      "end_date": "3999-12-31",
      "name": "STÉ FRANÇAISE DE MAGASINS MODERNES"
    }
  ],
  "types": [
    {
      "start_date": "1929-07-26",
      "end_date": "3999-12-31",
      "id": 1001,
      "name": "Obligation ordinaire ou classique",
      "stock_group": "B"
    }
  ],
  "is_mainstock": 0,
  "prices_period": [
    "1929-07-26",
    "1943-03-15"
  ],
  "stock_exchanges": {
    "1": {
      "id": 1,
      "name": "Paris (Official List)",
      "notations": {
        "20635": {
          "id": 20635,
          "sector_id": 188,
          "start_date": "1940-10-14",
          "end_date": "1943-03-29",
          "names": [
            {
              "name": "Magasins Modernes 5,5%, remb. à 1000 fr.",
              "start_date": "1929-07-26",
              "end_date": "1943-03-29"
            },
            {
              "name": "Magasins modernes 5,5%, remb. À 1000 fr. 1935-59",
              "start_date": "1940-10-14",
              "end_date": "1943-03-29"
            },
            {
              "name": "Magasins Modernes 5,5%, remb. À 1000 fr. le 27 mars 1943",
              "start_date": "1940-10-14",
              "end_date": "3999-12-31"
            }
          ]
        },
        "136212": {
          "id": 136212,
          "sector_id": 188,
          "start_date": "1929-07-26",
          "end_date": "1940-06-11",
          "names": [
            {
              "name": "Magasins Modernes 5,5%, remb. à 1000 fr.",
              "start_date": "1929-07-26",
              "end_date": "1940-10-14"
            },
            {
              "name": "Magasins modernes 5,5%, remb. À 1000 fr. 1935-59",
              "start_date": "1929-07-26",
              "end_date": "1943-03-15"
            },
            {
              "name": "Magasins Modernes 5,5%, remb. À 1000 fr. le 27 mars 1943",
              "start_date": "1929-07-26",
              "end_date": "3999-12-31"
            }
          ]
        }
      },
      "listings_stats": {
        "start_date": "1929-07-26"
      },
      "spot_prices_stats": {
        "start_date": "1929-07-26",
        "end_date": "1943-03-15"
      }
    }
  },
  "prices_count": 342,
  "name": "Magasins modernes 5,5%, remb. À 1000 fr. 1935-59"
}