{
  "id": 105218,
  "share_type": {
    "id": 1,
    "name": "Stock (Action)"
  },
  "issuers": [
    {
      "id": 1622,
      "start_date": "1895-02-01",
      "end_date": "3999-12-31",
      "name": "Cie GÉNÉRALE FRANÇAISE DE TRAMWAYS"
    }
  ],
  "types": [
    {
      "start_date": "1895-02-01",
      "end_date": "3999-12-31",
      "id": 18,
      "name": "Action",
      "stock_group": "S"
    }
  ],
  "is_mainstock": 0,
  "prices_period": [
    "1895-02-15",
    "1895-06-15"
  ],
  "stock_exchanges": {
    "1": {
      "id": 1,
      "name": "Paris (Official List)",
      "notations": {
        "205923": {
          "id": 205923,
          "sector_id": 73,
          "start_date": "1895-02-01",
          "end_date": "1895-07-01",
          "names": [
            {
              "name": "Tramways (Cie gén. Franç. de), act. anciennes",
              "start_date": "1895-02-01",
              "end_date": "3999-12-31"
            }
          ]
        }
      },
      "listings_stats": {
        "start_date": "1895-02-01"
      },
      "spot_prices_stats": {
        "start_date": "1895-02-15",
        "end_date": "1895-06-15"
      }
    }
  },
  "prices_count": 7,
  "name": "Tramways (Cie gén. Franç. de), act. anciennes"
}