{
  "id": 17289,
  "share_type": {
    "id": 2,
    "name": "Bond (Obligation)"
  },
  "issuers": [
    {
      "id": 4713,
      "start_date": "1962-01-02",
      "end_date": "3999-12-31",
      "name": "SOCIETE VERRIERE DE LA BRIE ET DU BUGEY"
    }
  ],
  "types": [
    {
      "start_date": "1962-01-02",
      "end_date": "3999-12-31",
      "id": 1001,
      "name": "Obligation ordinaire ou classique",
      "stock_group": "B"
    }
  ],
  "is_mainstock": 0,
  "prices_period": [
    "1962-01-02",
    "1973-10-31"
  ],
  "stock_exchanges": {
    "1": {
      "id": 1,
      "name": "Paris (Official List)",
      "notations": {
        "31412": {
          "id": 31412,
          "sector_id": 247,
          "start_date": "1963-03-04",
          "end_date": "1973-11-02",
          "names": [
            {
              "name": "Verrière de la Brie et du Bugey 6% 1955, remb. à 105 NF 1956-73",
              "start_date": "1962-01-02",
              "end_date": "1973-11-02"
            },
            {
              "name": "Verrière de la Brie et du Bugey 6% 1955 de 100 F, remb. À 105 F minimum (Tirage 4/9/72). 1956-73",
              "start_date": "1963-03-04",
              "end_date": "3999-12-31"
            }
          ]
        },
        "147864": {
          "id": 147864,
          "sector_id": 519,
          "start_date": "1962-01-02",
          "end_date": "1963-03-04",
          "names": [
            {
              "name": "Verrière de la Brie et du Bugey 6% 1955, remb. à 105 NF 1956-73",
              "start_date": "1962-01-02",
              "end_date": "1973-11-02"
            },
            {
              "name": "Verrière de la Brie et du Bugey 6% 1955 de 100 F, remb. À 105 F minimum (Tirage 4/9/72). 1956-73",
              "start_date": "1962-01-02",
              "end_date": "3999-12-31"
            }
          ]
        }
      },
      "listings_stats": {
        "start_date": "1962-01-02"
      },
      "spot_prices_stats": {
        "start_date": "1962-01-02",
        "end_date": "1973-10-31"
      }
    }
  },
  "prices_count": 285,
  "name": "Verrière de la Brie et du Bugey 6% 1955, remb. à 105 NF 1956-73"
}