{
  "id": 3698,
  "share_type": {
    "id": 2,
    "name": "Bond (Obligation)"
  },
  "issuers": [
    {
      "id": 933,
      "start_date": "1890-08-29",
      "end_date": "3999-12-31",
      "name": "TURQUIE"
    }
  ],
  "types": [
    {
      "start_date": "1890-08-29",
      "end_date": "3999-12-31",
      "id": 1001,
      "name": "Obligation ordinaire ou classique",
      "stock_group": "B"
    }
  ],
  "is_mainstock": 0,
  "prices_period": [
    "1890-09-02",
    "1906-06-30"
  ],
  "stock_exchanges": {
    "1": {
      "id": 1,
      "name": "Paris (Official List)",
      "notations": {
        "4797": {
          "id": 4797,
          "sector_id": 67,
          "start_date": "1890-08-29",
          "end_date": "1906-07-17",
          "names": [
            {
              "name": "Ottomanes priorité 4% 1890, obl. de 2500 fr.",
              "start_date": "1890-08-29",
              "end_date": "3999-12-31"
            }
          ]
        }
      },
      "forward_prices_stats": {
        "start_date": "1890-11-15",
        "end_date": "1903-12-15"
      },
      "listings_stats": {
        "start_date": "1890-08-29"
      },
      "spot_prices_stats": {
        "start_date": "1890-09-02",
        "end_date": "1906-06-30"
      }
    }
  },
  "prices_count": 826,
  "name": "Ottomanes priorité 4% 1890, obl. de 2500 fr."
}