{
  "id": 15707,
  "share_type": {
    "id": 1,
    "name": "Stock (Action)"
  },
  "issuers": [
    {
      "id": 1378,
      "start_date": "1958-10-06",
      "end_date": "3999-12-31",
      "name": "Compagnie des Salins du Midi"
    }
  ],
  "types": [
    {
      "start_date": "1958-10-06",
      "end_date": "3999-12-31",
      "id": 18,
      "name": "Action",
      "stock_group": "S"
    }
  ],
  "is_mainstock": 0,
  "prices_period": [
    "1958-10-07",
    "1959-04-15"
  ],
  "stock_exchanges": {
    "1": {
      "id": 1,
      "name": "Paris (Official List)",
      "notations": {
        "146282": {
          "id": 146282,
          "sector_id": 386,
          "start_date": "1958-10-06",
          "end_date": "1959-04-16",
          "names": [
            {
              "name": "Salins du Midi, Salines de Djibouti, act. A nouv. (n° 320001 à 400000) (C. 11 att.)",
              "start_date": "1958-10-06",
              "end_date": "1959-04-16"
            },
            {
              "name": "Salins du midi, salines de djibouti, act, A nouv (n 320001 à 400000)(c 11 att)",
              "start_date": "1958-10-06",
              "end_date": "3999-12-31"
            }
          ]
        }
      },
      "listings_stats": {
        "start_date": "1958-10-06"
      },
      "spot_prices_stats": {
        "start_date": "1958-10-07",
        "end_date": "1959-04-15"
      }
    }
  },
  "prices_count": 15,
  "name": "Salins du midi, salines de djibouti, act, A nouv (n 320001 à 400000)(c 11 att)"
}