{
  "id": 17811,
  "share_type": {
    "id": 1,
    "name": "Stock (Action)"
  },
  "issuers": [
    {
      "id": 5548,
      "start_date": "1962-08-13",
      "end_date": "3999-12-31",
      "name": "CREDIT UNIVERSEL"
    }
  ],
  "types": [
    {
      "start_date": "1962-08-13",
      "end_date": "3999-12-31",
      "id": 18,
      "name": "Action",
      "stock_group": "S"
    }
  ],
  "is_mainstock": 0,
  "prices_period": [
    "1962-08-16",
    "1976-12-31"
  ],
  "stock_exchanges": {
    "1": {
      "id": 1,
      "name": "Paris (Official List)",
      "notations": {
        "29489": {
          "id": 29489,
          "sector_id": 333,
          "start_date": "1963-03-04",
          "end_date": "3999-12-31",
          "names": [
            {
              "name": "Crédit Universel (Le) (Société de Crédit pour l'Expansion Economique) Act.",
              "start_date": "1962-08-13",
              "end_date": "3999-12-31"
            },
            {
              "name": "Crédit Universel (Le) act.",
              "start_date": "1963-03-04",
              "end_date": "3999-12-31"
            }
          ]
        },
        "148386": {
          "id": 148386,
          "sector_id": 378,
          "start_date": "1962-08-13",
          "end_date": "1963-03-04",
          "names": [
            {
              "name": "Crédit Universel (Le) (Société de Crédit pour l'Expansion Economique) Act.",
              "start_date": "1962-08-13",
              "end_date": "1976-12-31"
            },
            {
              "name": "Crédit Universel (Le) act.",
              "start_date": "1962-08-13",
              "end_date": "3999-12-31"
            }
          ]
        }
      },
      "listings_stats": {
        "start_date": "1962-08-13"
      },
      "spot_prices_stats": {
        "start_date": "1962-08-16",
        "end_date": "1976-12-31"
      }
    }
  },
  "prices_count": 375,
  "name": "Crédit Universel (Le) act."
}