{
  "id": 21054,
  "share_type": {
    "id": 2,
    "name": "Bond (Obligation)"
  },
  "issuers": [
    {
      "id": 3495,
      "start_date": "1972-12-22",
      "end_date": "3999-12-31",
      "name": "CHARBONNAGES DE FRANCE ET HOUILLERES DE BASSIN"
    }
  ],
  "types": [
    {
      "start_date": "1972-12-22",
      "end_date": "3999-12-31",
      "id": 1009,
      "name": "Bons",
      "stock_group": "B"
    }
  ],
  "is_mainstock": 0,
  "prices_period": [
    "1973-01-02",
    "1976-12-31"
  ],
  "stock_exchanges": {
    "1": {
      "id": 1,
      "name": "Paris (Official List)",
      "notations": {
        "151624": {
          "id": 151624,
          "sector_id": 607,
          "start_date": "1972-12-22",
          "end_date": "3999-12-31",
          "names": [
            {
              "name": "Charbonnages de France, bons 8% 1972 (c. 25/9/73 att.), remb à 400 F le 25/9/1984 (Avis 72-980)",
              "start_date": "1972-12-22",
              "end_date": "3999-12-31"
            }
          ]
        }
      },
      "listings_stats": {
        "start_date": "1972-12-22"
      },
      "spot_prices_stats": {
        "start_date": "1973-01-02",
        "end_date": "1976-12-31"
      }
    }
  },
  "prices_count": 97,
  "name": "Charbonnages de France, bons 8% 1972 (c. 25/9/73 att.), remb à 400 F le 25/9/1984 (Avis 72-980)"
}