{
  "id": 3316,
  "share_type": {
    "id": 2,
    "name": "Bond (Obligation)"
  },
  "issuers": [
    {
      "id": 2549,
      "start_date": "1887-05-05",
      "end_date": "3999-12-31",
      "name": "DANEMARK"
    }
  ],
  "types": [
    {
      "start_date": "1887-05-05",
      "end_date": "3999-12-31",
      "id": 1001,
      "name": "Obligation ordinaire ou classique",
      "stock_group": "B"
    }
  ],
  "is_mainstock": 0,
  "prices_period": [
    "1887-05-05",
    "1897-11-02"
  ],
  "stock_exchanges": {
    "1": {
      "id": 1,
      "name": "Paris (Official List)",
      "notations": {
        "4415": {
          "id": 4415,
          "sector_id": 74,
          "start_date": "1887-05-05",
          "end_date": "1898-03-11",
          "names": [
            {
              "name": "Danemark 3,5% 1886, amort.tit. de 500 cour.",
              "start_date": "1887-05-05",
              "end_date": "3999-12-31"
            }
          ]
        }
      },
      "listings_stats": {
        "start_date": "1887-05-05"
      },
      "spot_prices_stats": {
        "start_date": "1887-05-05",
        "end_date": "1897-11-02"
      }
    }
  },
  "prices_count": 44,
  "name": "Danemark 3,5% 1886, amort.tit. de 500 cour."
}