{
  "id": 106407,
  "share_type": {
    "id": 1,
    "name": "Stock (Action)"
  },
  "issuers": [
    {
      "id": 4877,
      "start_date": "1967-01-16",
      "end_date": "1967-04-17",
      "name": "Société de Gestion et de Participations de la Hénin \"SOGENIN\" (Sogenin)"
    }
  ],
  "types": [
    {
      "start_date": "1967-01-16",
      "end_date": "1967-04-17",
      "id": 18,
      "name": "Action",
      "stock_group": "S"
    }
  ],
  "is_mainstock": 0,
  "prices_period": [
    "1967-01-16",
    "1967-04-17"
  ],
  "stock_exchanges": {
    "1": {
      "id": 1,
      "name": "Paris (Official List)",
      "notations": {
        "207269": {
          "id": 207269,
          "sector_id": 462,
          "start_date": "1967-01-16",
          "end_date": "1967-04-17",
          "names": [
            {
              "name": "Sogenin (Sté de gestion et de participation de la Hénin), Act. (nes 203233 à 303232) (c. 16 étoil att.).",
              "start_date": "1967-01-16",
              "end_date": "1967-04-17"
            }
          ]
        }
      },
      "listings_stats": {
        "start_date": "1967-01-16"
      },
      "spot_prices_stats": {
        "start_date": "1967-01-16",
        "end_date": "1967-04-17"
      }
    }
  },
  "prices_count": 7,
  "name": "Sogenin (Sté de gestion et de participation de la Hénin), Act. (nes 203233 à 303232) (c. 16 étoil att.)."
}