{
  "id": 16187,
  "share_type": {
    "id": 2,
    "name": "Bond (Obligation)"
  },
  "issuers": [
    {
      "id": 5102,
      "start_date": "1960-04-22",
      "end_date": "3999-12-31",
      "name": "Société Lorraine de Développement et d'Expansion"
    }
  ],
  "types": [
    {
      "start_date": "1960-04-22",
      "end_date": "3999-12-31",
      "id": 1001,
      "name": "Obligation ordinaire ou classique",
      "stock_group": "B"
    }
  ],
  "is_mainstock": 0,
  "prices_period": [
    "1960-04-22",
    "1961-12-15"
  ],
  "stock_exchanges": {
    "1": {
      "id": 1,
      "name": "Paris (Official List)",
      "notations": {
        "27642": {
          "id": 27642,
          "sector_id": 468,
          "start_date": "1960-08-20",
          "end_date": "1962-01-02",
          "names": [
            {
              "name": "Lorraine de developpement et d'expansion (lordex), 5% nov 1959, rembours à 225 NF (c 1/11/60 att)(garantie de l'Etat en sa qualité de contre-garant de chacune des societés garantes)(cf avis n 35218) 1960-74",
              "start_date": "1960-04-22",
              "end_date": "1962-01-02"
            },
            {
              "name": "Lorraine de Développement et d'Expansion (Lordex), 5% nov. 1959, remb. à 225 NF (T. 29/9/61) (Avis 35281) 1960-74",
              "start_date": "1960-08-20",
              "end_date": "3999-12-31"
            }
          ]
        },
        "146762": {
          "id": 146762,
          "sector_id": 357,
          "start_date": "1960-04-22",
          "end_date": "1960-08-20",
          "names": [
            {
              "name": "Lorraine de developpement et d'expansion (lordex), 5% nov 1959, rembours à 225 NF (c 1/11/60 att)(garantie de l'Etat en sa qualité de contre-garant de chacune des societés garantes)(cf avis n 35218) 1960-74",
              "start_date": "1960-04-22",
              "end_date": "1962-01-02"
            },
            {
              "name": "Lorraine de Développement et d'Expansion (Lordex), 5% nov. 1959, remb. à 225 NF (T. 29/9/61) (Avis 35281) 1960-74",
              "start_date": "1960-04-22",
              "end_date": "3999-12-31"
            }
          ]
        }
      },
      "listings_stats": {
        "start_date": "1960-04-22"
      },
      "spot_prices_stats": {
        "start_date": "1960-04-22",
        "end_date": "1961-12-15"
      }
    }
  },
  "prices_count": 41,
  "name": "Lorraine de Développement et d'Expansion (Lordex), 5% nov. 1959, remb. à 225 NF (T. 29/9/61) (Avis 35281) 1960-74"
}