{
  "id": 15921,
  "share_type": {
    "id": 1,
    "name": "Stock (Action)"
  },
  "issuers": [
    {
      "id": 2754,
      "start_date": "1959-05-19",
      "end_date": "3999-12-31",
      "name": "STé D'ELECTRO-CHIMIE ET D'ELECTRO-METALLURGIE ET DES ACIÉRIES ÉLECTRIQUES D'UGINE"
    }
  ],
  "types": [
    {
      "start_date": "1959-05-19",
      "end_date": "3999-12-31",
      "id": 27,
      "name": "Promesse d'action",
      "stock_group": "S"
    }
  ],
  "is_mainstock": 0,
  "prices_period": [
    "1959-05-19",
    "1959-07-31"
  ],
  "stock_exchanges": {
    "1": {
      "id": 1,
      "name": "Paris (Official List)",
      "notations": {
        "146496": {
          "id": 146496,
          "sector_id": 414,
          "start_date": "1959-05-19",
          "end_date": "1959-08-17",
          "names": [
            {
              "name": "Ugine (sté d'electro-chimie, d'electro-metallurgie et des acieriee electriq d'), Promesses, 1250 fr, payés (jce 1/1/60)",
              "start_date": "1959-05-19",
              "end_date": "3999-12-31"
            }
          ]
        }
      },
      "listings_stats": {
        "start_date": "1959-05-19"
      },
      "spot_prices_stats": {
        "start_date": "1959-05-19",
        "end_date": "1959-07-31"
      }
    }
  },
  "prices_count": 9,
  "name": "Ugine (sté d'electro-chimie, d'electro-metallurgie et des acieriee electriq d'), Promesses, 1250 fr, payés (jce 1/1/60)"
}