{
  "id": 16254,
  "share_type": {
    "id": 1,
    "name": "Stock (Action)"
  },
  "issuers": [
    {
      "id": 4828,
      "start_date": "1960-08-16",
      "end_date": "3999-12-31",
      "name": "SOCIETE POUR L'INDUSTRIE DES TRANSPORTS (Anciennement Société des Transports en Commun de la Région Parisienne)"
    }
  ],
  "types": [
    {
      "start_date": "1960-08-16",
      "end_date": "3999-12-31",
      "id": 18,
      "name": "Action",
      "stock_group": "S"
    }
  ],
  "is_mainstock": 0,
  "prices_period": [
    "1960-08-16",
    "1960-08-16"
  ],
  "stock_exchanges": {
    "1": {
      "id": 1,
      "name": "Paris (Official List)",
      "notations": {
        "146829": {
          "id": 146829,
          "sector_id": 232,
          "start_date": "1960-08-16",
          "end_date": "1961-04-17",
          "names": [
            {
              "name": "Industrie des transports (anc STCRP) act (n 1 à 36410)",
              "start_date": "1960-08-16",
              "end_date": "3999-12-31"
            }
          ]
        }
      },
      "listings_stats": {
        "start_date": "1960-08-16"
      },
      "spot_prices_stats": {
        "start_date": "1960-08-16",
        "end_date": "1960-08-16"
      }
    }
  },
  "prices_count": 1,
  "name": "Industrie des transports (anc STCRP) act (n 1 à 36410)"
}