{
  "id": 19518,
  "share_type": {
    "id": 2,
    "name": "Bond (Obligation)"
  },
  "issuers": [
    {
      "id": 4077,
      "start_date": "1967-05-02",
      "end_date": "3999-12-31",
      "name": "SOCIÉTÉ DES CARRIÈRES DE LA VALLÉE HEUREUSE ET DU HAUT-BANC (Anciens Etablissements Hénaux Frères et Carrières du Haut-Banc réunis)"
    }
  ],
  "types": [
    {
      "start_date": "1967-05-02",
      "end_date": "3999-12-31",
      "id": 1001,
      "name": "Obligation ordinaire ou classique",
      "stock_group": "B"
    }
  ],
  "is_mainstock": 0,
  "prices_period": [
    "1967-05-02",
    "1973-08-31"
  ],
  "stock_exchanges": {
    "1": {
      "id": 1,
      "name": "Paris (Official List)",
      "notations": {
        "150093": {
          "id": 150093,
          "sector_id": 361,
          "start_date": "1967-05-02",
          "end_date": "1973-09-15",
          "names": [
            {
              "name": "Lille_Bourse Carrières de la Vallée Heureuse 4% 1945 (Tir. 17/4/67). 1946-75",
              "start_date": "1967-05-02",
              "end_date": "3999-12-31"
            }
          ]
        }
      },
      "listings_stats": {
        "start_date": "1967-05-02"
      },
      "spot_prices_stats": {
        "start_date": "1967-05-02",
        "end_date": "1973-08-31"
      }
    }
  },
  "prices_count": 152,
  "name": "Lille_Bourse Carrières de la Vallée Heureuse 4% 1945 (Tir. 17/4/67). 1946-75"
}