{
  "id": 106018,
  "share_type": {
    "id": 1,
    "name": "Stock (Action)"
  },
  "issuers": [
    {
      "id": 2801,
      "start_date": "1898-09-19",
      "end_date": "1898-12-31",
      "name": "Lancaster Gold Mining Co, Ld"
    }
  ],
  "types": [
    {
      "start_date": "1898-09-19",
      "end_date": "1898-12-31",
      "id": 18,
      "name": "Action",
      "stock_group": "S"
    }
  ],
  "is_mainstock": 1,
  "prices_period": [
    "1898-09-30",
    "1898-12-31"
  ],
  "stock_exchanges": {
    "2": {
      "id": 2,
      "name": "Paris OTC (Coulisse)",
      "notations": {
        "206877": {
          "id": 206877,
          "sector_id": 669,
          "start_date": "1898-09-19",
          "end_date": "1898-12-31",
          "names": [
            {
              "name": "Lancaster, c. 1 att",
              "start_date": "1898-09-19",
              "end_date": "1898-12-31"
            },
            {
              "name": "LANCASTER",
              "start_date": "1898-09-19",
              "end_date": "1899-01-16"
            }
          ]
        },
        "207843": {
          "id": 207843,
          "sector_id": 684,
          "start_date": "1899-01-16",
          "end_date": "1899-01-16",
          "names": [
            {
              "name": "Lancaster, c. 1 att",
              "start_date": "1898-09-19",
              "end_date": "1899-01-16"
            },
            {
              "name": "LANCASTER",
              "start_date": "1899-01-16",
              "end_date": "1899-01-16"
            }
          ]
        }
      },
      "listings_stats": {
        "start_date": "1898-09-19"
      },
      "spot_prices_stats": {
        "start_date": "1898-09-30",
        "end_date": "1898-12-31"
      }
    }
  },
  "prices_count": 12,
  "name": "LANCASTER"
}