{
  "id": 20927,
  "share_type": {
    "id": 2,
    "name": "Bond (Obligation)"
  },
  "issuers": [
    {
      "id": 2283,
      "start_date": "1972-04-17",
      "end_date": "3999-12-31",
      "name": "Le Nickel"
    }
  ],
  "types": [
    {
      "start_date": "1972-04-17",
      "end_date": "3999-12-31",
      "id": 1001,
      "name": "Obligation ordinaire ou classique",
      "stock_group": "B"
    }
  ],
  "is_mainstock": 0,
  "prices_period": [
    "1972-04-17",
    "1976-12-31"
  ],
  "stock_exchanges": {
    "1": {
      "id": 1,
      "name": "Paris (Official List)",
      "notations": {
        "151497": {
          "id": 151497,
          "sector_id": 370,
          "start_date": "1972-04-17",
          "end_date": "3999-12-31",
          "names": [
            {
              "name": "Nickel (Le) 8,75% 1971 (c. 20/12/72 attaché) (Avis 72-235)…1977-89",
              "start_date": "1972-04-17",
              "end_date": "3999-12-31"
            },
            {
              "name": "Nickel (Le) 8,75% 1971 de 500 F.(Avis 72-235) 1977-89",
              "start_date": "1972-04-17",
              "end_date": "3999-12-31"
            },
            {
              "name": "Imetal 8,75% 1971 de 500 F.(Avis 72-235) 1977-89",
              "start_date": "1972-04-17",
              "end_date": "3999-12-31"
            }
          ]
        }
      },
      "listings_stats": {
        "start_date": "1972-04-17"
      },
      "spot_prices_stats": {
        "start_date": "1972-04-17",
        "end_date": "1976-12-31"
      }
    }
  },
  "prices_count": 116,
  "name": "Nickel (Le) 8,75% 1971 de 500 F.(Avis 72-235) 1977-89"
}