{
  "id": 7463,
  "share_type": {
    "id": 1,
    "name": "Stock (Action)"
  },
  "issuers": [
    {
      "id": 1194,
      "start_date": "1921-02-01",
      "end_date": "3999-12-31",
      "name": "SOCIÉTÉ RUSSE \" NEFT \" - NAPHTE RUSSE"
    }
  ],
  "types": [
    {
      "start_date": "1921-02-01",
      "end_date": "3999-12-31",
      "id": 18,
      "name": "Action",
      "stock_group": "S"
    }
  ],
  "is_mainstock": 0,
  "prices_period": [
    "1921-02-15",
    "1925-04-30"
  ],
  "stock_exchanges": {
    "1": {
      "id": 1,
      "name": "Paris (Official List)",
      "notations": {
        "34333": {
          "id": 34333,
          "sector_id": 168,
          "start_date": "1921-02-01",
          "end_date": "1925-05-01",
          "names": [
            {
              "name": "Le Naphte (Sté Russe), act. 100 roubles, t. p. (ex-div. 1916) (A TERME)",
              "start_date": "1921-02-01",
              "end_date": "3999-12-31"
            }
          ]
        }
      },
      "forward_prices_stats": {
        "start_date": "1921-02-15",
        "end_date": "1925-04-30"
      },
      "listings_stats": {
        "start_date": "1921-02-01"
      },
      "options_prices_stats": {
        "start_date": "1921-02-28",
        "end_date": "1924-06-16"
      }
    }
  },
  "prices_count": 581,
  "name": "Le Naphte (Sté Russe), act. 100 roubles, t. p. (ex-div. 1916) (A TERME)"
}