{
  "id": 18426,
  "share_type": {
    "id": 1,
    "name": "Stock (Action)"
  },
  "issuers": [
    {
      "id": 4117,
      "start_date": "1966-02-17",
      "end_date": "3999-12-31",
      "name": "ETABLISSEMENTS FOUGA ET Cie"
    }
  ],
  "types": [
    {
      "start_date": "1966-02-17",
      "end_date": "3999-12-31",
      "id": 27,
      "name": "Promesse d'action",
      "stock_group": "S"
    }
  ],
  "is_mainstock": 0,
  "prices_period": [
    null,
    null
  ],
  "stock_exchanges": {
    "1": {
      "id": 1,
      "name": "Paris (Official List)",
      "notations": {
        "149001": {
          "id": 149001,
          "sector_id": 341,
          "start_date": "1966-02-17",
          "end_date": "1969-03-31",
          "names": [
            {
              "name": "Europénne de Matériels-Cema (Cie), Promesses (Jce 1/1/66)",
              "start_date": "1966-02-17",
              "end_date": "1969-03-31"
            },
            {
              "name": "Européene de Matériels- Céma (Cie), act. (ex-dr., ) Promesses (Jce 1/1/66)",
              "start_date": "1966-02-17",
              "end_date": "3999-12-31"
            }
          ]
        }
      },
      "listings_stats": {
        "start_date": "1966-02-17"
      }
    }
  },
  "prices_count": 0,
  "name": "Europénne de Matériels-Cema (Cie), Promesses (Jce 1/1/66)"
}