{
  "id": 17179,
  "share_type": {
    "id": 2,
    "name": "Bond (Obligation)"
  },
  "issuers": [
    {
      "id": 4394,
      "start_date": "1962-01-02",
      "end_date": "3999-12-31",
      "name": "SOCIETE GEOFFROY DELORE"
    }
  ],
  "types": [
    {
      "start_date": "1962-01-02",
      "end_date": "3999-12-31",
      "id": 1001,
      "name": "Obligation ordinaire ou classique",
      "stock_group": "B"
    }
  ],
  "is_mainstock": 0,
  "prices_period": [
    "1962-01-02",
    "1964-02-17"
  ],
  "stock_exchanges": {
    "1": {
      "id": 1,
      "name": "Paris (Official List)",
      "notations": {
        "31104": {
          "id": 31104,
          "sector_id": 369,
          "start_date": "1963-03-04",
          "end_date": "1964-03-02",
          "names": [
            {
              "name": "Geoffroy-Delore 3,75 % 1945 1945-75",
              "start_date": "1962-01-02",
              "end_date": "1964-03-02"
            },
            {
              "name": "Geoffroy-Delore 3,75% 1945 (éch. 1/11/63) (Tir. 20/3/63). 1945-75",
              "start_date": "1963-03-04",
              "end_date": "3999-12-31"
            }
          ]
        },
        "147754": {
          "id": 147754,
          "sector_id": 516,
          "start_date": "1962-01-02",
          "end_date": "1963-03-04",
          "names": [
            {
              "name": "Geoffroy-Delore 3,75 % 1945 1945-75",
              "start_date": "1962-01-02",
              "end_date": "1964-03-02"
            },
            {
              "name": "Geoffroy-Delore 3,75% 1945 (éch. 1/11/63) (Tir. 20/3/63). 1945-75",
              "start_date": "1962-01-02",
              "end_date": "3999-12-31"
            }
          ]
        }
      },
      "listings_stats": {
        "start_date": "1962-01-02"
      },
      "spot_prices_stats": {
        "start_date": "1962-01-02",
        "end_date": "1964-02-17"
      }
    }
  },
  "prices_count": 52,
  "name": "Geoffroy-Delore 3,75 % 1945 1945-75"
}