{
  "id": 15915,
  "share_type": {
    "id": 1,
    "name": "Stock (Action)"
  },
  "issuers": [
    {
      "id": 4764,
      "start_date": "1959-04-07",
      "end_date": "3999-12-31",
      "name": "Société Nationale de financement des recherches de pétrole"
    }
  ],
  "types": [
    {
      "start_date": "1959-04-07",
      "end_date": "3999-12-31",
      "id": 18,
      "name": "Action",
      "stock_group": "S"
    }
  ],
  "is_mainstock": 0,
  "prices_period": [
    "1959-04-13",
    "1972-07-31"
  ],
  "stock_exchanges": {
    "1": {
      "id": 1,
      "name": "Paris (Official List)",
      "notations": {
        "30390": {
          "id": 30390,
          "sector_id": 349,
          "start_date": "1963-03-04",
          "end_date": "1972-08-08",
          "names": [
            {
              "name": "Nationale de financement des recherches de pétrole SNIP) act (c 1 att)",
              "start_date": "1959-04-07",
              "end_date": "3999-12-31"
            }
          ]
        },
        "146490": {
          "id": 146490,
          "sector_id": 411,
          "start_date": "1959-04-07",
          "end_date": "1963-03-04",
          "names": [
            {
              "name": "Nationale de financement des recherches de pétrole SNIP) act (c 1 att)",
              "start_date": "1959-04-07",
              "end_date": "3999-12-31"
            }
          ]
        }
      },
      "listings_stats": {
        "start_date": "1959-04-07"
      },
      "spot_prices_stats": {
        "start_date": "1959-04-13",
        "end_date": "1972-07-31"
      }
    }
  },
  "prices_count": 363,
  "name": "Nationale de financement des recherches de pétrole SNIP) act (c 1 att)"
}