{
  "id": 6219,
  "share_type": {
    "id": 2,
    "name": "Bond (Obligation)"
  },
  "issuers": [
    {
      "id": 2715,
      "start_date": "1901-05-09",
      "end_date": "3999-12-31",
      "name": "LE TRIPHASE"
    }
  ],
  "types": [
    {
      "start_date": "1902-04-30",
      "end_date": "3999-12-31",
      "id": 1001,
      "name": "Obligation ordinaire ou classique",
      "stock_group": "B"
    }
  ],
  "is_mainstock": 0,
  "prices_period": [
    "1902-04-30",
    "1936-06-02"
  ],
  "stock_exchanges": {
    "1": {
      "id": 1,
      "name": "Paris (Official List)",
      "notations": {
        "9120": {
          "id": 9120,
          "sector_id": 117,
          "start_date": "1912-03-23",
          "end_date": "1914-08-03",
          "names": [
            {
              "name": "Le Triphasé, Obligations 4,5%",
              "start_date": "1892-05-05",
              "end_date": "1914-08-03"
            },
            {
              "name": "Le Triphasé 4.5%, remb. à 500 fr",
              "start_date": "1912-03-23",
              "end_date": "1925-09-28"
            },
            {
              "name": "Nord-Lumière (Le Triphasé) 4,5%, remb. à 500 fr.",
              "start_date": "1912-03-23",
              "end_date": "3999-12-31"
            }
          ]
        },
        "10380": {
          "id": 10380,
          "sector_id": 117,
          "start_date": "1914-12-15",
          "end_date": "1936-07-01",
          "names": [
            {
              "name": "Le Triphasé, Obligations 4,5%",
              "start_date": "1892-05-05",
              "end_date": "1936-07-01"
            },
            {
              "name": "Le Triphasé 4.5%, remb. à 500 fr",
              "start_date": "1912-03-23",
              "end_date": "1936-07-01"
            },
            {
              "name": "Nord-Lumière (Le Triphasé) 4,5%, remb. à 500 fr.",
              "start_date": "1914-12-15",
              "end_date": "3999-12-31"
            }
          ]
        },
        "155737": {
          "id": 155737,
          "sector_id": 120,
          "start_date": "1901-05-09",
          "end_date": "1912-03-18",
          "names": [
            {
              "name": "Le Triphasé, Obligations 4,5%",
              "start_date": "1892-05-05",
              "end_date": "1912-03-18"
            },
            {
              "name": "Le Triphasé 4.5%, remb. à 500 fr",
              "start_date": "1901-05-09",
              "end_date": "1925-09-28"
            },
            {
              "name": "Nord-Lumière (Le Triphasé) 4,5%, remb. à 500 fr.",
              "start_date": "1901-05-09",
              "end_date": "3999-12-31"
            }
          ]
        }
      },
      "listings_stats": {
        "start_date": "1901-05-09"
      },
      "spot_prices_stats": {
        "start_date": "1902-04-30",
        "end_date": "1936-06-02"
      }
    }
  },
  "prices_count": 399,
  "name": "Le Triphasé 4.5%, remb. à 500 fr"
}