{
  "id": 9341,
  "share_type": {
    "id": 1,
    "name": "Stock (Action)"
  },
  "issuers": [
    {
      "id": 5397,
      "start_date": "1930-01-06",
      "end_date": "3999-12-31",
      "name": "COMPAGNIES REUNIES DE GAZ ET D'ELECTRICITE"
    }
  ],
  "types": [
    {
      "start_date": "1930-01-06",
      "end_date": "3999-12-31",
      "id": 11,
      "name": "Action ordinaire",
      "stock_group": "S"
    }
  ],
  "is_mainstock": 0,
  "prices_period": [
    "1930-01-06",
    "1932-05-17"
  ],
  "stock_exchanges": {
    "1": {
      "id": 1,
      "name": "Paris (Official List)",
      "notations": {
        "136788": {
          "id": 136788,
          "sector_id": 102,
          "start_date": "1930-01-06",
          "end_date": "1932-06-15",
          "names": [
            {
              "name": "Gaz et d'Electricité (Cie Réunies de), Act. A 100 f., 50fr. p (nos 308259 à 724326) (nom)",
              "start_date": "1930-01-06",
              "end_date": "3999-12-31"
            }
          ]
        }
      },
      "listings_stats": {
        "start_date": "1930-01-06"
      },
      "spot_prices_stats": {
        "start_date": "1930-01-06",
        "end_date": "1932-05-17"
      }
    }
  },
  "prices_count": 32,
  "name": "Gaz et d'Electricité (Cie Réunies de), Act. A 100 f., 50fr. p (nos 308259 à 724326) (nom)"
}