{
  "id": 35261,
  "share_type": {
    "id": 2,
    "name": "Bond (Obligation)"
  },
  "issuers": [
    {
      "id": 5875,
      "start_date": "1976-11-25",
      "end_date": "3999-12-31",
      "name": "Hauts-Fourneaux, Forges d’Allevard"
    }
  ],
  "types": [
    {
      "start_date": "1976-11-25",
      "end_date": "3999-12-31",
      "id": 1001,
      "name": "Obligation ordinaire ou classique",
      "stock_group": "B"
    }
  ],
  "is_mainstock": 0,
  "prices_period": [
    "1976-11-25",
    "1976-12-31"
  ],
  "stock_exchanges": {
    "1": {
      "id": 1,
      "name": "Paris (Official List)",
      "notations": {
        "153116": {
          "id": 153116,
          "sector_id": 355,
          "start_date": "1976-11-25",
          "end_date": "3999-12-31",
          "names": [
            {
              "name": "Banque Vernes et Commerciale de Paris 11% 1976 de 1000 F (c. 25/10/77 att.) (Avis 76-966) 1977-86",
              "start_date": "1976-11-25",
              "end_date": "3999-12-31"
            }
          ]
        }
      },
      "listings_stats": {
        "start_date": "1976-11-25"
      },
      "spot_prices_stats": {
        "start_date": "1976-11-25",
        "end_date": "1976-12-31"
      }
    }
  },
  "prices_count": 4,
  "name": "Banque Vernes et Commerciale de Paris 11% 1976 de 1000 F (c. 25/10/77 att.) (Avis 76-966) 1977-86"
}