{
  "id": 21465,
  "share_type": {
    "id": 3,
    "name": "OPTIONS"
  },
  "issuers": [
    {
      "id": 4551,
      "start_date": "1974-07-19",
      "end_date": "3999-12-31",
      "name": "Société Nationale des Petroles d'Aquitaine"
    }
  ],
  "types": [
    {
      "start_date": "1974-07-19",
      "end_date": "3999-12-31",
      "id": 2,
      "name": "Option",
      "stock_group": "M"
    }
  ],
  "is_mainstock": 0,
  "prices_period": [
    null,
    null
  ],
  "stock_exchanges": {
    "1": {
      "id": 1,
      "name": "Paris (Official List)",
      "notations": {
        "100138": {
          "id": 100138,
          "sector_id": 604,
          "start_date": "1974-08-02",
          "end_date": "1974-08-05",
          "names": [
            {
              "name": "Aquitaine (Certificats)",
              "start_date": "1974-07-19",
              "end_date": "3999-12-31"
            }
          ]
        },
        "100139": {
          "id": 100139,
          "sector_id": 604,
          "start_date": "1974-08-09",
          "end_date": "1974-08-27",
          "names": [
            {
              "name": "Aquitaine (Certificats)",
              "start_date": "1974-07-19",
              "end_date": "3999-12-31"
            }
          ]
        },
        "100140": {
          "id": 100140,
          "sector_id": 604,
          "start_date": "1974-08-28",
          "end_date": "1974-08-30",
          "names": [
            {
              "name": "Aquitaine (Certificats)",
              "start_date": "1974-07-19",
              "end_date": "3999-12-31"
            }
          ]
        },
        "100141": {
          "id": 100141,
          "sector_id": 604,
          "start_date": "1974-09-05",
          "end_date": "1974-09-10",
          "names": [
            {
              "name": "Aquitaine (Certificats)",
              "start_date": "1974-07-19",
              "end_date": "3999-12-31"
            }
          ]
        },
        "100142": {
          "id": 100142,
          "sector_id": 604,
          "start_date": "1974-09-23",
          "end_date": "3999-12-31",
          "names": [
            {
              "name": "Aquitaine (Certificats)",
              "start_date": "1974-07-19",
              "end_date": "3999-12-31"
            }
          ]
        },
        "152032": {
          "id": 152032,
          "sector_id": 604,
          "start_date": "1974-07-19",
          "end_date": "1974-07-31",
          "names": [
            {
              "name": "Aquitaine (Certificats)",
              "start_date": "1974-07-19",
              "end_date": "3999-12-31"
            }
          ]
        }
      },
      "listings_stats": {
        "start_date": "1974-07-19"
      }
    }
  },
  "prices_count": 0,
  "name": "Aquitaine (Certificats)"
}