{
  "id": 13365,
  "share_type": {
    "id": 1,
    "name": "Stock (Action)"
  },
  "issuers": [
    {
      "id": 2315,
      "start_date": "1949-06-27",
      "end_date": "3999-12-31",
      "name": "Société anonyme d'imprimerie et Librairie administratives et des chemins de fer"
    }
  ],
  "types": [
    {
      "start_date": "1949-06-27",
      "end_date": "3999-12-31",
      "id": 18,
      "name": "Action",
      "stock_group": "S"
    }
  ],
  "is_mainstock": 0,
  "prices_period": [
    "1949-06-27",
    "1952-07-31"
  ],
  "stock_exchanges": {
    "1": {
      "id": 1,
      "name": "Paris (Official List)",
      "notations": {
        "143940": {
          "id": 143940,
          "sector_id": 191,
          "start_date": "1949-06-27",
          "end_date": "1952-08-01",
          "names": [
            {
              "name": "Imprimerie et Librairie Administratives et des Chem. De fer (Paul Dupont), act. N 1000 fr., t.p. (c. 8 att.)",
              "start_date": "1949-06-27",
              "end_date": "1952-08-01"
            },
            {
              "name": "Imprimerie et Librairie Administratives et des Chemins de Fer (Paul Dupont), act. N anc. 1000 fr., t. p. (ex-dr., )",
              "start_date": "1949-06-27",
              "end_date": "3999-12-31"
            }
          ]
        }
      },
      "listings_stats": {
        "start_date": "1949-06-27"
      },
      "spot_prices_stats": {
        "start_date": "1949-06-27",
        "end_date": "1952-07-31"
      }
    }
  },
  "prices_count": 76,
  "name": "Imprimerie et Librairie Administratives et des Chem. De fer (Paul Dupont), act. N 1000 fr., t.p. (c. 8 att.)"
}