{
  "id": 14913,
  "share_type": {
    "id": 1,
    "name": "Stock (Action)"
  },
  "issuers": [
    {
      "id": 4902,
      "start_date": "1953-12-23",
      "end_date": "1976-12-31",
      "name": "Algemene Kunstzijde Unie"
    }
  ],
  "types": [
    {
      "start_date": "1953-12-23",
      "end_date": "3999-12-31",
      "id": 11,
      "name": "Action ordinaire",
      "stock_group": "S"
    }
  ],
  "is_mainstock": 0,
  "prices_period": [
    "1953-12-23",
    "1976-12-31"
  ],
  "stock_exchanges": {
    "1": {
      "id": 1,
      "name": "Paris (Official List)",
      "notations": {
        "28867": {
          "id": 28867,
          "sector_id": 542,
          "start_date": "1962-01-02",
          "end_date": "1976-12-31",
          "names": [
            {
              "name": "Algemene Kunstzijde Unie N.V. \"A.K.U.\", coup. d'act. Ord. 100 flor., t. p. [n° 125001 (c. 1 à c. 10) à 225545 (c. 1 à c. 10)]",
              "start_date": "1953-12-23",
              "end_date": "1976-12-31"
            },
            {
              "name": "Algemene Kunstzijde Unie N.V. \"A.K.U.\", coup. d'act. Ord. 100 florins [ n°s 125001 (c. 1 à c. 10) à 237546 (c. 1 à c. 1 à c. 10) ]",
              "start_date": "1955-12-01",
              "end_date": "1976-12-31"
            },
            {
              "name": "ALGEMENE KUNSTZIJDE UNIE N.V.\" A.K.U.\", Coup.d'act.Ord.100 FL (pouvant etre numérotées de 12500)[coup.1 à coup.10]à 260444 [Coup.1 à coup.10]",
              "start_date": "1962-01-02",
              "end_date": "1976-12-31"
            },
            {
              "name": "AKZO N.V. Titres de 5 act. De 20 FL (anc. Titre de 1 act. De 100 FL) (titres nouv., c.1 att.)",
              "start_date": "1962-01-02",
              "end_date": "1976-12-31"
            }
          ]
        },
        "145488": {
          "id": 145488,
          "sector_id": 82,
          "start_date": "1953-12-23",
          "end_date": "1962-01-02",
          "names": [
            {
              "name": "Algemene Kunstzijde Unie N.V. \"A.K.U.\", coup. d'act. Ord. 100 flor., t. p. [n° 125001 (c. 1 à c. 10) à 225545 (c. 1 à c. 10)]",
              "start_date": "1953-12-23",
              "end_date": "1962-01-02"
            },
            {
              "name": "Algemene Kunstzijde Unie N.V. \"A.K.U.\", coup. d'act. Ord. 100 florins [ n°s 125001 (c. 1 à c. 10) à 237546 (c. 1 à c. 1 à c. 10) ]",
              "start_date": "1953-12-23",
              "end_date": "1962-01-02"
            },
            {
              "name": "ALGEMENE KUNSTZIJDE UNIE N.V.\" A.K.U.\", Coup.d'act.Ord.100 FL (pouvant etre numérotées de 12500)[coup.1 à coup.10]à 260444 [Coup.1 à coup.10]",
              "start_date": "1953-12-23",
              "end_date": "1969-12-15"
            },
            {
              "name": "AKZO N.V. Titres de 5 act. De 20 FL (anc. Titre de 1 act. De 100 FL) (titres nouv., c.1 att.)",
              "start_date": "1953-12-23",
              "end_date": "1976-12-31"
            }
          ]
        }
      },
      "listings_stats": {
        "start_date": "1953-12-23"
      },
      "spot_prices_stats": {
        "start_date": "1953-12-23",
        "end_date": "1976-12-31"
      }
    }
  },
  "prices_count": 601,
  "name": "Algemene Kunstzijde Unie N.V. \"A.K.U.\", coup. d'act. Ord. 100 flor., t. p. [n° 125001 (c. 1 à c. 10) à 225545 (c. 1 à c. 10)]"
}