{
  "id": 11691,
  "share_type": {
    "id": 1,
    "name": "Stock (Action)"
  },
  "issuers": [
    {
      "id": 3482,
      "start_date": "1944-01-13",
      "end_date": "3999-12-31",
      "name": "L'URBAINE-COMPLEMENTAIRE Compagnie Anonyme d'Assurances et de Réassurances à Primes fixes contre les Accidents et Risques divers"
    }
  ],
  "types": [
    {
      "start_date": "1944-01-13",
      "end_date": "3999-12-31",
      "id": 18,
      "name": "Action",
      "stock_group": "S"
    }
  ],
  "is_mainstock": 0,
  "prices_period": [
    "1944-03-15",
    "1944-06-01"
  ],
  "stock_exchanges": {
    "1": {
      "id": 1,
      "name": "Paris (Official List)",
      "notations": {
        "142266": {
          "id": 142266,
          "sector_id": 96,
          "start_date": "1944-01-13",
          "end_date": "1944-09-15",
          "names": [
            {
              "name": "Urbaine-Complémentaire (L') (assurances et réass., accid. et risques div.) a. 100 f., t.p. (n°s 10001 à 50000) (nom.) (Jce 1/44)",
              "start_date": "1944-01-13",
              "end_date": "1944-09-15"
            }
          ]
        }
      },
      "listings_stats": {
        "start_date": "1944-01-13"
      },
      "spot_prices_stats": {
        "start_date": "1944-03-15",
        "end_date": "1944-06-01"
      }
    }
  },
  "prices_count": 5,
  "name": "Urbaine-Complémentaire (L') (assurances et réass., accid. et risques div.) a. 100 f., t.p. (n°s 10001 à 50000) (nom.) (Jce 1/44)"
}