{
  "id": 4971,
  "share_type": {
    "id": 2,
    "name": "Bond (Obligation)"
  },
  "issuers": [
    {
      "id": 3331,
      "start_date": "1905-05-29",
      "end_date": "3999-12-31",
      "name": "ETATS : SIAM"
    }
  ],
  "types": [
    {
      "start_date": "1905-05-29",
      "end_date": "3999-12-31",
      "id": 1001,
      "name": "Obligation ordinaire ou classique",
      "stock_group": "B"
    }
  ],
  "is_mainstock": 0,
  "prices_period": [
    "1905-05-29",
    "1938-08-31"
  ],
  "stock_exchanges": {
    "1": {
      "id": 1,
      "name": "Paris (Official List)",
      "notations": {
        "6070": {
          "id": 6070,
          "sector_id": 74,
          "start_date": "1905-05-29",
          "end_date": "1914-08-03",
          "names": [
            {
              "name": "Siam 4.5% or 1905, remb. à 500 fr",
              "start_date": "1905-05-29",
              "end_date": "1934-01-02"
            },
            {
              "name": "Siam. 4,5% or 1905, remb. au pair. T. 20 £",
              "start_date": "1905-05-29",
              "end_date": "1934-01-23"
            },
            {
              "name": "Siam. 4,5% or 1905, remb. au pair. Oblig. 20 £",
              "start_date": "1905-05-29",
              "end_date": "3999-12-31"
            }
          ]
        },
        "6417": {
          "id": 6417,
          "sector_id": 74,
          "start_date": "1914-12-15",
          "end_date": "1938-09-01",
          "names": [
            {
              "name": "Siam 4.5% or 1905, remb. à 500 fr",
              "start_date": "1905-05-29",
              "end_date": "1938-09-01"
            },
            {
              "name": "Siam. 4,5% or 1905, remb. au pair. T. 20 £",
              "start_date": "1914-12-15",
              "end_date": "1938-09-01"
            },
            {
              "name": "Siam. 4,5% or 1905, remb. au pair. Oblig. 20 £",
              "start_date": "1914-12-15",
              "end_date": "3999-12-31"
            }
          ]
        }
      },
      "listings_stats": {
        "start_date": "1905-05-29"
      },
      "spot_prices_stats": {
        "start_date": "1905-05-29",
        "end_date": "1938-08-31"
      }
    }
  },
  "prices_count": 414,
  "name": "Siam. 4,5% or 1905, remb. au pair. T. 20 £"
}