{
  "id": 105175,
  "share_type": {
    "id": 1,
    "name": "Stock (Action)"
  },
  "issuers": [
    {
      "id": 12313,
      "start_date": "1890-11-29",
      "end_date": "1893-01-31",
      "name": "Mine d'or de Saint-Antoine"
    }
  ],
  "types": [
    {
      "start_date": "1000-01-01",
      "end_date": "3999-12-31",
      "id": 18,
      "name": "Action",
      "stock_group": "S"
    }
  ],
  "is_mainstock": 1,
  "prices_period": [
    "1890-11-29",
    "1893-01-31"
  ],
  "stock_exchanges": {
    "2": {
      "id": 2,
      "name": "Paris OTC (Coulisse)",
      "notations": {
        "205853": {
          "id": 205853,
          "sector_id": 669,
          "start_date": "1890-11-29",
          "end_date": "1893-01-31",
          "names": [
            {
              "name": "Saint-Antoine (Mine d'or de) au port",
              "start_date": "1890-11-29",
              "end_date": "1893-01-31"
            }
          ]
        }
      },
      "listings_stats": {
        "start_date": "1890-11-29"
      },
      "spot_prices_stats": {
        "start_date": "1890-11-29",
        "end_date": "1893-01-31"
      }
    }
  },
  "prices_count": 81,
  "name": "Saint-Antoine (Mine d'or de) au port"
}