{
  "id": 4610,
  "share_type": {
    "id": 1,
    "name": "Stock (Action)"
  },
  "issuers": [
    {
      "id": 3200,
      "start_date": "1896-10-05",
      "end_date": "3999-12-31",
      "name": "SOCIÉTÉ GÉNÉRALE DES SUCRERIES ET DE LA RAFFINERIE D'EGYPTE"
    }
  ],
  "types": [
    {
      "start_date": "1896-10-05",
      "end_date": "3999-12-31",
      "id": 18,
      "name": "Action",
      "stock_group": "S"
    }
  ],
  "is_mainstock": 0,
  "prices_period": [
    "1896-10-05",
    "1898-03-15"
  ],
  "stock_exchanges": {
    "1": {
      "id": 1,
      "name": "Paris (Official List)",
      "notations": {
        "5709": {
          "id": 5709,
          "sector_id": 82,
          "start_date": "1896-10-05",
          "end_date": "1898-04-30",
          "names": [
            {
              "name": "Sucreries de la Haute-Egypte, act. nouv. 500 fr., t. p (nos 6001 à 10000)",
              "start_date": "1896-10-05",
              "end_date": "1898-04-30"
            },
            {
              "name": "Société Générale des Sucreries et de la Raffinerie d'Egypte, act. 500 fr., t. p., nos 6001 à 10000 .",
              "start_date": "1896-10-05",
              "end_date": "3999-12-31"
            }
          ]
        }
      },
      "listings_stats": {
        "start_date": "1896-10-05"
      },
      "spot_prices_stats": {
        "start_date": "1896-10-05",
        "end_date": "1898-03-15"
      }
    }
  },
  "prices_count": 13,
  "name": "Sucreries de la Haute-Egypte, act. nouv. 500 fr., t. p (nos 6001 à 10000)"
}