{
  "id": 103965,
  "share_type": {
    "id": 1,
    "name": "Stock (Action)"
  },
  "issuers": [
    {
      "id": 3102,
      "start_date": "1940-03-26",
      "end_date": "1940-04-03",
      "name": "COMPAGNiE GÉNÉRALE D'ÉLECTRICITÉ"
    }
  ],
  "types": [],
  "is_mainstock": 0,
  "prices_period": [
    "1940-04-01",
    "1940-04-01"
  ],
  "stock_exchanges": {
    "1": {
      "id": 1,
      "name": "Paris (Official List)",
      "notations": {
        "204149": {
          "id": 204149,
          "sector_id": 213,
          "start_date": "1940-03-26",
          "end_date": "1940-04-03",
          "names": [
            {
              "name": "Electricité (Cie Générale d'), act. 500 fr. (n° 247001 à 291750) (dr. et c. 71 att.)",
              "start_date": "1940-03-26",
              "end_date": "1940-04-03"
            }
          ]
        }
      },
      "listings_stats": {
        "start_date": "1940-03-26"
      },
      "spot_prices_stats": {
        "start_date": "1940-04-01",
        "end_date": "1940-04-01"
      }
    }
  },
  "prices_count": 1,
  "name": "Electricité (Cie Générale d'), act. 500 fr. (n° 247001 à 291750) (dr. et c. 71 att.)"
}