{
  "id": 10959,
  "share_type": {
    "id": 1,
    "name": "Stock (Action)"
  },
  "issuers": [
    {
      "id": 2973,
      "start_date": "1937-04-19",
      "end_date": "3999-12-31",
      "name": "SOCIETE DE LA SOIE ARTIFICIELLE D'IZIEUX"
    }
  ],
  "types": [
    {
      "start_date": "1937-04-19",
      "end_date": "3999-12-31",
      "id": 18,
      "name": "Action",
      "stock_group": "S"
    }
  ],
  "is_mainstock": 0,
  "prices_period": [
    "1937-04-20",
    "1937-06-15"
  ],
  "stock_exchanges": {
    "1": {
      "id": 1,
      "name": "Paris (Official List)",
      "notations": {
        "141534": {
          "id": 141534,
          "sector_id": 135,
          "start_date": "1937-04-19",
          "end_date": "1937-07-01",
          "names": [
            {
              "name": "Textiles Artificiels d'Izieux (en liquid.), act. 100 fr., t.p. (c. 3 att.)",
              "start_date": "1937-04-19",
              "end_date": "3999-12-31"
            }
          ]
        }
      },
      "listings_stats": {
        "start_date": "1937-04-19"
      },
      "spot_prices_stats": {
        "start_date": "1937-04-20",
        "end_date": "1937-06-15"
      }
    }
  },
  "prices_count": 6,
  "name": "Textiles Artificiels d'Izieux (en liquid.), act. 100 fr., t.p. (c. 3 att.)"
}