{
  "id": 21123,
  "share_type": {
    "id": 1,
    "name": "Stock (Action)"
  },
  "issuers": [
    {
      "id": 2738,
      "start_date": "1973-02-02",
      "end_date": "3999-12-31",
      "name": "ACIERIES DE PARIS ET D'OUTREAU"
    }
  ],
  "types": [
    {
      "start_date": "1973-02-02",
      "end_date": "3999-12-31",
      "id": 27,
      "name": "Promesse d'action",
      "stock_group": "S"
    }
  ],
  "is_mainstock": 0,
  "prices_period": [
    "1973-02-02",
    "1973-07-31"
  ],
  "stock_exchanges": {
    "1": {
      "id": 1,
      "name": "Paris (Official List)",
      "notations": {
        "151693": {
          "id": 151693,
          "sector_id": 104,
          "start_date": "1973-02-02",
          "end_date": "1973-08-06",
          "names": [
            {
              "name": "Paris et d'Outreau (Aciér. De), promesses (Jce 1/1/73)",
              "start_date": "1973-02-02",
              "end_date": "1973-08-06"
            },
            {
              "name": "Paris et d'Outreau (Aciér. De), act. (n° 1074001 à 1503600) (c. 28 att.)",
              "start_date": "1973-02-02",
              "end_date": "3999-12-31"
            }
          ]
        }
      },
      "listings_stats": {
        "start_date": "1973-02-02"
      },
      "spot_prices_stats": {
        "start_date": "1973-02-02",
        "end_date": "1973-07-31"
      }
    }
  },
  "prices_count": 13,
  "name": "Paris et d'Outreau (Aciér. De), promesses (Jce 1/1/73)"
}