{
  "id": 11590,
  "share_type": {
    "id": 1,
    "name": "Stock (Action)"
  },
  "issuers": [
    {
      "id": 2316,
      "start_date": "1942-01-20",
      "end_date": "3999-12-31",
      "name": "AGENCE HAVAS"
    }
  ],
  "types": [
    {
      "start_date": "1942-01-20",
      "end_date": "3999-12-31",
      "id": 33,
      "name": "Action A",
      "stock_group": "S"
    }
  ],
  "is_mainstock": 0,
  "prices_period": [
    "1942-02-02",
    "1953-06-01"
  ],
  "stock_exchanges": {
    "1": {
      "id": 1,
      "name": "Paris (Official List)",
      "notations": {
        "142165": {
          "id": 142165,
          "sector_id": 191,
          "start_date": "1942-01-20",
          "end_date": "1953-06-02",
          "names": [
            {
              "name": "Agence Havas, act. A 250 fr., t. p. (nom.)",
              "start_date": "1942-01-20",
              "end_date": "1953-06-02"
            },
            {
              "name": "Agence Havas, n. 250 f., t. p. (n°s 1 à 210000 et 682001 à 1364000) (ex-dr., est. Du 25/7/49) (nom.)",
              "start_date": "1942-01-20",
              "end_date": "1953-06-02"
            },
            {
              "name": "Agence Havas, a. 250 f., t. p. (n°1 à 210000 et 682001 à 1364000) (nom.)",
              "start_date": "1942-01-20",
              "end_date": "1953-06-02"
            },
            {
              "name": "Agence Havas, a. 250 f., t. p. (ex-dr. Est. Du 5/7/51) (n.)",
              "start_date": "1942-01-20",
              "end_date": "1953-06-02"
            },
            {
              "name": "Agence Havas, a. anc. 250 f., t. p. (ex-dr. Est. Du 5/7/51) (n.)",
              "start_date": "1942-01-20",
              "end_date": "3999-12-31"
            }
          ]
        }
      },
      "listings_stats": {
        "start_date": "1942-01-20"
      },
      "spot_prices_stats": {
        "start_date": "1942-02-02",
        "end_date": "1953-06-01"
      }
    }
  },
  "prices_count": 267,
  "name": "Agence Havas, a. 250 f., t. p. (ex-dr. Est. Du 5/7/51) (n.)"
}