{
  "id": 12660,
  "share_type": {
    "id": 2,
    "name": "Bond (Obligation)"
  },
  "issuers": [
    {
      "id": 4564,
      "start_date": "1947-09-15",
      "end_date": "3999-12-31",
      "name": "REGIE AUTONOME DES PETROLES"
    }
  ],
  "types": [
    {
      "start_date": "1947-09-15",
      "end_date": "3999-12-31",
      "id": 1001,
      "name": "Obligation ordinaire ou classique",
      "stock_group": "B"
    }
  ],
  "is_mainstock": 0,
  "prices_period": [
    "1947-09-16",
    "1965-03-31"
  ],
  "stock_exchanges": {
    "1": {
      "id": 1,
      "name": "Paris (Official List)",
      "notations": {
        "26832": {
          "id": 26832,
          "sector_id": 444,
          "start_date": "1955-12-01",
          "end_date": "1963-03-04",
          "names": [
            {
              "name": "Régie Autonome des Pétroles 4% 1947, r. à 5000 fr. (Jce 1/4/47) 1949-67",
              "start_date": "1947-09-15",
              "end_date": "1963-03-04"
            },
            {
              "name": "Régie Autonome des Pétroles 4% 1947, remb. À 5000 fr. 1949-67",
              "start_date": "1948-06-30",
              "end_date": "1963-03-04"
            },
            {
              "name": "Régie Autonome des Pétroles 4% 1947 (Rach. Ou Tir.) 1949-67",
              "start_date": "1955-12-01",
              "end_date": "3999-12-31"
            }
          ]
        },
        "31274": {
          "id": 31274,
          "sector_id": 371,
          "start_date": "1963-03-04",
          "end_date": "1965-04-01",
          "names": [
            {
              "name": "Régie Autonome des Pétroles 4% 1947, r. à 5000 fr. (Jce 1/4/47) 1949-67",
              "start_date": "1947-09-15",
              "end_date": "1965-04-01"
            },
            {
              "name": "Régie Autonome des Pétroles 4% 1947, remb. À 5000 fr. 1949-67",
              "start_date": "1948-06-30",
              "end_date": "1965-04-01"
            },
            {
              "name": "Régie Autonome des Pétroles 4% 1947 (Rach. Ou Tir.) 1949-67",
              "start_date": "1955-12-01",
              "end_date": "3999-12-31"
            }
          ]
        },
        "143235": {
          "id": 143235,
          "sector_id": 138,
          "start_date": "1947-09-15",
          "end_date": "1955-12-01",
          "names": [
            {
              "name": "Régie Autonome des Pétroles 4% 1947, r. à 5000 fr. (Jce 1/4/47) 1949-67",
              "start_date": "1947-09-15",
              "end_date": "1955-12-01"
            },
            {
              "name": "Régie Autonome des Pétroles 4% 1947, remb. À 5000 fr. 1949-67",
              "start_date": "1947-09-15",
              "end_date": "1955-12-01"
            },
            {
              "name": "Régie Autonome des Pétroles 4% 1947 (Rach. Ou Tir.) 1949-67",
              "start_date": "1947-09-15",
              "end_date": "3999-12-31"
            }
          ]
        }
      },
      "listings_stats": {
        "start_date": "1947-09-15"
      },
      "spot_prices_stats": {
        "start_date": "1947-09-16",
        "end_date": "1965-03-31"
      }
    }
  },
  "prices_count": 434,
  "name": "Régie Autonome des Pétroles 4% 1947, remb. À 5000 fr. 1949-67"
}