{
  "id": 14548,
  "share_type": {
    "id": 2,
    "name": "Bond (Obligation)"
  },
  "issuers": [
    {
      "id": 2912,
      "start_date": "1952-10-15",
      "end_date": "3999-12-31",
      "name": "ETATS : ALGERIE"
    }
  ],
  "types": [
    {
      "start_date": "1952-10-15",
      "end_date": "3999-12-31",
      "id": 1001,
      "name": "Obligation ordinaire ou classique",
      "stock_group": "B"
    }
  ],
  "is_mainstock": 0,
  "prices_period": [
    "1952-10-15",
    "1963-09-30"
  ],
  "stock_exchanges": {
    "1": {
      "id": 1,
      "name": "Paris (Official List)",
      "notations": {
        "31570": {
          "id": 31570,
          "sector_id": 596,
          "start_date": "1963-03-04",
          "end_date": "1963-10-15",
          "names": [
            {
              "name": "Algérie 5% 1952 (Emprunt de regroupement), remb. À 10000 fr. (c. 15/10/53 att.) 1952-63",
              "start_date": "1952-10-15",
              "end_date": "1963-10-15"
            },
            {
              "name": "Algérie 5% 1952, r. à 10000 fr. 1952-1963",
              "start_date": "1954-03-18",
              "end_date": "1963-10-15"
            },
            {
              "name": "Algérie 5% 1952, remb. À 10000 fr. 1952-53",
              "start_date": "1955-09-06",
              "end_date": "1963-10-15"
            },
            {
              "name": "Algérie 5% 1952 (Tir. 1/8/55) 1952-63",
              "start_date": "1955-12-01",
              "end_date": "1963-10-15"
            },
            {
              "name": "Algérie 5% 1952 (Tir. 6/8/62). 1952-63",
              "start_date": "1963-03-04",
              "end_date": "3999-12-31"
            }
          ]
        },
        "145123": {
          "id": 145123,
          "sector_id": 95,
          "start_date": "1952-10-15",
          "end_date": "1963-03-04",
          "names": [
            {
              "name": "Algérie 5% 1952 (Emprunt de regroupement), remb. À 10000 fr. (c. 15/10/53 att.) 1952-63",
              "start_date": "1952-10-15",
              "end_date": "1963-03-04"
            },
            {
              "name": "Algérie 5% 1952, r. à 10000 fr. 1952-1963",
              "start_date": "1952-10-15",
              "end_date": "1963-03-04"
            },
            {
              "name": "Algérie 5% 1952, remb. À 10000 fr. 1952-53",
              "start_date": "1952-10-15",
              "end_date": "1963-03-04"
            },
            {
              "name": "Algérie 5% 1952 (Tir. 1/8/55) 1952-63",
              "start_date": "1952-10-15",
              "end_date": "1963-10-15"
            },
            {
              "name": "Algérie 5% 1952 (Tir. 6/8/62). 1952-63",
              "start_date": "1952-10-15",
              "end_date": "3999-12-31"
            }
          ]
        }
      },
      "listings_stats": {
        "start_date": "1952-10-15"
      },
      "spot_prices_stats": {
        "start_date": "1952-10-15",
        "end_date": "1963-09-30"
      }
    }
  },
  "prices_count": 284,
  "name": "Algérie 5% 1952, remb. À 10000 fr. 1952-53"
}