{
  "id": 105631,
  "share_type": {
    "id": 5,
    "name": "Droits de souscription"
  },
  "issuers": [
    {
      "id": 10007,
      "start_date": "1951-04-09",
      "end_date": "1951-07-31",
      "name": "SOCIÉTÉ FRANÇAISE DE CONSTRUCTIONS MÉCANIQUES (Anciens Etablissements Cail)"
    }
  ],
  "types": [
    {
      "start_date": "1951-04-09",
      "end_date": "1951-07-31",
      "id": 501,
      "name": "Droit de souscription",
      "stock_group": "R"
    }
  ],
  "is_mainstock": 0,
  "prices_period": [
    null,
    null
  ],
  "stock_exchanges": {
    "1": {
      "id": 1,
      "name": "Paris (Official List)",
      "notations": {
        "206493": {
          "id": 206493,
          "sector_id": 657,
          "start_date": "1951-04-09",
          "end_date": "1951-07-31",
          "names": [
            {
              "name": "Act. 3000 fr. Constructions Mécaniques (Etabl. Cail) (droit et coup. 1) (1 act. Nouv. Émise à 3300 fr., jce 1/1/51, pour 1 action ancienne)",
              "start_date": "1951-04-09",
              "end_date": "1951-07-31"
            }
          ]
        }
      },
      "listings_stats": {
        "start_date": "1951-04-09"
      }
    }
  },
  "prices_count": 0,
  "name": "Act. 3000 fr. Constructions Mécaniques (Etabl. Cail) (droit et coup. 1) (1 act. Nouv. Émise à 3300 fr., jce 1/1/51, pour 1 action ancienne)"
}