{
  "id": 105314,
  "share_type": {
    "id": 1,
    "name": "Stock (Action)"
  },
  "issuers": [
    {
      "id": 12367,
      "start_date": "1893-05-15",
      "end_date": "1894-05-01",
      "name": "Cales de radoub et Corderie parisienne"
    }
  ],
  "types": [
    {
      "start_date": "1893-05-15",
      "end_date": "1894-05-01",
      "id": 18,
      "name": "Action",
      "stock_group": "S"
    }
  ],
  "is_mainstock": 1,
  "prices_period": [
    "1893-05-15",
    "1894-03-31"
  ],
  "stock_exchanges": {
    "2": {
      "id": 2,
      "name": "Paris OTC (Coulisse)",
      "notations": {
        "206050": {
          "id": 206050,
          "sector_id": 672,
          "start_date": "1893-05-15",
          "end_date": "1894-05-01",
          "names": [
            {
              "name": "Cales de Radoub et Corderie Parisiennes",
              "start_date": "1893-05-15",
              "end_date": "1894-05-01"
            }
          ]
        }
      },
      "listings_stats": {
        "start_date": "1893-05-15"
      },
      "spot_prices_stats": {
        "start_date": "1893-05-15",
        "end_date": "1894-03-31"
      }
    }
  },
  "prices_count": 26,
  "name": "Cales de Radoub et Corderie Parisiennes"
}