{
  "id": 106282,
  "share_type": {
    "id": 1,
    "name": "Stock (Action)"
  },
  "issuers": [
    {
      "id": 4124,
      "start_date": "1950-03-28",
      "end_date": "3999-12-31",
      "name": "MAISON BREGUET"
    }
  ],
  "types": [
    {
      "start_date": "1950-03-28",
      "end_date": "3999-12-31",
      "id": 18,
      "name": "Action",
      "stock_group": "S"
    }
  ],
  "is_mainstock": 0,
  "prices_period": [
    "1950-03-31",
    "1951-08-31"
  ],
  "stock_exchanges": {},
  "prices_count": 28
}