{
  "id": 2942,
  "share_type": {
    "id": 1,
    "name": "Stock (Action)"
  },
  "issuers": [
    {
      "id": 2324,
      "start_date": "1881-03-28",
      "end_date": "3999-12-31",
      "name": "Société du Canal de Pierrelatte et extensions"
    }
  ],
  "types": [
    {
      "start_date": "1881-03-28",
      "end_date": "3999-12-31",
      "id": 18,
      "name": "Action",
      "stock_group": "S"
    }
  ],
  "is_mainstock": 1,
  "prices_period": [
    "1881-03-28",
    "1922-10-16"
  ],
  "stock_exchanges": {
    "1": {
      "id": 1,
      "name": "Paris (Official List)",
      "notations": {
        "1639": {
          "id": 1639,
          "sector_id": 97,
          "start_date": "1902-05-26",
          "end_date": "1904-06-16",
          "names": [
            {
              "name": "Canal de Pierrelatte, act.500f.,125f.p. nominatives",
              "start_date": "1881-03-28",
              "end_date": "1904-06-16"
            },
            {
              "name": "Canal de Pierrelatte, act.500f.,125f.p.",
              "start_date": "1883-01-02",
              "end_date": "1904-06-16"
            },
            {
              "name": "Canal de Pierrelatte",
              "start_date": "1902-05-26",
              "end_date": "1920-01-02"
            },
            {
              "name": "Canal de Pierrelatte, act. de 500 fr. t. p.",
              "start_date": "1902-05-26",
              "end_date": "3999-12-31"
            }
          ]
        },
        "4041": {
          "id": 4041,
          "sector_id": 73,
          "start_date": "1881-03-28",
          "end_date": "1902-05-26",
          "names": [
            {
              "name": "Canal de Pierrelatte, act.500f.,125f.p. nominatives",
              "start_date": "1881-03-28",
              "end_date": "1902-05-26"
            },
            {
              "name": "Canal de Pierrelatte, act.500f.,125f.p.",
              "start_date": "1881-03-28",
              "end_date": "1904-06-16"
            },
            {
              "name": "Canal de Pierrelatte",
              "start_date": "1881-03-28",
              "end_date": "1920-01-02"
            },
            {
              "name": "Canal de Pierrelatte, act. de 500 fr. t. p.",
              "start_date": "1881-03-28",
              "end_date": "3999-12-31"
            }
          ]
        },
        "155245": {
          "id": 155245,
          "sector_id": 119,
          "start_date": "1904-06-16",
          "end_date": "1925-05-01",
          "names": [
            {
              "name": "Canal de Pierrelatte, act.500f.,125f.p. nominatives",
              "start_date": "1881-03-28",
              "end_date": "1925-05-01"
            },
            {
              "name": "Canal de Pierrelatte, act.500f.,125f.p.",
              "start_date": "1883-01-02",
              "end_date": "1925-05-01"
            },
            {
              "name": "Canal de Pierrelatte",
              "start_date": "1904-06-16",
              "end_date": "1925-05-01"
            },
            {
              "name": "Canal de Pierrelatte, act. de 500 fr. t. p.",
              "start_date": "1904-06-16",
              "end_date": "3999-12-31"
            }
          ]
        }
      },
      "listings_stats": {
        "start_date": "1881-03-28"
      },
      "spot_prices_stats": {
        "start_date": "1881-03-28",
        "end_date": "1922-10-16"
      }
    }
  },
  "prices_count": 168,
  "name": "Canal de Pierrelatte, act.500f.,125f.p."
}