{
  "id": 16059,
  "share_type": {
    "id": 1,
    "name": "Stock (Action)"
  },
  "issuers": [
    {
      "id": 4630,
      "start_date": "1959-12-22",
      "end_date": "3999-12-31",
      "name": "ETABLISSEMENTS KUHLMANN Manufactures de Produits Chimiques du Nord"
    }
  ],
  "types": [
    {
      "start_date": "1959-12-22",
      "end_date": "3999-12-31",
      "id": 19,
      "name": "Action primitive",
      "stock_group": "S"
    }
  ],
  "is_mainstock": 0,
  "prices_period": [
    "1959-12-22",
    "1960-06-30"
  ],
  "stock_exchanges": {
    "1": {
      "id": 1,
      "name": "Paris (Official List)",
      "notations": {
        "146634": {
          "id": 146634,
          "sector_id": 414,
          "start_date": "1959-12-22",
          "end_date": "1960-07-11",
          "names": [
            {
              "name": "Kuhlmann (etab), (manufacture de produits chimiques du nord) act nouv (numerotées à partir de 1291001)(jce 1/1/60)",
              "start_date": "1959-12-22",
              "end_date": "1960-07-11"
            },
            {
              "name": "Kuhlmann (etabl)(manufactures de produits chim du nord), act nouv (n 1291001 à 1791222)(ex-dr, )",
              "start_date": "1959-12-22",
              "end_date": "3999-12-31"
            }
          ]
        }
      },
      "listings_stats": {
        "start_date": "1959-12-22"
      },
      "spot_prices_stats": {
        "start_date": "1959-12-22",
        "end_date": "1960-06-30"
      }
    }
  },
  "prices_count": 17,
  "name": "Kuhlmann (etabl)(manufactures de produits chim du nord), act nouv (n 1291001 à 1791222)(ex-dr, )"
}