{
  "id": 5450,
  "share_type": {
    "id": 2,
    "name": "Bond (Obligation)"
  },
  "issuers": [
    {
      "id": 1711,
      "start_date": "1905-07-01",
      "end_date": "3999-12-31",
      "name": "Compagnie Madrilène d'éclairage et de Chauffage par le gaz"
    }
  ],
  "types": [
    {
      "start_date": "1905-07-01",
      "end_date": "3999-12-31",
      "id": 1001,
      "name": "Obligation ordinaire ou classique",
      "stock_group": "B"
    }
  ],
  "is_mainstock": 0,
  "prices_period": [
    "1905-07-01",
    "1907-07-01"
  ],
  "stock_exchanges": {
    "1": {
      "id": 1,
      "name": "Paris (Official List)",
      "notations": {
        "7855": {
          "id": 7855,
          "sector_id": 83,
          "start_date": "1905-07-01",
          "end_date": "1909-01-04",
          "names": [
            {
              "name": "Cie Madrilène du Gaz 4% est. (coup. 27 attaché)",
              "start_date": "1905-07-01",
              "end_date": "3999-12-31"
            }
          ]
        }
      },
      "listings_stats": {
        "start_date": "1905-07-01"
      },
      "spot_prices_stats": {
        "start_date": "1905-07-01",
        "end_date": "1907-07-01"
      }
    }
  },
  "prices_count": 26,
  "name": "Cie Madrilène du Gaz 4% est. (coup. 27 attaché)"
}