{
  "id": 12526,
  "share_type": {
    "id": 1,
    "name": "Stock (Action)"
  },
  "issuers": [
    {
      "id": 4380,
      "start_date": "1947-11-20",
      "end_date": "3999-12-31",
      "name": "S A. DE TELECOMMUNICATIONS"
    }
  ],
  "types": [
    {
      "start_date": "1947-11-20",
      "end_date": "3999-12-31",
      "id": 18,
      "name": "Action",
      "stock_group": "S"
    }
  ],
  "is_mainstock": 0,
  "prices_period": [
    "1947-11-25",
    "1952-01-31"
  ],
  "stock_exchanges": {
    "1": {
      "id": 1,
      "name": "Paris (Official List)",
      "notations": {
        "23644": {
          "id": 23644,
          "sector_id": 271,
          "start_date": "1949-10-03",
          "end_date": "1952-02-01",
          "names": [
            {
              "name": "Télécommunications (Sté Anonyme de), act. 500 fr., t.p.",
              "start_date": "1947-11-20",
              "end_date": "1952-02-01"
            },
            {
              "name": "Télécommunications (Sté Anonyme de), act. Anc. 750 fr., t. p.",
              "start_date": "1949-10-03",
              "end_date": "1952-02-01"
            },
            {
              "name": "Télécommunications (Sté an.), act. Anc. 750 fr., t.p.",
              "start_date": "1949-10-03",
              "end_date": "3999-12-31"
            }
          ]
        },
        "143101": {
          "id": 143101,
          "sector_id": 182,
          "start_date": "1947-11-20",
          "end_date": "1949-10-03",
          "names": [
            {
              "name": "Télécommunications (Sté Anonyme de), act. 500 fr., t.p.",
              "start_date": "1947-11-20",
              "end_date": "1951-01-15"
            },
            {
              "name": "Télécommunications (Sté Anonyme de), act. Anc. 750 fr., t. p.",
              "start_date": "1947-11-20",
              "end_date": "1952-02-01"
            },
            {
              "name": "Télécommunications (Sté an.), act. Anc. 750 fr., t.p.",
              "start_date": "1947-11-20",
              "end_date": "3999-12-31"
            }
          ]
        }
      },
      "listings_stats": {
        "start_date": "1947-11-20"
      },
      "spot_prices_stats": {
        "start_date": "1947-11-25",
        "end_date": "1952-01-31"
      }
    }
  },
  "prices_count": 104,
  "name": "Télécommunications (Sté Anonyme de), act. Anc. 750 fr., t. p."
}