{
  "id": 3203,
  "share_type": {
    "id": 2,
    "name": "Bond (Obligation)"
  },
  "issuers": [
    {
      "id": 1604,
      "start_date": "1877-08-02",
      "end_date": "3999-12-31",
      "name": "COMPAGNIE DES CHEMINS DE FER TUNISIENS (Anciennement Bône-Guelma et prolongements)"
    }
  ],
  "types": [
    {
      "start_date": "1877-08-02",
      "end_date": "3999-12-31",
      "id": 1001,
      "name": "Obligation ordinaire ou classique",
      "stock_group": "B"
    }
  ],
  "is_mainstock": 0,
  "prices_period": [
    "1877-08-02",
    "1892-04-30"
  ],
  "stock_exchanges": {
    "1": {
      "id": 1,
      "name": "Paris (Official List)",
      "notations": {
        "4302": {
          "id": 4302,
          "sector_id": 70,
          "start_date": "1877-08-02",
          "end_date": "1892-05-05",
          "names": [
            {
              "name": "Bône à Guelma 3%, r.à 500f., tout payé(intérêt et amort. gar.p.l'Etat.)",
              "start_date": "1877-08-02",
              "end_date": "1892-05-05"
            },
            {
              "name": "Bône-Guelma et prolong.3%, r.à 500f., tout payé(int. Et amt g.p.l'Etat.)",
              "start_date": "1877-08-02",
              "end_date": "1892-05-05"
            },
            {
              "name": "Bône-Guelma et prolong.3%, r.à 500f., (int. Et amt g.p.l'Etat.)",
              "start_date": "1877-08-02",
              "end_date": "3999-12-31"
            }
          ]
        }
      },
      "listings_stats": {
        "start_date": "1877-08-02"
      },
      "spot_prices_stats": {
        "start_date": "1877-08-02",
        "end_date": "1892-04-30"
      }
    }
  },
  "prices_count": 806,
  "name": "Bône-Guelma et prolong.3%, r.à 500f., tout payé(int. Et amt g.p.l'Etat.)"
}