{
  "id": 9692,
  "share_type": {
    "id": 2,
    "name": "Bond (Obligation)"
  },
  "issuers": [
    {
      "id": 3208,
      "start_date": "1930-11-05",
      "end_date": "3999-12-31",
      "name": "Compagnie Industrielle des Pétroles"
    }
  ],
  "types": [
    {
      "start_date": "1930-11-05",
      "end_date": "3999-12-31",
      "id": 1001,
      "name": "Obligation ordinaire ou classique",
      "stock_group": "B"
    }
  ],
  "is_mainstock": 0,
  "prices_period": [
    "1930-11-05",
    "1944-06-01"
  ],
  "stock_exchanges": {
    "1": {
      "id": 1,
      "name": "Paris (Official List)",
      "notations": {
        "14060": {
          "id": 14060,
          "sector_id": 138,
          "start_date": "1931-08-03",
          "end_date": "1940-06-11",
          "names": [
            {
              "name": "Pétroles (Cie Industrielle des) 5% 1930, remb. à 1000 fr.",
              "start_date": "1930-11-05",
              "end_date": "1940-10-14"
            },
            {
              "name": "Pétroles (Cie industrielle des) 5% 1930, remboursables à 1000 fr. 1931-55",
              "start_date": "1931-08-03",
              "end_date": "1944-05-15"
            },
            {
              "name": "Pétroles (Cie Industr. Des) 5% 1930, remboursables à 1000 fr. le 15 juin 1944",
              "start_date": "1931-08-03",
              "end_date": "3999-12-31"
            }
          ]
        },
        "20483": {
          "id": 20483,
          "sector_id": 138,
          "start_date": "1940-10-14",
          "end_date": "1944-06-15",
          "names": [
            {
              "name": "Pétroles (Cie Industrielle des) 5% 1930, remb. à 1000 fr.",
              "start_date": "1930-11-05",
              "end_date": "1944-06-15"
            },
            {
              "name": "Pétroles (Cie industrielle des) 5% 1930, remboursables à 1000 fr. 1931-55",
              "start_date": "1940-10-14",
              "end_date": "1944-06-15"
            },
            {
              "name": "Pétroles (Cie Industr. Des) 5% 1930, remboursables à 1000 fr. le 15 juin 1944",
              "start_date": "1940-10-14",
              "end_date": "3999-12-31"
            }
          ]
        },
        "140267": {
          "id": 140267,
          "sector_id": 185,
          "start_date": "1930-11-05",
          "end_date": "1931-08-03",
          "names": [
            {
              "name": "Pétroles (Cie Industrielle des) 5% 1930, remb. à 1000 fr.",
              "start_date": "1930-11-05",
              "end_date": "1940-10-14"
            },
            {
              "name": "Pétroles (Cie industrielle des) 5% 1930, remboursables à 1000 fr. 1931-55",
              "start_date": "1930-11-05",
              "end_date": "1944-05-15"
            },
            {
              "name": "Pétroles (Cie Industr. Des) 5% 1930, remboursables à 1000 fr. le 15 juin 1944",
              "start_date": "1930-11-05",
              "end_date": "3999-12-31"
            }
          ]
        }
      },
      "listings_stats": {
        "start_date": "1930-11-05"
      },
      "spot_prices_stats": {
        "start_date": "1930-11-05",
        "end_date": "1944-06-01"
      }
    }
  },
  "prices_count": 448,
  "name": "Pétroles (Cie industrielle des) 5% 1930, remboursables à 1000 fr. 1931-55"
}