{
  "id": 104687,
  "share_type": {
    "id": 5,
    "name": "Droits de souscription"
  },
  "issuers": [
    {
      "id": 3703,
      "start_date": "1944-11-06",
      "end_date": "1945-08-10",
      "name": "Société FINANCIERE FRANÇAISE ET COLONIALE"
    }
  ],
  "types": [
    {
      "start_date": "1944-11-06",
      "end_date": "1945-08-10",
      "id": 501,
      "name": "Droit de souscription",
      "stock_group": "R"
    }
  ],
  "is_mainstock": 0,
  "prices_period": [
    null,
    null
  ],
  "stock_exchanges": {
    "1": {
      "id": 1,
      "name": "Paris (Official List)",
      "notations": {
        "205090": {
          "id": 205090,
          "sector_id": 657,
          "start_date": "1944-11-06",
          "end_date": "1945-08-10",
          "names": [
            {
              "name": "Act. SOCIETE FINANCIERE FRANCAISE ET COLONIALE ( droit et coupon 17 ou bon de droit )",
              "start_date": "1944-11-06",
              "end_date": "1945-08-10"
            }
          ]
        }
      },
      "listings_stats": {
        "start_date": "1944-11-06"
      }
    }
  },
  "prices_count": 0,
  "name": "Act. SOCIETE FINANCIERE FRANCAISE ET COLONIALE ( droit et coupon 17 ou bon de droit )"
}