{
  "id": 14810,
  "share_type": {
    "id": 1,
    "name": "Stock (Action)"
  },
  "issuers": [
    {
      "id": 3985,
      "start_date": "1953-12-14",
      "end_date": "3999-12-31",
      "name": "SOCIETE GENERALE D'ENTREPRISES"
    }
  ],
  "types": [
    {
      "start_date": "1953-12-14",
      "end_date": "3999-12-31",
      "id": 11,
      "name": "Action ordinaire",
      "stock_group": "S"
    }
  ],
  "is_mainstock": 0,
  "prices_period": [
    "1953-12-14",
    "1976-12-31"
  ],
  "stock_exchanges": {
    "1": {
      "id": 1,
      "name": "Paris (Official List)",
      "notations": {
        "25798": {
          "id": 25798,
          "sector_id": 393,
          "start_date": "1955-12-01",
          "end_date": "1963-03-04",
          "names": [
            {
              "name": "Entreprises (Sté Gle d'), act. 5000 fr., t. p. (c. 1 att.)",
              "start_date": "1953-12-14",
              "end_date": "1963-03-04"
            },
            {
              "name": "Générale d'Entreprises (Sté), act.",
              "start_date": "1955-12-01",
              "end_date": "3999-12-31"
            }
          ]
        },
        "29879": {
          "id": 29879,
          "sector_id": 338,
          "start_date": "1963-03-04",
          "end_date": "3999-12-31",
          "names": [
            {
              "name": "Entreprises (Sté Gle d'), act. 5000 fr., t. p. (c. 1 att.)",
              "start_date": "1953-12-14",
              "end_date": "3999-12-31"
            },
            {
              "name": "Générale d'Entreprises (Sté), act.",
              "start_date": "1955-12-01",
              "end_date": "3999-12-31"
            }
          ]
        },
        "145385": {
          "id": 145385,
          "sector_id": 261,
          "start_date": "1953-12-14",
          "end_date": "1955-12-01",
          "names": [
            {
              "name": "Entreprises (Sté Gle d'), act. 5000 fr., t. p. (c. 1 att.)",
              "start_date": "1953-12-14",
              "end_date": "1955-12-01"
            },
            {
              "name": "Générale d'Entreprises (Sté), act.",
              "start_date": "1953-12-14",
              "end_date": "3999-12-31"
            }
          ]
        }
      },
      "listings_stats": {
        "start_date": "1953-12-14"
      },
      "spot_prices_stats": {
        "start_date": "1953-12-14",
        "end_date": "1976-12-31"
      }
    }
  },
  "prices_count": 620,
  "name": "Générale d'Entreprises (Sté), act."
}