{
  "id": 11191,
  "share_type": {
    "id": 1,
    "name": "Stock (Action)"
  },
  "issuers": [
    {
      "id": 2996,
      "start_date": "1938-05-06",
      "end_date": "3999-12-31",
      "name": "STÉ FSE DES DISTILLERIES DE L'INDO-CHINE"
    }
  ],
  "types": [
    {
      "start_date": "1938-05-06",
      "end_date": "3999-12-31",
      "id": 18,
      "name": "Action",
      "stock_group": "S"
    }
  ],
  "is_mainstock": 0,
  "prices_period": [
    "1938-05-06",
    "1939-05-01"
  ],
  "stock_exchanges": {
    "1": {
      "id": 1,
      "name": "Paris (Official List)",
      "notations": {
        "141766": {
          "id": 141766,
          "sector_id": 218,
          "start_date": "1938-05-06",
          "end_date": "1939-05-10",
          "names": [
            {
              "name": "Distilleries de l'Indo-Chine, Act. 100 fr., 62 fr. 50 p. (n°s 495001 à 750000) (nom.)",
              "start_date": "1938-05-06",
              "end_date": "3999-12-31"
            }
          ]
        }
      },
      "listings_stats": {
        "start_date": "1938-05-06"
      },
      "spot_prices_stats": {
        "start_date": "1938-05-06",
        "end_date": "1939-05-01"
      }
    }
  },
  "prices_count": 28,
  "name": "Distilleries de l'Indo-Chine, Act. 100 fr., 62 fr. 50 p. (n°s 495001 à 750000) (nom.)"
}