{
  "id": 12980,
  "share_type": {
    "id": 2,
    "name": "Bond (Obligation)"
  },
  "issuers": [
    {
      "id": 4378,
      "start_date": "1948-08-18",
      "end_date": "3999-12-31",
      "name": "COMPAGNIE DE SIGNAUX ET D'ENTREPRISES ELECTRIQUES"
    }
  ],
  "types": [
    {
      "start_date": "1948-08-18",
      "end_date": "3999-12-31",
      "id": 1001,
      "name": "Obligation ordinaire ou classique",
      "stock_group": "B"
    }
  ],
  "is_mainstock": 0,
  "prices_period": [
    "1948-08-19",
    "1973-08-31"
  ],
  "stock_exchanges": {
    "1": {
      "id": 1,
      "name": "Paris (Official List)",
      "notations": {
        "23681": {
          "id": 23681,
          "sector_id": 272,
          "start_date": "1949-10-03",
          "end_date": "1955-12-01",
          "names": [
            {
              "name": "Signaux et d'Entreprises Electriques (Cie de) 5% 1947, remb. À 5000 fr. 1948-77",
              "start_date": "1948-08-18",
              "end_date": "1955-12-01"
            },
            {
              "name": "Signaux et d'Entreprises Electriques (Cie de) 5% 1947 (Rach. Ou Tir.) 1948-77",
              "start_date": "1949-10-03",
              "end_date": "1973-09-17"
            },
            {
              "name": "Signaux et d'Entreprises Electriques (Cie de) 5% 1947 de 50 F (Tir. 28/8/73). 1948-77",
              "start_date": "1949-10-03",
              "end_date": "3999-12-31"
            }
          ]
        },
        "26759": {
          "id": 26759,
          "sector_id": 369,
          "start_date": "1955-12-01",
          "end_date": "1962-01-02",
          "names": [
            {
              "name": "Signaux et d'Entreprises Electriques (Cie de) 5% 1947, remb. À 5000 fr. 1948-77",
              "start_date": "1948-08-18",
              "end_date": "1962-01-02"
            },
            {
              "name": "Signaux et d'Entreprises Electriques (Cie de) 5% 1947 (Rach. Ou Tir.) 1948-77",
              "start_date": "1955-12-01",
              "end_date": "1973-09-17"
            },
            {
              "name": "Signaux et d'Entreprises Electriques (Cie de) 5% 1947 de 50 F (Tir. 28/8/73). 1948-77",
              "start_date": "1955-12-01",
              "end_date": "3999-12-31"
            }
          ]
        },
        "28370": {
          "id": 28370,
          "sector_id": 516,
          "start_date": "1962-01-02",
          "end_date": "1963-03-04",
          "names": [
            {
              "name": "Signaux et d'Entreprises Electriques (Cie de) 5% 1947, remb. À 5000 fr. 1948-77",
              "start_date": "1948-08-18",
              "end_date": "1963-03-04"
            },
            {
              "name": "Signaux et d'Entreprises Electriques (Cie de) 5% 1947 (Rach. Ou Tir.) 1948-77",
              "start_date": "1955-12-01",
              "end_date": "1973-09-17"
            },
            {
              "name": "Signaux et d'Entreprises Electriques (Cie de) 5% 1947 de 50 F (Tir. 28/8/73). 1948-77",
              "start_date": "1962-01-02",
              "end_date": "3999-12-31"
            }
          ]
        },
        "31051": {
          "id": 31051,
          "sector_id": 369,
          "start_date": "1963-03-04",
          "end_date": "1973-09-17",
          "names": [
            {
              "name": "Signaux et d'Entreprises Electriques (Cie de) 5% 1947, remb. À 5000 fr. 1948-77",
              "start_date": "1948-08-18",
              "end_date": "1973-09-17"
            },
            {
              "name": "Signaux et d'Entreprises Electriques (Cie de) 5% 1947 (Rach. Ou Tir.) 1948-77",
              "start_date": "1955-12-01",
              "end_date": "1973-09-17"
            },
            {
              "name": "Signaux et d'Entreprises Electriques (Cie de) 5% 1947 de 50 F (Tir. 28/8/73). 1948-77",
              "start_date": "1963-03-04",
              "end_date": "3999-12-31"
            }
          ]
        },
        "143555": {
          "id": 143555,
          "sector_id": 117,
          "start_date": "1948-08-18",
          "end_date": "1949-10-03",
          "names": [
            {
              "name": "Signaux et d'Entreprises Electriques (Cie de) 5% 1947, remb. À 5000 fr. 1948-77",
              "start_date": "1948-08-18",
              "end_date": "1955-12-01"
            },
            {
              "name": "Signaux et d'Entreprises Electriques (Cie de) 5% 1947 (Rach. Ou Tir.) 1948-77",
              "start_date": "1948-08-18",
              "end_date": "1973-09-17"
            },
            {
              "name": "Signaux et d'Entreprises Electriques (Cie de) 5% 1947 de 50 F (Tir. 28/8/73). 1948-77",
              "start_date": "1948-08-18",
              "end_date": "3999-12-31"
            }
          ]
        }
      },
      "listings_stats": {
        "start_date": "1948-08-18"
      },
      "spot_prices_stats": {
        "start_date": "1948-08-19",
        "end_date": "1973-08-31"
      }
    }
  },
  "prices_count": 617,
  "name": "Signaux et d'Entreprises Electriques (Cie de) 5% 1947 (Rach. Ou Tir.) 1948-77"
}