{
  "id": 13648,
  "share_type": {
    "id": 1,
    "name": "Stock (Action)"
  },
  "issuers": [
    {
      "id": 2346,
      "start_date": "1950-05-15",
      "end_date": "3999-12-31",
      "name": "LA PRÉVOYANCE COMPAGNIE D'ASSURANCES A PRIMES FIXES CONTRE LES ACCIDENTS DE TOUTE NATURE"
    }
  ],
  "types": [
    {
      "start_date": "1950-05-15",
      "end_date": "3999-12-31",
      "id": 18,
      "name": "Action",
      "stock_group": "S"
    }
  ],
  "is_mainstock": 0,
  "prices_period": [
    "1950-05-15",
    "1951-09-17"
  ],
  "stock_exchanges": {
    "1": {
      "id": 1,
      "name": "Paris (Official List)",
      "notations": {
        "144223": {
          "id": 144223,
          "sector_id": 250,
          "start_date": "1950-05-15",
          "end_date": "1951-10-01",
          "names": [
            {
              "name": "Prévoyance (La) (Assurances et Réassurances des risques de toute nature), act. 180 fr., 100 fr. remb. (n°s 1 à 6000) (nom.)",
              "start_date": "1950-05-15",
              "end_date": "1951-10-01"
            },
            {
              "name": "Prévoyance (La) (Assurances et Réassurances des risques de toute nature), Act. 250 fr., 100 fr. remb. (n°s 1 à 6000) (nom.)",
              "start_date": "1950-05-15",
              "end_date": "1951-10-01"
            },
            {
              "name": "Prévoyance (La) (Assurances et réassurances des risques de toute nature), act. 250 fr., 100 fr. remb. (n°1 à 60000) (nom.)",
              "start_date": "1950-05-15",
              "end_date": "3999-12-31"
            }
          ]
        }
      },
      "listings_stats": {
        "start_date": "1950-05-15"
      },
      "spot_prices_stats": {
        "start_date": "1950-05-15",
        "end_date": "1951-09-17"
      }
    }
  },
  "prices_count": 30,
  "name": "Prévoyance (La) (Assurances et Réassurances des risques de toute nature), Act. 250 fr., 100 fr. remb. (n°s 1 à 6000) (nom.)"
}