{
  "id": 3962,
  "share_type": {
    "id": 2,
    "name": "Bond (Obligation)"
  },
  "issuers": [
    {
      "id": 462,
      "start_date": "1894-10-29",
      "end_date": "3999-12-31",
      "name": "BELGIQUE"
    }
  ],
  "types": [
    {
      "start_date": "1894-10-29",
      "end_date": "3999-12-31",
      "id": 1001,
      "name": "Obligation ordinaire ou classique",
      "stock_group": "B"
    }
  ],
  "is_mainstock": 0,
  "prices_period": [
    "1896-04-30",
    "1976-12-31"
  ],
  "stock_exchanges": {
    "1": {
      "id": 1,
      "name": "Paris (Official List)",
      "notations": {
        "5061": {
          "id": 5061,
          "sector_id": 67,
          "start_date": "1894-10-29",
          "end_date": "1914-08-03",
          "names": [
            {
              "name": "Belgique 2,5%, coupures de 50 fr. de rente",
              "start_date": "1894-10-29",
              "end_date": "1925-05-01"
            },
            {
              "name": "Belgique 2,5% C. 50 fr. rente",
              "start_date": "1894-10-29",
              "end_date": "1934-01-02"
            },
            {
              "name": "Belgique 2,5%, C. 2000 fr. capital.",
              "start_date": "1894-10-29",
              "end_date": "1944-10-10"
            },
            {
              "name": "Belgique 2,5% Oblig. 2000 fr. cap.",
              "start_date": "1894-10-29",
              "end_date": "1955-12-01"
            },
            {
              "name": "Belgique 2,5% (tit. Nouv. Crées après le 6/10/44). Oblig. 2000 fr. cap.",
              "start_date": "1894-10-29",
              "end_date": "1966-01-02"
            },
            {
              "name": "Belgique 2,5% (tit. Nouv. créés après le 6 /10/44) (Jce 1/7/65) Oblig. 2000 FB cap",
              "start_date": "1894-10-29",
              "end_date": "1966-01-03"
            },
            {
              "name": "Belgique 2,5% (tit. Nouv.) (Jce 3/1/66) Oblig. 2000 FB cap",
              "start_date": "1894-10-29",
              "end_date": "3999-12-31"
            }
          ]
        },
        "6622": {
          "id": 6622,
          "sector_id": 67,
          "start_date": "1914-12-15",
          "end_date": "1925-05-01",
          "names": [
            {
              "name": "Belgique 2,5%, coupures de 50 fr. de rente",
              "start_date": "1894-10-29",
              "end_date": "1925-05-01"
            },
            {
              "name": "Belgique 2,5% C. 50 fr. rente",
              "start_date": "1914-12-15",
              "end_date": "1934-01-02"
            },
            {
              "name": "Belgique 2,5%, C. 2000 fr. capital.",
              "start_date": "1914-12-15",
              "end_date": "1944-10-10"
            },
            {
              "name": "Belgique 2,5% Oblig. 2000 fr. cap.",
              "start_date": "1914-12-15",
              "end_date": "1955-12-01"
            },
            {
              "name": "Belgique 2,5% (tit. Nouv. Crées après le 6/10/44). Oblig. 2000 fr. cap.",
              "start_date": "1914-12-15",
              "end_date": "1966-01-02"
            },
            {
              "name": "Belgique 2,5% (tit. Nouv. créés après le 6 /10/44) (Jce 1/7/65) Oblig. 2000 FB cap",
              "start_date": "1914-12-15",
              "end_date": "1966-01-03"
            },
            {
              "name": "Belgique 2,5% (tit. Nouv.) (Jce 3/1/66) Oblig. 2000 FB cap",
              "start_date": "1914-12-15",
              "end_date": "3999-12-31"
            }
          ]
        },
        "13149": {
          "id": 13149,
          "sector_id": 74,
          "start_date": "1925-05-01",
          "end_date": "1940-06-11",
          "names": [
            {
              "name": "Belgique 2,5%, coupures de 50 fr. de rente",
              "start_date": "1894-10-29",
              "end_date": "1940-06-11"
            },
            {
              "name": "Belgique 2,5% C. 50 fr. rente",
              "start_date": "1925-05-01",
              "end_date": "1940-06-11"
            },
            {
              "name": "Belgique 2,5%, C. 2000 fr. capital.",
              "start_date": "1925-05-01",
              "end_date": "1944-10-10"
            },
            {
              "name": "Belgique 2,5% Oblig. 2000 fr. cap.",
              "start_date": "1925-05-01",
              "end_date": "1955-12-01"
            },
            {
              "name": "Belgique 2,5% (tit. Nouv. Crées après le 6/10/44). Oblig. 2000 fr. cap.",
              "start_date": "1925-05-01",
              "end_date": "1966-01-02"
            },
            {
              "name": "Belgique 2,5% (tit. Nouv. créés après le 6 /10/44) (Jce 1/7/65) Oblig. 2000 FB cap",
              "start_date": "1925-05-01",
              "end_date": "1966-01-03"
            },
            {
              "name": "Belgique 2,5% (tit. Nouv.) (Jce 3/1/66) Oblig. 2000 FB cap",
              "start_date": "1925-05-01",
              "end_date": "3999-12-31"
            }
          ]
        },
        "22287": {
          "id": 22287,
          "sector_id": 74,
          "start_date": "1944-10-10",
          "end_date": "3999-12-31",
          "names": [
            {
              "name": "Belgique 2,5%, coupures de 50 fr. de rente",
              "start_date": "1894-10-29",
              "end_date": "3999-12-31"
            },
            {
              "name": "Belgique 2,5% C. 50 fr. rente",
              "start_date": "1925-05-01",
              "end_date": "3999-12-31"
            },
            {
              "name": "Belgique 2,5%, C. 2000 fr. capital.",
              "start_date": "1934-01-02",
              "end_date": "3999-12-31"
            },
            {
              "name": "Belgique 2,5% Oblig. 2000 fr. cap.",
              "start_date": "1944-10-10",
              "end_date": "3999-12-31"
            },
            {
              "name": "Belgique 2,5% (tit. Nouv. Crées après le 6/10/44). Oblig. 2000 fr. cap.",
              "start_date": "1944-10-10",
              "end_date": "3999-12-31"
            },
            {
              "name": "Belgique 2,5% (tit. Nouv. créés après le 6 /10/44) (Jce 1/7/65) Oblig. 2000 FB cap",
              "start_date": "1944-10-10",
              "end_date": "3999-12-31"
            },
            {
              "name": "Belgique 2,5% (tit. Nouv.) (Jce 3/1/66) Oblig. 2000 FB cap",
              "start_date": "1944-10-10",
              "end_date": "3999-12-31"
            }
          ]
        }
      },
      "listings_stats": {
        "start_date": "1894-10-29"
      },
      "spot_prices_stats": {
        "start_date": "1896-04-30",
        "end_date": "1976-12-31"
      }
    }
  },
  "prices_count": 1151,
  "name": "Belgique 2,5% Oblig. 2000 fr. cap."
}