{
  "id": 21888,
  "share_type": {
    "id": 2,
    "name": "Bond (Obligation)"
  },
  "issuers": [
    {
      "id": 4815,
      "start_date": "1975-12-22",
      "end_date": "3999-12-31",
      "name": "Compagnie Maritime des Chargeurs Réunis"
    }
  ],
  "types": [
    {
      "start_date": "1975-12-22",
      "end_date": "3999-12-31",
      "id": 1001,
      "name": "Obligation ordinaire ou classique",
      "stock_group": "B"
    }
  ],
  "is_mainstock": 0,
  "prices_period": [
    "1975-12-22",
    "1976-12-31"
  ],
  "stock_exchanges": {
    "1": {
      "id": 1,
      "name": "Paris (Official List)",
      "notations": {
        "152449": {
          "id": 152449,
          "sector_id": 112,
          "start_date": "1975-12-22",
          "end_date": "3999-12-31",
          "names": [
            {
              "name": "Maritime des Chargeurs Réunis (Cie) 10,80% 1975 de 1000 F (c.28/10/76 att.) (Avis 75-1009).1981-93",
              "start_date": "1975-12-22",
              "end_date": "3999-12-31"
            }
          ]
        }
      },
      "listings_stats": {
        "start_date": "1975-12-22"
      },
      "spot_prices_stats": {
        "start_date": "1975-12-22",
        "end_date": "1976-12-31"
      }
    }
  },
  "prices_count": 26,
  "name": "Maritime des Chargeurs Réunis (Cie) 10,80% 1975 de 1000 F (c.28/10/76 att.) (Avis 75-1009).1981-93"
}