{
  "id": 17323,
  "share_type": {
    "id": 1,
    "name": "Stock (Action)"
  },
  "issuers": [
    {
      "id": 5541,
      "start_date": "1965-07-16",
      "end_date": "3999-12-31",
      "name": "S.P.E.I.C.H.I.M. ( Société pour l'Equipement des Industries Chimiques)"
    }
  ],
  "types": [
    {
      "start_date": "1965-07-16",
      "end_date": "3999-12-31",
      "id": 27,
      "name": "Promesse d'action",
      "stock_group": "S"
    }
  ],
  "is_mainstock": 0,
  "prices_period": [
    "1965-07-19",
    "1966-06-15"
  ],
  "stock_exchanges": {
    "1": {
      "id": 1,
      "name": "Paris (Official List)",
      "notations": {
        "147898": {
          "id": 147898,
          "sector_id": 341,
          "start_date": "1965-07-16",
          "end_date": "1966-06-27",
          "names": [
            {
              "name": "S.P.E.I.C.H.I.M. (Sté Pour l'Équipement des Industries Chimiques), promesses (Jce 1/7/65)",
              "start_date": "1965-07-16",
              "end_date": "1966-06-27"
            },
            {
              "name": "S.P.E.I.C.H.I.M. (Sté Pour l'Équipement des Industries Chimiques), act. Nouv. (Jce 1/7/65)",
              "start_date": "1965-07-16",
              "end_date": "1966-06-27"
            },
            {
              "name": "S.P.E.I.C.H.I.M. (Sté Pour l'Équipement des Industries Chimiques), act. (n°s 72001 à 96000) (c. 9 étoilé att.)",
              "start_date": "1965-07-16",
              "end_date": "3999-12-31"
            }
          ]
        }
      },
      "listings_stats": {
        "start_date": "1965-07-16"
      },
      "spot_prices_stats": {
        "start_date": "1965-07-19",
        "end_date": "1966-06-15"
      }
    }
  },
  "prices_count": 23,
  "name": "S.P.E.I.C.H.I.M. (Sté Pour l'Équipement des Industries Chimiques), act. Nouv. (Jce 1/7/65)"
}