{
  "id": 10134,
  "share_type": {
    "id": 1,
    "name": "Stock (Action)"
  },
  "issuers": [
    {
      "id": 4934,
      "start_date": "1934-01-11",
      "end_date": "3999-12-31",
      "name": "N. V. Gemeenschappelijk Bezit van Andeelen Philips Gloeilampenfabrieken (Société holding)"
    }
  ],
  "types": [
    {
      "start_date": "1934-01-11",
      "end_date": "3999-12-31",
      "id": 13,
      "name": "Action privilégiée",
      "stock_group": "S"
    }
  ],
  "is_mainstock": 0,
  "prices_period": [
    "1934-01-11",
    "1971-09-15"
  ],
  "stock_exchanges": {
    "1": {
      "id": 1,
      "name": "Paris (Official List)",
      "notations": {
        "22813": {
          "id": 22813,
          "sector_id": 130,
          "start_date": "1944-10-10",
          "end_date": "1944-12-29",
          "names": [
            {
              "name": "Philips' (N. V. Gem. Bezit), act. Privil. 750 florins, t. p.",
              "start_date": "1934-01-11",
              "end_date": "1954-07-01"
            },
            {
              "name": "Philips' (N. V Gem. Bezit), act. priv. 1000 flor., t. p. (titres nouv.) (c. 61 att.) (Cf avis n° 30995)",
              "start_date": "1944-10-10",
              "end_date": "1955-12-01"
            },
            {
              "name": "Phillips' (N. V. Gem. Bezit), Act. Priv. 1000 flor., t. p. (ex-dr., )",
              "start_date": "1944-10-10",
              "end_date": "1962-01-02"
            },
            {
              "name": "PHILPS'(N.V.Gem.Bezit), act.priv.ord.coup. De 1000 FL",
              "start_date": "1944-10-10",
              "end_date": "1962-06-04"
            },
            {
              "name": "PHILPS'(N.V.Gem.Bezit), titres de 40 act. Priv. De 25 FL (anc. coup. D’act. Priv. De 1000 FL) (ex-dr., )",
              "start_date": "1944-10-10",
              "end_date": "1967-12-01"
            },
            {
              "name": "PHILIPS' (N.V. Gem. Bezit), titres provisoires de 40 act. Priv. De 25 FL (anc. Coup. D'act. Ordinaires de 1000 FL) (c. 101 att.)",
              "start_date": "1944-10-10",
              "end_date": "1969-05-12"
            },
            {
              "name": "PHILIPS' (N.V. Gem. Bezit), titres de 100 act. Priv. De 10 FL (anc. Coup. D'act. Priv. De 1000 FL)",
              "start_date": "1944-10-10",
              "end_date": "3999-12-31"
            }
          ]
        },
        "23057": {
          "id": 23057,
          "sector_id": 82,
          "start_date": "1944-12-29",
          "end_date": "1962-01-02",
          "names": [
            {
              "name": "Philips' (N. V. Gem. Bezit), act. Privil. 750 florins, t. p.",
              "start_date": "1934-01-11",
              "end_date": "1962-01-02"
            },
            {
              "name": "Philips' (N. V Gem. Bezit), act. priv. 1000 flor., t. p. (titres nouv.) (c. 61 att.) (Cf avis n° 30995)",
              "start_date": "1944-12-29",
              "end_date": "1962-01-02"
            },
            {
              "name": "Phillips' (N. V. Gem. Bezit), Act. Priv. 1000 flor., t. p. (ex-dr., )",
              "start_date": "1944-12-29",
              "end_date": "1962-01-02"
            },
            {
              "name": "PHILPS'(N.V.Gem.Bezit), act.priv.ord.coup. De 1000 FL",
              "start_date": "1944-12-29",
              "end_date": "1962-06-04"
            },
            {
              "name": "PHILPS'(N.V.Gem.Bezit), titres de 40 act. Priv. De 25 FL (anc. coup. D’act. Priv. De 1000 FL) (ex-dr., )",
              "start_date": "1944-12-29",
              "end_date": "1967-12-01"
            },
            {
              "name": "PHILIPS' (N.V. Gem. Bezit), titres provisoires de 40 act. Priv. De 25 FL (anc. Coup. D'act. Ordinaires de 1000 FL) (c. 101 att.)",
              "start_date": "1944-12-29",
              "end_date": "1969-05-12"
            },
            {
              "name": "PHILIPS' (N.V. Gem. Bezit), titres de 100 act. Priv. De 10 FL (anc. Coup. D'act. Priv. De 1000 FL)",
              "start_date": "1944-12-29",
              "end_date": "3999-12-31"
            }
          ]
        },
        "28770": {
          "id": 28770,
          "sector_id": 537,
          "start_date": "1962-01-02",
          "end_date": "1971-09-20",
          "names": [
            {
              "name": "Philips' (N. V. Gem. Bezit), act. Privil. 750 florins, t. p.",
              "start_date": "1934-01-11",
              "end_date": "1971-09-20"
            },
            {
              "name": "Philips' (N. V Gem. Bezit), act. priv. 1000 flor., t. p. (titres nouv.) (c. 61 att.) (Cf avis n° 30995)",
              "start_date": "1954-07-01",
              "end_date": "1971-09-20"
            },
            {
              "name": "Phillips' (N. V. Gem. Bezit), Act. Priv. 1000 flor., t. p. (ex-dr., )",
              "start_date": "1955-12-01",
              "end_date": "1971-09-20"
            },
            {
              "name": "PHILPS'(N.V.Gem.Bezit), act.priv.ord.coup. De 1000 FL",
              "start_date": "1962-01-02",
              "end_date": "1971-09-20"
            },
            {
              "name": "PHILPS'(N.V.Gem.Bezit), titres de 40 act. Priv. De 25 FL (anc. coup. D’act. Priv. De 1000 FL) (ex-dr., )",
              "start_date": "1962-01-02",
              "end_date": "1971-09-20"
            },
            {
              "name": "PHILIPS' (N.V. Gem. Bezit), titres provisoires de 40 act. Priv. De 25 FL (anc. Coup. D'act. Ordinaires de 1000 FL) (c. 101 att.)",
              "start_date": "1962-01-02",
              "end_date": "1971-09-20"
            },
            {
              "name": "PHILIPS' (N.V. Gem. Bezit), titres de 100 act. Priv. De 10 FL (anc. Coup. D'act. Priv. De 1000 FL)",
              "start_date": "1962-01-02",
              "end_date": "3999-12-31"
            }
          ]
        },
        "140709": {
          "id": 140709,
          "sector_id": 130,
          "start_date": "1934-01-11",
          "end_date": "1940-06-11",
          "names": [
            {
              "name": "Philips' (N. V. Gem. Bezit), act. Privil. 750 florins, t. p.",
              "start_date": "1934-01-11",
              "end_date": "1954-07-01"
            },
            {
              "name": "Philips' (N. V Gem. Bezit), act. priv. 1000 flor., t. p. (titres nouv.) (c. 61 att.) (Cf avis n° 30995)",
              "start_date": "1934-01-11",
              "end_date": "1955-12-01"
            },
            {
              "name": "Phillips' (N. V. Gem. Bezit), Act. Priv. 1000 flor., t. p. (ex-dr., )",
              "start_date": "1934-01-11",
              "end_date": "1962-01-02"
            },
            {
              "name": "PHILPS'(N.V.Gem.Bezit), act.priv.ord.coup. De 1000 FL",
              "start_date": "1934-01-11",
              "end_date": "1962-06-04"
            },
            {
              "name": "PHILPS'(N.V.Gem.Bezit), titres de 40 act. Priv. De 25 FL (anc. coup. D’act. Priv. De 1000 FL) (ex-dr., )",
              "start_date": "1934-01-11",
              "end_date": "1967-12-01"
            },
            {
              "name": "PHILIPS' (N.V. Gem. Bezit), titres provisoires de 40 act. Priv. De 25 FL (anc. Coup. D'act. Ordinaires de 1000 FL) (c. 101 att.)",
              "start_date": "1934-01-11",
              "end_date": "1969-05-12"
            },
            {
              "name": "PHILIPS' (N.V. Gem. Bezit), titres de 100 act. Priv. De 10 FL (anc. Coup. D'act. Priv. De 1000 FL)",
              "start_date": "1934-01-11",
              "end_date": "3999-12-31"
            }
          ]
        }
      },
      "listings_stats": {
        "start_date": "1934-01-11"
      },
      "spot_prices_stats": {
        "start_date": "1934-01-11",
        "end_date": "1971-09-15"
      }
    }
  },
  "prices_count": 687,
  "name": "PHILIPS' (N.V. Gem. Bezit), titres de 100 act. Priv. De 10 FL (anc. Coup. D'act. Priv. De 1000 FL)"
}