{
  "id": 3020,
  "share_type": {
    "id": 1,
    "name": "Stock (Action)"
  },
  "issuers": [
    {
      "id": 2237,
      "start_date": "1881-09-05",
      "end_date": "3999-12-31",
      "name": "Compagnie de navigation du Havre à Paris et Lyon"
    }
  ],
  "types": [
    {
      "start_date": "1881-09-05",
      "end_date": "3999-12-31",
      "id": 18,
      "name": "Action",
      "stock_group": "S"
    }
  ],
  "is_mainstock": 1,
  "prices_period": [
    "1881-09-05",
    "1897-06-15"
  ],
  "stock_exchanges": {
    "1": {
      "id": 1,
      "name": "Paris (Official List)",
      "notations": {
        "4119": {
          "id": 4119,
          "sector_id": 73,
          "start_date": "1881-09-05",
          "end_date": "1896-04-01",
          "names": [
            {
              "name": "Navigation du Havre à Paris et Lyon, act. 500f., t.p.",
              "start_date": "1881-09-05",
              "end_date": "1896-04-01"
            },
            {
              "name": "Navigation Havre à Paris et Lyon (Cie de), act. 500 fr. t. p. en liquid.",
              "start_date": "1881-09-05",
              "end_date": "1920-01-02"
            }
          ]
        },
        "155604": {
          "id": 155604,
          "sector_id": 121,
          "start_date": "1896-03-30",
          "end_date": "1898-01-10",
          "names": [
            {
              "name": "Navigation du Havre à Paris et Lyon, act. 500f., t.p.",
              "start_date": "1881-09-05",
              "end_date": "1898-01-10"
            },
            {
              "name": "Navigation Havre à Paris et Lyon (Cie de), act. 500 fr. t. p. en liquid.",
              "start_date": "1896-03-30",
              "end_date": "1920-01-02"
            }
          ]
        }
      },
      "listings_stats": {
        "start_date": "1881-09-05"
      },
      "spot_prices_stats": {
        "start_date": "1881-09-05",
        "end_date": "1897-06-15"
      }
    }
  },
  "prices_count": 521,
  "name": "Navigation du Havre à Paris et Lyon, act. 500f., t.p."
}