{
  "id": 9096,
  "share_type": {
    "id": 1,
    "name": "Stock (Action)"
  },
  "issuers": [
    {
      "id": 3125,
      "start_date": "1928-11-28",
      "end_date": "3999-12-31",
      "name": "SOCIÉTÉ MÉTALLURGIQUE DE L'ARIÈGE"
    }
  ],
  "types": [
    {
      "start_date": "1928-11-28",
      "end_date": "3999-12-31",
      "id": 13,
      "name": "Action privilégiée",
      "stock_group": "S"
    }
  ],
  "is_mainstock": 0,
  "prices_period": [
    "1928-11-28",
    "1931-01-31"
  ],
  "stock_exchanges": {
    "1": {
      "id": 1,
      "name": "Paris (Official List)",
      "notations": {
        "136543": {
          "id": 136543,
          "sector_id": 104,
          "start_date": "1928-11-28",
          "end_date": "1930-02-22",
          "names": [
            {
              "name": "Métallurgique de l'Ariège, act. privil. 250 fr., t.p. (nos 56001 à 100000)",
              "start_date": "1928-11-28",
              "end_date": "1930-02-22"
            }
          ]
        }
      },
      "listings_stats": {
        "start_date": "1928-11-28"
      },
      "spot_prices_stats": {
        "start_date": "1928-11-28",
        "end_date": "1931-01-31"
      }
    }
  },
  "prices_count": 69,
  "name": "Métallurgique de l'Ariège, act. privil. 250 fr., t.p. (nos 56001 à 100000)"
}