{
  "id": 6611,
  "share_type": {
    "id": 1,
    "name": "Stock (Action)"
  },
  "issuers": [
    {
      "id": 3406,
      "start_date": "1919-12-30",
      "end_date": "3999-12-31",
      "name": "BANQUE DE COMMERCE DE SIBERIE"
    }
  ],
  "types": [
    {
      "start_date": "1919-12-30",
      "end_date": "3999-12-31",
      "id": 18,
      "name": "Action",
      "stock_group": "S"
    }
  ],
  "is_mainstock": 0,
  "prices_period": [
    null,
    null
  ],
  "stock_exchanges": {
    "1": {
      "id": 1,
      "name": "Paris (Official List)",
      "notations": {
        "33483": {
          "id": 33483,
          "sector_id": 155,
          "start_date": "1920-01-02",
          "end_date": "1923-03-27",
          "names": [
            {
              "name": "Banque de Commerce de Sibérie, act. 250 r., t. p., (ex-div. 1916) coup de 2, non estamp.",
              "start_date": "1919-12-30",
              "end_date": "3999-12-31"
            }
          ]
        }
      },
      "listings_stats": {
        "start_date": "1920-01-02"
      }
    }
  },
  "prices_count": 0,
  "name": "Banque de Commerce de Sibérie, act. 250 r., t. p., (ex-div. 1916) coup de 2, non estamp."
}