{
  "id": 12990,
  "share_type": {
    "id": 2,
    "name": "Bond (Obligation)"
  },
  "issuers": [
    {
      "id": 5303,
      "start_date": "1948-08-17",
      "end_date": "3999-12-31",
      "name": "SOCIETE NOBEL FRANÇAISE (Anciennement Sté Gle pour la Fabrication de la Dynamite)"
    }
  ],
  "types": [
    {
      "start_date": "1948-08-17",
      "end_date": "3999-12-31",
      "id": 1001,
      "name": "Obligation ordinaire ou classique",
      "stock_group": "B"
    }
  ],
  "is_mainstock": 0,
  "prices_period": [
    "1948-08-18",
    "1954-03-01"
  ],
  "stock_exchanges": {
    "1": {
      "id": 1,
      "name": "Paris (Official List)",
      "notations": {
        "143565": {
          "id": 143565,
          "sector_id": 247,
          "start_date": "1948-08-17",
          "end_date": "1954-03-15",
          "names": [
            {
              "name": "Nobel Française (Sté) 5,5% 1947, remb. À 5000 fr. 1948-72",
              "start_date": "1948-08-17",
              "end_date": "3999-12-31"
            }
          ]
        }
      },
      "listings_stats": {
        "start_date": "1948-08-17"
      },
      "spot_prices_stats": {
        "start_date": "1948-08-18",
        "end_date": "1954-03-01"
      }
    }
  },
  "prices_count": 131,
  "name": "Nobel Française (Sté) 5,5% 1947, remb. À 5000 fr. 1948-72"
}