{
  "id": 35371,
  "share_type": {
    "id": 2,
    "name": "Bond (Obligation)"
  },
  "issuers": [
    {
      "id": 566,
      "start_date": "1966-12-12",
      "end_date": "3999-12-31",
      "name": "Crédit Foncier de France"
    }
  ],
  "types": [
    {
      "start_date": "1966-12-12",
      "end_date": "3999-12-31",
      "id": 1001,
      "name": "Obligation ordinaire ou classique",
      "stock_group": "B"
    }
  ],
  "is_mainstock": 0,
  "prices_period": [
    "1966-12-12",
    "1976-12-31"
  ],
  "stock_exchanges": {
    "1": {
      "id": 1,
      "name": "Paris (Official List)",
      "notations": {
        "153226": {
          "id": 153226,
          "sector_id": 190,
          "start_date": "1966-12-12",
          "end_date": "3999-12-31",
          "names": [
            {
              "name": "Foncier et Communal 6,25% SEPTEMBRE 1966 DE 250 F, à lots (c. 18/9/67 att.)1967-86",
              "start_date": "1966-12-12",
              "end_date": "3999-12-31"
            }
          ]
        }
      },
      "listings_stats": {
        "start_date": "1966-12-12"
      },
      "spot_prices_stats": {
        "start_date": "1966-12-12",
        "end_date": "1976-12-31"
      }
    }
  },
  "prices_count": 246,
  "name": "Foncier et Communal 6,25% SEPTEMBRE 1966 DE 250 F, à lots (c. 18/9/67 att.)1967-86"
}