{
  "id": 2090,
  "share_type": {
    "id": 2,
    "name": "Bond (Obligation)"
  },
  "issuers": [
    {
      "id": 449,
      "start_date": "1875-08-07",
      "end_date": "3999-12-31",
      "name": "EMPRUNT ESPAGNOL"
    }
  ],
  "types": [
    {
      "start_date": "1875-08-07",
      "end_date": "3999-12-31",
      "id": 1001,
      "name": "Obligation ordinaire ou classique",
      "stock_group": "B"
    }
  ],
  "is_mainstock": 0,
  "prices_period": [
    "1875-08-07",
    "1877-01-15"
  ],
  "stock_exchanges": {
    "1": {
      "id": 1,
      "name": "Paris (Official List)",
      "notations": {
        "3189": {
          "id": 3189,
          "sector_id": 67,
          "start_date": "1875-08-07",
          "end_date": "1877-01-24",
          "names": [
            {
              "name": "Espagne, Extérieure, 56-67-69-70",
              "start_date": "1875-08-07",
              "end_date": "3999-12-31"
            }
          ]
        }
      },
      "forward_prices_stats": {
        "start_date": "1875-09-30",
        "end_date": "1876-08-16"
      },
      "listings_stats": {
        "start_date": "1875-08-07"
      },
      "spot_prices_stats": {
        "start_date": "1875-08-07",
        "end_date": "1877-01-15"
      }
    }
  },
  "prices_count": 82,
  "name": "Espagne, Extérieure, 56-67-69-70"
}