{
  "id": 20769,
  "share_type": {
    "id": 1,
    "name": "Stock (Action)"
  },
  "issuers": [
    {
      "id": 5656,
      "start_date": "1971-06-07",
      "end_date": "3999-12-31",
      "name": "HOLDING de la Compagnie Est-Asiatique (Danois)"
    }
  ],
  "types": [
    {
      "start_date": "1971-06-07",
      "end_date": "3999-12-31",
      "id": 18,
      "name": "Action",
      "stock_group": "S"
    }
  ],
  "is_mainstock": 0,
  "prices_period": [
    "1971-06-07",
    "1972-05-31"
  ],
  "stock_exchanges": {
    "1": {
      "id": 1,
      "name": "Paris (Official List)",
      "notations": {
        "151339": {
          "id": 151339,
          "sector_id": 545,
          "start_date": "1971-06-07",
          "end_date": "1972-06-06",
          "names": [
            {
              "name": "Est-Asiatique (Danois)(Sté Holding de la Cie de l'), actions 25 KRD (Jce 1/5/71) (Avis 71-381) - Coup.de 160 KRD",
              "start_date": "1971-06-07",
              "end_date": "3999-12-31"
            }
          ]
        }
      },
      "listings_stats": {
        "start_date": "1971-06-07"
      },
      "spot_prices_stats": {
        "start_date": "1971-06-07",
        "end_date": "1972-05-31"
      }
    }
  },
  "prices_count": 25,
  "name": "Est-Asiatique (Danois)(Sté Holding de la Cie de l'), actions 25 KRD (Jce 1/5/71) (Avis 71-381) - Coup.de 160 KRD"
}