{
  "id": 309,
  "share_type": {
    "id": 2,
    "name": "Bond (Obligation)"
  },
  "issuers": [],
  "types": [
    {
      "start_date": "1840-12-01",
      "end_date": "3999-12-31",
      "id": 1013,
      "name": "Bons du Trésor",
      "stock_group": "B"
    }
  ],
  "is_mainstock": 0,
  "prices_period": [
    "1841-09-30",
    "1884-12-15"
  ],
  "stock_exchanges": {
    "1": {
      "id": 1,
      "name": "Paris (Official List)",
      "notations": {
        "445": {
          "id": 445,
          "sector_id": 574,
          "start_date": "1840-12-01",
          "end_date": "1879-12-31",
          "names": [
            {
              "name": "Bons du Trésor à 3 mois",
              "start_date": "1840-12-01",
              "end_date": "3999-12-31"
            }
          ]
        },
        "90048": {
          "id": 90048,
          "sector_id": 10,
          "start_date": "1875-06-24",
          "end_date": "1885-01-11",
          "names": [
            {
              "name": "Bons du Trésor à 3 mois",
              "start_date": "1840-12-01",
              "end_date": "3999-12-31"
            }
          ]
        }
      },
      "listings_stats": {
        "start_date": "1840-12-01"
      },
      "spot_prices_stats": {
        "start_date": "1841-09-30",
        "end_date": "1884-12-15"
      }
    }
  },
  "prices_count": 63,
  "name": "Bons du Trésor à 3 mois"
}