{
  "id": 14323,
  "share_type": {
    "id": 1,
    "name": "Stock (Action)"
  },
  "issuers": [
    {
      "id": 4069,
      "start_date": "1952-01-10",
      "end_date": "3999-12-31",
      "name": "CARRIÈRES ET SCIERIES DE FRANCE (Anciens Etablissements Civet, Pommier et Cie)"
    }
  ],
  "types": [
    {
      "start_date": "1952-01-10",
      "end_date": "3999-12-31",
      "id": 11,
      "name": "Action ordinaire",
      "stock_group": "S"
    }
  ],
  "is_mainstock": 0,
  "prices_period": [
    "1952-01-11",
    "1957-12-31"
  ],
  "stock_exchanges": {
    "1": {
      "id": 1,
      "name": "Paris (Official List)",
      "notations": {
        "25828": {
          "id": 25828,
          "sector_id": 395,
          "start_date": "1955-12-01",
          "end_date": "1958-01-02",
          "names": [
            {
              "name": "Civet, Pommier et Cie (Anc. Et.) (Carr, Scier. France), act. 2500 fr., t. p. (c. 1 att.)",
              "start_date": "1952-01-10",
              "end_date": "1958-01-02"
            },
            {
              "name": "Civet, Pommier et de Cie (Anc. Etabl.) (Carrières et Scieries de France), act.",
              "start_date": "1955-12-01",
              "end_date": "1961-01-02"
            },
            {
              "name": "Civet, pommier et cie",
              "start_date": "1955-12-01",
              "end_date": "3999-12-31"
            }
          ]
        },
        "27585": {
          "id": 27585,
          "sector_id": 232,
          "start_date": "1958-01-02",
          "end_date": "1961-01-02",
          "names": [
            {
              "name": "Civet, Pommier et Cie (Anc. Et.) (Carr, Scier. France), act. 2500 fr., t. p. (c. 1 att.)",
              "start_date": "1952-01-10",
              "end_date": "1961-01-02"
            },
            {
              "name": "Civet, Pommier et de Cie (Anc. Etabl.) (Carrières et Scieries de France), act.",
              "start_date": "1955-12-01",
              "end_date": "1961-01-02"
            },
            {
              "name": "Civet, pommier et cie",
              "start_date": "1958-01-02",
              "end_date": "3999-12-31"
            }
          ]
        },
        "144898": {
          "id": 144898,
          "sector_id": 181,
          "start_date": "1952-01-10",
          "end_date": "1955-12-01",
          "names": [
            {
              "name": "Civet, Pommier et Cie (Anc. Et.) (Carr, Scier. France), act. 2500 fr., t. p. (c. 1 att.)",
              "start_date": "1952-01-10",
              "end_date": "1955-12-01"
            },
            {
              "name": "Civet, Pommier et de Cie (Anc. Etabl.) (Carrières et Scieries de France), act.",
              "start_date": "1952-01-10",
              "end_date": "1961-01-02"
            },
            {
              "name": "Civet, pommier et cie",
              "start_date": "1952-01-10",
              "end_date": "3999-12-31"
            }
          ]
        }
      },
      "listings_stats": {
        "start_date": "1952-01-10"
      },
      "spot_prices_stats": {
        "start_date": "1952-01-11",
        "end_date": "1957-12-31"
      }
    }
  },
  "prices_count": 164,
  "name": "Civet, Pommier et de Cie (Anc. Etabl.) (Carrières et Scieries de France), act."
}