{
  "id": 15061,
  "share_type": {
    "id": 2,
    "name": "Bond (Obligation)"
  },
  "issuers": [
    {
      "id": 5510,
      "start_date": "1955-08-10",
      "end_date": "3999-12-31",
      "name": "SCHNEIDER ET Cie (LE CREUSOT)"
    }
  ],
  "types": [
    {
      "start_date": "1955-08-10",
      "end_date": "3999-12-31",
      "id": 1001,
      "name": "Obligation ordinaire ou classique",
      "stock_group": "B"
    }
  ],
  "is_mainstock": 0,
  "prices_period": [
    "1955-08-10",
    "1973-08-31"
  ],
  "stock_exchanges": {
    "1": {
      "id": 1,
      "name": "Paris (Official List)",
      "notations": {
        "28494": {
          "id": 28494,
          "sector_id": 517,
          "start_date": "1962-01-02",
          "end_date": "1963-03-04",
          "names": [
            {
              "name": "Schneider et Cie 3,75% nouv., remb. À 10000 fr. (c. 10/9/55 att) 1955-75",
              "start_date": "1955-08-10",
              "end_date": "1963-03-04"
            },
            {
              "name": "Schneider et Cie 3,75% nouv. (c. 10/9/55 att.) 1955-75",
              "start_date": "1955-12-01",
              "end_date": "1966-10-17"
            },
            {
              "name": "Schneider S.A. 3,3/4% (Rach. Ou Tir.) 1955-75",
              "start_date": "1962-01-02",
              "end_date": "1973-09-17"
            },
            {
              "name": "Schneider S.A. 3,75% de 100 F (Tirage 9/2/73). 1955-75",
              "start_date": "1962-01-02",
              "end_date": "3999-12-31"
            }
          ]
        },
        "31220": {
          "id": 31220,
          "sector_id": 111,
          "start_date": "1963-03-04",
          "end_date": "1966-11-02",
          "names": [
            {
              "name": "Schneider et Cie 3,75% nouv., remb. À 10000 fr. (c. 10/9/55 att) 1955-75",
              "start_date": "1955-08-10",
              "end_date": "1966-11-02"
            },
            {
              "name": "Schneider et Cie 3,75% nouv. (c. 10/9/55 att.) 1955-75",
              "start_date": "1955-12-01",
              "end_date": "1966-11-02"
            },
            {
              "name": "Schneider S.A. 3,3/4% (Rach. Ou Tir.) 1955-75",
              "start_date": "1963-03-04",
              "end_date": "1973-09-17"
            },
            {
              "name": "Schneider S.A. 3,75% de 100 F (Tirage 9/2/73). 1955-75",
              "start_date": "1963-03-04",
              "end_date": "3999-12-31"
            }
          ]
        },
        "32007": {
          "id": 32007,
          "sector_id": 357,
          "start_date": "1966-11-02",
          "end_date": "1967-04-29",
          "names": [
            {
              "name": "Schneider et Cie 3,75% nouv., remb. À 10000 fr. (c. 10/9/55 att) 1955-75",
              "start_date": "1955-08-10",
              "end_date": "1967-04-29"
            },
            {
              "name": "Schneider et Cie 3,75% nouv. (c. 10/9/55 att.) 1955-75",
              "start_date": "1955-12-01",
              "end_date": "1967-04-29"
            },
            {
              "name": "Schneider S.A. 3,3/4% (Rach. Ou Tir.) 1955-75",
              "start_date": "1966-10-17",
              "end_date": "1973-09-17"
            },
            {
              "name": "Schneider S.A. 3,75% de 100 F (Tirage 9/2/73). 1955-75",
              "start_date": "1966-11-02",
              "end_date": "3999-12-31"
            }
          ]
        },
        "32098": {
          "id": 32098,
          "sector_id": 614,
          "start_date": "1967-04-29",
          "end_date": "1973-09-17",
          "names": [
            {
              "name": "Schneider et Cie 3,75% nouv., remb. À 10000 fr. (c. 10/9/55 att) 1955-75",
              "start_date": "1955-08-10",
              "end_date": "1973-09-17"
            },
            {
              "name": "Schneider et Cie 3,75% nouv. (c. 10/9/55 att.) 1955-75",
              "start_date": "1955-12-01",
              "end_date": "1973-09-17"
            },
            {
              "name": "Schneider S.A. 3,3/4% (Rach. Ou Tir.) 1955-75",
              "start_date": "1966-10-17",
              "end_date": "1973-09-17"
            },
            {
              "name": "Schneider S.A. 3,75% de 100 F (Tirage 9/2/73). 1955-75",
              "start_date": "1967-04-29",
              "end_date": "3999-12-31"
            }
          ]
        },
        "145636": {
          "id": 145636,
          "sector_id": 111,
          "start_date": "1955-08-10",
          "end_date": "1962-01-02",
          "names": [
            {
              "name": "Schneider et Cie 3,75% nouv., remb. À 10000 fr. (c. 10/9/55 att) 1955-75",
              "start_date": "1955-08-10",
              "end_date": "1962-01-02"
            },
            {
              "name": "Schneider et Cie 3,75% nouv. (c. 10/9/55 att.) 1955-75",
              "start_date": "1955-08-10",
              "end_date": "1966-10-17"
            },
            {
              "name": "Schneider S.A. 3,3/4% (Rach. Ou Tir.) 1955-75",
              "start_date": "1955-08-10",
              "end_date": "1973-09-17"
            },
            {
              "name": "Schneider S.A. 3,75% de 100 F (Tirage 9/2/73). 1955-75",
              "start_date": "1955-08-10",
              "end_date": "3999-12-31"
            }
          ]
        }
      },
      "listings_stats": {
        "start_date": "1955-08-10"
      },
      "spot_prices_stats": {
        "start_date": "1955-08-10",
        "end_date": "1973-08-31"
      }
    }
  },
  "prices_count": 454,
  "name": "Schneider et Cie 3,75% nouv. (c. 10/9/55 att.) 1955-75"
}