{
  "id": 9553,
  "share_type": {
    "id": 2,
    "name": "Bond (Obligation)"
  },
  "issuers": [
    {
      "id": 4824,
      "start_date": "1910-03-12",
      "end_date": "3999-12-31",
      "name": "CHEMIN DE FER DE DAMAS-HAMAH ET PROLONGEMENTS (Anciennement SOCIÉTÉ OTTOMANE)"
    }
  ],
  "types": [
    {
      "start_date": "1910-03-12",
      "end_date": "3999-12-31",
      "id": 1001,
      "name": "Obligation ordinaire ou classique",
      "stock_group": "B"
    }
  ],
  "is_mainstock": 0,
  "prices_period": [
    "1910-03-12",
    "1955-01-31"
  ],
  "stock_exchanges": {
    "1": {
      "id": 1,
      "name": "Paris (Official List)",
      "notations": {
        "8149": {
          "id": 8149,
          "sector_id": 68,
          "start_date": "1910-03-12",
          "end_date": "1914-08-03",
          "names": [
            {
              "name": "Damas-Hamah et prolongements (Ste Ottomane du chemin de fer de), obligations 4% 1909 (Homs Tripoli), remb. à 500 fr",
              "start_date": "1910-03-12",
              "end_date": "1918-04-02"
            },
            {
              "name": "Damas-Hamah et prol, 4% 1909 (Homs-Triploi) remb à 500 fr",
              "start_date": "1910-03-12",
              "end_date": "1925-05-01"
            },
            {
              "name": "Damas-Hamah et Prolongements 4% 1909 (Homs-Tripoli), remb. à 500 fr., estamp. (ex-répart.)",
              "start_date": "1910-03-12",
              "end_date": "1940-10-14"
            },
            {
              "name": "Damas-Hamah et prolongement 4% 1909 (Homs-Tripoli), remb. À 500 fr., est. (ex-répart). 1910-94",
              "start_date": "1910-03-12",
              "end_date": "1948-06-30"
            },
            {
              "name": "Damas-Hamah et prolongements 4% 1909 (Homs-Tripoli), remb. À 500 fr. est. (ex-répart.) (Cf. Avis n° 10054, 10066 et 10085), 1910-94",
              "start_date": "1910-03-12",
              "end_date": "3999-12-31"
            }
          ]
        },
        "8895": {
          "id": 8895,
          "sector_id": 68,
          "start_date": "1914-12-15",
          "end_date": "1918-04-02",
          "names": [
            {
              "name": "Damas-Hamah et prolongements (Ste Ottomane du chemin de fer de), obligations 4% 1909 (Homs Tripoli), remb. à 500 fr",
              "start_date": "1910-03-12",
              "end_date": "1918-04-02"
            },
            {
              "name": "Damas-Hamah et prol, 4% 1909 (Homs-Triploi) remb à 500 fr",
              "start_date": "1914-12-15",
              "end_date": "1925-05-01"
            },
            {
              "name": "Damas-Hamah et Prolongements 4% 1909 (Homs-Tripoli), remb. à 500 fr., estamp. (ex-répart.)",
              "start_date": "1914-12-15",
              "end_date": "1940-10-14"
            },
            {
              "name": "Damas-Hamah et prolongement 4% 1909 (Homs-Tripoli), remb. À 500 fr., est. (ex-répart). 1910-94",
              "start_date": "1914-12-15",
              "end_date": "1948-06-30"
            },
            {
              "name": "Damas-Hamah et prolongements 4% 1909 (Homs-Tripoli), remb. À 500 fr. est. (ex-répart.) (Cf. Avis n° 10054, 10066 et 10085), 1910-94",
              "start_date": "1914-12-15",
              "end_date": "3999-12-31"
            }
          ]
        },
        "9508": {
          "id": 9508,
          "sector_id": 144,
          "start_date": "1918-04-02",
          "end_date": "1925-05-01",
          "names": [
            {
              "name": "Damas-Hamah et prolongements (Ste Ottomane du chemin de fer de), obligations 4% 1909 (Homs Tripoli), remb. à 500 fr",
              "start_date": "1910-03-12",
              "end_date": "1925-05-01"
            },
            {
              "name": "Damas-Hamah et prol, 4% 1909 (Homs-Triploi) remb à 500 fr",
              "start_date": "1918-04-02",
              "end_date": "1925-05-01"
            },
            {
              "name": "Damas-Hamah et Prolongements 4% 1909 (Homs-Tripoli), remb. à 500 fr., estamp. (ex-répart.)",
              "start_date": "1918-04-02",
              "end_date": "1940-10-14"
            },
            {
              "name": "Damas-Hamah et prolongement 4% 1909 (Homs-Tripoli), remb. À 500 fr., est. (ex-répart). 1910-94",
              "start_date": "1918-04-02",
              "end_date": "1948-06-30"
            },
            {
              "name": "Damas-Hamah et prolongements 4% 1909 (Homs-Tripoli), remb. À 500 fr. est. (ex-répart.) (Cf. Avis n° 10054, 10066 et 10085), 1910-94",
              "start_date": "1918-04-02",
              "end_date": "3999-12-31"
            }
          ]
        },
        "13628": {
          "id": 13628,
          "sector_id": 128,
          "start_date": "1925-05-01",
          "end_date": "1930-02-22",
          "names": [
            {
              "name": "Damas-Hamah et prolongements (Ste Ottomane du chemin de fer de), obligations 4% 1909 (Homs Tripoli), remb. à 500 fr",
              "start_date": "1910-03-12",
              "end_date": "1930-02-22"
            },
            {
              "name": "Damas-Hamah et prol, 4% 1909 (Homs-Triploi) remb à 500 fr",
              "start_date": "1918-04-02",
              "end_date": "1930-02-22"
            },
            {
              "name": "Damas-Hamah et Prolongements 4% 1909 (Homs-Tripoli), remb. à 500 fr., estamp. (ex-répart.)",
              "start_date": "1925-05-01",
              "end_date": "1940-10-14"
            },
            {
              "name": "Damas-Hamah et prolongement 4% 1909 (Homs-Tripoli), remb. À 500 fr., est. (ex-répart). 1910-94",
              "start_date": "1925-05-01",
              "end_date": "1948-06-30"
            },
            {
              "name": "Damas-Hamah et prolongements 4% 1909 (Homs-Tripoli), remb. À 500 fr. est. (ex-répart.) (Cf. Avis n° 10054, 10066 et 10085), 1910-94",
              "start_date": "1925-05-01",
              "end_date": "3999-12-31"
            }
          ]
        },
        "19447": {
          "id": 19447,
          "sector_id": 107,
          "start_date": "1940-10-14",
          "end_date": "1955-02-01",
          "names": [
            {
              "name": "Damas-Hamah et prolongements (Ste Ottomane du chemin de fer de), obligations 4% 1909 (Homs Tripoli), remb. à 500 fr",
              "start_date": "1910-03-12",
              "end_date": "1955-02-01"
            },
            {
              "name": "Damas-Hamah et prol, 4% 1909 (Homs-Triploi) remb à 500 fr",
              "start_date": "1918-04-02",
              "end_date": "1955-02-01"
            },
            {
              "name": "Damas-Hamah et Prolongements 4% 1909 (Homs-Tripoli), remb. à 500 fr., estamp. (ex-répart.)",
              "start_date": "1925-05-01",
              "end_date": "1955-02-01"
            },
            {
              "name": "Damas-Hamah et prolongement 4% 1909 (Homs-Tripoli), remb. À 500 fr., est. (ex-répart). 1910-94",
              "start_date": "1940-10-14",
              "end_date": "1955-02-01"
            },
            {
              "name": "Damas-Hamah et prolongements 4% 1909 (Homs-Tripoli), remb. À 500 fr. est. (ex-répart.) (Cf. Avis n° 10054, 10066 et 10085), 1910-94",
              "start_date": "1940-10-14",
              "end_date": "3999-12-31"
            }
          ]
        },
        "25022": {
          "id": 25022,
          "sector_id": 233,
          "start_date": "1955-02-01",
          "end_date": "1956-04-30",
          "names": [
            {
              "name": "Damas-Hamah et prolongements (Ste Ottomane du chemin de fer de), obligations 4% 1909 (Homs Tripoli), remb. à 500 fr",
              "start_date": "1910-03-12",
              "end_date": "1956-04-30"
            },
            {
              "name": "Damas-Hamah et prol, 4% 1909 (Homs-Triploi) remb à 500 fr",
              "start_date": "1918-04-02",
              "end_date": "1956-04-30"
            },
            {
              "name": "Damas-Hamah et Prolongements 4% 1909 (Homs-Tripoli), remb. à 500 fr., estamp. (ex-répart.)",
              "start_date": "1925-05-01",
              "end_date": "1956-04-30"
            },
            {
              "name": "Damas-Hamah et prolongement 4% 1909 (Homs-Tripoli), remb. À 500 fr., est. (ex-répart). 1910-94",
              "start_date": "1940-10-14",
              "end_date": "1956-04-30"
            },
            {
              "name": "Damas-Hamah et prolongements 4% 1909 (Homs-Tripoli), remb. À 500 fr. est. (ex-répart.) (Cf. Avis n° 10054, 10066 et 10085), 1910-94",
              "start_date": "1948-06-30",
              "end_date": "3999-12-31"
            }
          ]
        },
        "140128": {
          "id": 140128,
          "sector_id": 107,
          "start_date": "1930-02-22",
          "end_date": "1940-06-11",
          "names": [
            {
              "name": "Damas-Hamah et prolongements (Ste Ottomane du chemin de fer de), obligations 4% 1909 (Homs Tripoli), remb. à 500 fr",
              "start_date": "1910-03-12",
              "end_date": "1940-06-11"
            },
            {
              "name": "Damas-Hamah et prol, 4% 1909 (Homs-Triploi) remb à 500 fr",
              "start_date": "1918-04-02",
              "end_date": "1940-06-11"
            },
            {
              "name": "Damas-Hamah et Prolongements 4% 1909 (Homs-Tripoli), remb. à 500 fr., estamp. (ex-répart.)",
              "start_date": "1925-05-01",
              "end_date": "1940-10-14"
            },
            {
              "name": "Damas-Hamah et prolongement 4% 1909 (Homs-Tripoli), remb. À 500 fr., est. (ex-répart). 1910-94",
              "start_date": "1930-02-22",
              "end_date": "1948-06-30"
            },
            {
              "name": "Damas-Hamah et prolongements 4% 1909 (Homs-Tripoli), remb. À 500 fr. est. (ex-répart.) (Cf. Avis n° 10054, 10066 et 10085), 1910-94",
              "start_date": "1930-02-22",
              "end_date": "3999-12-31"
            }
          ]
        }
      },
      "forward_prices_stats": {
        "start_date": "1910-03-12",
        "end_date": "1910-03-15"
      },
      "listings_stats": {
        "start_date": "1910-03-12"
      },
      "spot_prices_stats": {
        "start_date": "1910-03-12",
        "end_date": "1955-01-31"
      }
    }
  },
  "prices_count": 913,
  "name": "Damas-Hamah et prolongement 4% 1909 (Homs-Tripoli), remb. À 500 fr., est. (ex-répart). 1910-94"
}