{
  "id": 20543,
  "share_type": {
    "id": 1,
    "name": "Stock (Action)"
  },
  "issuers": [
    {
      "id": 6197,
      "start_date": "1970-12-10",
      "end_date": "3999-12-31",
      "name": "Novafer (Européenne des Férailles)"
    }
  ],
  "types": [
    {
      "start_date": "1970-12-10",
      "end_date": "3999-12-31",
      "id": 11,
      "name": "Action ordinaire",
      "stock_group": "S"
    }
  ],
  "is_mainstock": 0,
  "prices_period": [
    "1970-12-10",
    "1976-12-31"
  ],
  "stock_exchanges": {
    "1": {
      "id": 1,
      "name": "Paris (Official List)",
      "notations": {
        "151118": {
          "id": 151118,
          "sector_id": 354,
          "start_date": "1970-12-10",
          "end_date": "3999-12-31",
          "names": [
            {
              "name": "Novafer (Européenne des Férailles), act. (nos 1 à 141306 et 141697 à 342750) (c. 10 att.)",
              "start_date": "1970-12-10",
              "end_date": "3999-12-31"
            },
            {
              "name": "Novafer (Européenne des Férailles), act.",
              "start_date": "1970-12-10",
              "end_date": "3999-12-31"
            }
          ]
        }
      },
      "listings_stats": {
        "start_date": "1970-12-10"
      },
      "spot_prices_stats": {
        "start_date": "1970-12-10",
        "end_date": "1976-12-31"
      }
    }
  },
  "prices_count": 150,
  "name": "Novafer (Européenne des Férailles), act."
}