{
  "id": 15965,
  "share_type": {
    "id": 1,
    "name": "Stock (Action)"
  },
  "issuers": [
    {
      "id": 4562,
      "start_date": "1959-03-02",
      "end_date": "3999-12-31",
      "name": "PECHELBRONN (Société anonyme d'Exploitations minières)"
    }
  ],
  "types": [
    {
      "start_date": "1959-03-02",
      "end_date": "3999-12-31",
      "id": 18,
      "name": "Action",
      "stock_group": "S"
    }
  ],
  "is_mainstock": 0,
  "prices_period": [
    null,
    null
  ],
  "stock_exchanges": {
    "1": {
      "id": 1,
      "name": "Paris (Official List)",
      "notations": {
        "29194": {
          "id": 29194,
          "sector_id": 587,
          "start_date": "1962-11-03",
          "end_date": "1963-09-23",
          "names": [
            {
              "name": "Pechelbronn, act 2500 fr (nom)(par 25 actions)",
              "start_date": "1959-03-02",
              "end_date": "1963-09-23"
            },
            {
              "name": "Pechelbronn, act. 25F (nom.) (par 25 actions)",
              "start_date": "1962-11-03",
              "end_date": "3999-12-31"
            }
          ]
        },
        "31889": {
          "id": 31889,
          "sector_id": 1,
          "start_date": "1963-09-23",
          "end_date": "1969-03-25",
          "names": [
            {
              "name": "Pechelbronn, act 2500 fr (nom)(par 25 actions)",
              "start_date": "1959-03-02",
              "end_date": "1969-03-25"
            },
            {
              "name": "Pechelbronn, act. 25F (nom.) (par 25 actions)",
              "start_date": "1963-09-23",
              "end_date": "3999-12-31"
            }
          ]
        },
        "32224": {
          "id": 32224,
          "sector_id": 471,
          "start_date": "1969-03-25",
          "end_date": "3999-12-31",
          "names": [
            {
              "name": "Pechelbronn, act 2500 fr (nom)(par 25 actions)",
              "start_date": "1959-03-02",
              "end_date": "3999-12-31"
            },
            {
              "name": "Pechelbronn, act. 25F (nom.) (par 25 actions)",
              "start_date": "1963-09-23",
              "end_date": "3999-12-31"
            }
          ]
        },
        "146540": {
          "id": 146540,
          "sector_id": 459,
          "start_date": "1959-03-02",
          "end_date": "1962-11-03",
          "names": [
            {
              "name": "Pechelbronn, act 2500 fr (nom)(par 25 actions)",
              "start_date": "1959-03-02",
              "end_date": "1963-09-23"
            },
            {
              "name": "Pechelbronn, act. 25F (nom.) (par 25 actions)",
              "start_date": "1959-03-02",
              "end_date": "3999-12-31"
            }
          ]
        }
      },
      "listings_stats": {
        "start_date": "1959-03-02"
      }
    }
  },
  "prices_count": 0,
  "name": "Pechelbronn, act. 25F (nom.) (par 25 actions)"
}