{
  "id": 106499,
  "share_type": {
    "id": 1,
    "name": "Stock (Action)"
  },
  "issuers": [
    {
      "id": 5474,
      "start_date": "1973-02-15",
      "end_date": "1973-06-01",
      "name": "A.E.G. TELEFUNKEN"
    }
  ],
  "types": [
    {
      "start_date": "1973-02-15",
      "end_date": "1973-06-01",
      "id": 18,
      "name": "Action",
      "stock_group": "S"
    }
  ],
  "is_mainstock": 0,
  "prices_period": [
    "1973-04-30",
    "1973-06-01"
  ],
  "stock_exchanges": {
    "1": {
      "id": 1,
      "name": "Paris (Official List)",
      "notations": {
        "207541": {
          "id": 207541,
          "sector_id": 537,
          "start_date": "1973-02-15",
          "end_date": "1973-06-01",
          "names": [
            {
              "name": "A.E.G. Telefunken (Allgemeine Elektricitats Gesellschaft), Coup. De 10 (c. 8 special att.)",
              "start_date": "1973-02-15",
              "end_date": "1973-06-01"
            }
          ]
        }
      },
      "listings_stats": {
        "start_date": "1973-02-15"
      },
      "spot_prices_stats": {
        "start_date": "1973-04-30",
        "end_date": "1973-06-01"
      }
    }
  },
  "prices_count": 2,
  "name": "A.E.G. Telefunken (Allgemeine Elektricitats Gesellschaft), Coup. De 10 (c. 8 special att.)"
}