{
  "id": 16564,
  "share_type": {
    "id": 1,
    "name": "Stock (Action)"
  },
  "issuers": [
    {
      "id": 4519,
      "start_date": "1962-01-02",
      "end_date": "3999-12-31",
      "name": "SOCIETE AFRICAINE DE MINES ET TRANSPORTS (Ex-Concessionnaire des Mines d'Ouenza)"
    }
  ],
  "types": [
    {
      "start_date": "1962-01-02",
      "end_date": "3999-12-31",
      "id": 18,
      "name": "Action",
      "stock_group": "S"
    }
  ],
  "is_mainstock": 0,
  "prices_period": [
    null,
    null
  ],
  "stock_exchanges": {
    "1": {
      "id": 1,
      "name": "Paris (Official List)",
      "notations": {
        "147139": {
          "id": 147139,
          "sector_id": 459,
          "start_date": "1962-01-02",
          "end_date": "1962-11-03",
          "names": [
            {
              "name": "Africaine de Mines et Transports, actions 25 NF",
              "start_date": "1962-01-02",
              "end_date": "3999-12-31"
            }
          ]
        }
      },
      "listings_stats": {
        "start_date": "1962-01-02"
      }
    }
  },
  "prices_count": 0,
  "name": "Africaine de Mines et Transports, actions 25 NF"
}