{
  "id": 7553,
  "share_type": {
    "id": 2,
    "name": "Bond (Obligation)"
  },
  "issuers": [
    {
      "id": 5092,
      "start_date": "1921-12-06",
      "end_date": "3999-12-31",
      "name": "Forges et Ateliers de la Chaléassière (Leflaive et Cie)"
    }
  ],
  "types": [
    {
      "start_date": "1921-12-06",
      "end_date": "3999-12-31",
      "id": 1001,
      "name": "Obligation ordinaire ou classique",
      "stock_group": "B"
    }
  ],
  "is_mainstock": 0,
  "prices_period": [
    "1921-12-06",
    "1925-06-02"
  ],
  "stock_exchanges": {
    "1": {
      "id": 1,
      "name": "Paris (Official List)",
      "notations": {
        "34423": {
          "id": 34423,
          "sector_id": 111,
          "start_date": "1921-12-06",
          "end_date": "1925-11-20",
          "names": [
            {
              "name": "Forges et Ateliers de la Chaléassière (Leflaive et Cie), 6% 1918 (fév-août), remb à 500 fr (n°9001 à 29000)",
              "start_date": "1921-12-06",
              "end_date": "3999-12-31"
            }
          ]
        }
      },
      "listings_stats": {
        "start_date": "1921-12-06"
      },
      "spot_prices_stats": {
        "start_date": "1921-12-06",
        "end_date": "1925-06-02"
      }
    }
  },
  "prices_count": 25,
  "name": "Forges et Ateliers de la Chaléassière (Leflaive et Cie), 6% 1918 (fév-août), remb à 500 fr (n°9001 à 29000)"
}