{
  "id": 3275,
  "share_type": {
    "id": 2,
    "name": "Bond (Obligation)"
  },
  "issuers": [
    {
      "id": 2294,
      "start_date": "1881-05-16",
      "end_date": "3999-12-31",
      "name": "Société FONCIERE LYONNAISE"
    }
  ],
  "types": [
    {
      "start_date": "1881-05-16",
      "end_date": "3999-12-31",
      "id": 1001,
      "name": "Obligation ordinaire ou classique",
      "stock_group": "B"
    }
  ],
  "is_mainstock": 0,
  "prices_period": [
    "1881-05-18",
    "1951-04-30"
  ],
  "stock_exchanges": {
    "1": {
      "id": 1,
      "name": "Paris (Official List)",
      "notations": {
        "1912": {
          "id": 1912,
          "sector_id": 108,
          "start_date": "1902-05-26",
          "end_date": "1914-08-03",
          "names": [
            {
              "name": "Soc. Foncière Lyonnaise, remb.à 500f.",
              "start_date": "1881-05-16",
              "end_date": "1914-08-03"
            },
            {
              "name": "Société foncière Lyonnaise, 3% anciennes, nos 1 à 25000, remb. à 500 fr.",
              "start_date": "1893-03-10",
              "end_date": "1938-12-30"
            },
            {
              "name": "Foncière Lyonnaise (Société), 3% anciennes, nos 1 à 25000, remb. à 500 fr.",
              "start_date": "1902-05-26",
              "end_date": "1940-10-14"
            },
            {
              "name": "Foncière Lyonnaise (Sté) 3% ancien, remb. À 500 fr. (n°s 1 à 25000) 1881-1955",
              "start_date": "1902-05-26",
              "end_date": "1951-05-02"
            },
            {
              "name": "Foncière Lyonnaise (Sté), 3% ancien, remb. À 500 fr. (n°1 à 25000) . Le 1/1/51",
              "start_date": "1902-05-26",
              "end_date": "3999-12-31"
            }
          ]
        },
        "4374": {
          "id": 4374,
          "sector_id": 70,
          "start_date": "1881-05-16",
          "end_date": "1902-05-26",
          "names": [
            {
              "name": "Soc. Foncière Lyonnaise, remb.à 500f.",
              "start_date": "1881-05-16",
              "end_date": "1902-05-26"
            },
            {
              "name": "Société foncière Lyonnaise, 3% anciennes, nos 1 à 25000, remb. à 500 fr.",
              "start_date": "1881-05-16",
              "end_date": "1938-12-30"
            },
            {
              "name": "Foncière Lyonnaise (Société), 3% anciennes, nos 1 à 25000, remb. à 500 fr.",
              "start_date": "1881-05-16",
              "end_date": "1940-10-14"
            },
            {
              "name": "Foncière Lyonnaise (Sté) 3% ancien, remb. À 500 fr. (n°s 1 à 25000) 1881-1955",
              "start_date": "1881-05-16",
              "end_date": "1951-05-02"
            },
            {
              "name": "Foncière Lyonnaise (Sté), 3% ancien, remb. À 500 fr. (n°1 à 25000) . Le 1/1/51",
              "start_date": "1881-05-16",
              "end_date": "3999-12-31"
            }
          ]
        },
        "10245": {
          "id": 10245,
          "sector_id": 108,
          "start_date": "1914-12-15",
          "end_date": "1940-06-11",
          "names": [
            {
              "name": "Soc. Foncière Lyonnaise, remb.à 500f.",
              "start_date": "1881-05-16",
              "end_date": "1940-06-11"
            },
            {
              "name": "Société foncière Lyonnaise, 3% anciennes, nos 1 à 25000, remb. à 500 fr.",
              "start_date": "1893-03-10",
              "end_date": "1940-06-11"
            },
            {
              "name": "Foncière Lyonnaise (Société), 3% anciennes, nos 1 à 25000, remb. à 500 fr.",
              "start_date": "1914-12-15",
              "end_date": "1940-10-14"
            },
            {
              "name": "Foncière Lyonnaise (Sté) 3% ancien, remb. À 500 fr. (n°s 1 à 25000) 1881-1955",
              "start_date": "1914-12-15",
              "end_date": "1951-05-02"
            },
            {
              "name": "Foncière Lyonnaise (Sté), 3% ancien, remb. À 500 fr. (n°1 à 25000) . Le 1/1/51",
              "start_date": "1914-12-15",
              "end_date": "3999-12-31"
            }
          ]
        },
        "19235": {
          "id": 19235,
          "sector_id": 108,
          "start_date": "1940-10-14",
          "end_date": "1950-04-03",
          "names": [
            {
              "name": "Soc. Foncière Lyonnaise, remb.à 500f.",
              "start_date": "1881-05-16",
              "end_date": "1950-04-03"
            },
            {
              "name": "Société foncière Lyonnaise, 3% anciennes, nos 1 à 25000, remb. à 500 fr.",
              "start_date": "1893-03-10",
              "end_date": "1950-04-03"
            },
            {
              "name": "Foncière Lyonnaise (Société), 3% anciennes, nos 1 à 25000, remb. à 500 fr.",
              "start_date": "1938-12-30",
              "end_date": "1950-04-03"
            },
            {
              "name": "Foncière Lyonnaise (Sté) 3% ancien, remb. À 500 fr. (n°s 1 à 25000) 1881-1955",
              "start_date": "1940-10-14",
              "end_date": "1951-05-02"
            },
            {
              "name": "Foncière Lyonnaise (Sté), 3% ancien, remb. À 500 fr. (n°1 à 25000) . Le 1/1/51",
              "start_date": "1940-10-14",
              "end_date": "3999-12-31"
            }
          ]
        },
        "24154": {
          "id": 24154,
          "sector_id": 309,
          "start_date": "1950-04-03",
          "end_date": "1951-05-02",
          "names": [
            {
              "name": "Soc. Foncière Lyonnaise, remb.à 500f.",
              "start_date": "1881-05-16",
              "end_date": "1951-05-02"
            },
            {
              "name": "Société foncière Lyonnaise, 3% anciennes, nos 1 à 25000, remb. à 500 fr.",
              "start_date": "1893-03-10",
              "end_date": "1951-05-02"
            },
            {
              "name": "Foncière Lyonnaise (Société), 3% anciennes, nos 1 à 25000, remb. à 500 fr.",
              "start_date": "1938-12-30",
              "end_date": "1951-05-02"
            },
            {
              "name": "Foncière Lyonnaise (Sté) 3% ancien, remb. À 500 fr. (n°s 1 à 25000) 1881-1955",
              "start_date": "1940-10-14",
              "end_date": "1951-05-02"
            },
            {
              "name": "Foncière Lyonnaise (Sté), 3% ancien, remb. À 500 fr. (n°1 à 25000) . Le 1/1/51",
              "start_date": "1950-04-03",
              "end_date": "3999-12-31"
            }
          ]
        }
      },
      "listings_stats": {
        "start_date": "1881-05-16"
      },
      "spot_prices_stats": {
        "start_date": "1881-05-18",
        "end_date": "1951-04-30"
      }
    }
  },
  "prices_count": 749,
  "name": "Foncière Lyonnaise (Société), 3% anciennes, nos 1 à 25000, remb. à 500 fr."
}