{
  "id": 105129,
  "share_type": {
    "id": 1,
    "name": "Stock (Action)"
  },
  "issuers": [
    {
      "id": 12262,
      "start_date": "1888-05-14",
      "end_date": "1890-06-30",
      "name": "Société civile des terrains du Chemin de fer d'Arles à Saint-Louis-du-Rhone"
    },
    {
      "id": 12262,
      "start_date": "1899-01-23",
      "end_date": "1899-01-23",
      "name": "Société civile des terrains du Chemin de fer d'Arles à Saint-Louis-du-Rhone"
    }
  ],
  "types": [
    {
      "start_date": "1000-01-01",
      "end_date": "3999-12-31",
      "id": 18,
      "name": "Action",
      "stock_group": "S"
    },
    {
      "start_date": "1899-01-23",
      "end_date": "1899-01-23",
      "id": 21,
      "name": "Part de fondateur",
      "stock_group": "S"
    }
  ],
  "is_mainstock": 1,
  "prices_period": [
    "1888-05-14",
    "1890-06-30"
  ],
  "stock_exchanges": {
    "2": {
      "id": 2,
      "name": "Paris OTC (Coulisse)",
      "notations": {
        "205781": {
          "id": 205781,
          "sector_id": 672,
          "start_date": "1888-05-14",
          "end_date": "1890-06-30",
          "names": [
            {
              "name": "Parts Terrains d'arles",
              "start_date": "1888-05-14",
              "end_date": "1890-06-30"
            },
            {
              "name": "Terrains d'Arles",
              "start_date": "1888-05-14",
              "end_date": "1899-01-23"
            }
          ]
        },
        "208034": {
          "id": 208034,
          "sector_id": 686,
          "start_date": "1899-01-23",
          "end_date": "1899-01-23",
          "names": [
            {
              "name": "Parts Terrains d'arles",
              "start_date": "1888-05-14",
              "end_date": "1899-01-23"
            },
            {
              "name": "Terrains d'Arles",
              "start_date": "1899-01-23",
              "end_date": "1899-01-23"
            }
          ]
        }
      },
      "listings_stats": {
        "start_date": "1888-05-14"
      },
      "spot_prices_stats": {
        "start_date": "1888-05-14",
        "end_date": "1890-06-30"
      }
    }
  },
  "prices_count": 33,
  "name": "Terrains d'Arles"
}