{
  "id": 6036,
  "share_type": {
    "id": 1,
    "name": "Stock (Action)"
  },
  "issuers": [
    {
      "id": 3396,
      "start_date": "1910-07-01",
      "end_date": "3999-12-31",
      "name": "Ateliers et Chantiers de Bretagne"
    }
  ],
  "types": [
    {
      "start_date": "1910-07-15",
      "end_date": "3999-12-31",
      "id": 18,
      "name": "Action",
      "stock_group": "S"
    }
  ],
  "is_mainstock": 1,
  "prices_period": [
    "1910-07-15",
    "1951-08-31"
  ],
  "stock_exchanges": {
    "1": {
      "id": 1,
      "name": "Paris (Official List)",
      "notations": {
        "8441": {
          "id": 8441,
          "sector_id": 104,
          "start_date": "1911-03-27",
          "end_date": "1914-08-03",
          "names": [
            {
              "name": "Ateliers et Chantiers de Bretagne (n°s 1 à 21000)",
              "start_date": "1892-05-05",
              "end_date": "1914-08-03"
            },
            {
              "name": "Ateliers et Chantiers de Bretagne, act. 100 fr., tout payé",
              "start_date": "1911-03-27",
              "end_date": "1929-06-05"
            },
            {
              "name": "Ateliers et Chantiers de Bretagne, act. 100 fr., t.p. (ex-dr., )",
              "start_date": "1911-03-27",
              "end_date": "1949-12-30"
            },
            {
              "name": "Ateliers et Chantiers de Bretagne, act. Anc. 100 fr., t.p.",
              "start_date": "1911-03-27",
              "end_date": "1951-09-17"
            },
            {
              "name": "Ateliers, Chantiers Bretagne, act. Anc. 100 fr., t.p. (tit. Liv.)",
              "start_date": "1911-03-27",
              "end_date": "3999-12-31"
            }
          ]
        },
        "10097": {
          "id": 10097,
          "sector_id": 104,
          "start_date": "1914-12-15",
          "end_date": "1951-09-17",
          "names": [
            {
              "name": "Ateliers et Chantiers de Bretagne (n°s 1 à 21000)",
              "start_date": "1892-05-05",
              "end_date": "1951-09-17"
            },
            {
              "name": "Ateliers et Chantiers de Bretagne, act. 100 fr., tout payé",
              "start_date": "1911-03-27",
              "end_date": "1951-09-17"
            },
            {
              "name": "Ateliers et Chantiers de Bretagne, act. 100 fr., t.p. (ex-dr., )",
              "start_date": "1914-12-15",
              "end_date": "1951-09-17"
            },
            {
              "name": "Ateliers et Chantiers de Bretagne, act. Anc. 100 fr., t.p.",
              "start_date": "1914-12-15",
              "end_date": "1951-09-17"
            },
            {
              "name": "Ateliers, Chantiers Bretagne, act. Anc. 100 fr., t.p. (tit. Liv.)",
              "start_date": "1914-12-15",
              "end_date": "3999-12-31"
            }
          ]
        },
        "155867": {
          "id": 155867,
          "sector_id": 121,
          "start_date": "1910-07-01",
          "end_date": "1911-04-03",
          "names": [
            {
              "name": "Ateliers et Chantiers de Bretagne (n°s 1 à 21000)",
              "start_date": "1892-05-05",
              "end_date": "1911-04-03"
            },
            {
              "name": "Ateliers et Chantiers de Bretagne, act. 100 fr., tout payé",
              "start_date": "1910-07-01",
              "end_date": "1929-06-05"
            },
            {
              "name": "Ateliers et Chantiers de Bretagne, act. 100 fr., t.p. (ex-dr., )",
              "start_date": "1910-07-01",
              "end_date": "1949-12-30"
            },
            {
              "name": "Ateliers et Chantiers de Bretagne, act. Anc. 100 fr., t.p.",
              "start_date": "1910-07-01",
              "end_date": "1951-09-17"
            },
            {
              "name": "Ateliers, Chantiers Bretagne, act. Anc. 100 fr., t.p. (tit. Liv.)",
              "start_date": "1910-07-01",
              "end_date": "3999-12-31"
            }
          ]
        }
      },
      "listings_stats": {
        "start_date": "1910-07-01"
      },
      "spot_prices_stats": {
        "start_date": "1910-07-15",
        "end_date": "1951-08-31"
      }
    }
  },
  "prices_count": 1392,
  "name": "Ateliers et Chantiers de Bretagne, act. Anc. 100 fr., t.p."
}