{
  "id": 9127,
  "share_type": {
    "id": 2,
    "name": "Bond (Obligation)"
  },
  "issuers": [
    {
      "id": 10447,
      "start_date": "1931-07-04",
      "end_date": "3999-12-31",
      "name": "MAROC (EMPIRE CHÉRIFIEN) (PROTECTORAT DE LA REPUBLIQUE FRANÇAISE AU MAROC)"
    }
  ],
  "types": [
    {
      "start_date": "1931-07-04",
      "end_date": "3999-12-31",
      "id": 1001,
      "name": "Obligation ordinaire ou classique",
      "stock_group": "B"
    }
  ],
  "is_mainstock": 0,
  "prices_period": [
    "1931-07-04",
    "1953-09-30"
  ],
  "stock_exchanges": {
    "1": {
      "id": 1,
      "name": "Paris (Official List)",
      "notations": {
        "136574": {
          "id": 136574,
          "sector_id": 84,
          "start_date": "1931-07-04",
          "end_date": "1953-10-01",
          "names": [
            {
              "name": "Maroc 4% 1931, remb. à 1000 fr. (Intérêts et amortissement garantis par le Gouvernement français. - Loi du 22 mars 1928)",
              "start_date": "1931-07-04",
              "end_date": "3999-12-31"
            }
          ]
        }
      },
      "listings_stats": {
        "start_date": "1931-07-04"
      },
      "spot_prices_stats": {
        "start_date": "1931-07-04",
        "end_date": "1953-09-30"
      }
    }
  },
  "prices_count": 713,
  "name": "Maroc 4% 1931, remb. à 1000 fr. (Intérêts et amortissement garantis par le Gouvernement français. - Loi du 22 mars 1928)"
}