{
  "id": 3205,
  "share_type": {
    "id": 2,
    "name": "Bond (Obligation)"
  },
  "issuers": [
    {
      "id": 933,
      "start_date": "1882-09-20",
      "end_date": "3999-12-31",
      "name": "TURQUIE"
    }
  ],
  "types": [
    {
      "start_date": "1882-09-20",
      "end_date": "3999-12-31",
      "id": 1001,
      "name": "Obligation ordinaire ou classique",
      "stock_group": "B"
    }
  ],
  "is_mainstock": 0,
  "prices_period": [
    "1882-09-26",
    "1888-02-29"
  ],
  "stock_exchanges": {
    "1": {
      "id": 1,
      "name": "Paris (Official List)",
      "notations": {
        "4304": {
          "id": 4304,
          "sector_id": 74,
          "start_date": "1882-09-20",
          "end_date": "1888-05-01",
          "names": [
            {
              "name": "Empt Ottoman 1865 6%, r.à 500f., t.p.",
              "start_date": "1882-09-20",
              "end_date": "3999-12-31"
            }
          ]
        }
      },
      "listings_stats": {
        "start_date": "1882-09-20"
      },
      "spot_prices_stats": {
        "start_date": "1882-09-26",
        "end_date": "1888-02-29"
      }
    }
  },
  "prices_count": 8,
  "name": "Empt Ottoman 1865 6%, r.à 500f., t.p."
}