{
  "id": 18431,
  "share_type": {
    "id": 1,
    "name": "Stock (Action)"
  },
  "issuers": [
    {
      "id": 2486,
      "start_date": "1965-04-01",
      "end_date": "3999-12-31",
      "name": "L'ANNUAIRE DU COMMERCE DIDOT-BOTTIN"
    }
  ],
  "types": [
    {
      "start_date": "1965-04-01",
      "end_date": "3999-12-31",
      "id": 27,
      "name": "Promesse d'action",
      "stock_group": "S"
    }
  ],
  "is_mainstock": 0,
  "prices_period": [
    "1965-07-16",
    "1966-02-28"
  ],
  "stock_exchanges": {
    "1": {
      "id": 1,
      "name": "Paris (Official List)",
      "notations": {
        "149006": {
          "id": 149006,
          "sector_id": 345,
          "start_date": "1965-04-01",
          "end_date": "1966-03-01",
          "names": [
            {
              "name": "Didot-Bottin, Promesses (Jce 1/1/65)",
              "start_date": "1965-04-01",
              "end_date": "1966-03-01"
            },
            {
              "name": "Didot-Bottin, act. (n° 121800 à 142100) (c. 19 spéc. Att.)",
              "start_date": "1965-04-01",
              "end_date": "3999-12-31"
            }
          ]
        }
      },
      "listings_stats": {
        "start_date": "1965-04-01"
      },
      "spot_prices_stats": {
        "start_date": "1965-07-16",
        "end_date": "1966-02-28"
      }
    }
  },
  "prices_count": 17,
  "name": "Didot-Bottin, Promesses (Jce 1/1/65)"
}