{
  "id": 11083,
  "share_type": {
    "id": 2,
    "name": "Bond (Obligation)"
  },
  "issuers": [
    {
      "id": 100,
      "start_date": "1938-01-03",
      "end_date": "3999-12-31",
      "name": "RENTES FRANÇAISES"
    }
  ],
  "types": [
    {
      "start_date": "1938-01-03",
      "end_date": "3999-12-31",
      "id": 1013,
      "name": "Bons du Trésor",
      "stock_group": "B"
    }
  ],
  "is_mainstock": 0,
  "prices_period": [
    "1938-01-03",
    "1941-09-30"
  ],
  "stock_exchanges": {
    "1": {
      "id": 1,
      "name": "Paris (Official List)",
      "notations": {
        "141658": {
          "id": 141658,
          "sector_id": 196,
          "start_date": "1938-01-03",
          "end_date": "1941-10-15",
          "names": [
            {
              "name": "Bons du Trésor 5% septembre 1937, r. à 1000 fr. en 1942 ou à 1080 fr. en 1947",
              "start_date": "1938-01-03",
              "end_date": "1941-10-15"
            },
            {
              "name": "Bons du Trésor 5% septembre 1937, remb. à 1000 fr. en 1942 ou à 1080 fr. en 1947 sauf remboursement anticipé soit au pair avant le 6/9/42, soit au pair augmenté de 1,60% par année courue depuis le 6/9/41 (Jce 5/3/41)",
              "start_date": "1938-01-03",
              "end_date": "3999-12-31"
            }
          ]
        },
        "141816": {
          "id": 141816,
          "sector_id": 199,
          "start_date": "1938-12-23",
          "end_date": "1940-06-11",
          "names": [
            {
              "name": "Bons du Trésor 5% septembre 1937, r. à 1000 fr. en 1942 ou à 1080 fr. en 1947",
              "start_date": "1938-01-03",
              "end_date": "1941-07-01"
            },
            {
              "name": "Bons du Trésor 5% septembre 1937, remb. à 1000 fr. en 1942 ou à 1080 fr. en 1947 sauf remboursement anticipé soit au pair avant le 6/9/42, soit au pair augmenté de 1,60% par année courue depuis le 6/9/41 (Jce 5/3/41)",
              "start_date": "1938-12-23",
              "end_date": "3999-12-31"
            }
          ]
        }
      },
      "listings_stats": {
        "start_date": "1938-01-03"
      },
      "spot_prices_stats": {
        "start_date": "1938-01-03",
        "end_date": "1941-09-30"
      }
    }
  },
  "prices_count": 195,
  "name": "Bons du Trésor 5% septembre 1937, r. à 1000 fr. en 1942 ou à 1080 fr. en 1947"
}