{
  "id": 1875,
  "share_type": {
    "id": 2,
    "name": "Bond (Obligation)"
  },
  "issuers": [
    {
      "id": 1266,
      "start_date": "1871-12-28",
      "end_date": "3999-12-31",
      "name": "ETATS-UNIS D'AMERIQUE"
    }
  ],
  "types": [
    {
      "start_date": "1871-12-28",
      "end_date": "3999-12-31",
      "id": 1001,
      "name": "Obligation ordinaire ou classique",
      "stock_group": "B"
    }
  ],
  "is_mainstock": 0,
  "prices_period": [
    "1871-12-29",
    "1875-03-15"
  ],
  "stock_exchanges": {
    "1": {
      "id": 1,
      "name": "Paris (Official List)",
      "notations": {
        "2974": {
          "id": 2974,
          "sector_id": 67,
          "start_date": "1871-12-28",
          "end_date": "1875-03-18",
          "names": [
            {
              "name": "Etats-Unis, 5-20, Bons 1862, r. 7 mars 72",
              "start_date": "1871-12-28",
              "end_date": "1875-03-18"
            },
            {
              "name": "Etats-Unis 5-20 62, bons remb. 7 mars 72",
              "start_date": "1871-12-28",
              "end_date": "3999-12-31"
            }
          ]
        },
        "3305": {
          "id": 3305,
          "sector_id": 74,
          "start_date": "1875-03-18",
          "end_date": "1876-09-24",
          "names": [
            {
              "name": "Etats-Unis, 5-20, Bons 1862, r. 7 mars 72",
              "start_date": "1871-12-28",
              "end_date": "1876-09-24"
            },
            {
              "name": "Etats-Unis 5-20 62, bons remb. 7 mars 72",
              "start_date": "1875-03-17",
              "end_date": "3999-12-31"
            }
          ]
        }
      },
      "listings_stats": {
        "start_date": "1871-12-28"
      },
      "spot_prices_stats": {
        "start_date": "1871-12-29",
        "end_date": "1875-03-15"
      }
    }
  },
  "prices_count": 80,
  "name": "Etats-Unis 5-20 62, bons remb. 7 mars 72"
}