{
  "id": 5602,
  "share_type": {
    "id": 1,
    "name": "Stock (Action)"
  },
  "issuers": [
    {
      "id": 2724,
      "start_date": "1907-10-22",
      "end_date": "3999-12-31",
      "name": "COMPAGNIE DU GAZ DE PARIS"
    }
  ],
  "types": [
    {
      "start_date": "1907-10-22",
      "end_date": "3999-12-31",
      "id": 18,
      "name": "Action",
      "stock_group": "S"
    }
  ],
  "is_mainstock": 1,
  "prices_period": [
    "1907-10-22",
    "1953-10-15"
  ],
  "stock_exchanges": {
    "1": {
      "id": 1,
      "name": "Paris (Official List)",
      "notations": {
        "8007": {
          "id": 8007,
          "sector_id": 102,
          "start_date": "1907-10-22",
          "end_date": "1914-08-03",
          "names": [
            {
              "name": "Gaz de Paris, act. 250 fr., tout payé",
              "start_date": "1892-05-05",
              "end_date": "1926-01-01"
            },
            {
              "name": "Gaz de paris, act. 250 fr., t. p. (ex-c. 37)",
              "start_date": "1907-10-22",
              "end_date": "1938-04-19"
            },
            {
              "name": "Gaz de Paris, Régie intéressée (Cie du), act. 250 fr., t. p.",
              "start_date": "1907-10-22",
              "end_date": "3999-12-31"
            }
          ]
        },
        "10044": {
          "id": 10044,
          "sector_id": 102,
          "start_date": "1914-12-15",
          "end_date": "1926-01-01",
          "names": [
            {
              "name": "Gaz de Paris, act. 250 fr., tout payé",
              "start_date": "1892-05-05",
              "end_date": "1926-01-01"
            },
            {
              "name": "Gaz de paris, act. 250 fr., t. p. (ex-c. 37)",
              "start_date": "1914-12-15",
              "end_date": "1938-04-19"
            },
            {
              "name": "Gaz de Paris, Régie intéressée (Cie du), act. 250 fr., t. p.",
              "start_date": "1914-12-15",
              "end_date": "3999-12-31"
            }
          ]
        },
        "50452": {
          "id": 50452,
          "sector_id": 102,
          "start_date": "1926-01-01",
          "end_date": "1938-04-19",
          "names": [
            {
              "name": "Gaz de Paris, act. 250 fr., tout payé",
              "start_date": "1892-05-05",
              "end_date": "1938-04-19"
            },
            {
              "name": "Gaz de paris, act. 250 fr., t. p. (ex-c. 37)",
              "start_date": "1926-01-01",
              "end_date": "1938-04-19"
            },
            {
              "name": "Gaz de Paris, Régie intéressée (Cie du), act. 250 fr., t. p.",
              "start_date": "1926-01-01",
              "end_date": "3999-12-31"
            }
          ]
        },
        "200084": {
          "id": 200084,
          "sector_id": 120,
          "start_date": "1892-05-05",
          "end_date": "1920-01-02",
          "names": [
            {
              "name": "Gaz de Paris, act. 250 fr., tout payé",
              "start_date": "1892-05-05",
              "end_date": "1926-01-01"
            },
            {
              "name": "Gaz de paris, act. 250 fr., t. p. (ex-c. 37)",
              "start_date": "1892-05-05",
              "end_date": "1938-04-19"
            },
            {
              "name": "Gaz de Paris, Régie intéressée (Cie du), act. 250 fr., t. p.",
              "start_date": "1892-05-05",
              "end_date": "3999-12-31"
            }
          ]
        },
        "200199": {
          "id": 200199,
          "sector_id": 102,
          "start_date": "1938-04-19",
          "end_date": "1953-11-03",
          "names": [
            {
              "name": "Gaz de Paris, act. 250 fr., tout payé",
              "start_date": "1892-05-05",
              "end_date": "1953-11-03"
            },
            {
              "name": "Gaz de paris, act. 250 fr., t. p. (ex-c. 37)",
              "start_date": "1926-01-01",
              "end_date": "1953-11-03"
            },
            {
              "name": "Gaz de Paris, Régie intéressée (Cie du), act. 250 fr., t. p.",
              "start_date": "1938-04-19",
              "end_date": "3999-12-31"
            }
          ]
        }
      },
      "listings_stats": {
        "start_date": "1892-05-05"
      },
      "spot_prices_stats": {
        "start_date": "1907-10-22",
        "end_date": "1953-10-15"
      }
    }
  },
  "prices_count": 1251,
  "name": "Gaz de Paris, act. 250 fr., tout payé"
}