{
  "id": 106511,
  "share_type": {
    "id": 1,
    "name": "Stock (Action)"
  },
  "issuers": [
    {
      "id": 3640,
      "start_date": "1974-10-31",
      "end_date": "1974-12-16",
      "name": "CAISSE GENERALE DE PRÊTS FONCIERS ET INDUSTRIELS"
    }
  ],
  "types": [
    {
      "start_date": "1974-10-31",
      "end_date": "1974-12-16",
      "id": 18,
      "name": "Action",
      "stock_group": "S"
    }
  ],
  "is_mainstock": 0,
  "prices_period": [
    "1974-10-31",
    "1974-12-16"
  ],
  "stock_exchanges": {
    "1": {
      "id": 1,
      "name": "Paris (Official List)",
      "notations": {
        "207553": {
          "id": 207553,
          "sector_id": 462,
          "start_date": "1974-10-31",
          "end_date": "1974-12-16",
          "names": [
            {
              "name": "EURAFRANCE, act (n 620101 a 2193100) (c. 2 etoile att)",
              "start_date": "1974-10-31",
              "end_date": "1974-12-16"
            }
          ]
        }
      },
      "listings_stats": {
        "start_date": "1974-10-31"
      },
      "spot_prices_stats": {
        "start_date": "1974-10-31",
        "end_date": "1974-12-16"
      }
    }
  },
  "prices_count": 4,
  "name": "EURAFRANCE, act (n 620101 a 2193100) (c. 2 etoile att)"
}