{
  "id": 2642,
  "share_type": {
    "id": 2,
    "name": "Bond (Obligation)"
  },
  "issuers": [
    {
      "id": 461,
      "start_date": "1877-12-04",
      "end_date": "3999-12-31",
      "name": "ETATS : RUSSIE"
    }
  ],
  "types": [
    {
      "start_date": "1877-12-04",
      "end_date": "3999-12-31",
      "id": 1001,
      "name": "Obligation ordinaire ou classique",
      "stock_group": "B"
    }
  ],
  "is_mainstock": 0,
  "prices_period": [
    "1877-12-04",
    "1889-03-15"
  ],
  "stock_exchanges": {
    "1": {
      "id": 1,
      "name": "Paris (Official List)",
      "notations": {
        "3741": {
          "id": 3741,
          "sector_id": 67,
          "start_date": "1877-12-04",
          "end_date": "1889-04-01",
          "names": [
            {
              "name": "Russe 1877, 5%, remb. Au pair, en 37ans, obl.de 500f.",
              "start_date": "1877-12-04",
              "end_date": "3999-12-31"
            }
          ]
        }
      },
      "forward_prices_stats": {
        "start_date": "1877-12-04",
        "end_date": "1888-11-15"
      },
      "listings_stats": {
        "start_date": "1877-12-04"
      },
      "options_prices_stats": {
        "start_date": "1878-01-15",
        "end_date": "1887-08-01"
      },
      "spot_prices_stats": {
        "start_date": "1877-12-15",
        "end_date": "1889-03-15"
      }
    },
    "2": {
      "id": 2,
      "name": "Paris OTC (Coulisse)",
      "notations": {
        "204624": {
          "id": 204624,
          "sector_id": 661,
          "start_date": "1878-01-16",
          "end_date": "1887-12-31",
          "names": [
            {
              "name": "Russie, 5% 1877",
              "start_date": "1878-01-16",
              "end_date": "1887-12-31"
            }
          ]
        }
      },
      "listings_stats": {
        "start_date": "1878-01-16"
      }
    }
  },
  "prices_count": 930,
  "name": "Russie, 5% 1877"
}