{
  "id": 102290,
  "share_type": {
    "id": 4,
    "name": "Rights (Droits)"
  },
  "issuers": [
    {
      "id": 2986,
      "start_date": "1927-07-05",
      "end_date": "1927-07-18",
      "name": "Société des Chalets de Nécessité"
    }
  ],
  "types": [
    {
      "start_date": "1927-07-05",
      "end_date": "1927-07-18",
      "id": 501,
      "name": "Droit de souscription",
      "stock_group": "R"
    }
  ],
  "is_mainstock": 0,
  "prices_period": [
    null,
    null
  ],
  "stock_exchanges": {
    "1": {
      "id": 1,
      "name": "Paris (Official List)",
      "notations": {
        "202472": {
          "id": 202472,
          "sector_id": 657,
          "start_date": "1927-07-05",
          "end_date": "1927-07-19",
          "names": [
            {
              "name": "Act. De capital. Chalets de Nécessité et Etablissements Porcher Réunis (droit et coupon 120). Pour 4 actions anc. De capital, 1 action nouvelle émise à 900 francs.",
              "start_date": "1927-07-05",
              "end_date": "1927-07-19"
            }
          ]
        }
      },
      "listings_stats": {
        "start_date": "1927-07-05"
      }
    }
  },
  "prices_count": 0,
  "name": "Act. De capital. Chalets de Nécessité et Etablissements Porcher Réunis (droit et coupon 120). Pour 4 actions anc. De capital, 1 action nouvelle émise à 900 francs."
}