{
  "id": 4000,
  "share_type": {
    "id": 2,
    "name": "Bond (Obligation)"
  },
  "issuers": [
    {
      "id": 1162,
      "start_date": "1893-03-06",
      "end_date": "3999-12-31",
      "name": "Société autrichienne-hongroise privilégiée des chemins de fer de l'État"
    }
  ],
  "types": [
    {
      "start_date": "1893-03-06",
      "end_date": "3999-12-31",
      "id": 1001,
      "name": "Obligation ordinaire ou classique",
      "stock_group": "B"
    }
  ],
  "is_mainstock": 0,
  "prices_period": [
    "1893-03-06",
    "1893-07-15"
  ],
  "stock_exchanges": {
    "1": {
      "id": 1,
      "name": "Paris (Official List)",
      "notations": {
        "5099": {
          "id": 5099,
          "sector_id": 68,
          "start_date": "1893-03-06",
          "end_date": "1893-07-24",
          "names": [
            {
              "name": "(Chemines Autrichiens-Hongrois), Société Autrichienne-Hongroise privilégiée des Chemins de fer de l'Etat, Oblig. 3% (anc. réseau, 1er à 8e émiss). 1er hypoth., nos 1 à 803083, r. à 500 fr. {jouissance mars 1893}",
              "start_date": "1893-03-06",
              "end_date": "3999-12-31"
            }
          ]
        }
      },
      "listings_stats": {
        "start_date": "1893-03-06"
      },
      "spot_prices_stats": {
        "start_date": "1893-03-06",
        "end_date": "1893-07-15"
      }
    }
  },
  "prices_count": 26,
  "name": "(Chemines Autrichiens-Hongrois), Société Autrichienne-Hongroise privilégiée des Chemins de fer de l'Etat, Oblig. 3% (anc. réseau, 1er à 8e émiss). 1er hypoth., nos 1 à 803083, r. à 500 fr. {jouissance mars 1893}"
}