{
  "id": 20669,
  "share_type": {
    "id": 2,
    "name": "Bond (Obligation)"
  },
  "issuers": [
    {
      "id": 4367,
      "start_date": "1969-07-02",
      "end_date": "3999-12-31",
      "name": "Groupement des Industries de la Construction Electrique (Electromécanique, Electrique et Electronique)"
    }
  ],
  "types": [
    {
      "start_date": "1969-07-02",
      "end_date": "3999-12-31",
      "id": 1001,
      "name": "Obligation ordinaire ou classique",
      "stock_group": "B"
    }
  ],
  "is_mainstock": 0,
  "prices_period": [
    "1969-07-03",
    "1976-12-31"
  ],
  "stock_exchanges": {
    "1": {
      "id": 1,
      "name": "Paris (Official List)",
      "notations": {
        "151239": {
          "id": 151239,
          "sector_id": 369,
          "start_date": "1969-07-02",
          "end_date": "3999-12-31",
          "names": [
            {
              "name": "Groupement des industr. de construction Electrique (electromécanique et mécanique) (G.I.C.E.L) 7,25% 1969, remboursables 535 à 675 F (c 25/3/70 att) (Avis 69-442) 1971-88",
              "start_date": "1969-07-02",
              "end_date": "3999-12-31"
            }
          ]
        }
      },
      "listings_stats": {
        "start_date": "1969-07-02"
      },
      "spot_prices_stats": {
        "start_date": "1969-07-03",
        "end_date": "1976-12-31"
      }
    }
  },
  "prices_count": 181,
  "name": "Groupement des industr. de construction Electrique (electromécanique et mécanique) (G.I.C.E.L) 7,25% 1969, remboursables 535 à 675 F (c 25/3/70 att) (Avis 69-442) 1971-88"
}