{
  "id": 2916,
  "share_type": {
    "id": 2,
    "name": "Bond (Obligation)"
  },
  "issuers": [
    {
      "id": 469,
      "start_date": "1887-02-08",
      "end_date": "3999-12-31",
      "name": "ETATS : HOLLANDE"
    }
  ],
  "types": [
    {
      "start_date": "1887-02-08",
      "end_date": "3999-12-31",
      "id": 1001,
      "name": "Obligation ordinaire ou classique",
      "stock_group": "B"
    }
  ],
  "is_mainstock": 0,
  "prices_period": [
    "1892-10-31",
    "1893-05-15"
  ],
  "stock_exchanges": {
    "1": {
      "id": 1,
      "name": "Paris (Official List)",
      "notations": {
        "4015": {
          "id": 4015,
          "sector_id": 67,
          "start_date": "1887-02-08",
          "end_date": "1894-07-02",
          "names": [
            {
              "name": "Hollandais 3,5% 1886 (nég.ch.fixe 2fr.10), coup. De 12000 florins",
              "start_date": "1887-02-08",
              "end_date": "1894-07-02"
            },
            {
              "name": "Hollande 3,5% 1886 (nég.ch.fixe 2fr.10), coup. De 12000 florins",
              "start_date": "1887-02-08",
              "end_date": "3999-12-31"
            }
          ]
        }
      },
      "listings_stats": {
        "start_date": "1887-02-08"
      },
      "spot_prices_stats": {
        "start_date": "1892-10-31",
        "end_date": "1893-05-15"
      }
    }
  },
  "prices_count": 2,
  "name": "Hollande 3,5% 1886 (nég.ch.fixe 2fr.10), coup. De 12000 florins"
}