{
  "id": 18865,
  "share_type": {
    "id": 1,
    "name": "Stock (Action)"
  },
  "issuers": [
    {
      "id": 3821,
      "start_date": "1967-05-02",
      "end_date": "3999-12-31",
      "name": "ETABLISSEMENTS J. TISSOT et MAURICE PERRAIN Réunis"
    }
  ],
  "types": [
    {
      "start_date": "1967-05-02",
      "end_date": "3999-12-31",
      "id": 18,
      "name": "Action",
      "stock_group": "S"
    }
  ],
  "is_mainstock": 0,
  "prices_period": [
    "1967-05-03",
    "1969-03-17"
  ],
  "stock_exchanges": {
    "1": {
      "id": 1,
      "name": "Paris (Official List)",
      "notations": {
        "149440": {
          "id": 149440,
          "sector_id": 491,
          "start_date": "1967-05-02",
          "end_date": "1969-03-31",
          "names": [
            {
              "name": "Bordeaux_Bourse Tissot et Perrain Réunis (Etab'.), act.",
              "start_date": "1967-05-02",
              "end_date": "1969-03-31"
            },
            {
              "name": "BORDEAUX_BOURSE Tissot-Perrain, act.",
              "start_date": "1967-05-02",
              "end_date": "3999-12-31"
            }
          ]
        }
      },
      "listings_stats": {
        "start_date": "1967-05-02"
      },
      "spot_prices_stats": {
        "start_date": "1967-05-03",
        "end_date": "1969-03-17"
      }
    }
  },
  "prices_count": 46,
  "name": "BORDEAUX_BOURSE Tissot-Perrain, act."
}