{
  "id": 10954,
  "share_type": {
    "id": 1,
    "name": "Stock (Action)"
  },
  "issuers": [
    {
      "id": 4558,
      "start_date": "1937-02-03",
      "end_date": "3999-12-31",
      "name": "SOCIETE D'HYDROCARBURES DE SAINT-DENIS (Les Chantiers de France)"
    }
  ],
  "types": [
    {
      "start_date": "1937-02-03",
      "end_date": "3999-12-31",
      "id": 18,
      "name": "Action",
      "stock_group": "S"
    }
  ],
  "is_mainstock": 1,
  "prices_period": [
    "1937-02-05",
    "1951-08-31"
  ],
  "stock_exchanges": {
    "1": {
      "id": 1,
      "name": "Paris (Official List)",
      "notations": {
        "141529": {
          "id": 141529,
          "sector_id": 135,
          "start_date": "1937-02-03",
          "end_date": "1951-09-03",
          "names": [
            {
              "name": "Hydrocarbures de Saint-Denis (Les Chantiers de France), act. 100 f., t.p.",
              "start_date": "1937-02-03",
              "end_date": "1951-09-03"
            },
            {
              "name": "Hydrocarbures de Saint-Denis (Les Chantiers de France), act. 100 f., t.p. (ex-dr., )",
              "start_date": "1937-02-03",
              "end_date": "1951-09-03"
            },
            {
              "name": "Hydrocarbures de Saint-Denis (Les Chantiers de France), act. 140 fr., t. p.",
              "start_date": "1937-02-03",
              "end_date": "1951-09-03"
            },
            {
              "name": "Hydrocarbures de Saint-Denis (Les Chantiers de France), act. Anc. 140 fr., t. p.",
              "start_date": "1937-02-03",
              "end_date": "3999-12-31"
            }
          ]
        }
      },
      "listings_stats": {
        "start_date": "1937-02-03"
      },
      "spot_prices_stats": {
        "start_date": "1937-02-05",
        "end_date": "1951-08-31"
      }
    }
  },
  "prices_count": 395,
  "name": "Hydrocarbures de Saint-Denis (Les Chantiers de France), act. 140 fr., t. p."
}