{
  "id": 106144,
  "share_type": {
    "id": 1,
    "name": "Stock (Action)"
  },
  "issuers": [
    {
      "id": 4450,
      "start_date": "1961-10-16",
      "end_date": "1961-11-15",
      "name": "SOCIÉTÉ DE WENDEL ET Cie"
    }
  ],
  "types": [
    {
      "start_date": "1961-10-16",
      "end_date": "1961-11-15",
      "id": 18,
      "name": "Action",
      "stock_group": "S"
    }
  ],
  "is_mainstock": 0,
  "prices_period": [
    "1961-10-16",
    "1961-11-15"
  ],
  "stock_exchanges": {
    "1": {
      "id": 1,
      "name": "Paris (Official List)",
      "notations": {
        "207001": {
          "id": 207001,
          "sector_id": 104,
          "start_date": "1961-10-16",
          "end_date": "1961-11-15",
          "names": [
            {
              "name": "Wendel et Cie (de). Act. Nouv. (Jce 1/1/61)",
              "start_date": "1961-10-16",
              "end_date": "1961-11-15"
            }
          ]
        }
      },
      "listings_stats": {
        "start_date": "1961-10-16"
      },
      "spot_prices_stats": {
        "start_date": "1961-10-16",
        "end_date": "1961-11-15"
      }
    }
  },
  "prices_count": 4,
  "name": "Wendel et Cie (de). Act. Nouv. (Jce 1/1/61)"
}