{
  "id": 21229,
  "share_type": {
    "id": 3,
    "name": "OPTIONS"
  },
  "issuers": [
    {
      "id": 3206,
      "start_date": "1973-08-31",
      "end_date": "3999-12-31",
      "name": "GLACES ET VERRES SPECIAUX DU NORD DE LA FRANCE"
    }
  ],
  "types": [
    {
      "start_date": "1973-08-31",
      "end_date": "3999-12-31",
      "id": 2,
      "name": "Option",
      "stock_group": "M"
    }
  ],
  "is_mainstock": 0,
  "prices_period": [
    null,
    null
  ],
  "stock_exchanges": {
    "1": {
      "id": 1,
      "name": "Paris (Official List)",
      "notations": {
        "151799": {
          "id": 151799,
          "sector_id": 604,
          "start_date": "1973-08-31",
          "end_date": "1973-09-03",
          "names": [
            {
              "name": "B S N",
              "start_date": "1973-08-31",
              "end_date": "3999-12-31"
            }
          ]
        }
      },
      "listings_stats": {
        "start_date": "1973-08-31"
      }
    }
  },
  "prices_count": 0,
  "name": "B S N"
}