{
  "id": 13493,
  "share_type": {
    "id": 1,
    "name": "Stock (Action)"
  },
  "issuers": [
    {
      "id": 4911,
      "start_date": "1950-01-19",
      "end_date": "3999-12-31",
      "name": "Blyvooruitzicht Gold Mining Company Limited"
    }
  ],
  "types": [
    {
      "start_date": "1950-01-19",
      "end_date": "3999-12-31",
      "id": 18,
      "name": "Action",
      "stock_group": "S"
    }
  ],
  "is_mainstock": 0,
  "prices_period": [
    "1950-01-19",
    "1976-12-31"
  ],
  "stock_exchanges": {
    "1": {
      "id": 1,
      "name": "Paris (Official List)",
      "notations": {
        "24195": {
          "id": 24195,
          "sector_id": 311,
          "start_date": "1950-10-24",
          "end_date": "1951-11-02",
          "names": [
            {
              "name": "Blyvooruitzicht Gold Mining Cy, C.C.D.V.T. act. £ 0:2:6",
              "start_date": "1950-01-19",
              "end_date": "1951-11-02"
            },
            {
              "name": "Blyvooruitzicht Gold Mining, S.I.C.O.V.A.M. act. £0 : 2 : 6",
              "start_date": "1950-10-24",
              "end_date": "1951-11-02"
            },
            {
              "name": "Blyvooruitzicht Gold Mining, act. £ 0 : 2 : 6 (nominative)",
              "start_date": "1950-10-24",
              "end_date": "1955-12-01"
            },
            {
              "name": "Blyvooruitzicht Gold Mining, actions £ 0 : 2 : 6 (nom.) (Livraison en crédit S.I.C.O.V.A.M.)",
              "start_date": "1950-10-24",
              "end_date": "1961-07-11"
            },
            {
              "name": "Blyvooruitzicht Gold Mining, actions 0 R 25 (nom.) (Livraison en crédit S.I.C.O.V.A.M.)",
              "start_date": "1950-10-24",
              "end_date": "1962-01-02"
            },
            {
              "name": "Blyvooruitzicht Gold Mining, act. 0.25 R (Nom.)(Livraison en crédit S.I.C.O.V.A.M.)",
              "start_date": "1950-10-24",
              "end_date": "3999-12-31"
            }
          ]
        },
        "24484": {
          "id": 24484,
          "sector_id": 235,
          "start_date": "1951-11-02",
          "end_date": "1955-12-01",
          "names": [
            {
              "name": "Blyvooruitzicht Gold Mining Cy, C.C.D.V.T. act. £ 0:2:6",
              "start_date": "1950-01-19",
              "end_date": "1955-12-01"
            },
            {
              "name": "Blyvooruitzicht Gold Mining, S.I.C.O.V.A.M. act. £0 : 2 : 6",
              "start_date": "1950-10-24",
              "end_date": "1955-12-01"
            },
            {
              "name": "Blyvooruitzicht Gold Mining, act. £ 0 : 2 : 6 (nominative)",
              "start_date": "1951-04-04",
              "end_date": "1955-12-01"
            },
            {
              "name": "Blyvooruitzicht Gold Mining, actions £ 0 : 2 : 6 (nom.) (Livraison en crédit S.I.C.O.V.A.M.)",
              "start_date": "1951-11-02",
              "end_date": "1961-07-11"
            },
            {
              "name": "Blyvooruitzicht Gold Mining, actions 0 R 25 (nom.) (Livraison en crédit S.I.C.O.V.A.M.)",
              "start_date": "1951-11-02",
              "end_date": "1962-01-02"
            },
            {
              "name": "Blyvooruitzicht Gold Mining, act. 0.25 R (Nom.)(Livraison en crédit S.I.C.O.V.A.M.)",
              "start_date": "1951-11-02",
              "end_date": "3999-12-31"
            }
          ]
        },
        "26974": {
          "id": 26974,
          "sector_id": 82,
          "start_date": "1955-12-01",
          "end_date": "1962-01-02",
          "names": [
            {
              "name": "Blyvooruitzicht Gold Mining Cy, C.C.D.V.T. act. £ 0:2:6",
              "start_date": "1950-01-19",
              "end_date": "1962-01-02"
            },
            {
              "name": "Blyvooruitzicht Gold Mining, S.I.C.O.V.A.M. act. £0 : 2 : 6",
              "start_date": "1950-10-24",
              "end_date": "1962-01-02"
            },
            {
              "name": "Blyvooruitzicht Gold Mining, act. £ 0 : 2 : 6 (nominative)",
              "start_date": "1951-04-04",
              "end_date": "1962-01-02"
            },
            {
              "name": "Blyvooruitzicht Gold Mining, actions £ 0 : 2 : 6 (nom.) (Livraison en crédit S.I.C.O.V.A.M.)",
              "start_date": "1955-12-01",
              "end_date": "1962-01-02"
            },
            {
              "name": "Blyvooruitzicht Gold Mining, actions 0 R 25 (nom.) (Livraison en crédit S.I.C.O.V.A.M.)",
              "start_date": "1955-12-01",
              "end_date": "1962-01-02"
            },
            {
              "name": "Blyvooruitzicht Gold Mining, act. 0.25 R (Nom.)(Livraison en crédit S.I.C.O.V.A.M.)",
              "start_date": "1955-12-01",
              "end_date": "3999-12-31"
            }
          ]
        },
        "28779": {
          "id": 28779,
          "sector_id": 539,
          "start_date": "1962-01-02",
          "end_date": "3999-12-31",
          "names": [
            {
              "name": "Blyvooruitzicht Gold Mining Cy, C.C.D.V.T. act. £ 0:2:6",
              "start_date": "1950-01-19",
              "end_date": "3999-12-31"
            },
            {
              "name": "Blyvooruitzicht Gold Mining, S.I.C.O.V.A.M. act. £0 : 2 : 6",
              "start_date": "1950-10-24",
              "end_date": "3999-12-31"
            },
            {
              "name": "Blyvooruitzicht Gold Mining, act. £ 0 : 2 : 6 (nominative)",
              "start_date": "1951-04-04",
              "end_date": "3999-12-31"
            },
            {
              "name": "Blyvooruitzicht Gold Mining, actions £ 0 : 2 : 6 (nom.) (Livraison en crédit S.I.C.O.V.A.M.)",
              "start_date": "1955-12-01",
              "end_date": "3999-12-31"
            },
            {
              "name": "Blyvooruitzicht Gold Mining, actions 0 R 25 (nom.) (Livraison en crédit S.I.C.O.V.A.M.)",
              "start_date": "1961-07-11",
              "end_date": "3999-12-31"
            },
            {
              "name": "Blyvooruitzicht Gold Mining, act. 0.25 R (Nom.)(Livraison en crédit S.I.C.O.V.A.M.)",
              "start_date": "1962-01-02",
              "end_date": "3999-12-31"
            }
          ]
        },
        "144068": {
          "id": 144068,
          "sector_id": 82,
          "start_date": "1950-01-19",
          "end_date": "1950-10-24",
          "names": [
            {
              "name": "Blyvooruitzicht Gold Mining Cy, C.C.D.V.T. act. £ 0:2:6",
              "start_date": "1950-01-19",
              "end_date": "1950-10-24"
            },
            {
              "name": "Blyvooruitzicht Gold Mining, S.I.C.O.V.A.M. act. £0 : 2 : 6",
              "start_date": "1950-01-19",
              "end_date": "1951-04-04"
            },
            {
              "name": "Blyvooruitzicht Gold Mining, act. £ 0 : 2 : 6 (nominative)",
              "start_date": "1950-01-19",
              "end_date": "1955-12-01"
            },
            {
              "name": "Blyvooruitzicht Gold Mining, actions £ 0 : 2 : 6 (nom.) (Livraison en crédit S.I.C.O.V.A.M.)",
              "start_date": "1950-01-19",
              "end_date": "1961-07-11"
            },
            {
              "name": "Blyvooruitzicht Gold Mining, actions 0 R 25 (nom.) (Livraison en crédit S.I.C.O.V.A.M.)",
              "start_date": "1950-01-19",
              "end_date": "1962-01-02"
            },
            {
              "name": "Blyvooruitzicht Gold Mining, act. 0.25 R (Nom.)(Livraison en crédit S.I.C.O.V.A.M.)",
              "start_date": "1950-01-19",
              "end_date": "3999-12-31"
            }
          ]
        }
      },
      "listings_stats": {
        "start_date": "1950-01-19"
      },
      "spot_prices_stats": {
        "start_date": "1950-01-19",
        "end_date": "1976-12-31"
      }
    }
  },
  "prices_count": 849,
  "name": "Blyvooruitzicht Gold Mining, act. 0.25 R (Nom.)(Livraison en crédit S.I.C.O.V.A.M.)"
}