{
  "id": 4560,
  "share_type": {
    "id": 2,
    "name": "Bond (Obligation)"
  },
  "issuers": [
    {
      "id": 2684,
      "start_date": "1899-09-19",
      "end_date": "3999-12-31",
      "name": "SUEDE"
    }
  ],
  "types": [
    {
      "start_date": "1899-09-19",
      "end_date": "3999-12-31",
      "id": 1001,
      "name": "Obligation ordinaire ou classique",
      "stock_group": "B"
    }
  ],
  "is_mainstock": 0,
  "prices_period": [
    "1899-09-19",
    "1935-07-16"
  ],
  "stock_exchanges": {
    "1": {
      "id": 1,
      "name": "Paris (Official List)",
      "notations": {
        "5659": {
          "id": 5659,
          "sector_id": 67,
          "start_date": "1899-09-19",
          "end_date": "1914-08-03",
          "names": [
            {
              "name": "Suède 1899, 3,5%. Tit. de 175 fr.",
              "start_date": "1899-09-19",
              "end_date": "1925-05-01"
            },
            {
              "name": "Suède 3,5% 1899 T. 175 fr. rente",
              "start_date": "1899-09-19",
              "end_date": "1931-08-03"
            },
            {
              "name": "Suède 3,5% 1899 T. 3600 c. ou 5000 fr. cap. (nég. ch. fixe 7 fr.)",
              "start_date": "1899-09-19",
              "end_date": "1934-01-02"
            },
            {
              "name": "Suède 3,5% 1899. T. 3600 c. ou 5000 fr. cap",
              "start_date": "1899-09-19",
              "end_date": "3999-12-31"
            }
          ]
        },
        "6926": {
          "id": 6926,
          "sector_id": 67,
          "start_date": "1914-12-15",
          "end_date": "1925-05-01",
          "names": [
            {
              "name": "Suède 1899, 3,5%. Tit. de 175 fr.",
              "start_date": "1899-09-19",
              "end_date": "1925-05-01"
            },
            {
              "name": "Suède 3,5% 1899 T. 175 fr. rente",
              "start_date": "1914-12-15",
              "end_date": "1931-08-03"
            },
            {
              "name": "Suède 3,5% 1899 T. 3600 c. ou 5000 fr. cap. (nég. ch. fixe 7 fr.)",
              "start_date": "1914-12-15",
              "end_date": "1934-01-02"
            },
            {
              "name": "Suède 3,5% 1899. T. 3600 c. ou 5000 fr. cap",
              "start_date": "1914-12-15",
              "end_date": "3999-12-31"
            }
          ]
        },
        "13462": {
          "id": 13462,
          "sector_id": 74,
          "start_date": "1925-05-01",
          "end_date": "1935-08-16",
          "names": [
            {
              "name": "Suède 1899, 3,5%. Tit. de 175 fr.",
              "start_date": "1899-09-19",
              "end_date": "1935-08-16"
            },
            {
              "name": "Suède 3,5% 1899 T. 175 fr. rente",
              "start_date": "1925-05-01",
              "end_date": "1935-08-16"
            },
            {
              "name": "Suède 3,5% 1899 T. 3600 c. ou 5000 fr. cap. (nég. ch. fixe 7 fr.)",
              "start_date": "1925-05-01",
              "end_date": "1935-08-16"
            },
            {
              "name": "Suède 3,5% 1899. T. 3600 c. ou 5000 fr. cap",
              "start_date": "1925-05-01",
              "end_date": "3999-12-31"
            }
          ]
        }
      },
      "listings_stats": {
        "start_date": "1899-09-19"
      },
      "spot_prices_stats": {
        "start_date": "1899-09-19",
        "end_date": "1935-07-16"
      }
    }
  },
  "prices_count": 413,
  "name": "Suède 3,5% 1899. T. 3600 c. ou 5000 fr. cap"
}