{
  "id": 9170,
  "share_type": {
    "id": 1,
    "name": "Stock (Action)"
  },
  "issuers": [
    {
      "id": 5367,
      "start_date": "1928-06-06",
      "end_date": "3999-12-31",
      "name": "SUCRERIE DE SAINT-LEU D'ESSERENT"
    }
  ],
  "types": [
    {
      "start_date": "1928-06-06",
      "end_date": "3999-12-31",
      "id": 11,
      "name": "Action ordinaire",
      "stock_group": "S"
    }
  ],
  "is_mainstock": 1,
  "prices_period": [
    "1928-06-11",
    "1930-02-15"
  ],
  "stock_exchanges": {
    "1": {
      "id": 1,
      "name": "Paris (Official List)",
      "notations": {
        "136617": {
          "id": 136617,
          "sector_id": 180,
          "start_date": "1928-06-06",
          "end_date": "1930-02-20",
          "names": [
            {
              "name": "Sucrerie de Saint-Leu d'Esserent, act. 100 fr., t.p. (c. 7 att.)",
              "start_date": "1928-06-06",
              "end_date": "3999-12-31"
            }
          ]
        }
      },
      "listings_stats": {
        "start_date": "1928-06-06"
      },
      "spot_prices_stats": {
        "start_date": "1928-06-11",
        "end_date": "1930-02-15"
      }
    }
  },
  "prices_count": 75,
  "name": "Sucrerie de Saint-Leu d'Esserent, act. 100 fr., t.p. (c. 7 att.)"
}