{
  "id": 4967,
  "share_type": {
    "id": 1,
    "name": "Stock (Action)"
  },
  "issuers": [
    {
      "id": 1641,
      "start_date": "1902-01-03",
      "end_date": "3999-12-31",
      "name": "SOCIETE DES MINES DE LENS"
    }
  ],
  "types": [
    {
      "start_date": "1902-01-03",
      "end_date": "3999-12-31",
      "id": 17,
      "name": "Part sociale",
      "stock_group": "S"
    }
  ],
  "is_mainstock": 1,
  "prices_period": [
    "1902-01-03",
    "1904-11-30"
  ],
  "stock_exchanges": {
    "1": {
      "id": 1,
      "name": "Paris (Official List)",
      "notations": {
        "1742": {
          "id": 1742,
          "sector_id": 103,
          "start_date": "1902-05-26",
          "end_date": "1905-01-21",
          "names": [
            {
              "name": "Mines de Lens (Soc. Civile), parts nomin.",
              "start_date": "1902-01-03",
              "end_date": "3999-12-31"
            }
          ]
        },
        "6066": {
          "id": 6066,
          "sector_id": 73,
          "start_date": "1902-01-03",
          "end_date": "1902-05-26",
          "names": [
            {
              "name": "Mines de Lens (Soc. Civile), parts nomin.",
              "start_date": "1902-01-03",
              "end_date": "3999-12-31"
            }
          ]
        }
      },
      "listings_stats": {
        "start_date": "1902-01-03"
      },
      "spot_prices_stats": {
        "start_date": "1902-01-03",
        "end_date": "1904-11-30"
      }
    }
  },
  "prices_count": 5,
  "name": "Mines de Lens (Soc. Civile), parts nomin."
}