{
  "id": 11715,
  "share_type": {
    "id": 1,
    "name": "Stock (Action)"
  },
  "issuers": [
    {
      "id": 2439,
      "start_date": "1943-05-27",
      "end_date": "3999-12-31",
      "name": "CHEMINS DE FER SUR ROUTES D'ALGERIE"
    }
  ],
  "types": [
    {
      "start_date": "1943-05-27",
      "end_date": "3999-12-31",
      "id": 14,
      "name": "Action prioritaire",
      "stock_group": "S"
    }
  ],
  "is_mainstock": 0,
  "prices_period": [
    "1943-06-01",
    "1949-09-15"
  ],
  "stock_exchanges": {
    "1": {
      "id": 1,
      "name": "Paris (Official List)",
      "notations": {
        "142290": {
          "id": 142290,
          "sector_id": 98,
          "start_date": "1943-05-27",
          "end_date": "1949-09-30",
          "names": [
            {
              "name": "Algérie (Ch. Fer sur routes d'), act. Prior. 200 fr., t. p. (n°s 40001 à 80000)",
              "start_date": "1943-05-27",
              "end_date": "1949-09-30"
            },
            {
              "name": "Algérie (Ch. Fer sur routes d'), Act. Prior. 200 fr., t. p. (n°s 40001 à 82100)",
              "start_date": "1943-05-27",
              "end_date": "1949-09-30"
            },
            {
              "name": "Algérie (Ch. Fer sur routes d'), Act. Prior. 200 f., t.p., 30 f. r. (n°s 40001 à 82100)",
              "start_date": "1943-05-27",
              "end_date": "3999-12-31"
            }
          ]
        }
      },
      "listings_stats": {
        "start_date": "1943-05-27"
      },
      "spot_prices_stats": {
        "start_date": "1943-06-01",
        "end_date": "1949-09-15"
      }
    }
  },
  "prices_count": 136,
  "name": "Algérie (Ch. Fer sur routes d'), Act. Prior. 200 fr., t. p. (n°s 40001 à 82100)"
}