{
  "id": 4716,
  "share_type": {
    "id": 2,
    "name": "Bond (Obligation)"
  },
  "issuers": [
    {
      "id": 100,
      "start_date": "1903-04-24",
      "end_date": "3999-12-31",
      "name": "RENTES FRANÇAISES"
    }
  ],
  "types": [
    {
      "start_date": "1903-04-24",
      "end_date": "3999-12-31",
      "id": 1001,
      "name": "Obligation ordinaire ou classique",
      "stock_group": "B"
    }
  ],
  "is_mainstock": 0,
  "prices_period": [
    "1903-04-24",
    "1903-09-30"
  ],
  "stock_exchanges": {
    "1": {
      "id": 1,
      "name": "Paris (Official List)",
      "notations": {
        "1573": {
          "id": 1573,
          "sector_id": 10,
          "start_date": "1903-04-27",
          "end_date": "1903-08-28",
          "names": [
            {
              "name": "Obligations du Trésor à court terme, Echéance mars 1907 et 1908 C. de 10000 fr.",
              "start_date": "1903-04-24",
              "end_date": "3999-12-31"
            }
          ]
        },
        "1574": {
          "id": 1574,
          "sector_id": 10,
          "start_date": "1903-08-29",
          "end_date": "1903-10-14",
          "names": [
            {
              "name": "Obligations du Trésor à court terme, Echéance mars 1907 et 1908 C. de 10000 fr.",
              "start_date": "1903-04-24",
              "end_date": "3999-12-31"
            }
          ]
        },
        "5815": {
          "id": 5815,
          "sector_id": 10,
          "start_date": "1903-04-24",
          "end_date": "1903-04-25",
          "names": [
            {
              "name": "Obligations du Trésor à court terme, Echéance mars 1907 et 1908 C. de 10000 fr.",
              "start_date": "1903-04-24",
              "end_date": "3999-12-31"
            }
          ]
        }
      },
      "listings_stats": {
        "start_date": "1903-04-24"
      },
      "spot_prices_stats": {
        "start_date": "1903-04-24",
        "end_date": "1903-09-30"
      }
    }
  },
  "prices_count": 11,
  "name": "Obligations du Trésor à court terme, Echéance mars 1907 et 1908 C. de 10000 fr."
}