{
  "id": 106521,
  "share_type": {
    "id": 1,
    "name": "Stock (Action)"
  },
  "issuers": [
    {
      "id": 6128,
      "start_date": "1975-12-15",
      "end_date": "3999-12-31",
      "name": "Locabail"
    }
  ],
  "types": [
    {
      "start_date": "1975-12-15",
      "end_date": "3999-12-31",
      "id": 18,
      "name": "Action",
      "stock_group": "S"
    }
  ],
  "is_mainstock": 0,
  "prices_period": [
    "1975-12-15",
    "1975-12-31"
  ],
  "stock_exchanges": {
    "1": {
      "id": 1,
      "name": "Paris (Official List)",
      "notations": {
        "207563": {
          "id": 207563,
          "sector_id": 333,
          "start_date": "1975-12-15",
          "end_date": "3999-12-31",
          "names": [
            {
              "name": "Locabail lmmobilier, act. (c. 1 ou 1 barre att.) (Avis 75-952)",
              "start_date": "1975-12-15",
              "end_date": "3999-12-31"
            }
          ]
        }
      },
      "listings_stats": {
        "start_date": "1975-12-15"
      },
      "spot_prices_stats": {
        "start_date": "1975-12-15",
        "end_date": "1975-12-31"
      }
    }
  },
  "prices_count": 2,
  "name": "Locabail lmmobilier, act. (c. 1 ou 1 barre att.) (Avis 75-952)"
}