{
  "id": 20643,
  "share_type": {
    "id": 2,
    "name": "Bond (Obligation)"
  },
  "issuers": [
    {
      "id": 5641,
      "start_date": "1970-12-11",
      "end_date": "3999-12-31",
      "name": "Mapa"
    }
  ],
  "types": [
    {
      "start_date": "1970-12-11",
      "end_date": "3999-12-31",
      "id": 1001,
      "name": "Obligation ordinaire ou classique",
      "stock_group": "B"
    }
  ],
  "is_mainstock": 0,
  "prices_period": [
    "1970-12-15",
    "1976-12-31"
  ],
  "stock_exchanges": {
    "1": {
      "id": 1,
      "name": "Paris (Official List)",
      "notations": {
        "151213": {
          "id": 151213,
          "sector_id": 509,
          "start_date": "1970-12-11",
          "end_date": "3999-12-31",
          "names": [
            {
              "name": "Mapa-Fit, 8,75% sept. 1970 (c. 14/9/71 att.) 1971-85",
              "start_date": "1970-12-11",
              "end_date": "3999-12-31"
            },
            {
              "name": "Mapa-Fit 8,75% sept. 1970 (Tir. 7/8/72) 1971-85",
              "start_date": "1970-12-11",
              "end_date": "3999-12-31"
            },
            {
              "name": "Hutchinson-Mapa (ex -Mapa-Fit) 8,75% sept. 1970 (Tir. 7/8/72) 1971-85",
              "start_date": "1970-12-11",
              "end_date": "3999-12-31"
            }
          ]
        }
      },
      "listings_stats": {
        "start_date": "1970-12-11"
      },
      "spot_prices_stats": {
        "start_date": "1970-12-15",
        "end_date": "1976-12-31"
      }
    }
  },
  "prices_count": 147,
  "name": "Mapa-Fit 8,75% sept. 1970 (Tir. 7/8/72) 1971-85"
}