{
  "id": 19114,
  "share_type": {
    "id": 1,
    "name": "Stock (Action)"
  },
  "issuers": [
    {
      "id": 1683,
      "start_date": "1967-05-02",
      "end_date": "3999-12-31",
      "name": "COMPAGNIE DES HAUTS-FOURNEAUX DE CHASSE (ISERE)"
    }
  ],
  "types": [
    {
      "start_date": "1967-05-02",
      "end_date": "3999-12-31",
      "id": 18,
      "name": "Action",
      "stock_group": "S"
    }
  ],
  "is_mainstock": 0,
  "prices_period": [
    "1967-05-02",
    "1971-12-15"
  ],
  "stock_exchanges": {
    "1": {
      "id": 1,
      "name": "Paris (Official List)",
      "notations": {
        "149689": {
          "id": 149689,
          "sector_id": 104,
          "start_date": "1967-05-02",
          "end_date": "1971-12-20",
          "names": [
            {
              "name": "Lyon_Bourse Hauts-Fourneaux de Chasse, act.",
              "start_date": "1967-05-02",
              "end_date": "3999-12-31"
            }
          ]
        }
      },
      "listings_stats": {
        "start_date": "1967-05-02"
      },
      "spot_prices_stats": {
        "start_date": "1967-05-02",
        "end_date": "1971-12-15"
      }
    }
  },
  "prices_count": 113,
  "name": "Lyon_Bourse Hauts-Fourneaux de Chasse, act."
}