{
  "id": 7972,
  "share_type": {
    "id": 1,
    "name": "Stock (Action)"
  },
  "issuers": [
    {
      "id": 2357,
      "start_date": "1925-04-23",
      "end_date": "1952-07-01",
      "name": "ÉTABLISSEMENTS MESTRE ET BLATGE"
    }
  ],
  "types": [
    {
      "start_date": "1925-04-23",
      "end_date": "1951-11-30",
      "id": 18,
      "name": "Action",
      "stock_group": "S"
    }
  ],
  "is_mainstock": 1,
  "prices_period": [
    "1925-04-23",
    "1952-06-30"
  ],
  "stock_exchanges": {
    "1": {
      "id": 1,
      "name": "Paris (Official List)",
      "notations": {
        "34842": {
          "id": 34842,
          "sector_id": 182,
          "start_date": "1925-04-23",
          "end_date": "1939-07-31",
          "names": [
            {
              "name": "Mestre et Blatgé (Etabl.), act. ord. 100 fr., t. p.",
              "start_date": "1925-04-23",
              "end_date": "1939-07-31"
            },
            {
              "name": "Mestre et Blatgé (Etabl.), act. ord. 100 fr., t.p. (ex-dr., )",
              "start_date": "1925-04-23",
              "end_date": "1939-07-31"
            },
            {
              "name": "Mestre et Blatgé (Etabl.), act. ord. 100 fr., t.p. (titres nouv., teinte rose, c. 31 att)",
              "start_date": "1925-04-23",
              "end_date": "1952-07-01"
            }
          ]
        },
        "155068": {
          "id": 155068,
          "sector_id": 182,
          "start_date": "1939-07-31",
          "end_date": "1952-07-01",
          "names": [
            {
              "name": "Mestre et Blatgé (Etabl.), act. ord. 100 fr., t. p.",
              "start_date": "1925-04-23",
              "end_date": "1952-07-01"
            },
            {
              "name": "Mestre et Blatgé (Etabl.), act. ord. 100 fr., t.p. (ex-dr., )",
              "start_date": "1929-02-05",
              "end_date": "1952-07-01"
            },
            {
              "name": "Mestre et Blatgé (Etabl.), act. ord. 100 fr., t.p. (titres nouv., teinte rose, c. 31 att)",
              "start_date": "1939-07-30",
              "end_date": "1952-07-01"
            }
          ]
        }
      },
      "listings_stats": {
        "start_date": "1925-04-23"
      },
      "spot_prices_stats": {
        "start_date": "1925-04-23",
        "end_date": "1952-06-30"
      }
    }
  },
  "prices_count": 608,
  "name": "Mestre et Blatgé (Etabl.), act. ord. 100 fr., t.p. (ex-dr., )"
}