{
  "id": 100424,
  "share_type": {
    "id": 4,
    "name": "Rights (Droits)"
  },
  "issuers": [
    {
      "id": 3066,
      "start_date": "1950-01-03",
      "end_date": "1951-06-13",
      "name": "CIE DES MINES DE VICOIGNE, NŒUX ET DROCOURT"
    }
  ],
  "types": [
    {
      "start_date": "1950-01-03",
      "end_date": "1951-06-13",
      "id": 502,
      "name": "Droit d'attribution",
      "stock_group": "R"
    }
  ],
  "is_mainstock": 0,
  "prices_period": [
    null,
    null
  ],
  "stock_exchanges": {
    "1": {
      "id": 1,
      "name": "Paris (Official List)",
      "notations": {
        "200438": {
          "id": 200438,
          "sector_id": 658,
          "start_date": "1950-01-03",
          "end_date": "1951-06-14",
          "names": [
            {
              "name": "Mines de Vicoigne, Nœux et Drocourt (1 action Sté Industrielle et Financière de l'Artois pour 4 actions Vicoigne)",
              "start_date": "1950-01-03",
              "end_date": "1951-06-14"
            }
          ]
        }
      },
      "listings_stats": {
        "start_date": "1950-01-03"
      }
    }
  },
  "prices_count": 0,
  "name": "Mines de Vicoigne, Nœux et Drocourt (1 action Sté Industrielle et Financière de l'Artois pour 4 actions Vicoigne)"
}