{
  "id": 9139,
  "share_type": {
    "id": 1,
    "name": "Stock (Action)"
  },
  "issuers": [
    {
      "id": 5362,
      "start_date": "1928-07-11",
      "end_date": "3999-12-31",
      "name": "SOCIÉTÉ FRANCO-BELGE POUR LA FABRICATION MÉCANIQUE DU VERRE (Procédés Libbey-Owens)"
    }
  ],
  "types": [
    {
      "start_date": "1928-07-11",
      "end_date": "3999-12-31",
      "id": 11,
      "name": "Action ordinaire",
      "stock_group": "S"
    }
  ],
  "is_mainstock": 1,
  "prices_period": [
    "1928-07-12",
    "1955-06-30"
  ],
  "stock_exchanges": {
    "1": {
      "id": 1,
      "name": "Paris (Official List)",
      "notations": {
        "21983": {
          "id": 21983,
          "sector_id": 242,
          "start_date": "1948-06-30",
          "end_date": "1955-07-01",
          "names": [
            {
              "name": "Fabrication Mécanique du Verre (Procédés Libbey-Owens) (Sté Franco-Belge pour la), act. B 500 fr.., t.p. (nos 60001 à 120000)",
              "start_date": "1928-07-11",
              "end_date": "1955-07-01"
            },
            {
              "name": "Fabrication Mécanique du Verre (Sté Franco-Belge pour la), act. B 500 fr., t.p. (nos 60001 à 120000)",
              "start_date": "1941-03-19",
              "end_date": "1955-07-01"
            },
            {
              "name": "Fabrication Mécanique du Verre (Sté Franco-Belge pour la), actions B 500 fr., t.p. (n°s 60001 à 120000) (ex-dr., )",
              "start_date": "1948-06-30",
              "end_date": "1955-07-01"
            },
            {
              "name": "Fabrication Mécanique du Verre, act. B 500 fr., t. p. (n° 60001 à 300000) (ex-dr., )",
              "start_date": "1948-06-30",
              "end_date": "3999-12-31"
            }
          ]
        },
        "136586": {
          "id": 136586,
          "sector_id": 135,
          "start_date": "1928-07-11",
          "end_date": "1948-06-30",
          "names": [
            {
              "name": "Fabrication Mécanique du Verre (Procédés Libbey-Owens) (Sté Franco-Belge pour la), act. B 500 fr.., t.p. (nos 60001 à 120000)",
              "start_date": "1928-07-11",
              "end_date": "1948-06-30"
            },
            {
              "name": "Fabrication Mécanique du Verre (Sté Franco-Belge pour la), act. B 500 fr., t.p. (nos 60001 à 120000)",
              "start_date": "1928-07-11",
              "end_date": "1948-06-30"
            },
            {
              "name": "Fabrication Mécanique du Verre (Sté Franco-Belge pour la), actions B 500 fr., t.p. (n°s 60001 à 120000) (ex-dr., )",
              "start_date": "1928-07-11",
              "end_date": "1955-07-01"
            },
            {
              "name": "Fabrication Mécanique du Verre, act. B 500 fr., t. p. (n° 60001 à 300000) (ex-dr., )",
              "start_date": "1928-07-11",
              "end_date": "3999-12-31"
            }
          ]
        }
      },
      "listings_stats": {
        "start_date": "1928-07-11"
      },
      "spot_prices_stats": {
        "start_date": "1928-07-12",
        "end_date": "1955-06-30"
      }
    }
  },
  "prices_count": 659,
  "name": "Fabrication Mécanique du Verre (Sté Franco-Belge pour la), act. B 500 fr., t.p. (nos 60001 à 120000)"
}