{
  "id": 12640,
  "share_type": {
    "id": 2,
    "name": "Bond (Obligation)"
  },
  "issuers": [
    {
      "id": 536,
      "start_date": "1948-01-07",
      "end_date": "3999-12-31",
      "name": "HAUTS FOURNEAUX, FORGES ET ACIÉRIES DE DENAIN ET D'ANZIN"
    }
  ],
  "types": [
    {
      "start_date": "1948-01-07",
      "end_date": "3999-12-31",
      "id": 1001,
      "name": "Obligation ordinaire ou classique",
      "stock_group": "B"
    }
  ],
  "is_mainstock": 0,
  "prices_period": [
    "1948-01-07",
    "1967-05-31"
  ],
  "stock_exchanges": {
    "1": {
      "id": 1,
      "name": "Paris (Official List)",
      "notations": {
        "28430": {
          "id": 28430,
          "sector_id": 517,
          "start_date": "1962-01-02",
          "end_date": "1963-03-04",
          "names": [
            {
              "name": "Hauts-Fourneaux, Forges et Aciéries de Denain et d'Anzin 5% 1947, remb. à 10000 fr. 1948-77",
              "start_date": "1948-01-07",
              "end_date": "1963-03-04"
            },
            {
              "name": "Denain-Anzin 5% 1947, remb. à 10000 fr. 1948-77",
              "start_date": "1950-08-30",
              "end_date": "1963-03-04"
            },
            {
              "name": "Denain-Anzin 5% 1947 (Rach. Ou Tir.) 1948-77",
              "start_date": "1955-12-01",
              "end_date": "3999-12-31"
            }
          ]
        },
        "31183": {
          "id": 31183,
          "sector_id": 111,
          "start_date": "1963-03-04",
          "end_date": "1967-06-13",
          "names": [
            {
              "name": "Hauts-Fourneaux, Forges et Aciéries de Denain et d'Anzin 5% 1947, remb. à 10000 fr. 1948-77",
              "start_date": "1948-01-07",
              "end_date": "1967-06-13"
            },
            {
              "name": "Denain-Anzin 5% 1947, remb. à 10000 fr. 1948-77",
              "start_date": "1950-08-30",
              "end_date": "1967-06-13"
            },
            {
              "name": "Denain-Anzin 5% 1947 (Rach. Ou Tir.) 1948-77",
              "start_date": "1955-12-01",
              "end_date": "3999-12-31"
            }
          ]
        },
        "143215": {
          "id": 143215,
          "sector_id": 111,
          "start_date": "1948-01-07",
          "end_date": "1962-01-02",
          "names": [
            {
              "name": "Hauts-Fourneaux, Forges et Aciéries de Denain et d'Anzin 5% 1947, remb. à 10000 fr. 1948-77",
              "start_date": "1948-01-07",
              "end_date": "1962-01-02"
            },
            {
              "name": "Denain-Anzin 5% 1947, remb. à 10000 fr. 1948-77",
              "start_date": "1948-01-07",
              "end_date": "1962-01-02"
            },
            {
              "name": "Denain-Anzin 5% 1947 (Rach. Ou Tir.) 1948-77",
              "start_date": "1948-01-07",
              "end_date": "3999-12-31"
            }
          ]
        }
      },
      "listings_stats": {
        "start_date": "1948-01-07"
      },
      "spot_prices_stats": {
        "start_date": "1948-01-07",
        "end_date": "1967-05-31"
      }
    }
  },
  "prices_count": 480,
  "name": "Denain-Anzin 5% 1947, remb. à 10000 fr. 1948-77"
}