{
  "id": 17962,
  "share_type": {
    "id": 1,
    "name": "Stock (Action)"
  },
  "issuers": [
    {
      "id": 2058,
      "start_date": "1963-05-06",
      "end_date": "3999-12-31",
      "name": "FONDERIES MONTUPET (Montupet-Primet et Cie)"
    }
  ],
  "types": [
    {
      "start_date": "1963-05-06",
      "end_date": "3999-12-31",
      "id": 27,
      "name": "Promesse d'action",
      "stock_group": "S"
    }
  ],
  "is_mainstock": 0,
  "prices_period": [
    "1963-05-06",
    "1963-07-16"
  ],
  "stock_exchanges": {
    "1": {
      "id": 1,
      "name": "Paris (Official List)",
      "notations": {
        "148537": {
          "id": 148537,
          "sector_id": 341,
          "start_date": "1963-05-06",
          "end_date": "1963-07-30",
          "names": [
            {
              "name": "Montupet (Fonderies Montupet, Primet et Cie), Promesses (Jce 1/1/63)",
              "start_date": "1963-05-06",
              "end_date": "3999-12-31"
            }
          ]
        }
      },
      "listings_stats": {
        "start_date": "1963-05-06"
      },
      "spot_prices_stats": {
        "start_date": "1963-05-06",
        "end_date": "1963-07-16"
      }
    }
  },
  "prices_count": 6,
  "name": "Montupet (Fonderies Montupet, Primet et Cie), Promesses (Jce 1/1/63)"
}