{
  "id": 100653,
  "share_type": {
    "id": 4,
    "name": "Rights (Droits)"
  },
  "issuers": [
    {
      "id": 4137,
      "start_date": "1946-12-11",
      "end_date": "1947-01-06",
      "name": "SOCIETE D'APPLICATIONS GENERALES D'ELECTRICITE ET DE MECANIQUE (S.A.GE.M.)"
    }
  ],
  "types": [
    {
      "start_date": "1946-12-11",
      "end_date": "1947-01-06",
      "id": 501,
      "name": "Droit de souscription",
      "stock_group": "R"
    }
  ],
  "is_mainstock": 0,
  "prices_period": [
    "1946-12-11",
    "1946-12-16"
  ],
  "stock_exchanges": {
    "1": {
      "id": 1,
      "name": "Paris (Official List)",
      "notations": {
        "200759": {
          "id": 200759,
          "sector_id": 657,
          "start_date": "1946-12-11",
          "end_date": "1947-01-07",
          "names": [
            {
              "name": "S.A.G.E.M. (Sté d'Applic. Gle et Méc.) (dr. et coupon 15). 3 actions émises à 600 fr. pour 1 action. anc.",
              "start_date": "1946-12-11",
              "end_date": "1947-01-07"
            }
          ]
        }
      },
      "listings_stats": {
        "start_date": "1946-12-11"
      },
      "spot_prices_stats": {
        "start_date": "1946-12-11",
        "end_date": "1946-12-16"
      }
    }
  },
  "prices_count": 2,
  "name": "S.A.G.E.M. (Sté d'Applic. Gle et Méc.) (dr. et coupon 15). 3 actions émises à 600 fr. pour 1 action. anc."
}