{
  "id": 18658,
  "share_type": {
    "id": 2,
    "name": "Bond (Obligation)"
  },
  "issuers": [
    {
      "id": 1267,
      "start_date": "1967-05-02",
      "end_date": "3999-12-31",
      "name": "VILLE DE LILLE"
    }
  ],
  "types": [
    {
      "start_date": "1967-05-02",
      "end_date": "3999-12-31",
      "id": 1001,
      "name": "Obligation ordinaire ou classique",
      "stock_group": "B"
    }
  ],
  "is_mainstock": 0,
  "prices_period": [
    "1967-05-08",
    "1973-08-31"
  ],
  "stock_exchanges": {
    "1": {
      "id": 1,
      "name": "Paris (Official List)",
      "notations": {
        "149233": {
          "id": 149233,
          "sector_id": 201,
          "start_date": "1967-05-02",
          "end_date": "1973-09-17",
          "names": [
            {
              "name": "Lille_Bourse Lille 5% 1935 (Tir. 31/1/67) 1936-75",
              "start_date": "1967-05-02",
              "end_date": "1973-09-17"
            },
            {
              "name": "Lille_Bourse Lille 5% 1935 de 10 F (Tir. 18/1/73). 1936-75",
              "start_date": "1967-05-02",
              "end_date": "3999-12-31"
            }
          ]
        }
      },
      "listings_stats": {
        "start_date": "1967-05-02"
      },
      "spot_prices_stats": {
        "start_date": "1967-05-08",
        "end_date": "1973-08-31"
      }
    }
  },
  "prices_count": 153,
  "name": "Lille_Bourse Lille 5% 1935 (Tir. 31/1/67) 1936-75"
}