{
  "id": 19762,
  "share_type": {
    "id": 2,
    "name": "Bond (Obligation)"
  },
  "issuers": [
    {
      "id": 11582,
      "start_date": "1948-07-31",
      "end_date": "3999-12-31",
      "name": "COMPAGNIE DES MESSAGERIES MARITIMES"
    }
  ],
  "types": [
    {
      "start_date": "1967-06-30",
      "end_date": "3999-12-31",
      "id": 1001,
      "name": "Obligation ordinaire ou classique",
      "stock_group": "B"
    }
  ],
  "is_mainstock": 0,
  "prices_period": [
    "1967-06-30",
    "1976-12-31"
  ],
  "stock_exchanges": {
    "1": {
      "id": 1,
      "name": "Paris (Official List)",
      "notations": {
        "150337": {
          "id": 150337,
          "sector_id": 112,
          "start_date": "1967-06-30",
          "end_date": "3999-12-31",
          "names": [
            {
              "name": "Messageries Maritimes (Cie des) 6,25% fév. 1967 (c. 1/2/68 att.) 1970-85",
              "start_date": "1967-06-30",
              "end_date": "3999-12-31"
            }
          ]
        }
      },
      "listings_stats": {
        "start_date": "1967-06-30"
      },
      "spot_prices_stats": {
        "start_date": "1967-06-30",
        "end_date": "1976-12-31"
      }
    }
  },
  "prices_count": 162,
  "name": "Messageries Maritimes (Cie des) 6,25% fév. 1967 (c. 1/2/68 att.) 1970-85"
}