{
  "id": 15362,
  "share_type": {
    "id": 1,
    "name": "Stock (Action)"
  },
  "issuers": [
    {
      "id": 4206,
      "start_date": "1956-07-12",
      "end_date": "3999-12-31",
      "name": "TRANSPORTS AUTOMOBILES INDUSTRIELS ET COMMERCIAUX"
    }
  ],
  "types": [
    {
      "start_date": "1956-07-12",
      "end_date": "3999-12-31",
      "id": 27,
      "name": "Promesse d'action",
      "stock_group": "S"
    }
  ],
  "is_mainstock": 0,
  "prices_period": [
    "1956-07-12",
    "1956-11-15"
  ],
  "stock_exchanges": {
    "1": {
      "id": 1,
      "name": "Paris (Official List)",
      "notations": {
        "145937": {
          "id": 145937,
          "sector_id": 417,
          "start_date": "1956-07-12",
          "end_date": "1956-11-20",
          "names": [
            {
              "name": "Transports Automobiles Industr. et commerciaux, Promesses (jce 1/1/56)",
              "start_date": "1956-07-12",
              "end_date": "3999-12-31"
            }
          ]
        }
      },
      "listings_stats": {
        "start_date": "1956-07-12"
      },
      "spot_prices_stats": {
        "start_date": "1956-07-12",
        "end_date": "1956-11-15"
      }
    }
  },
  "prices_count": 15,
  "name": "Transports Automobiles Industr. et commerciaux, Promesses (jce 1/1/56)"
}