{
  "id": 9296,
  "share_type": {
    "id": 1,
    "name": "Stock (Action)"
  },
  "issuers": [
    {
      "id": 5384,
      "start_date": "1929-09-25",
      "end_date": "3999-12-31",
      "name": "Européenne de Réassurances"
    }
  ],
  "types": [
    {
      "start_date": "1929-09-25",
      "end_date": "3999-12-31",
      "id": 11,
      "name": "Action ordinaire",
      "stock_group": "S"
    }
  ],
  "is_mainstock": 1,
  "prices_period": [
    "1929-09-25",
    "1933-01-31"
  ],
  "stock_exchanges": {
    "1": {
      "id": 1,
      "name": "Paris (Official List)",
      "notations": {
        "136743": {
          "id": 136743,
          "sector_id": 96,
          "start_date": "1929-09-25",
          "end_date": "1934-01-02",
          "names": [
            {
              "name": "Européenne de Réassurances, act. 2e série 500 fr., 125 fr. p. (nos 8001 à 40000), nom.",
              "start_date": "1929-09-25",
              "end_date": "3999-12-31"
            }
          ]
        }
      },
      "listings_stats": {
        "start_date": "1929-09-25"
      },
      "spot_prices_stats": {
        "start_date": "1929-09-25",
        "end_date": "1933-01-31"
      }
    }
  },
  "prices_count": 58,
  "name": "Européenne de Réassurances, act. 2e série 500 fr., 125 fr. p. (nos 8001 à 40000), nom."
}