{
  "id": 10422,
  "share_type": {
    "id": 2,
    "name": "Bond (Obligation)"
  },
  "issuers": [
    {
      "id": 3929,
      "start_date": "1934-03-19",
      "end_date": "3999-12-31",
      "name": "SOCIETE DES PNEUMATIQUES DUNLOP"
    }
  ],
  "types": [
    {
      "start_date": "1934-03-19",
      "end_date": "3999-12-31",
      "id": 1001,
      "name": "Obligation ordinaire ou classique",
      "stock_group": "B"
    }
  ],
  "is_mainstock": 0,
  "prices_period": [
    "1934-03-19",
    "1942-08-03"
  ],
  "stock_exchanges": {
    "1": {
      "id": 1,
      "name": "Paris (Official List)",
      "notations": {
        "20694": {
          "id": 20694,
          "sector_id": 185,
          "start_date": "1940-10-14",
          "end_date": "1941-06-03",
          "names": [
            {
              "name": "Dunlop (Pneumatiques) 6% 1933, remb. à 1000 fr.",
              "start_date": "1934-03-19",
              "end_date": "1941-06-03"
            },
            {
              "name": "Dunlop (Pneumat.) 6% 1933, r.à 1000 fr. 1937-61",
              "start_date": "1940-10-14",
              "end_date": "1942-08-03"
            },
            {
              "name": "Dunlop (Pneumatiques) 6% 1933, remboursables à 1000 fr. le 17 août 1942",
              "start_date": "1940-10-14",
              "end_date": "3999-12-31"
            }
          ]
        },
        "21011": {
          "id": 21011,
          "sector_id": 223,
          "start_date": "1941-06-03",
          "end_date": "1942-08-17",
          "names": [
            {
              "name": "Dunlop (Pneumatiques) 6% 1933, remb. à 1000 fr.",
              "start_date": "1934-03-19",
              "end_date": "1942-08-17"
            },
            {
              "name": "Dunlop (Pneumat.) 6% 1933, r.à 1000 fr. 1937-61",
              "start_date": "1940-10-14",
              "end_date": "1942-08-17"
            },
            {
              "name": "Dunlop (Pneumatiques) 6% 1933, remboursables à 1000 fr. le 17 août 1942",
              "start_date": "1941-06-03",
              "end_date": "3999-12-31"
            }
          ]
        },
        "140997": {
          "id": 140997,
          "sector_id": 185,
          "start_date": "1934-03-19",
          "end_date": "1940-06-11",
          "names": [
            {
              "name": "Dunlop (Pneumatiques) 6% 1933, remb. à 1000 fr.",
              "start_date": "1934-03-19",
              "end_date": "1940-10-14"
            },
            {
              "name": "Dunlop (Pneumat.) 6% 1933, r.à 1000 fr. 1937-61",
              "start_date": "1934-03-19",
              "end_date": "1942-08-03"
            },
            {
              "name": "Dunlop (Pneumatiques) 6% 1933, remboursables à 1000 fr. le 17 août 1942",
              "start_date": "1934-03-19",
              "end_date": "3999-12-31"
            }
          ]
        }
      },
      "listings_stats": {
        "start_date": "1934-03-19"
      },
      "spot_prices_stats": {
        "start_date": "1934-03-19",
        "end_date": "1942-08-03"
      }
    }
  },
  "prices_count": 218,
  "name": "Dunlop (Pneumatiques) 6% 1933, remb. à 1000 fr."
}