{
  "id": 11707,
  "share_type": {
    "id": 1,
    "name": "Stock (Action)"
  },
  "issuers": [
    {
      "id": 2699,
      "start_date": "1943-01-11",
      "end_date": "3999-12-31",
      "name": "Compagnie d'Electricité de Varsovie"
    }
  ],
  "types": [
    {
      "start_date": "1943-01-11",
      "end_date": "3999-12-31",
      "id": 18,
      "name": "Action",
      "stock_group": "S"
    }
  ],
  "is_mainstock": 0,
  "prices_period": [
    "1943-01-12",
    "1952-06-30"
  ],
  "stock_exchanges": {
    "1": {
      "id": 1,
      "name": "Paris (Official List)",
      "notations": {
        "142282": {
          "id": 142282,
          "sector_id": 99,
          "start_date": "1943-01-11",
          "end_date": "1952-07-01",
          "names": [
            {
              "name": "Financement Industriel (Cie de), act. 500 fr., t. p. (n°s 20001 à 53600) (Jce 1/42)",
              "start_date": "1943-01-11",
              "end_date": "1952-07-01"
            },
            {
              "name": "Financement Industriel (Cie de), act. 500 fr., t. p. (n°s 20001 à 53600)",
              "start_date": "1943-01-11",
              "end_date": "1952-07-01"
            },
            {
              "name": "Financement Industriel (Cie de), act. Anc. 500 fr., t. p. (n°s 20001 à 68640)",
              "start_date": "1943-01-11",
              "end_date": "3999-12-31"
            }
          ]
        }
      },
      "listings_stats": {
        "start_date": "1943-01-11"
      },
      "spot_prices_stats": {
        "start_date": "1943-01-12",
        "end_date": "1952-06-30"
      }
    }
  },
  "prices_count": 222,
  "name": "Financement Industriel (Cie de), act. 500 fr., t. p. (n°s 20001 à 53600)"
}