{
  "id": 4449,
  "share_type": {
    "id": 1,
    "name": "Stock (Action)"
  },
  "issuers": [
    {
      "id": 2713,
      "start_date": "1897-07-07",
      "end_date": "3999-12-31",
      "name": "CIE FRANÇAISE POUR L'EXPLOITATION DES PROCÉDÉS THOMSON-HOUSTON"
    }
  ],
  "types": [
    {
      "start_date": "1897-07-07",
      "end_date": "3999-12-31",
      "id": 18,
      "name": "Action",
      "stock_group": "S"
    }
  ],
  "is_mainstock": 0,
  "prices_period": [
    "1897-07-07",
    "1898-06-15"
  ],
  "stock_exchanges": {
    "1": {
      "id": 1,
      "name": "Paris (Official List)",
      "notations": {
        "1557": {
          "id": 1557,
          "sector_id": 574,
          "start_date": "1897-08-04",
          "end_date": "1898-07-06",
          "names": [
            {
              "name": "Procédés Thomson-Houston (Cie française pour l'expl. des), act. nouv. 500 f., 375 f. restant à verser, nomin. (nos 30001 à 50000)",
              "start_date": "1897-07-07",
              "end_date": "3999-12-31"
            }
          ]
        },
        "5548": {
          "id": 5548,
          "sector_id": 73,
          "start_date": "1897-07-07",
          "end_date": "1897-08-04",
          "names": [
            {
              "name": "Procédés Thomson-Houston (Cie française pour l'expl. des), act. nouv. 500 f., 375 f. restant à verser, nomin. (nos 30001 à 50000)",
              "start_date": "1897-07-07",
              "end_date": "3999-12-31"
            }
          ]
        }
      },
      "forward_prices_stats": {
        "start_date": "1898-03-15",
        "end_date": "1898-03-15"
      },
      "listings_stats": {
        "start_date": "1897-07-07"
      },
      "spot_prices_stats": {
        "start_date": "1897-07-07",
        "end_date": "1898-06-15"
      }
    }
  },
  "prices_count": 53,
  "name": "Procédés Thomson-Houston (Cie française pour l'expl. des), act. nouv. 500 f., 375 f. restant à verser, nomin. (nos 30001 à 50000)"
}