{
  "id": 10277,
  "share_type": {
    "id": 1,
    "name": "Stock (Action)"
  },
  "issuers": [
    {
      "id": 10622,
      "start_date": "1933-06-12",
      "end_date": "3999-12-31",
      "name": "L'ELECTRICITE DE MARSEILLE"
    }
  ],
  "types": [
    {
      "start_date": "1933-06-12",
      "end_date": "3999-12-31",
      "id": 20,
      "name": "Part de bénéfice (part bénéficiaire)",
      "stock_group": "S"
    }
  ],
  "is_mainstock": 0,
  "prices_period": [
    "1933-06-12",
    "1951-02-28"
  ],
  "stock_exchanges": {
    "1": {
      "id": 1,
      "name": "Paris (Official List)",
      "notations": {
        "140852": {
          "id": 140852,
          "sector_id": 116,
          "start_date": "1933-06-12",
          "end_date": "1951-03-12",
          "names": [
            {
              "name": "Electricité de Marseille (L'), Parts bénéficiaires",
              "start_date": "1933-06-12",
              "end_date": "1951-03-12"
            },
            {
              "name": "Electricité de Marseille (L'), parts bénéf. (n° 1 à 170000)",
              "start_date": "1933-06-12",
              "end_date": "1951-03-12"
            },
            {
              "name": "Electricité de Marseille (L'), parts bénéf. (n°1 à 170913) (ex-dr. Oblig.)",
              "start_date": "1933-06-12",
              "end_date": "3999-12-31"
            }
          ]
        }
      },
      "listings_stats": {
        "start_date": "1933-06-12"
      },
      "spot_prices_stats": {
        "start_date": "1933-06-12",
        "end_date": "1951-02-28"
      }
    }
  },
  "prices_count": 403,
  "name": "Electricité de Marseille (L'), parts bénéf. (n° 1 à 170000)"
}