{
  "id": 13645,
  "share_type": {
    "id": 1,
    "name": "Stock (Action)"
  },
  "issuers": [
    {
      "id": 2984,
      "start_date": "1950-07-31",
      "end_date": "3999-12-31",
      "name": "SOCIÉTÉ ANONYME DES CAVES ET DES PRODUCTEURS RÉUNIS DE ROQUEFORT"
    }
  ],
  "types": [
    {
      "start_date": "1950-07-31",
      "end_date": "3999-12-31",
      "id": 18,
      "name": "Action",
      "stock_group": "S"
    }
  ],
  "is_mainstock": 0,
  "prices_period": [
    "1950-07-31",
    "1955-09-30"
  ],
  "stock_exchanges": {
    "1": {
      "id": 1,
      "name": "Paris (Official List)",
      "notations": {
        "144220": {
          "id": 144220,
          "sector_id": 277,
          "start_date": "1950-07-31",
          "end_date": "1955-10-10",
          "names": [
            {
              "name": "Roquefort (Caves et Product. Réunis de), act. 1000 fr., t. p. (n°s 16451 à 394800) (c. 1 att.)",
              "start_date": "1950-07-31",
              "end_date": "1955-10-10"
            },
            {
              "name": "Roquefort (Caves et Product. Réunis de), act. 2000 fr., t.p. (n° 16451 à 394800) (c. 1 att.)",
              "start_date": "1950-07-31",
              "end_date": "1955-10-10"
            },
            {
              "name": "Roquefort (Caves et Product. Réunis de), act. 2250 fr., t. p. (n° 16451 à 394800)",
              "start_date": "1950-07-31",
              "end_date": "1955-10-10"
            },
            {
              "name": "Roquefort (Caves et Product. Réunis de), act. Anc. 2500 fr., t. p. (n°s 16451 à 394800)",
              "start_date": "1950-07-31",
              "end_date": "1955-10-10"
            },
            {
              "name": "Roquefort (Caves et Product. Réunis de), Act. Anc. 2500 fr., tout payé (n°s 16451 à 394800) (c. 5 att.)",
              "start_date": "1950-07-31",
              "end_date": "3999-12-31"
            }
          ]
        }
      },
      "listings_stats": {
        "start_date": "1950-07-31"
      },
      "spot_prices_stats": {
        "start_date": "1950-07-31",
        "end_date": "1955-09-30"
      }
    }
  },
  "prices_count": 141,
  "name": "Roquefort (Caves et Product. Réunis de), act. 1000 fr., t. p. (n°s 16451 à 394800) (c. 1 att.)"
}