{
  "id": 6875,
  "share_type": {
    "id": 2,
    "name": "Bond (Obligation)"
  },
  "issuers": [
    {
      "id": 4111,
      "start_date": "1911-10-20",
      "end_date": "3999-12-31",
      "name": "COMPAGNIE CONTINENTALE POUR LA FABRICATION DES COMPTEURS A GAZ ET AUTRES APPAREILS"
    }
  ],
  "types": [
    {
      "start_date": "1914-03-31",
      "end_date": "3999-12-31",
      "id": 1001,
      "name": "Obligation ordinaire ou classique",
      "stock_group": "B"
    }
  ],
  "is_mainstock": 0,
  "prices_period": [
    "1914-03-31",
    "1920-07-31"
  ],
  "stock_exchanges": {
    "1": {
      "id": 1,
      "name": "Paris (Official List)",
      "notations": {
        "155883": {
          "id": 155883,
          "sector_id": 122,
          "start_date": "1911-10-20",
          "end_date": "1925-05-01",
          "names": [
            {
              "name": "Cie anonyme Continentale pour la Fabrication des compteurs à gaz et autres appareils, oblig. 4%",
              "start_date": "1892-05-05",
              "end_date": "1925-05-01"
            },
            {
              "name": "Compteur à Gaz (Continentale pour la Fabrication des), obl 4%, r. à 500 fr",
              "start_date": "1911-10-20",
              "end_date": "3999-12-31"
            }
          ]
        }
      },
      "listings_stats": {
        "start_date": "1911-10-20"
      },
      "spot_prices_stats": {
        "start_date": "1914-03-31",
        "end_date": "1920-07-31"
      }
    }
  },
  "prices_count": 3,
  "name": "Compteur à Gaz (Continentale pour la Fabrication des), obl 4%, r. à 500 fr"
}