{
  "id": 299,
  "share_type": {
    "id": 2,
    "name": "Bond (Obligation)"
  },
  "issuers": [
    {
      "id": 287,
      "start_date": "1841-01-27",
      "end_date": "3999-12-31",
      "name": "Canal de Jonction de la Sambre à l'Oise"
    }
  ],
  "types": [
    {
      "start_date": "1841-01-27",
      "end_date": "3999-12-31",
      "id": 1001,
      "name": "Obligation ordinaire ou classique",
      "stock_group": "B"
    }
  ],
  "is_mainstock": 0,
  "prices_period": [
    "1841-08-16",
    "1846-05-15"
  ],
  "stock_exchanges": {
    "1": {
      "id": 1,
      "name": "Paris (Official List)",
      "notations": {
        "435": {
          "id": 435,
          "sector_id": 72,
          "start_date": "1841-01-27",
          "end_date": "1852-04-06",
          "names": [
            {
              "name": "Canal de la Sambre à l'Oise, empr. du dit, 1,100,000 obligations de 1000 fr. à 5%",
              "start_date": "1841-01-27",
              "end_date": "1852-04-06"
            },
            {
              "name": "Canal de la Sambre à l'Oise (Obligations de 1000 fr. à 5%) (jouissance janvier)",
              "start_date": "1841-01-27",
              "end_date": "1852-04-06"
            },
            {
              "name": "Sambre à l'Oise (Obligations de 1000 fr. à 5%) (jouissance janvier)",
              "start_date": "1841-01-27",
              "end_date": "1852-04-06"
            },
            {
              "name": "Sambre à l'Oise (Obligations de 1000 fr. à 5%)",
              "start_date": "1841-01-27",
              "end_date": "3999-12-31"
            }
          ]
        }
      },
      "listings_stats": {
        "start_date": "1841-01-27"
      },
      "spot_prices_stats": {
        "start_date": "1841-08-16",
        "end_date": "1846-05-15"
      }
    }
  },
  "prices_count": 6,
  "name": "Sambre à l'Oise (Obligations de 1000 fr. à 5%)"
}