{
  "id": 20719,
  "share_type": {
    "id": 2,
    "name": "Bond (Obligation)"
  },
  "issuers": [
    {
      "id": 623,
      "start_date": "1971-06-23",
      "end_date": "3999-12-31",
      "name": "Compagnie générale Transatlantique"
    }
  ],
  "types": [
    {
      "start_date": "1971-06-23",
      "end_date": "3999-12-31",
      "id": 1001,
      "name": "Obligation ordinaire ou classique",
      "stock_group": "B"
    }
  ],
  "is_mainstock": 0,
  "prices_period": [
    "1971-07-15",
    "1976-12-31"
  ],
  "stock_exchanges": {
    "1": {
      "id": 1,
      "name": "Paris (Official List)",
      "notations": {
        "151289": {
          "id": 151289,
          "sector_id": 112,
          "start_date": "1971-06-23",
          "end_date": "3999-12-31",
          "names": [
            {
              "name": "Transatlantique (Cie Gle) 8% 1969 (c. 15/3/72 att.) (Garanti par l'Etat) (Avis 71-446) 1970-87",
              "start_date": "1971-06-23",
              "end_date": "3999-12-31"
            }
          ]
        }
      },
      "listings_stats": {
        "start_date": "1971-06-23"
      },
      "spot_prices_stats": {
        "start_date": "1971-07-15",
        "end_date": "1976-12-31"
      }
    }
  },
  "prices_count": 132,
  "name": "Transatlantique (Cie Gle) 8% 1969 (c. 15/3/72 att.) (Garanti par l'Etat) (Avis 71-446) 1970-87"
}