{
  "id": 104717,
  "share_type": {
    "id": 5,
    "name": "Droits de souscription"
  },
  "issuers": [
    {
      "id": 3935,
      "start_date": "1941-09-29",
      "end_date": "1928-09-10",
      "name": "STE DES AUTOMOBILES ET CYCLES PEUGEOT"
    }
  ],
  "types": [
    {
      "start_date": "1941-06-03",
      "end_date": "1942-08-17",
      "id": 501,
      "name": "Droit de souscription",
      "stock_group": "R"
    }
  ],
  "is_mainstock": 0,
  "prices_period": [
    "1941-06-03",
    "1942-08-17"
  ],
  "stock_exchanges": {
    "1": {
      "id": 1,
      "name": "Paris (Official List)",
      "notations": {
        "205120": {
          "id": 205120,
          "sector_id": 657,
          "start_date": "1941-06-03",
          "end_date": "1942-08-17",
          "names": [
            {
              "name": "Act.AUTOMOBILES PEUGEOT (droit et coupon 42 ou bon de droit).Pour 15 act.anciennes, 1 action nouvelle attribuée gratuitement",
              "start_date": "1941-06-03",
              "end_date": "1942-08-17"
            }
          ]
        }
      },
      "listings_stats": {
        "start_date": "1941-06-03"
      },
      "spot_prices_stats": {
        "start_date": "1941-06-03",
        "end_date": "1942-08-17"
      }
    }
  },
  "prices_count": 27,
  "name": "Act.AUTOMOBILES PEUGEOT (droit et coupon 42 ou bon de droit).Pour 15 act.anciennes, 1 action nouvelle attribuée gratuitement"
}