{
  "id": 105977,
  "share_type": {
    "id": 1,
    "name": "Stock (Action)"
  },
  "issuers": [
    {
      "id": 15471,
      "start_date": "1898-02-14",
      "end_date": "1898-12-31",
      "name": "Société minière et métallurgique Volga-Vichera"
    }
  ],
  "types": [
    {
      "start_date": "1898-02-14",
      "end_date": "1898-12-31",
      "id": 18,
      "name": "Action",
      "stock_group": "S"
    }
  ],
  "is_mainstock": 0,
  "prices_period": [
    "1898-02-14",
    "1898-12-15"
  ],
  "stock_exchanges": {
    "2": {
      "id": 2,
      "name": "Paris OTC (Coulisse)",
      "notations": {
        "206836": {
          "id": 206836,
          "sector_id": 669,
          "start_date": "1898-02-14",
          "end_date": "1898-12-31",
          "names": [
            {
              "name": "Volga-Vichera (non lib.)",
              "start_date": "1898-02-14",
              "end_date": "1898-12-31"
            },
            {
              "name": "VOLGA VICHERA (Société métallurgique) 375 fr. payes. Nominatifs",
              "start_date": "1898-02-14",
              "end_date": "1899-01-16"
            }
          ]
        },
        "207790": {
          "id": 207790,
          "sector_id": 682,
          "start_date": "1899-01-16",
          "end_date": "1899-01-16",
          "names": [
            {
              "name": "Volga-Vichera (non lib.)",
              "start_date": "1898-02-14",
              "end_date": "1899-01-16"
            },
            {
              "name": "VOLGA VICHERA (Société métallurgique) 375 fr. payes. Nominatifs",
              "start_date": "1899-01-16",
              "end_date": "1899-01-16"
            }
          ]
        }
      },
      "listings_stats": {
        "start_date": "1898-02-14"
      },
      "spot_prices_stats": {
        "start_date": "1898-02-14",
        "end_date": "1898-12-15"
      }
    }
  },
  "prices_count": 32,
  "name": "Volga-Vichera (non lib.)"
}