{
  "id": 103851,
  "share_type": {
    "id": 4,
    "name": "Rights (Droits)"
  },
  "issuers": [
    {
      "id": 4765,
      "start_date": "1948-01-26",
      "end_date": "3999-12-31",
      "name": "SAINT FRERES"
    }
  ],
  "types": [
    {
      "start_date": "1948-01-26",
      "end_date": "3999-12-31",
      "id": 501,
      "name": "Droit de souscription",
      "stock_group": "R"
    }
  ],
  "is_mainstock": 0,
  "prices_period": [
    null,
    null
  ],
  "stock_exchanges": {
    "1": {
      "id": 1,
      "name": "Paris (Official List)",
      "notations": {
        "204033": {
          "id": 204033,
          "sector_id": 657,
          "start_date": "1948-01-26",
          "end_date": "4000-01-01",
          "names": [
            {
              "name": "Saint Frères (bon rosé à encadrement vert). 1 action nouv. émise à 530 fr. pour 2 act. anc. (Voir Avis n° 24259)",
              "start_date": "1948-01-26",
              "end_date": "4000-01-01"
            }
          ]
        }
      },
      "listings_stats": {
        "start_date": "1948-01-26"
      }
    }
  },
  "prices_count": 0,
  "name": "Saint Frères (bon rosé à encadrement vert). 1 action nouv. émise à 530 fr. pour 2 act. anc. (Voir Avis n° 24259)"
}