{
  "id": 106353,
  "share_type": {
    "id": 1,
    "name": "Stock (Action)"
  },
  "issuers": [
    {
      "id": 2996,
      "start_date": "1953-02-02",
      "end_date": "3999-12-31",
      "name": "STÉ FSE DES DISTILLERIES DE L'INDO-CHINE"
    }
  ],
  "types": [
    {
      "start_date": "1953-02-02",
      "end_date": "3999-12-31",
      "id": 11,
      "name": "Action ordinaire",
      "stock_group": "S"
    }
  ],
  "is_mainstock": 0,
  "prices_period": [
    null,
    null
  ],
  "stock_exchanges": {},
  "prices_count": 0
}