{
  "id": 20300,
  "share_type": {
    "id": 1,
    "name": "Stock (Action)"
  },
  "issuers": [
    {
      "id": 4761,
      "start_date": "1951-11-02",
      "end_date": "3999-12-31",
      "name": "\"GILLET-THAON\" (Etablissements Gillet et Fils et Blanchisserie et Teinturerie de Thaon réunis)"
    }
  ],
  "types": [
    {
      "start_date": "1951-11-02",
      "end_date": "3999-12-31",
      "id": 18,
      "name": "Action",
      "stock_group": "S"
    }
  ],
  "is_mainstock": 0,
  "prices_period": [
    "1951-11-15",
    "1952-01-02"
  ],
  "stock_exchanges": {
    "1": {
      "id": 1,
      "name": "Paris (Official List)",
      "notations": {
        "24850": {
          "id": 24850,
          "sector_id": 14,
          "start_date": "1953-03-16",
          "end_date": "1959-03-02",
          "names": [
            {
              "name": "Gillet-Thaon, act. 4000 fr., t. p. (par 25 actions)",
              "start_date": "1951-11-02",
              "end_date": "1959-03-02"
            },
            {
              "name": "Gillet-Thaon, act. 4000 fr. (par 25 actions)",
              "start_date": "1953-03-16",
              "end_date": "1959-03-02"
            },
            {
              "name": "Gillet-thaon act 4000 fr",
              "start_date": "1953-03-16",
              "end_date": "1960-01-04"
            },
            {
              "name": "Gillet-thaon, act 40 NF (par 25 actions)",
              "start_date": "1953-03-16",
              "end_date": "3999-12-31"
            }
          ]
        },
        "27256": {
          "id": 27256,
          "sector_id": 1,
          "start_date": "1959-03-02",
          "end_date": "1960-01-04",
          "names": [
            {
              "name": "Gillet-Thaon, act. 4000 fr., t. p. (par 25 actions)",
              "start_date": "1951-11-02",
              "end_date": "1960-01-04"
            },
            {
              "name": "Gillet-Thaon, act. 4000 fr. (par 25 actions)",
              "start_date": "1955-12-01",
              "end_date": "1960-01-04"
            },
            {
              "name": "Gillet-thaon act 4000 fr",
              "start_date": "1959-03-02",
              "end_date": "1960-01-04"
            },
            {
              "name": "Gillet-thaon, act 40 NF (par 25 actions)",
              "start_date": "1959-03-02",
              "end_date": "3999-12-31"
            }
          ]
        },
        "27393": {
          "id": 27393,
          "sector_id": 14,
          "start_date": "1960-01-04",
          "end_date": "1960-03-01",
          "names": [
            {
              "name": "Gillet-Thaon, act. 4000 fr., t. p. (par 25 actions)",
              "start_date": "1951-11-02",
              "end_date": "1960-03-01"
            },
            {
              "name": "Gillet-Thaon, act. 4000 fr. (par 25 actions)",
              "start_date": "1955-12-01",
              "end_date": "1960-03-01"
            },
            {
              "name": "Gillet-thaon act 4000 fr",
              "start_date": "1959-03-02",
              "end_date": "1960-03-01"
            },
            {
              "name": "Gillet-thaon, act 40 NF (par 25 actions)",
              "start_date": "1960-01-04",
              "end_date": "3999-12-31"
            }
          ]
        },
        "150875": {
          "id": 150875,
          "sector_id": 312,
          "start_date": "1951-11-02",
          "end_date": "1953-03-16",
          "names": [
            {
              "name": "Gillet-Thaon, act. 4000 fr., t. p. (par 25 actions)",
              "start_date": "1951-11-02",
              "end_date": "1955-12-01"
            },
            {
              "name": "Gillet-Thaon, act. 4000 fr. (par 25 actions)",
              "start_date": "1951-11-02",
              "end_date": "1959-03-02"
            },
            {
              "name": "Gillet-thaon act 4000 fr",
              "start_date": "1951-11-02",
              "end_date": "1960-01-04"
            },
            {
              "name": "Gillet-thaon, act 40 NF (par 25 actions)",
              "start_date": "1951-11-02",
              "end_date": "3999-12-31"
            }
          ]
        }
      },
      "listings_stats": {
        "start_date": "1951-11-02"
      },
      "spot_prices_stats": {
        "start_date": "1951-11-15",
        "end_date": "1952-01-02"
      }
    }
  },
  "prices_count": 3,
  "name": "Gillet-Thaon, act. 4000 fr. (par 25 actions)"
}