{
  "id": 18721,
  "share_type": {
    "id": 1,
    "name": "Stock (Action)"
  },
  "issuers": [
    {
      "id": 5677,
      "start_date": "1967-06-15",
      "end_date": "3999-12-31",
      "name": "Vendôme-Equipement"
    }
  ],
  "types": [
    {
      "start_date": "1967-06-15",
      "end_date": "3999-12-31",
      "id": 18,
      "name": "Action",
      "stock_group": "S"
    }
  ],
  "is_mainstock": 0,
  "prices_period": [
    "1967-06-15",
    "1970-12-15"
  ],
  "stock_exchanges": {
    "1": {
      "id": 1,
      "name": "Paris (Official List)",
      "notations": {
        "149296": {
          "id": 149296,
          "sector_id": 333,
          "start_date": "1967-06-15",
          "end_date": "1970-12-21",
          "names": [
            {
              "name": "Vendôme-Equipement, act. (c. 1 att.)",
              "start_date": "1967-06-15",
              "end_date": "1970-12-21"
            },
            {
              "name": "Vendôme-équipement, act.",
              "start_date": "1967-06-15",
              "end_date": "3999-12-31"
            }
          ]
        }
      },
      "listings_stats": {
        "start_date": "1967-06-15"
      },
      "spot_prices_stats": {
        "start_date": "1967-06-15",
        "end_date": "1970-12-15"
      }
    }
  },
  "prices_count": 90,
  "name": "Vendôme-équipement, act."
}