{
  "id": 13785,
  "share_type": {
    "id": 1,
    "name": "Stock (Action)"
  },
  "issuers": [
    {
      "id": 4418,
      "start_date": "1950-10-16",
      "end_date": "3999-12-31",
      "name": "CIE GENERALE DU DURALUMIN ET DU CUIVRE (CEGEDUR)"
    }
  ],
  "types": [
    {
      "start_date": "1950-10-16",
      "end_date": "3999-12-31",
      "id": 33,
      "name": "Action A",
      "stock_group": "S"
    }
  ],
  "is_mainstock": 0,
  "prices_period": [
    "1950-10-16",
    "1969-06-02"
  ],
  "stock_exchanges": {
    "1": {
      "id": 1,
      "name": "Paris (Official List)",
      "notations": {
        "26051": {
          "id": 26051,
          "sector_id": 104,
          "start_date": "1955-12-01",
          "end_date": "1961-12-30",
          "names": [
            {
              "name": "Cégédur (Cie Gle du Duralumin et du Cuivre), act. A 5000 fr. (c. 8 att.)",
              "start_date": "1950-10-16",
              "end_date": "1961-12-30"
            },
            {
              "name": "Cégédur (Cie Gle) (Duralumin, Cuivre), act. A (n°s 1 à 220000 et 30001 à 360000)",
              "start_date": "1955-12-01",
              "end_date": "1969-06-16"
            },
            {
              "name": "Cégédur (Cie Gle du Duralumin et du Cuivre) (en liq.), act. (n°s 1 à 290000 et 300001 à 1921318)",
              "start_date": "1955-12-01",
              "end_date": "3999-12-31"
            }
          ]
        },
        "28054": {
          "id": 28054,
          "sector_id": 500,
          "start_date": "1961-12-30",
          "end_date": "1963-03-04",
          "names": [
            {
              "name": "Cégédur (Cie Gle du Duralumin et du Cuivre), act. A 5000 fr. (c. 8 att.)",
              "start_date": "1950-10-16",
              "end_date": "1963-03-04"
            },
            {
              "name": "Cégédur (Cie Gle) (Duralumin, Cuivre), act. A (n°s 1 à 220000 et 30001 à 360000)",
              "start_date": "1955-12-01",
              "end_date": "1969-06-16"
            },
            {
              "name": "Cégédur (Cie Gle du Duralumin et du Cuivre) (en liq.), act. (n°s 1 à 290000 et 300001 à 1921318)",
              "start_date": "1961-12-30",
              "end_date": "3999-12-31"
            }
          ]
        },
        "30277": {
          "id": 30277,
          "sector_id": 104,
          "start_date": "1963-03-04",
          "end_date": "1969-06-16",
          "names": [
            {
              "name": "Cégédur (Cie Gle du Duralumin et du Cuivre), act. A 5000 fr. (c. 8 att.)",
              "start_date": "1950-10-16",
              "end_date": "1969-06-16"
            },
            {
              "name": "Cégédur (Cie Gle) (Duralumin, Cuivre), act. A (n°s 1 à 220000 et 30001 à 360000)",
              "start_date": "1955-12-01",
              "end_date": "1969-06-16"
            },
            {
              "name": "Cégédur (Cie Gle du Duralumin et du Cuivre) (en liq.), act. (n°s 1 à 290000 et 300001 à 1921318)",
              "start_date": "1963-03-04",
              "end_date": "3999-12-31"
            }
          ]
        },
        "144360": {
          "id": 144360,
          "sector_id": 104,
          "start_date": "1950-10-16",
          "end_date": "1955-12-01",
          "names": [
            {
              "name": "Cégédur (Cie Gle du Duralumin et du Cuivre), act. A 5000 fr. (c. 8 att.)",
              "start_date": "1950-10-16",
              "end_date": "1955-12-01"
            },
            {
              "name": "Cégédur (Cie Gle) (Duralumin, Cuivre), act. A (n°s 1 à 220000 et 30001 à 360000)",
              "start_date": "1950-10-16",
              "end_date": "1969-06-16"
            },
            {
              "name": "Cégédur (Cie Gle du Duralumin et du Cuivre) (en liq.), act. (n°s 1 à 290000 et 300001 à 1921318)",
              "start_date": "1950-10-16",
              "end_date": "3999-12-31"
            }
          ]
        }
      },
      "listings_stats": {
        "start_date": "1950-10-16"
      },
      "spot_prices_stats": {
        "start_date": "1950-10-16",
        "end_date": "1969-06-02"
      }
    }
  },
  "prices_count": 511,
  "name": "Cégédur (Cie Gle) (Duralumin, Cuivre), act. A (n°s 1 à 220000 et 30001 à 360000)"
}