{
  "id": 21138,
  "share_type": {
    "id": 2,
    "name": "Bond (Obligation)"
  },
  "issuers": [
    {
      "id": 3548,
      "start_date": "1973-03-22",
      "end_date": "3999-12-31",
      "name": "CAISSE CENTRALE DE CREDIT COOPERATIF"
    }
  ],
  "types": [
    {
      "start_date": "1973-03-22",
      "end_date": "3999-12-31",
      "id": 1001,
      "name": "Obligation ordinaire ou classique",
      "stock_group": "B"
    }
  ],
  "is_mainstock": 0,
  "prices_period": [
    "1973-03-29",
    "1973-06-01"
  ],
  "stock_exchanges": {
    "1": {
      "id": 1,
      "name": "Paris (Official List)",
      "notations": {
        "151708": {
          "id": 151708,
          "sector_id": 355,
          "start_date": "1973-03-22",
          "end_date": "1973-06-14",
          "names": [
            {
              "name": "Caisse Centrale de Crédit Coopératif 8% oct. 1972 (c. 14/6/73 att.) (Avis 73-220) (Garantie par l'Etat) 1973-87",
              "start_date": "1973-03-22",
              "end_date": "3999-12-31"
            }
          ]
        }
      },
      "listings_stats": {
        "start_date": "1973-03-22"
      },
      "spot_prices_stats": {
        "start_date": "1973-03-29",
        "end_date": "1973-06-01"
      }
    }
  },
  "prices_count": 6,
  "name": "Caisse Centrale de Crédit Coopératif 8% oct. 1972 (c. 14/6/73 att.) (Avis 73-220) (Garantie par l'Etat) 1973-87"
}