{
  "id": 35233,
  "share_type": {
    "id": 3,
    "name": "OPTIONS"
  },
  "issuers": [
    {
      "id": 2095,
      "start_date": "1968-06-07",
      "end_date": "3999-12-31",
      "name": "Uclaf (Usines Chimiques des Laboratoires Français)"
    }
  ],
  "types": [
    {
      "start_date": "1968-06-07",
      "end_date": "3999-12-31",
      "id": 2,
      "name": "Option",
      "stock_group": "M"
    }
  ],
  "is_mainstock": 0,
  "prices_period": [
    null,
    null
  ],
  "stock_exchanges": {
    "1": {
      "id": 1,
      "name": "Paris (Official List)",
      "notations": {
        "153089": {
          "id": 153089,
          "sector_id": 604,
          "start_date": "1968-06-07",
          "end_date": "1975-11-17",
          "names": [
            {
              "name": "Roussel-Uclaf",
              "start_date": "1968-06-07",
              "end_date": "3999-12-31"
            }
          ]
        }
      },
      "listings_stats": {
        "start_date": "1968-06-07"
      }
    }
  },
  "prices_count": 0,
  "name": "Roussel-Uclaf"
}