{
  "id": 9464,
  "share_type": {
    "id": 1,
    "name": "Stock (Action)"
  },
  "issuers": [
    {
      "id": 2698,
      "start_date": "1930-04-09",
      "end_date": "3999-12-31",
      "name": "FORCE ET DISTRIBUTION"
    }
  ],
  "types": [
    {
      "start_date": "1930-04-09",
      "end_date": "3999-12-31",
      "id": 11,
      "name": "Action ordinaire",
      "stock_group": "S"
    }
  ],
  "is_mainstock": 0,
  "prices_period": [
    "1930-04-11",
    "1930-09-30"
  ],
  "stock_exchanges": {
    "1": {
      "id": 1,
      "name": "Paris (Official List)",
      "notations": {
        "136911": {
          "id": 136911,
          "sector_id": 116,
          "start_date": "1930-04-09",
          "end_date": "1931-02-20",
          "names": [
            {
              "name": "Electricité de Limoges, Act. ord. 100 fr., 25 fr. p. (nos 100001 à 110000)nom.",
              "start_date": "1930-04-09",
              "end_date": "3999-12-31"
            }
          ]
        }
      },
      "listings_stats": {
        "start_date": "1930-04-09"
      },
      "spot_prices_stats": {
        "start_date": "1930-04-11",
        "end_date": "1930-09-30"
      }
    }
  },
  "prices_count": 6,
  "name": "Electricité de Limoges, Act. ord. 100 fr., 25 fr. p. (nos 100001 à 110000)nom."
}