{
  "id": 101561,
  "share_type": {
    "id": 4,
    "name": "Rights (Droits)"
  },
  "issuers": [
    {
      "id": 3558,
      "start_date": "1949-07-01",
      "end_date": "1951-06-13",
      "name": "CREDIT INDUSTRIEL DE L'OUEST"
    }
  ],
  "types": [
    {
      "start_date": "1949-07-01",
      "end_date": "1951-06-13",
      "id": 502,
      "name": "Droit d'attribution",
      "stock_group": "R"
    }
  ],
  "is_mainstock": 0,
  "prices_period": [
    "1949-07-08",
    "1949-07-08"
  ],
  "stock_exchanges": {
    "1": {
      "id": 1,
      "name": "Paris (Official List)",
      "notations": {
        "201708": {
          "id": 201708,
          "sector_id": 658,
          "start_date": "1949-07-01",
          "end_date": "1951-06-14",
          "names": [
            {
              "name": "Act. 1000 fr. Crédit de l'Ouest (Droit et coupon 8) (1 act. nouv. 1000 fr. pour 2 act. anciennes)",
              "start_date": "1949-07-01",
              "end_date": "1951-06-14"
            }
          ]
        }
      },
      "listings_stats": {
        "start_date": "1949-07-01"
      },
      "spot_prices_stats": {
        "start_date": "1949-07-08",
        "end_date": "1949-07-08"
      }
    }
  },
  "prices_count": 1,
  "name": "Act. 1000 fr. Crédit de l'Ouest (Droit et coupon 8) (1 act. nouv. 1000 fr. pour 2 act. anciennes)"
}