{
  "id": 104802,
  "share_type": {
    "id": 8,
    "name": "Droit d'attribution"
  },
  "issuers": [
    {
      "id": 4558,
      "start_date": "1946-05-05",
      "end_date": "1946-05-25",
      "name": "SOCIETE D'HYDROCARBURES DE SAINT-DENIS (Les Chantiers de France)"
    }
  ],
  "types": [
    {
      "start_date": "1946-05-05",
      "end_date": "1946-05-25",
      "id": 502,
      "name": "Droit d'attribution",
      "stock_group": "R"
    }
  ],
  "is_mainstock": 0,
  "prices_period": [
    "1946-05-15",
    "1946-05-15"
  ],
  "stock_exchanges": {
    "1": {
      "id": 1,
      "name": "Paris (Official List)",
      "notations": {
        "205205": {
          "id": 205205,
          "sector_id": 658,
          "start_date": "1946-05-05",
          "end_date": "1946-05-25",
          "names": [
            {
              "name": "Hydrocarb. St-Denis, c. 31",
              "start_date": "1946-05-05",
              "end_date": "1946-05-25"
            }
          ]
        }
      },
      "listings_stats": {
        "start_date": "1946-05-05"
      },
      "spot_prices_stats": {
        "start_date": "1946-05-15",
        "end_date": "1946-05-15"
      }
    }
  },
  "prices_count": 1,
  "name": "Hydrocarb. St-Denis, c. 31"
}