{
  "id": 35334,
  "share_type": {
    "id": 3,
    "name": "OPTIONS"
  },
  "issuers": [
    {
      "id": 2813,
      "start_date": "1976-11-03",
      "end_date": "3999-12-31",
      "name": "THE RANDFONTEIN ESTATES GOLD MINING Co WITWATERSRAND LIMITED"
    }
  ],
  "types": [
    {
      "start_date": "1976-11-03",
      "end_date": "3999-12-31",
      "id": 2,
      "name": "Option",
      "stock_group": "M"
    }
  ],
  "is_mainstock": 0,
  "prices_period": [
    null,
    null
  ],
  "stock_exchanges": {
    "1": {
      "id": 1,
      "name": "Paris (Official List)",
      "notations": {
        "100311": {
          "id": 100311,
          "sector_id": 604,
          "start_date": "1976-11-15",
          "end_date": "1976-11-19",
          "names": [
            {
              "name": "Randfontein Estates",
              "start_date": "1976-11-03",
              "end_date": "3999-12-31"
            }
          ]
        },
        "153189": {
          "id": 153189,
          "sector_id": 604,
          "start_date": "1976-11-03",
          "end_date": "1976-11-05",
          "names": [
            {
              "name": "Randfontein Estates",
              "start_date": "1976-11-03",
              "end_date": "3999-12-31"
            }
          ]
        }
      },
      "listings_stats": {
        "start_date": "1976-11-03"
      }
    }
  },
  "prices_count": 0,
  "name": "Randfontein Estates"
}