{
  "id": 40279,
  "share_type": {
    "id": 1,
    "name": "Stock (Action)"
  },
  "issuers": [
    {
      "id": 3015,
      "start_date": "1000-01-01",
      "end_date": "3999-12-31",
      "name": "SOCIETE DU JOURNAL \"LE TEMPS\""
    }
  ],
  "types": [
    {
      "start_date": "1000-01-01",
      "end_date": "3999-12-31",
      "id": 1,
      "name": "UNKNOWN",
      "stock_group": "U"
    }
  ],
  "is_mainstock": 0,
  "prices_period": [
    "1892-05-31",
    "1892-10-31"
  ],
  "stock_exchanges": {
    "1": {
      "id": 1,
      "name": "Paris (Official List)",
      "notations": {
        "155285": {
          "id": 155285,
          "sector_id": 118,
          "start_date": "1892-05-05",
          "end_date": "1920-01-02",
          "names": [
            {
              "name": "Le Temps",
              "start_date": "1892-05-05",
              "end_date": "1920-01-02"
            }
          ]
        }
      },
      "listings_stats": {
        "start_date": "1892-05-05"
      },
      "spot_prices_stats": {
        "start_date": "1892-05-31",
        "end_date": "1892-10-31"
      }
    }
  },
  "prices_count": 3,
  "name": "Le Temps"
}