{
  "id": 1556,
  "share_type": {
    "id": 2,
    "name": "Bond (Obligation)"
  },
  "issuers": [
    {
      "id": 1265,
      "start_date": "1868-08-04",
      "end_date": "3999-12-31",
      "name": "EGYPTE"
    }
  ],
  "types": [
    {
      "start_date": "1868-08-04",
      "end_date": "3999-12-31",
      "id": 1001,
      "name": "Obligation ordinaire ou classique",
      "stock_group": "B"
    }
  ],
  "is_mainstock": 0,
  "prices_period": [
    "1868-08-06",
    "1877-10-31"
  ],
  "stock_exchanges": {
    "1": {
      "id": 1,
      "name": "Paris (Official List)",
      "notations": {
        "2665": {
          "id": 2665,
          "sector_id": 74,
          "start_date": "1868-08-04",
          "end_date": "1877-11-22",
          "names": [
            {
              "name": "Et vice-roi d'Egyp. Ob. Hyp. R. 500f",
              "start_date": "1868-08-04",
              "end_date": "3999-12-31"
            }
          ]
        }
      },
      "listings_stats": {
        "start_date": "1868-08-04"
      },
      "spot_prices_stats": {
        "start_date": "1868-08-06",
        "end_date": "1877-10-31"
      }
    }
  },
  "prices_count": 176,
  "name": "Et vice-roi d'Egyp. Ob. Hyp. R. 500f"
}