{
  "id": 11334,
  "share_type": {
    "id": 2,
    "name": "Bond (Obligation)"
  },
  "issuers": [
    {
      "id": 1632,
      "start_date": "1939-07-21",
      "end_date": "3999-12-31",
      "name": "COMPAGNIE DES MINES D'ANICHE"
    }
  ],
  "types": [
    {
      "start_date": "1939-07-21",
      "end_date": "3999-12-31",
      "id": 1001,
      "name": "Obligation ordinaire ou classique",
      "stock_group": "B"
    }
  ],
  "is_mainstock": 0,
  "prices_period": [
    "1939-07-21",
    "1944-02-15"
  ],
  "stock_exchanges": {
    "1": {
      "id": 1,
      "name": "Paris (Official List)",
      "notations": {
        "20459": {
          "id": 20459,
          "sector_id": 140,
          "start_date": "1940-10-14",
          "end_date": "1944-02-22",
          "names": [
            {
              "name": "Mines d'Aniche 5,5% 1939, remboursables à 2000 fr. (Jce 1/2/39). 1940-64.",
              "start_date": "1939-07-21",
              "end_date": "1944-02-22"
            },
            {
              "name": "Mines d'Aniche 5,5% 1939, r. à 2000 fr. 1940-64",
              "start_date": "1940-10-14",
              "end_date": "1944-02-22"
            },
            {
              "name": "Mines d'Aniche 5,5% 1939, r. à 2000 f. le 22 fév. 1944",
              "start_date": "1940-10-14",
              "end_date": "3999-12-31"
            }
          ]
        },
        "141909": {
          "id": 141909,
          "sector_id": 140,
          "start_date": "1939-07-21",
          "end_date": "1940-06-11",
          "names": [
            {
              "name": "Mines d'Aniche 5,5% 1939, remboursables à 2000 fr. (Jce 1/2/39). 1940-64.",
              "start_date": "1939-07-21",
              "end_date": "1940-10-14"
            },
            {
              "name": "Mines d'Aniche 5,5% 1939, r. à 2000 fr. 1940-64",
              "start_date": "1939-07-21",
              "end_date": "1944-02-01"
            },
            {
              "name": "Mines d'Aniche 5,5% 1939, r. à 2000 f. le 22 fév. 1944",
              "start_date": "1939-07-21",
              "end_date": "3999-12-31"
            }
          ]
        }
      },
      "listings_stats": {
        "start_date": "1939-07-21"
      },
      "spot_prices_stats": {
        "start_date": "1939-07-21",
        "end_date": "1944-02-15"
      }
    }
  },
  "prices_count": 106,
  "name": "Mines d'Aniche 5,5% 1939, r. à 2000 f. le 22 fév. 1944"
}