{
  "id": 7199,
  "share_type": {
    "id": 2,
    "name": "Bond (Obligation)"
  },
  "issuers": [
    {
      "id": 3213,
      "start_date": "1920-08-31",
      "end_date": "3999-12-31",
      "name": "PARIS-FRANCE"
    }
  ],
  "types": [
    {
      "start_date": "1920-08-31",
      "end_date": "3999-12-31",
      "id": 1001,
      "name": "Obligation ordinaire ou classique",
      "stock_group": "B"
    }
  ],
  "is_mainstock": 0,
  "prices_period": [
    "1920-08-31",
    "1931-05-15"
  ],
  "stock_exchanges": {
    "1": {
      "id": 1,
      "name": "Paris (Official List)",
      "notations": {
        "11125": {
          "id": 11125,
          "sector_id": 185,
          "start_date": "1922-12-01",
          "end_date": "1923-12-01",
          "names": [
            {
              "name": "Paris-France, 6%, remb à 500 fr",
              "start_date": "1920-08-31",
              "end_date": "1927-11-23"
            },
            {
              "name": "Paris-France 6% 1920, remb. à 500 fr.",
              "start_date": "1922-12-01",
              "end_date": "3999-12-31"
            }
          ]
        },
        "14010": {
          "id": 14010,
          "sector_id": 188,
          "start_date": "1923-12-01",
          "end_date": "1931-06-01",
          "names": [
            {
              "name": "Paris-France, 6%, remb à 500 fr",
              "start_date": "1920-08-31",
              "end_date": "1931-06-01"
            },
            {
              "name": "Paris-France 6% 1920, remb. à 500 fr.",
              "start_date": "1923-12-01",
              "end_date": "3999-12-31"
            }
          ]
        },
        "34069": {
          "id": 34069,
          "sector_id": 113,
          "start_date": "1920-08-31",
          "end_date": "1922-12-01",
          "names": [
            {
              "name": "Paris-France, 6%, remb à 500 fr",
              "start_date": "1920-08-31",
              "end_date": "1927-11-23"
            },
            {
              "name": "Paris-France 6% 1920, remb. à 500 fr.",
              "start_date": "1920-08-31",
              "end_date": "3999-12-31"
            }
          ]
        }
      },
      "listings_stats": {
        "start_date": "1920-08-31"
      },
      "spot_prices_stats": {
        "start_date": "1920-08-31",
        "end_date": "1931-05-15"
      }
    }
  },
  "prices_count": 259,
  "name": "Paris-France, 6%, remb à 500 fr"
}