{
  "id": 2164,
  "share_type": {
    "id": 1,
    "name": "Stock (Action)"
  },
  "issuers": [
    {
      "id": 2480,
      "start_date": "1871-10-09",
      "end_date": "3999-12-31",
      "name": "Crédit Communal de France"
    }
  ],
  "types": [
    {
      "start_date": "1871-10-09",
      "end_date": "3999-12-31",
      "id": 18,
      "name": "Action",
      "stock_group": "S"
    }
  ],
  "is_mainstock": 0,
  "prices_period": [
    "1871-10-09",
    "1873-01-15"
  ],
  "stock_exchanges": {
    "1": {
      "id": 1,
      "name": "Paris (Official List)",
      "notations": {
        "3263": {
          "id": 3263,
          "sector_id": 82,
          "start_date": "1871-10-09",
          "end_date": "1873-05-19",
          "names": [
            {
              "name": "Crédit communal de France, act. 500f, 150fr. P",
              "start_date": "1871-10-09",
              "end_date": "1873-05-19"
            },
            {
              "name": "Crédit communal de France, act. 500f, 150 fr. payés",
              "start_date": "1871-10-09",
              "end_date": "3999-12-31"
            }
          ]
        }
      },
      "listings_stats": {
        "start_date": "1871-10-09"
      },
      "spot_prices_stats": {
        "start_date": "1871-10-09",
        "end_date": "1873-01-15"
      }
    }
  },
  "prices_count": 37,
  "name": "Crédit communal de France, act. 500f, 150fr. P"
}