{
  "id": 104202,
  "share_type": {
    "id": 2,
    "name": "Bond (Obligation)"
  },
  "issuers": [
    {
      "id": 1280,
      "start_date": "1873-12-18",
      "end_date": "1874-12-31",
      "name": "Compagnie du Chemin de Fer Franco-Suisse"
    }
  ],
  "types": [
    {
      "start_date": "1873-12-18",
      "end_date": "1874-12-31",
      "id": 1,
      "name": "UNKNOWN",
      "stock_group": "U"
    }
  ],
  "is_mainstock": 0,
  "prices_period": [
    "1874-01-15",
    "1884-10-30"
  ],
  "stock_exchanges": {
    "2": {
      "id": 2,
      "name": "Paris OTC (Coulisse)",
      "notations": {
        "204446": {
          "id": 204446,
          "sector_id": 660,
          "start_date": "1873-12-18",
          "end_date": "1874-12-31",
          "names": [
            {
              "name": "Ch. Franco-Suisse, dec. 60",
              "start_date": "1873-12-18",
              "end_date": "1874-12-31"
            },
            {
              "name": "Ch. Seville-Xeres, j. jr. 65",
              "start_date": "1873-12-18",
              "end_date": "1884-12-31"
            }
          ]
        },
        "204574": {
          "id": 204574,
          "sector_id": 664,
          "start_date": "1875-09-30",
          "end_date": "1884-12-31",
          "names": [
            {
              "name": "Ch. Franco-Suisse, dec. 60",
              "start_date": "1873-12-18",
              "end_date": "1884-12-31"
            },
            {
              "name": "Ch. Seville-Xeres, j. jr. 65",
              "start_date": "1875-09-30",
              "end_date": "1884-12-31"
            }
          ]
        }
      },
      "listings_stats": {
        "start_date": "1873-12-18"
      },
      "spot_prices_stats": {
        "start_date": "1874-01-15",
        "end_date": "1884-10-30"
      }
    }
  },
  "prices_count": 249,
  "name": "Ch. Franco-Suisse, dec. 60"
}