{
  "id": 101330,
  "share_type": {
    "id": 4,
    "name": "Rights (Droits)"
  },
  "issuers": [
    {
      "id": 3479,
      "start_date": "1943-03-15",
      "end_date": "1948-03-17",
      "name": "COMPAGNIE DES PRODUITS CHIMIQUES ET ÉLECTRO-MÉTALLURGIQUES ALAIS, FROGES ET CAMARGUE"
    }
  ],
  "types": [
    {
      "start_date": "1943-03-15",
      "end_date": "1948-03-17",
      "id": 501,
      "name": "Droit de souscription",
      "stock_group": "R"
    }
  ],
  "is_mainstock": 0,
  "prices_period": [
    "1943-04-15",
    "1945-11-02"
  ],
  "stock_exchanges": {
    "1": {
      "id": 1,
      "name": "Paris (Official List)",
      "notations": {
        "201475": {
          "id": 201475,
          "sector_id": 657,
          "start_date": "1943-03-15",
          "end_date": "1948-03-18",
          "names": [
            {
              "name": "Act. CIE DE PROD. CHIMIQUES ET ELECTRO-METALLURGIQUES ALAIS, FROGES ET CAMARGUE (bon de souscription). Pour 4 bons, 3 act. nouv. cédées contre paiement de 550 fr. par act. nouvelle majoré de l'intérêt (Vr Avis n° 20122)",
              "start_date": "1943-03-15",
              "end_date": "1948-03-18"
            }
          ]
        }
      },
      "listings_stats": {
        "start_date": "1943-03-15"
      },
      "spot_prices_stats": {
        "start_date": "1943-04-15",
        "end_date": "1945-11-02"
      }
    }
  },
  "prices_count": 18,
  "name": "Act. CIE DE PROD. CHIMIQUES ET ELECTRO-METALLURGIQUES ALAIS, FROGES ET CAMARGUE (bon de souscription). Pour 4 bons, 3 act. nouv. cédées contre paiement de 550 fr. par act. nouvelle majoré de l'intérêt (Vr Avis n° 20122)"
}