{
  "id": 20605,
  "share_type": {
    "id": 2,
    "name": "Bond (Obligation)"
  },
  "issuers": [
    {
      "id": 4611,
      "start_date": "1969-09-11",
      "end_date": "3999-12-31",
      "name": "Développement régional du Nord et du Pas-de-calais"
    }
  ],
  "types": [
    {
      "start_date": "1969-09-11",
      "end_date": "3999-12-31",
      "id": 1001,
      "name": "Obligation ordinaire ou classique",
      "stock_group": "B"
    }
  ],
  "is_mainstock": 0,
  "prices_period": [
    "1969-09-12",
    "1976-12-31"
  ],
  "stock_exchanges": {
    "1": {
      "id": 1,
      "name": "Paris (Official List)",
      "notations": {
        "151175": {
          "id": 151175,
          "sector_id": 615,
          "start_date": "1969-09-11",
          "end_date": "3999-12-31",
          "names": [
            {
              "name": "Lille_Bourse Nord-Pas-de-Calais 7% février 1969, remb à 570 F (c. 17/2/70 att) (Avis 69-586) 1970-84",
              "start_date": "1969-09-11",
              "end_date": "3999-12-31"
            }
          ]
        }
      },
      "listings_stats": {
        "start_date": "1969-09-11"
      },
      "spot_prices_stats": {
        "start_date": "1969-09-12",
        "end_date": "1976-12-31"
      }
    }
  },
  "prices_count": 177,
  "name": "Lille_Bourse Nord-Pas-de-Calais 7% février 1969, remb à 570 F (c. 17/2/70 att) (Avis 69-586) 1970-84"
}