{
  "id": 100909,
  "share_type": {
    "id": 4,
    "name": "Rights (Droits)"
  },
  "issuers": [
    {
      "id": 4001,
      "start_date": "1948-04-20",
      "end_date": "3999-12-31",
      "name": "SOCIÉTÉ NORD-AFRICAINE DES CIMENTS LAFARGE (Anciennement Chaux et Ciments de Rivet-Alger)"
    }
  ],
  "types": [
    {
      "start_date": "1948-04-20",
      "end_date": "3999-12-31",
      "id": 501,
      "name": "Droit de souscription",
      "stock_group": "R"
    }
  ],
  "is_mainstock": 0,
  "prices_period": [
    "1948-04-20",
    "1948-04-22"
  ],
  "stock_exchanges": {
    "1": {
      "id": 1,
      "name": "Paris (Official List)",
      "notations": {
        "201054": {
          "id": 201054,
          "sector_id": 657,
          "start_date": "1948-04-20",
          "end_date": "4000-01-01",
          "names": [
            {
              "name": "Nord-Africaine des Ciments Lafarge (dr. et c. 20). 1 act. nouv. émise à 700 fr. pour 1 act. Anc.",
              "start_date": "1948-04-20",
              "end_date": "4000-01-01"
            }
          ]
        }
      },
      "listings_stats": {
        "start_date": "1948-04-20"
      },
      "spot_prices_stats": {
        "start_date": "1948-04-20",
        "end_date": "1948-04-22"
      }
    }
  },
  "prices_count": 1,
  "name": "Nord-Africaine des Ciments Lafarge (dr. et c. 20). 1 act. nouv. émise à 700 fr. pour 1 act. Anc."
}