{
  "id": 18678,
  "share_type": {
    "id": 1,
    "name": "Stock (Action)"
  },
  "issuers": [
    {
      "id": 3539,
      "start_date": "1967-05-02",
      "end_date": "3999-12-31",
      "name": "LA SEQUANAISE-CAPITALISATION"
    }
  ],
  "types": [
    {
      "start_date": "1967-05-02",
      "end_date": "3999-12-31",
      "id": 20,
      "name": "Part de bénéfice (part bénéficiaire)",
      "stock_group": "S"
    }
  ],
  "is_mainstock": 0,
  "prices_period": [
    "1967-05-16",
    "1973-11-15"
  ],
  "stock_exchanges": {
    "1": {
      "id": 1,
      "name": "Paris (Official List)",
      "notations": {
        "149253": {
          "id": 149253,
          "sector_id": 56,
          "start_date": "1967-05-02",
          "end_date": "1973-11-30",
          "names": [
            {
              "name": "Nancy_Bourse Séquanaise Capital, 1/10e part bénéf. \"B\" (nom.)",
              "start_date": "1967-05-02",
              "end_date": "3999-12-31"
            }
          ]
        }
      },
      "listings_stats": {
        "start_date": "1967-05-02"
      },
      "spot_prices_stats": {
        "start_date": "1967-05-16",
        "end_date": "1973-11-15"
      }
    }
  },
  "prices_count": 157,
  "name": "Nancy_Bourse Séquanaise Capital, 1/10e part bénéf. \"B\" (nom.)"
}