{
  "id": 5586,
  "share_type": {
    "id": 2,
    "name": "Bond (Obligation)"
  },
  "issuers": [
    {
      "id": 2686,
      "start_date": "1916-05-15",
      "end_date": "3999-12-31",
      "name": "ETATS : ARGENTINE"
    }
  ],
  "types": [
    {
      "start_date": "1916-05-15",
      "end_date": "3999-12-31",
      "id": 1027,
      "name": "Certificats de Prêts à l'Etat Français",
      "stock_group": "B"
    }
  ],
  "is_mainstock": 0,
  "prices_period": [
    null,
    null
  ],
  "stock_exchanges": {
    "1": {
      "id": 1,
      "name": "Paris (Official List)",
      "notations": {
        "7991": {
          "id": 7991,
          "sector_id": 582,
          "start_date": "1916-05-15",
          "end_date": "1919-01-05",
          "names": [
            {
              "name": "Rép. Argentine 4% 1900",
              "start_date": "1916-05-15",
              "end_date": "1919-01-05"
            },
            {
              "name": "Rép. Argentine 4% 1900 (CERTIFICATS DE PRETS à l'ETAT FRANCAIS)",
              "start_date": "1916-05-15",
              "end_date": "3999-12-31"
            }
          ]
        }
      },
      "listings_stats": {
        "start_date": "1916-05-15"
      }
    }
  },
  "prices_count": 0,
  "name": "Rép. Argentine 4% 1900"
}