{
  "id": 12220,
  "share_type": {
    "id": 2,
    "name": "Bond (Obligation)"
  },
  "issuers": [
    {
      "id": 4761,
      "start_date": "1945-09-14",
      "end_date": "3999-12-31",
      "name": "\"GILLET-THAON\" (Etablissements Gillet et Fils et Blanchisserie et Teinturerie de Thaon réunis)"
    }
  ],
  "types": [
    {
      "start_date": "1945-09-14",
      "end_date": "3999-12-31",
      "id": 1001,
      "name": "Obligation ordinaire ou classique",
      "stock_group": "B"
    }
  ],
  "is_mainstock": 0,
  "prices_period": [
    "1945-09-20",
    "1960-02-29"
  ],
  "stock_exchanges": {
    "1": {
      "id": 1,
      "name": "Paris (Official List)",
      "notations": {
        "142795": {
          "id": 142795,
          "sector_id": 194,
          "start_date": "1945-09-14",
          "end_date": "1960-03-01",
          "names": [
            {
              "name": "Gillet-Thaon 4% 1945, remb. À 5000 fr. 1946-1975",
              "start_date": "1945-09-14",
              "end_date": "1960-03-01"
            },
            {
              "name": "Gillet-Thaon 4% 1945, r. à 5000 fr. 1946-75",
              "start_date": "1945-09-14",
              "end_date": "1960-03-01"
            },
            {
              "name": "Gillet-Thaon 4% 1945 (Rach. Ou Tir.) 1946-75",
              "start_date": "1945-09-14",
              "end_date": "3999-12-31"
            }
          ]
        }
      },
      "listings_stats": {
        "start_date": "1945-09-14"
      },
      "spot_prices_stats": {
        "start_date": "1945-09-20",
        "end_date": "1960-02-29"
      }
    }
  },
  "prices_count": 359,
  "name": "Gillet-Thaon 4% 1945, r. à 5000 fr. 1946-75"
}