{
  "id": 6801,
  "share_type": {
    "id": 2,
    "name": "Bond (Obligation)"
  },
  "issuers": [
    {
      "id": 2722,
      "start_date": "1911-10-20",
      "end_date": "3999-12-31",
      "name": "Fusion des gaz, Société anonyme d'éclairage et de chauffage"
    }
  ],
  "types": [
    {
      "start_date": "1912-02-15",
      "end_date": "3999-12-31",
      "id": 1002,
      "name": "Obligation convertible",
      "stock_group": "B"
    }
  ],
  "is_mainstock": 0,
  "prices_period": [
    "1912-02-15",
    "1922-06-15"
  ],
  "stock_exchanges": {
    "1": {
      "id": 1,
      "name": "Paris (Official List)",
      "notations": {
        "155743": {
          "id": 155743,
          "sector_id": 120,
          "start_date": "1911-10-20",
          "end_date": "1925-05-01",
          "names": [
            {
              "name": "Fusion des Gaz, obligations 4,5%, 2e série",
              "start_date": "1892-05-05",
              "end_date": "1925-05-01"
            },
            {
              "name": "Fusion des Gaz, obl 4,5%, 2e série, remb à 500 fr",
              "start_date": "1911-10-20",
              "end_date": "3999-12-31"
            }
          ]
        }
      },
      "listings_stats": {
        "start_date": "1911-10-20"
      },
      "spot_prices_stats": {
        "start_date": "1912-02-15",
        "end_date": "1922-06-15"
      }
    }
  },
  "prices_count": 56,
  "name": "Fusion des Gaz, obligations 4,5%, 2e série"
}