{
  "id": 2991,
  "share_type": {
    "id": 2,
    "name": "Bond (Obligation)"
  },
  "issuers": [
    {
      "id": 2511,
      "start_date": "1888-03-26",
      "end_date": "3999-12-31",
      "name": "DEPARTEMENTS : Loir-et-Cher"
    }
  ],
  "types": [
    {
      "start_date": "1888-03-26",
      "end_date": "3999-12-31",
      "id": 1001,
      "name": "Obligation ordinaire ou classique",
      "stock_group": "B"
    }
  ],
  "is_mainstock": 0,
  "prices_period": [
    "1888-03-26",
    "1888-11-15"
  ],
  "stock_exchanges": {
    "1": {
      "id": 1,
      "name": "Paris (Official List)",
      "notations": {
        "4090": {
          "id": 4090,
          "sector_id": 71,
          "start_date": "1888-03-26",
          "end_date": "1889-01-02",
          "names": [
            {
              "name": "Dept de Loir-et-Cher 4% 1887, r.500f., 224f.85 payés",
              "start_date": "1888-03-26",
              "end_date": "3999-12-31"
            }
          ]
        }
      },
      "listings_stats": {
        "start_date": "1888-03-26"
      },
      "spot_prices_stats": {
        "start_date": "1888-03-26",
        "end_date": "1888-11-15"
      }
    }
  },
  "prices_count": 16,
  "name": "Dept de Loir-et-Cher 4% 1887, r.500f., 224f.85 payés"
}