{
  "id": 11211,
  "share_type": {
    "id": 1,
    "name": "Stock (Action)"
  },
  "issuers": [
    {
      "id": 3421,
      "start_date": "1930-07-23",
      "end_date": "3999-12-31",
      "name": "L'ENERGIE INDUSTRIELLE"
    }
  ],
  "types": [
    {
      "start_date": "1930-07-23",
      "end_date": "3999-12-31",
      "id": 33,
      "name": "Action A",
      "stock_group": "S"
    }
  ],
  "is_mainstock": 0,
  "prices_period": [
    "1930-08-18",
    "1931-06-30"
  ],
  "stock_exchanges": {
    "1": {
      "id": 1,
      "name": "Paris (Official List)",
      "notations": {
        "141786": {
          "id": 141786,
          "sector_id": 116,
          "start_date": "1930-07-23",
          "end_date": "1931-07-01",
          "names": [
            {
              "name": "Energie Industrielle (L'), Act. A 100 fr., t. p. (nos 1306251 à 1436875)(ex-dr., )\"",
              "start_date": "1930-07-23",
              "end_date": "3999-12-31"
            }
          ]
        }
      },
      "listings_stats": {
        "start_date": "1930-07-23"
      },
      "spot_prices_stats": {
        "start_date": "1930-08-18",
        "end_date": "1931-06-30"
      }
    }
  },
  "prices_count": 47,
  "name": "Energie Industrielle (L'), Act. A 100 fr., t. p. (nos 1306251 à 1436875)(ex-dr., )\""
}