{
  "id": 19415,
  "share_type": {
    "id": 2,
    "name": "Bond (Obligation)"
  },
  "issuers": [
    {
      "id": 4352,
      "start_date": "1967-05-02",
      "end_date": "3999-12-31",
      "name": "SOCIETE DES ETABLISSEMENTS DES DOCKS DU NORD"
    }
  ],
  "types": [
    {
      "start_date": "1967-05-02",
      "end_date": "3999-12-31",
      "id": 1001,
      "name": "Obligation ordinaire ou classique",
      "stock_group": "B"
    }
  ],
  "is_mainstock": 0,
  "prices_period": [
    "1967-05-02",
    "1969-03-17"
  ],
  "stock_exchanges": {
    "1": {
      "id": 1,
      "name": "Paris (Official List)",
      "notations": {
        "149990": {
          "id": 149990,
          "sector_id": 429,
          "start_date": "1967-05-02",
          "end_date": "1969-03-31",
          "names": [
            {
              "name": "Lille_Bourse Docks du Nord-les-Eco. 4% 1945. 1946-75",
              "start_date": "1967-05-02",
              "end_date": "1969-03-31"
            },
            {
              "name": "LILLE_BOURSE Docks du nord-les-eco 4% 1945 (tir 27/9/68) 1946-75",
              "start_date": "1967-05-02",
              "end_date": "3999-12-31"
            }
          ]
        }
      },
      "listings_stats": {
        "start_date": "1967-05-02"
      },
      "spot_prices_stats": {
        "start_date": "1967-05-02",
        "end_date": "1969-03-17"
      }
    }
  },
  "prices_count": 45,
  "name": "Lille_Bourse Docks du Nord-les-Eco. 4% 1945. 1946-75"
}