{
  "id": 21086,
  "share_type": {
    "id": 1,
    "name": "Stock (Action)"
  },
  "issuers": [
    {
      "id": 4611,
      "start_date": "1973-01-19",
      "end_date": "3999-12-31",
      "name": "Développement régional du Nord et du Pas-de-calais"
    }
  ],
  "types": [
    {
      "start_date": "1973-01-19",
      "end_date": "3999-12-31",
      "id": 27,
      "name": "Promesse d'action",
      "stock_group": "S"
    }
  ],
  "is_mainstock": 0,
  "prices_period": [
    "1973-01-19",
    "1973-05-15"
  ],
  "stock_exchanges": {
    "1": {
      "id": 1,
      "name": "Paris (Official List)",
      "notations": {
        "151656": {
          "id": 151656,
          "sector_id": 462,
          "start_date": "1973-01-19",
          "end_date": "1973-06-01",
          "names": [
            {
              "name": "LILLE_BOURSE_Développement Régional du Nord et du Pas-de-Calais, promesses (Jce 1/1/73)",
              "start_date": "1973-01-19",
              "end_date": "1973-06-01"
            },
            {
              "name": "LILLE_BOURSE_Développement Régional du Nord et du Pas-de-Calais, act. (n°s 120001 à 156000) (c. 23 att.)",
              "start_date": "1973-01-19",
              "end_date": "3999-12-31"
            }
          ]
        }
      },
      "listings_stats": {
        "start_date": "1973-01-19"
      },
      "spot_prices_stats": {
        "start_date": "1973-01-19",
        "end_date": "1973-05-15"
      }
    }
  },
  "prices_count": 9,
  "name": "LILLE_BOURSE_Développement Régional du Nord et du Pas-de-Calais, promesses (Jce 1/1/73)"
}