{
  "id": 17820,
  "share_type": {
    "id": 1,
    "name": "Stock (Action)"
  },
  "issuers": [
    {
      "id": 4089,
      "start_date": "1962-11-06",
      "end_date": "3999-12-31",
      "name": "SOCIÉTÉ GAVEAU ET Cie"
    }
  ],
  "types": [
    {
      "start_date": "1962-11-06",
      "end_date": "3999-12-31",
      "id": 18,
      "name": "Action",
      "stock_group": "S"
    }
  ],
  "is_mainstock": 0,
  "prices_period": [
    "1962-11-07",
    "1963-01-15"
  ],
  "stock_exchanges": {
    "1": {
      "id": 1,
      "name": "Paris (Official List)",
      "notations": {
        "148395": {
          "id": 148395,
          "sector_id": 496,
          "start_date": "1962-11-06",
          "end_date": "1963-01-21",
          "names": [
            {
              "name": "Gaveau-Erard, Act.nouv. (Jce 1/1/62)",
              "start_date": "1962-11-06",
              "end_date": "3999-12-31"
            }
          ]
        }
      },
      "listings_stats": {
        "start_date": "1962-11-06"
      },
      "spot_prices_stats": {
        "start_date": "1962-11-07",
        "end_date": "1963-01-15"
      }
    }
  },
  "prices_count": 7,
  "name": "Gaveau-Erard, Act.nouv. (Jce 1/1/62)"
}