{
  "id": 106020,
  "share_type": {
    "id": 1,
    "name": "Stock (Action)"
  },
  "issuers": [
    {
      "id": 3239,
      "start_date": "1898-12-01",
      "end_date": "1898-12-31",
      "name": "Compagnie des MInes de fer de Rakhmanowka-Krivoi-Rog"
    }
  ],
  "types": [
    {
      "start_date": "1898-12-01",
      "end_date": "1898-12-31",
      "id": 18,
      "name": "Action",
      "stock_group": "S"
    }
  ],
  "is_mainstock": 1,
  "prices_period": [
    "1898-12-15",
    "1898-12-15"
  ],
  "stock_exchanges": {
    "2": {
      "id": 2,
      "name": "Paris OTC (Coulisse)",
      "notations": {
        "206879": {
          "id": 206879,
          "sector_id": 669,
          "start_date": "1898-12-01",
          "end_date": "1898-12-31",
          "names": [
            {
              "name": "Rakhmanovka-Krivoï-Rog (minerais de fer)",
              "start_date": "1898-12-01",
              "end_date": "1898-12-31"
            },
            {
              "name": "RAKHMANOVKA KRIVOI ROG (fer)",
              "start_date": "1898-12-01",
              "end_date": "1899-01-16"
            }
          ]
        },
        "207811": {
          "id": 207811,
          "sector_id": 683,
          "start_date": "1899-01-16",
          "end_date": "1899-01-16",
          "names": [
            {
              "name": "Rakhmanovka-Krivoï-Rog (minerais de fer)",
              "start_date": "1898-12-01",
              "end_date": "1899-01-16"
            },
            {
              "name": "RAKHMANOVKA KRIVOI ROG (fer)",
              "start_date": "1899-01-16",
              "end_date": "1899-01-16"
            }
          ]
        }
      },
      "listings_stats": {
        "start_date": "1898-12-01"
      },
      "spot_prices_stats": {
        "start_date": "1898-12-15",
        "end_date": "1898-12-15"
      }
    }
  },
  "prices_count": 2,
  "name": "RAKHMANOVKA KRIVOI ROG (fer)"
}