{
  "id": 19968,
  "share_type": {
    "id": 1,
    "name": "Stock (Action)"
  },
  "issuers": [
    {
      "id": 3928,
      "start_date": "1969-01-13",
      "end_date": "3999-12-31",
      "name": "SOCIETE ANONYME ANDRÉ CITROEN"
    }
  ],
  "types": [
    {
      "start_date": "1969-01-13",
      "end_date": "3999-12-31",
      "id": 27,
      "name": "Promesse d'action",
      "stock_group": "S"
    }
  ],
  "is_mainstock": 0,
  "prices_period": [
    "1969-01-14",
    "1969-04-30"
  ],
  "stock_exchanges": {
    "1": {
      "id": 1,
      "name": "Paris (Official List)",
      "notations": {
        "150543": {
          "id": 150543,
          "sector_id": 337,
          "start_date": "1969-01-13",
          "end_date": "1969-07-15",
          "names": [
            {
              "name": "Citroen S.A. (Automobiles Citroen, Berliet, Panhard) Promesses (Jce 1/1/69)",
              "start_date": "1969-01-13",
              "end_date": "1969-07-15"
            },
            {
              "name": "Citroen S. A., (Automobiles Citroen, Berliet, Panhard) Act. (n°s 4907961 à 6543946) (c. 2 att.)",
              "start_date": "1969-01-13",
              "end_date": "3999-12-31"
            }
          ]
        }
      },
      "listings_stats": {
        "start_date": "1969-01-13"
      },
      "spot_prices_stats": {
        "start_date": "1969-01-14",
        "end_date": "1969-04-30"
      }
    }
  },
  "prices_count": 12,
  "name": "Citroen S.A. (Automobiles Citroen, Berliet, Panhard) Promesses (Jce 1/1/69)"
}