{
  "id": 9406,
  "share_type": {
    "id": 1,
    "name": "Stock (Action)"
  },
  "issuers": [
    {
      "id": 3966,
      "start_date": "1929-06-17",
      "end_date": "3999-12-31",
      "name": "STÉ DES GRANDS TRAVAUX EN BÉTON ARMÉ"
    }
  ],
  "types": [
    {
      "start_date": "1929-06-17",
      "end_date": "3999-12-31",
      "id": 11,
      "name": "Action ordinaire",
      "stock_group": "S"
    }
  ],
  "is_mainstock": 0,
  "prices_period": [
    "1929-06-17",
    "1929-06-17"
  ],
  "stock_exchanges": {
    "1": {
      "id": 1,
      "name": "Paris (Official List)",
      "notations": {
        "136853": {
          "id": 136853,
          "sector_id": 182,
          "start_date": "1929-06-17",
          "end_date": "1929-06-19",
          "names": [
            {
              "name": "Grands Travaux en Béton Armé, act. 100 fr., t.p. (dr. et c. 21 att.)",
              "start_date": "1929-06-17",
              "end_date": "3999-12-31"
            }
          ]
        }
      },
      "listings_stats": {
        "start_date": "1929-06-17"
      },
      "spot_prices_stats": {
        "start_date": "1929-06-17",
        "end_date": "1929-06-17"
      }
    }
  },
  "prices_count": 2,
  "name": "Grands Travaux en Béton Armé, act. 100 fr., t.p. (dr. et c. 21 att.)"
}