{
  "id": 1239,
  "share_type": {
    "id": 2,
    "name": "Bond (Obligation)"
  },
  "issuers": [
    {
      "id": 460,
      "start_date": "1861-04-09",
      "end_date": "3999-12-31",
      "name": "ETATS : PORTUGAL"
    }
  ],
  "types": [
    {
      "start_date": "1861-04-09",
      "end_date": "3999-12-31",
      "id": 1001,
      "name": "Obligation ordinaire ou classique",
      "stock_group": "B"
    }
  ],
  "is_mainstock": 0,
  "prices_period": [
    "1861-07-31",
    "1886-07-15"
  ],
  "stock_exchanges": {
    "1": {
      "id": 1,
      "name": "Paris (Official List)",
      "notations": {
        "2348": {
          "id": 2348,
          "sector_id": 67,
          "start_date": "1861-04-09",
          "end_date": "1886-07-27",
          "names": [
            {
              "name": "E. Portugais 1856-57-58, j. jer",
              "start_date": "1861-04-09",
              "end_date": "1886-07-27"
            },
            {
              "name": "Emprunt Portugais 1856-57-58, j. jer",
              "start_date": "1861-04-09",
              "end_date": "1886-07-27"
            },
            {
              "name": "Portugais, 3%, 1856-57-59-60",
              "start_date": "1861-04-09",
              "end_date": "1886-07-27"
            },
            {
              "name": "Portugais, 1856-57-59-60, 3%",
              "start_date": "1861-04-09",
              "end_date": "1886-07-27"
            },
            {
              "name": "Portugais, 1853-56-57-59-60-62-63-67-69, 3%, (négoc.ch.fixe 25f25)",
              "start_date": "1861-04-09",
              "end_date": "1886-07-27"
            },
            {
              "name": "Portugais, 3%, 1853-56-57-59-60-62-63-67-69-77-78-80-84 (négoc.ch.fixe 25f25)",
              "start_date": "1861-04-09",
              "end_date": "3999-12-31"
            }
          ]
        }
      },
      "forward_prices_stats": {
        "start_date": "1861-07-31",
        "end_date": "1886-07-15"
      },
      "listings_stats": {
        "start_date": "1861-04-09"
      },
      "spot_prices_stats": {
        "start_date": "1871-01-16",
        "end_date": "1886-07-15"
      }
    }
  },
  "prices_count": 409,
  "name": "Portugais, 1856-57-59-60, 3%"
}