{
  "id": 2986,
  "share_type": {
    "id": 2,
    "name": "Bond (Obligation)"
  },
  "issuers": [
    {
      "id": 2680,
      "start_date": "1886-11-22",
      "end_date": "3999-12-31",
      "name": "VILLE D'ARMENTIERES (Nord)"
    }
  ],
  "types": [
    {
      "start_date": "1886-11-22",
      "end_date": "3999-12-31",
      "id": 1001,
      "name": "Obligation ordinaire ou classique",
      "stock_group": "B"
    }
  ],
  "is_mainstock": 0,
  "prices_period": [
    "1886-11-23",
    "1926-04-15"
  ],
  "stock_exchanges": {
    "1": {
      "id": 1,
      "name": "Paris (Official List)",
      "notations": {
        "4085": {
          "id": 4085,
          "sector_id": 71,
          "start_date": "1886-11-22",
          "end_date": "1914-08-03",
          "names": [
            {
              "name": "Armentières (Villes d') 3,5% 1886, r.500f.",
              "start_date": "1886-11-22",
              "end_date": "1925-05-01"
            },
            {
              "name": "Ville d'Armentières 3,5% 1886, remb. à 500 fr.",
              "start_date": "1886-11-22",
              "end_date": "1925-06-08"
            },
            {
              "name": "Armentières 3,5% 1886, remb. à 500 fr.",
              "start_date": "1886-11-22",
              "end_date": "3999-12-31"
            }
          ]
        },
        "6509": {
          "id": 6509,
          "sector_id": 71,
          "start_date": "1914-12-15",
          "end_date": "1925-05-01",
          "names": [
            {
              "name": "Armentières (Villes d') 3,5% 1886, r.500f.",
              "start_date": "1886-11-22",
              "end_date": "1925-05-01"
            },
            {
              "name": "Ville d'Armentières 3,5% 1886, remb. à 500 fr.",
              "start_date": "1914-12-15",
              "end_date": "1925-06-08"
            },
            {
              "name": "Armentières 3,5% 1886, remb. à 500 fr.",
              "start_date": "1914-12-15",
              "end_date": "3999-12-31"
            }
          ]
        },
        "13025": {
          "id": 13025,
          "sector_id": 79,
          "start_date": "1925-05-01",
          "end_date": "1925-06-08",
          "names": [
            {
              "name": "Armentières (Villes d') 3,5% 1886, r.500f.",
              "start_date": "1886-11-22",
              "end_date": "1925-06-08"
            },
            {
              "name": "Ville d'Armentières 3,5% 1886, remb. à 500 fr.",
              "start_date": "1925-05-01",
              "end_date": "1925-06-08"
            },
            {
              "name": "Armentières 3,5% 1886, remb. à 500 fr.",
              "start_date": "1925-05-01",
              "end_date": "3999-12-31"
            }
          ]
        },
        "15000": {
          "id": 15000,
          "sector_id": 189,
          "start_date": "1925-06-08",
          "end_date": "1926-10-01",
          "names": [
            {
              "name": "Armentières (Villes d') 3,5% 1886, r.500f.",
              "start_date": "1886-11-22",
              "end_date": "1926-10-01"
            },
            {
              "name": "Ville d'Armentières 3,5% 1886, remb. à 500 fr.",
              "start_date": "1925-05-01",
              "end_date": "1926-10-01"
            },
            {
              "name": "Armentières 3,5% 1886, remb. à 500 fr.",
              "start_date": "1925-06-08",
              "end_date": "3999-12-31"
            }
          ]
        }
      },
      "listings_stats": {
        "start_date": "1886-11-22"
      },
      "spot_prices_stats": {
        "start_date": "1886-11-23",
        "end_date": "1926-04-15"
      }
    }
  },
  "prices_count": 38,
  "name": "Armentières 3,5% 1886, remb. à 500 fr."
}