{
  "id": 5422,
  "share_type": {
    "id": 2,
    "name": "Bond (Obligation)"
  },
  "issuers": [
    {
      "id": 3346,
      "start_date": "1915-12-09",
      "end_date": "3999-12-31",
      "name": "État de Ceara"
    }
  ],
  "types": [
    {
      "start_date": "1915-12-09",
      "end_date": "3999-12-31",
      "id": 1001,
      "name": "Obligation ordinaire ou classique",
      "stock_group": "B"
    }
  ],
  "is_mainstock": 0,
  "prices_period": [
    "1917-01-02",
    "1919-04-30"
  ],
  "stock_exchanges": {
    "1": {
      "id": 1,
      "name": "Paris (Official List)",
      "notations": {
        "7827": {
          "id": 7827,
          "sector_id": 74,
          "start_date": "1915-12-09",
          "end_date": "1919-05-02",
          "names": [
            {
              "name": "Ceara (Etat de) 5% or 1910, remb. à 500 fr. jouissance courante",
              "start_date": "1915-12-09",
              "end_date": "3999-12-31"
            }
          ]
        }
      },
      "listings_stats": {
        "start_date": "1915-12-09"
      },
      "spot_prices_stats": {
        "start_date": "1917-01-02",
        "end_date": "1919-04-30"
      }
    }
  },
  "prices_count": 7,
  "name": "Ceara (Etat de) 5% or 1910, remb. à 500 fr. jouissance courante"
}