{
  "id": 503,
  "share_type": {
    "id": 6,
    "name": "UNKNOWN"
  },
  "issuers": [
    {
      "id": 846,
      "start_date": "1846-10-20",
      "end_date": "3999-12-31",
      "name": "Houille Saint-Bérain"
    }
  ],
  "types": [
    {
      "start_date": "1846-10-20",
      "end_date": "3999-12-31",
      "id": 1,
      "name": "UNKNOWN",
      "stock_group": "U"
    }
  ],
  "is_mainstock": 0,
  "prices_period": [
    "1846-10-20",
    "1846-10-20"
  ],
  "stock_exchanges": {
    "1": {
      "id": 1,
      "name": "Paris (Official List)",
      "notations": {
        "699": {
          "id": 699,
          "sector_id": 576,
          "start_date": "1846-10-20",
          "end_date": "1846-11-03",
          "names": [
            {
              "name": "Houille Saint-Bérain",
              "start_date": "1846-10-20",
              "end_date": "3999-12-31"
            }
          ]
        }
      },
      "listings_stats": {
        "start_date": "1846-10-20"
      },
      "spot_prices_stats": {
        "start_date": "1846-10-20",
        "end_date": "1846-10-20"
      }
    }
  },
  "prices_count": 1,
  "name": "Houille Saint-Bérain"
}