{
  "id": 17060,
  "share_type": {
    "id": 1,
    "name": "Stock (Action)"
  },
  "issuers": [
    {
      "id": 5502,
      "start_date": "1962-05-15",
      "end_date": "3999-12-31",
      "name": "INTERNATIONAL TELEPHONE AND TELEGRAPH CORPORATION (ITT)"
    }
  ],
  "types": [
    {
      "start_date": "1962-05-15",
      "end_date": "3999-12-31",
      "id": 11,
      "name": "Action ordinaire",
      "stock_group": "S"
    }
  ],
  "is_mainstock": 0,
  "prices_period": [
    "1962-05-15",
    "1962-05-15"
  ],
  "stock_exchanges": {
    "1": {
      "id": 1,
      "name": "Paris (Official List)",
      "notations": {
        "31961": {
          "id": 31961,
          "sector_id": 311,
          "start_date": "1963-09-23",
          "end_date": "3999-12-31",
          "names": [
            {
              "name": "International Telephone and Telegraph Corporation, act. ord. sans valeur nominale (nom.) (livraison en crédit SICOVAM) (par 25 actions)",
              "start_date": "1962-05-15",
              "end_date": "3999-12-31"
            }
          ]
        },
        "147635": {
          "id": 147635,
          "sector_id": 478,
          "start_date": "1962-05-15",
          "end_date": "1963-09-23",
          "names": [
            {
              "name": "International Telephone and Telegraph Corporation, act. ord. sans valeur nominale (nom.) (livraison en crédit SICOVAM) (par 25 actions)",
              "start_date": "1962-05-15",
              "end_date": "3999-12-31"
            }
          ]
        }
      },
      "forward_prices_stats": {
        "start_date": "1962-05-15",
        "end_date": "1962-05-15"
      },
      "listings_stats": {
        "start_date": "1962-05-15"
      },
      "options_prices_stats": {
        "start_date": "1962-05-15",
        "end_date": "1962-05-15"
      }
    }
  },
  "prices_count": 6,
  "name": "International Telephone and Telegraph Corporation, act. ord. sans valeur nominale (nom.) (livraison en crédit SICOVAM) (par 25 actions)"
}