{
  "id": 14371,
  "share_type": {
    "id": 1,
    "name": "Stock (Action)"
  },
  "issuers": [
    {
      "id": 4913,
      "start_date": "1952-02-01",
      "end_date": "3999-12-31",
      "name": "CANADIAN EAGLE OIL COMPANY LTD"
    }
  ],
  "types": [
    {
      "start_date": "1952-02-01",
      "end_date": "3999-12-31",
      "id": 11,
      "name": "Action ordinaire",
      "stock_group": "S"
    }
  ],
  "is_mainstock": 0,
  "prices_period": [
    "1952-02-07",
    "1959-08-17"
  ],
  "stock_exchanges": {
    "1": {
      "id": 1,
      "name": "Paris (Official List)",
      "notations": {
        "26975": {
          "id": 26975,
          "sector_id": 82,
          "start_date": "1955-12-01",
          "end_date": "1959-08-21",
          "names": [
            {
              "name": "Canadian Eagle Oil Cy, Ltd, a. ord. Coup. De 5 et toutes coup. Par 5",
              "start_date": "1952-02-01",
              "end_date": "1959-08-21"
            },
            {
              "name": "Canadian Eagle Oil, Ltd, a. ord. . Coup. De 5",
              "start_date": "1954-03-09",
              "end_date": "1959-08-21"
            },
            {
              "name": "Canadian Eagle Oil Company, Limited, act. Ord. (ex-dr., ). Unités. Coup de 5.",
              "start_date": "1955-12-01",
              "end_date": "3999-12-31"
            }
          ]
        },
        "144946": {
          "id": 144946,
          "sector_id": 235,
          "start_date": "1952-02-01",
          "end_date": "1955-12-01",
          "names": [
            {
              "name": "Canadian Eagle Oil Cy, Ltd, a. ord. Coup. De 5 et toutes coup. Par 5",
              "start_date": "1952-02-01",
              "end_date": "1955-12-01"
            },
            {
              "name": "Canadian Eagle Oil, Ltd, a. ord. . Coup. De 5",
              "start_date": "1952-02-01",
              "end_date": "1955-12-01"
            },
            {
              "name": "Canadian Eagle Oil Company, Limited, act. Ord. (ex-dr., ). Unités. Coup de 5.",
              "start_date": "1952-02-01",
              "end_date": "3999-12-31"
            }
          ]
        }
      },
      "listings_stats": {
        "start_date": "1952-02-01"
      },
      "spot_prices_stats": {
        "start_date": "1952-02-07",
        "end_date": "1959-08-17"
      }
    }
  },
  "prices_count": 258,
  "name": "Canadian Eagle Oil Cy, Ltd, a. ord. Coup. De 5 et toutes coup. Par 5"
}