{
  "id": 7276,
  "share_type": {
    "id": 2,
    "name": "Bond (Obligation)"
  },
  "issuers": [
    {
      "id": 4368,
      "start_date": "1922-02-09",
      "end_date": "3999-12-31",
      "name": "FORGES ET ATELIERS DE CONSTRUCTIONS ELECTRIQUES DE JEUMONT"
    }
  ],
  "types": [
    {
      "start_date": "1922-02-09",
      "end_date": "3999-12-31",
      "id": 1001,
      "name": "Obligation ordinaire ou classique",
      "stock_group": "B"
    }
  ],
  "is_mainstock": 0,
  "prices_period": [
    "1922-02-09",
    "1931-06-30"
  ],
  "stock_exchanges": {
    "1": {
      "id": 1,
      "name": "Paris (Official List)",
      "notations": {
        "34146": {
          "id": 34146,
          "sector_id": 186,
          "start_date": "1922-02-09",
          "end_date": "1931-07-01",
          "names": [
            {
              "name": "Forges et Ateliers de Constructions Electriques de Jeumont, obl. 6%, remb. à 500 fr.",
              "start_date": "1922-02-09",
              "end_date": "1931-07-01"
            },
            {
              "name": "Forges et Ateliers de Constructions Electriques de Jeumont, oblig. 6%, remb. à 500 fr. le 1er juil. 1931",
              "start_date": "1922-02-09",
              "end_date": "3999-12-31"
            }
          ]
        }
      },
      "listings_stats": {
        "start_date": "1922-02-09"
      },
      "spot_prices_stats": {
        "start_date": "1922-02-09",
        "end_date": "1931-06-30"
      }
    }
  },
  "prices_count": 230,
  "name": "Forges et Ateliers de Constructions Electriques de Jeumont, obl. 6%, remb. à 500 fr."
}