{
  "id": 20258,
  "share_type": {
    "id": 1,
    "name": "Stock (Action)"
  },
  "issuers": [
    {
      "id": 2318,
      "start_date": "1969-11-17",
      "end_date": "3999-12-31",
      "name": "Société anonyme de la Grande distillerie E. Cusenier fils aîné et Cie"
    }
  ],
  "types": [
    {
      "start_date": "1969-11-17",
      "end_date": "3999-12-31",
      "id": 11,
      "name": "Action ordinaire",
      "stock_group": "S"
    }
  ],
  "is_mainstock": 0,
  "prices_period": [
    "1969-11-17",
    "1976-12-31"
  ],
  "stock_exchanges": {
    "1": {
      "id": 1,
      "name": "Paris (Official List)",
      "notations": {
        "150833": {
          "id": 150833,
          "sector_id": 492,
          "start_date": "1969-11-17",
          "end_date": "3999-12-31",
          "names": [
            {
              "name": "Cusenier act (ex-dr, )",
              "start_date": "1969-11-17",
              "end_date": "3999-12-31"
            }
          ]
        }
      },
      "listings_stats": {
        "start_date": "1969-11-17"
      },
      "spot_prices_stats": {
        "start_date": "1969-11-17",
        "end_date": "1976-12-31"
      }
    }
  },
  "prices_count": 180,
  "name": "Cusenier act (ex-dr, )"
}