{
  "id": 5194,
  "share_type": {
    "id": 2,
    "name": "Bond (Obligation)"
  },
  "issuers": [
    {
      "id": 4228,
      "start_date": "1903-07-31",
      "end_date": "3999-12-31",
      "name": "CHEMIN DE FER DE MOSCOU-KIEV-VORONÈGE"
    }
  ],
  "types": [
    {
      "start_date": "1903-07-31",
      "end_date": "3999-12-31",
      "id": 1001,
      "name": "Obligation ordinaire ou classique",
      "stock_group": "B"
    }
  ],
  "is_mainstock": 0,
  "prices_period": [
    "1903-07-31",
    "1976-12-31"
  ],
  "stock_exchanges": {
    "1": {
      "id": 1,
      "name": "Paris (Official List)",
      "notations": {
        "7015": {
          "id": 7015,
          "sector_id": 68,
          "start_date": "1903-07-31",
          "end_date": "1914-08-03",
          "names": [
            {
              "name": "Moscou-Kiev-Voronège, obl. 4%, r. à 500 fr., à partir de 1918. Obligations de Chemins de fer Russes garanties par le Gouvernt Impérl de Russie (Emission 1903).",
              "start_date": "1903-07-31",
              "end_date": "1920-01-02"
            },
            {
              "name": "Russie (Obl de Ch de fer gar par le Gouv Impérial) Moscou-Kiev-Voronege 4% 1903 remb à 500 fr",
              "start_date": "1903-07-31",
              "end_date": "1925-05-01"
            },
            {
              "name": "Moscou-Kiev-Voronège 4% 1903, remb. à 500 fr. (RUSSIE.-Obligations de Ch. de fer gar. par le Gouv. Impér.)",
              "start_date": "1903-07-31",
              "end_date": "1938-12-30"
            },
            {
              "name": "RUSSIE: Moscou-Kiev-Voronège 4% 1903, remb. à 500 fr. (RUSSIE.-Obligations de Ch. de fer gar. par le Gouv. Impér.)",
              "start_date": "1903-07-31",
              "end_date": "1939-12-01"
            },
            {
              "name": "Russie. Moscou-Kiev-Voronège 4% 1903, remb. À 500 fr. (Jce 1/7/18).",
              "start_date": "1903-07-31",
              "end_date": "1944-11-07"
            },
            {
              "name": "Moscou-Kiew 4% 1903",
              "start_date": "1903-07-31",
              "end_date": "1945-01-08"
            },
            {
              "name": "Moscou-Kiew",
              "start_date": "1903-07-31",
              "end_date": "1948-01-15"
            },
            {
              "name": "RUSSIE - Obl. Ch. De fer, Moscou-K.-Voronège 4% 1903, r. 500 fr.",
              "start_date": "1903-07-31",
              "end_date": "1962-01-02"
            },
            {
              "name": "Moscou-Kiev-Voronège 4% 1903 (Jce 1/7/18)(RUSSIE-Obl-ch.de fer)",
              "start_date": "1903-07-31",
              "end_date": "3999-12-31"
            }
          ]
        },
        "8934": {
          "id": 8934,
          "sector_id": 68,
          "start_date": "1914-12-15",
          "end_date": "1918-04-02",
          "names": [
            {
              "name": "Moscou-Kiev-Voronège, obl. 4%, r. à 500 fr., à partir de 1918. Obligations de Chemins de fer Russes garanties par le Gouvernt Impérl de Russie (Emission 1903).",
              "start_date": "1903-07-31",
              "end_date": "1920-01-02"
            },
            {
              "name": "Russie (Obl de Ch de fer gar par le Gouv Impérial) Moscou-Kiev-Voronege 4% 1903 remb à 500 fr",
              "start_date": "1914-12-15",
              "end_date": "1925-05-01"
            },
            {
              "name": "Moscou-Kiev-Voronège 4% 1903, remb. à 500 fr. (RUSSIE.-Obligations de Ch. de fer gar. par le Gouv. Impér.)",
              "start_date": "1914-12-15",
              "end_date": "1938-12-30"
            },
            {
              "name": "RUSSIE: Moscou-Kiev-Voronège 4% 1903, remb. à 500 fr. (RUSSIE.-Obligations de Ch. de fer gar. par le Gouv. Impér.)",
              "start_date": "1914-12-15",
              "end_date": "1939-12-01"
            },
            {
              "name": "Russie. Moscou-Kiev-Voronège 4% 1903, remb. À 500 fr. (Jce 1/7/18).",
              "start_date": "1914-12-15",
              "end_date": "1944-11-07"
            },
            {
              "name": "Moscou-Kiew 4% 1903",
              "start_date": "1914-12-15",
              "end_date": "1945-01-08"
            },
            {
              "name": "Moscou-Kiew",
              "start_date": "1914-12-15",
              "end_date": "1948-01-15"
            },
            {
              "name": "RUSSIE - Obl. Ch. De fer, Moscou-K.-Voronège 4% 1903, r. 500 fr.",
              "start_date": "1914-12-15",
              "end_date": "1962-01-02"
            },
            {
              "name": "Moscou-Kiev-Voronège 4% 1903 (Jce 1/7/18)(RUSSIE-Obl-ch.de fer)",
              "start_date": "1914-12-15",
              "end_date": "3999-12-31"
            }
          ]
        },
        "9541": {
          "id": 9541,
          "sector_id": 144,
          "start_date": "1918-04-02",
          "end_date": "1925-05-01",
          "names": [
            {
              "name": "Moscou-Kiev-Voronège, obl. 4%, r. à 500 fr., à partir de 1918. Obligations de Chemins de fer Russes garanties par le Gouvernt Impérl de Russie (Emission 1903).",
              "start_date": "1903-07-31",
              "end_date": "1925-05-01"
            },
            {
              "name": "Russie (Obl de Ch de fer gar par le Gouv Impérial) Moscou-Kiev-Voronege 4% 1903 remb à 500 fr",
              "start_date": "1918-04-02",
              "end_date": "1925-05-01"
            },
            {
              "name": "Moscou-Kiev-Voronège 4% 1903, remb. à 500 fr. (RUSSIE.-Obligations de Ch. de fer gar. par le Gouv. Impér.)",
              "start_date": "1918-04-02",
              "end_date": "1938-12-30"
            },
            {
              "name": "RUSSIE: Moscou-Kiev-Voronège 4% 1903, remb. à 500 fr. (RUSSIE.-Obligations de Ch. de fer gar. par le Gouv. Impér.)",
              "start_date": "1918-04-02",
              "end_date": "1939-12-01"
            },
            {
              "name": "Russie. Moscou-Kiev-Voronège 4% 1903, remb. À 500 fr. (Jce 1/7/18).",
              "start_date": "1918-04-02",
              "end_date": "1944-11-07"
            },
            {
              "name": "Moscou-Kiew 4% 1903",
              "start_date": "1918-04-02",
              "end_date": "1945-01-08"
            },
            {
              "name": "Moscou-Kiew",
              "start_date": "1918-04-02",
              "end_date": "1948-01-15"
            },
            {
              "name": "RUSSIE - Obl. Ch. De fer, Moscou-K.-Voronège 4% 1903, r. 500 fr.",
              "start_date": "1918-04-02",
              "end_date": "1962-01-02"
            },
            {
              "name": "Moscou-Kiev-Voronège 4% 1903 (Jce 1/7/18)(RUSSIE-Obl-ch.de fer)",
              "start_date": "1918-04-02",
              "end_date": "3999-12-31"
            }
          ]
        },
        "13651": {
          "id": 13651,
          "sector_id": 128,
          "start_date": "1925-05-01",
          "end_date": "1939-12-01",
          "names": [
            {
              "name": "Moscou-Kiev-Voronège, obl. 4%, r. à 500 fr., à partir de 1918. Obligations de Chemins de fer Russes garanties par le Gouvernt Impérl de Russie (Emission 1903).",
              "start_date": "1903-07-31",
              "end_date": "1939-12-01"
            },
            {
              "name": "Russie (Obl de Ch de fer gar par le Gouv Impérial) Moscou-Kiev-Voronege 4% 1903 remb à 500 fr",
              "start_date": "1920-01-02",
              "end_date": "1939-12-01"
            },
            {
              "name": "Moscou-Kiev-Voronège 4% 1903, remb. à 500 fr. (RUSSIE.-Obligations de Ch. de fer gar. par le Gouv. Impér.)",
              "start_date": "1925-05-01",
              "end_date": "1939-12-01"
            },
            {
              "name": "RUSSIE: Moscou-Kiev-Voronège 4% 1903, remb. à 500 fr. (RUSSIE.-Obligations de Ch. de fer gar. par le Gouv. Impér.)",
              "start_date": "1925-05-01",
              "end_date": "1939-12-01"
            },
            {
              "name": "Russie. Moscou-Kiev-Voronège 4% 1903, remb. À 500 fr. (Jce 1/7/18).",
              "start_date": "1925-05-01",
              "end_date": "1944-11-07"
            },
            {
              "name": "Moscou-Kiew 4% 1903",
              "start_date": "1925-05-01",
              "end_date": "1945-01-08"
            },
            {
              "name": "Moscou-Kiew",
              "start_date": "1925-05-01",
              "end_date": "1948-01-15"
            },
            {
              "name": "RUSSIE - Obl. Ch. De fer, Moscou-K.-Voronège 4% 1903, r. 500 fr.",
              "start_date": "1925-05-01",
              "end_date": "1962-01-02"
            },
            {
              "name": "Moscou-Kiev-Voronège 4% 1903 (Jce 1/7/18)(RUSSIE-Obl-ch.de fer)",
              "start_date": "1925-05-01",
              "end_date": "3999-12-31"
            }
          ]
        },
        "21742": {
          "id": 21742,
          "sector_id": 237,
          "start_date": "1948-01-15",
          "end_date": "1962-01-02",
          "names": [
            {
              "name": "Moscou-Kiev-Voronège, obl. 4%, r. à 500 fr., à partir de 1918. Obligations de Chemins de fer Russes garanties par le Gouvernt Impérl de Russie (Emission 1903).",
              "start_date": "1903-07-31",
              "end_date": "1962-01-02"
            },
            {
              "name": "Russie (Obl de Ch de fer gar par le Gouv Impérial) Moscou-Kiev-Voronege 4% 1903 remb à 500 fr",
              "start_date": "1920-01-02",
              "end_date": "1962-01-02"
            },
            {
              "name": "Moscou-Kiev-Voronège 4% 1903, remb. à 500 fr. (RUSSIE.-Obligations de Ch. de fer gar. par le Gouv. Impér.)",
              "start_date": "1925-05-01",
              "end_date": "1962-01-02"
            },
            {
              "name": "RUSSIE: Moscou-Kiev-Voronège 4% 1903, remb. à 500 fr. (RUSSIE.-Obligations de Ch. de fer gar. par le Gouv. Impér.)",
              "start_date": "1938-12-30",
              "end_date": "1962-01-02"
            },
            {
              "name": "Russie. Moscou-Kiev-Voronège 4% 1903, remb. À 500 fr. (Jce 1/7/18).",
              "start_date": "1939-12-01",
              "end_date": "1962-01-02"
            },
            {
              "name": "Moscou-Kiew 4% 1903",
              "start_date": "1944-11-07",
              "end_date": "1962-01-02"
            },
            {
              "name": "Moscou-Kiew",
              "start_date": "1945-01-08",
              "end_date": "1962-01-02"
            },
            {
              "name": "RUSSIE - Obl. Ch. De fer, Moscou-K.-Voronège 4% 1903, r. 500 fr.",
              "start_date": "1948-01-15",
              "end_date": "1962-01-02"
            },
            {
              "name": "Moscou-Kiev-Voronège 4% 1903 (Jce 1/7/18)(RUSSIE-Obl-ch.de fer)",
              "start_date": "1948-01-15",
              "end_date": "3999-12-31"
            }
          ]
        },
        "23003": {
          "id": 23003,
          "sector_id": 227,
          "start_date": "1944-11-07",
          "end_date": "1945-01-03",
          "names": [
            {
              "name": "Moscou-Kiev-Voronège, obl. 4%, r. à 500 fr., à partir de 1918. Obligations de Chemins de fer Russes garanties par le Gouvernt Impérl de Russie (Emission 1903).",
              "start_date": "1903-07-31",
              "end_date": "1945-01-03"
            },
            {
              "name": "Russie (Obl de Ch de fer gar par le Gouv Impérial) Moscou-Kiev-Voronege 4% 1903 remb à 500 fr",
              "start_date": "1920-01-02",
              "end_date": "1945-01-03"
            },
            {
              "name": "Moscou-Kiev-Voronège 4% 1903, remb. à 500 fr. (RUSSIE.-Obligations de Ch. de fer gar. par le Gouv. Impér.)",
              "start_date": "1925-05-01",
              "end_date": "1945-01-03"
            },
            {
              "name": "RUSSIE: Moscou-Kiev-Voronège 4% 1903, remb. à 500 fr. (RUSSIE.-Obligations de Ch. de fer gar. par le Gouv. Impér.)",
              "start_date": "1938-12-30",
              "end_date": "1945-01-03"
            },
            {
              "name": "Russie. Moscou-Kiev-Voronège 4% 1903, remb. À 500 fr. (Jce 1/7/18).",
              "start_date": "1939-12-01",
              "end_date": "1945-01-03"
            },
            {
              "name": "Moscou-Kiew 4% 1903",
              "start_date": "1944-11-07",
              "end_date": "1945-01-08"
            },
            {
              "name": "Moscou-Kiew",
              "start_date": "1944-11-07",
              "end_date": "1948-01-15"
            },
            {
              "name": "RUSSIE - Obl. Ch. De fer, Moscou-K.-Voronège 4% 1903, r. 500 fr.",
              "start_date": "1944-11-07",
              "end_date": "1962-01-02"
            },
            {
              "name": "Moscou-Kiev-Voronège 4% 1903 (Jce 1/7/18)(RUSSIE-Obl-ch.de fer)",
              "start_date": "1944-11-07",
              "end_date": "3999-12-31"
            }
          ]
        },
        "23185": {
          "id": 23185,
          "sector_id": 227,
          "start_date": "1945-01-08",
          "end_date": "1948-01-02",
          "names": [
            {
              "name": "Moscou-Kiev-Voronège, obl. 4%, r. à 500 fr., à partir de 1918. Obligations de Chemins de fer Russes garanties par le Gouvernt Impérl de Russie (Emission 1903).",
              "start_date": "1903-07-31",
              "end_date": "1948-01-02"
            },
            {
              "name": "Russie (Obl de Ch de fer gar par le Gouv Impérial) Moscou-Kiev-Voronege 4% 1903 remb à 500 fr",
              "start_date": "1920-01-02",
              "end_date": "1948-01-02"
            },
            {
              "name": "Moscou-Kiev-Voronège 4% 1903, remb. à 500 fr. (RUSSIE.-Obligations de Ch. de fer gar. par le Gouv. Impér.)",
              "start_date": "1925-05-01",
              "end_date": "1948-01-02"
            },
            {
              "name": "RUSSIE: Moscou-Kiev-Voronège 4% 1903, remb. à 500 fr. (RUSSIE.-Obligations de Ch. de fer gar. par le Gouv. Impér.)",
              "start_date": "1938-12-30",
              "end_date": "1948-01-02"
            },
            {
              "name": "Russie. Moscou-Kiev-Voronège 4% 1903, remb. À 500 fr. (Jce 1/7/18).",
              "start_date": "1939-12-01",
              "end_date": "1948-01-02"
            },
            {
              "name": "Moscou-Kiew 4% 1903",
              "start_date": "1944-11-07",
              "end_date": "1948-01-02"
            },
            {
              "name": "Moscou-Kiew",
              "start_date": "1945-01-08",
              "end_date": "1948-01-15"
            },
            {
              "name": "RUSSIE - Obl. Ch. De fer, Moscou-K.-Voronège 4% 1903, r. 500 fr.",
              "start_date": "1945-01-08",
              "end_date": "1962-01-02"
            },
            {
              "name": "Moscou-Kiev-Voronège 4% 1903 (Jce 1/7/18)(RUSSIE-Obl-ch.de fer)",
              "start_date": "1945-01-08",
              "end_date": "3999-12-31"
            }
          ]
        },
        "28923": {
          "id": 28923,
          "sector_id": 83,
          "start_date": "1962-01-02",
          "end_date": "3999-12-31",
          "names": [
            {
              "name": "Moscou-Kiev-Voronège, obl. 4%, r. à 500 fr., à partir de 1918. Obligations de Chemins de fer Russes garanties par le Gouvernt Impérl de Russie (Emission 1903).",
              "start_date": "1903-07-31",
              "end_date": "3999-12-31"
            },
            {
              "name": "Russie (Obl de Ch de fer gar par le Gouv Impérial) Moscou-Kiev-Voronege 4% 1903 remb à 500 fr",
              "start_date": "1920-01-02",
              "end_date": "3999-12-31"
            },
            {
              "name": "Moscou-Kiev-Voronège 4% 1903, remb. à 500 fr. (RUSSIE.-Obligations de Ch. de fer gar. par le Gouv. Impér.)",
              "start_date": "1925-05-01",
              "end_date": "3999-12-31"
            },
            {
              "name": "RUSSIE: Moscou-Kiev-Voronège 4% 1903, remb. à 500 fr. (RUSSIE.-Obligations de Ch. de fer gar. par le Gouv. Impér.)",
              "start_date": "1938-12-30",
              "end_date": "3999-12-31"
            },
            {
              "name": "Russie. Moscou-Kiev-Voronège 4% 1903, remb. À 500 fr. (Jce 1/7/18).",
              "start_date": "1939-12-01",
              "end_date": "3999-12-31"
            },
            {
              "name": "Moscou-Kiew 4% 1903",
              "start_date": "1944-11-07",
              "end_date": "3999-12-31"
            },
            {
              "name": "Moscou-Kiew",
              "start_date": "1945-01-08",
              "end_date": "3999-12-31"
            },
            {
              "name": "RUSSIE - Obl. Ch. De fer, Moscou-K.-Voronège 4% 1903, r. 500 fr.",
              "start_date": "1948-01-15",
              "end_date": "3999-12-31"
            },
            {
              "name": "Moscou-Kiev-Voronège 4% 1903 (Jce 1/7/18)(RUSSIE-Obl-ch.de fer)",
              "start_date": "1962-01-02",
              "end_date": "3999-12-31"
            }
          ]
        }
      },
      "forward_prices_stats": {
        "start_date": "1903-07-31",
        "end_date": "1905-04-15"
      },
      "listings_stats": {
        "start_date": "1903-07-31"
      },
      "spot_prices_stats": {
        "start_date": "1903-07-31",
        "end_date": "1976-12-31"
      }
    }
  },
  "prices_count": 1279,
  "name": "Russie. Moscou-Kiev-Voronège 4% 1903, remb. À 500 fr. (Jce 1/7/18)."
}