{
  "id": 16738,
  "share_type": {
    "id": 1,
    "name": "Stock (Action)"
  },
  "issuers": [
    {
      "id": 4276,
      "start_date": "1962-01-02",
      "end_date": "3999-12-31",
      "name": "Papeteries du Pont-de-Claix"
    }
  ],
  "types": [
    {
      "start_date": "1962-01-02",
      "end_date": "3999-12-31",
      "id": 18,
      "name": "Action",
      "stock_group": "S"
    }
  ],
  "is_mainstock": 0,
  "prices_period": [
    "1962-01-02",
    "1964-02-17"
  ],
  "stock_exchanges": {
    "1": {
      "id": 1,
      "name": "Paris (Official List)",
      "notations": {
        "30160": {
          "id": 30160,
          "sector_id": 345,
          "start_date": "1963-03-04",
          "end_date": "1964-02-21",
          "names": [
            {
              "name": "Papeteries du Pont-de-Claix (Anciennes Papeteries Breton Frères et Cie), act. (ex-dr., )",
              "start_date": "1962-01-02",
              "end_date": "1964-02-21"
            },
            {
              "name": "Papeteries du Pont-de-Claix (Anc. Papeteries Breton Frères et Cie), act.",
              "start_date": "1963-03-04",
              "end_date": "3999-12-31"
            }
          ]
        },
        "147313": {
          "id": 147313,
          "sector_id": 403,
          "start_date": "1962-01-02",
          "end_date": "1963-03-04",
          "names": [
            {
              "name": "Papeteries du Pont-de-Claix (Anciennes Papeteries Breton Frères et Cie), act. (ex-dr., )",
              "start_date": "1962-01-02",
              "end_date": "1964-02-21"
            },
            {
              "name": "Papeteries du Pont-de-Claix (Anc. Papeteries Breton Frères et Cie), act.",
              "start_date": "1962-01-02",
              "end_date": "3999-12-31"
            }
          ]
        }
      },
      "listings_stats": {
        "start_date": "1962-01-02"
      },
      "spot_prices_stats": {
        "start_date": "1962-01-02",
        "end_date": "1964-02-17"
      }
    }
  },
  "prices_count": 60,
  "name": "Papeteries du Pont-de-Claix (Anc. Papeteries Breton Frères et Cie), act."
}