{
  "id": 103963,
  "share_type": {
    "id": 1,
    "name": "Stock (Action)"
  },
  "issuers": [
    {
      "id": 2317,
      "start_date": "1940-02-16",
      "end_date": "1940-05-15",
      "name": "IMPRIMERIE ET LIBRAIRIE CENTRALES DES CHEMINS DE FER (Imprimerie Chaix)"
    }
  ],
  "types": [],
  "is_mainstock": 0,
  "prices_period": [
    "1940-02-29",
    "1940-04-30"
  ],
  "stock_exchanges": {
    "1": {
      "id": 1,
      "name": "Paris (Official List)",
      "notations": {
        "204147": {
          "id": 204147,
          "sector_id": 191,
          "start_date": "1940-02-16",
          "end_date": "1940-05-15",
          "names": [
            {
              "name": "Imprimerie-Librairie Centrale des Ch. de fer (Chaix), A. nouv. 300 f., t.p. (nos 10001 a 20000) (c. 76 att)",
              "start_date": "1940-02-16",
              "end_date": "1940-05-15"
            }
          ]
        }
      },
      "listings_stats": {
        "start_date": "1940-02-16"
      },
      "spot_prices_stats": {
        "start_date": "1940-02-29",
        "end_date": "1940-04-30"
      }
    }
  },
  "prices_count": 5,
  "name": "Imprimerie-Librairie Centrale des Ch. de fer (Chaix), A. nouv. 300 f., t.p. (nos 10001 a 20000) (c. 76 att)"
}