{
  "id": 35354,
  "share_type": {
    "id": 2,
    "name": "Bond (Obligation)"
  },
  "issuers": [
    {
      "id": 5223,
      "start_date": "1962-01-09",
      "end_date": "3999-12-31",
      "name": "Groupement des industries mécaniques"
    }
  ],
  "types": [
    {
      "start_date": "1962-01-09",
      "end_date": "3999-12-31",
      "id": 1001,
      "name": "Obligation ordinaire ou classique",
      "stock_group": "B"
    }
  ],
  "is_mainstock": 0,
  "prices_period": [
    "1962-01-09",
    "1976-08-31"
  ],
  "stock_exchanges": {
    "1": {
      "id": 1,
      "name": "Paris (Official List)",
      "notations": {
        "100304": {
          "id": 100304,
          "sector_id": 363,
          "start_date": "1963-03-04",
          "end_date": "1976-09-01",
          "names": [
            {
              "name": "Groupement des industries Mécaniques (G.I.M.E.C.A.), 5% sept.1961 r. À 220 NF (c. 1/9/62 att.) 1963-76",
              "start_date": "1962-01-09",
              "end_date": "1976-09-01"
            },
            {
              "name": "Groupement des industries Mécaniques (G.I.M.E.C.A.), 5% sept.1961 de 200 F, remb. À 220 F(Tir.20/6/75)1963-76",
              "start_date": "1963-03-04",
              "end_date": "3999-12-31"
            }
          ]
        },
        "153209": {
          "id": 153209,
          "sector_id": 512,
          "start_date": "1962-01-09",
          "end_date": "1963-03-04",
          "names": [
            {
              "name": "Groupement des industries Mécaniques (G.I.M.E.C.A.), 5% sept.1961 r. À 220 NF (c. 1/9/62 att.) 1963-76",
              "start_date": "1962-01-09",
              "end_date": "1976-09-01"
            },
            {
              "name": "Groupement des industries Mécaniques (G.I.M.E.C.A.), 5% sept.1961 de 200 F, remb. À 220 F(Tir.20/6/75)1963-76",
              "start_date": "1962-01-09",
              "end_date": "3999-12-31"
            }
          ]
        }
      },
      "listings_stats": {
        "start_date": "1962-01-09"
      },
      "spot_prices_stats": {
        "start_date": "1962-01-09",
        "end_date": "1976-08-31"
      }
    }
  },
  "prices_count": 353,
  "name": "Groupement des industries Mécaniques (G.I.M.E.C.A.), 5% sept.1961 r. À 220 NF (c. 1/9/62 att.) 1963-76"
}