{
  "id": 7875,
  "share_type": {
    "id": 1,
    "name": "Stock (Action)"
  },
  "issuers": [
    {
      "id": 4763,
      "start_date": "1924-05-19",
      "end_date": "3999-12-31",
      "name": "LE BLAN ET Cie"
    }
  ],
  "types": [
    {
      "start_date": "1924-05-19",
      "end_date": "3999-12-31",
      "id": 18,
      "name": "Action",
      "stock_group": "S"
    }
  ],
  "is_mainstock": 1,
  "prices_period": [
    "1924-05-20",
    "1952-12-31"
  ],
  "stock_exchanges": {
    "1": {
      "id": 1,
      "name": "Paris (Official List)",
      "notations": {
        "34745": {
          "id": 34745,
          "sector_id": 101,
          "start_date": "1924-05-19",
          "end_date": "1953-01-08",
          "names": [
            {
              "name": "Le Blan et Cie, act. 500 fr., t. p. (nos 1 à 32300 et 36301 à 70000)",
              "start_date": "1924-05-19",
              "end_date": "1953-01-08"
            },
            {
              "name": "Le blan et cie, act. 500 fr., t. p. (n° 1 à 70000)",
              "start_date": "1924-05-19",
              "end_date": "1953-01-08"
            },
            {
              "name": "Le Blan et Cie, actions 500 fr., t. p. (n°s 1 à 202000)",
              "start_date": "1924-05-19",
              "end_date": "1953-01-08"
            },
            {
              "name": "Le Blan et Cie, actions 1000 fr., t. p. (n°s 1 à 400000) (ex-dr., )",
              "start_date": "1924-05-19",
              "end_date": "1953-01-08"
            },
            {
              "name": "Le Blan et Cie, actions 1000 f., t. p. (n°s 1 à 400000)",
              "start_date": "1924-05-19",
              "end_date": "1953-01-08"
            },
            {
              "name": "Le Blan et Cie, actions 1250 fr., t. p. (n°s 1 à 400000)",
              "start_date": "1924-05-19",
              "end_date": "1953-01-08"
            },
            {
              "name": "Le Blan et Cie, actions 1500 fr., t. p. (n°s 1 à 400000)",
              "start_date": "1924-05-19",
              "end_date": "1953-01-08"
            },
            {
              "name": "Le Blanc et Cie, act. Anc. 1500 fr., t. p. (n°s 1 à 400000)",
              "start_date": "1924-05-19",
              "end_date": "3999-12-31"
            }
          ]
        }
      },
      "listings_stats": {
        "start_date": "1924-05-19"
      },
      "spot_prices_stats": {
        "start_date": "1924-05-20",
        "end_date": "1952-12-31"
      }
    }
  },
  "prices_count": 661,
  "name": "Le Blan et Cie, actions 1500 fr., t. p. (n°s 1 à 400000)"
}