{
  "id": 40164,
  "share_type": {
    "id": 2,
    "name": "Bond (Obligation)"
  },
  "issuers": [
    {
      "id": 7024,
      "start_date": "1000-01-01",
      "end_date": "3999-12-31",
      "name": "Eaux de Bussang"
    }
  ],
  "types": [
    {
      "start_date": "1000-01-01",
      "end_date": "3999-12-31",
      "id": 1001,
      "name": "Obligation ordinaire ou classique",
      "stock_group": "B"
    }
  ],
  "is_mainstock": 0,
  "prices_period": [
    "1892-05-31",
    "1894-07-16"
  ],
  "stock_exchanges": {
    "1": {
      "id": 1,
      "name": "Paris (Official List)",
      "notations": {
        "155164": {
          "id": 155164,
          "sector_id": 120,
          "start_date": "1892-05-09",
          "end_date": "1898-11-28",
          "names": [
            {
              "name": "Eaux de Bussang, obligations 5%",
              "start_date": "1892-05-05",
              "end_date": "1920-01-02"
            }
          ]
        }
      },
      "listings_stats": {
        "start_date": "1892-05-09"
      },
      "spot_prices_stats": {
        "start_date": "1892-05-31",
        "end_date": "1894-07-16"
      }
    }
  },
  "prices_count": 6,
  "name": "Eaux de Bussang, obligations 5%"
}