{
  "id": 11886,
  "share_type": {
    "id": 2,
    "name": "Bond (Obligation)"
  },
  "issuers": [
    {
      "id": 5278,
      "start_date": "1943-01-05",
      "end_date": "3999-12-31",
      "name": "STÉ HYDRO-ÉLECTRIQUE DES BASSES-PYRÉNÉES"
    }
  ],
  "types": [
    {
      "start_date": "1943-01-05",
      "end_date": "3999-12-31",
      "id": 1001,
      "name": "Obligation ordinaire ou classique",
      "stock_group": "B"
    }
  ],
  "is_mainstock": 0,
  "prices_period": [
    "1943-01-07",
    "1953-03-02"
  ],
  "stock_exchanges": {
    "1": {
      "id": 1,
      "name": "Paris (Official List)",
      "notations": {
        "142461": {
          "id": 142461,
          "sector_id": 117,
          "start_date": "1943-01-05",
          "end_date": "1953-03-16",
          "names": [
            {
              "name": "Hydro-Electrique des Basses-Pyrénées 4,5% 1941, r. À 5000 f. 1942-66",
              "start_date": "1943-01-05",
              "end_date": "3999-12-31"
            }
          ]
        }
      },
      "listings_stats": {
        "start_date": "1943-01-05"
      },
      "spot_prices_stats": {
        "start_date": "1943-01-07",
        "end_date": "1953-03-02"
      }
    }
  },
  "prices_count": 229,
  "name": "Hydro-Electrique des Basses-Pyrénées 4,5% 1941, r. À 5000 f. 1942-66"
}