{
  "id": 8446,
  "share_type": {
    "id": 2,
    "name": "Bond (Obligation)"
  },
  "issuers": [
    {
      "id": 5235,
      "start_date": "1927-07-04",
      "end_date": "3999-12-31",
      "name": "DOCKS RÉMOIS (Comptoir Général d'Alimentation et d'Approvisionnement)"
    }
  ],
  "types": [
    {
      "start_date": "1927-07-04",
      "end_date": "3999-12-31",
      "id": 1001,
      "name": "Obligation ordinaire ou classique",
      "stock_group": "B"
    }
  ],
  "is_mainstock": 0,
  "prices_period": [
    "1927-07-04",
    "1939-06-30"
  ],
  "stock_exchanges": {
    "1": {
      "id": 1,
      "name": "Paris (Official List)",
      "notations": {
        "135893": {
          "id": 135893,
          "sector_id": 183,
          "start_date": "1927-07-04",
          "end_date": "1939-07-03",
          "names": [
            {
              "name": "Docks Rémois 6,5%, remb. à 500 fr.",
              "start_date": "1927-07-04",
              "end_date": "1939-07-03"
            },
            {
              "name": "Docks Rémois 6,5%, remb. À 500 fr. le 1er juillet 1939.",
              "start_date": "1927-07-04",
              "end_date": "3999-12-31"
            }
          ]
        }
      },
      "listings_stats": {
        "start_date": "1927-07-04"
      },
      "spot_prices_stats": {
        "start_date": "1927-07-04",
        "end_date": "1939-06-30"
      }
    }
  },
  "prices_count": 206,
  "name": "Docks Rémois 6,5%, remb. à 500 fr."
}