{
  "id": 8617,
  "share_type": {
    "id": 2,
    "name": "Bond (Obligation)"
  },
  "issuers": [
    {
      "id": 5207,
      "start_date": "1928-09-19",
      "end_date": "3999-12-31",
      "name": "LES ETABLISSEMENTS MARECHAL"
    }
  ],
  "types": [
    {
      "start_date": "1928-09-19",
      "end_date": "3999-12-31",
      "id": 1001,
      "name": "Obligation ordinaire ou classique",
      "stock_group": "B"
    }
  ],
  "is_mainstock": 0,
  "prices_period": [
    "1928-09-19",
    "1929-09-02"
  ],
  "stock_exchanges": {
    "1": {
      "id": 1,
      "name": "Paris (Official List)",
      "notations": {
        "136064": {
          "id": 136064,
          "sector_id": 185,
          "start_date": "1928-09-19",
          "end_date": "1929-09-13",
          "names": [
            {
              "name": "Maréchal et Fils (Etabliss. Eugène), oblig. hypoth. 6,5%, remb. à 500 fr.",
              "start_date": "1928-09-19",
              "end_date": "3999-12-31"
            }
          ]
        }
      },
      "listings_stats": {
        "start_date": "1928-09-19"
      },
      "spot_prices_stats": {
        "start_date": "1928-09-19",
        "end_date": "1929-09-02"
      }
    }
  },
  "prices_count": 27,
  "name": "Maréchal et Fils (Etabliss. Eugène), oblig. hypoth. 6,5%, remb. à 500 fr."
}