{
  "id": 12798,
  "share_type": {
    "id": 1,
    "name": "Stock (Action)"
  },
  "issuers": [
    {
      "id": 3660,
      "start_date": "1925-04-14",
      "end_date": "3999-12-31",
      "name": "ENERGIE ÉLECTRIQUE INDO-CHINOISE"
    }
  ],
  "types": [
    {
      "start_date": "1925-04-14",
      "end_date": "3999-12-31",
      "id": 18,
      "name": "Action",
      "stock_group": "S"
    }
  ],
  "is_mainstock": 0,
  "prices_period": [
    "1925-04-21",
    "1925-06-02"
  ],
  "stock_exchanges": {
    "1": {
      "id": 1,
      "name": "Paris (Official List)",
      "notations": {
        "143373": {
          "id": 143373,
          "sector_id": 116,
          "start_date": "1925-04-14",
          "end_date": "1925-06-15",
          "names": [
            {
              "name": "Energie Electrique Indochinoise, act. 500 fr. t. p. (nos 30001 à 40000)",
              "start_date": "1925-04-14",
              "end_date": "3999-12-31"
            }
          ]
        }
      },
      "listings_stats": {
        "start_date": "1925-04-14"
      },
      "spot_prices_stats": {
        "start_date": "1925-04-21",
        "end_date": "1925-06-02"
      }
    }
  },
  "prices_count": 3,
  "name": "Energie Electrique Indochinoise, act. 500 fr. t. p. (nos 30001 à 40000)"
}