{
  "id": 1589,
  "share_type": {
    "id": 1,
    "name": "Stock (Action)"
  },
  "issuers": [
    {
      "id": 1598,
      "start_date": "1867-07-11",
      "end_date": "3999-12-31",
      "name": "Compagnie du Chemin de fer de Vitré à Fougères et prolongements"
    }
  ],
  "types": [
    {
      "start_date": "1867-07-11",
      "end_date": "3999-12-31",
      "id": 18,
      "name": "Action",
      "stock_group": "S"
    }
  ],
  "is_mainstock": 1,
  "prices_period": [
    null,
    null
  ],
  "stock_exchanges": {
    "1": {
      "id": 1,
      "name": "Paris (Official List)",
      "notations": {
        "2698": {
          "id": 2698,
          "sector_id": 73,
          "start_date": "1867-07-11",
          "end_date": "1884-07-23",
          "names": [
            {
              "name": "Vitré à Fougères, act. 500f, t. p.",
              "start_date": "1867-07-11",
              "end_date": "3999-12-31"
            }
          ]
        }
      },
      "listings_stats": {
        "start_date": "1867-07-11"
      }
    }
  },
  "prices_count": 0,
  "name": "Vitré à Fougères, act. 500f, t. p."
}