{
  "id": 40050,
  "share_type": {
    "id": 1,
    "name": "Stock (Action)"
  },
  "issuers": [
    {
      "id": 2506,
      "start_date": "1927-04-25",
      "end_date": "1935-02-08",
      "name": "FORGES ET ACIERIES DU NORD ET DE L'EST"
    }
  ],
  "types": [
    {
      "start_date": "1000-01-01",
      "end_date": "3999-12-31",
      "id": 18,
      "name": "Action",
      "stock_group": "S"
    }
  ],
  "is_mainstock": 0,
  "prices_period": [
    "1927-05-31",
    "1935-01-31"
  ],
  "stock_exchanges": {
    "1": {
      "id": 1,
      "name": "Paris (Official List)",
      "notations": {
        "155050": {
          "id": 155050,
          "sector_id": 164,
          "start_date": "1927-04-25",
          "end_date": "1935-02-08",
          "names": [
            {
              "name": "Forges et Aciéries du Nord et de l'Est, act. A 250 fr. tp",
              "start_date": "1927-04-25",
              "end_date": "1935-02-08"
            }
          ]
        }
      },
      "forward_prices_stats": {
        "start_date": "1927-05-31",
        "end_date": "1935-01-15"
      },
      "listings_stats": {
        "start_date": "1927-04-25"
      },
      "options_prices_stats": {
        "start_date": "1927-05-31",
        "end_date": "1935-01-31"
      },
      "spot_prices_stats": {
        "start_date": "1927-08-16",
        "end_date": "1935-01-31"
      }
    }
  },
  "prices_count": 649,
  "name": "Forges et Aciéries du Nord et de l'Est, act. A 250 fr. tp"
}