{
  "id": 11542,
  "share_type": {
    "id": 1,
    "name": "Stock (Action)"
  },
  "issuers": [
    {
      "id": 2109,
      "start_date": "1941-12-09",
      "end_date": "3999-12-31",
      "name": "Le Nord, Compagnie d'assurances sur la vie et de prêts viagers"
    }
  ],
  "types": [
    {
      "start_date": "1941-12-09",
      "end_date": "3999-12-31",
      "id": 18,
      "name": "Action",
      "stock_group": "S"
    }
  ],
  "is_mainstock": 0,
  "prices_period": [
    "1941-12-09",
    "1950-07-31"
  ],
  "stock_exchanges": {
    "1": {
      "id": 1,
      "name": "Paris (Official List)",
      "notations": {
        "22168": {
          "id": 22168,
          "sector_id": 250,
          "start_date": "1948-12-01",
          "end_date": "1950-08-09",
          "names": [
            {
              "name": "Nord (Le) (vie), act. 100 fr., 25 fr. p. (nos 30001 à 90000) (nom.) (Jce 1/7/41)",
              "start_date": "1941-12-09",
              "end_date": "1950-08-09"
            },
            {
              "name": "Nord (Le) (vie), Act. 100 fr., 25 fr. p. (n°s 30001 à 90000) (nom.) (Jce 26/9/45)",
              "start_date": "1948-12-01",
              "end_date": "1950-08-09"
            },
            {
              "name": "Nord (Le) (vie), act. 100 fr., t. p. (n°s 30001 à 90000) (nom.) (ex-dr. Est. Du 1/11/49) (Jce 26/9/45)",
              "start_date": "1948-12-01",
              "end_date": "3999-12-31"
            }
          ]
        },
        "142117": {
          "id": 142117,
          "sector_id": 96,
          "start_date": "1941-12-09",
          "end_date": "1948-12-01",
          "names": [
            {
              "name": "Nord (Le) (vie), act. 100 fr., 25 fr. p. (nos 30001 à 90000) (nom.) (Jce 1/7/41)",
              "start_date": "1941-12-09",
              "end_date": "1948-12-01"
            },
            {
              "name": "Nord (Le) (vie), Act. 100 fr., 25 fr. p. (n°s 30001 à 90000) (nom.) (Jce 26/9/45)",
              "start_date": "1941-12-09",
              "end_date": "1949-11-15"
            },
            {
              "name": "Nord (Le) (vie), act. 100 fr., t. p. (n°s 30001 à 90000) (nom.) (ex-dr. Est. Du 1/11/49) (Jce 26/9/45)",
              "start_date": "1941-12-09",
              "end_date": "3999-12-31"
            }
          ]
        }
      },
      "listings_stats": {
        "start_date": "1941-12-09"
      },
      "spot_prices_stats": {
        "start_date": "1941-12-09",
        "end_date": "1950-07-31"
      }
    }
  },
  "prices_count": 196,
  "name": "Nord (Le) (vie), Act. 100 fr., 25 fr. p. (n°s 30001 à 90000) (nom.) (Jce 26/9/45)"
}