{
  "id": 6006,
  "share_type": {
    "id": 2,
    "name": "Bond (Obligation)"
  },
  "issuers": [
    {
      "id": 2547,
      "start_date": "1918-04-02",
      "end_date": "3999-12-31",
      "name": "ROYAUME DE NORVEGE"
    }
  ],
  "types": [
    {
      "start_date": "1918-04-02",
      "end_date": "3999-12-31",
      "id": 1027,
      "name": "Certificats de Prêts à l'Etat Français",
      "stock_group": "B"
    }
  ],
  "is_mainstock": 0,
  "prices_period": [
    null,
    null
  ],
  "stock_exchanges": {
    "1": {
      "id": 1,
      "name": "Paris (Official List)",
      "notations": {
        "8411": {
          "id": 8411,
          "sector_id": 67,
          "start_date": "1918-04-02",
          "end_date": "1919-06-18",
          "names": [
            {
              "name": "Norwège 3,5% 1894 (nég.ch.fixe 25f20) C.500£ capital, certific.de prêts",
              "start_date": "1918-04-02",
              "end_date": "3999-12-31"
            }
          ]
        }
      },
      "listings_stats": {
        "start_date": "1918-04-02"
      }
    }
  },
  "prices_count": 0,
  "name": "Norwège 3,5% 1894 (nég.ch.fixe 25f20) C.500£ capital, certific.de prêts"
}