{
  "id": 21280,
  "share_type": {
    "id": 2,
    "name": "Bond (Obligation)"
  },
  "issuers": [
    {
      "id": 6261,
      "start_date": "1973-11-30",
      "end_date": "3999-12-31",
      "name": "Société d'Economie Mixte Immobilier et Aménagement"
    }
  ],
  "types": [
    {
      "start_date": "1973-11-30",
      "end_date": "3999-12-31",
      "id": 1022,
      "name": "Emprunt",
      "stock_group": "B"
    }
  ],
  "is_mainstock": 0,
  "prices_period": [
    "1973-11-30",
    "1976-12-31"
  ],
  "stock_exchanges": {
    "1": {
      "id": 1,
      "name": "Paris (Official List)",
      "notations": {
        "151849": {
          "id": 151849,
          "sector_id": 616,
          "start_date": "1973-11-30",
          "end_date": "3999-12-31",
          "names": [
            {
              "name": "Lyon_Bourse Emprunt Groupé (Sté Econ. Mixte Immob. Et Aménag.) 8,50% nov. 1971 de 1000 F (c. 21/11/74 att.) (Avis 73-1040). 1974-91",
              "start_date": "1973-11-30",
              "end_date": "3999-12-31"
            }
          ]
        }
      },
      "listings_stats": {
        "start_date": "1973-11-30"
      },
      "spot_prices_stats": {
        "start_date": "1973-11-30",
        "end_date": "1976-12-31"
      }
    }
  },
  "prices_count": 76,
  "name": "Lyon_Bourse Emprunt Groupé (Sté Econ. Mixte Immob. Et Aménag.) 8,50% nov. 1971 de 1000 F (c. 21/11/74 att.) (Avis 73-1040). 1974-91"
}