{
  "id": 40266,
  "share_type": {
    "id": 1,
    "name": "Stock (Action)"
  },
  "issuers": [
    {
      "id": 1378,
      "start_date": "1000-01-01",
      "end_date": "3999-12-31",
      "name": "Compagnie des Salins du Midi"
    }
  ],
  "types": [
    {
      "start_date": "1000-01-01",
      "end_date": "3999-12-31",
      "id": 1,
      "name": "UNKNOWN",
      "stock_group": "U"
    }
  ],
  "is_mainstock": 0,
  "prices_period": [
    null,
    null
  ],
  "stock_exchanges": {
    "1": {
      "id": 1,
      "name": "Paris (Official List)",
      "notations": {
        "155272": {
          "id": 155272,
          "sector_id": 122,
          "start_date": "1895-01-21",
          "end_date": "1903-06-08",
          "names": [
            {
              "name": "Salins du Midi (n°s 13436 à 14075)",
              "start_date": "1895-01-21",
              "end_date": "1903-06-08"
            }
          ]
        }
      },
      "listings_stats": {
        "start_date": "1895-01-21"
      }
    }
  },
  "prices_count": 0,
  "name": "Salins du Midi (n°s 13436 à 14075)"
}