{
  "id": 7416,
  "share_type": {
    "id": 1,
    "name": "Stock (Action)"
  },
  "issuers": [
    {
      "id": 667,
      "start_date": "1921-08-31",
      "end_date": "3999-12-31",
      "name": "L'AIGLE-ACCIDENTS COMPAGNIE D'ASSURANCES ET DE RÉASSURANCES CONTRE LES ACCIDENTS ET TOUS RISQUES"
    }
  ],
  "types": [
    {
      "start_date": "1921-08-31",
      "end_date": "3999-12-31",
      "id": 18,
      "name": "Action",
      "stock_group": "S"
    }
  ],
  "is_mainstock": 1,
  "prices_period": [
    "1924-03-31",
    "1946-06-28"
  ],
  "stock_exchanges": {
    "1": {
      "id": 1,
      "name": "Paris (Official List)",
      "notations": {
        "34286": {
          "id": 34286,
          "sector_id": 96,
          "start_date": "1921-08-31",
          "end_date": "1946-07-01",
          "names": [
            {
              "name": "Aigle (L') (Accidents et tous risques), act. 500 fr., t. p.nom (Cessionnaires soumis à l'agrément du Conseil d'Administration)",
              "start_date": "1921-08-31",
              "end_date": "1946-07-01"
            },
            {
              "name": "Aigle (L') (accidents et tous risques), act. 500 fr., t.p. (nom.)",
              "start_date": "1921-08-31",
              "end_date": "1946-07-01"
            },
            {
              "name": "Aigle (L') (accidents et tous risques), act. 100 fr., t.p. (nom.)",
              "start_date": "1921-08-31",
              "end_date": "1946-07-01"
            },
            {
              "name": "Aigle (L') (accidents et tous risques), act. 100 f., t. p. (ex-dr., )",
              "start_date": "1921-08-31",
              "end_date": "1946-07-01"
            },
            {
              "name": "Aigle (L') (accidents et tous risques), act. 100 f., t. p. (nom.)",
              "start_date": "1921-08-31",
              "end_date": "3999-12-31"
            }
          ]
        }
      },
      "listings_stats": {
        "start_date": "1921-08-31"
      },
      "spot_prices_stats": {
        "start_date": "1924-03-31",
        "end_date": "1946-06-28"
      }
    }
  },
  "prices_count": 339,
  "name": "Aigle (L') (accidents et tous risques), act. 100 fr., t.p. (nom.)"
}