{
  "id": 103122,
  "share_type": {
    "id": 4,
    "name": "Rights (Droits)"
  },
  "issuers": [
    {
      "id": 4266,
      "start_date": "1000-01-01",
      "end_date": "4927-02-19",
      "name": "SOCIETE NOUVELLE DES ETABLISSEMENTS ADT"
    }
  ],
  "types": [
    {
      "start_date": "1000-01-01",
      "end_date": "4927-02-19",
      "id": 501,
      "name": "Droit de souscription",
      "stock_group": "R"
    }
  ],
  "is_mainstock": 0,
  "prices_period": [
    null,
    null
  ],
  "stock_exchanges": {
    "1": {
      "id": 1,
      "name": "Paris (Official List)",
      "notations": {
        "203304": {
          "id": 203304,
          "sector_id": 657,
          "start_date": "1927-02-08",
          "end_date": "4927-02-20",
          "names": [
            {
              "name": "Act. Sté Nouvelle des Etablissements Adt (droit et coupon 6).",
              "start_date": "1000-01-01",
              "end_date": "4927-02-20"
            }
          ]
        }
      },
      "listings_stats": {
        "start_date": "1927-02-08"
      }
    }
  },
  "prices_count": 0,
  "name": "Act. Sté Nouvelle des Etablissements Adt (droit et coupon 6)."
}