{
  "id": 20806,
  "share_type": {
    "id": 1,
    "name": "Stock (Action)"
  },
  "issuers": [
    {
      "id": 3942,
      "start_date": "1972-02-14",
      "end_date": "3999-12-31",
      "name": "SOCIETE DU CARBURATEUR ZENITH"
    }
  ],
  "types": [
    {
      "start_date": "1972-02-14",
      "end_date": "3999-12-31",
      "id": 18,
      "name": "Action",
      "stock_group": "S"
    }
  ],
  "is_mainstock": 0,
  "prices_period": [
    "1972-02-15",
    "1976-12-31"
  ],
  "stock_exchanges": {
    "1": {
      "id": 1,
      "name": "Paris (Official List)",
      "notations": {
        "151376": {
          "id": 151376,
          "sector_id": 337,
          "start_date": "1972-02-14",
          "end_date": "3999-12-31",
          "names": [
            {
              "name": "Solex, act. (c. 1 att) (cf. Avis 72-89)",
              "start_date": "1972-02-14",
              "end_date": "3999-12-31"
            }
          ]
        }
      },
      "listings_stats": {
        "start_date": "1972-02-14"
      },
      "spot_prices_stats": {
        "start_date": "1972-02-15",
        "end_date": "1976-12-31"
      }
    }
  },
  "prices_count": 118,
  "name": "Solex, act. (c. 1 att) (cf. Avis 72-89)"
}