{
  "id": 103193,
  "share_type": {
    "id": 4,
    "name": "Rights (Droits)"
  },
  "issuers": [
    {
      "id": 2755,
      "start_date": "1000-01-01",
      "end_date": "1941-09-11",
      "name": "Société Industrielle de Produits Chimiques de Bozel-Lamotte"
    }
  ],
  "types": [
    {
      "start_date": "1000-01-01",
      "end_date": "1941-09-11",
      "id": 501,
      "name": "Droit de souscription",
      "stock_group": "R"
    }
  ],
  "is_mainstock": 0,
  "prices_period": [
    "1941-08-18",
    "1941-09-01"
  ],
  "stock_exchanges": {
    "1": {
      "id": 1,
      "name": "Paris (Official List)",
      "notations": {
        "203375": {
          "id": 203375,
          "sector_id": 657,
          "start_date": "1941-08-18",
          "end_date": "1941-09-12",
          "names": [
            {
              "name": "Act.BOZEL-MALETRA, STE INDUSTRIELLE DE PRODUITS CHIMIQUES (dr. Et c.44).Pour 1 act.ancienne, 1 action nouvelle émise à 225 francs",
              "start_date": "1000-01-01",
              "end_date": "1941-09-12"
            }
          ]
        }
      },
      "listings_stats": {
        "start_date": "1941-08-18"
      },
      "spot_prices_stats": {
        "start_date": "1941-08-18",
        "end_date": "1941-09-01"
      }
    }
  },
  "prices_count": 3,
  "name": "Act.BOZEL-MALETRA, STE INDUSTRIELLE DE PRODUITS CHIMIQUES (dr. Et c.44).Pour 1 act.ancienne, 1 action nouvelle émise à 225 francs"
}