{
  "id": 10081,
  "share_type": {
    "id": 2,
    "name": "Bond (Obligation)"
  },
  "issuers": [
    {
      "id": 462,
      "start_date": "1934-06-06",
      "end_date": "3999-12-31",
      "name": "BELGIQUE"
    }
  ],
  "types": [
    {
      "start_date": "1934-06-06",
      "end_date": "3999-12-31",
      "id": 1001,
      "name": "Obligation ordinaire ou classique",
      "stock_group": "B"
    }
  ],
  "is_mainstock": 0,
  "prices_period": [
    "1934-06-06",
    "1935-09-30"
  ],
  "stock_exchanges": {
    "1": {
      "id": 1,
      "name": "Paris (Official List)",
      "notations": {
        "140656": {
          "id": 140656,
          "sector_id": 74,
          "start_date": "1934-06-06",
          "end_date": "1935-10-01",
          "names": [
            {
              "name": "Belgique Emp. Extér. 5,5% 1934., Oblig. 5000 fr. capital",
              "start_date": "1934-06-06",
              "end_date": "3999-12-31"
            }
          ]
        }
      },
      "listings_stats": {
        "start_date": "1934-06-06"
      },
      "spot_prices_stats": {
        "start_date": "1934-06-06",
        "end_date": "1935-09-30"
      }
    }
  },
  "prices_count": 99,
  "name": "Belgique Emp. Extér. 5,5% 1934., Oblig. 5000 fr. capital"
}