{
  "id": 7949,
  "share_type": {
    "id": 1,
    "name": "Stock (Action)"
  },
  "issuers": [
    {
      "id": 3993,
      "start_date": "1925-01-30",
      "end_date": "3999-12-31",
      "name": "ETABLISSEMENTS POLIET ET CHAUSSON"
    }
  ],
  "types": [
    {
      "start_date": "1925-01-30",
      "end_date": "3999-12-31",
      "id": 21,
      "name": "Part de fondateur",
      "stock_group": "S"
    }
  ],
  "is_mainstock": 0,
  "prices_period": [
    "1925-01-30",
    "1948-07-15"
  ],
  "stock_exchanges": {
    "1": {
      "id": 1,
      "name": "Paris (Official List)",
      "notations": {
        "34819": {
          "id": 34819,
          "sector_id": 181,
          "start_date": "1925-01-30",
          "end_date": "1948-07-16",
          "names": [
            {
              "name": "Poliet et Chausson (Etabl.), Parts de fondateur",
              "start_date": "1925-01-30",
              "end_date": "1948-07-16"
            },
            {
              "name": "Poliet et Chausson (Etabl.), parts de fond.",
              "start_date": "1925-01-30",
              "end_date": "3999-12-31"
            }
          ]
        }
      },
      "listings_stats": {
        "start_date": "1925-01-30"
      },
      "spot_prices_stats": {
        "start_date": "1925-01-30",
        "end_date": "1948-07-15"
      }
    }
  },
  "prices_count": 634,
  "name": "Poliet et Chausson (Etabl.), parts de fond."
}