{
  "id": 20559,
  "share_type": {
    "id": 2,
    "name": "Bond (Obligation)"
  },
  "issuers": [
    {
      "id": 1179,
      "start_date": "1878-02-25",
      "end_date": "3999-12-31",
      "name": "Caisse des Travaux Publics"
    }
  ],
  "types": [
    {
      "start_date": "1878-02-25",
      "end_date": "3999-12-31",
      "id": 1009,
      "name": "Bons",
      "stock_group": "B"
    }
  ],
  "is_mainstock": 0,
  "prices_period": [
    "1878-03-15",
    "1878-04-15"
  ],
  "stock_exchanges": {
    "1": {
      "id": 1,
      "name": "Paris (Official List)",
      "notations": {
        "90043": {
          "id": 90043,
          "sector_id": 79,
          "start_date": "1878-02-25",
          "end_date": "1878-05-28",
          "names": [
            {
              "name": "Caisse des Travaux publics (Bons)",
              "start_date": "1878-02-25",
              "end_date": "3999-12-31"
            }
          ]
        }
      },
      "listings_stats": {
        "start_date": "1878-02-25"
      },
      "spot_prices_stats": {
        "start_date": "1878-03-15",
        "end_date": "1878-04-15"
      }
    }
  },
  "prices_count": 3,
  "name": "Caisse des Travaux publics (Bons)"
}