{
  "id": 12693,
  "share_type": {
    "id": 2,
    "name": "Bond (Obligation)"
  },
  "issuers": [
    {
      "id": 3748,
      "start_date": "1948-02-04",
      "end_date": "3999-12-31",
      "name": "GROUPEMENT POUR L'EQUIPEMENT DE L'INDUSTRIE SUCRIERE FRANÇAISE"
    }
  ],
  "types": [
    {
      "start_date": "1948-02-04",
      "end_date": "3999-12-31",
      "id": 1001,
      "name": "Obligation ordinaire ou classique",
      "stock_group": "B"
    }
  ],
  "is_mainstock": 0,
  "prices_period": [
    "1948-02-11",
    "1972-03-15"
  ],
  "stock_exchanges": {
    "1": {
      "id": 1,
      "name": "Paris (Official List)",
      "notations": {
        "23863": {
          "id": 23863,
          "sector_id": 282,
          "start_date": "1950-01-03",
          "end_date": "1955-12-01",
          "names": [
            {
              "name": "Groupement pour l'Equipement de l'Industrie Sucrière Française 4,5% 1947, remboursables à 5000 fr. (Cf Avis n° 24291) 1950-77",
              "start_date": "1948-02-04",
              "end_date": "1955-12-01"
            },
            {
              "name": "Groupement pour l'Equipement Industrie Sucrière Française 4,5% 1947 (Rach. Ou Tir.) (Cf Avis n°s 24291) 1950-77",
              "start_date": "1950-01-03",
              "end_date": "3999-12-31"
            }
          ]
        },
        "26396": {
          "id": 26396,
          "sector_id": 429,
          "start_date": "1955-12-01",
          "end_date": "1956-07-02",
          "names": [
            {
              "name": "Groupement pour l'Equipement de l'Industrie Sucrière Française 4,5% 1947, remboursables à 5000 fr. (Cf Avis n° 24291) 1950-77",
              "start_date": "1948-02-04",
              "end_date": "1956-07-02"
            },
            {
              "name": "Groupement pour l'Equipement Industrie Sucrière Française 4,5% 1947 (Rach. Ou Tir.) (Cf Avis n°s 24291) 1950-77",
              "start_date": "1955-12-01",
              "end_date": "3999-12-31"
            }
          ]
        },
        "27095": {
          "id": 27095,
          "sector_id": 455,
          "start_date": "1956-07-02",
          "end_date": "1963-03-04",
          "names": [
            {
              "name": "Groupement pour l'Equipement de l'Industrie Sucrière Française 4,5% 1947, remboursables à 5000 fr. (Cf Avis n° 24291) 1950-77",
              "start_date": "1948-02-04",
              "end_date": "1963-03-04"
            },
            {
              "name": "Groupement pour l'Equipement Industrie Sucrière Française 4,5% 1947 (Rach. Ou Tir.) (Cf Avis n°s 24291) 1950-77",
              "start_date": "1955-12-01",
              "end_date": "3999-12-31"
            }
          ]
        },
        "30691": {
          "id": 30691,
          "sector_id": 508,
          "start_date": "1963-03-04",
          "end_date": "1972-04-04",
          "names": [
            {
              "name": "Groupement pour l'Equipement de l'Industrie Sucrière Française 4,5% 1947, remboursables à 5000 fr. (Cf Avis n° 24291) 1950-77",
              "start_date": "1948-02-04",
              "end_date": "1972-04-04"
            },
            {
              "name": "Groupement pour l'Equipement Industrie Sucrière Française 4,5% 1947 (Rach. Ou Tir.) (Cf Avis n°s 24291) 1950-77",
              "start_date": "1955-12-01",
              "end_date": "3999-12-31"
            }
          ]
        },
        "143268": {
          "id": 143268,
          "sector_id": 183,
          "start_date": "1948-02-04",
          "end_date": "1950-01-03",
          "names": [
            {
              "name": "Groupement pour l'Equipement de l'Industrie Sucrière Française 4,5% 1947, remboursables à 5000 fr. (Cf Avis n° 24291) 1950-77",
              "start_date": "1948-02-04",
              "end_date": "1955-12-01"
            },
            {
              "name": "Groupement pour l'Equipement Industrie Sucrière Française 4,5% 1947 (Rach. Ou Tir.) (Cf Avis n°s 24291) 1950-77",
              "start_date": "1948-02-04",
              "end_date": "3999-12-31"
            }
          ]
        }
      },
      "listings_stats": {
        "start_date": "1948-02-04"
      },
      "spot_prices_stats": {
        "start_date": "1948-02-11",
        "end_date": "1972-03-15"
      }
    }
  },
  "prices_count": 594,
  "name": "Groupement pour l'Equipement Industrie Sucrière Française 4,5% 1947 (Rach. Ou Tir.) (Cf Avis n°s 24291) 1950-77"
}