{
  "id": 2159,
  "share_type": {
    "id": 2,
    "name": "Bond (Obligation)"
  },
  "issuers": [
    {
      "id": 1920,
      "start_date": "1871-10-21",
      "end_date": "3999-12-31",
      "name": "ETATS : ROUMANIE"
    }
  ],
  "types": [
    {
      "start_date": "1871-10-21",
      "end_date": "3999-12-31",
      "id": 1001,
      "name": "Obligation ordinaire ou classique",
      "stock_group": "B"
    }
  ],
  "is_mainstock": 0,
  "prices_period": [
    "1871-10-21",
    "1874-04-15"
  ],
  "stock_exchanges": {
    "1": {
      "id": 1,
      "name": "Paris (Official List)",
      "notations": {
        "3258": {
          "id": 3258,
          "sector_id": 74,
          "start_date": "1871-10-21",
          "end_date": "1875-03-18",
          "names": [
            {
              "name": "Emprunt Danubien (Principauté-Unies), 8% Grosses coupures",
              "start_date": "1871-10-21",
              "end_date": "3999-12-31"
            }
          ]
        }
      },
      "listings_stats": {
        "start_date": "1871-10-21"
      },
      "spot_prices_stats": {
        "start_date": "1871-10-21",
        "end_date": "1874-04-15"
      }
    }
  },
  "prices_count": 2,
  "name": "Emprunt Danubien (Principauté-Unies), 8% Grosses coupures"
}