{
  "id": 8346,
  "share_type": {
    "id": 1,
    "name": "Stock (Action)"
  },
  "issuers": [
    {
      "id": 3094,
      "start_date": "1926-04-01",
      "end_date": "3999-12-31",
      "name": "EST-ELECTRIQUE"
    }
  ],
  "types": [
    {
      "start_date": "1926-04-01",
      "end_date": "3999-12-31",
      "id": 18,
      "name": "Action",
      "stock_group": "S"
    }
  ],
  "is_mainstock": 1,
  "prices_period": [
    "1926-04-01",
    "1949-12-30"
  ],
  "stock_exchanges": {
    "1": {
      "id": 1,
      "name": "Paris (Official List)",
      "notations": {
        "135793": {
          "id": 135793,
          "sector_id": 116,
          "start_date": "1926-04-01",
          "end_date": "1950-01-05",
          "names": [
            {
              "name": "Est Electrique, act. ord. 250 fr., t. p.",
              "start_date": "1926-04-01",
              "end_date": "1950-01-05"
            },
            {
              "name": "Est Electrique, act. 250 fr., t. p. (ex-dr., )",
              "start_date": "1926-04-01",
              "end_date": "1950-01-05"
            },
            {
              "name": "Est-electrique, act. 250 fr., t. p. (n° 1 à 80000 et 120001 à 140000)",
              "start_date": "1926-04-01",
              "end_date": "3999-12-31"
            }
          ]
        }
      },
      "listings_stats": {
        "start_date": "1926-04-01"
      },
      "spot_prices_stats": {
        "start_date": "1926-04-01",
        "end_date": "1949-12-30"
      }
    }
  },
  "prices_count": 605,
  "name": "Est Electrique, act. 250 fr., t. p. (ex-dr., )"
}