{
  "id": 16199,
  "share_type": {
    "id": 1,
    "name": "Stock (Action)"
  },
  "issuers": [
    {
      "id": 3592,
      "start_date": "1960-05-31",
      "end_date": "3999-12-31",
      "name": "Banque Franco-Polonaise"
    }
  ],
  "types": [
    {
      "start_date": "1960-05-31",
      "end_date": "3999-12-31",
      "id": 18,
      "name": "Action",
      "stock_group": "S"
    }
  ],
  "is_mainstock": 0,
  "prices_period": [
    "1960-05-31",
    "1963-01-15"
  ],
  "stock_exchanges": {
    "1": {
      "id": 1,
      "name": "Paris (Official List)",
      "notations": {
        "27749": {
          "id": 27749,
          "sector_id": 378,
          "start_date": "1961-12-29",
          "end_date": "1963-01-16",
          "names": [
            {
              "name": "Banque Franco-Polonaise act.(Jce 1/1/60)(nom)",
              "start_date": "1960-05-31",
              "end_date": "1963-01-16"
            },
            {
              "name": "Banque Franco-Polonaise (nom.)",
              "start_date": "1961-12-29",
              "end_date": "3999-12-31"
            }
          ]
        },
        "146774": {
          "id": 146774,
          "sector_id": 232,
          "start_date": "1960-05-31",
          "end_date": "1961-12-29",
          "names": [
            {
              "name": "Banque Franco-Polonaise act.(Jce 1/1/60)(nom)",
              "start_date": "1960-05-31",
              "end_date": "1962-01-02"
            },
            {
              "name": "Banque Franco-Polonaise (nom.)",
              "start_date": "1960-05-31",
              "end_date": "3999-12-31"
            }
          ]
        }
      },
      "listings_stats": {
        "start_date": "1960-05-31"
      },
      "spot_prices_stats": {
        "start_date": "1960-05-31",
        "end_date": "1963-01-15"
      }
    }
  },
  "prices_count": 27,
  "name": "Banque Franco-Polonaise (nom.)"
}