{
  "id": 17287,
  "share_type": {
    "id": 2,
    "name": "Bond (Obligation)"
  },
  "issuers": [
    {
      "id": 4709,
      "start_date": "1962-01-02",
      "end_date": "3999-12-31",
      "name": "SOCIETE DE VERRERIES Paul LAURENT ET DE L'ANJOU"
    }
  ],
  "types": [
    {
      "start_date": "1962-01-02",
      "end_date": "3999-12-31",
      "id": 1001,
      "name": "Obligation ordinaire ou classique",
      "stock_group": "B"
    }
  ],
  "is_mainstock": 0,
  "prices_period": [
    "1962-01-02",
    "1973-08-31"
  ],
  "stock_exchanges": {
    "1": {
      "id": 1,
      "name": "Paris (Official List)",
      "notations": {
        "31410": {
          "id": 31410,
          "sector_id": 247,
          "start_date": "1963-03-04",
          "end_date": "1973-09-17",
          "names": [
            {
              "name": "Verreries P. Laurent et de l'Anjou 4,5 % 1947 1948-77",
              "start_date": "1962-01-02",
              "end_date": "1973-09-17"
            },
            {
              "name": "Verreries P. Laurent et de l'Anjou 4,50% 47 de 50 F (Tir. 17/11/72). 1948-77",
              "start_date": "1963-03-04",
              "end_date": "3999-12-31"
            }
          ]
        },
        "147862": {
          "id": 147862,
          "sector_id": 519,
          "start_date": "1962-01-02",
          "end_date": "1963-03-04",
          "names": [
            {
              "name": "Verreries P. Laurent et de l'Anjou 4,5 % 1947 1948-77",
              "start_date": "1962-01-02",
              "end_date": "1973-09-17"
            },
            {
              "name": "Verreries P. Laurent et de l'Anjou 4,50% 47 de 50 F (Tir. 17/11/72). 1948-77",
              "start_date": "1962-01-02",
              "end_date": "3999-12-31"
            }
          ]
        }
      },
      "listings_stats": {
        "start_date": "1962-01-02"
      },
      "spot_prices_stats": {
        "start_date": "1962-01-02",
        "end_date": "1973-08-31"
      }
    }
  },
  "prices_count": 280,
  "name": "Verreries P. Laurent et de l'Anjou 4,5 % 1947 1948-77"
}