{
  "id": 14449,
  "share_type": {
    "id": 2,
    "name": "Bond (Obligation)"
  },
  "issuers": [
    {
      "id": 566,
      "start_date": "1952-05-02",
      "end_date": "3999-12-31",
      "name": "Crédit Foncier de France"
    }
  ],
  "types": [
    {
      "start_date": "1952-05-02",
      "end_date": "3999-12-31",
      "id": 1001,
      "name": "Obligation ordinaire ou classique",
      "stock_group": "B"
    }
  ],
  "is_mainstock": 0,
  "prices_period": [
    "1952-05-08",
    "1952-10-31"
  ],
  "stock_exchanges": {
    "1": {
      "id": 1,
      "name": "Paris (Official List)",
      "notations": {
        "145024": {
          "id": 145024,
          "sector_id": 190,
          "start_date": "1952-05-02",
          "end_date": "1952-11-03",
          "names": [
            {
              "name": "Communales 1942 3,50%, à lots, remb. À 2000 fr. (n° 108501 à 135500)",
              "start_date": "1952-05-02",
              "end_date": "3999-12-31"
            }
          ]
        }
      },
      "listings_stats": {
        "start_date": "1952-05-02"
      },
      "spot_prices_stats": {
        "start_date": "1952-05-08",
        "end_date": "1952-10-31"
      }
    }
  },
  "prices_count": 12,
  "name": "Communales 1942 3,50%, à lots, remb. À 2000 fr. (n° 108501 à 135500)"
}