{
  "id": 17174,
  "share_type": {
    "id": 2,
    "name": "Bond (Obligation)"
  },
  "issuers": [
    {
      "id": 4389,
      "start_date": "1962-01-02",
      "end_date": "3999-12-31",
      "name": "SOCIÉTÉ DE FORCE ET LUMIÈRE ELECTRIQUES (Forclum)"
    }
  ],
  "types": [
    {
      "start_date": "1962-01-02",
      "end_date": "3999-12-31",
      "id": 1001,
      "name": "Obligation ordinaire ou classique",
      "stock_group": "B"
    }
  ],
  "is_mainstock": 0,
  "prices_period": [
    "1962-01-02",
    "1962-12-17"
  ],
  "stock_exchanges": {
    "1": {
      "id": 1,
      "name": "Paris (Official List)",
      "notations": {
        "147749": {
          "id": 147749,
          "sector_id": 516,
          "start_date": "1962-01-02",
          "end_date": "1963-01-02",
          "names": [
            {
              "name": "Force Lum. Electr. (Forclum) 4,25 % 1946 1947-71",
              "start_date": "1962-01-02",
              "end_date": "1963-01-02"
            },
            {
              "name": "Force et Lumière Electr. (Forclum) 4,25 % 1946 1947-71",
              "start_date": "1962-01-02",
              "end_date": "1963-01-02"
            },
            {
              "name": "Force et Lumière Electr. (Forclum) 4,25% 1946 (Tir. 25/4/62) 1947-71",
              "start_date": "1962-01-02",
              "end_date": "3999-12-31"
            }
          ]
        }
      },
      "listings_stats": {
        "start_date": "1962-01-02"
      },
      "spot_prices_stats": {
        "start_date": "1962-01-02",
        "end_date": "1962-12-17"
      }
    }
  },
  "prices_count": 24,
  "name": "Force et Lumière Electr. (Forclum) 4,25 % 1946 1947-71"
}