{
  "id": 103012,
  "share_type": {
    "id": 4,
    "name": "Rights (Droits)"
  },
  "issuers": [
    {
      "id": 5313,
      "start_date": "1000-01-01",
      "end_date": "1929-05-27",
      "name": "AFRIQUE MINIERE ÉQUATORIALE (A. M. E.)"
    }
  ],
  "types": [
    {
      "start_date": "1000-01-01",
      "end_date": "1929-05-27",
      "id": 501,
      "name": "Droit de souscription",
      "stock_group": "R"
    }
  ],
  "is_mainstock": 0,
  "prices_period": [
    "1929-04-25",
    "1929-04-25"
  ],
  "stock_exchanges": {
    "1": {
      "id": 1,
      "name": "Paris (Official List)",
      "notations": {
        "203194": {
          "id": 203194,
          "sector_id": 657,
          "start_date": "1929-04-25",
          "end_date": "1929-05-28",
          "names": [
            {
              "name": "Act. Sté Africaine Minière Equatoriale (droit et coupon 2). Pour 7 act. A Africaine Minière Equatoriale, 1 act. 1 Sté Congo-Minière Equatoriale, 1 act. A Sté Congo-Mines cédée à 100 fr.",
              "start_date": "1000-01-01",
              "end_date": "1929-05-28"
            }
          ]
        }
      },
      "listings_stats": {
        "start_date": "1929-04-25"
      },
      "spot_prices_stats": {
        "start_date": "1929-04-25",
        "end_date": "1929-04-25"
      }
    }
  },
  "prices_count": 3,
  "name": "Act. Sté Africaine Minière Equatoriale (droit et coupon 2). Pour 7 act. A Africaine Minière Equatoriale, 1 act. 1 Sté Congo-Minière Equatoriale, 1 act. A Sté Congo-Mines cédée à 100 fr."
}