{
  "id": 46,
  "share_type": {
    "id": 2,
    "name": "Bond (Obligation)"
  },
  "issuers": [
    {
      "id": 100,
      "start_date": "1798-01-05",
      "end_date": "3999-12-31",
      "name": "RENTES FRANÇAISES"
    }
  ],
  "types": [
    {
      "start_date": "1798-01-05",
      "end_date": "3999-12-31",
      "id": 1001,
      "name": "Obligation ordinaire ou classique",
      "stock_group": "B"
    }
  ],
  "is_mainstock": 0,
  "prices_period": [
    "1798-01-06",
    "1999-01-15"
  ],
  "stock_exchanges": {
    "1": {
      "id": 1,
      "name": "Paris (Official List)",
      "notations": {
        "59": {
          "id": 59,
          "sector_id": 10,
          "start_date": "1798-01-05",
          "end_date": "1801-08-11",
          "names": [
            {
              "name": "Bons 2/3",
              "start_date": "1798-01-05",
              "end_date": "3999-12-31"
            }
          ]
        }
      },
      "listings_stats": {
        "start_date": "1798-01-05"
      },
      "spot_prices_stats": {
        "start_date": "1798-01-06",
        "end_date": "1999-01-15"
      }
    }
  },
  "prices_count": 293,
  "name": "Bons 2/3"
}