{
  "id": 106587,
  "share_type": {
    "id": 1,
    "name": "Stock (Action)"
  },
  "issuers": [
    {
      "id": 15500,
      "start_date": "1899-01-09",
      "end_date": "1899-01-16",
      "name": "Société Belge pour l'exploitation des charbonnages du centre du Donetz (Almaznaïa)"
    }
  ],
  "types": [
    {
      "start_date": "1899-01-09",
      "end_date": "1899-01-16",
      "id": 18,
      "name": "Action",
      "stock_group": "S"
    }
  ],
  "is_mainstock": 0,
  "prices_period": [
    null,
    null
  ],
  "stock_exchanges": {
    "2": {
      "id": 2,
      "name": "Paris OTC (Coulisse)",
      "notations": {
        "207630": {
          "id": 207630,
          "sector_id": 683,
          "start_date": "1899-01-09",
          "end_date": "1899-01-16",
          "names": [
            {
              "name": "ALMAZNAÏA (Charbonnages d')",
              "start_date": "1899-01-09",
              "end_date": "1899-01-16"
            },
            {
              "name": "ALMAZNAÏA (Charbonnages d')",
              "start_date": "1899-01-09",
              "end_date": "1899-01-16"
            }
          ]
        }
      },
      "listings_stats": {
        "start_date": "1899-01-09"
      }
    }
  },
  "prices_count": 0,
  "name": "ALMAZNAÏA (Charbonnages d')"
}