{
  "id": 6498,
  "share_type": {
    "id": 1,
    "name": "Stock (Action)"
  },
  "issuers": [
    {
      "id": 3401,
      "start_date": "1911-06-02",
      "end_date": "3999-12-31",
      "name": "ATCHISON, TOPEKA AND SANTA-FÉ RAILWAY"
    }
  ],
  "types": [
    {
      "start_date": "1911-06-02",
      "end_date": "3999-12-31",
      "id": 18,
      "name": "Action",
      "stock_group": "S"
    }
  ],
  "is_mainstock": 1,
  "prices_period": [
    "1911-06-02",
    "1920-05-31"
  ],
  "stock_exchanges": {
    "1": {
      "id": 1,
      "name": "Paris (Official List)",
      "notations": {
        "8869": {
          "id": 8869,
          "sector_id": 68,
          "start_date": "1914-12-15",
          "end_date": "1920-01-02",
          "names": [
            {
              "name": "Atchison, Topeka and Santa-Fé Railway Cy, act. Ord. 100 dollars, t.p. (certificats au porteur)",
              "start_date": "1911-06-01",
              "end_date": "1920-01-02"
            },
            {
              "name": "Atchison Topeka and Santa-Fé, act. Ord",
              "start_date": "1914-12-15",
              "end_date": "1920-01-02"
            },
            {
              "name": "Atchison Topeka and Santa-Fé, act. Ord (CERTIFICATS DE PRETS à l'ETAT FRANCAIS)",
              "start_date": "1914-12-15",
              "end_date": "1920-01-02"
            },
            {
              "name": "Atchison, Topeka and Santa-Fé Railway Cy, act.ord.100dol., t.p.Cert.au porteur, certific.de prêts",
              "start_date": "1914-12-15",
              "end_date": "3999-12-31"
            }
          ]
        },
        "9025": {
          "id": 9025,
          "sector_id": 68,
          "start_date": "1911-06-02",
          "end_date": "1914-08-03",
          "names": [
            {
              "name": "Atchison, Topeka and Santa-Fé Railway Cy, act. Ord. 100 dollars, t.p. (certificats au porteur)",
              "start_date": "1911-06-01",
              "end_date": "1916-06-05"
            },
            {
              "name": "Atchison Topeka and Santa-Fé, act. Ord",
              "start_date": "1911-06-02",
              "end_date": "1916-06-14"
            },
            {
              "name": "Atchison Topeka and Santa-Fé, act. Ord (CERTIFICATS DE PRETS à l'ETAT FRANCAIS)",
              "start_date": "1911-06-02",
              "end_date": "1918-04-02"
            },
            {
              "name": "Atchison, Topeka and Santa-Fé Railway Cy, act.ord.100dol., t.p.Cert.au porteur, certific.de prêts",
              "start_date": "1911-06-02",
              "end_date": "3999-12-31"
            }
          ]
        },
        "9638": {
          "id": 9638,
          "sector_id": 156,
          "start_date": "1920-01-02",
          "end_date": "1920-06-03",
          "names": [
            {
              "name": "Atchison, Topeka and Santa-Fé Railway Cy, act. Ord. 100 dollars, t.p. (certificats au porteur)",
              "start_date": "1911-06-01",
              "end_date": "1920-06-03"
            },
            {
              "name": "Atchison Topeka and Santa-Fé, act. Ord",
              "start_date": "1916-06-05",
              "end_date": "1920-06-03"
            },
            {
              "name": "Atchison Topeka and Santa-Fé, act. Ord (CERTIFICATS DE PRETS à l'ETAT FRANCAIS)",
              "start_date": "1916-06-14",
              "end_date": "1920-06-03"
            },
            {
              "name": "Atchison, Topeka and Santa-Fé Railway Cy, act.ord.100dol., t.p.Cert.au porteur, certific.de prêts",
              "start_date": "1918-04-02",
              "end_date": "3999-12-31"
            }
          ]
        },
        "10037": {
          "id": 10037,
          "sector_id": 582,
          "start_date": "1916-06-06",
          "end_date": "1918-03-29",
          "names": [
            {
              "name": "Atchison, Topeka and Santa-Fé Railway Cy, act. Ord. 100 dollars, t.p. (certificats au porteur)",
              "start_date": "1911-06-01",
              "end_date": "1918-03-29"
            },
            {
              "name": "Atchison Topeka and Santa-Fé, act. Ord",
              "start_date": "1916-06-05",
              "end_date": "1918-03-29"
            },
            {
              "name": "Atchison Topeka and Santa-Fé, act. Ord (CERTIFICATS DE PRETS à l'ETAT FRANCAIS)",
              "start_date": "1916-06-06",
              "end_date": "1918-04-02"
            },
            {
              "name": "Atchison, Topeka and Santa-Fé Railway Cy, act.ord.100dol., t.p.Cert.au porteur, certific.de prêts",
              "start_date": "1916-06-06",
              "end_date": "3999-12-31"
            }
          ]
        },
        "10549": {
          "id": 10549,
          "sector_id": 68,
          "start_date": "1918-04-02",
          "end_date": "1919-09-15",
          "names": [
            {
              "name": "Atchison, Topeka and Santa-Fé Railway Cy, act. Ord. 100 dollars, t.p. (certificats au porteur)",
              "start_date": "1911-06-01",
              "end_date": "1919-09-15"
            },
            {
              "name": "Atchison Topeka and Santa-Fé, act. Ord",
              "start_date": "1916-06-05",
              "end_date": "1919-09-15"
            },
            {
              "name": "Atchison Topeka and Santa-Fé, act. Ord (CERTIFICATS DE PRETS à l'ETAT FRANCAIS)",
              "start_date": "1916-06-14",
              "end_date": "1919-09-15"
            },
            {
              "name": "Atchison, Topeka and Santa-Fé Railway Cy, act.ord.100dol., t.p.Cert.au porteur, certific.de prêts",
              "start_date": "1918-04-02",
              "end_date": "3999-12-31"
            }
          ]
        }
      },
      "forward_prices_stats": {
        "start_date": "1911-06-02",
        "end_date": "1914-06-30"
      },
      "listings_stats": {
        "start_date": "1911-06-02"
      },
      "options_prices_stats": {
        "start_date": "1911-06-02",
        "end_date": "1911-10-16"
      },
      "spot_prices_stats": {
        "start_date": "1911-06-02",
        "end_date": "1920-05-31"
      }
    }
  },
  "prices_count": 478,
  "name": "Atchison, Topeka and Santa-Fé Railway Cy, act. Ord. 100 dollars, t.p. (certificats au porteur)"
}