{
  "id": 13656,
  "share_type": {
    "id": 1,
    "name": "Stock (Action)"
  },
  "issuers": [
    {
      "id": 2992,
      "start_date": "1950-05-04",
      "end_date": "3999-12-31",
      "name": "SOCIETE REUNIES EVERITE-SITUBE (Produits en amiante, ciment et en béton)"
    }
  ],
  "types": [
    {
      "start_date": "1950-05-04",
      "end_date": "3999-12-31",
      "id": 18,
      "name": "Action",
      "stock_group": "S"
    }
  ],
  "is_mainstock": 0,
  "prices_period": [
    "1950-05-08",
    "1971-06-15"
  ],
  "stock_exchanges": {
    "1": {
      "id": 1,
      "name": "Paris (Official List)",
      "notations": {
        "25794": {
          "id": 25794,
          "sector_id": 393,
          "start_date": "1955-12-01",
          "end_date": "1963-03-04",
          "names": [
            {
              "name": "Evérite-Situbé, Produits en Amiante, Ciment et Béton (Stés Réunies), act. 2500 fr., t. p. (c. 1 att.)",
              "start_date": "1950-05-04",
              "end_date": "1963-03-04"
            },
            {
              "name": "Everité-Situbé. Produits en Amiante, Ciment et Béton (Stés Réunies), act.",
              "start_date": "1955-12-01",
              "end_date": "1971-06-28"
            },
            {
              "name": "Everitube, act. (nos 1 à 1049 et 1074 à 733624)",
              "start_date": "1955-12-01",
              "end_date": "3999-12-31"
            }
          ]
        },
        "29854": {
          "id": 29854,
          "sector_id": 338,
          "start_date": "1963-03-04",
          "end_date": "1971-06-28",
          "names": [
            {
              "name": "Evérite-Situbé, Produits en Amiante, Ciment et Béton (Stés Réunies), act. 2500 fr., t. p. (c. 1 att.)",
              "start_date": "1950-05-04",
              "end_date": "1971-06-28"
            },
            {
              "name": "Everité-Situbé. Produits en Amiante, Ciment et Béton (Stés Réunies), act.",
              "start_date": "1955-12-01",
              "end_date": "1971-06-28"
            },
            {
              "name": "Everitube, act. (nos 1 à 1049 et 1074 à 733624)",
              "start_date": "1963-03-04",
              "end_date": "3999-12-31"
            }
          ]
        },
        "144231": {
          "id": 144231,
          "sector_id": 181,
          "start_date": "1950-05-04",
          "end_date": "1955-12-01",
          "names": [
            {
              "name": "Evérite-Situbé, Produits en Amiante, Ciment et Béton (Stés Réunies), act. 2500 fr., t. p. (c. 1 att.)",
              "start_date": "1950-05-04",
              "end_date": "1955-12-01"
            },
            {
              "name": "Everité-Situbé. Produits en Amiante, Ciment et Béton (Stés Réunies), act.",
              "start_date": "1950-05-04",
              "end_date": "1971-06-28"
            },
            {
              "name": "Everitube, act. (nos 1 à 1049 et 1074 à 733624)",
              "start_date": "1950-05-04",
              "end_date": "3999-12-31"
            }
          ]
        }
      },
      "listings_stats": {
        "start_date": "1950-05-04"
      },
      "spot_prices_stats": {
        "start_date": "1950-05-08",
        "end_date": "1971-06-15"
      }
    }
  },
  "prices_count": 530,
  "name": "Everité-Situbé. Produits en Amiante, Ciment et Béton (Stés Réunies), act."
}