{
  "id": 106027,
  "share_type": {
    "id": 1,
    "name": "Stock (Action)"
  },
  "issuers": [
    {
      "id": 7101,
      "start_date": "1898-06-30",
      "end_date": "1898-12-31",
      "name": "SOCIÉTÉ NOUVELLE DES ÉTABLISSEMENTS DECAUVILLE AINE"
    }
  ],
  "types": [
    {
      "start_date": "1898-06-30",
      "end_date": "1898-12-31",
      "id": 18,
      "name": "Action",
      "stock_group": "S"
    }
  ],
  "is_mainstock": 0,
  "prices_period": [
    "1898-06-30",
    "1898-12-31"
  ],
  "stock_exchanges": {
    "2": {
      "id": 2,
      "name": "Paris OTC (Coulisse)",
      "notations": {
        "206886": {
          "id": 206886,
          "sector_id": 667,
          "start_date": "1898-06-30",
          "end_date": "1898-12-31",
          "names": [
            {
              "name": "Automobiles Decauville",
              "start_date": "1898-06-30",
              "end_date": "1898-12-31"
            },
            {
              "name": "AUTOMOBILES DECAUVILLE",
              "start_date": "1898-06-30",
              "end_date": "1899-01-16"
            }
          ]
        },
        "207743": {
          "id": 207743,
          "sector_id": 680,
          "start_date": "1899-01-16",
          "end_date": "1899-01-16",
          "names": [
            {
              "name": "Automobiles Decauville",
              "start_date": "1898-06-30",
              "end_date": "1899-01-16"
            },
            {
              "name": "AUTOMOBILES DECAUVILLE",
              "start_date": "1899-01-16",
              "end_date": "1899-01-16"
            }
          ]
        }
      },
      "listings_stats": {
        "start_date": "1898-06-30"
      },
      "spot_prices_stats": {
        "start_date": "1898-06-30",
        "end_date": "1898-12-31"
      }
    }
  },
  "prices_count": 14,
  "name": "Automobiles Decauville"
}