{
  "id": 105615,
  "share_type": {
    "id": 5,
    "name": "Droits de souscription"
  },
  "issuers": [
    {
      "id": 2302,
      "start_date": "1951-08-16",
      "end_date": "1951-12-17",
      "name": "SOCIETE LYONNAISE DES EAUX ET DE L'ECLAIRAGE"
    }
  ],
  "types": [
    {
      "start_date": "1951-08-16",
      "end_date": "1951-12-17",
      "id": 501,
      "name": "Droit de souscription",
      "stock_group": "R"
    }
  ],
  "is_mainstock": 0,
  "prices_period": [
    null,
    null
  ],
  "stock_exchanges": {
    "1": {
      "id": 1,
      "name": "Paris (Official List)",
      "notations": {
        "206477": {
          "id": 206477,
          "sector_id": 657,
          "start_date": "1951-08-16",
          "end_date": "1951-12-17",
          "names": [
            {
              "name": "Act. 250 fr., Lyonnaise des Eaux et de l'Eclairage (dr. et c. 47) (1 act. nouv. 2500 fr., émise à 2650 fr., jce 1/9/51, pour 10 act. anc.de 250 fr.)",
              "start_date": "1951-08-16",
              "end_date": "1951-12-17"
            }
          ]
        }
      },
      "listings_stats": {
        "start_date": "1951-08-16"
      }
    }
  },
  "prices_count": 0,
  "name": "Act. 250 fr., Lyonnaise des Eaux et de l'Eclairage (dr. et c. 47) (1 act. nouv. 2500 fr., émise à 2650 fr., jce 1/9/51, pour 10 act. anc.de 250 fr.)"
}