{
  "id": 11751,
  "share_type": {
    "id": 1,
    "name": "Stock (Action)"
  },
  "issuers": [
    {
      "id": 4134,
      "start_date": "1943-02-24",
      "end_date": "3999-12-31",
      "name": "SOCIETE RATEAU"
    }
  ],
  "types": [
    {
      "start_date": "1943-02-24",
      "end_date": "3999-12-31",
      "id": 18,
      "name": "Action",
      "stock_group": "S"
    }
  ],
  "is_mainstock": 0,
  "prices_period": [
    "1943-02-26",
    "1943-05-17"
  ],
  "stock_exchanges": {
    "1": {
      "id": 1,
      "name": "Paris (Official List)",
      "notations": {
        "142326": {
          "id": 142326,
          "sector_id": 104,
          "start_date": "1943-02-24",
          "end_date": "1943-06-01",
          "names": [
            {
              "name": "Rateau (Sté), act. 500 fr., t. p. (n°s 75001 à 80910) (c. 21 att.)",
              "start_date": "1943-02-24",
              "end_date": "3999-12-31"
            }
          ]
        }
      },
      "listings_stats": {
        "start_date": "1943-02-24"
      },
      "spot_prices_stats": {
        "start_date": "1943-02-26",
        "end_date": "1943-05-17"
      }
    }
  },
  "prices_count": 7,
  "name": "Rateau (Sté), act. 500 fr., t. p. (n°s 75001 à 80910) (c. 21 att.)"
}