{
  "id": 3482,
  "share_type": {
    "id": 2,
    "name": "Bond (Obligation)"
  },
  "issuers": [
    {
      "id": 2686,
      "start_date": "1889-01-14",
      "end_date": "3999-12-31",
      "name": "ETATS : ARGENTINE"
    }
  ],
  "types": [
    {
      "start_date": "1889-01-14",
      "end_date": "3999-12-31",
      "id": 1001,
      "name": "Obligation ordinaire ou classique",
      "stock_group": "B"
    }
  ],
  "is_mainstock": 0,
  "prices_period": [
    "1890-03-15",
    "1918-07-01"
  ],
  "stock_exchanges": {
    "1": {
      "id": 1,
      "name": "Paris (Official List)",
      "notations": {
        "1990": {
          "id": 1990,
          "sector_id": 67,
          "start_date": "1914-12-15",
          "end_date": "1925-05-01",
          "names": [
            {
              "name": "Argentine (Republique) 5% 1886, remb. a 500 fr. coup. de 50 [obl].",
              "start_date": "1889-01-14",
              "end_date": "1925-05-01"
            },
            {
              "name": "Argentine (République) 5% 1886, remb. au pair C. 50 oblig.",
              "start_date": "1914-12-15",
              "end_date": "1929-06-30"
            },
            {
              "name": "Argentine 5% 1886, remb. au pair le 1er juillet 1929. C. 50 oblig.",
              "start_date": "1914-12-15",
              "end_date": "3999-12-31"
            }
          ]
        },
        "4581": {
          "id": 4581,
          "sector_id": 67,
          "start_date": "1889-01-14",
          "end_date": "1914-08-03",
          "names": [
            {
              "name": "Argentine (Republique) 5% 1886, remb. a 500 fr. coup. de 50 [obl].",
              "start_date": "1889-01-14",
              "end_date": "1925-05-01"
            },
            {
              "name": "Argentine (République) 5% 1886, remb. au pair C. 50 oblig.",
              "start_date": "1889-01-14",
              "end_date": "1929-06-30"
            },
            {
              "name": "Argentine 5% 1886, remb. au pair le 1er juillet 1929. C. 50 oblig.",
              "start_date": "1889-01-14",
              "end_date": "3999-12-31"
            }
          ]
        },
        "13122": {
          "id": 13122,
          "sector_id": 74,
          "start_date": "1925-05-01",
          "end_date": "1929-07-01",
          "names": [
            {
              "name": "Argentine (Republique) 5% 1886, remb. a 500 fr. coup. de 50 [obl].",
              "start_date": "1889-01-14",
              "end_date": "1929-07-01"
            },
            {
              "name": "Argentine (République) 5% 1886, remb. au pair C. 50 oblig.",
              "start_date": "1925-05-01",
              "end_date": "1929-07-01"
            },
            {
              "name": "Argentine 5% 1886, remb. au pair le 1er juillet 1929. C. 50 oblig.",
              "start_date": "1925-05-01",
              "end_date": "3999-12-31"
            }
          ]
        }
      },
      "listings_stats": {
        "start_date": "1889-01-14"
      },
      "spot_prices_stats": {
        "start_date": "1890-03-15",
        "end_date": "1918-07-01"
      }
    }
  },
  "prices_count": 29,
  "name": "Argentine (République) 5% 1886, remb. au pair C. 50 oblig."
}