{
  "id": 100450,
  "share_type": {
    "id": 4,
    "name": "Rights (Droits)"
  },
  "issuers": [
    {
      "id": 1381,
      "start_date": "1945-03-19",
      "end_date": "1946-04-30",
      "name": "Sous-Comptoir des Entrepreneurs"
    }
  ],
  "types": [
    {
      "start_date": "1945-03-19",
      "end_date": "1946-04-30",
      "id": 501,
      "name": "Droit de souscription",
      "stock_group": "R"
    }
  ],
  "is_mainstock": 0,
  "prices_period": [
    "1945-03-19",
    "1945-04-30"
  ],
  "stock_exchanges": {
    "1": {
      "id": 1,
      "name": "Paris (Official List)",
      "notations": {
        "200476": {
          "id": 200476,
          "sector_id": 657,
          "start_date": "1945-03-19",
          "end_date": "1945-04-30",
          "names": [
            {
              "name": "Act. Sous-Comptoir des Entrepreneurs (droit et coupon 22 ou bon de droit)",
              "start_date": "1945-03-19",
              "end_date": "1946-05-01"
            }
          ]
        },
        "200477": {
          "id": 200477,
          "sector_id": 659,
          "start_date": "1945-04-30",
          "end_date": "1945-05-14",
          "names": [
            {
              "name": "Act. Sous-Comptoir des Entrepreneurs (droit et coupon 22 ou bon de droit)",
              "start_date": "1945-03-19",
              "end_date": "1946-05-01"
            }
          ]
        }
      },
      "listings_stats": {
        "start_date": "1945-03-19"
      },
      "spot_prices_stats": {
        "start_date": "1945-03-19",
        "end_date": "1945-04-30"
      }
    }
  },
  "prices_count": 3,
  "name": "Act. Sous-Comptoir des Entrepreneurs (droit et coupon 22 ou bon de droit)"
}