{
  "id": 104296,
  "share_type": {
    "id": 2,
    "name": "Bond (Obligation)"
  },
  "issuers": [
    {
      "id": 11862,
      "start_date": "1878-01-16",
      "end_date": "1887-12-31",
      "name": "VILLES : ANCONE (Italie)"
    }
  ],
  "types": [
    {
      "start_date": "1878-01-16",
      "end_date": "1887-12-31",
      "id": 1003,
      "name": "Bons de la Ville",
      "stock_group": "B"
    }
  ],
  "is_mainstock": 0,
  "prices_period": [
    "1878-12-31",
    "1886-06-30"
  ],
  "stock_exchanges": {
    "2": {
      "id": 2,
      "name": "Paris OTC (Coulisse)",
      "notations": {
        "204661": {
          "id": 204661,
          "sector_id": 663,
          "start_date": "1878-01-16",
          "end_date": "1887-12-31",
          "names": [
            {
              "name": "Ville Ancone",
              "start_date": "1878-01-16",
              "end_date": "1887-12-31"
            }
          ]
        }
      },
      "listings_stats": {
        "start_date": "1878-01-16"
      },
      "spot_prices_stats": {
        "start_date": "1878-12-31",
        "end_date": "1886-06-30"
      }
    }
  },
  "prices_count": 175,
  "name": "Ville Ancone"
}