{
  "id": 14453,
  "share_type": {
    "id": 1,
    "name": "Stock (Action)"
  },
  "issuers": [
    {
      "id": 3718,
      "start_date": "1952-05-26",
      "end_date": "3999-12-31",
      "name": "COOPÉRATIVE D'APPROVISIONNEMENT, DE TRANSPORT ET DE CRÉDIT"
    }
  ],
  "types": [
    {
      "start_date": "1952-05-26",
      "end_date": "3999-12-31",
      "id": 11,
      "name": "Action ordinaire",
      "stock_group": "S"
    }
  ],
  "is_mainstock": 0,
  "prices_period": [
    "1952-05-27",
    "1958-12-31"
  ],
  "stock_exchanges": {
    "1": {
      "id": 1,
      "name": "Paris (Official List)",
      "notations": {
        "25632": {
          "id": 25632,
          "sector_id": 387,
          "start_date": "1955-12-01",
          "end_date": "1959-01-02",
          "names": [
            {
              "name": "Approvisionnement, de Transport et de Crédit (Cie d'), act. 2500 fr., t.p. (c. 1 att.)",
              "start_date": "1952-05-26",
              "end_date": "1959-01-02"
            },
            {
              "name": "Approvisionnement, de Transport et de Crédit (Cie d'), act.",
              "start_date": "1955-12-01",
              "end_date": "3999-12-31"
            }
          ]
        },
        "145028": {
          "id": 145028,
          "sector_id": 277,
          "start_date": "1952-05-26",
          "end_date": "1955-12-01",
          "names": [
            {
              "name": "Approvisionnement, de Transport et de Crédit (Cie d'), act. 2500 fr., t.p. (c. 1 att.)",
              "start_date": "1952-05-26",
              "end_date": "1955-12-01"
            },
            {
              "name": "Approvisionnement, de Transport et de Crédit (Cie d'), act.",
              "start_date": "1952-05-26",
              "end_date": "3999-12-31"
            }
          ]
        }
      },
      "listings_stats": {
        "start_date": "1952-05-26"
      },
      "spot_prices_stats": {
        "start_date": "1952-05-27",
        "end_date": "1958-12-31"
      }
    }
  },
  "prices_count": 176,
  "name": "Approvisionnement, de Transport et de Crédit (Cie d'), act."
}