{
  "id": 16009,
  "share_type": {
    "id": 5,
    "name": "Droits de souscription"
  },
  "issuers": [
    {
      "id": 2892,
      "start_date": "1959-06-16",
      "end_date": "3999-12-31",
      "name": "UNION CORPORATION, LIMITED (Anciennement A. GOERZ AND COMPANY, LIMITED)"
    }
  ],
  "types": [
    {
      "start_date": "1959-06-16",
      "end_date": "3999-12-31",
      "id": 501,
      "name": "Droit de souscription",
      "stock_group": "R"
    }
  ],
  "is_mainstock": 0,
  "prices_period": [
    "1959-06-16",
    "1959-06-30"
  ],
  "stock_exchanges": {
    "1": {
      "id": 1,
      "name": "Paris (Official List)",
      "notations": {
        "146584": {
          "id": 146584,
          "sector_id": 82,
          "start_date": "1959-06-16",
          "end_date": "1959-07-02",
          "names": [
            {
              "name": "Union corporation, ltd, dr de souscr (virem SICOVAM) liv",
              "start_date": "1959-06-16",
              "end_date": "4000-01-01"
            }
          ]
        }
      },
      "listings_stats": {
        "start_date": "1959-06-16"
      },
      "spot_prices_stats": {
        "start_date": "1959-06-16",
        "end_date": "1959-06-30"
      }
    }
  },
  "prices_count": 2,
  "name": "Union corporation, ltd, dr de souscr (virem SICOVAM) liv"
}