{
  "id": 12519,
  "share_type": {
    "id": 1,
    "name": "Stock (Action)"
  },
  "issuers": [
    {
      "id": 4105,
      "start_date": "1947-11-06",
      "end_date": "3999-12-31",
      "name": "ATELIERS DE CONSTRUCTIONS MÉCANIQUES \"L'ASTER\" (Anciennement l'Aster)"
    }
  ],
  "types": [
    {
      "start_date": "1947-11-06",
      "end_date": "3999-12-31",
      "id": 18,
      "name": "Action",
      "stock_group": "S"
    }
  ],
  "is_mainstock": 0,
  "prices_period": [
    "1947-11-06",
    "1951-08-31"
  ],
  "stock_exchanges": {
    "1": {
      "id": 1,
      "name": "Paris (Official List)",
      "notations": {
        "143094": {
          "id": 143094,
          "sector_id": 182,
          "start_date": "1947-11-06",
          "end_date": "1951-09-03",
          "names": [
            {
              "name": "Compteurs et Moteurs Aster, act. 500 fr., t. p.",
              "start_date": "1947-11-06",
              "end_date": "1951-09-03"
            },
            {
              "name": "Compteurs et Moteurs Aster, act. 600 fr., t. p.",
              "start_date": "1947-11-06",
              "end_date": "1951-09-03"
            },
            {
              "name": "Compteurs Moteurs Aster, a. 687 f. 50, t. p.",
              "start_date": "1947-11-06",
              "end_date": "1951-09-03"
            },
            {
              "name": "Compteurs Moteurs Aster, act. Anc. 687 fr. 50, t. p.",
              "start_date": "1947-11-06",
              "end_date": "3999-12-31"
            }
          ]
        }
      },
      "listings_stats": {
        "start_date": "1947-11-06"
      },
      "spot_prices_stats": {
        "start_date": "1947-11-06",
        "end_date": "1951-08-31"
      }
    }
  },
  "prices_count": 90,
  "name": "Compteurs et Moteurs Aster, act. 600 fr., t. p."
}