{
  "id": 103496,
  "share_type": {
    "id": 4,
    "name": "Rights (Droits)"
  },
  "issuers": [
    {
      "id": 2329,
      "start_date": "1920-07-19",
      "end_date": "1920-08-11",
      "name": "STÉ ANONYME DES MATIÈRES COLORANTES ET PRODUITS CHIMIQUES DE SAINT-DENIS (Établissements A. Poirier et O. Dalsace)."
    }
  ],
  "types": [
    {
      "start_date": "1920-07-19",
      "end_date": "1920-08-11",
      "id": 501,
      "name": "Droit de souscription",
      "stock_group": "R"
    }
  ],
  "is_mainstock": 0,
  "prices_period": [
    "1920-07-23",
    "1920-07-30"
  ],
  "stock_exchanges": {
    "1": {
      "id": 1,
      "name": "Paris (Official List)",
      "notations": {
        "203678": {
          "id": 203678,
          "sector_id": 657,
          "start_date": "1920-07-19",
          "end_date": "1920-08-12",
          "names": [
            {
              "name": "Actions Matières Colorantes et produits Chimiques de Saint-Denis",
              "start_date": "1920-07-19",
              "end_date": "1920-08-12"
            }
          ]
        }
      },
      "listings_stats": {
        "start_date": "1920-07-19"
      },
      "spot_prices_stats": {
        "start_date": "1920-07-23",
        "end_date": "1920-07-30"
      }
    }
  },
  "prices_count": 0,
  "name": "Actions Matières Colorantes et produits Chimiques de Saint-Denis"
}