{
  "id": 7305,
  "share_type": {
    "id": 2,
    "name": "Bond (Obligation)"
  },
  "issuers": [
    {
      "id": 1675,
      "start_date": "1920-12-10",
      "end_date": "3999-12-31",
      "name": "ACIERIES ET FORGES DE FIRMINY"
    }
  ],
  "types": [
    {
      "start_date": "1920-12-10",
      "end_date": "3999-12-31",
      "id": 1001,
      "name": "Obligation ordinaire ou classique",
      "stock_group": "B"
    }
  ],
  "is_mainstock": 0,
  "prices_period": [
    "1921-11-30",
    "1946-06-28"
  ],
  "stock_exchanges": {
    "1": {
      "id": 1,
      "name": "Paris (Official List)",
      "notations": {
        "20322": {
          "id": 20322,
          "sector_id": 111,
          "start_date": "1940-10-14",
          "end_date": "1946-07-16",
          "names": [
            {
              "name": "Aciéries et Forges de Firminy, 4% remb à 500 fr.",
              "start_date": "1920-12-10",
              "end_date": "1946-07-16"
            },
            {
              "name": "Aciéries et Forges de Firminy 4%, r. à 500 fr. 1917-46",
              "start_date": "1940-10-14",
              "end_date": "3999-12-31"
            }
          ]
        },
        "34175": {
          "id": 34175,
          "sector_id": 111,
          "start_date": "1920-12-10",
          "end_date": "1940-06-11",
          "names": [
            {
              "name": "Aciéries et Forges de Firminy, 4% remb à 500 fr.",
              "start_date": "1920-12-10",
              "end_date": "1940-10-14"
            },
            {
              "name": "Aciéries et Forges de Firminy 4%, r. à 500 fr. 1917-46",
              "start_date": "1920-12-10",
              "end_date": "3999-12-31"
            }
          ]
        }
      },
      "listings_stats": {
        "start_date": "1920-12-10"
      },
      "spot_prices_stats": {
        "start_date": "1921-11-30",
        "end_date": "1946-06-28"
      }
    }
  },
  "prices_count": 393,
  "name": "Aciéries et Forges de Firminy, 4% remb à 500 fr."
}