{
  "id": 4673,
  "share_type": {
    "id": 2,
    "name": "Bond (Obligation)"
  },
  "issuers": [
    {
      "id": 1220,
      "start_date": "1899-10-13",
      "end_date": "1900-07-05",
      "name": "CHEMINS DE FER DU NORD DE L'ESPAGNE"
    }
  ],
  "types": [
    {
      "start_date": "1899-10-13",
      "end_date": "1900-07-05",
      "id": 1001,
      "name": "Obligation ordinaire ou classique",
      "stock_group": "B"
    }
  ],
  "is_mainstock": 0,
  "prices_period": [
    "1900-01-31",
    "1900-05-15"
  ],
  "stock_exchanges": {
    "1": {
      "id": 1,
      "name": "Paris (Official List)",
      "notations": {
        "5772": {
          "id": 5772,
          "sector_id": 68,
          "start_date": "1899-10-13",
          "end_date": "1900-07-05",
          "names": [
            {
              "name": "Nord de l'Espagne, Oblig. Asturies, Galice et Léon 3%, 1re hypoth. nos 1 à 181242. - 181489 à 249546. (estamp.) (Intér. et amortist garabtis par le Nord de Espagne)",
              "start_date": "1899-10-13",
              "end_date": "1900-07-05"
            }
          ]
        }
      },
      "forward_prices_stats": {
        "start_date": "1900-01-31",
        "end_date": "1900-05-15"
      },
      "listings_stats": {
        "start_date": "1899-10-13"
      },
      "spot_prices_stats": {
        "start_date": "1900-02-28",
        "end_date": "1900-02-28"
      }
    }
  },
  "prices_count": 4,
  "name": "Nord de l'Espagne, Oblig. Asturies, Galice et Léon 3%, 1re hypoth. nos 1 à 181242. - 181489 à 249546. (estamp.) (Intér. et amortist garabtis par le Nord de Espagne)"
}