{
  "id": 10154,
  "share_type": {
    "id": 2,
    "name": "Bond (Obligation)"
  },
  "issuers": [
    {
      "id": 4000,
      "start_date": "1931-11-06",
      "end_date": "3999-12-31",
      "name": "SOCIÉTÉ DES CHAUX, CIMENTS ET MATERIAUX DE CONSTRUCTION AU MAROC"
    }
  ],
  "types": [
    {
      "start_date": "1931-11-06",
      "end_date": "3999-12-31",
      "id": 1001,
      "name": "Obligation ordinaire ou classique",
      "stock_group": "B"
    }
  ],
  "is_mainstock": 0,
  "prices_period": [
    "1931-11-13",
    "1955-01-31"
  ],
  "stock_exchanges": {
    "1": {
      "id": 1,
      "name": "Paris (Official List)",
      "notations": {
        "20605": {
          "id": 20605,
          "sector_id": 184,
          "start_date": "1940-10-14",
          "end_date": "1955-02-01",
          "names": [
            {
              "name": "Chaux, Ciments et Matériaux de Construction au Maroc 4,5% 1931, remb. à 1000 fr.",
              "start_date": "1931-11-06",
              "end_date": "1955-02-01"
            },
            {
              "name": "Chaux, ciments et matériaux de construction au Maroc 4,5% 1931, remb. À 1000 fr. 1932-61",
              "start_date": "1940-10-14",
              "end_date": "1955-06-15"
            },
            {
              "name": "Chaux, Ciments et Matériaux de Construction au Maroc 4,50% 1931 r. à 1000 fr. le 1/6/55",
              "start_date": "1940-10-14",
              "end_date": "3999-12-31"
            }
          ]
        },
        "25011": {
          "id": 25011,
          "sector_id": 233,
          "start_date": "1955-02-01",
          "end_date": "1955-06-15",
          "names": [
            {
              "name": "Chaux, Ciments et Matériaux de Construction au Maroc 4,5% 1931, remb. à 1000 fr.",
              "start_date": "1931-11-06",
              "end_date": "1955-06-15"
            },
            {
              "name": "Chaux, ciments et matériaux de construction au Maroc 4,5% 1931, remb. À 1000 fr. 1932-61",
              "start_date": "1940-10-14",
              "end_date": "1955-06-15"
            },
            {
              "name": "Chaux, Ciments et Matériaux de Construction au Maroc 4,50% 1931 r. à 1000 fr. le 1/6/55",
              "start_date": "1955-02-01",
              "end_date": "3999-12-31"
            }
          ]
        },
        "140729": {
          "id": 140729,
          "sector_id": 184,
          "start_date": "1931-11-06",
          "end_date": "1940-06-11",
          "names": [
            {
              "name": "Chaux, Ciments et Matériaux de Construction au Maroc 4,5% 1931, remb. à 1000 fr.",
              "start_date": "1931-11-06",
              "end_date": "1940-10-14"
            },
            {
              "name": "Chaux, ciments et matériaux de construction au Maroc 4,5% 1931, remb. À 1000 fr. 1932-61",
              "start_date": "1931-11-06",
              "end_date": "1955-06-15"
            },
            {
              "name": "Chaux, Ciments et Matériaux de Construction au Maroc 4,50% 1931 r. à 1000 fr. le 1/6/55",
              "start_date": "1931-11-06",
              "end_date": "3999-12-31"
            }
          ]
        }
      },
      "listings_stats": {
        "start_date": "1931-11-06"
      },
      "spot_prices_stats": {
        "start_date": "1931-11-13",
        "end_date": "1955-01-31"
      }
    }
  },
  "prices_count": 517,
  "name": "Chaux, Ciments et Matériaux de Construction au Maroc 4,5% 1931, remb. à 1000 fr."
}