{
  "id": 6297,
  "share_type": {
    "id": 1,
    "name": "Stock (Action)"
  },
  "issuers": [
    {
      "id": 3058,
      "start_date": "1910-05-11",
      "end_date": "3999-12-31",
      "name": "SOCIÉTÉ FRANCO-RUSSE DES HOUILLERES DE BERESTOW-KRINKA"
    }
  ],
  "types": [
    {
      "start_date": "1910-05-17",
      "end_date": "3999-12-31",
      "id": 14,
      "name": "Action prioritaire",
      "stock_group": "S"
    }
  ],
  "is_mainstock": 0,
  "prices_period": [
    "1910-05-17",
    "1932-05-31"
  ],
  "stock_exchanges": {
    "1": {
      "id": 1,
      "name": "Paris (Official List)",
      "notations": {
        "9198": {
          "id": 9198,
          "sector_id": 103,
          "start_date": "1914-03-04",
          "end_date": "1914-08-03",
          "names": [
            {
              "name": "Houillères de Berestow-Krinka, actions de priorité (temporaires)",
              "start_date": "1892-05-05",
              "end_date": "1914-08-03"
            },
            {
              "name": "Houillères de Berestow-Krinka, act. prior. (temp.) 250 f. t.p. (coupon 1 attaché)",
              "start_date": "1914-03-04",
              "end_date": "3999-12-31"
            }
          ]
        },
        "10051": {
          "id": 10051,
          "sector_id": 103,
          "start_date": "1914-12-15",
          "end_date": "1932-07-01",
          "names": [
            {
              "name": "Houillères de Berestow-Krinka, actions de priorité (temporaires)",
              "start_date": "1892-05-05",
              "end_date": "1932-07-01"
            },
            {
              "name": "Houillères de Berestow-Krinka, act. prior. (temp.) 250 f. t.p. (coupon 1 attaché)",
              "start_date": "1914-03-04",
              "end_date": "3999-12-31"
            }
          ]
        },
        "155826": {
          "id": 155826,
          "sector_id": 122,
          "start_date": "1910-05-11",
          "end_date": "1914-03-02",
          "names": [
            {
              "name": "Houillères de Berestow-Krinka, actions de priorité (temporaires)",
              "start_date": "1892-05-05",
              "end_date": "1914-03-02"
            },
            {
              "name": "Houillères de Berestow-Krinka, act. prior. (temp.) 250 f. t.p. (coupon 1 attaché)",
              "start_date": "1910-05-11",
              "end_date": "3999-12-31"
            }
          ]
        }
      },
      "listings_stats": {
        "start_date": "1910-05-11"
      },
      "spot_prices_stats": {
        "start_date": "1910-05-17",
        "end_date": "1932-05-31"
      }
    }
  },
  "prices_count": 227,
  "name": "Houillères de Berestow-Krinka, actions de priorité (temporaires)"
}