{
  "id": 20672,
  "share_type": {
    "id": 2,
    "name": "Bond (Obligation)"
  },
  "issuers": [
    {
      "id": 4419,
      "start_date": "1969-04-01",
      "end_date": "3999-12-31",
      "name": "COMPAGNIE COMMERCIALE ET INDUSTRIELLE DU MIDI"
    }
  ],
  "types": [
    {
      "start_date": "1969-04-01",
      "end_date": "3999-12-31",
      "id": 1001,
      "name": "Obligation ordinaire ou classique",
      "stock_group": "B"
    }
  ],
  "is_mainstock": 0,
  "prices_period": [
    "1969-04-01",
    "1976-12-31"
  ],
  "stock_exchanges": {
    "1": {
      "id": 1,
      "name": "Paris (Official List)",
      "notations": {
        "151242": {
          "id": 151242,
          "sector_id": 111,
          "start_date": "1969-04-01",
          "end_date": "3999-12-31",
          "names": [
            {
              "name": "MARSEILLE_BOURSE Commerciale et Industrielle du Midi (Cie) 5% 1964 (Avis 68-803) 1969-77",
              "start_date": "1969-04-01",
              "end_date": "3999-12-31"
            }
          ]
        }
      },
      "listings_stats": {
        "start_date": "1969-04-01"
      },
      "spot_prices_stats": {
        "start_date": "1969-04-01",
        "end_date": "1976-12-31"
      }
    }
  },
  "prices_count": 187,
  "name": "MARSEILLE_BOURSE Commerciale et Industrielle du Midi (Cie) 5% 1964 (Avis 68-803) 1969-77"
}