{
  "id": 104870,
  "share_type": {
    "id": 1,
    "name": "Stock (Action)"
  },
  "issuers": [
    {
      "id": 12154,
      "start_date": "1883-01-15",
      "end_date": "1891-12-31",
      "name": "Le XIXe Siècle (journal)"
    }
  ],
  "types": [
    {
      "start_date": "1883-01-15",
      "end_date": "1891-12-31",
      "id": 18,
      "name": "Action",
      "stock_group": "S"
    }
  ],
  "is_mainstock": 1,
  "prices_period": [
    "1883-12-15",
    "1891-06-03"
  ],
  "stock_exchanges": {
    "2": {
      "id": 2,
      "name": "Paris OTC (Coulisse)",
      "notations": {
        "205277": {
          "id": 205277,
          "sector_id": 672,
          "start_date": "1883-01-15",
          "end_date": "1887-02-15",
          "names": [
            {
              "name": "XIXe Siècle",
              "start_date": "1883-01-15",
              "end_date": "1891-12-31"
            }
          ]
        },
        "205688": {
          "id": 205688,
          "sector_id": 665,
          "start_date": "1887-02-28",
          "end_date": "1891-12-31",
          "names": [
            {
              "name": "XIXe Siècle",
              "start_date": "1883-01-15",
              "end_date": "1891-12-31"
            }
          ]
        }
      },
      "listings_stats": {
        "start_date": "1883-01-15"
      },
      "spot_prices_stats": {
        "start_date": "1883-12-15",
        "end_date": "1891-06-03"
      }
    }
  },
  "prices_count": 147,
  "name": "XIXe Siècle"
}