{
  "id": 3004,
  "share_type": {
    "id": 1,
    "name": "Stock (Action)"
  },
  "issuers": [
    {
      "id": 378,
      "start_date": "1881-01-15",
      "end_date": "3999-12-31",
      "name": "Cie D'ASSURANCES LE NORD (Anciennement Le Nord, Compagnie d'assurances contre l'incendie et contre le bris des glaces)"
    }
  ],
  "types": [
    {
      "start_date": "1881-01-15",
      "end_date": "3999-12-31",
      "id": 18,
      "name": "Action",
      "stock_group": "S"
    }
  ],
  "is_mainstock": 1,
  "prices_period": [
    "1881-01-17",
    "1955-02-28"
  ],
  "stock_exchanges": {
    "1": {
      "id": 1,
      "name": "Paris (Official List)",
      "notations": {
        "1621": {
          "id": 1621,
          "sector_id": 96,
          "start_date": "1902-05-26",
          "end_date": "1914-08-03",
          "names": [
            {
              "name": "Le Nord (inc.), a.1000f., 250f.p., nom.(Cessionnaires soumis à l'agrément di Conseil d'Administration)",
              "start_date": "1881-11-21",
              "end_date": "1924-09-22"
            },
            {
              "name": "Nord (Le), act. 500 fr., 125 fr. p. nom.",
              "start_date": "1902-05-26",
              "end_date": "1927-02-01"
            },
            {
              "name": "Nord (Le), act. 250 fr., 125 fr. p. nom. (Cessionnaire soumis à l'agrémént du Conseil d'administration)",
              "start_date": "1902-05-26",
              "end_date": "1929-10-23"
            },
            {
              "name": "Nord (Le), act.125 fr., 62 fr. 50 p., nom. [Cessionnaires soumis à l'agrément du Conseil d'Administration]",
              "start_date": "1902-05-26",
              "end_date": "1938-05-02"
            },
            {
              "name": "Nord (Le), act. 125 fr., 93 fr. 75 p. (nom.)",
              "start_date": "1902-05-26",
              "end_date": "1948-12-01"
            },
            {
              "name": "Nord (Le) (incendie, accidents, vol), act. 125 fr., t. p. (ex-dr. Est. Du 7/1/48) (nom.)",
              "start_date": "1902-05-26",
              "end_date": "1949-10-28"
            },
            {
              "name": "Nord (Le) (incendie, accidents, vol), act. 125 fr., t. p. (nom.)",
              "start_date": "1902-05-26",
              "end_date": "1953-03-02"
            },
            {
              "name": "Nord (Le) (inc., acc., vol), act. Anc. 125 fr., t. p. (nom.)",
              "start_date": "1902-05-26",
              "end_date": "3999-12-31"
            }
          ]
        },
        "4103": {
          "id": 4103,
          "sector_id": 73,
          "start_date": "1881-11-21",
          "end_date": "1902-05-26",
          "names": [
            {
              "name": "Le Nord (inc.), a.1000f., 250f.p., nom.(Cessionnaires soumis à l'agrément di Conseil d'Administration)",
              "start_date": "1881-11-21",
              "end_date": "1924-09-22"
            },
            {
              "name": "Nord (Le), act. 500 fr., 125 fr. p. nom.",
              "start_date": "1881-11-21",
              "end_date": "1927-02-01"
            },
            {
              "name": "Nord (Le), act. 250 fr., 125 fr. p. nom. (Cessionnaire soumis à l'agrémént du Conseil d'administration)",
              "start_date": "1881-11-21",
              "end_date": "1929-10-23"
            },
            {
              "name": "Nord (Le), act.125 fr., 62 fr. 50 p., nom. [Cessionnaires soumis à l'agrément du Conseil d'Administration]",
              "start_date": "1881-11-21",
              "end_date": "1938-05-02"
            },
            {
              "name": "Nord (Le), act. 125 fr., 93 fr. 75 p. (nom.)",
              "start_date": "1881-11-21",
              "end_date": "1948-12-01"
            },
            {
              "name": "Nord (Le) (incendie, accidents, vol), act. 125 fr., t. p. (ex-dr. Est. Du 7/1/48) (nom.)",
              "start_date": "1881-11-21",
              "end_date": "1949-10-28"
            },
            {
              "name": "Nord (Le) (incendie, accidents, vol), act. 125 fr., t. p. (nom.)",
              "start_date": "1881-11-21",
              "end_date": "1953-03-02"
            },
            {
              "name": "Nord (Le) (inc., acc., vol), act. Anc. 125 fr., t. p. (nom.)",
              "start_date": "1881-11-21",
              "end_date": "3999-12-31"
            }
          ]
        },
        "8765": {
          "id": 8765,
          "sector_id": 96,
          "start_date": "1914-12-15",
          "end_date": "1948-12-01",
          "names": [
            {
              "name": "Le Nord (inc.), a.1000f., 250f.p., nom.(Cessionnaires soumis à l'agrément di Conseil d'Administration)",
              "start_date": "1881-11-21",
              "end_date": "1948-12-01"
            },
            {
              "name": "Nord (Le), act. 500 fr., 125 fr. p. nom.",
              "start_date": "1914-12-15",
              "end_date": "1948-12-01"
            },
            {
              "name": "Nord (Le), act. 250 fr., 125 fr. p. nom. (Cessionnaire soumis à l'agrémént du Conseil d'administration)",
              "start_date": "1914-12-15",
              "end_date": "1948-12-01"
            },
            {
              "name": "Nord (Le), act.125 fr., 62 fr. 50 p., nom. [Cessionnaires soumis à l'agrément du Conseil d'Administration]",
              "start_date": "1914-12-15",
              "end_date": "1948-12-01"
            },
            {
              "name": "Nord (Le), act. 125 fr., 93 fr. 75 p. (nom.)",
              "start_date": "1914-12-15",
              "end_date": "1948-12-01"
            },
            {
              "name": "Nord (Le) (incendie, accidents, vol), act. 125 fr., t. p. (ex-dr. Est. Du 7/1/48) (nom.)",
              "start_date": "1914-12-15",
              "end_date": "1949-10-28"
            },
            {
              "name": "Nord (Le) (incendie, accidents, vol), act. 125 fr., t. p. (nom.)",
              "start_date": "1914-12-15",
              "end_date": "1953-03-02"
            },
            {
              "name": "Nord (Le) (inc., acc., vol), act. Anc. 125 fr., t. p. (nom.)",
              "start_date": "1914-12-15",
              "end_date": "3999-12-31"
            }
          ]
        },
        "22166": {
          "id": 22166,
          "sector_id": 250,
          "start_date": "1948-12-01",
          "end_date": "1955-03-03",
          "names": [
            {
              "name": "Le Nord (inc.), a.1000f., 250f.p., nom.(Cessionnaires soumis à l'agrément di Conseil d'Administration)",
              "start_date": "1881-11-21",
              "end_date": "1955-03-03"
            },
            {
              "name": "Nord (Le), act. 500 fr., 125 fr. p. nom.",
              "start_date": "1924-09-22",
              "end_date": "1955-03-03"
            },
            {
              "name": "Nord (Le), act. 250 fr., 125 fr. p. nom. (Cessionnaire soumis à l'agrémént du Conseil d'administration)",
              "start_date": "1927-02-01",
              "end_date": "1955-03-03"
            },
            {
              "name": "Nord (Le), act.125 fr., 62 fr. 50 p., nom. [Cessionnaires soumis à l'agrément du Conseil d'Administration]",
              "start_date": "1929-10-23",
              "end_date": "1955-03-03"
            },
            {
              "name": "Nord (Le), act. 125 fr., 93 fr. 75 p. (nom.)",
              "start_date": "1938-05-02",
              "end_date": "1955-03-03"
            },
            {
              "name": "Nord (Le) (incendie, accidents, vol), act. 125 fr., t. p. (ex-dr. Est. Du 7/1/48) (nom.)",
              "start_date": "1948-12-01",
              "end_date": "1955-03-03"
            },
            {
              "name": "Nord (Le) (incendie, accidents, vol), act. 125 fr., t. p. (nom.)",
              "start_date": "1948-12-01",
              "end_date": "1955-03-03"
            },
            {
              "name": "Nord (Le) (inc., acc., vol), act. Anc. 125 fr., t. p. (nom.)",
              "start_date": "1948-12-01",
              "end_date": "3999-12-31"
            }
          ]
        }
      },
      "listings_stats": {
        "start_date": "1881-11-21"
      },
      "spot_prices_stats": {
        "start_date": "1881-11-28",
        "end_date": "1955-02-28"
      }
    },
    "2": {
      "id": 2,
      "name": "Paris OTC (Coulisse)",
      "notations": {
        "205482": {
          "id": 205482,
          "sector_id": 674,
          "start_date": "1881-01-15",
          "end_date": "1892-12-31",
          "names": [
            {
              "name": "Nord (Incendie)",
              "start_date": "1881-01-15",
              "end_date": "1892-12-31"
            }
          ]
        }
      },
      "listings_stats": {
        "start_date": "1881-01-15"
      },
      "spot_prices_stats": {
        "start_date": "1881-01-17",
        "end_date": "1892-04-30"
      }
    }
  },
  "prices_count": 1112,
  "name": "Nord (Le), act. 125 fr., 93 fr. 75 p. (nom.)"
}