{
  "id": 104430,
  "share_type": {
    "id": 1,
    "name": "Stock (Action)"
  },
  "issuers": [
    {
      "id": 12080,
      "start_date": "1881-01-15",
      "end_date": "1887-12-31",
      "name": "Société des Pierres mat. et produits lithographiques"
    }
  ],
  "types": [
    {
      "start_date": "1881-01-15",
      "end_date": "1887-12-31",
      "id": 18,
      "name": "Action",
      "stock_group": "S"
    }
  ],
  "is_mainstock": 1,
  "prices_period": [
    "1881-04-30",
    "1884-09-30"
  ],
  "stock_exchanges": {
    "2": {
      "id": 2,
      "name": "Paris OTC (Coulisse)",
      "notations": {
        "204824": {
          "id": 204824,
          "sector_id": 672,
          "start_date": "1881-01-15",
          "end_date": "1887-12-31",
          "names": [
            {
              "name": "Ste des Pier.mat.et prod. lith",
              "start_date": "1881-01-15",
              "end_date": "1887-12-31"
            }
          ]
        }
      },
      "listings_stats": {
        "start_date": "1881-01-15"
      },
      "spot_prices_stats": {
        "start_date": "1881-04-30",
        "end_date": "1884-09-30"
      }
    }
  },
  "prices_count": 44,
  "name": "Ste des Pier.mat.et prod. lith"
}