{
  "id": 16316,
  "share_type": {
    "id": 2,
    "name": "Bond (Obligation)"
  },
  "issuers": [
    {
      "id": 3933,
      "start_date": "1960-12-06",
      "end_date": "3999-12-31",
      "name": "PNEUMATIQUES ET CAOUTCHOUC MANUFACTURE KLÉBER - COLOMBES"
    }
  ],
  "types": [
    {
      "start_date": "1960-12-06",
      "end_date": "3999-12-31",
      "id": 1001,
      "name": "Obligation ordinaire ou classique",
      "stock_group": "B"
    }
  ],
  "is_mainstock": 0,
  "prices_period": [
    "1960-12-07",
    "1976-12-31"
  ],
  "stock_exchanges": {
    "1": {
      "id": 1,
      "name": "Paris (Official List)",
      "notations": {
        "28221": {
          "id": 28221,
          "sector_id": 510,
          "start_date": "1962-01-02",
          "end_date": "1963-03-04",
          "names": [
            {
              "name": "Kléber Colombes 5% juin 60, r à 240 NF (c 1/6/61 att) 1961-80",
              "start_date": "1960-12-06",
              "end_date": "1963-03-04"
            },
            {
              "name": "Kléber Colombes 5% juin 1960, r. à 240 NF (T. 5/5/61) 1961-80",
              "start_date": "1962-01-02",
              "end_date": "3999-12-31"
            }
          ]
        },
        "30801": {
          "id": 30801,
          "sector_id": 509,
          "start_date": "1963-03-04",
          "end_date": "3999-12-31",
          "names": [
            {
              "name": "Kléber Colombes 5% juin 60, r à 240 NF (c 1/6/61 att) 1961-80",
              "start_date": "1960-12-06",
              "end_date": "3999-12-31"
            },
            {
              "name": "Kléber Colombes 5% juin 1960, r. à 240 NF (T. 5/5/61) 1961-80",
              "start_date": "1962-01-02",
              "end_date": "3999-12-31"
            }
          ]
        },
        "146891": {
          "id": 146891,
          "sector_id": 466,
          "start_date": "1960-12-06",
          "end_date": "1962-01-02",
          "names": [
            {
              "name": "Kléber Colombes 5% juin 60, r à 240 NF (c 1/6/61 att) 1961-80",
              "start_date": "1960-12-06",
              "end_date": "1962-01-02"
            },
            {
              "name": "Kléber Colombes 5% juin 1960, r. à 240 NF (T. 5/5/61) 1961-80",
              "start_date": "1960-12-06",
              "end_date": "3999-12-31"
            }
          ]
        }
      },
      "listings_stats": {
        "start_date": "1960-12-06"
      },
      "spot_prices_stats": {
        "start_date": "1960-12-07",
        "end_date": "1976-12-31"
      }
    }
  },
  "prices_count": 387,
  "name": "Kléber Colombes 5% juin 60, r à 240 NF (c 1/6/61 att) 1961-80"
}