{
  "id": 2638,
  "share_type": {
    "id": 2,
    "name": "Bond (Obligation)"
  },
  "issuers": [
    {
      "id": 450,
      "start_date": "1877-11-10",
      "end_date": "3999-12-31",
      "name": "Dette d'Autriche"
    }
  ],
  "types": [
    {
      "start_date": "1877-11-10",
      "end_date": "3999-12-31",
      "id": 1001,
      "name": "Obligation ordinaire ou classique",
      "stock_group": "B"
    }
  ],
  "is_mainstock": 0,
  "prices_period": [
    "1877-11-10",
    "1878-03-15"
  ],
  "stock_exchanges": {
    "1": {
      "id": 1,
      "name": "Paris (Official List)",
      "notations": {
        "3737": {
          "id": 3737,
          "sector_id": 67,
          "start_date": "1877-11-10",
          "end_date": "1878-03-18",
          "names": [
            {
              "name": "Hongrie.-Emp.1877 6% or(nég.ch.fixe 2f50) obl.500flor. Libéré",
              "start_date": "1877-11-10",
              "end_date": "1878-03-18"
            },
            {
              "name": "Hongrie.-Emp.1877 6% or(nég.ch.fixe 2f50) obl.500flor. Tout payé",
              "start_date": "1877-11-10",
              "end_date": "3999-12-31"
            }
          ]
        }
      },
      "forward_prices_stats": {
        "start_date": "1878-02-28",
        "end_date": "1878-02-28"
      },
      "listings_stats": {
        "start_date": "1877-11-10"
      },
      "spot_prices_stats": {
        "start_date": "1877-11-10",
        "end_date": "1878-03-15"
      }
    }
  },
  "prices_count": 16,
  "name": "Hongrie.-Emp.1877 6% or(nég.ch.fixe 2f50) obl.500flor. Libéré"
}