{
  "id": 7664,
  "share_type": {
    "id": 1,
    "name": "Stock (Action)"
  },
  "issuers": [
    {
      "id": 5124,
      "start_date": "1923-04-23",
      "end_date": "3999-12-31",
      "name": "Schwartz et Cie (Filatures de Laine)"
    }
  ],
  "types": [
    {
      "start_date": "1923-04-23",
      "end_date": "3999-12-31",
      "id": 18,
      "name": "Action",
      "stock_group": "S"
    }
  ],
  "is_mainstock": 1,
  "prices_period": [
    "1923-04-23",
    "1929-09-30"
  ],
  "stock_exchanges": {
    "1": {
      "id": 1,
      "name": "Paris (Official List)",
      "notations": {
        "34534": {
          "id": 34534,
          "sector_id": 101,
          "start_date": "1923-04-23",
          "end_date": "1929-12-20",
          "names": [
            {
              "name": "Schwartz et Cie (Filatures de Laine), act. ord., série A., 500 fr., t. p. (c. 1 att.)",
              "start_date": "1923-04-23",
              "end_date": "1929-12-20"
            },
            {
              "name": "Schwartz et Cie (Filatures de Laine), act. Ord. 500 fr., t. p.",
              "start_date": "1923-04-23",
              "end_date": "1929-12-20"
            },
            {
              "name": "Schwartz et Cie (Filatures de Laine), act. ord. 500 fr., t.p. (ex-dr., )",
              "start_date": "1923-04-23",
              "end_date": "1929-12-20"
            },
            {
              "name": "Schwartz et Cie (Filatures de Laine), act. ord. 500 fr., t.p. (nos 1 à 40000 et 100001 à 140000)",
              "start_date": "1923-04-23",
              "end_date": "3999-12-31"
            }
          ]
        }
      },
      "listings_stats": {
        "start_date": "1923-04-23"
      },
      "spot_prices_stats": {
        "start_date": "1923-04-23",
        "end_date": "1929-09-30"
      }
    }
  },
  "prices_count": 248,
  "name": "Schwartz et Cie (Filatures de Laine), act. ord. 500 fr., t.p. (ex-dr., )"
}