{
  "id": 9999,
  "name": "Paris official list",
  "children": [
    {
      "id": 77,
      "name": "COMPTANT & TERME & PRIMES",
      "children": [
        {
          "id": 10,
          "name": "RENTES FRANCAISES",
          "notations": [
            {
              "id": 278,
              "name": "4,5% (j du 22 sept) (ancien)",
              "security_id": 208
            },
            {
              "id": 928,
              "name": "4,5% jouissance du 22 mars 1852, non remb.le pendant 10 ans",
              "security_id": 697,
              "spot_prices": [
                96.75,
                97
              ]
            },
            {
              "id": 143606,
              "name": "3% jouissance du 22 juin",
              "security_id": 13031
            },
            {
              "id": 276,
              "name": "4% (jouissance du 22 sept)",
              "security_id": 206
            },
            {
              "id": 279,
              "name": "3% jouissance du 22 décembre",
              "security_id": 209,
              "spot_prices": [
                69,
                68.95,
                68.9,
                68.95,
                69,
                69.05,
                69.1,
                69.05
              ]
            }
          ]
        },
        {
          "id": 574,
          "name": "ARTIFICIEL (Bons de Trésor etc)",
          "notations": [
            {
              "id": 444,
              "name": "Bons du Trésor à 2 mois",
              "security_id": 308
            },
            {
              "id": 447,
              "name": "Bons du Trésor à 6 mois",
              "security_id": 311
            },
            {
              "id": 1018,
              "name": "Soc. gén. Crédit mob., j. (Act. de 500 f, 250 f. payés)",
              "security_id": 770,
              "spot_prices": [
                690,
                687.5,
                697.5,
                695
              ]
            },
            {
              "id": 1144,
              "name": "Crédit Foncier de France Promesses d'Obl. 1000 f 3% j. nov. (200 f payés)",
              "security_id": 880
            },
            {
              "id": 443,
              "name": "Bons du Trésor à 4 mois",
              "security_id": 307
            },
            {
              "id": 319,
              "name": "Bons du Trésor",
              "security_id": 210
            },
            {
              "id": 451,
              "name": "Bons du Trésor à 10 mois",
              "security_id": 315
            },
            {
              "id": 1020,
              "name": "Comptoir d'esc., j. jer 1853 (Act de 500 fr, tout payé)",
              "security_id": 621
            },
            {
              "id": 448,
              "name": "Bons du Trésor à 7 mois",
              "security_id": 312
            },
            {
              "id": 452,
              "name": "Bons du Trésor à 11 mois",
              "security_id": 316
            },
            {
              "id": 50204,
              "name": "Bons du Trésor à 12 mois",
              "security_id": 317
            },
            {
              "id": 1142,
              "name": "Crédit Foncier de France 10e d'obl. 4% j. nov.",
              "security_id": 878
            },
            {
              "id": 1143,
              "name": "Crédit Foncier de France 10e d'obl. 3% j. nov.",
              "security_id": 879
            },
            {
              "id": 1017,
              "name": "Crédit fonc. de France, j. jer (Act. de 500 f, 250 f. payés)",
              "security_id": 1341,
              "spot_prices": [
                610
              ]
            },
            {
              "id": 1184,
              "name": "Dép. de la Seine, emprunt 1857 (Oblig. De 9f de rente, 47 f 95 payés)",
              "security_id": 968,
              "spot_prices": [
                207.5
              ]
            },
            {
              "id": 332,
              "name": "Banque de France (actions de la) (jouis. janvier 1852)",
              "security_id": 63,
              "spot_prices": [
                3150,
                3175,
                3130,
                3175,
                3150
              ]
            },
            {
              "id": 445,
              "name": "Bons du Trésor à 3 mois",
              "security_id": 309
            },
            {
              "id": 1141,
              "name": "Crédit Foncier de France Obl., 500 f, 3% j. nov.",
              "security_id": 877
            },
            {
              "id": 1140,
              "name": "Créd. fon. de France Obl., 500 f, 4% j. nov. ",
              "security_id": 876,
              "spot_prices": [
                457.5
              ]
            }
          ]
        },
        {
          "id": 67,
          "name": "SECTOR ARTIFICIEL [= FONDS ETRANGERS]",
          "notations": [
            {
              "id": 1186,
              "name": "Emprunt Portugais, 3%",
              "security_id": 803
            },
            {
              "id": 786,
              "name": "Piémont. 5% (jouissance juillet)",
              "security_id": 577,
              "spot_prices": [
                89.5
              ]
            },
            {
              "id": 933,
              "name": "Autrichien, 5%, j. jer 1853 (tout payé)",
              "security_id": 702
            },
            {
              "id": 1015,
              "name": "Piémontais 1853 3%, j. janvier 1853 (1/6 payé, soit 115 f.)",
              "security_id": 767
            }
          ]
        },
        {
          "id": 68,
          "name": "SECTOR ARTIFICIEL [=CHEMINS DE FER (actions)]",
          "notations": [
            {
              "id": 934,
              "name": "Ouest (action de 500 fr., 250 fr payés)",
              "security_id": 703,
              "spot_prices": [
                622.5,
                620
              ]
            },
            {
              "id": 2084,
              "name": "Ardennes et l'Oise 250 f payés j jet",
              "security_id": 892
            },
            {
              "id": 24093,
              "name": "Nord (actions de 500 fr, dont 400 fr payé)",
              "security_id": 374,
              "spot_prices": [
                940,
                945,
                950
              ]
            },
            {
              "id": 1085,
              "name": "Lyon à Genève (Act de 500 f, 200 f payés) ",
              "security_id": 792
            },
            {
              "id": 1155,
              "name": "Société Autrichienne (Act. de 500 fr, 150 fr payés)",
              "security_id": 891,
              "spot_prices": [
                642.5,
                643.75
              ]
            },
            {
              "id": 2598,
              "name": "Nord, act. nouvelles, j. Jet (Emission à 575 f., 200 f. payés) [Nord, act. nles 200 f p., j. 1er jet] ",
              "security_id": 1489,
              "spot_prices": [
                800,
                802.5
              ]
            },
            {
              "id": 143702,
              "name": "Orléans (actions de 500 fr tout payé)",
              "security_id": 10456,
              "spot_prices": [
                1305
              ]
            },
            {
              "id": 2095,
              "name": "Bordeaux à la Teste (actions de 500 fr tout payé)",
              "security_id": 37
            },
            {
              "id": 2091,
              "name": "Dauphiné, j jer (Act de 500 f, 250 f payés)",
              "security_id": 855,
              "spot_prices": [
                525
              ]
            },
            {
              "id": 2083,
              "name": "Ardennes et l'Oise, j. jer 57 (Tout payé)",
              "security_id": 974,
              "spot_prices": [
                450
              ]
            },
            {
              "id": 32,
              "name": "Versailles (rive gauche) (actions de 500 fr tout payé)",
              "security_id": 29
            },
            {
              "id": 968,
              "name": "Midi (action de 500 fr., 250 fr payés)",
              "security_id": 733,
              "spot_prices": [
                540
              ]
            },
            {
              "id": 2086,
              "name": "Paris à Lyon et Méditerr. (Tout payé)",
              "security_id": 977,
              "spot_prices": [
                802.5,
                805
              ]
            },
            {
              "id": 1042,
              "name": "Est jouiss novembre 1857",
              "security_id": 981,
              "spot_prices": [
                687.5,
                685,
                686.25
              ]
            },
            {
              "id": 143743,
              "name": "Orleans nouvle, j. oct. 1852",
              "security_id": 13168
            },
            {
              "id": 1016,
              "name": "Graissessac à Beziers (Act. de 500 f, 200 f. payés)",
              "security_id": 768,
              "spot_prices": [
                165,
                170,
                167.5
              ]
            },
            {
              "id": 2003,
              "name": "Victor Emmanuel, j déc 1855 (Act. de 500 f, 100 f payés)",
              "security_id": 834,
              "spot_prices": [
                420,
                417.5
              ]
            },
            {
              "id": 2092,
              "name": "Bessèges à Alais, t.p.",
              "security_id": 983
            },
            {
              "id": 2089,
              "name": "Grande Compagnie Russes (Act 500 f, 150 f payés) ",
              "security_id": 979
            }
          ]
        }
      ]
    },
    {
      "id": 78,
      "name": "COMPTANT [ARTIFICIEL]",
      "children": [
        {
          "id": 70,
          "name": "OBLIGATIONS",
          "notations": [
            {
              "id": 24092,
              "name": "Havre 1848 6%",
              "security_id": 388
            },
            {
              "id": 527,
              "name": "Rouen 1847-1849, 5%",
              "security_id": 391
            },
            {
              "id": 929,
              "name": "Ouest 1852-1854 (tout payé) (rembours. à 1250 fr)",
              "security_id": 698
            },
            {
              "id": 941,
              "name": "Orléans 1852, jouis.oct.1852",
              "security_id": 710,
              "spot_prices": [
                288.75,
                290,
                291.25
              ]
            },
            {
              "id": 2108,
              "name": "Ouest 1855 4% j jer (Int. 20 f gar par l'Etat) – Rembours. à 500 fr",
              "security_id": 999
            },
            {
              "id": 415,
              "name": "St. Germain (anc. 5%) (1838-1840)",
              "security_id": 268
            },
            {
              "id": 517,
              "name": "Rouen 1845 4%",
              "security_id": 381
            },
            {
              "id": 518,
              "name": "Havre 1846 5%",
              "security_id": 382
            },
            {
              "id": 2011,
              "name": "G.-Central, 1855, 180 f. pay. j. jet, r. 500 f",
              "security_id": 902,
              "spot_prices": [
                285
              ]
            },
            {
              "id": 2118,
              "name": "Ob. Dauphiné, 3% j. jer t p Int. 3% gar par l'Etat",
              "security_id": 1009,
              "spot_prices": [
                287.5
              ]
            },
            {
              "id": 523,
              "name": "Marseille 1850 remb en 1250 f d. 1000 int 5% gar par l'Etat",
              "security_id": 387
            },
            {
              "id": 866,
              "name": "Nord, (500 fr.), 3%",
              "security_id": 640,
              "spot_prices": [
                290
              ]
            },
            {
              "id": 1045,
              "name": "Ouest 1853 oblig. 1000 f., 250 f. pay. j. jt (rembours. à 1250 fr)",
              "security_id": 797
            },
            {
              "id": 1120,
              "name": "Est, 1852-54-56, remb. À 650f",
              "security_id": 860,
              "spot_prices": [
                475
              ]
            },
            {
              "id": 2016,
              "name": "Ouest 1855, rembours. à 500 f, t pay, j. juillet (Int gar. par l'Etat)",
              "security_id": 907,
              "spot_prices": [
                286.25,
                287.5
              ]
            },
            {
              "id": 2111,
              "name": "Midi 3% j jer 1856, t pay. - Rembours à 500 fr",
              "security_id": 1002,
              "spot_prices": [
                286.25
              ]
            },
            {
              "id": 2004,
              "name": "G.-Central, 1854, j. jt, t.p., r. 500 f",
              "security_id": 895,
              "spot_prices": [
                285
              ]
            },
            {
              "id": 1119,
              "name": "Rhone et Loire 3% j jet 55 – Rem. 500 f (int 15 f g. par l'Etat)",
              "security_id": 906
            },
            {
              "id": 2120,
              "name": "Lyon et Méditer 3% j jer 1858 [= Paris-Lyon-Médit. 3% j jer 1858]",
              "security_id": 1011,
              "spot_prices": [
                287.5,
                288.75,
                290,
                291.25,
                292.5
              ]
            },
            {
              "id": 418,
              "name": "Strasbourg à Bale, obl de 1250 f",
              "security_id": 285
            },
            {
              "id": 2109,
              "name": "Bourbonnais, 3% (j. jr gr. pr.) (Rembours. à 500 fr.) (garanties par Lyon, Orléans et Grand Central)",
              "security_id": 1000,
              "spot_prices": [
                287.5
              ]
            },
            {
              "id": 2113,
              "name": "St-Germain 1842-49 j jet 56 – Remboursable à 1250 fr",
              "security_id": 1004
            },
            {
              "id": 2115,
              "name": "Est, 3%, 100 f. pay., j. déc. 56 – Remboursable à 500 f",
              "security_id": 1006,
              "spot_prices": [
                286.25,
                287.5,
                290
              ]
            },
            {
              "id": 417,
              "name": "Versailles (Rive droite) de 1843, de 1250 fr (5%)",
              "security_id": 284
            },
            {
              "id": 860,
              "name": "Orléans 1842 5% (jouissance janvier) (Remboursable à 1250 fr)",
              "security_id": 635
            },
            {
              "id": 943,
              "name": "Bale, 5% j. mai 1852 125 f payés remb à 625 f",
              "security_id": 712
            },
            {
              "id": 1116,
              "name": "Lyon, 5%, j oct 1853 (Remboursable à 1250 fr)",
              "security_id": 856,
              "spot_prices": [
                1010
              ]
            },
            {
              "id": 1118,
              "name": "Rhone et Loire 5% j jet 55 – Rem. 625 f (int 25 f g. par l'Etat)",
              "security_id": 858
            },
            {
              "id": 2105,
              "name": "Lyon à Genève, 1857, j jr 57 - Remboursable à 500 f",
              "security_id": 996,
              "spot_prices": [
                282.5
              ]
            },
            {
              "id": 2117,
              "name": "Ardennes, 3% t p j jet",
              "security_id": 1008,
              "spot_prices": [
                281.25
              ]
            },
            {
              "id": 1189,
              "name": "Orléans 1848 5% (jouissance janvier) (Remboursable à 1250 fr)",
              "security_id": 636
            },
            {
              "id": 1044,
              "name": "Versailles (rd) 5% 1839, remb. à 1000 f., j. jer 1853",
              "security_id": 796
            },
            {
              "id": 2119,
              "name": "Bessèges à Alais 3%",
              "security_id": 1010,
              "spot_prices": [
                257.5,
                260
              ]
            },
            {
              "id": 969,
              "name": "Méditerranée, 160 f pay j d'octobre int 25 et remb gar par l'Etat",
              "security_id": 734
            },
            {
              "id": 970,
              "name": "Méditerr. 1852-55, 3%, g. pr l'Etat, t.payé j. jet – Remb à 500 f",
              "security_id": 735
            },
            {
              "id": 2008,
              "name": "Lyon à Genève, 1855, j jr 57 - Remboursable à 500 f",
              "security_id": 899,
              "spot_prices": [
                286.25
              ]
            },
            {
              "id": 2012,
              "name": "Lyon 1855 (Remboursable à 500 fr)",
              "security_id": 903,
              "spot_prices": [
                293.75
              ]
            },
            {
              "id": 2107,
              "name": "Ouest 1855 tout pay. j dec. (Int. gar. par l'Etat) – Remb. à 1250 fr.",
              "security_id": 998
            }
          ]
        },
        {
          "id": 71,
          "name": "VILLE",
          "notations": [
            {
              "id": 1112,
              "name": "Oblig. 1852, j. jer 1853 (5%)",
              "security_id": 765
            },
            {
              "id": 1113,
              "name": "Oblig. 1849, j. oct. 1852 (5%)",
              "security_id": 764
            },
            {
              "id": 24096,
              "name": "Ville de Paris, blig.1855 (100 f payés)",
              "security_id": 13096,
              "spot_prices": [
                430
              ]
            },
            {
              "id": 1190,
              "name": "3 Ponts, annuités municipales",
              "security_id": 583
            },
            {
              "id": 1121,
              "name": "Caisse de la Boulangerie (Bons)",
              "security_id": 863
            }
          ]
        },
        {
          "id": 579,
          "name": "ARTIFICIEL"
        },
        {
          "id": 72,
          "name": "CANAUX",
          "notations": [
            {
              "id": 2127,
              "name": "Roanne à Digoin",
              "security_id": 265
            },
            {
              "id": 24090,
              "name": "4 canaux act de jouissance",
              "security_id": 171
            },
            {
              "id": 2128,
              "name": "Arles à Bouc",
              "security_id": 1019
            },
            {
              "id": 295,
              "name": "4 canaux et c.p. (= coupon de prime)",
              "security_id": 107
            },
            {
              "id": 312,
              "name": "Canal de Bourgogne Act. de jouissance 1/27200",
              "security_id": 198
            },
            {
              "id": 158412,
              "name": "Canal de Bourgogne Act de 1000 f 5%",
              "security_id": 196
            }
          ]
        },
        {
          "id": 73,
          "name": "COMPAGNIES ANONYMES",
          "notations": [
            {
              "id": 2020,
              "name": "Société de la rue de Rivoli (Actions de 100 f, tout payé)",
              "security_id": 923,
              "spot_prices": [
                102.5,
                101.25
              ]
            },
            {
              "id": 1191,
              "name": "Caisse hypothecaire (ex 11° répartition)",
              "security_id": 175
            },
            {
              "id": 535,
              "name": "Fils et tissus de lins de Maberly",
              "security_id": 399
            },
            {
              "id": 1192,
              "name": "L'Union, assur. vie",
              "security_id": 1025
            }
          ]
        },
        {
          "id": 74,
          "name": "FONDS ETRANGERS (2° Partie)",
          "notations": [
            {
              "id": 426,
              "name": "2,5% Hollandais cert. franç., (jouissance du 22 janvier)",
              "security_id": 255
            },
            {
              "id": 994,
              "name": "Emprunt Belge 2,5% (jouissance juillet 1851)",
              "security_id": 367
            },
            {
              "id": 143742,
              "name": "Banque Belge 1835, j.anr.1853 nouvelle 1841",
              "security_id": 13167
            },
            {
              "id": 424,
              "name": "Espagne, Dette passive sans intéret",
              "security_id": 262
            },
            {
              "id": 425,
              "name": "Espagne 3% 1841 (jouiss de janvier)",
              "security_id": 298
            },
            {
              "id": 983,
              "name": "Emprunt Belge 4,5% (jouis. nov.)",
              "security_id": 368,
              "spot_prices": [
                99.75
              ]
            },
            {
              "id": 1005,
              "name": "Emprunt Romain, j. déc 1850",
              "security_id": 575,
              "spot_prices": [
                90.75
              ]
            },
            {
              "id": 875,
              "name": "Espagne, Dette diff convertie",
              "security_id": 649
            },
            {
              "id": 996,
              "name": "Emprunt Belge 3% (jouis. fevr. 1851)",
              "security_id": 301
            },
            {
              "id": 999,
              "name": "Rente de Naples récépissés de Rothschild (jouis. juillet 1851)",
              "security_id": 366
            },
            {
              "id": 947,
              "name": "Empt Grec, j. mars 1852",
              "security_id": 716
            },
            {
              "id": 430,
              "name": "Emprunt d'Haiti j. janvier 1844",
              "security_id": 145
            },
            {
              "id": 422,
              "name": "Espagne. Dette active, jouiss. de mai 1836",
              "security_id": 260
            },
            {
              "id": 427,
              "name": "Banque Belge 1835 (j. avr. 1854)",
              "security_id": 273
            },
            {
              "id": 537,
              "name": "Espagne 3% dette intérieure",
              "security_id": 401
            },
            {
              "id": 998,
              "name": "Emprunt Belge 1852 (5%)",
              "security_id": 700
            },
            {
              "id": 2022,
              "name": "Emprunt Turc 1854",
              "security_id": 913
            },
            {
              "id": 143719,
              "name": "Espagne, Dette passive nouvelle",
              "security_id": 13144
            }
          ]
        },
        {
          "id": 576,
          "name": "VALEURS DIVERSES",
          "notations": [
            {
              "id": 1255,
              "name": "Lits militaires, 1000f.j.d'avr.",
              "security_id": 491
            },
            {
              "id": 801,
              "name": "Mines de la Loire oblig.",
              "security_id": 559
            },
            {
              "id": 2068,
              "name": "Messag Imp services maritim.",
              "security_id": 959
            },
            {
              "id": 2157,
              "name": "C. fer Saragosse, Obl. 500 f. 3%, j. jer",
              "security_id": 1048,
              "spot_prices": [
                247.5
              ]
            },
            {
              "id": 2160,
              "name": "Ch. fer du Dauphiné, j. jer, 300 f. p.",
              "security_id": 1051
            },
            {
              "id": 1226,
              "name": "Cohin et Comp",
              "security_id": 612
            },
            {
              "id": 1377,
              "name": "Ce gle des Eaux, j. jer t. pay.",
              "security_id": 850
            },
            {
              "id": 2156,
              "name": "Ch. fer de Saragosse",
              "security_id": 985,
              "spot_prices": [
                477.5,
                480
              ]
            },
            {
              "id": 2194,
              "name": "Espag. 3], extre, 1857, j. déc. 57",
              "security_id": 1085
            },
            {
              "id": 1256,
              "name": "Mines de la Loire (jouissance avril et octobre)",
              "security_id": 1112
            },
            {
              "id": 488,
              "name": "Oblig. du Piemont 1834, jouissance de juillet",
              "security_id": 352
            },
            {
              "id": 1275,
              "name": "Société Béchet",
              "security_id": 521
            },
            {
              "id": 2196,
              "name": "Fo-Américe, t. payé, j. juin 1856 (estamp.)",
              "security_id": 1087
            },
            {
              "id": 2202,
              "name": "Forges de Châtillon j. oct.",
              "security_id": 1093
            },
            {
              "id": 2230,
              "name": "Ob. Béziers 3%, r. 250 f., j. nov. 56",
              "security_id": 1121,
              "spot_prices": [
                110
              ]
            },
            {
              "id": 2243,
              "name": "Ports de Marseille, tout payé.",
              "security_id": 1134
            },
            {
              "id": 2253,
              "name": "Union fre et inde St-Paul et Ce (Act. 500 f., 250 f. payés)",
              "security_id": 1144,
              "spot_prices": [
                445,
                450
              ]
            },
            {
              "id": 822,
              "name": "Espagne intérieure, 3% p.coup., j. janvier (P coup. = petites coupures)",
              "security_id": 605
            },
            {
              "id": 1098,
              "name": "Zinc V-Montagne Obl 500 f 5% j jr 1854",
              "security_id": 843
            },
            {
              "id": 1236,
              "name": "Emprunt Toscan 3%",
              "security_id": 926
            },
            {
              "id": 1248,
              "name": "Liste civile, j mai 1855",
              "security_id": 938
            },
            {
              "id": 2061,
              "name": "Ce Impérle des voitures de Paris (Act de 100 f remb à 125 f tout pay)",
              "security_id": 952,
              "spot_prices": [
                33.75
              ]
            },
            {
              "id": 2072,
              "name": "Ce Parisienne d'éclairage et chauffe pr le Gaz (Act 100/10,000)",
              "security_id": 963,
              "spot_prices": [
                765
              ]
            },
            {
              "id": 2153,
              "name": "C. fer Nord-Est Suisse act. 500f, t. p.",
              "security_id": 1044
            },
            {
              "id": 2180,
              "name": "Gaz gle de Paris, ac. 500 f. 375 f. p.",
              "security_id": 1071,
              "spot_prices": [
                460
              ]
            },
            {
              "id": 2234,
              "name": "Ob. Lomb. 3%, j. jt, r. 500 f. 210 f. p.",
              "security_id": 1125,
              "spot_prices": [
                261.25
              ]
            },
            {
              "id": 2235,
              "name": "Obl. Manage à Erquelines",
              "security_id": 1126
            },
            {
              "id": 2245,
              "name": "Soc. Gle de produits chimiques de Clichy-la-Garene, act. 100 f.",
              "security_id": 1136
            },
            {
              "id": 2185,
              "name": "Compr Bonnard et Ce, a. 100 f t. p.",
              "security_id": 5184,
              "spot_prices": [
                77.5
              ]
            },
            {
              "id": 913,
              "name": "Piémont Anglais 5% [Piemont certif anglais 5%]",
              "security_id": 683
            },
            {
              "id": 2169,
              "name": "Caisse générale des Chemins de fer, j. jer",
              "security_id": 1060,
              "spot_prices": [
                305
              ]
            },
            {
              "id": 2209,
              "name": "Ch. fer Carmeaux-Toulse (act. De 150 f, tout payé.)",
              "security_id": 1100
            },
            {
              "id": 2140,
              "name": "Acier. Jackson, Petin, Gaudet, Ce",
              "security_id": 1773
            },
            {
              "id": 1209,
              "name": "Caisse Lécuyer (jouissance janvier - juillet)",
              "security_id": 6165
            },
            {
              "id": 2212,
              "name": "Orléans (Act. De jouissance)",
              "security_id": 481
            },
            {
              "id": 779,
              "name": "Oblig. du Piémont 1849",
              "security_id": 570
            },
            {
              "id": 1003,
              "name": "Ch.de fer Central Suisse",
              "security_id": 759
            },
            {
              "id": 1215,
              "name": "Ce Cavé, act. 250 f t payé, j jet",
              "security_id": 875
            },
            {
              "id": 1270,
              "name": "Oblig. Ville de Marseille, j jr 55",
              "security_id": 930
            },
            {
              "id": 143744,
              "name": "Mines d'Aubin",
              "security_id": 935
            },
            {
              "id": 2054,
              "name": "Société générale des Omnibus",
              "security_id": 945,
              "spot_prices": [
                848.75
              ]
            },
            {
              "id": 2056,
              "name": "L'Union des Gaz, act de 250 f (200 f pay)",
              "security_id": 947
            },
            {
              "id": 2066,
              "name": "Ch de fer Ouest Suisse, 250 f pay",
              "security_id": 957
            },
            {
              "id": 2187,
              "name": "Cse cle de l'Industrie, ac 100 f tp [Cse cle de l'Ind, ac 100 f tp]",
              "security_id": 1078,
              "spot_prices": [
                95
              ]
            },
            {
              "id": 2193,
              "name": "Emprunt Russe, 4,5%, 1850, j. jer 57",
              "security_id": 1084
            },
            {
              "id": 2239,
              "name": "Omnib. De Londres, a. 100 f., t. p.",
              "security_id": 1130
            },
            {
              "id": 1243,
              "name": "Grand Central de France",
              "security_id": 731
            },
            {
              "id": 9723,
              "name": "Banque de Darmstadt",
              "security_id": 823
            },
            {
              "id": 1099,
              "name": "Zinc de Silésie, j oct 1853 (Act de 100 th, soit 375 f, tout pay)",
              "security_id": 844
            },
            {
              "id": 2048,
              "name": "Ob. d'autrich., 200f p. j. sep. 55",
              "security_id": 939,
              "spot_prices": [
                277.5,
                276.25,
                277.5
              ]
            },
            {
              "id": 2146,
              "name": "Alliance Anglo-Francaise (caisee act.500f tout paye, .mars",
              "security_id": 1037
            },
            {
              "id": 2150,
              "name": "Ch. fer Lomb.-Vénitiens, j. jer 1857 (act. De 500 f. 150 f. payés.)",
              "security_id": 1041,
              "spot_prices": [
                587.5
              ]
            },
            {
              "id": 2158,
              "name": "Ch de fer Tarragone à Reuss (Act de 250 f, tout payé)",
              "security_id": 1049
            },
            {
              "id": 2161,
              "name": "Ch. fer François-Joseph, j. jer 57 (Act. De 500 f., 150 f. payés",
              "security_id": 1052,
              "spot_prices": [
                477.5,
                475,
                477.5,
                480
              ]
            },
            {
              "id": 2164,
              "name": "Caisse d'Escompte Prost et Ce, t. p.",
              "security_id": 1055
            },
            {
              "id": 2179,
              "name": "Ce Parise d'éclaire pr le gaz, Oblig. J. juillet 1858",
              "security_id": 1070,
              "spot_prices": [
                405
              ]
            },
            {
              "id": 2183,
              "name": "Clippers, act. Nouvelles",
              "security_id": 1074
            },
            {
              "id": 1242,
              "name": "Glaces de Montluçon",
              "security_id": 1098
            },
            {
              "id": 2252,
              "name": "Télégraphe sous-marin, j. sept. (Act. 500 fr., tout payé).",
              "security_id": 1143
            },
            {
              "id": 2049,
              "name": "Cie Générale Maritime (100 f. payés)",
              "security_id": 1284
            },
            {
              "id": 551,
              "name": "Zinc V-Montagne (= Vieille Montagne) (10me d'action)",
              "security_id": 325,
              "spot_prices": [
                350
              ]
            },
            {
              "id": 997,
              "name": "Oblig. Piémont 1851, 4% (j. d'août)",
              "security_id": 674
            },
            {
              "id": 2168,
              "name": "Cail, act. 500 f., t. p. j. avril",
              "security_id": 684
            },
            {
              "id": 1380,
              "name": "Empr. Autrichien, florins",
              "security_id": 960
            },
            {
              "id": 2155,
              "name": "C. fer Romains, act. 500 f., 150 f. p.",
              "security_id": 987
            }
          ]
        }
      ]
    }
  ],
  "date": "1858-08-16",
  "stock_exchange": {
    "id": 1,
    "name": "Paris (Official List)"
  }
}