{
  "id": 9999,
  "name": "Paris official list",
  "children": [
    {
      "id": 77,
      "name": "COMPTANT & TERME & PRIMES",
      "children": [
        {
          "id": 10,
          "name": "RENTES FRANCAISES",
          "notations": [
            {
              "id": 276,
              "name": "4% (jouissance du 22 mars)",
              "security_id": 206,
              "spot_prices": [
                73
              ]
            },
            {
              "id": 278,
              "name": "4,5% (j du 22 mars)",
              "security_id": 208
            },
            {
              "id": 143584,
              "name": "5% jouiss.du 22 sept.1845",
              "security_id": 13009
            },
            {
              "id": 143606,
              "name": "3% jouissance du 22 juin",
              "security_id": 13031
            },
            {
              "id": 279,
              "name": "3% jouissance du 22 décembre",
              "security_id": 209,
              "spot_prices": [
                57.7,
                57.6,
                57.65,
                57.6,
                57.65
              ]
            }
          ]
        },
        {
          "id": 574,
          "name": "ARTIFICIEL (Bons de Trésor etc)",
          "notations": [
            {
              "id": 444,
              "name": "Bons du Trésor à 2 mois",
              "security_id": 308
            },
            {
              "id": 447,
              "name": "Bons du Trésor à 6 mois",
              "security_id": 311
            },
            {
              "id": 443,
              "name": "Bons du Trésor à 4 mois",
              "security_id": 307
            },
            {
              "id": 319,
              "name": "Bons du Trésor",
              "security_id": 210
            },
            {
              "id": 451,
              "name": "Bons du Trésor à 10 mois",
              "security_id": 315
            },
            {
              "id": 448,
              "name": "Bons du Trésor à 7 mois",
              "security_id": 312
            },
            {
              "id": 449,
              "name": "Bons du Trésor à 8 mois",
              "security_id": 313
            },
            {
              "id": 452,
              "name": "Bons du Trésor à 11 mois",
              "security_id": 316
            },
            {
              "id": 50204,
              "name": "Bons du Trésor à 12 mois",
              "security_id": 317
            },
            {
              "id": 332,
              "name": "Act. de la Banque de France",
              "security_id": 63,
              "spot_prices": [
                2275
              ]
            },
            {
              "id": 446,
              "name": "Bons du Trésor à 5 mois",
              "security_id": 310
            },
            {
              "id": 442,
              "name": "Bons du Trésor à 1 mois",
              "security_id": 306
            },
            {
              "id": 445,
              "name": "Bons du Trésor à 3 mois",
              "security_id": 309
            },
            {
              "id": 450,
              "name": "Bons du Trésor à 9 mois",
              "security_id": 314
            }
          ]
        },
        {
          "id": 67,
          "name": "FONDS ETRANGERS",
          "notations": [
            {
              "id": 403,
              "name": "Emprunt Belge 5% 1840 (jouissance novembre)",
              "security_id": 291,
              "spot_prices": [
                101
              ]
            },
            {
              "id": 504,
              "name": "Emprunt Belge 4,5%",
              "security_id": 368
            },
            {
              "id": 786,
              "name": "Emp. Piémont. 5%",
              "security_id": 577,
              "spot_prices": [
                85,
                84.9,
                84.95,
                85
              ]
            },
            {
              "id": 784,
              "name": "Emprunt Romain, j. déc 1849",
              "security_id": 575,
              "spot_prices": [
                78.625,
                78.5,
                78.75
              ]
            },
            {
              "id": 502,
              "name": "Rente de Naples récépissés de Rothschild",
              "security_id": 366
            },
            {
              "id": 503,
              "name": "Emp. Belge 2,5% j. janvier",
              "security_id": 367
            },
            {
              "id": 409,
              "name": "Emprunt Belge 5% 1842",
              "security_id": 297,
              "spot_prices": [
                101
              ]
            },
            {
              "id": 437,
              "name": "Emprunt Belge 3%",
              "security_id": 301
            }
          ]
        },
        {
          "id": 68,
          "name": "CHEMINS DE FER (actions)",
          "notations": [
            {
              "id": 34,
              "name": "Paris à Rouen, j. d'avril 1844",
              "security_id": 31,
              "spot_prices": [
                610
              ]
            },
            {
              "id": 508,
              "name": "Montereau à Troyes",
              "security_id": 446
            },
            {
              "id": 29,
              "name": "St. Germain, jouiss d'avril 1844",
              "security_id": 27
            },
            {
              "id": 510,
              "name": "Du Nord",
              "security_id": 374,
              "spot_prices": [
                460,
                461.25,
                460
              ]
            },
            {
              "id": 514,
              "name": "Paris à Strasbourg [De l'Est]",
              "security_id": 378,
              "spot_prices": [
                340,
                341.25
              ]
            },
            {
              "id": 143646,
              "name": "Paris à Lyon",
              "security_id": 13071
            },
            {
              "id": 38,
              "name": "Montpellier à Cette",
              "security_id": 35
            },
            {
              "id": 37,
              "name": "Strasbourg a Bale",
              "security_id": 34,
              "spot_prices": [
                117.5
              ]
            },
            {
              "id": 507,
              "name": "Amiens à Boulogne",
              "security_id": 371,
              "spot_prices": [
                186.25
              ]
            },
            {
              "id": 31,
              "name": "Versailles (r. dr.), j. d'av. 1844",
              "security_id": 28
            },
            {
              "id": 505,
              "name": "Paris à Sceaux",
              "security_id": 369
            },
            {
              "id": 512,
              "name": "Dieppe et Fécamp",
              "security_id": 417
            },
            {
              "id": 788,
              "name": "Saint-Etienne à la Loire",
              "security_id": 579
            },
            {
              "id": 32,
              "name": "Versailles (rive gauche)",
              "security_id": 29
            },
            {
              "id": 35,
              "name": "Rouen au Havre",
              "security_id": 32,
              "spot_prices": [
                248.75
              ]
            },
            {
              "id": 36,
              "name": "Marseille à Avignon",
              "security_id": 33
            },
            {
              "id": 40,
              "name": "Bordeaux à la Teste",
              "security_id": 37
            },
            {
              "id": 506,
              "name": "Du Centre",
              "security_id": 370
            },
            {
              "id": 513,
              "name": "Tours à Nantes",
              "security_id": 377,
              "spot_prices": [
                240
              ]
            },
            {
              "id": 509,
              "name": "Bordeaux",
              "security_id": 447,
              "spot_prices": [
                392.5
              ]
            },
            {
              "id": 143702,
              "name": "Orléans, jouiss de janvier 1844",
              "security_id": 10456,
              "spot_prices": [
                780
              ]
            }
          ]
        }
      ]
    },
    {
      "id": 78,
      "name": "COMPTANT [ARTIFICIEL]",
      "children": [
        {
          "id": 70,
          "name": "OBLIGATIONS",
          "notations": [
            {
              "id": 24092,
              "name": "Havre 1848 6%",
              "security_id": 388,
              "spot_prices": [
                892.5
              ]
            },
            {
              "id": 527,
              "name": "Rouen 1847-1849, 5%",
              "security_id": 391
            },
            {
              "id": 517,
              "name": "Rouen, à 4% [Rouen, 1845, 4%]",
              "security_id": 381
            },
            {
              "id": 413,
              "name": "St. Etienne, 5%, .jer 1849 Remb à 1250 f",
              "security_id": 279
            },
            {
              "id": 518,
              "name": "Havre 5% 1250 f [Havre 1846 5%]",
              "security_id": 382
            },
            {
              "id": 523,
              "name": "Marseille 1850 remb en 1250 f d. 1000 int 5% gar par l'Etat",
              "security_id": 387,
              "spot_prices": [
                918.75
              ]
            },
            {
              "id": 521,
              "name": "Paris à Sceaux",
              "security_id": 385
            },
            {
              "id": 860,
              "name": "Orléans 5% (jouissance janvier 1949) (Remboursable à 1250 fr)",
              "security_id": 635
            },
            {
              "id": 414,
              "name": "Versailles (Rive droite) de 1000 fr j. d'av 1844 ",
              "security_id": 271,
              "spot_prices": [
                925
              ]
            },
            {
              "id": 418,
              "name": "Strasbourg à Bale, obl de 1250 f",
              "security_id": 285
            },
            {
              "id": 411,
              "name": "La Teste, 5%, j.jet 1846 Remb à 1250 f",
              "security_id": 286
            },
            {
              "id": 480,
              "name": "Montpellier, 1250f. j. sept. 1844",
              "security_id": 344
            },
            {
              "id": 861,
              "name": "Orléans 5% (jouissance janvier 1949) NOUVELLE",
              "security_id": 636
            },
            {
              "id": 791,
              "name": "Montereau à Troyes",
              "security_id": 582
            },
            {
              "id": 416,
              "name": "S-Germain 1842 5% j.jer 1849 Remb à 1250 f",
              "security_id": 281,
              "spot_prices": [
                925
              ]
            },
            {
              "id": 415,
              "name": "S-Germain anc.5% j.jer 1849",
              "security_id": 268,
              "spot_prices": [
                1100
              ]
            },
            {
              "id": 417,
              "name": "Versailles (r.d),1843,5% j.jer 1849 Remb à 1250 f",
              "security_id": 284,
              "spot_prices": [
                875
              ]
            }
          ]
        },
        {
          "id": 71,
          "name": "FONDS DE LA VILLE et DEPARTEMENT",
          "notations": [
            {
              "id": 529,
              "name": "Obligations du dép de la Seine",
              "security_id": 393,
              "spot_prices": [
                1060
              ]
            },
            {
              "id": 433,
              "name": "Rente 5% (jouissance de janvier)",
              "security_id": 16
            },
            {
              "id": 434,
              "name": "Obligations 4% avec primes (jouissance de janvier)",
              "security_id": 225
            },
            {
              "id": 528,
              "name": "Obligations 1849",
              "security_id": 392,
              "spot_prices": [
                1158.75
              ]
            },
            {
              "id": 792,
              "name": "Annuités municip des 3 Ponts",
              "security_id": 583
            }
          ]
        },
        {
          "id": 72,
          "name": "COMPAGNIES DES CANAUX",
          "notations": [
            {
              "id": 364,
              "name": "Canal d'Aire à la Bassée",
              "security_id": 108
            },
            {
              "id": 314,
              "name": "Canal d'Arles à Bouc Act. de 1000 f 5%",
              "security_id": 233
            },
            {
              "id": 336,
              "name": "3 Canaux et Coupons de prime (jouissance d'avril 1844)",
              "security_id": 237
            },
            {
              "id": 337,
              "name": "3 Canaux action de jouissance (SECT 2, Somme, 1/7350)",
              "security_id": 238
            },
            {
              "id": 341,
              "name": "Canal de jonction de la Sambre",
              "security_id": 242
            },
            {
              "id": 295,
              "name": "4 canaux et coupon de prime (jouissance d'avril 1844)",
              "security_id": 107,
              "spot_prices": [
                1150
              ]
            },
            {
              "id": 365,
              "name": "Roanne a Digoin (1/23000)",
              "security_id": 265
            },
            {
              "id": 339,
              "name": "3 Canaux action de jouissance (SECT 3, Oise, 1/3350)",
              "security_id": 240
            },
            {
              "id": 311,
              "name": "Canal Rhone au Rhin act. de jouissance 1/10000",
              "security_id": 230
            },
            {
              "id": 24090,
              "name": "4 canaux act de jouissance 1/68000",
              "security_id": 171,
              "spot_prices": [
                90
              ]
            },
            {
              "id": 340,
              "name": "Sambre à l'Oise, act de 1000 fr., 5%",
              "security_id": 241
            },
            {
              "id": 481,
              "name": "Arles à Bouc actions de jouissance 1/1000",
              "security_id": 195
            },
            {
              "id": 312,
              "name": "Canal de Bourgogne Act. de jouissance 1/27200",
              "security_id": 198,
              "spot_prices": [
                67.5
              ]
            },
            {
              "id": 315,
              "name": "Canal d'Arles à Bouc Act de jouissance 1/6000",
              "security_id": 193
            },
            {
              "id": 310,
              "name": "Canal Rhone au Rhin Act. de 1000 f 5%",
              "security_id": 229
            },
            {
              "id": 378,
              "name": "Bourgogne (actions de 2500 fr)",
              "security_id": 232
            },
            {
              "id": 338,
              "name": "3 Canaux action de jouissance (SECT 1, Ardennes, 1/8900)",
              "security_id": 239
            },
            {
              "id": 793,
              "name": "4 canaux billets de prime",
              "security_id": 267
            },
            {
              "id": 158412,
              "name": "Canal de Bourgogne Act de 1000 f 5%",
              "security_id": 196
            },
            {
              "id": 435,
              "name": "Sambre à l'Oise (Obligations de 1000 fr. à 5%) (jouissance janvier)",
              "security_id": 299
            }
          ]
        },
        {
          "id": 73,
          "name": "COMPAGNIES ANONYMES",
          "notations": [
            {
              "id": 301,
              "name": "Française du Phénix (jouissance d'avril 1844)",
              "security_id": 85
            },
            {
              "id": 382,
              "name": "Générales d'Assurances (actions INCENDIE)",
              "security_id": 84
            },
            {
              "id": 300,
              "name": "Assurance incendie, rue Ménars, 3",
              "security_id": 87
            },
            {
              "id": 204072,
              "name": "Pont, port et G de Grenelle",
              "security_id": 182
            },
            {
              "id": 381,
              "name": "Caisse hypothecaire (act. de 1000 fr, jouissance de janvier 1844)",
              "security_id": 175
            },
            {
              "id": 143691,
              "name": "Caisse hypothécaire (obligations de 500 fr à 4%)",
              "security_id": 244
            },
            {
              "id": 796,
              "name": "L'Union, actions Incendie",
              "security_id": 201
            },
            {
              "id": 797,
              "name": "L'Union, actions Vie",
              "security_id": 588
            },
            {
              "id": 798,
              "name": "La France, incendie",
              "security_id": 589
            },
            {
              "id": 385,
              "name": "Générale d'Assurances (actions MARITIME)",
              "security_id": 89
            },
            {
              "id": 386,
              "name": "Générale d'Assurances (actions SUR LA VIE)",
              "security_id": 90
            },
            {
              "id": 535,
              "name": "Fils et tissus de lins de Maberly",
              "security_id": 399
            },
            {
              "id": 317,
              "name": "Assurance sur la vie, rue Ménars, 3",
              "security_id": 2790
            }
          ]
        },
        {
          "id": 74,
          "name": "FONDS ETRANGERS (AU COMPTANT)",
          "notations": [
            {
              "id": 420,
              "name": "Emp. Grec, jouiss de sept 1843, certif. anglais",
              "security_id": 250
            },
            {
              "id": 423,
              "name": "Espagne. Dette differee sans intéret",
              "security_id": 261,
              "spot_prices": [
                25.625
              ]
            },
            {
              "id": 424,
              "name": "Espagne, Dette passive sans intéret",
              "security_id": 262
            },
            {
              "id": 430,
              "name": "Emprunt d'Haiti",
              "security_id": 145
            },
            {
              "id": 419,
              "name": "Emp. Grec, jouiss de sept 1843, certif. franç.",
              "security_id": 249
            },
            {
              "id": 421,
              "name": "Emp. Grec, jouiss de sept 1843, certif. russe",
              "security_id": 251
            },
            {
              "id": 431,
              "name": "Portugal, 5% jouiss de juin 1837",
              "security_id": 252
            },
            {
              "id": 426,
              "name": "2,5% Hollandais cert. franç., j. du 22 janv 1844",
              "security_id": 255
            },
            {
              "id": 422,
              "name": "Espagne. Dette active, jouiss. de mai 1836",
              "security_id": 260
            },
            {
              "id": 427,
              "name": "Banque Belge 1835, jouiss de janv 1844",
              "security_id": 273
            },
            {
              "id": 429,
              "name": "Banque Belge 1841, jouiss de janv 1844",
              "security_id": 296
            },
            {
              "id": 537,
              "name": "Espagne 3% dette intérieure",
              "security_id": 401,
              "spot_prices": [
                34.75
              ]
            },
            {
              "id": 425,
              "name": "Espagne. 3% 1841 jouiss de janvier 1844",
              "security_id": 298,
              "spot_prices": [
                38.875
              ]
            }
          ]
        },
        {
          "id": 576,
          "name": "VALEURS DIVERSES",
          "notations": [
            {
              "id": 826,
              "name": "Mines et Forges d'Aubin, act.c.",
              "security_id": 541
            },
            {
              "id": 801,
              "name": "Mines de la Loire oblig.",
              "security_id": 559
            },
            {
              "id": 831,
              "name": "Industrie Liniaire, Cohin et C.",
              "security_id": 612
            },
            {
              "id": 848,
              "name": "Ch. De fer de Charleroi",
              "security_id": 726
            },
            {
              "id": 143583,
              "name": "Théâtre historique",
              "security_id": 13008
            },
            {
              "id": 668,
              "name": "Chemin de fer d'Orleans (act de jouissance)",
              "security_id": 481
            },
            {
              "id": 766,
              "name": "Mines de la Loire",
              "security_id": 558
            },
            {
              "id": 779,
              "name": "Oblig. Du Piémont 1849, j. 1er avril 1849",
              "security_id": 570,
              "spot_prices": [
                935
              ]
            },
            {
              "id": 839,
              "name": "Emprunt Russe, 4,5% lib.",
              "security_id": 619,
              "spot_prices": [
                96.875
              ]
            },
            {
              "id": 840,
              "name": "Emprunt Toscan, 5%",
              "security_id": 620
            },
            {
              "id": 841,
              "name": "Comptoir d'Escompte",
              "security_id": 621
            },
            {
              "id": 489,
              "name": "Lots d'Autriche",
              "security_id": 353
            },
            {
              "id": 677,
              "name": "Zinc Grande montagne",
              "security_id": 487
            },
            {
              "id": 724,
              "name": "Société Béchet",
              "security_id": 521
            },
            {
              "id": 551,
              "name": "Compagnie du Zinc de la Vieille-Montagne",
              "security_id": 325,
              "spot_prices": [
                2750
              ]
            },
            {
              "id": 849,
              "name": "Omnibus (voitures)",
              "security_id": 454
            },
            {
              "id": 822,
              "name": "Dette int. D'Esp. P coup.",
              "security_id": 605,
              "spot_prices": [
                35.25,
                35.5
              ]
            },
            {
              "id": 647,
              "name": "Houille Monceau sur Sambre",
              "security_id": 837
            },
            {
              "id": 746,
              "name": "Mines et Fonderies Zinc de Stolberg",
              "security_id": 919
            },
            {
              "id": 488,
              "name": "Obligations du Piemont, jouissance de juillet",
              "security_id": 352,
              "spot_prices": [
                980
              ]
            },
            {
              "id": 832,
              "name": "Zinc V-Montagne 5E",
              "security_id": 540
            },
            {
              "id": 827,
              "name": "Mines et Forges d'Aubin, act.je",
              "security_id": 609
            },
            {
              "id": 836,
              "name": "Marseille, 1847 6%",
              "security_id": 616,
              "spot_prices": [
                1060
              ]
            },
            {
              "id": 673,
              "name": "Société Baudon",
              "security_id": 485
            },
            {
              "id": 682,
              "name": "Lits Militaires, obl. 1000 f",
              "security_id": 491,
              "spot_prices": [
                885,
                890
              ]
            },
            {
              "id": 829,
              "name": "La Paternelle (assur. Incendie)",
              "security_id": 553
            },
            {
              "id": 811,
              "name": "Zinc Chazotte",
              "security_id": 593
            },
            {
              "id": 846,
              "name": "H.G. Combe, j. Jer 1848 obl. N. ",
              "security_id": 624
            },
            {
              "id": 857,
              "name": "Emp. Hyp. De l'anc. Liste civ. [Liste civile]",
              "security_id": 632,
              "spot_prices": [
                1020
              ]
            }
          ]
        }
      ]
    }
  ],
  "date": "1850-09-30",
  "stock_exchange": {
    "id": 1,
    "name": "Paris (Official List)"
  }
}