{
  "id": 9999,
  "name": "Paris official list",
  "children": [
    {
      "id": 78,
      "name": "COMPTANT [ARTIFICIEL]",
      "children": [
        {
          "id": 10,
          "name": "Effets Publics",
          "notations": [
            {
              "id": 9,
              "name": "Bons de la ville de Paris % longue écheance",
              "security_id": 9,
              "spot_prices": [
                0.625
              ]
            },
            {
              "id": 158411,
              "name": "Actions de la Banque de France (Jouissance du 1er janvier 1811)",
              "security_id": 63,
              "spot_prices": [
                1100,
                1097.5,
                1100
              ]
            },
            {
              "id": 81,
              "name": "5% CONS. jouiss. du 22 Mars 1816.",
              "security_id": 68
            },
            {
              "id": 1,
              "name": "Obligations du Trésor Royal (perte par année)",
              "security_id": 1,
              "spot_prices": [
                3.5
              ]
            },
            {
              "id": 8,
              "name": "5% CONS. jouiss. du 22 sept.",
              "security_id": 65,
              "spot_prices": [
                58,
                58.15,
                58.25,
                58,
                57.9,
                58,
                57.9,
                57.8,
                57.85
              ]
            },
            {
              "id": 19,
              "name": "Act. des Ponts",
              "security_id": 5
            },
            {
              "id": 7,
              "name": "Bons de la ville de Paris % courte écheance",
              "security_id": 7,
              "spot_prices": [
                0.5
              ]
            }
          ]
        }
      ]
    }
  ],
  "date": "1816-09-16",
  "stock_exchange": {
    "id": 1,
    "name": "Paris (Official List)"
  }
}