{
  "id": 9999,
  "name": "Paris official list",
  "children": [
    {
      "id": 77,
      "name": "COMPTANT & TERME & PRIMES",
      "children": [
        {
          "id": 10,
          "name": "RENTES FRANCAISES",
          "notations": [
            {
              "id": 500,
              "name": "Certif. de conversion d'actions de Lyon",
              "security_id": 364
            },
            {
              "id": 143648,
              "name": "5% Empr.1849, j.22 sept.1848, Cert. Omnium",
              "security_id": 13073
            },
            {
              "id": 143649,
              "name": "5% Empr.1849, j.22 sept.1848, ertif.Nus",
              "security_id": 13074
            },
            {
              "id": 276,
              "name": "4% (jouissance du 22 mars)",
              "security_id": 206
            },
            {
              "id": 278,
              "name": "4,5% (j du 22 mars)",
              "security_id": 208
            },
            {
              "id": 143584,
              "name": "5% jouiss.du 22 sept.1845",
              "security_id": 13009
            },
            {
              "id": 143606,
              "name": "3% jouissance du 22 juin",
              "security_id": 13031
            },
            {
              "id": 279,
              "name": "3% jouissance du 22 décembre",
              "security_id": 209,
              "spot_prices": [
                56.9,
                57,
                57.15,
                57.1,
                57.05,
                57,
                57.1,
                57.15,
                57.2,
                57.25,
                57.2,
                57.25,
                57.3
              ]
            }
          ]
        },
        {
          "id": 574,
          "name": "ARTIFICIEL (Bons de Trésor etc)",
          "notations": [
            {
              "id": 444,
              "name": "Bons du Trésor à 2 mois",
              "security_id": 308
            },
            {
              "id": 447,
              "name": "Bons du Trésor à 6 mois",
              "security_id": 311
            },
            {
              "id": 443,
              "name": "Bons du Trésor à 4 mois",
              "security_id": 307
            },
            {
              "id": 319,
              "name": "Bons du Trésor",
              "security_id": 210
            },
            {
              "id": 451,
              "name": "Bons du Trésor à 10 mois",
              "security_id": 315
            },
            {
              "id": 448,
              "name": "Bons du Trésor à 7 mois",
              "security_id": 312
            },
            {
              "id": 449,
              "name": "Bons du Trésor à 8 mois",
              "security_id": 313
            },
            {
              "id": 452,
              "name": "Bons du Trésor à 11 mois",
              "security_id": 316
            },
            {
              "id": 50204,
              "name": "Bons du Trésor à 12 mois",
              "security_id": 317
            },
            {
              "id": 332,
              "name": "Act. de la Banque de France",
              "security_id": 63,
              "spot_prices": [
                2420,
                2425,
                2430,
                2425
              ]
            },
            {
              "id": 446,
              "name": "Bons du Trésor à 5 mois",
              "security_id": 310
            },
            {
              "id": 442,
              "name": "Bons du Trésor à 1 mois",
              "security_id": 306
            },
            {
              "id": 445,
              "name": "Bons du Trésor à 3 mois",
              "security_id": 309
            },
            {
              "id": 450,
              "name": "Bons du Trésor à 9 mois",
              "security_id": 314
            }
          ]
        },
        {
          "id": 67,
          "name": "FONDS ETRANGERS",
          "notations": [
            {
              "id": 222,
              "name": "Emprunt Romain (jouissance de déc 1843)",
              "security_id": 153,
              "spot_prices": [
                77,
                77.25,
                77,
                77.25
              ]
            },
            {
              "id": 403,
              "name": "Emprunt Belge 5% 1840 (jouissance novembre)",
              "security_id": 291
            },
            {
              "id": 504,
              "name": "Emprunt Belge 4,5%",
              "security_id": 368
            },
            {
              "id": 502,
              "name": "Rente de Naples récépissés de Rothschild",
              "security_id": 366
            },
            {
              "id": 503,
              "name": "Emp. Belge 2,5% j. janvier",
              "security_id": 367
            },
            {
              "id": 409,
              "name": "Emprunt Belge 5% 1842",
              "security_id": 297
            },
            {
              "id": 437,
              "name": "Emprunt Belge 3%",
              "security_id": 301
            }
          ]
        },
        {
          "id": 68,
          "name": "CHEMINS DE FER (actions)",
          "notations": [
            {
              "id": 34,
              "name": "Paris à Rouen, j. d'avril 1844",
              "security_id": 31,
              "spot_prices": [
                562.5
              ]
            },
            {
              "id": 508,
              "name": "Montereau à Troyes",
              "security_id": 446,
              "spot_prices": [
                133.75
              ]
            },
            {
              "id": 29,
              "name": "St. Germain, jouiss d'avril 1844",
              "security_id": 27,
              "spot_prices": [
                425,
                430
              ]
            },
            {
              "id": 510,
              "name": "Du Nord",
              "security_id": 374,
              "spot_prices": [
                456.25,
                457.5,
                458.75
              ]
            },
            {
              "id": 514,
              "name": "Paris à Strasbourg [De l'Est]",
              "security_id": 378,
              "spot_prices": [
                373.75,
                372.5,
                373.75
              ]
            },
            {
              "id": 143646,
              "name": "Paris à Lyon",
              "security_id": 13071
            },
            {
              "id": 38,
              "name": "Montpellier à Cette",
              "security_id": 35
            },
            {
              "id": 37,
              "name": "Strasbourg a Bale",
              "security_id": 34,
              "spot_prices": [
                106.25,
                105
              ]
            },
            {
              "id": 39,
              "name": "Saint-Etienne à Lyon",
              "security_id": 36
            },
            {
              "id": 507,
              "name": "Amiens à Boulogne",
              "security_id": 371
            },
            {
              "id": 31,
              "name": "Versailles (r. dr.), j. d'av. 1844",
              "security_id": 28,
              "spot_prices": [
                217.5,
                218.75,
                220
              ]
            },
            {
              "id": 505,
              "name": "Paris à Sceaux",
              "security_id": 369
            },
            {
              "id": 512,
              "name": "Dieppe et Fécamp",
              "security_id": 417,
              "spot_prices": [
                177.5
              ]
            },
            {
              "id": 32,
              "name": "Versailles (rive gauche)",
              "security_id": 29,
              "spot_prices": [
                190,
                187.5,
                188.75,
                187.5,
                190
              ]
            },
            {
              "id": 35,
              "name": "Rouen au Havre",
              "security_id": 32,
              "spot_prices": [
                300
              ]
            },
            {
              "id": 36,
              "name": "Marseille à Avignon",
              "security_id": 33,
              "spot_prices": [
                220,
                221.25
              ]
            },
            {
              "id": 40,
              "name": "Bordeaux à la Teste",
              "security_id": 37
            },
            {
              "id": 506,
              "name": "Du Centre",
              "security_id": 370,
              "spot_prices": [
                362.5
              ]
            },
            {
              "id": 513,
              "name": "Tours à Nantes",
              "security_id": 377,
              "spot_prices": [
                325
              ]
            },
            {
              "id": 509,
              "name": "Bordeaux",
              "security_id": 447,
              "spot_prices": [
                412.5
              ]
            },
            {
              "id": 143702,
              "name": "Orléans, jouiss de janvier 1844",
              "security_id": 10456,
              "spot_prices": [
                862.5
              ]
            }
          ]
        }
      ]
    },
    {
      "id": 78,
      "name": "COMPTANT [ARTIFICIEL]",
      "children": [
        {
          "id": 70,
          "name": "OBLIGATIONS",
          "notations": [
            {
              "id": 24092,
              "name": "Havre 1848 6%",
              "security_id": 388,
              "spot_prices": [
                820
              ]
            },
            {
              "id": 517,
              "name": "Rouen, à 4% [Rouen, 1845, 4%]",
              "security_id": 381
            },
            {
              "id": 413,
              "name": "St. Etienne, 5%, .jer 1849 Remb à 1250 f",
              "security_id": 279
            },
            {
              "id": 518,
              "name": "Havre 5% 1250 f [Havre 1846 5%]",
              "security_id": 382
            },
            {
              "id": 521,
              "name": "Paris à Sceaux",
              "security_id": 385
            },
            {
              "id": 523,
              "name": "Marseille",
              "security_id": 387
            },
            {
              "id": 860,
              "name": "Orléans 5% (jouissance janvier 1949) (Remboursable à 1250 fr)",
              "security_id": 635
            },
            {
              "id": 414,
              "name": "Versailles (Rive droite) de 1000 fr j. d'av 1844 ",
              "security_id": 271
            },
            {
              "id": 418,
              "name": "Strasbourg à Bale, obl de 1250 f",
              "security_id": 285
            },
            {
              "id": 411,
              "name": "La Teste, 5%, j.jet 1846 Remb à 1250 f",
              "security_id": 286
            },
            {
              "id": 480,
              "name": "Montpellier, 1250f. j. sept. 1844",
              "security_id": 344
            },
            {
              "id": 526,
              "name": "Rouen 1849, 12.50",
              "security_id": 390,
              "spot_prices": [
                865,
                870
              ]
            },
            {
              "id": 861,
              "name": "Orléans 5% (jouissance janvier 1949) NOUVELLE",
              "security_id": 636,
              "spot_prices": [
                937.5
              ]
            },
            {
              "id": 416,
              "name": "S-Germain 1842 5% j.jer 1849 Remb à 1250 f",
              "security_id": 281,
              "spot_prices": [
                835,
                840,
                845
              ]
            },
            {
              "id": 415,
              "name": "S-Germain anc.5% j.jer 1849",
              "security_id": 268
            },
            {
              "id": 417,
              "name": "Versailles (r.d),1843,5% j.jer 1849 Remb à 1250 f",
              "security_id": 284
            },
            {
              "id": 525,
              "name": "Rouen 1847 1250 f [Rouen, 1847, 5%]",
              "security_id": 386
            }
          ]
        },
        {
          "id": 71,
          "name": "FONDS de la VILLE",
          "notations": [
            {
              "id": 433,
              "name": "Rente 5% (jouissance de janvier)",
              "security_id": 16
            },
            {
              "id": 434,
              "name": "Obligations 4% avec primes (jouissance de janvier)",
              "security_id": 225,
              "spot_prices": [
                1200
              ]
            }
          ]
        },
        {
          "id": 72,
          "name": "COMPAGNIES DES CANAUX",
          "notations": [
            {
              "id": 364,
              "name": "Canal d'Aire à la Bassée",
              "security_id": 108
            },
            {
              "id": 314,
              "name": "Canal d'Arles à Bouc Act. de 1000 f 5%",
              "security_id": 233
            },
            {
              "id": 336,
              "name": "3 Canaux et Coupons de prime (jouissance d'avril 1844)",
              "security_id": 237
            },
            {
              "id": 337,
              "name": "3 Canaux action de jouissance (SECT 2, Somme, 1/7350)",
              "security_id": 238
            },
            {
              "id": 341,
              "name": "Canal de jonction de la Sambre",
              "security_id": 242
            },
            {
              "id": 295,
              "name": "4 canaux et coupon de prime (jouissance d'avril 1844)",
              "security_id": 107,
              "spot_prices": [
                1050
              ]
            },
            {
              "id": 365,
              "name": "Roanne a Digoin (1/23000)",
              "security_id": 265
            },
            {
              "id": 339,
              "name": "3 Canaux action de jouissance (SECT 3, Oise, 1/3350)",
              "security_id": 240
            },
            {
              "id": 533,
              "name": "4 canaux sans prime",
              "security_id": 266
            },
            {
              "id": 311,
              "name": "Canal Rhone au Rhin act. de jouissance 1/10000",
              "security_id": 230
            },
            {
              "id": 482,
              "name": "Canal de Bourgogne act de jouissance",
              "security_id": 131
            },
            {
              "id": 24090,
              "name": "4 canaux act de jouissance 1/68000",
              "security_id": 171,
              "spot_prices": [
                57.5
              ]
            },
            {
              "id": 340,
              "name": "Sambre à l'Oise, act de 1000 fr., 5%",
              "security_id": 241
            },
            {
              "id": 481,
              "name": "Arles à Bouc actions de jouissance 1/1000",
              "security_id": 195
            },
            {
              "id": 312,
              "name": "Canal de Bourgogne Act. de jouissance 1/27200",
              "security_id": 198
            },
            {
              "id": 315,
              "name": "Canal d'Arles à Bouc Act de jouissance 1/6000",
              "security_id": 193
            },
            {
              "id": 310,
              "name": "Canal Rhone au Rhin Act. de 1000 f 5%",
              "security_id": 229
            },
            {
              "id": 378,
              "name": "Bourgogne (actions de 2500 fr)",
              "security_id": 232
            },
            {
              "id": 338,
              "name": "3 Canaux action de jouissance (SECT 1, Ardennes, 1/8900)",
              "security_id": 239
            },
            {
              "id": 158412,
              "name": "Canal de Bourgogne Act de 1000 f 5%",
              "security_id": 196
            },
            {
              "id": 435,
              "name": "Sambre à l'Oise (Obligations de 1000 fr. à 5%) (jouissance janvier)",
              "security_id": 299
            }
          ]
        },
        {
          "id": 73,
          "name": "COMPAGNIES ANONYMES",
          "notations": [
            {
              "id": 301,
              "name": "Française du Phénix (jouissance d'avril 1844)",
              "security_id": 85
            },
            {
              "id": 382,
              "name": "Générales d'Assurances (actions INCENDIE)",
              "security_id": 84
            },
            {
              "id": 300,
              "name": "Assurance incendie, rue Ménars, 3",
              "security_id": 87
            },
            {
              "id": 536,
              "name": "L'Urbaine",
              "security_id": 400
            },
            {
              "id": 299,
              "name": "3 ponts sur la Seine, jouis de janv.",
              "security_id": 105
            },
            {
              "id": 204072,
              "name": "Pont, port et G de Grenelle",
              "security_id": 182
            },
            {
              "id": 303,
              "name": "L'Union (actions Vie)",
              "security_id": 202
            },
            {
              "id": 399,
              "name": "L'Indemnité",
              "security_id": 287
            },
            {
              "id": 381,
              "name": "Caisse hypothecaire (act. de 1000 fr, jouissance de janvier 1844)",
              "security_id": 175
            },
            {
              "id": 302,
              "name": "L'Union (actions Incendie)",
              "security_id": 201
            },
            {
              "id": 143691,
              "name": "Caisse hypothécaire (obligations de 500 fr à 4%)",
              "security_id": 244
            },
            {
              "id": 385,
              "name": "Générale d'Assurances (actions MARITIME)",
              "security_id": 89
            },
            {
              "id": 386,
              "name": "Générale d'Assurances (actions SUR LA VIE)",
              "security_id": 90
            },
            {
              "id": 535,
              "name": "Fils et tissus de lins de Maberly",
              "security_id": 399
            },
            {
              "id": 317,
              "name": "Assurance sur la vie, rue Ménars, 3",
              "security_id": 2790
            }
          ]
        },
        {
          "id": 74,
          "name": "FONDS ETRANGERS (AU COMPTANT)",
          "notations": [
            {
              "id": 420,
              "name": "Emp. Grec, jouiss de sept 1843, certif. anglais",
              "security_id": 250
            },
            {
              "id": 423,
              "name": "Espagne. Dette differee sans intéret",
              "security_id": 261
            },
            {
              "id": 424,
              "name": "Espagne, Dette passive sans intéret",
              "security_id": 262
            },
            {
              "id": 432,
              "name": "Metallique d'Autriche 5%, j. mars",
              "security_id": 115
            },
            {
              "id": 430,
              "name": "Emprunt d'Haiti",
              "security_id": 145
            },
            {
              "id": 419,
              "name": "Emp. Grec, jouiss de sept 1843, certif. franç.",
              "security_id": 249
            },
            {
              "id": 421,
              "name": "Emp. Grec, jouiss de sept 1843, certif. russe",
              "security_id": 251
            },
            {
              "id": 431,
              "name": "Portugal, 5% jouiss de juin 1837",
              "security_id": 252
            },
            {
              "id": 426,
              "name": "2,5% Hollandais cert. franç., j. du 22 janv 1844",
              "security_id": 255
            },
            {
              "id": 422,
              "name": "Espagne. Dette active, jouiss. de mai 1836",
              "security_id": 260
            },
            {
              "id": 427,
              "name": "Banque Belge 1835, jouiss de janv 1844",
              "security_id": 273
            },
            {
              "id": 429,
              "name": "Banque Belge 1841, jouiss de janv 1844",
              "security_id": 296
            },
            {
              "id": 537,
              "name": "Espagne 3% dette intérieure",
              "security_id": 401,
              "spot_prices": [
                24
              ]
            },
            {
              "id": 428,
              "name": "5% Hollandais, jouiss. du 22 avril 1844",
              "security_id": 289
            },
            {
              "id": 425,
              "name": "Espagne. 3% 1841 jouiss de janvier 1844",
              "security_id": 298,
              "spot_prices": [
                32.75
              ]
            }
          ]
        },
        {
          "id": 576,
          "name": "VALEURS DIVERSES",
          "notations": [
            {
              "id": 642,
              "name": "Ch de fer Mulhouse à Thann",
              "security_id": 331
            },
            {
              "id": 579,
              "name": "Caisse A. Gouin et Cie, j janv",
              "security_id": 416
            },
            {
              "id": 744,
              "name": "Zinc V-Montagne 5E",
              "security_id": 540
            },
            {
              "id": 748,
              "name": "Ch. De Fer Lyon libéré [Ch. De Fer Lyon]",
              "security_id": 544
            },
            {
              "id": 668,
              "name": "Chemin de fer d'Orleans (act de jouissance)",
              "security_id": 481
            },
            {
              "id": 766,
              "name": "Mines de la Loire",
              "security_id": 558,
              "spot_prices": [
                295
              ]
            },
            {
              "id": 768,
              "name": "Ch. De fer Amiens à Boulog., obl.",
              "security_id": 560
            },
            {
              "id": 764,
              "name": "Gaz Mamby-Wilson, j jer",
              "security_id": 656
            },
            {
              "id": 559,
              "name": "Houille de la Grand'Combe, act",
              "security_id": 1259
            },
            {
              "id": 204071,
              "name": "Forges de l'Aveyron",
              "security_id": 328
            },
            {
              "id": 489,
              "name": "Lots d'Autriche",
              "security_id": 353
            },
            {
              "id": 587,
              "name": "Zinc Nouvelle Montagne",
              "security_id": 423
            },
            {
              "id": 677,
              "name": "Zinc Grande montagne",
              "security_id": 487
            },
            {
              "id": 776,
              "name": "Ch. De fer Lyon à Avignon",
              "security_id": 519
            },
            {
              "id": 724,
              "name": "Société Béchet",
              "security_id": 521
            },
            {
              "id": 739,
              "name": "Ch. De Fer Nord libéré",
              "security_id": 535
            },
            {
              "id": 693,
              "name": "Espagne, différés convertis",
              "security_id": 357
            },
            {
              "id": 767,
              "name": "Mines de la Loire oblig.",
              "security_id": 559
            },
            {
              "id": 551,
              "name": "Compagnie du Zinc de la Vieille-Montagne",
              "security_id": 325,
              "spot_prices": [
                2800
              ]
            },
            {
              "id": 691,
              "name": "Portugais convertis",
              "security_id": 356
            },
            {
              "id": 762,
              "name": "Charbons Belges La Grappe",
              "security_id": 520
            },
            {
              "id": 647,
              "name": "Houille Monceau sur Sambre",
              "security_id": 837,
              "spot_prices": [
                1475
              ]
            },
            {
              "id": 746,
              "name": "Mines et Fonderies Zinc de Stolberg",
              "security_id": 919
            },
            {
              "id": 552,
              "name": "Comptoir Ganneron, act de 1000 f",
              "security_id": 303
            },
            {
              "id": 488,
              "name": "Obligations du Piemont, jouissance de juillet",
              "security_id": 352,
              "spot_prices": [
                885
              ]
            },
            {
              "id": 560,
              "name": "Houille de la Grand'Combe, obl",
              "security_id": 336
            },
            {
              "id": 673,
              "name": "Société Baudon",
              "security_id": 485
            },
            {
              "id": 682,
              "name": "Lits Militaires, obl. 1000 f",
              "security_id": 491
            },
            {
              "id": 763,
              "name": "Hirondelles (voitures)",
              "security_id": 555
            }
          ]
        }
      ]
    }
  ],
  "date": "1849-04-16",
  "stock_exchange": {
    "id": 1,
    "name": "Paris (Official List)"
  }
}