{
  "id": 9999,
  "name": "Paris official list",
  "children": [
    {
      "id": 78,
      "name": "COMPTANT [ARTIFICIEL]",
      "children": [
        {
          "id": 10,
          "name": "RENTES FRANCAISES (ARTIFICIEL)",
          "notations": [
            {
              "id": 279,
              "name": "3%, j. du 22 juin 1833",
              "security_id": 209,
              "spot_prices": [
                84.25,
                84.3
              ]
            },
            {
              "id": 278,
              "name": "4,5% (j du 22 mars)",
              "security_id": 208
            },
            {
              "id": 143584,
              "name": "5% cons. J du 22 sept 1819",
              "security_id": 13009
            },
            {
              "id": 276,
              "name": "Quatre % (jouissance du 22 mars)",
              "security_id": 206
            }
          ]
        },
        {
          "id": 574,
          "name": "ARTIFICIEL (Bons de Trésor etc)",
          "notations": [
            {
              "id": 444,
              "name": "Bons du Trésor à 2 mois",
              "security_id": 308
            },
            {
              "id": 447,
              "name": "Bons du Trésor à 6 mois",
              "security_id": 311,
              "spot_prices": [
                3.125
              ]
            },
            {
              "id": 443,
              "name": "Bons du Trésor à 4 mois",
              "security_id": 307
            },
            {
              "id": 319,
              "name": "Bons du Trésor",
              "security_id": 210
            },
            {
              "id": 451,
              "name": "Bons du Trésor à 10 mois",
              "security_id": 315,
              "spot_prices": [
                3.125
              ]
            },
            {
              "id": 448,
              "name": "Bons du Trésor à 7 mois",
              "security_id": 312,
              "spot_prices": [
                3.125
              ]
            },
            {
              "id": 449,
              "name": "Bons du Trésor à 8 mois",
              "security_id": 313,
              "spot_prices": [
                3.125
              ]
            },
            {
              "id": 452,
              "name": "Bons du Trésor à 11 mois",
              "security_id": 316
            },
            {
              "id": 332,
              "name": "Act. de la Banque de France",
              "security_id": 63,
              "spot_prices": [
                3095
              ]
            },
            {
              "id": 446,
              "name": "Bons du Trésor à 5 mois",
              "security_id": 310,
              "spot_prices": [
                3.125
              ]
            },
            {
              "id": 453,
              "name": "Bons du Trésor à 12 mois",
              "security_id": 317
            },
            {
              "id": 442,
              "name": "Bons du Trésor à 1 mois",
              "security_id": 306
            },
            {
              "id": 445,
              "name": "Bons du Trésor à 3 mois",
              "security_id": 309
            },
            {
              "id": 450,
              "name": "Bons du Trésor à 9 mois",
              "security_id": 314,
              "spot_prices": [
                3.125
              ]
            }
          ]
        },
        {
          "id": 575,
          "name": "SECTOR ARTIFICIEL [ = Fonds de la Ville de Paris]",
          "notations": [
            {
              "id": 335,
              "name": "Rente de la Ville de Paris jouissance de juil 1833",
              "security_id": 16
            },
            {
              "id": 143604,
              "name": "OBL de la Ville de PARIS,4% J de JAN. 1844, avec primes",
              "security_id": 13029
            },
            {
              "id": 333,
              "name": "Obligations de la ville de Paris 4% avec tirage des primes",
              "security_id": 225,
              "spot_prices": [
                1470
              ]
            }
          ]
        },
        {
          "id": 72,
          "name": "SECTOR ARTIFICIEL  [ =CANAUX]",
          "notations": [
            {
              "id": 364,
              "name": "Canal d'Aire à la Bassée",
              "security_id": 108
            },
            {
              "id": 314,
              "name": "Canal d'Arles à Bouc Act. de 1000 f 5%",
              "security_id": 233
            },
            {
              "id": 316,
              "name": "Canal d'Arles à Bouc Act de 5500 f et act de j 1/1000",
              "security_id": 235
            },
            {
              "id": 341,
              "name": "Canalisation de la Sambre act 1000 f",
              "security_id": 242
            },
            {
              "id": 366,
              "name": "4 canaux act de jouissance 1/68000",
              "security_id": 171,
              "spot_prices": [
                140
              ]
            },
            {
              "id": 336,
              "name": "3 CANAUX, j. d'OCT. Act. 100f. et b. de pr. 250f",
              "security_id": 237
            },
            {
              "id": 435,
              "name": "Canal de la Sambre à l'Oise (Obligations de 1000 fr. à 5%) (jouissance janvier)",
              "security_id": 299
            },
            {
              "id": 311,
              "name": "Canal Rhone au Rhin act. de jouissance 1/10000",
              "security_id": 230
            },
            {
              "id": 482,
              "name": "Canal de Bourgogne act de jouissance",
              "security_id": 131
            },
            {
              "id": 337,
              "name": "3 Canaux action de jouissance de la Somme",
              "security_id": 238
            },
            {
              "id": 339,
              "name": "3 Canaux action de jouissance de l'Oise",
              "security_id": 240
            },
            {
              "id": 295,
              "name": "4 CANAUX, .d'OCT.Act. 1000f. Et C. de pr. 250f",
              "security_id": 107
            },
            {
              "id": 312,
              "name": "Canal de Bourgogne Act. de jouissance 1/27200",
              "security_id": 198
            },
            {
              "id": 378,
              "name": "Canal de Bourgogne act. de 2500 f",
              "security_id": 232
            },
            {
              "id": 338,
              "name": "3 Canaux action de jouissance des Ardennes",
              "security_id": 239
            },
            {
              "id": 315,
              "name": "Canal d'Arles à Bouc Act de jouissance 1/6000",
              "security_id": 193
            },
            {
              "id": 294,
              "name": "Canal de Bourgogne Act de 1000 f 5%",
              "security_id": 196,
              "spot_prices": [
                109
              ]
            },
            {
              "id": 310,
              "name": "Canal Rhone au Rhin Act. de 1000 f 5%",
              "security_id": 229
            },
            {
              "id": 365,
              "name": "Canal de Roanne a Digoin",
              "security_id": 265
            },
            {
              "id": 380,
              "name": "4 canaux sans coupon de prime",
              "security_id": 266
            },
            {
              "id": 340,
              "name": "Canal de Sambre à l'Oise, act de 1000 fr à 5%",
              "security_id": 241
            }
          ]
        },
        {
          "id": 68,
          "name": "SECTOR ARTIFICIEL [=CHEMINS DE FER (actions)]",
          "notations": [
            {
              "id": 391,
              "name": "Chemin de Fer de Saint-Etienne à Lyon Emp.dudit, obl de 1250 f intr 50 f",
              "security_id": 279
            },
            {
              "id": 396,
              "name": "Chemin de Fer de Versailles rive droite obl. de 1250 f",
              "security_id": 284,
              "spot_prices": [
                1192.5
              ]
            },
            {
              "id": 398,
              "name": "Chemin de Fer de Bordeaux à la Teste, obl de 1250 f int 50 f",
              "security_id": 286
            },
            {
              "id": 31,
              "name": "Chemin de Fer de Versailles Rive Droite",
              "security_id": 28,
              "spot_prices": [
                377.5,
                375
              ]
            },
            {
              "id": 393,
              "name": "Chemin de Fer de Paris à St.Germain obl. 1842 de 1250 f",
              "security_id": 281,
              "spot_prices": [
                1230
              ]
            },
            {
              "id": 35,
              "name": "Chemin de Fer de Rouen au Havre, act de 500 f",
              "security_id": 32,
              "spot_prices": [
                715,
                717.5
              ]
            },
            {
              "id": 37,
              "name": "Chemin de Fer Strasbourg a Bale",
              "security_id": 34,
              "spot_prices": [
                275,
                273.75
              ]
            },
            {
              "id": 39,
              "name": "Chemin de Fer de Saint-Etienne à Lyon",
              "security_id": 36
            },
            {
              "id": 397,
              "name": "Chemin de Fer de Strasbourg à Bale, obl de 1250 f int 50 f",
              "security_id": 285,
              "spot_prices": [
                1227.5
              ]
            },
            {
              "id": 436,
              "name": "Chemin de Fer Montpellier à Cette (Emprunt dudit, 1.000.000 obligations, 1000 fr., 5.5% d'intéret j.)",
              "security_id": 300
            },
            {
              "id": 29,
              "name": "Chemin de Fer de Paris à St.Germain, act de 600 f",
              "security_id": 27
            },
            {
              "id": 392,
              "name": "Chemin de Fer de Paris à St.Germain obl. 1838 et 1840 de 1250 f",
              "security_id": 268
            },
            {
              "id": 40,
              "name": "Chemin de Fer Bordeaux à la Teste",
              "security_id": 37
            },
            {
              "id": 372,
              "name": "Chemin de Fer Versailles Rive Droite Emprunt dudit de 4,000,000, oblig de 1000 f",
              "security_id": 271,
              "spot_prices": [
                1070
              ]
            },
            {
              "id": 32,
              "name": "Chemin de Fer de Versailles Rive Gauche",
              "security_id": 29,
              "spot_prices": [
                260,
                252.5,
                255,
                252.5,
                255
              ]
            },
            {
              "id": 34,
              "name": "Chemin de Fer de Paris à Rouen, act de 500 f",
              "security_id": 31,
              "spot_prices": [
                950
              ]
            },
            {
              "id": 36,
              "name": "Chemin de Fer d'Avignon à Marseille [Chemin de Fer de Marseille à Avignon]",
              "security_id": 33,
              "spot_prices": [
                762.5
              ]
            },
            {
              "id": 143702,
              "name": "CHE. PARIS a ORLEANS j. JUIL. Act. Libe.",
              "security_id": 10456,
              "spot_prices": [
                961.25,
                962.5,
                965
              ]
            },
            {
              "id": 394,
              "name": "Chemin de Fer de Paris à Orleans obl de l'emprunt 4% au capital de 1250 f",
              "security_id": 282
            },
            {
              "id": 38,
              "name": "Chemin de Fer Montpellier a Cette",
              "security_id": 35
            }
          ]
        },
        {
          "id": 73,
          "name": "SECTEUR ARTIFICIEL [= COMPAGNIES ANONYMES]",
          "notations": [
            {
              "id": 302,
              "name": "L'Union comp. d'assurances contre l'incendie",
              "security_id": 201
            },
            {
              "id": 303,
              "name": "L'Union comp. d'assurances Sur la vie humaine",
              "security_id": 202
            },
            {
              "id": 300,
              "name": "Act de la Comp Royale d'Assurances, Incendie",
              "security_id": 87
            },
            {
              "id": 317,
              "name": "Act. de la comp. roy. d'assurance, sur la vie",
              "security_id": 2790
            },
            {
              "id": 299,
              "name": "Actions des 3 ponts sur la Seine, jouis de janv.",
              "security_id": 105
            },
            {
              "id": 386,
              "name": "Assurances Générales (Actions au porteur) SUR LA VIE",
              "security_id": 90
            },
            {
              "id": 384,
              "name": "Act des Salines de l'Est",
              "security_id": 185
            },
            {
              "id": 400,
              "name": "L'Indemnité comp. d'ass. Maritimes",
              "security_id": 288
            },
            {
              "id": 383,
              "name": "Assurances Générales – Action nominative",
              "security_id": 100111
            },
            {
              "id": 381,
              "name": "Caise hypothéc. Act. de 1000f. J.de janv",
              "security_id": 175
            },
            {
              "id": 399,
              "name": "L'Indemnité comp. d'ass. contre l'incendie",
              "security_id": 287
            },
            {
              "id": 382,
              "name": "Assurances Générales (Actions au porteur) INCENDIE",
              "security_id": 84
            },
            {
              "id": 301,
              "name": "Comp. Française du Phénix, jouis de Janv",
              "security_id": 85
            },
            {
              "id": 318,
              "name": "Action des Pont, Garre et Port de Grenelle",
              "security_id": 182
            },
            {
              "id": 385,
              "name": "Assurances Générales (Actions au porteur) MARITIME",
              "security_id": 89
            },
            {
              "id": 143691,
              "name": "Caisse hypot. Ob. de 500f 5%. de j",
              "security_id": 244
            }
          ]
        },
        {
          "id": 67,
          "name": "FONDS ETRANGERS",
          "notations": [
            {
              "id": 156,
              "name": "Rente de NAPLES. 5% (jouissance de janvier 1832)",
              "security_id": 74,
              "spot_prices": [
                102.2
              ]
            },
            {
              "id": 350,
              "name": "Emprunt Grec certificats russe",
              "security_id": 251
            },
            {
              "id": 360,
              "name": "Espagne. Dette differee sans intéret",
              "security_id": 261,
              "spot_prices": [
                15.75
              ]
            },
            {
              "id": 401,
              "name": "5% Hollandais",
              "security_id": 289
            },
            {
              "id": 214,
              "name": "Emprunt d'Haiti",
              "security_id": 145,
              "spot_prices": [
                505
              ]
            },
            {
              "id": 363,
              "name": "Act. de 1000 f de la Comp de Mutualité Industrielle de Belgique",
              "security_id": 264
            },
            {
              "id": 373,
              "name": "Société Générale de Bruxelles 1822 cert au porteur",
              "security_id": 272
            },
            {
              "id": 374,
              "name": "Banque Belge, 1835 (jouissance juillet)",
              "security_id": 273,
              "spot_prices": [
                695,
                692.5
              ]
            },
            {
              "id": 376,
              "name": "3% belge",
              "security_id": 274
            },
            {
              "id": 406,
              "name": "Portugal 3% moins le 1/2 coupon",
              "security_id": 294
            },
            {
              "id": 403,
              "name": "5% Belge, certif provis libér [5] Belge, emp de 1840 non rembour]",
              "security_id": 291,
              "spot_prices": [
                106
              ]
            },
            {
              "id": 355,
              "name": "Metallique d'Autriche 5%, j. mars",
              "security_id": 115
            },
            {
              "id": 223,
              "name": "5% belge",
              "security_id": 154,
              "spot_prices": [
                103.375
              ]
            },
            {
              "id": 222,
              "name": "Rem, Etat Romain, j Juin 1838",
              "security_id": 153,
              "spot_prices": [
                106.75,
                106.5
              ]
            },
            {
              "id": 348,
              "name": "Emprunt Grec certificats français",
              "security_id": 249
            },
            {
              "id": 349,
              "name": "Emprunt Grec certificats anglais",
              "security_id": 250
            },
            {
              "id": 354,
              "name": "2,5% Hollandais cert au porteur",
              "security_id": 255,
              "spot_prices": [
                61.375
              ]
            },
            {
              "id": 361,
              "name": "Espagne, Dette passive sans intéret",
              "security_id": 262
            },
            {
              "id": 409,
              "name": "5% Belge, emp 1842",
              "security_id": 297,
              "spot_prices": [
                108.125
              ]
            },
            {
              "id": 410,
              "name": "3% Esp Emp de 1841",
              "security_id": 298
            },
            {
              "id": 353,
              "name": "Emp. portug. 3%",
              "security_id": 254
            },
            {
              "id": 402,
              "name": "Metalliques d'Autriche 3% Cert. Rotsch.",
              "security_id": 257
            },
            {
              "id": 351,
              "name": "Emp. portug. 5%",
              "security_id": 252
            },
            {
              "id": 359,
              "name": "Espagne. Dette active",
              "security_id": 260,
              "spot_prices": [
                33.5
              ]
            },
            {
              "id": 405,
              "name": "Portugal 5% moins le 1/2 coupon",
              "security_id": 293
            },
            {
              "id": 408,
              "name": "Banque Belge 1841",
              "security_id": 296
            }
          ]
        }
      ]
    }
  ],
  "date": "1844-04-30",
  "stock_exchange": {
    "id": 1,
    "name": "Paris (Official List)"
  }
}