{
  "id": 9999,
  "name": "Paris official list",
  "children": [
    {
      "id": 77,
      "name": "COMPTANT & TERME & PRIMES",
      "children": [
        {
          "id": 10,
          "name": "RENTES FRANCAISES",
          "notations": [
            {
              "id": 2441,
              "name": "3% jouissance 1 janvier 1863",
              "security_id": 1332,
              "spot_prices": [
                66.65,
                66.6,
                66.55,
                66.6,
                66.65,
                66.7
              ]
            },
            {
              "id": 2442,
              "name": "3%, Emprunt 1864, j. 1er jer. 1864, 1/10e payé",
              "security_id": 1333,
              "spot_prices": [
                66.65
              ]
            },
            {
              "id": 278,
              "name": "4,5% (j du 22 sept) (ancien)",
              "security_id": 208,
              "spot_prices": [
                93.25,
                93.4,
                93.5
              ]
            },
            {
              "id": 1301,
              "name": "Bons du Trésor",
              "security_id": 210
            },
            {
              "id": 1302,
              "name": "Ob. du Trésor, int 20 f., j. 20 jet 61, 40f p. remb. à 500f par annuités finissant en 1889",
              "security_id": 1235,
              "spot_prices": [
                437.5
              ]
            },
            {
              "id": 276,
              "name": "4% (jouissance du 22 sept)",
              "security_id": 206
            }
          ]
        },
        {
          "id": 574,
          "name": "ARTIFICIEL (Compagnies, Ville etc)",
          "notations": [
            {
              "id": 444,
              "name": "Bons du Trésor à 2 mois",
              "security_id": 308
            },
            {
              "id": 447,
              "name": "Bons du Trésor à 6 mois",
              "security_id": 311
            },
            {
              "id": 1313,
              "name": "Midi (action de 500 fr., 250 fr payés)",
              "security_id": 733,
              "spot_prices": [
                640,
                638.75,
                641.25,
                642.5,
                640,
                638.75
              ]
            },
            {
              "id": 1018,
              "name": "Soc. gén. Crédit mob., j. (Act. de 500 f, 250 f. payés)",
              "security_id": 770,
              "spot_prices": [
                1135,
                1132.5,
                1130,
                1132.5,
                1135
              ]
            },
            {
              "id": 1319,
              "name": "Message Imp. serv. marit. juin",
              "security_id": 959,
              "spot_prices": [
                800
              ]
            },
            {
              "id": 1184,
              "name": "Dép. de la Seine, emprunt 1857 (Oblig. de 9 fr. de rente, tout payé) Emission à 205",
              "security_id": 968,
              "spot_prices": [
                225,
                223.75
              ]
            },
            {
              "id": 2387,
              "name": "Crédit agricole, a. 500 f. 100 f p j aout 1861",
              "security_id": 1278,
              "spot_prices": [
                765,
                767.5,
                770,
                772.5
              ]
            },
            {
              "id": 332,
              "name": "Banque de France (actions de la)",
              "security_id": 63,
              "spot_prices": [
                3390
              ]
            },
            {
              "id": 443,
              "name": "Bons du Trésor à 4 mois",
              "security_id": 307
            },
            {
              "id": 2258,
              "name": "Oblig. 1852, 5%, j. jet 60",
              "security_id": 765
            },
            {
              "id": 1144,
              "name": "Crédit Foncier de France Promesses d'Obl. foncieres 1000 f 3% j. nov. (200 f payés)",
              "security_id": 880
            },
            {
              "id": 1311,
              "name": "Est (jouissance mai)",
              "security_id": 981,
              "spot_prices": [
                465,
                463.75,
                462.5,
                460,
                462.5
              ]
            },
            {
              "id": 2391,
              "name": "Canal maritime de Suez act. 500 f, 300 p. j. jet 62",
              "security_id": 1282,
              "spot_prices": [
                458.75,
                460
              ]
            },
            {
              "id": 1322,
              "name": "Ce gle transatlantique, a. 500 f. t. p. j. jer 62",
              "security_id": 1284,
              "spot_prices": [
                575,
                572.5,
                577.5
              ]
            },
            {
              "id": 1335,
              "name": "Ch. De fer et Docks de St-Ouen, t. p. j. jet 62",
              "security_id": 1330
            },
            {
              "id": 2449,
              "name": "Ce des Ch. Fer des Charentes ac. 500 f 250 f p. j. 1er août 63",
              "security_id": 1340,
              "spot_prices": [
                400,
                402.5
              ]
            },
            {
              "id": 2389,
              "name": "Crédit Foncier de France, j. jt, act. Estamp. 500 f, 250 f. p",
              "security_id": 1341,
              "spot_prices": [
                1240
              ]
            },
            {
              "id": 2451,
              "name": "Crédit Foncier de France, Obl. 500 f 4% 1863, j. nov.",
              "security_id": 1342,
              "spot_prices": [
                467.5
              ]
            },
            {
              "id": 2453,
              "name": "Société de Dépôts et comptes courants, act. 500 f 125 f p.",
              "security_id": 1344,
              "spot_prices": [
                575,
                571.25,
                572.5,
                575
              ]
            },
            {
              "id": 2456,
              "name": "Société Générale pour le développement du commerce et de l'industrie en France, act. 500f, 125 pay.",
              "security_id": 1347,
              "spot_prices": [
                638.75,
                636.25,
                637.5,
                633.75,
                636.25
              ]
            },
            {
              "id": 451,
              "name": "Bons du Trésor à 10 mois",
              "security_id": 315
            },
            {
              "id": 1020,
              "name": "Comptoir d'Esc. est. j. fév. 64",
              "security_id": 621,
              "spot_prices": [
                820,
                822.5
              ]
            },
            {
              "id": 1320,
              "name": "Ce Parise du gaz, j oct., t. p.",
              "security_id": 963,
              "spot_prices": [
                1590,
                1585
              ]
            },
            {
              "id": 2257,
              "name": "Soc. Génle Crédit industl et coml, j. mai 63, ac. 500 f, 125f p.",
              "security_id": 1148,
              "spot_prices": [
                773.75,
                772.5,
                775
              ]
            },
            {
              "id": 2390,
              "name": "Orléans Nouvelles act. de 500 f 250 f p., j. jet 1862",
              "security_id": 1281,
              "spot_prices": [
                785,
                782.5
              ]
            },
            {
              "id": 1140,
              "name": "Crédit Foncier de France Obl., 500 f, 4% j. nov.",
              "security_id": 876,
              "spot_prices": [
                458.75,
                460
              ]
            },
            {
              "id": 2452,
              "name": "Crédit Foncier colonial, act. 500 f, 125 f p. j. oct. 1863",
              "security_id": 1229,
              "spot_prices": [
                675
              ]
            },
            {
              "id": 2347,
              "name": "S.-Comptr du Commerce et de l'Industrie, j. oct. 1861, act. 500 f. 125 p",
              "security_id": 1238,
              "spot_prices": [
                530
              ]
            },
            {
              "id": 1321,
              "name": "Ce Parise du gaz, j oct (200 f payés)",
              "security_id": 1243
            },
            {
              "id": 452,
              "name": "Bons du Trésor à 11 mois",
              "security_id": 316
            },
            {
              "id": 50204,
              "name": "Bons du Trésor à 12 mois",
              "security_id": 317
            },
            {
              "id": 1142,
              "name": "Crédit Foncier de France 10e d'obl. 4% j. nov.",
              "security_id": 878,
              "spot_prices": [
                93.75,
                95
              ]
            },
            {
              "id": 1143,
              "name": "Crédit Foncier de France 10e d'obl. 3% j. nov.",
              "security_id": 879,
              "spot_prices": [
                90
              ]
            },
            {
              "id": 1318,
              "name": "Bessèges à Alais, t.p.",
              "security_id": 983
            },
            {
              "id": 2259,
              "name": "Oblig. 1855-60, j. sept 60, r. 500 f",
              "security_id": 1150,
              "spot_prices": [
                412.5,
                411.25
              ]
            },
            {
              "id": 2261,
              "name": "Crédit Fonc. de France, j. jet, Ob. comles 3%, j. nov. 60 (Emission à 445f, 85 f payés)",
              "security_id": 1152,
              "spot_prices": [
                380,
                378.75,
                377.5
              ]
            },
            {
              "id": 2345,
              "name": "Crédit fonc. de France, 5e d'ob. cles 3%, j. mai",
              "security_id": 1236,
              "spot_prices": [
                77.5
              ]
            },
            {
              "id": 445,
              "name": "Bons du Trésor à 3 mois",
              "security_id": 309
            },
            {
              "id": 1310,
              "name": "Nord (actions de 500 fr, dont 400 fr payé)",
              "security_id": 374,
              "spot_prices": [
                980,
                985
              ]
            },
            {
              "id": 1314,
              "name": "Ouest (action de 500 fr., 250 fr payés)",
              "security_id": 703,
              "spot_prices": [
                497.5,
                495,
                992.5
              ]
            },
            {
              "id": 1141,
              "name": "Crédit Foncier de France Obl., 500 f, 3% j. nov.",
              "security_id": 877
            },
            {
              "id": 1312,
              "name": "Paris à Lyon et Méditerr. (Tout payé)",
              "security_id": 977,
              "spot_prices": [
                875,
                873.75
              ]
            },
            {
              "id": 1304,
              "name": "Versailles (r. g.) j. fév. 61",
              "security_id": 1274
            },
            {
              "id": 2455,
              "name": "Paris à Lyon et Méd., nouv. 300 f pay., j. mai 1864",
              "security_id": 1346,
              "spot_prices": [
                872.5
              ]
            },
            {
              "id": 141031,
              "name": "Orléans Estampil., j. avril 1862",
              "security_id": 10456,
              "spot_prices": [
                872.5,
                870
              ]
            },
            {
              "id": 2388,
              "name": "Crédit Foncier de France, act. Nles 500 f, 250 f p.",
              "security_id": 1279,
              "spot_prices": [
                1205
              ]
            }
          ]
        },
        {
          "id": 67,
          "name": "ARTIFICIEL [ = VALEURS ETRANGERS (1er Partie) (PAYS)]",
          "notations": [
            {
              "id": 2348,
              "name": "Emprunt Portugais 1856-57-58, j. jer",
              "security_id": 1239
            },
            {
              "id": 2468,
              "name": "Italien, 3%",
              "security_id": 1359
            },
            {
              "id": 2101,
              "name": "Espagne, 3% intérieure, j. jet",
              "security_id": 401
            },
            {
              "id": 1186,
              "name": "Emprunt Portugais, 3%",
              "security_id": 803
            },
            {
              "id": 2099,
              "name": "Espagne, passives nouvelles",
              "security_id": 990
            },
            {
              "id": 2402,
              "name": "Italien 5% Petit coup. Au dessous de 50f",
              "security_id": 1293,
              "spot_prices": [
                70.25
              ]
            },
            {
              "id": 1286,
              "name": "Rente de Naples (ducats)",
              "security_id": 366
            },
            {
              "id": 933,
              "name": "Autrichien 1852 5%, j. jer 1853 (tout payé)",
              "security_id": 702
            },
            {
              "id": 2098,
              "name": "Espagne, différ. convert., j. jt",
              "security_id": 989
            },
            {
              "id": 2100,
              "name": "Espagne, 3%, extérieure (1852-57), j. jet",
              "security_id": 991,
              "spot_prices": [
                51.375
              ]
            },
            {
              "id": 2263,
              "name": "Autrichien 1859 5%, j. jet 60",
              "security_id": 1154
            },
            {
              "id": 2401,
              "name": "Italien 5% Petit coup. 50 à 500 f j. jet",
              "security_id": 1292,
              "spot_prices": [
                69.3,
                69.25,
                69.4,
                69.2,
                69.5,
                69.6,
                69.3
              ]
            },
            {
              "id": 2463,
              "name": "Autrich. Métalliques 5% j. nov. 62",
              "security_id": 115
            },
            {
              "id": 2399,
              "name": "Italien, 5%, j. jet 1862. grosses coup. 500 f et 1000 f",
              "security_id": 1290,
              "spot_prices": [
                69.1,
                69.2,
                69.05
              ]
            },
            {
              "id": 2403,
              "name": "Emprunt Russe 5% 1862 15% payés, j. mai",
              "security_id": 1294
            }
          ]
        },
        {
          "id": 68,
          "name": "ARTIFICIEL [ = VALEURS ETRANGERES (1er PARTIE) (COMPAGNIES)]",
          "notations": [
            {
              "id": 2096,
              "name": "Romains (Chemins de Fer)",
              "security_id": 987,
              "spot_prices": [
                335,
                337.5,
                338.75
              ]
            },
            {
              "id": 2103,
              "name": "Cordoue à Séville, act. 500 f tp.",
              "security_id": 1050
            },
            {
              "id": 2254,
              "name": "Séville, Xérès, Cadix, j jet, tout payé",
              "security_id": 1145,
              "spot_prices": [
                400,
                401.25,
                402.5
              ]
            },
            {
              "id": 2266,
              "name": "Guillaume-Luxembourg, j. jr (Act. 500 f., tout payé)",
              "security_id": 1157,
              "spot_prices": [
                125
              ]
            },
            {
              "id": 2269,
              "name": "Sarag. à Pampelune, j. jr 60 (Act. 500 f., tout payé)",
              "security_id": 1160,
              "spot_prices": [
                282.5
              ]
            },
            {
              "id": 2094,
              "name": "Saragosse (Act de 500 f, 400 f payés)",
              "security_id": 985,
              "spot_prices": [
                565,
                560,
                570,
                565
              ]
            },
            {
              "id": 2274,
              "name": "Portugais, ac. 500 f.t.p., j. jer 61",
              "security_id": 1165,
              "spot_prices": [
                305,
                302.5
              ]
            },
            {
              "id": 24087,
              "name": "Victor-Emmanuel, act. 500f, t. p.",
              "security_id": 1486,
              "spot_prices": [
                365
              ]
            },
            {
              "id": 2097,
              "name": "Sud Autrich.-Lombard, j nov 1861 (act 500 f 450f payés)",
              "security_id": 988,
              "spot_prices": [
                523.75
              ]
            },
            {
              "id": 2467,
              "name": "Crédit Mob. Espagnol, act. Nouv. 200 f p. j. jet 63",
              "security_id": 1358,
              "spot_prices": [
                610,
                607.5,
                605,
                597.5,
                590,
                600,
                595,
                597.5,
                600
              ]
            },
            {
              "id": 144146,
              "name": "Saragosse à Barcelone, j.jer 61 petites coup",
              "security_id": 13571
            },
            {
              "id": 1155,
              "name": "Société Autrichienne (Act. de 500 fr)",
              "security_id": 891,
              "spot_prices": [
                400
              ]
            },
            {
              "id": 2270,
              "name": "Saragosse à Barcelone, j. jet 60 (Act. 525 f, tout payé)",
              "security_id": 1194,
              "spot_prices": [
                255,
                250
              ]
            },
            {
              "id": 2265,
              "name": "Crédit Mobilier Espagnol, j. jet 1863 (ac. 500 f 450 f p)",
              "security_id": 1355,
              "spot_prices": [
                645,
                643.75,
                640,
                635,
                630,
                632.5,
                635
              ]
            },
            {
              "id": 2264,
              "name": "Nord de l'Espagne, act 500 f, tout payé",
              "security_id": 1155,
              "spot_prices": [
                452.5,
                447.5,
                445,
                450,
                452.5
              ]
            }
          ]
        }
      ]
    },
    {
      "id": 78,
      "name": "COMPTANT [ARTIFICIEL]",
      "children": [
        {
          "id": 70,
          "name": "OBLIGATIONS",
          "notations": [
            {
              "id": 24092,
              "name": "Havre 1848 6%",
              "security_id": 388
            },
            {
              "id": 527,
              "name": "Rouen 1847-1849, 5%",
              "security_id": 391
            },
            {
              "id": 929,
              "name": "Ouest 1852-1854 (tout payé) (rembours. à 1250 fr)",
              "security_id": 698
            },
            {
              "id": 941,
              "name": "Orléans 1852, jouis.oct.1852",
              "security_id": 710,
              "spot_prices": [
                296.25,
                297.5
              ]
            },
            {
              "id": 33760,
              "name": "Rhône et Loire, 4%, r. à 625f",
              "security_id": 858
            },
            {
              "id": 2108,
              "name": "Ouest 1855 4% j jer (Int. 20 f gar par l'Etat) – Rembours. à 500 fr",
              "security_id": 999
            },
            {
              "id": 2405,
              "name": "Salines de l'Est, j. jet",
              "security_id": 1296
            },
            {
              "id": 2123,
              "name": "Teste, 5%, j. jet",
              "security_id": 286
            },
            {
              "id": 517,
              "name": "Rouen 1845 4%",
              "security_id": 381
            },
            {
              "id": 518,
              "name": "Havre 1846 5%",
              "security_id": 382
            },
            {
              "id": 2011,
              "name": "G.-Central, 1855, 180 f. pay. j. jet, r. 500 f",
              "security_id": 902,
              "spot_prices": [
                295
              ]
            },
            {
              "id": 2276,
              "name": "Montereau 5% j jer / Remboursable à 1250 fr",
              "security_id": 1167
            },
            {
              "id": 2480,
              "name": "Victor-Emmanuel 1863, 3%, j. avr. 1864",
              "security_id": 1371,
              "spot_prices": [
                233.75,
                235
              ]
            },
            {
              "id": 144145,
              "name": "Orsay, 4% gar. pr Orl, j. nov - Rembours à 500 f",
              "security_id": 13570
            },
            {
              "id": 523,
              "name": "Marseille 1850 remb en 1250 f d. 1000 int 5% gar par l'Etat",
              "security_id": 387
            },
            {
              "id": 866,
              "name": "Nord, (500 fr.), 3%",
              "security_id": 640,
              "spot_prices": [
                303.75,
                305
              ]
            },
            {
              "id": 1045,
              "name": "Ouest 1853 oblig. 1000 f., 250 f. pay. j. jt (rembours. à 1250 fr)",
              "security_id": 797
            },
            {
              "id": 1120,
              "name": "Est, 1852-54-56, remb. À 650f",
              "security_id": 860,
              "spot_prices": [
                488.75
              ]
            },
            {
              "id": 2016,
              "name": "Ouest 1855, rembours. à 500 f, t pay, j. juillet (Int gar. par l'Etat)",
              "security_id": 907,
              "spot_prices": [
                292.5,
                293.75
              ]
            },
            {
              "id": 2111,
              "name": "Midi 3% j jer 1856, t pay. - Rembours à 500 fr",
              "security_id": 1002,
              "spot_prices": [
                291.25,
                292.5
              ]
            },
            {
              "id": 2277,
              "name": "Boulogne, 4%, Remboursables à 500fr.",
              "security_id": 1168
            },
            {
              "id": 2407,
              "name": "Dieuze, j. jet",
              "security_id": 1298
            },
            {
              "id": 1119,
              "name": "Rhone et Loire 3% j jet 55 – Rem. 500 f (int 15 f g. par l'Etat)",
              "security_id": 906
            },
            {
              "id": 2120,
              "name": "Lyon et Méditer 3% j jer 1858 [= Paris-Lyon-Médit. 3% j jer 1858]",
              "security_id": 1011,
              "spot_prices": [
                295,
                296.25
              ]
            },
            {
              "id": 418,
              "name": "Strasbourg à Bale, obl de 1250 f",
              "security_id": 285
            },
            {
              "id": 2109,
              "name": "Bourbonnais, 3% (j. jr gr. pr.) (Rembours. à 500 fr.) (garanties par Lyon, Orléans et Grand Central)",
              "security_id": 1000,
              "spot_prices": [
                297.5
              ]
            },
            {
              "id": 2113,
              "name": "St-Germain 1842-49 j jet 56 – Remboursable à 1250 fr",
              "security_id": 1004
            },
            {
              "id": 2115,
              "name": "Est, 3%, 100 f. pay., j. déc. 56 – Remboursable à 500 f",
              "security_id": 1006,
              "spot_prices": [
                292.5,
                293.75
              ]
            },
            {
              "id": 2353,
              "name": "Saint-Etienne - remboursable à 1250 f",
              "security_id": 1012
            },
            {
              "id": 2275,
              "name": "Avignon à Marseille 5%, j. jer 1860 / Remboursable à 1250 fr",
              "security_id": 1166
            },
            {
              "id": 2404,
              "name": "Charleroi à Erquelines",
              "security_id": 1295
            },
            {
              "id": 2406,
              "name": "Victor Emmanuel, 3%, j. oct. 1862 t. p. (Int. Gar. Par France et Italie)",
              "security_id": 1297,
              "spot_prices": [
                260,
                261.25
              ]
            },
            {
              "id": 417,
              "name": "Versailles (Rive droite) de 1843, de 1250 fr (5%)",
              "security_id": 284
            },
            {
              "id": 860,
              "name": "Orléans 1842 5% (jouissance janvier) (Remboursable à 1250 fr)",
              "security_id": 635
            },
            {
              "id": 943,
              "name": "Bale, 5% j. mai 1852 125 f payés remb à 625 f",
              "security_id": 712
            },
            {
              "id": 1116,
              "name": "Lyon, 5%, j oct 1853 (Remboursable à 1250 fr)",
              "security_id": 856
            },
            {
              "id": 2105,
              "name": "Lyon à Genève, 1857, j jr 57 - Remboursable à 500 f",
              "security_id": 996,
              "spot_prices": [
                293.75
              ]
            },
            {
              "id": 2117,
              "name": "Ardennes, 3% t p j jet",
              "security_id": 1008,
              "spot_prices": [
                291.25,
                292.5
              ]
            },
            {
              "id": 1189,
              "name": "Orléans 1848 5% (jouissance janvier) (Remboursable à 1250 fr)",
              "security_id": 636
            },
            {
              "id": 2119,
              "name": "Bessèges à Alais 3%",
              "security_id": 1010
            },
            {
              "id": 969,
              "name": "Méditerranée, 160 f pay j d'octobre int 25 et remb gar par l'Etat",
              "security_id": 734
            },
            {
              "id": 970,
              "name": "Méditerr. 1852-55, 3%, g. pr l'Etat, t.payé j. jet – Remb à 500 f",
              "security_id": 735,
              "spot_prices": [
                306.25
              ]
            },
            {
              "id": 2008,
              "name": "Lyon à Genève, 1855, j jr 57 - Remboursable à 500 f",
              "security_id": 899,
              "spot_prices": [
                293.75,
                295
              ]
            },
            {
              "id": 2012,
              "name": "Lyon 1855 (Remboursable à 500 fr)",
              "security_id": 903,
              "spot_prices": [
                296.25,
                297.5,
                298.75
              ]
            },
            {
              "id": 2107,
              "name": "Ouest 1855 tout pay. j dec. (Int. gar. par l'Etat) – Remb. à 1250 fr.",
              "security_id": 998
            },
            {
              "id": 2118,
              "name": "Dauphiné, 3% j. jer t p Int. 3 ] gar par l'Etat",
              "security_id": 1009,
              "spot_prices": [
                293.75
              ]
            },
            {
              "id": 2479,
              "name": "Bons du canal des Houillères de la Sarre, int. 4%, et amortis, en 12 ans, gar. Par l'Etat",
              "security_id": 1370
            }
          ]
        },
        {
          "id": 71,
          "name": "VILLE",
          "notations": [
            {
              "id": 2125,
              "name": "Cse des Travaux publics (bons)",
              "security_id": 1016
            },
            {
              "id": 1190,
              "name": "3 Ponts, annuités municipales",
              "security_id": 583
            },
            {
              "id": 1121,
              "name": "Caisse de la Boulangerie (Bons)",
              "security_id": 863
            }
          ]
        },
        {
          "id": 579,
          "name": "ARTIFICIEL",
          "notations": [
            {
              "id": 2281,
              "name": "Pont, port et G de Grenelle",
              "security_id": 182
            }
          ]
        },
        {
          "id": 72,
          "name": "CANAUX",
          "notations": [
            {
              "id": 2486,
              "name": "Annuités du canal des Ardennes, j. sept. 1863",
              "security_id": 1377
            },
            {
              "id": 24090,
              "name": "4 canaux act de jouissance",
              "security_id": 171
            },
            {
              "id": 2355,
              "name": "Canal de Jonction de la Sambre à l'Oise",
              "security_id": 241
            },
            {
              "id": 2484,
              "name": "Annuités Aire à la Bassée, j. sept. 1863",
              "security_id": 108
            },
            {
              "id": 312,
              "name": "Canal de Bourgogne Act. de jouissance 1/27200",
              "security_id": 198
            },
            {
              "id": 2488,
              "name": "Annuités de la navigation de l'Oise, j. sept. 1863",
              "security_id": 1379
            },
            {
              "id": 2485,
              "name": "Annuités d'Arles à Bouc, j. sept. 1863",
              "security_id": 233
            },
            {
              "id": 2283,
              "name": "4 Canaux j. oct. 1860",
              "security_id": 1174,
              "spot_prices": [
                1220
              ]
            },
            {
              "id": 2487,
              "name": "Annuités du canal de la Somme, j. sept. 1863",
              "security_id": 1378
            },
            {
              "id": 158412,
              "name": "Canal de Bourgogne Act de 1000 f 5%",
              "security_id": 196
            }
          ]
        },
        {
          "id": 73,
          "name": "COMPAGNIES ANONYMES",
          "notations": [
            {
              "id": 2491,
              "name": "Le Phénix (Incendie)",
              "security_id": 85
            },
            {
              "id": 2356,
              "name": "Ce Immobilière de Paris Oblig 500 f 3%, j. jet 61",
              "security_id": 1247,
              "spot_prices": [
                260
              ]
            },
            {
              "id": 2490,
              "name": "Cie d'Assurances la Nationale (Incendie)",
              "security_id": 87
            },
            {
              "id": 2493,
              "name": "Ce d'assur. Générale La Grêle",
              "security_id": 1024
            },
            {
              "id": 10543,
              "name": "Soc. Immobilière (act 500 fr., t.p., j. juillet)",
              "security_id": 923,
              "spot_prices": [
                467.5,
                468.75,
                470,
                471.25,
                472.5,
                473.75,
                475,
                476.25,
                477.5,
                480
              ]
            },
            {
              "id": 535,
              "name": "Fils et tissus de lins de Maberly",
              "security_id": 399
            },
            {
              "id": 2494,
              "name": "Assurances générales Maritimes",
              "security_id": 715
            },
            {
              "id": 2499,
              "name": "Caisse Paternelle (Vie)",
              "security_id": 909
            }
          ]
        },
        {
          "id": 74,
          "name": "FONDS ETRANGERS (2° Partie)",
          "notations": [
            {
              "id": 2412,
              "name": "2,5% Hollandais, j jer 1862, certif hollan",
              "security_id": 1303
            },
            {
              "id": 425,
              "name": "Espagne 3% 1841 (jouiss de janvier)",
              "security_id": 298
            },
            {
              "id": 1378,
              "name": "Emprunt Belge 2,5% (jouissance juillet 1862)",
              "security_id": 367
            },
            {
              "id": 1005,
              "name": "Emprunt Romain, j. déc 1850",
              "security_id": 575,
              "spot_prices": [
                76.75,
                77
              ]
            },
            {
              "id": 1333,
              "name": "Piemont certificat anglais 5%",
              "security_id": 683
            },
            {
              "id": 2357,
              "name": "Emprunt Ottoman 1860, tout payé, j. jt 61",
              "security_id": 1248,
              "spot_prices": [
                362.5
              ]
            },
            {
              "id": 2361,
              "name": "Emprunt Belge, 4,5% 1860, 40% a ver,  mai 1861",
              "security_id": 1252
            },
            {
              "id": 2502,
              "name": "Obligation de l'Emprunt Ottoman, 63 (200 f p.), j. jet",
              "security_id": 1393,
              "spot_prices": [
                346.25,
                347.5,
                345,
                346.25
              ]
            },
            {
              "id": 1328,
              "name": "Espagne Extre 1841, 3%, pet. Coup. J. jer",
              "security_id": 1199
            },
            {
              "id": 2366,
              "name": "Emprunt 1856, ville de Bruxelles, j sept",
              "security_id": 1257
            },
            {
              "id": 2411,
              "name": "Obl.de la Ville de Liège",
              "security_id": 1302
            },
            {
              "id": 1327,
              "name": "Emprunt Russe 4,5%, 1850, j. jer 1862.",
              "security_id": 1316
            },
            {
              "id": 2500,
              "name": "Emprunt Autric. 1860, Ob. 500 florins, j. mai63",
              "security_id": 1391
            },
            {
              "id": 2501,
              "name": "Emprunt Autric. 1860, Ob. 500 florins, 5e, j. mai63",
              "security_id": 1392
            },
            {
              "id": 1332,
              "name": "Oblig. Piémont 1849 (4%)",
              "security_id": 570
            },
            {
              "id": 2362,
              "name": "Emprunt Belge, 4% 1836, j jet 1861",
              "security_id": 1253
            },
            {
              "id": 430,
              "name": "Emprunt d'Haiti j. janvier 1844",
              "security_id": 145
            },
            {
              "id": 2358,
              "name": "Emprunt Belge, 4,5% 1844, j mai 1861",
              "security_id": 1249
            },
            {
              "id": 2364,
              "name": "Emprunt Belge Dette Active, j jet 1861",
              "security_id": 1255
            },
            {
              "id": 1330,
              "name": "Espagne intérieure, 3% p.coup., j. janvier (P coup. = petites coupures)",
              "security_id": 605
            },
            {
              "id": 1338,
              "name": "Emprunt Toscan 3%",
              "security_id": 926
            },
            {
              "id": 2359,
              "name": "Emprunt Belge, 4,5% 1855, j mai 1861",
              "security_id": 1250,
              "spot_prices": [
                99.5
              ]
            },
            {
              "id": 1331,
              "name": "Oblig. Piemont 1834 (4%), jouissance de juillet",
              "security_id": 352
            },
            {
              "id": 1326,
              "name": "Oblig. Piémont 1851, 4% (j. d'août)",
              "security_id": 674
            },
            {
              "id": 1329,
              "name": "Espagne Extre 52-56, 3%, pet. Coup. J. jer",
              "security_id": 1200,
              "spot_prices": [
                51.375
              ]
            },
            {
              "id": 2360,
              "name": "Emprunt Belge, 4,5% 1857-1860, j mai 1861",
              "security_id": 1251
            },
            {
              "id": 2363,
              "name": "Emprunt Belge 3% 1838, j aout 1861",
              "security_id": 1254
            },
            {
              "id": 2367,
              "name": "Emprunt 1853 ville de Bruxelles, j sept.",
              "security_id": 1258
            },
            {
              "id": 2413,
              "name": "Emprunt 1862, Ville de Bruxelles, j. juin 1862",
              "security_id": 1304,
              "spot_prices": [
                97.5,
                98.75
              ]
            },
            {
              "id": 2476,
              "name": "Emprunt Mexicain 6% j. 15 avr. 64, 64,13 f payé",
              "security_id": 1367,
              "spot_prices": [
                58.625,
                58.75,
                58.875,
                59
              ]
            },
            {
              "id": 2503,
              "name": "Société Immobilière de Belgique, act. 500 f 200 f p. j. fév. 1864",
              "security_id": 1394,
              "spot_prices": [
                528.75
              ]
            }
          ]
        },
        {
          "id": 576,
          "name": "VALEURS DIVERSES",
          "notations": [
            {
              "id": 801,
              "name": "Mines de la Loire oblig.",
              "security_id": 559
            },
            {
              "id": 2233,
              "name": "Ob. De Séville à Cordoue",
              "security_id": 1124,
              "spot_prices": [
                250,
                248.75
              ]
            },
            {
              "id": 2438,
              "name": "Ce Lyonnaise des Omnibus",
              "security_id": 1131
            },
            {
              "id": 2306,
              "name": "Docks et Entrepôts de Marseille, Oblig., j. jer 1861 tout payé",
              "security_id": 1197
            },
            {
              "id": 2310,
              "name": "Est, act. De jouiss., j. avr.",
              "security_id": 1201
            },
            {
              "id": 2316,
              "name": "Oblig. de l'Aveyron 6%",
              "security_id": 1207
            },
            {
              "id": 2435,
              "name": "Mines de Montrambert",
              "security_id": 1214
            },
            {
              "id": 2340,
              "name": "Société anonyme des Mines et ch. fer de Carmeaux, j. nov. 1860",
              "security_id": 1231
            },
            {
              "id": 2377,
              "name": "Ce de la Taillerie impériale de diamants, act. 500 f. tout payé, j. jer",
              "security_id": 1268
            },
            {
              "id": 2417,
              "name": "Oblig. Ville de Marseille 1852 (1000f 5%), j. jer 1862",
              "security_id": 1308
            },
            {
              "id": 2505,
              "name": "Mines de Campagnac, ac. 1000f t. p. j. jt 62",
              "security_id": 1396
            },
            {
              "id": 2508,
              "name": "Salines de l'Est, j. 15 avril 1863",
              "security_id": 1399
            },
            {
              "id": 2517,
              "name": "Société générale de Commerce et d'Industrie établie à Amsterdam, a. 540f, 270 f p. j. mai 63",
              "security_id": 1408,
              "spot_prices": [
                547.5,
                550
              ]
            },
            {
              "id": 2527,
              "name": "L'Approuague, act. 100f t. p.",
              "security_id": 1418
            },
            {
              "id": 2529,
              "name": "Canal St-Martin, Bons de liquidation",
              "security_id": 1420
            },
            {
              "id": 2544,
              "name": "Docks et Entrepôts de Marseille, act. Nouv. 250f payés, j. janv. 1864",
              "security_id": 1435,
              "spot_prices": [
                506.25
              ]
            },
            {
              "id": 2212,
              "name": "Orléans, act. de jouis, j. oct. 1862, estamp.",
              "security_id": 481
            },
            {
              "id": 2440,
              "name": "Forges de la Basse-Indre",
              "security_id": 552
            },
            {
              "id": 1377,
              "name": "Comp. générale des Eaux, j. juillet",
              "security_id": 850,
              "spot_prices": [
                361.25
              ]
            },
            {
              "id": 2542,
              "name": "Docks et Entrepôts de Marseille estamp., a. 500 f tout p. j. jer 64 (coup. N° 8)",
              "security_id": 1196,
              "spot_prices": [
                575
              ]
            },
            {
              "id": 2336,
              "name": "Oblig. Ville de Roubaix et Tourcoing, ob. de 50 t. p., remb. en 55 ans, tirages: 1er fév. Et 1er août",
              "security_id": 1227,
              "spot_prices": [
                38.75
              ]
            },
            {
              "id": 2369,
              "name": "Mines Grand-Combe (obligation)",
              "security_id": 1260
            },
            {
              "id": 2481,
              "name": "Chemin de fer de Libourne à Bergerac, act. 500 f 200 f p., sept. 1863",
              "security_id": 1372
            },
            {
              "id": 2515,
              "name": "Oblig. Ville de Bordeaux, obl. 100f r. au pair, tout payé, j. nov. 1863",
              "security_id": 1406,
              "spot_prices": [
                86.25,
                85
              ]
            },
            {
              "id": 2539,
              "name": "Oblig. Ville de Lille 1863, 3%, t. p., j. jer 1864",
              "security_id": 1430,
              "spot_prices": [
                88.75
              ]
            },
            {
              "id": 2540,
              "name": "Mines de Blanzy",
              "security_id": 1431
            },
            {
              "id": 2560,
              "name": "Empr. Tunisien 7% obl. 500 f, remb. Au pair, j. mai 1863",
              "security_id": 1451
            },
            {
              "id": 2533,
              "name": "Caisse générale de réassurances et de co-assurances contre l'incendie, act. 1000 f 200 f",
              "security_id": 1775
            },
            {
              "id": 2437,
              "name": "Mines de Saint-Etienne",
              "security_id": 6180
            },
            {
              "id": 2157,
              "name": "Oblig. Saragosse, Obl. 500 f. 3%, j. jer",
              "security_id": 1048,
              "spot_prices": [
                260,
                261.25,
                260
              ]
            },
            {
              "id": 2179,
              "name": "Oblig. Ce Parisienne du gaz (Jouissance juillet 1858)",
              "security_id": 1070,
              "spot_prices": [
                475
              ]
            },
            {
              "id": 2291,
              "name": "Act. de la Ce génle de Crédit en Espagne, act. 500 f., t. payé, j. jer",
              "security_id": 1182
            },
            {
              "id": 2292,
              "name": "Act. Des deux Cirques",
              "security_id": 1183
            },
            {
              "id": 2302,
              "name": "Ch. fer Montblanch à Reus, a. 500 f. t.p. av. 60",
              "security_id": 1193
            },
            {
              "id": 2236,
              "name": "Oblig. de Séville, Xérés, Cadix, 500 f. 3%, remb. en 47 ans, jouis. 15 juillet",
              "security_id": 1216,
              "spot_prices": [
                280
              ]
            },
            {
              "id": 2375,
              "name": "Oblig. Ch. Fer Portugais, Ce Royale, 3%, j. jet 1862",
              "security_id": 1266,
              "spot_prices": [
                227.5,
                228.75
              ]
            },
            {
              "id": 2416,
              "name": "Oblig. Ch. fer Lyon à la croix-Rousse 3%, remb. à 500 f. j. jer 1862",
              "security_id": 1307
            },
            {
              "id": 2433,
              "name": "Ch. Fer Lyon à Sathonay, a. 500f t. p. j. jet 62",
              "security_id": 1324
            },
            {
              "id": 2510,
              "name": "Ce du Touage de Conflans à la mer, act. 500 f t. p., j. jer 1863",
              "security_id": 1401,
              "spot_prices": [
                450
              ]
            },
            {
              "id": 2528,
              "name": "Société Immobilière des Boulevards du Temple, act. 500 f t. P. j. jet 1863",
              "security_id": 1419
            },
            {
              "id": 2599,
              "name": "Comp. générale des Eaux (obligation) (remb. 500 fr., jouissance oct.)",
              "security_id": 1490,
              "spot_prices": [
                275
              ]
            },
            {
              "id": 2329,
              "name": "Oblig. Ville de Rouen, obligat. De 1250f., remb. au pair., t. payé, j. jet 1860",
              "security_id": 2361
            },
            {
              "id": 1098,
              "name": "Zinc V-Montagne Obl 500 f 5% j jr 1854",
              "security_id": 843
            },
            {
              "id": 2061,
              "name": "Ce Impérle des voitures de Paris (Act de 100 f remb à 125 f tout pay)",
              "security_id": 952,
              "spot_prices": [
                91.25,
                90
              ]
            },
            {
              "id": 2180,
              "name": "Gaz gle de Paris, ac. 500 f. 375 f. p.",
              "security_id": 1071
            },
            {
              "id": 2234,
              "name": "Ob. Lomb. 3%, j. jt, r. 500 f. 210 f. p.",
              "security_id": 1125,
              "spot_prices": [
                255,
                256.25,
                255
              ]
            },
            {
              "id": 2295,
              "name": "Ce centrale d'éclairage par le gaz",
              "security_id": 1186
            },
            {
              "id": 2307,
              "name": "Entrepôts et magasins généraux de Paris, act. De 1/25000 t.p. j. jer 1861",
              "security_id": 1198
            },
            {
              "id": 2326,
              "name": "Oblig. Ch. fer de la Ligne d'Italie, 3%, émises à 240 f. (170 f. p.) remb. à 500 f., j. jet 1860",
              "security_id": 1217,
              "spot_prices": [
                217.5
              ]
            },
            {
              "id": 2327,
              "name": "Oblig. Montblanch à Reus, 3%, j. avr. 60",
              "security_id": 1218
            },
            {
              "id": 2342,
              "name": "Sous-Comptoir des Entrepreneurs",
              "security_id": 1233,
              "spot_prices": [
                235,
                236.25
              ]
            },
            {
              "id": 2421,
              "name": "Société générale des Omnibus, act. de jouissance",
              "security_id": 1312
            },
            {
              "id": 2430,
              "name": "Ce Française de Réassurances contre l'incendie, act. 5000 f (1000 f versés)",
              "security_id": 1321
            },
            {
              "id": 2506,
              "name": "Ch. Fer Ligne d'Italie, act. 500f t. p.",
              "security_id": 1397
            },
            {
              "id": 2530,
              "name": "Gaz de Mulhouse, act. 500f tout payé, j. 1er fév. 1863",
              "security_id": 1421
            },
            {
              "id": 2538,
              "name": "Ch. de fer Braine-le-Comte à Courtrai, act. 500 f, 250 f payés, j. mars 1864",
              "security_id": 1429
            },
            {
              "id": 1195,
              "name": "Aciéries Pétin, Gaudet et Ce",
              "security_id": 1773
            },
            {
              "id": 2536,
              "name": "Ce Italienne, ch. de fer Méridionaux, act. de 500 f., 300 fr. pay.",
              "security_id": 2727
            },
            {
              "id": 2185,
              "name": "Compr Bonnard et Ce, a. 100 f t. p.",
              "security_id": 5184
            },
            {
              "id": 1287,
              "name": "Caisse Lécuyer (jouissance janvier - juillet)",
              "security_id": 6165
            },
            {
              "id": 2373,
              "name": "Cohin et Cie",
              "security_id": 612
            },
            {
              "id": 2165,
              "name": "Cail, Ob. 5% émises à 400 f., r. à 450 f en 11 ans, t. payés, j. jer 1859",
              "security_id": 1056
            },
            {
              "id": 2169,
              "name": "Caisse générale des Chemins de fer, j. jer",
              "security_id": 1060,
              "spot_prices": [
                70
              ]
            },
            {
              "id": 2431,
              "name": "Nu-propriétaires, act. 1000 f., j. jer",
              "security_id": 1120
            },
            {
              "id": 2231,
              "name": "Ob. Roms r. 500 f int. 3% j. jt",
              "security_id": 1122,
              "spot_prices": [
                233.75,
                235
              ]
            },
            {
              "id": 2328,
              "name": "Oblig. Nord de l'Espag. 3%, r. 500 f. j. avr.",
              "security_id": 1219,
              "spot_prices": [
                248.75,
                250
              ]
            },
            {
              "id": 2331,
              "name": "Oblig. Sarag. À Pampelune, 3% (r. 500 fr.) (j. avr.)",
              "security_id": 1222,
              "spot_prices": [
                223.75
              ]
            },
            {
              "id": 2334,
              "name": "Oblig. Séville, Xérès, Cadix, 3] r. à 500 f. en 94 ans, j. nov 60",
              "security_id": 1225,
              "spot_prices": [
                236.25,
                233.75,
                235
              ]
            },
            {
              "id": 2379,
              "name": "Société générale des Omnibus, Ob. 500 f., 5%, t. p., j. jet 61",
              "security_id": 1270
            },
            {
              "id": 2426,
              "name": "Ch. Fer Orléans, J. avr. 1862",
              "security_id": 1317
            },
            {
              "id": 2520,
              "name": "Cie générale de Bruxelles, pour l'éclairage et le chauffage par le gaz, act. 500 f 250f p.",
              "security_id": 1411,
              "spot_prices": [
                472.5
              ]
            },
            {
              "id": 2525,
              "name": "Banque de Crédit Italien, act. 500f, 250f p. j. 6 juin 1863",
              "security_id": 1416
            },
            {
              "id": 2531,
              "name": "Caisse générale des Familles, actions de 2500 f, 500 f p., j. jet 1863",
              "security_id": 1422
            },
            {
              "id": 2545,
              "name": "Canalisation de l'Ebre",
              "security_id": 1436
            },
            {
              "id": 2597,
              "name": "Soc. L'approvisionnement, act. 500f, t. p. (200 fr. p., J. 10 juillet 1863)",
              "security_id": 1488
            },
            {
              "id": 2429,
              "name": "Forges de Commentry",
              "security_id": 922
            },
            {
              "id": 143744,
              "name": "Mines d'Aubin",
              "security_id": 935
            },
            {
              "id": 2054,
              "name": "Société générale des Omnibus",
              "security_id": 945,
              "spot_prices": [
                1040
              ]
            },
            {
              "id": 2056,
              "name": "L'Union des Gaz, act de 250 f (200 f pay)",
              "security_id": 947
            },
            {
              "id": 2066,
              "name": "Ch de fer Ouest Suisse, 250 f pay",
              "security_id": 957,
              "spot_prices": [
                48.75
              ]
            },
            {
              "id": 2217,
              "name": "Oblig. Messag. Imp., service maritime, remb. à 500 f. t. payé, jouis. Avril",
              "security_id": 1108,
              "spot_prices": [
                510
              ]
            },
            {
              "id": 2239,
              "name": "Omnib. De Londres, a. 100 f., t. p.",
              "security_id": 1130
            },
            {
              "id": 2335,
              "name": "Oblig. Ville de Lille, 3%, j. avr. 1860, tout payé, remb. à 100 f.",
              "security_id": 1226
            },
            {
              "id": 2418,
              "name": "Oblig. Ville de Marseille 1862 (500f 5%), j. jer 62",
              "security_id": 1309
            },
            {
              "id": 2419,
              "name": "Oblig. Ville de Marseille 1862 (100f 5%), j. jer 62",
              "security_id": 1310
            },
            {
              "id": 2427,
              "name": "Ch. Fer Romains, act. Trentenaires privilégiées 6%, act. 500 f t. p. j. avr.",
              "security_id": 1318,
              "spot_prices": [
                450
              ]
            },
            {
              "id": 2522,
              "name": "Ch. De Fer Paris, Lyon et Méd., j. nov. 63",
              "security_id": 1345,
              "spot_prices": [
                882.5
              ]
            },
            {
              "id": 2537,
              "name": "Ch. de fer du Médoc, act. 500 f, 250 f p., j. janv 1864",
              "security_id": 1428,
              "spot_prices": [
                480,
                475
              ]
            },
            {
              "id": 1276,
              "name": "Caisse Béchet",
              "security_id": 521
            },
            {
              "id": 2420,
              "name": "Mines de la Loire, j. oct.",
              "security_id": 558
            },
            {
              "id": 1334,
              "name": "Mines de Mouzaïa, act.",
              "security_id": 685
            },
            {
              "id": 2509,
              "name": "Fonderies d'Alais",
              "security_id": 750
            },
            {
              "id": 1099,
              "name": "Zinc de Silésie, j oct 1853 (Act de 100 th, soit 375 f, tout pay)",
              "security_id": 844
            },
            {
              "id": 2048,
              "name": "Ob. d'autrich., 200f p. j. sep. 55",
              "security_id": 939,
              "spot_prices": [
                251.25,
                252.5
              ]
            },
            {
              "id": 2158,
              "name": "Ch de fer Tarragone à Reuss (Act de 250 f, tout payé)",
              "security_id": 1049
            },
            {
              "id": 2191,
              "name": "Eaux de Seine purifiée et Eaux gazeuses, act. 100 f., t. p., j. jer 59",
              "security_id": 1082
            },
            {
              "id": 2436,
              "name": "Mines de Rive-de-Gier",
              "security_id": 1215
            },
            {
              "id": 2519,
              "name": "Gaz de Marseille et Mines de Portes et Sénéchas, rem. à 600 f, j. avr. 1863",
              "security_id": 1230
            },
            {
              "id": 2368,
              "name": "Mines Grand-Combe (actions) (j. jet 1861)",
              "security_id": 1259
            },
            {
              "id": 2372,
              "name": "Docks et Entrepôts du Havre, ob. 3% r. 500 f., émis. À 260 f., j. juillet 1861",
              "security_id": 1263
            },
            {
              "id": 2382,
              "name": "Ce du Touage de la Basse-Seine et de l'Oise, act. de 500 f. tout payé j. jet 1861",
              "security_id": 1273
            },
            {
              "id": 2428,
              "name": "Union des Gaz, Oblig. de 250 f, t. payé, j. jet 62",
              "security_id": 1319
            },
            {
              "id": 2507,
              "name": "Banque Ottomane, actions de 500 fr., 200 f. p., j. 31 déc. 1862",
              "security_id": 1398,
              "spot_prices": [
                780
              ]
            },
            {
              "id": 2516,
              "name": "Soc. Crédit Mobilier Italien, ac. 500 f., 200 f p. j. juin 1863",
              "security_id": 1407
            },
            {
              "id": 2518,
              "name": "Ce du Marché du Temple, 350 f p., j. jet 1863",
              "security_id": 1409
            },
            {
              "id": 2526,
              "name": "Comptoir de l'Agriculture, act. 500f 200f p., j. jet 1863",
              "security_id": 1417
            },
            {
              "id": 2534,
              "name": "Ch. De fer Ouest Suisse, ac. Privilégiées, tout p.",
              "security_id": 1425
            },
            {
              "id": 551,
              "name": "Zinc V-Montagne (= Vieille Montagne) (10me d'action)",
              "security_id": 325,
              "spot_prices": [
                267.5
              ]
            },
            {
              "id": 2168,
              "name": "Cail, act. 500 f., t. p. j. avril",
              "security_id": 684
            },
            {
              "id": 2301,
              "name": "Ch. fer Lyon à la Croix-Rousse, act. De 500 f., 300 f. payés, j. jet",
              "security_id": 1192
            },
            {
              "id": 2371,
              "name": "Docks et Entrepôts du Havre, actions de 1/8 millième, tout payé, j.",
              "security_id": 1262
            },
            {
              "id": 2381,
              "name": "Crédit Colonial, Obl. 500 f., 200 f. p., j. août 1861",
              "security_id": 1272,
              "spot_prices": [
                480
              ]
            },
            {
              "id": 2482,
              "name": "Oblig.Libourne à Bergerac, 3%, remb. à 500 f j. janv. 1864",
              "security_id": 1373,
              "spot_prices": [
                276.25,
                277.5
              ]
            },
            {
              "id": 2532,
              "name": "Caisse générale des assurances contre les risques maritimes, ac. 1000 f 200 f p.",
              "security_id": 1423
            },
            {
              "id": 2541,
              "name": "Magasins généraux de Bordeaux, act. 500f, 250f p.",
              "security_id": 1432
            },
            {
              "id": 2558,
              "name": "Banque de Crédit et de dépôts des Pays-Bas, 40% p., j. mai 1863",
              "security_id": 1450,
              "spot_prices": [
                570,
                571.25
              ]
            }
          ]
        }
      ]
    }
  ],
  "date": "1864-05-31",
  "stock_exchange": {
    "id": 1,
    "name": "Paris (Official List)"
  }
}