{
  "id": 9999,
  "name": "Paris official list",
  "children": [
    {
      "id": 78,
      "name": "COMPTANT [ARTIFICIEL]",
      "children": [
        {
          "id": 10,
          "name": "FONDS Francais",
          "notations": [
            {
              "id": 213,
              "name": "Actions des 3 ponts sur la Seine",
              "security_id": 105
            },
            {
              "id": 252,
              "name": "Action des Pont, Garre et Port de Grenelle",
              "security_id": 182
            },
            {
              "id": 267,
              "name": "Canal de Bourgogne Act. de 1000 f non lib 287f 90 pay 5% j d'O",
              "security_id": 197
            },
            {
              "id": 143626,
              "name": "BONS ROYAUX à 10 mois",
              "security_id": 13051
            },
            {
              "id": 206,
              "name": "Compagnie d'as. générales – Actions au port – Sur la vie",
              "security_id": 90
            },
            {
              "id": 197,
              "name": "Bons de la ville de Paris",
              "security_id": 104
            },
            {
              "id": 228,
              "name": "Canal de Monsieur, jouissance de juillet 1827, Omnium j. de juillet [Canal de Monsieur Omnium]",
              "security_id": 159
            },
            {
              "id": 24040,
              "name": "Action du Gaz, Compagnie Pawels",
              "security_id": 183
            },
            {
              "id": 265,
              "name": "Canal d'Arles à Bouc Act de jouissance 1/1000",
              "security_id": 195
            },
            {
              "id": 261,
              "name": "Canal d'Arles à Bouc Act de 1000 f libérée 5% jouis d'Oct",
              "security_id": 233
            },
            {
              "id": 209,
              "name": "Obligations de la Ville de Paris",
              "security_id": 637
            },
            {
              "id": 193,
              "name": "Act du canal du duc d'Angouleme act de l'emp 1000 f à 4% du 10 oct. 1827 et billet de pr 700 fr",
              "security_id": 110
            },
            {
              "id": 226,
              "name": "Can. Monsieur act. de jouissance",
              "security_id": 157
            },
            {
              "id": 245,
              "name": "Caise hypothéc. Act. de 1000f. J.de janv",
              "security_id": 175,
              "spot_prices": [
                735,
                732.5,
                735
              ]
            },
            {
              "id": 24039,
              "name": "Caisse hypothéc. Obl. endos. 5 éme sér. Int. à 5% j d'Av",
              "security_id": 177
            },
            {
              "id": 262,
              "name": "Canal d'Arles à Bouc Act de 1000 f non lib 633f 97 pay 5% joui. d'O",
              "security_id": 192
            },
            {
              "id": 264,
              "name": "Canal d'Arles à Bouc Act de 5500 dont 4840 payés",
              "security_id": 194
            },
            {
              "id": 266,
              "name": "Canal de Bourgogne Act. de 1000 f libérée 5% jouiss. d'oct [Canal de Bourgogne action de 1000 f libérée]",
              "security_id": 196
            },
            {
              "id": 279,
              "name": "3%, j. du 22 juin",
              "security_id": 209,
              "spot_prices": [
                70.05,
                70.1,
                70.2
              ]
            },
            {
              "id": 143619,
              "name": "BONS ROYAUX à 3 mois",
              "security_id": 13044
            },
            {
              "id": 212,
              "name": "Rente de la Ville de Paris",
              "security_id": 16,
              "spot_prices": [
                102.5
              ]
            },
            {
              "id": 27,
              "name": "Act. de la Banque de France",
              "security_id": 63,
              "spot_prices": [
                1900
              ]
            },
            {
              "id": 8,
              "name": "Cinq % cons. J du 22 septembre 1823",
              "security_id": 65,
              "spot_prices": [
                103.1,
                103.05
              ]
            },
            {
              "id": 188,
              "name": "Act de la Comp Royale d'Assurances, Incendie",
              "security_id": 87
            },
            {
              "id": 198,
              "name": "Canal de Bourgogne Act. de 2500 f dont 2318 f payés",
              "security_id": 130
            },
            {
              "id": 269,
              "name": "Canal de Bourgogne act de jouissance",
              "security_id": 131
            },
            {
              "id": 238,
              "name": "4 canaux act. non libérée dont 401f 70c pay [4 canaux act. non libérée dont 682 f 58 c pay sans prime]",
              "security_id": 168
            },
            {
              "id": 244,
              "name": "Canal de la Sensée jouiss d [Canal de la Sencée]",
              "security_id": 174
            },
            {
              "id": 255,
              "name": "Act des Salines de l'Est",
              "security_id": 185
            },
            {
              "id": 144076,
              "name": "Canal de Bourgogne act. avec Act. de jouis. 1/10000",
              "security_id": 232
            },
            {
              "id": 196,
              "name": "Billets de la caisse syndicale des Boulangers",
              "security_id": 13
            },
            {
              "id": 208,
              "name": "Compagnie Française du Phénix",
              "security_id": 85
            },
            {
              "id": 143617,
              "name": "BONS ROYAUX à 1 mois",
              "security_id": 13042
            },
            {
              "id": 250,
              "name": "Can. Ardennes Certificat du Tresor de 10000 f à 4% [Canal des Ardennes. Certif. de 10000 f]",
              "security_id": 134
            },
            {
              "id": 229,
              "name": "Canal de Monsieur, jouissance de janv 1828, act. libérée, sans jouis ni prime",
              "security_id": 160
            },
            {
              "id": 241,
              "name": "4 canaux act de jouiss des 4 can 1/68000 [4 canaux actions de jouissance]",
              "security_id": 171
            },
            {
              "id": 258,
              "name": "Nav. de l'Oise emp. 3000000 Cer. du Tre de 6250 à 4% j. du 10 avril",
              "security_id": 190
            },
            {
              "id": 263,
              "name": "Canal d'Arles à Bouc Act de jouissance 1/6000",
              "security_id": 193
            },
            {
              "id": 207,
              "name": "C. d' as gener. Actions Nominatives 5%",
              "security_id": 100111
            },
            {
              "id": 28,
              "name": "Compagnie d'assurances générales – Actions au port – Incendie",
              "security_id": 84
            },
            {
              "id": 236,
              "name": "4 canaux act. libérée de 1000 f int à 5% [4 canaux act. libérée de 1000 f]",
              "security_id": 107,
              "spot_prices": [
                1060
              ]
            },
            {
              "id": 164,
              "name": "Bons royaux",
              "security_id": 121,
              "spot_prices": [
                3.5
              ]
            },
            {
              "id": 240,
              "name": "4 canaux certificats de depot de 19 act de jouiss et 19 act non lib dont 212 f 76c non pay [Quatre canaux certificats]",
              "security_id": 170
            },
            {
              "id": 278,
              "name": "4,5%, jouiss.",
              "security_id": 208
            },
            {
              "id": 143584,
              "name": "5% cons. J du 22 sept 1819",
              "security_id": 13009
            },
            {
              "id": 205,
              "name": "Compagnie d'as. générales – Actions au port – Maritime",
              "security_id": 89
            },
            {
              "id": 190,
              "name": "Canal d'Aire à la Bassée",
              "security_id": 108
            },
            {
              "id": 225,
              "name": "Canal de Monsieur, jouissance de juillet 1827, Act. de 1000 f 5% Coupon de prime de 250 f [Canal de Monsieur action de 1000 f]",
              "security_id": 156
            },
            {
              "id": 239,
              "name": "4 canaux act. non libérée dito (=dont 401f 70c pay) avec act de jouiss. [4 canaux act. non libérée avec act de jouis. et billet de prime]",
              "security_id": 169
            },
            {
              "id": 256,
              "name": "Canal d'Angoul jouiss. Certificat du Trésor de 10000 à 4%",
              "security_id": 178
            },
            {
              "id": 251,
              "name": "Can Ardennes Actions de Jouissance de 5000 f",
              "security_id": 181
            },
            {
              "id": 259,
              "name": "Nav. de l'Oise emp. 3000000 Act. de jouissance de 1/3000",
              "security_id": 189
            },
            {
              "id": 273,
              "name": "Caisse hypothecaire – Obligations ...ème série",
              "security_id": 203
            },
            {
              "id": 143622,
              "name": "BONS ROYAUX à 6 mois",
              "security_id": 13047
            }
          ]
        },
        {
          "id": 67,
          "name": "FONDS ETRANGERS",
          "notations": [
            {
              "id": 156,
              "name": "Rente de Naples Certif. Falconnet de 25 ducats change valiable. Jouiss. De Janvier",
              "security_id": 74,
              "spot_prices": [
                76.5,
                76.45
              ]
            },
            {
              "id": 214,
              "name": "Emprunt d'Haiti",
              "security_id": 145,
              "spot_prices": [
                655
              ]
            },
            {
              "id": 216,
              "name": "Rente perpetuelle d'Esp 5% jouiss de Janv",
              "security_id": 147,
              "spot_prices": [
                49.875
              ]
            },
            {
              "id": 182,
              "name": "Emp. d'Autriche, 1820 avec prime",
              "security_id": 139
            },
            {
              "id": 184,
              "name": "Obligations métalliques d'Autriche admin. Rotschild",
              "security_id": 141
            },
            {
              "id": 154,
              "name": "Obligations de Sicile",
              "security_id": 102
            },
            {
              "id": 150,
              "name": "Emprunt Royal d'Espagne 1823",
              "security_id": 114,
              "spot_prices": [
                72.875
              ]
            },
            {
              "id": 217,
              "name": "Emprunt royale d'Espagne, 19ème série remboursable",
              "security_id": 148,
              "spot_prices": [
                99.6875
              ]
            },
            {
              "id": 153,
              "name": "Obligations Partielles de Bade",
              "security_id": 116
            },
            {
              "id": 181,
              "name": "Rente de Naples.Certif. français de 59 ducats change fixe 423 43/59. Jouss. de Juillet",
              "security_id": 138,
              "spot_prices": [
                76.45
              ]
            },
            {
              "id": 185,
              "name": "Emprunt Naples payable à Londre et à Paris [Oblig. de Naples Emp. Rothschild en livre sterling, change 25f 50c]",
              "security_id": 142
            },
            {
              "id": 25,
              "name": "Obligations de Prusse de 1822 a Londres",
              "security_id": 25
            },
            {
              "id": 155,
              "name": "Rente d'Espagne Certif. Français 5%",
              "security_id": 113,
              "spot_prices": [
                8.875
              ]
            }
          ]
        }
      ]
    }
  ],
  "date": "1828-05-31",
  "stock_exchange": {
    "id": 1,
    "name": "Paris (Official List)"
  }
}