{
  "id": 9999,
  "name": "Paris official list",
  "children": [
    {
      "id": 78,
      "name": "COMPTANT [ARTIFICIEL]",
      "children": [
        {
          "id": 10,
          "name": "RENTES FRANCAISES (ARTIFICIEL)",
          "notations": [
            {
              "id": 279,
              "name": "3%, j. du 22 juin 1833",
              "security_id": 209,
              "spot_prices": [
                78.2,
                78.15,
                78.1
              ]
            },
            {
              "id": 278,
              "name": "4,5% (j du 22 mars)",
              "security_id": 208,
              "spot_prices": [
                100.95
              ]
            },
            {
              "id": 304,
              "name": "Emprunt national",
              "security_id": 223
            },
            {
              "id": 305,
              "name": "Emp de 1832, 5%",
              "security_id": 224
            },
            {
              "id": 143584,
              "name": "5% cons. J du 22 sept 1819",
              "security_id": 13009
            },
            {
              "id": 276,
              "name": "Quatre % (jouissance du 22 mars)",
              "security_id": 206,
              "spot_prices": [
                94
              ]
            }
          ]
        },
        {
          "id": 574,
          "name": "ARTIFICIEL (Bons de Trésor etc)",
          "notations": [
            {
              "id": 320,
              "name": "Bons du Trésor – janvier",
              "security_id": 211
            },
            {
              "id": 325,
              "name": "Bons du Trésor – juin",
              "security_id": 216
            },
            {
              "id": 331,
              "name": "Bons du Trésor – decembre",
              "security_id": 222
            },
            {
              "id": 321,
              "name": "Bons du Trésor – février",
              "security_id": 212
            },
            {
              "id": 326,
              "name": "Bons du Trésor – juillet",
              "security_id": 217
            },
            {
              "id": 319,
              "name": "Bons du Trésor",
              "security_id": 210
            },
            {
              "id": 323,
              "name": "Bons du Trésor – avril",
              "security_id": 214
            },
            {
              "id": 327,
              "name": "Bons du Trésor – aout",
              "security_id": 218
            },
            {
              "id": 322,
              "name": "Bons du Trésor – mars",
              "security_id": 213
            },
            {
              "id": 330,
              "name": "Bons du Trésor – novembre",
              "security_id": 221
            },
            {
              "id": 332,
              "name": "Act. de la Banque de France",
              "security_id": 63,
              "spot_prices": [
                1825,
                1822.5,
                1825
              ]
            },
            {
              "id": 328,
              "name": "Bons du Trésor – septembre",
              "security_id": 219
            },
            {
              "id": 324,
              "name": "Bons du Trésor – mai",
              "security_id": 215
            },
            {
              "id": 329,
              "name": "Bons du Trésor – octobre",
              "security_id": 220
            }
          ]
        },
        {
          "id": 575,
          "name": "SECTOR ARTIFICIEL [ = Fonds de la Ville de Paris]",
          "notations": [
            {
              "id": 335,
              "name": "Rente de la Ville de Paris jouissance de juil 1833",
              "security_id": 16
            },
            {
              "id": 143604,
              "name": "OBL de la Ville de PARIS,4% J de JAN. 1844, avec primes",
              "security_id": 13029
            },
            {
              "id": 333,
              "name": "Obligations de la ville de Paris 4% avec tirage des primes",
              "security_id": 225,
              "spot_prices": [
                1300,
                1302.5
              ]
            }
          ]
        },
        {
          "id": 72,
          "name": "CANAUX",
          "notations": [
            {
              "id": 314,
              "name": "Canal d'Arles à Bouc Act. de 1000 f 5%",
              "security_id": 233
            },
            {
              "id": 316,
              "name": "Canal d'Arles à Bouc Act de 5500 f et act de j 1/1000",
              "security_id": 235
            },
            {
              "id": 295,
              "name": "4 canaux Act de 1000 f 5% et billet de prime 250 f",
              "security_id": 107,
              "spot_prices": [
                1175
              ]
            },
            {
              "id": 293,
              "name": "4 canaux act de jouissance 1/68000",
              "security_id": 171
            },
            {
              "id": 298,
              "name": "Navigation de l'OISE. Action de 1250 f j. de janv..",
              "security_id": 190
            },
            {
              "id": 297,
              "name": "Canal des Ardennes Certif de 10000 f j d'avril",
              "security_id": 134
            },
            {
              "id": 311,
              "name": "Canal Rhone au Rhin act. de jouissance 1/10000",
              "security_id": 230
            },
            {
              "id": 313,
              "name": "Canal de Bourgogne act. de 2500 f et act de j 1/10000",
              "security_id": 232
            },
            {
              "id": 296,
              "name": "Canal de la Somme Action de 1000 f j d'Avril",
              "security_id": 178
            },
            {
              "id": 315,
              "name": "Canal d'Arles à Bouc Act de jouissance 1/6000",
              "security_id": 193
            },
            {
              "id": 294,
              "name": "Canal de Bourgogne Act de 1000 f 5%",
              "security_id": 196
            },
            {
              "id": 310,
              "name": "Canal Rhone au Rhin act. 1000 f 5%",
              "security_id": 229
            }
          ]
        },
        {
          "id": 73,
          "name": "SECTEUR ARTIFICIEL [= COMPAGNIES ANONYMES]",
          "notations": [
            {
              "id": 302,
              "name": "L'Union comp. d'assurances contre l'incendie",
              "security_id": 201
            },
            {
              "id": 303,
              "name": "L'Union comp. d'assurances Sur la vie humaine",
              "security_id": 202
            },
            {
              "id": 300,
              "name": "Act de la Comp Royale d'Assurances, Incendie",
              "security_id": 87
            },
            {
              "id": 317,
              "name": "Act. de la comp. roy. d'assurance, sur la vie",
              "security_id": 2790
            },
            {
              "id": 299,
              "name": "Actions des 3 ponts sur la Seine, jouis de janv.",
              "security_id": 105
            },
            {
              "id": 386,
              "name": "Assurances Générales (Actions au porteur) SUR LA VIE",
              "security_id": 90
            },
            {
              "id": 384,
              "name": "Act des Salines de l'Est",
              "security_id": 185
            },
            {
              "id": 383,
              "name": "Assurances Générales – Action nominative",
              "security_id": 100111
            },
            {
              "id": 381,
              "name": "Caise hypothéc. Act. de 1000f. J.de janv",
              "security_id": 175,
              "spot_prices": [
                655,
                652.5
              ]
            },
            {
              "id": 382,
              "name": "Assurances Générales (Actions au porteur) INCENDIE",
              "security_id": 84
            },
            {
              "id": 301,
              "name": "Comp. Française du Phénix, jouis de Janv",
              "security_id": 85
            },
            {
              "id": 318,
              "name": "Action des Pont, Garre et Port de Grenelle",
              "security_id": 182
            },
            {
              "id": 385,
              "name": "Assurances Générales (Actions au porteur) MARITIME",
              "security_id": 89
            }
          ]
        },
        {
          "id": 67,
          "name": "FONDS ETRANGERS",
          "notations": [
            {
              "id": 156,
              "name": "Rente de NAPLES. 5% (jouissance de janvier 1832)",
              "security_id": 74,
              "spot_prices": [
                95,
                94.95,
                94.85,
                94.9,
                94.95
              ]
            },
            {
              "id": 155,
              "name": "Rente d'ESPAGNE 5% (jouissance de MAI)",
              "security_id": 113,
              "spot_prices": [
                39.5,
                39.75,
                40,
                39.75,
                39.875,
                39.75,
                39.875,
                39.75,
                39.875,
                40,
                39.875,
                40
              ]
            },
            {
              "id": 350,
              "name": "Emprunt Grec certificats russe",
              "security_id": 251
            },
            {
              "id": 214,
              "name": "Emprunt d'Haiti",
              "security_id": 145,
              "spot_prices": [
                265,
                270
              ]
            },
            {
              "id": 216,
              "name": "Rente PERPETUELLE d'ESPAGNE 5% (jouiss de Janvier)",
              "security_id": 147,
              "spot_prices": [
                79.5,
                79.625,
                79.75,
                79.875,
                79.5,
                79.625,
                79.5,
                79.375,
                79.125,
                79.25,
                79.375,
                79.25,
                79.375,
                79.5,
                79.25,
                79.375,
                79.25
              ]
            },
            {
              "id": 348,
              "name": "Emprunt Grec certificats français",
              "security_id": 249
            },
            {
              "id": 349,
              "name": "Emprunt Grec certificats anglais",
              "security_id": 250
            },
            {
              "id": 388,
              "name": "Rente d'Espagne 3%",
              "security_id": 276,
              "spot_prices": [
                49.625,
                49.75,
                49.875,
                50,
                49.625,
                49.5,
                49.75,
                49.5,
                49.625,
                49.75
              ]
            },
            {
              "id": 154,
              "name": "Obligations de Sicile",
              "security_id": 102
            },
            {
              "id": 150,
              "name": "Emprunt Royal d'Espagne 1823",
              "security_id": 114,
              "spot_prices": [
                87.625,
                88,
                87.75,
                88,
                87.75
              ]
            },
            {
              "id": 222,
              "name": "Rente 5% de l'Etat Romain",
              "security_id": 153,
              "spot_prices": [
                97,
                96.875,
                96.75
              ]
            },
            {
              "id": 223,
              "name": "Emp Belge de 1831 Rente 5%",
              "security_id": 154,
              "spot_prices": [
                99
              ]
            },
            {
              "id": 358,
              "name": "Emp Royal d'Espagne 17ème série remboursable",
              "security_id": 259,
              "spot_prices": [
                99.5
              ]
            }
          ]
        }
      ]
    }
  ],
  "date": "1834-06-16",
  "stock_exchange": {
    "id": 1,
    "name": "Paris (Official List)"
  }
}