{
  "id": 9999,
  "name": "Paris official list",
  "children": [
    {
      "id": 77,
      "name": "COMPTANT & TERME & PRIMES",
      "children": [
        {
          "id": 10,
          "name": "FONDS d'ETAT Français",
          "notations": [
            {
              "id": 2635,
              "name": "Répar. Mexicaine, bulletins négociables",
              "security_id": 1526,
              "spot_prices": [
                23.5
              ]
            },
            {
              "id": 278,
              "name": "4,5% (j du 22 sept) (ancien)",
              "security_id": 208,
              "spot_prices": [
                102.2,
                102.25,
                102.15
              ]
            },
            {
              "id": 1301,
              "name": "Bons du Trésor",
              "security_id": 210
            },
            {
              "id": 2634,
              "name": "Répar. Mexicaine, prom. de rentes",
              "security_id": 1525,
              "spot_prices": [
                0.25
              ]
            },
            {
              "id": 1302,
              "name": "Obligations du Trésor (int. 20 f.) (remb. à 500f ann. finissant en 1889) (t.p.) (jouissance 20 juillet)",
              "security_id": 1235,
              "spot_prices": [
                493.75
              ]
            },
            {
              "id": 276,
              "name": "4% (jouissance du 22 sept)",
              "security_id": 206
            },
            {
              "id": 2441,
              "name": "3% (jouissance 1 janvier)",
              "security_id": 1332,
              "spot_prices": [
                74.1,
                74.15,
                74.2,
                74.225,
                74.2
              ]
            }
          ]
        },
        {
          "id": 79,
          "name": "EMPRUNTS (SEINE et VILLE)",
          "notations": [
            {
              "id": 1352,
              "name": "Ville de PARIS : Caisse de la Boulangerie (Bons)",
              "security_id": 863
            },
            {
              "id": 1347,
              "name": "Ville de PARIS : Obl. 1855-1860, remb. à 500 f.",
              "security_id": 1150,
              "spot_prices": [
                462,
                461,
                460,
                462
              ]
            },
            {
              "id": 3134,
              "name": "Ville de PARIS : Obl. 1869, 3%, remb. à 400f, t. p",
              "security_id": 2035,
              "spot_prices": [
                357,
                355
              ]
            },
            {
              "id": 1350,
              "name": "Ville de PARIS : Obl. 1852 5% (remb. à 1000 fr)",
              "security_id": 765,
              "spot_prices": [
                1295
              ]
            },
            {
              "id": 1349,
              "name": "Ville de PARIS : Obl. 1865, 4%, r. à 500f. (t.p.)",
              "security_id": 1461,
              "spot_prices": [
                515,
                516
              ]
            },
            {
              "id": 1354,
              "name": "Ville de PARIS : Caisse des Travaux publics (bons)",
              "security_id": 1016
            },
            {
              "id": 1346,
              "name": "Départ de la Seine, Emprt 1857",
              "security_id": 968,
              "spot_prices": [
                232.5
              ]
            },
            {
              "id": 2636,
              "name": "Ville de PARIS : Obl. 1869, 3%, remb. à 400f, 145f. Payés",
              "security_id": 1527,
              "spot_prices": [
                355.5,
                355,
                356,
                356.25
              ]
            },
            {
              "id": 1355,
              "name": "Ville de PARIS : 3 Ponts, annuités municipales",
              "security_id": 583
            }
          ]
        },
        {
          "id": 574,
          "name": "VALEURS FRANCAISES",
          "notations": [
            {
              "id": 444,
              "name": "Bons du Trésor à 2 mois",
              "security_id": 308
            },
            {
              "id": 447,
              "name": "Bons du Trésor à 6 mois",
              "security_id": 311
            },
            {
              "id": 1020,
              "name": "Comptoir d'Escompte, act. 500f t. p.",
              "security_id": 621,
              "spot_prices": [
                702.5,
                700
              ]
            },
            {
              "id": 1314,
              "name": "Ouest (action de 500 fr., t.p.)",
              "security_id": 703,
              "spot_prices": [
                605,
                606.25
              ]
            },
            {
              "id": 2345,
              "name": "Crédit Foncier de France, Oblig. Communales 5es 3%",
              "security_id": 1236,
              "spot_prices": [
                89.5
              ]
            },
            {
              "id": 2347,
              "name": "Sous-Comptoir du commerce et de l'industrie, act. de 500f, 125f p.",
              "security_id": 1238
            },
            {
              "id": 2589,
              "name": "Algérienne (Soc. Gén.), obl., remb. 150f, t.p., 6%",
              "security_id": 1480,
              "spot_prices": [
                136.75,
                137
              ]
            },
            {
              "id": 443,
              "name": "Bons du Trésor à 4 mois",
              "security_id": 307
            },
            {
              "id": 1018,
              "name": "Crédit Mobilier (Soc. Gén. De)",
              "security_id": 770,
              "spot_prices": [
                240,
                238.75
              ]
            },
            {
              "id": 1141,
              "name": "Crédit Foncier de France, Oblig. 500f, 3%",
              "security_id": 877,
              "spot_prices": [
                513,
                515
              ]
            },
            {
              "id": 1322,
              "name": "Ce générale transatlantique, act. 500 f. t. p.",
              "security_id": 1284,
              "spot_prices": [
                198.75,
                200,
                197.5
              ]
            },
            {
              "id": 1335,
              "name": "Ch. de fer et Docks de St-Ouen, act. 500f, t. p.",
              "security_id": 1330,
              "spot_prices": [
                115,
                112.5
              ]
            },
            {
              "id": 2453,
              "name": "Société de Dépôts et comptes courants, act. 500 f 125 f p.",
              "security_id": 1344,
              "spot_prices": [
                575
              ]
            },
            {
              "id": 1501,
              "name": "Salines de l'Est, act. 500 f",
              "security_id": 1399,
              "spot_prices": [
                840
              ]
            },
            {
              "id": 332,
              "name": "Banque de France",
              "security_id": 63,
              "spot_prices": [
                2825
              ]
            },
            {
              "id": 451,
              "name": "Bons du Trésor à 10 mois",
              "security_id": 315
            },
            {
              "id": 1310,
              "name": "Nord, act. 500f., libérées, r. à 400 f",
              "security_id": 374,
              "spot_prices": [
                1172.5,
                1175
              ]
            },
            {
              "id": 1140,
              "name": "Crédit Foncier de France, Oblig. Foncières, 500f 4%",
              "security_id": 876,
              "spot_prices": [
                525,
                526.25,
                525
              ]
            },
            {
              "id": 1144,
              "name": "Crédit Foncier de France, Oblig. Foncières, 1000f 3%",
              "security_id": 880
            },
            {
              "id": 1311,
              "name": "Est, act. 500f, t. p.",
              "security_id": 981,
              "spot_prices": [
                615,
                613.75
              ]
            },
            {
              "id": 2261,
              "name": "Crédit Foncier de France, Oblig. Communales 3%",
              "security_id": 1152,
              "spot_prices": [
                442,
                440
              ]
            },
            {
              "id": 1361,
              "name": "Docks et entrepôts de Marseille, act. 500f, t. p.",
              "security_id": 1196,
              "spot_prices": [
                205,
                203.75
              ]
            },
            {
              "id": 1360,
              "name": "Entrepôts et Magasins généraux de Paris, act. de 1/25000, t. p.",
              "security_id": 1198
            },
            {
              "id": 2450,
              "name": "Crédit Foncier de France, act. 500f, 250f pay.",
              "security_id": 1341,
              "spot_prices": [
                1305,
                1307.5,
                1310,
                1297.5,
                1292.5
              ]
            },
            {
              "id": 2456,
              "name": "Société Générale pour le développement du commerce et de l'industrie. en France, act. 500f",
              "security_id": 1347,
              "spot_prices": [
                595
              ]
            },
            {
              "id": 452,
              "name": "Bons du Trésor à 11 mois",
              "security_id": 316
            },
            {
              "id": 50204,
              "name": "Bons du Trésor à 12 mois",
              "security_id": 317
            },
            {
              "id": 1142,
              "name": "Crédit Foncier de France 10e d'obl. 4% j. nov.",
              "security_id": 878,
              "spot_prices": [
                105,
                105.5
              ]
            },
            {
              "id": 1143,
              "name": "Crédit Foncier de France 10e d'obl. 3% j. nov.",
              "security_id": 879,
              "spot_prices": [
                101.5
              ]
            },
            {
              "id": 1318,
              "name": "Bessèges à Alais, t.p.",
              "security_id": 983
            },
            {
              "id": 2257,
              "name": "Soc. Générale Crédit industriel et commercial, act. 500 f, 125 f p.",
              "security_id": 1148,
              "spot_prices": [
                667.5,
                668.75,
                670
              ]
            },
            {
              "id": 2391,
              "name": "Canal maritime de Suez, act. 500f 400f p.",
              "security_id": 1282,
              "spot_prices": [
                300,
                302.5,
                298.75,
                297.5,
                295,
                292.5,
                290,
                292.5
              ]
            },
            {
              "id": 2639,
              "name": "Vendée, act. De 500f 350f p.",
              "security_id": 1530
            },
            {
              "id": 1336,
              "name": "Cie. Immobilière, act. 500f t. p.",
              "security_id": 923,
              "spot_prices": [
                130
              ]
            },
            {
              "id": 2452,
              "name": "Crédit Foncier colonial, act. 500f 250f pay.",
              "security_id": 1229
            },
            {
              "id": 2449,
              "name": "Charentes act. 500 fr, 350 f p.",
              "security_id": 1340,
              "spot_prices": [
                490,
                492.5,
                495
              ]
            },
            {
              "id": 2753,
              "name": "Voitures à Paris (C° gén. Des), a. 500 f",
              "security_id": 1580,
              "spot_prices": [
                312.5,
                313.75
              ]
            },
            {
              "id": 2747,
              "name": "Crédit Foncier de France, actions nouvelles, 250f p.",
              "security_id": 1638,
              "spot_prices": [
                1240
              ]
            },
            {
              "id": 2748,
              "name": "Crédit Foncier de France, actions nouvelles, 1/2 action",
              "security_id": 1639
            },
            {
              "id": 2751,
              "name": "Canal maritime De Suez, Délégations, remb. 500 fr., tout payé",
              "security_id": 1642,
              "spot_prices": [
                213.75,
                212.5,
                210
              ]
            },
            {
              "id": 445,
              "name": "Bons du Trésor à 3 mois",
              "security_id": 309
            },
            {
              "id": 1313,
              "name": "Midi (action de 500 fr)",
              "security_id": 733,
              "spot_prices": [
                655,
                656.25,
                657.5
              ]
            },
            {
              "id": 1320,
              "name": "Ce Parisienne du Gaz, a. 500f, t. p.",
              "security_id": 963,
              "spot_prices": [
                1675,
                1672.5
              ]
            },
            {
              "id": 2462,
              "name": "Crédit Agricole, act. 500f, 200f p.",
              "security_id": 1353,
              "spot_prices": [
                630
              ]
            },
            {
              "id": 1319,
              "name": "Messageries Impériales (service maritime) remb. à 500 f., t. p.",
              "security_id": 959,
              "spot_prices": [
                782.5
              ]
            },
            {
              "id": 2451,
              "name": "Crédit Foncier de France, Oblig. 500f, 4% 1863",
              "security_id": 1342,
              "spot_prices": [
                522.5,
                520,
                521,
                520,
                521
              ]
            },
            {
              "id": 2455,
              "name": "Paris à Lyon et Méditerranée, act. 500f, t. p.",
              "security_id": 1346,
              "spot_prices": [
                1035,
                1033.75,
                1032.5
              ]
            },
            {
              "id": 2588,
              "name": "Algérienne (Soc. Gén.), act. 500f, 125f payés",
              "security_id": 1479,
              "spot_prices": [
                515,
                513.75,
                512.5,
                511.25
              ]
            },
            {
              "id": 141031,
              "name": "Orléans (action de 500 fr tout payé)",
              "security_id": 10456,
              "spot_prices": [
                970,
                968.75
              ]
            }
          ]
        },
        {
          "id": 67,
          "name": "FONDS d'ETATS ETRANGERS",
          "notations": [
            {
              "id": 2472,
              "name": "Italie, 5%, coupures de 100 f à 500 f exclusiv.",
              "security_id": 1363,
              "spot_prices": [
                56.9,
                56.95,
                56.85,
                56.8,
                56.75
              ]
            },
            {
              "id": 2574,
              "name": "Dette Turque, 5%, coupures de 125f",
              "security_id": 1465,
              "spot_prices": [
                48.5,
                49
              ]
            },
            {
              "id": 2945,
              "name": "Emp. Ottoman 1869, oblig. 6%, remb. À 500 fr., 75 fr. payés",
              "security_id": 1846,
              "spot_prices": [
                309,
                309.5
              ]
            },
            {
              "id": 2471,
              "name": "Italie, 5%, coupures de 500 f",
              "security_id": 1362,
              "spot_prices": [
                56.9,
                56.95,
                56.85,
                56.8,
                56.75
              ]
            },
            {
              "id": 2646,
              "name": "Etats Unis, 5-20, 64, coup. de 60 dol.",
              "security_id": 1537
            },
            {
              "id": 2649,
              "name": "Etats Unis, 5-20, 64, coup. de 3 dol.",
              "security_id": 1540
            },
            {
              "id": 2099,
              "name": "Espagne, 3% passives nouvelles",
              "security_id": 990
            },
            {
              "id": 2576,
              "name": "Dette Turque, 5%, coupures de 12f50",
              "security_id": 1467,
              "spot_prices": [
                48.5,
                49
              ]
            },
            {
              "id": 2942,
              "name": "Italie, Tabacs (oblig. des) série entière (3%)",
              "security_id": 1544
            },
            {
              "id": 2655,
              "name": "Espagne, 3%, ext., 1841-52-56-67, coup. De 6 et 12 piastres",
              "security_id": 1546
            },
            {
              "id": 2936,
              "name": "Espagne, 3%, Ext., coup. De 36 et 24 piastres",
              "security_id": 1837,
              "spot_prices": [
                29.75,
                29.5,
                29
              ]
            },
            {
              "id": 205517,
              "name": "Etats Unis, 5-20, 62, coup. de 30 dol.",
              "security_id": 104977,
              "spot_prices": [
                104.5
              ]
            },
            {
              "id": 933,
              "name": "Autrichien, £ 1852, 5% ",
              "security_id": 702,
              "spot_prices": [
                64.5,
                64,
                64.75
              ]
            },
            {
              "id": 2263,
              "name": "Autrichien, £ 1859, 5%",
              "security_id": 1154
            },
            {
              "id": 2402,
              "name": "Italie, 5%, coupures au dessous de 50f",
              "security_id": 1293,
              "spot_prices": [
                56.9,
                56.95,
                56.85,
                56.8,
                56.75
              ]
            },
            {
              "id": 2403,
              "name": "Russe, 5%, 1862, t. p.",
              "security_id": 1294
            },
            {
              "id": 2473,
              "name": "Italie, 5%, coupures de 50 f",
              "security_id": 1364,
              "spot_prices": [
                56.9,
                56.95,
                56.85,
                56.8,
                56.75
              ]
            },
            {
              "id": 2960,
              "name": "Russe, 5% 1870, obl. De 100 Liv. st., Libérées",
              "security_id": 1861,
              "spot_prices": [
                84.25
              ]
            },
            {
              "id": 2647,
              "name": "Etats Unis, 5-20, 64, coup. de 30 dol.",
              "security_id": 1886
            },
            {
              "id": 205516,
              "name": "Etats Unis, 5-20, 62, coup. de 60 dol.",
              "security_id": 104976,
              "spot_prices": [
                104.625,
                104.375
              ]
            },
            {
              "id": 205518,
              "name": "Etats Unis, 5-20, 62, coup. de 6 dol.",
              "security_id": 104978,
              "spot_prices": [
                105.5
              ]
            },
            {
              "id": 1186,
              "name": "Portugais, 3%, 1853",
              "security_id": 803
            },
            {
              "id": 2098,
              "name": "Espagne, 3%, différée convertie",
              "security_id": 989
            },
            {
              "id": 2640,
              "name": "Espagne, 3%, Ext., 1841-52-56-67-69",
              "security_id": 991,
              "spot_prices": [
                29.25,
                29
              ]
            },
            {
              "id": 90100,
              "name": "Italie, Tabacs (obl. des), r. à 500f. t.",
              "security_id": 1545
            },
            {
              "id": 2938,
              "name": "Espagne, 3%, Ext., coup. De 12 piastres et au-dessous",
              "security_id": 1839,
              "spot_prices": [
                29.75,
                29.5,
                30,
                29.5
              ]
            },
            {
              "id": 2463,
              "name": "Autrichien métallique, 5%",
              "security_id": 115,
              "spot_prices": [
                49
              ]
            },
            {
              "id": 2348,
              "name": "Portugais, 3%, 1856-57-59-60",
              "security_id": 1239
            },
            {
              "id": 2468,
              "name": "Italie 3%",
              "security_id": 1359
            },
            {
              "id": 2651,
              "name": "Pagarès, oblig. Remb. À 500f",
              "security_id": 1542
            },
            {
              "id": 2961,
              "name": "Russe, 5% 1870, obl. De 100 Liv. st., 30% payés",
              "security_id": 1862,
              "spot_prices": [
                84.75
              ]
            },
            {
              "id": 205519,
              "name": "Etats Unis, 5-20, 62, coup. de 3 dol.",
              "security_id": 104979,
              "spot_prices": [
                105.5
              ]
            },
            {
              "id": 1363,
              "name": "Espagne, 3%, Int. Coup. de 75 p, pet. coup.",
              "security_id": 605
            },
            {
              "id": 2654,
              "name": "Italie, Tabacs (obl. des), r. à 500f. t.",
              "security_id": 1545,
              "spot_prices": [
                453.75,
                455
              ]
            },
            {
              "id": 2648,
              "name": "Etats Unis, 5-20, 64, coup. de 6 dol.",
              "security_id": 1923
            },
            {
              "id": 2941,
              "name": "Espagne, 3%, Int. Coup. De 75 p. et au-dessus",
              "security_id": 401
            },
            {
              "id": 2470,
              "name": "Italie, 5%, coupures de 1000 f",
              "security_id": 1361,
              "spot_prices": [
                56.9,
                56.95,
                56.85,
                56.8,
                56.75
              ]
            },
            {
              "id": 1339,
              "name": "Mexicain, 6%, t. p.",
              "security_id": 1367
            },
            {
              "id": 2575,
              "name": "Dette Turque, 5%, coupures de 62f50",
              "security_id": 1466,
              "spot_prices": [
                48.5,
                49
              ]
            },
            {
              "id": 2955,
              "name": "Russe, 5% 1870, 20% payés, obl. De 50l.st.seules nég.",
              "security_id": 1856,
              "spot_prices": [
                84.75
              ]
            },
            {
              "id": 2959,
              "name": "Russe, 5% 1870, obl. De 50liv. St., libérées",
              "security_id": 1860,
              "spot_prices": [
                84.25
              ]
            }
          ]
        },
        {
          "id": 68,
          "name": "VALEURS ETRANGERES",
          "notations": [
            {
              "id": 2791,
              "name": "Câble transatlantique français, act. 500f, t. p. ",
              "security_id": 1690
            },
            {
              "id": 2097,
              "name": "Sud Autrich.-Lombard, ac. 500f t. P.",
              "security_id": 988,
              "spot_prices": [
                401.25,
                400,
                398.75
              ]
            },
            {
              "id": 2266,
              "name": "Guillaume-Luxembourg, j. jr (Act. 500 f., tout payé)",
              "security_id": 1157
            },
            {
              "id": 2265,
              "name": "Crédit Mobilier Espagnol, act. 500f, t. p.",
              "security_id": 1355,
              "spot_prices": [
                435,
                437.5
              ]
            },
            {
              "id": 1998,
              "name": "Crédit Foncier d'Autriche, act. 500 f, 200 f p. j. jet 64",
              "security_id": 1395,
              "spot_prices": [
                1070
              ]
            },
            {
              "id": 1999,
              "name": "Banque de Crédit et de Dépôts des Pays-bas act. 235 flor. (500f), t. p.",
              "security_id": 1450,
              "spot_prices": [
                678.75,
                676.25,
                677.5
              ]
            },
            {
              "id": 2094,
              "name": "Madrid à Saragosse (act de 500 f, t.p.)",
              "security_id": 985,
              "spot_prices": [
                81
              ]
            },
            {
              "id": 2096,
              "name": "Romains (Chemins de Fer) (action 500 fr.)",
              "security_id": 987,
              "spot_prices": [
                51.5,
                51
              ]
            },
            {
              "id": 2274,
              "name": "Portugais (Ce Royale), act, 500f, t. p.",
              "security_id": 1165
            },
            {
              "id": 2652,
              "name": "Nord-Ouest de l'Autriche act. 500f 200f, p.",
              "security_id": 1543,
              "spot_prices": [
                407.5
              ]
            },
            {
              "id": 1155,
              "name": "Société Autrichienne (Act. de 500 fr)",
              "security_id": 891,
              "spot_prices": [
                795,
                793.75,
                792.5,
                791.25
              ]
            },
            {
              "id": 2630,
              "name": "Pampelune et Barcelone (Saragosse à), act. 500f, t. p.",
              "security_id": 1521,
              "spot_prices": [
                54.25,
                54.75
              ]
            },
            {
              "id": 2650,
              "name": "Est-Hongrois, act. 500f, 200f p.",
              "security_id": 1541,
              "spot_prices": [
                315
              ]
            },
            {
              "id": 2264,
              "name": "Nord de l'Espagne, act 500 f, tout payé",
              "security_id": 1155,
              "spot_prices": [
                68
              ]
            },
            {
              "id": 2790,
              "name": "Banque ottomane, act. 500f, 250f p.",
              "security_id": 1398,
              "spot_prices": [
                601.25,
                602.5
              ]
            },
            {
              "id": 5341,
              "name": "Nord-Ouest de l'Autriche act. 500f t.p. GROSSES COUPURES",
              "security_id": 4242,
              "spot_prices": [
                402.5
              ]
            }
          ]
        }
      ]
    },
    {
      "id": 78,
      "name": "COMPTANT [ARTIFICIEL]",
      "children": [
        {
          "id": 71,
          "name": "EMPRUNTS de VILLES FRANCAISES",
          "notations": [
            {
              "id": 1371,
              "name": "Ville de Marseille 1862 (100f 5%)",
              "security_id": 1310
            },
            {
              "id": 1374,
              "name": "Rouen (v.de) 5%, . à 1250f",
              "security_id": 2361
            },
            {
              "id": 1373,
              "name": "Villes de Roubaiux et Tourcoing oblig. 50f, t. p., remb. en 55 ans, tirages 1er février et 1er août",
              "security_id": 1227
            },
            {
              "id": 1369,
              "name": "Ville de Lille, 3%, t.p., remb. à 100 f.",
              "security_id": 1226,
              "spot_prices": [
                100.5
              ]
            },
            {
              "id": 1372,
              "name": "Ville de Marseille 1862 (500f 5%)",
              "security_id": 1309
            },
            {
              "id": 1370,
              "name": "Ville de Marseille 1852 (1000fr, 5%)",
              "security_id": 1308
            },
            {
              "id": 1367,
              "name": "Bordeaux (ville de), 3%, r.100f",
              "security_id": 1406,
              "spot_prices": [
                94.5,
                95
              ]
            },
            {
              "id": 1368,
              "name": "Ville de Lille 1863, 3%, t. p.",
              "security_id": 1430,
              "spot_prices": [
                98
              ]
            },
            {
              "id": 2656,
              "name": "Lille (ville de) 1868, r. à 500f.",
              "security_id": 1547
            }
          ]
        },
        {
          "id": 73,
          "name": "VALEURS FRANCAISES: ACTIONS",
          "notations": [
            {
              "id": 1388,
              "name": "4 canaux act de jouissance",
              "security_id": 171
            },
            {
              "id": 1386,
              "name": "Canal de Jonction de la Sambre à l'Oise",
              "security_id": 241
            },
            {
              "id": 2711,
              "name": "Pont-Remy",
              "security_id": 330
            },
            {
              "id": 1451,
              "name": "Ce de l'Industrie Linière",
              "security_id": 612
            },
            {
              "id": 1427,
              "name": "Cail, act. 500 f., t. p. j. avril",
              "security_id": 684
            },
            {
              "id": 1401,
              "name": "Carmaux (mes de), act. 500f, t. p.",
              "security_id": 1231
            },
            {
              "id": 1411,
              "name": "Sous-Comptoir des Entrepreneurs",
              "security_id": 1233,
              "spot_prices": [
                172.5,
                171.25
              ]
            },
            {
              "id": 1420,
              "name": "Grand-Combe (mes de)",
              "security_id": 1259
            },
            {
              "id": 1452,
              "name": "Ce de la Taillerie impériale de diamants, act. 500f, t. p.",
              "security_id": 1268
            },
            {
              "id": 1404,
              "name": "Libourne à Bergerac, act. 500 f, 300 f. p.",
              "security_id": 1372
            },
            {
              "id": 1435,
              "name": "Ce du Marché du Temple et Saint Honoré, act. 500f, t. p.",
              "security_id": 1409
            },
            {
              "id": 2601,
              "name": "Bons du Canal St-Martin",
              "security_id": 1420
            },
            {
              "id": 1429,
              "name": "Chantiers et Atéliers de l'Océan, act. 500f, t. p.",
              "security_id": 1443
            },
            {
              "id": 2833,
              "name": "Moteurs Lenoir, ac. 500f, t. p.",
              "security_id": 1445
            },
            {
              "id": 2600,
              "name": "Union (incendie)",
              "security_id": 1491
            },
            {
              "id": 2698,
              "name": "Vitré à Fougères, act. 500f, t. p.",
              "security_id": 1589
            },
            {
              "id": 2699,
              "name": "Epinac (Mines et chemin de fer d')",
              "security_id": 1590
            },
            {
              "id": 2704,
              "name": "Annuités d'Aires à la Bassée (5 es)",
              "security_id": 1595
            },
            {
              "id": 2705,
              "name": "Gisors à Vernon, act. 500f, t. p.",
              "security_id": 1596
            },
            {
              "id": 2714,
              "name": "L'Urbaine (Inc.) act. 5000f 200f p.",
              "security_id": 1605
            },
            {
              "id": 2716,
              "name": "l'Urbaine (Vie), act. 1000f, t. p.",
              "security_id": 1607
            },
            {
              "id": 2717,
              "name": "L'Hérault (chemins de fer) 250 p.",
              "security_id": 1608
            },
            {
              "id": 2720,
              "name": "Mokta-el-Hadid (mes) a. 500f, 375 p.",
              "security_id": 1611
            },
            {
              "id": 2826,
              "name": "Orléans à Rouen (section Nord), act. 500 fr., 250 fr. payés",
              "security_id": 1727
            },
            {
              "id": 2848,
              "name": "Soc. Gén. Forestière de crédit et d'exploitation, act. 500f, 250f p.",
              "security_id": 1749,
              "spot_prices": [
                497.5
              ]
            },
            {
              "id": 1428,
              "name": "Aciéries Pétin, Gaudet et Ce",
              "security_id": 1773,
              "spot_prices": [
                280
              ]
            },
            {
              "id": 2700,
              "name": "Forges Chatillon et Commentry",
              "security_id": 4721
            },
            {
              "id": 1390,
              "name": "Bourgogne act. Indemnitaires",
              "security_id": 131
            },
            {
              "id": 1439,
              "name": "Omnibus de Paris (Société générale des Omnibus) (action 500 fr.)",
              "security_id": 945,
              "spot_prices": [
                840
              ]
            },
            {
              "id": 1407,
              "name": "Caisse générale des chemins de fer (ex. 3e répartition)",
              "security_id": 1060,
              "spot_prices": [
                34.5,
                34
              ]
            },
            {
              "id": 1416,
              "name": "Mines de Montrambert",
              "security_id": 1214
            },
            {
              "id": 1440,
              "name": "Omnibus de Paris (Société générale des Omnibus), act. de jouissance",
              "security_id": 1312
            },
            {
              "id": 1395,
              "name": "Annuités de la navigation de l'Oise",
              "security_id": 1379
            },
            {
              "id": 1506,
              "name": "Compr de l’Agricre., a. 500 f, 200f p",
              "security_id": 1417
            },
            {
              "id": 1405,
              "name": "Médoc act. 500f, 250f p.",
              "security_id": 1428,
              "spot_prices": [
                350
              ]
            },
            {
              "id": 1422,
              "name": "Houillères de St-Eloi, act. de 1/6000e, t. p.",
              "security_id": 1454
            },
            {
              "id": 1455,
              "name": "Raffineries nantaises, act. 500 f., t. p.",
              "security_id": 1457
            },
            {
              "id": 2606,
              "name": "Banque de l'Algérie",
              "security_id": 1497
            },
            {
              "id": 2719,
              "name": "Malfidano (mes de) act. 500f t. p.",
              "security_id": 1610,
              "spot_prices": [
                612.5,
                615,
                617.5
              ]
            },
            {
              "id": 2722,
              "name": "Usines de la Guadeloupe",
              "security_id": 1613
            },
            {
              "id": 2823,
              "name": "La providence (incendie)",
              "security_id": 1724
            },
            {
              "id": 2831,
              "name": "Etablissements Duval, act. 500f",
              "security_id": 1732
            },
            {
              "id": 2835,
              "name": "Bordeaux à la Sauve, act. 500 fr., 250f payés",
              "security_id": 1736
            },
            {
              "id": 2841,
              "name": "Orléans à Rouen (section Sud), act. 500f, 250f. P.",
              "security_id": 1742
            },
            {
              "id": 1392,
              "name": "Annuités d'Arles à Bouc",
              "security_id": 233
            },
            {
              "id": 535,
              "name": "Lin Maberly",
              "security_id": 399
            },
            {
              "id": 1415,
              "name": "Mines de la Loire",
              "security_id": 558
            },
            {
              "id": 1430,
              "name": "Fonderies d'Alais",
              "security_id": 750
            },
            {
              "id": 1447,
              "name": "Union des Gaz, act de 250 f",
              "security_id": 947
            },
            {
              "id": 2604,
              "name": "Omnibus de Londres, t. p.",
              "security_id": 1130
            },
            {
              "id": 1399,
              "name": "Est (Ch. de fer), act. de jouissance",
              "security_id": 1201,
              "spot_prices": [
                210
              ]
            },
            {
              "id": 1445,
              "name": "Touage de Conflans à la mer, act. 500 f t. p.",
              "security_id": 1401
            },
            {
              "id": 1432,
              "name": "Magasins généraux de Bordeaux, act. 500f, 450f p.",
              "security_id": 1432
            },
            {
              "id": 2603,
              "name": "Marchés (Ce gén.) a. 500f, 200f p.",
              "security_id": 1494
            },
            {
              "id": 2712,
              "name": "Télégraphes sous-marin entre la France et l'Angleterre, t. p.",
              "security_id": 1603
            },
            {
              "id": 2723,
              "name": "Bateaux à vapeur Omnibus, a. 500f, t. p.",
              "security_id": 1614
            },
            {
              "id": 2828,
              "name": "Crédit rural de France, a. 500f, 125f. p.",
              "security_id": 1729,
              "spot_prices": [
                480
              ]
            },
            {
              "id": 2830,
              "name": "Cotons et produits agricoles algériens, act. 500f, t. p.",
              "security_id": 1731
            },
            {
              "id": 2838,
              "name": "Nord-Est français, act. de capital, 4% remb. à 500 fr.",
              "security_id": 1739,
              "spot_prices": [
                390
              ]
            },
            {
              "id": 2842,
              "name": "Picardie et Flandres, a. 500f, 250f p.",
              "security_id": 1743
            },
            {
              "id": 2847,
              "name": "Entrepôts libres de Paris, Lyon et la méditerranée, act. 500f., t.p.",
              "security_id": 1748
            },
            {
              "id": 33723,
              "name": "Assurances générales LA GRELE",
              "security_id": 1024
            },
            {
              "id": 2691,
              "name": "Glaces de Montluçon",
              "security_id": 1098
            },
            {
              "id": 1393,
              "name": "Annuités du canal des Ardennes",
              "security_id": 1377
            },
            {
              "id": 1394,
              "name": "Annuités du canal de la Somme",
              "security_id": 1378
            },
            {
              "id": 2702,
              "name": "La France",
              "security_id": 1593
            },
            {
              "id": 2715,
              "name": "l'Urbaine (Vie), act. 1000f, 200f p.",
              "security_id": 1606
            },
            {
              "id": 2837,
              "name": "Nord-Est français, act. De dividende",
              "security_id": 1738
            },
            {
              "id": 2849,
              "name": "Journal Le Figaro, act. 500f. T.p.",
              "security_id": 1750,
              "spot_prices": [
                660
              ]
            },
            {
              "id": 1409,
              "name": "Caisse Lécuyer",
              "security_id": 6165
            },
            {
              "id": 1418,
              "name": "Mines de Saint-Etienne",
              "security_id": 6180
            },
            {
              "id": 1433,
              "name": "Magasins généraux de Bercy, act. de 1/12000e, t. p.",
              "security_id": 7361
            },
            {
              "id": 1398,
              "name": "Orléans (Ch. de fer d'), act. de jouissance",
              "security_id": 481,
              "spot_prices": [
                610
              ]
            },
            {
              "id": 1408,
              "name": "Caisse Béchet",
              "security_id": 521
            },
            {
              "id": 3337,
              "name": "La paternelle (Incendie), 400fp.",
              "security_id": 553
            },
            {
              "id": 1437,
              "name": "Ce générale des Eaux",
              "security_id": 850,
              "spot_prices": [
                490
              ]
            },
            {
              "id": 1449,
              "name": "Gaz générale de Paris, act. 500 f., t.p.",
              "security_id": 1071,
              "spot_prices": [
                520
              ]
            },
            {
              "id": 1454,
              "name": "2 Cirques",
              "security_id": 1183
            },
            {
              "id": 1446,
              "name": "Gaz de Marseille et Mines de Portes et Sénéchas, act. 500f, r. 600f",
              "security_id": 1230
            },
            {
              "id": 1450,
              "name": "Gaz de Mulhouse, act. 500 f t.p.",
              "security_id": 1421
            },
            {
              "id": 1383,
              "name": "Assurances contre les risques maritimes, ac. 1000 f 200 f p. (Caisse générale des)",
              "security_id": 1423
            },
            {
              "id": 1421,
              "name": "Houillères d'Ahun, act. de 1/8000e, t. p.",
              "security_id": 1453
            },
            {
              "id": 1413,
              "name": "L'Approvisionnement (en liquid.)",
              "security_id": 1488
            },
            {
              "id": 2688,
              "name": "Lille à Bethune et Bully-Grenay (ch. de fer de), act. 500f, t. p.",
              "security_id": 1579,
              "spot_prices": [
                462.5
              ]
            },
            {
              "id": 2706,
              "name": "Perpignan à prades, a. 500f, 325f",
              "security_id": 1597
            },
            {
              "id": 2824,
              "name": "Briouze à la Ferté-Macé, act. 500 f, 375 f. payés",
              "security_id": 1725
            },
            {
              "id": 2825,
              "name": "Frévent à Gamaches, a. 500f, 250f p.",
              "security_id": 1726
            },
            {
              "id": 2836,
              "name": "Lille à Valencienne (act. 500 fr., t.p.)",
              "security_id": 1737
            },
            {
              "id": 1410,
              "name": "Naud (Comptoir)",
              "security_id": 5184,
              "spot_prices": [
                43,
                42.5
              ]
            },
            {
              "id": 1443,
              "name": "Transports Maritimes, act. 500f, 200f, p.",
              "security_id": 7031
            },
            {
              "id": 2827,
              "name": "Versailles (r. g)",
              "security_id": 29
            },
            {
              "id": 1391,
              "name": "Annuités d'Aires à la Bassée",
              "security_id": 108
            },
            {
              "id": 1397,
              "name": "Pont, port et G de Grenelle",
              "security_id": 182
            },
            {
              "id": 1441,
              "name": "Ce Lyonnaise des Omnibus",
              "security_id": 1131
            },
            {
              "id": 1448,
              "name": "Ce centrale d'éclairage par le gaz",
              "security_id": 1186,
              "spot_prices": [
                577.5,
                580
              ]
            },
            {
              "id": 1417,
              "name": "Mines de Rive-de-Gier",
              "security_id": 1215
            },
            {
              "id": 1438,
              "name": "Ce fermière des Eaux Thermales de Vichy, act. De 1/8000, t. p.",
              "security_id": 1446
            },
            {
              "id": 1406,
              "name": "Crédit Lyonnais, act. 500f, t. p.",
              "security_id": 1678
            },
            {
              "id": 2822,
              "name": "Phénix (Vie)",
              "security_id": 1723
            },
            {
              "id": 2834,
              "name": "L'Aigle (Incendie)",
              "security_id": 1735
            },
            {
              "id": 2839,
              "name": "Orléans à Châlons, a. 500f., 250f p.",
              "security_id": 1740
            },
            {
              "id": 2843,
              "name": "Tréport, act. 500f, 250f payés",
              "security_id": 1744
            },
            {
              "id": 24088,
              "name": "Assurances contre l'Incendie (Cie gén des (act 1000f, 200p)",
              "security_id": 1775
            },
            {
              "id": 1434,
              "name": "Docks et entrepôts du Havre, act. de 1/8000e, t. p.",
              "security_id": 1262
            },
            {
              "id": 1382,
              "name": "Réassurances Inc (= Incendie) (Cie Française de)",
              "security_id": 1321
            },
            {
              "id": 1396,
              "name": "Bons du canal des Houillères de la Sarre, int. 4%, et amortis, en 12 ans, gar. Par l'Etat",
              "security_id": 1370
            },
            {
              "id": 1419,
              "name": "Campagnac (mes de), a. 1000f, t. p.",
              "security_id": 1396
            },
            {
              "id": 1431,
              "name": "Société Immobilière des Boulevards du Temple, act. 500 f t.p.",
              "security_id": 1419
            },
            {
              "id": 1436,
              "name": "Halle aux Cuirs, act. 500f, t. p.",
              "security_id": 1473
            },
            {
              "id": 1400,
              "name": "Ouest (Ch. de fer), act. de jouissance",
              "security_id": 1475
            },
            {
              "id": 2707,
              "name": "Pont-de-l'Archea à Gisors, act. 500f, 375f p.",
              "security_id": 1598
            },
            {
              "id": 2709,
              "name": "Lits militaires, act. 500f, 200f, p.",
              "security_id": 1600,
              "spot_prices": [
                710,
                715
              ]
            },
            {
              "id": 2710,
              "name": "Nord, act. de jouis. (ch. de fer de l')",
              "security_id": 1601
            },
            {
              "id": 2713,
              "name": "Le Soleil",
              "security_id": 1604
            },
            {
              "id": 2718,
              "name": "La Vologne, 250f p.",
              "security_id": 1609
            },
            {
              "id": 2721,
              "name": "Mokta-el-Hadid (mes) a. 500f, t. p.",
              "security_id": 1612
            },
            {
              "id": 2829,
              "name": "Halles, marchés et abattoirs de la ville de Naples (Ce fermière des), act. 500 fr., t. p.",
              "security_id": 1730,
              "spot_prices": [
                240,
                235,
                230,
                225
              ]
            },
            {
              "id": 2832,
              "name": "Glacières de Paris, act. 500f, t. p.",
              "security_id": 1733
            },
            {
              "id": 2846,
              "name": "Banque des chemins de fer d'intérêt local, 250f p.",
              "security_id": 1747,
              "spot_prices": [
                520,
                521.25
              ]
            },
            {
              "id": 9730,
              "name": "La Nationale (Incendie)",
              "security_id": 87
            },
            {
              "id": 1423,
              "name": "Mines de Mouzaïa, act.",
              "security_id": 685
            },
            {
              "id": 1402,
              "name": "Lyon à la Croix-Rousse, act. de 500 f., t.p.",
              "security_id": 1192
            },
            {
              "id": 1444,
              "name": "Touage de la Basse-Seine et de l'Oise, act. de 500 f. t.p.",
              "security_id": 1273
            },
            {
              "id": 2607,
              "name": "Ce de Fives-Lille, act. 500f t. p.",
              "security_id": 1498,
              "spot_prices": [
                900
              ]
            },
            {
              "id": 2685,
              "name": "Glos-Montfort à Pont-Audemer (ch. de fer de), act. 500f t. p.",
              "security_id": 1576
            },
            {
              "id": 2724,
              "name": "Salins du Midi, act. 500f, t. p.",
              "security_id": 1615
            },
            {
              "id": 2708,
              "name": "Eaux de la Banlieue de Paris, act. 500f, t. p.",
              "security_id": 4871
            }
          ]
        },
        {
          "id": 70,
          "name": "VALEURS FRANCAISES: OBLIGATIONS",
          "notations": [
            {
              "id": 929,
              "name": "Ouest, 5% 1852-54, remb. à 1250f",
              "security_id": 698
            },
            {
              "id": 970,
              "name": "Méditerranée, 1852-55, 3% (Gar. Par l'Etat), Remboursables à 500fr.",
              "security_id": 735,
              "spot_prices": [
                350
              ]
            },
            {
              "id": 33760,
              "name": "Rhône et Loire, 4%, r. à 625f",
              "security_id": 858
            },
            {
              "id": 1119,
              "name": "Rhône et Loire, 3% (Int. Gar. Par l'Etat) Remboursables à 500fr.",
              "security_id": 906
            },
            {
              "id": 2118,
              "name": "Dauphiné 3% (Int. Gar. Par l'Etat) Remboursables à 500fr.",
              "security_id": 1009,
              "spot_prices": [
                336.5,
                337
              ]
            },
            {
              "id": 2276,
              "name": "Montereau, 5%, remb. À 1250f",
              "security_id": 1167
            },
            {
              "id": 1461,
              "name": "Docks du Havre, 3% r. 500 f.",
              "security_id": 1263
            },
            {
              "id": 2725,
              "name": "Lille à Béthune, 3%, r. 500f 160f p.",
              "security_id": 1616,
              "spot_prices": [
                315
              ]
            },
            {
              "id": 2745,
              "name": "Bateaux à vapeur omnibus ob. R. à 300f t. p.",
              "security_id": 1636
            },
            {
              "id": 2615,
              "name": "Forges Chatillon et Commentry",
              "security_id": 4721
            },
            {
              "id": 144145,
              "name": "Orsay, 4%, 1865, ga. Pr Orléans, Remboursables à 500fr.",
              "security_id": 13570
            },
            {
              "id": 1045,
              "name": "Ouest,5%, 1853, r.à 1250f",
              "security_id": 797
            },
            {
              "id": 2113,
              "name": "St-Germain, 1842-49, r. 1250f., Int. Gar. P. l'Etat",
              "security_id": 1004
            },
            {
              "id": 1465,
              "name": "Ce Parisienne du Gaz, 5% r. à 500f",
              "security_id": 1070,
              "spot_prices": [
                520,
                519
              ]
            },
            {
              "id": 1462,
              "name": "Docks de Marseille, 3%",
              "security_id": 1197
            },
            {
              "id": 1341,
              "name": "Lyon à la Croix-Rousse, 3%, Remboursables à 500fr. ",
              "security_id": 1307
            },
            {
              "id": 2612,
              "name": "Messageries Imp., 6%, (services mar.), 2e série t.p., . à 500f",
              "security_id": 1503
            },
            {
              "id": 2613,
              "name": "Glaces Montluçon, ob. 5% r. 200f",
              "security_id": 1504
            },
            {
              "id": 2729,
              "name": "Gaz général de Paris, r. à 300f",
              "security_id": 1620
            },
            {
              "id": 2733,
              "name": "Ce Parisienne du Gaz, 5%, 350f p.",
              "security_id": 1624,
              "spot_prices": [
                515
              ]
            },
            {
              "id": 2739,
              "name": "Touage de Conflans à la Mer, remb. À 250 fr. t. p.",
              "security_id": 1630
            },
            {
              "id": 2741,
              "name": "L'Hérault, 3%, remb. À 500f",
              "security_id": 1632
            },
            {
              "id": 3230,
              "name": "Frévent à Gamache, 3%, r. à 500f",
              "security_id": 2131
            },
            {
              "id": 3236,
              "name": "Orléans à Rouen (section Sud), 3% t.p. r. 500f",
              "security_id": 2137,
              "spot_prices": [
                305
              ]
            },
            {
              "id": 417,
              "name": "Versailles, 1843 (r. d.), r. à 1250f, Int. Gar. P. l'Etat",
              "security_id": 284
            },
            {
              "id": 527,
              "name": "Rouen 1847-49-54, 5%, r. à 1250f., Int. Gar. P. l'Etat",
              "security_id": 391,
              "spot_prices": [
                1100
              ]
            },
            {
              "id": 2108,
              "name": "Ouest, 1855, 4%, (Int. Gar. Par l'Etat) Remboursables à 500fr.",
              "security_id": 999
            },
            {
              "id": 1466,
              "name": "Messageries Imp., 6%, (services mar.), 1re série remb.à 500f",
              "security_id": 1108
            },
            {
              "id": 1459,
              "name": "Union de Gaz, 250f, t. p.",
              "security_id": 1319
            },
            {
              "id": 1340,
              "name": "Libourne à bergerac, 3%, Remboursables à 500fr.",
              "security_id": 1373
            },
            {
              "id": 2616,
              "name": "Ce Transatlantique, 500f, 5%, t. p.",
              "security_id": 1507,
              "spot_prices": [
                395,
                392.5
              ]
            },
            {
              "id": 2744,
              "name": "Halle aux cuirs, 6%, r. 300f, t. p.",
              "security_id": 1635
            },
            {
              "id": 3231,
              "name": "Orléans à Rouen (section Nord), 3%, t. p. r. 500",
              "security_id": 2132,
              "spot_prices": [
                302.5
              ]
            },
            {
              "id": 3234,
              "name": "Bordeaux à la Sauve, 3% t.p. remb. À 500 fr",
              "security_id": 2135,
              "spot_prices": [
                292.5
              ]
            },
            {
              "id": 3238,
              "name": "Tréport, remb. À 500f t.p.",
              "security_id": 2139,
              "spot_prices": [
                290
              ]
            },
            {
              "id": 969,
              "name": "Méditerranée, int. 25f et remboursement par l'Etat, r. à 625f",
              "security_id": 734,
              "spot_prices": [
                572.5
              ]
            },
            {
              "id": 2011,
              "name": "Grand Central, 1855,3%, Remboursables à 500fr.",
              "security_id": 902,
              "spot_prices": [
                337,
                336.5,
                337
              ]
            },
            {
              "id": 2012,
              "name": "Lyon 1855, 3% (Remboursable à 500 fr)",
              "security_id": 903,
              "spot_prices": [
                336,
                337
              ]
            },
            {
              "id": 2105,
              "name": "Lyon à Genève, 1857, Remboursables à 500fr.",
              "security_id": 996,
              "spot_prices": [
                336
              ]
            },
            {
              "id": 2120,
              "name": "Paris-Lyon-Mediterranée, 3% Remboursables à 500fr.",
              "security_id": 1011,
              "spot_prices": [
                340,
                339
              ]
            },
            {
              "id": 2277,
              "name": "Boulogne (à Amiens), 4%, Remboursables à 500fr.",
              "security_id": 1168
            },
            {
              "id": 1468,
              "name": "Credit colonial,5%, .à 500f",
              "security_id": 1272
            },
            {
              "id": 2405,
              "name": "Salines de l'Est, r. à 625f",
              "security_id": 1296
            },
            {
              "id": 2406,
              "name": "Victor-Emmanuel, 1862, r. à 500f (Intérêt garanti par la France et l'Italie)",
              "security_id": 1297,
              "spot_prices": [
                328.75,
                328
              ]
            },
            {
              "id": 2609,
              "name": "Charleroi à Erquelines, r. à 500f",
              "security_id": 1500
            },
            {
              "id": 2614,
              "name": "Paris-Lyon-Mediterranée, 1866, 3% R. à 500fr.",
              "security_id": 1505,
              "spot_prices": [
                334.5,
                334,
                333.5
              ]
            },
            {
              "id": 2617,
              "name": "Médoc, 3%, remb. 500f",
              "security_id": 1508,
              "spot_prices": [
                308
              ]
            },
            {
              "id": 2731,
              "name": "Perpignan à Prades, 3%, r. 500f, t. p.",
              "security_id": 1622,
              "spot_prices": [
                290,
                291,
                292,
                293,
                295
              ]
            },
            {
              "id": 2736,
              "name": "Fives-Lille, 5% remb. à 450f",
              "security_id": 1627
            },
            {
              "id": 3241,
              "name": "Eaux de Banlieue de Paris, t.p., remb. À 300f.",
              "security_id": 2142
            },
            {
              "id": 2734,
              "name": "Lits militaires, 6%, remb. À 600f, 250f, p.",
              "security_id": 3374,
              "spot_prices": [
                542.5,
                545
              ]
            },
            {
              "id": 842,
              "name": "Orléans, 1842, 4%, remb. à 1250f",
              "security_id": 622
            },
            {
              "id": 866,
              "name": "Nord, 3%, Remboursables à 500fr.",
              "security_id": 640,
              "spot_prices": [
                350,
                349,
                348.75
              ]
            },
            {
              "id": 2119,
              "name": "Bessèges à Alais 3% Remboursables à 500fr.",
              "security_id": 1010
            },
            {
              "id": 2353,
              "name": "Saint-Etienne - remboursable à 1250 f",
              "security_id": 1012
            },
            {
              "id": 1463,
              "name": "Cail, 5%, r. à 450f en 11 ans, t. p.",
              "security_id": 1056
            },
            {
              "id": 2610,
              "name": "Havre, 1845-47, 5%, r. à 1250f, Int. Gar. P. l'Etat",
              "security_id": 1501,
              "spot_prices": [
                1075
              ]
            },
            {
              "id": 2730,
              "name": "Gisors à Vernon, 3%, r. 500fr. T. p.",
              "security_id": 1621,
              "spot_prices": [
                306.25
              ]
            },
            {
              "id": 2735,
              "name": "Houillères d'Ahun, r. à 312f50",
              "security_id": 1626,
              "spot_prices": [
                250
              ]
            },
            {
              "id": 2742,
              "name": "La Vendée, r. à 500f t. p.",
              "security_id": 1633,
              "spot_prices": [
                311,
                310
              ]
            },
            {
              "id": 3229,
              "name": "Briouze à la Ferté-Macé, 3% remb. À 500f",
              "security_id": 2130,
              "spot_prices": [
                272.5
              ]
            },
            {
              "id": 3235,
              "name": "Orléans à Châlons, 3%, t p. r à 500f",
              "security_id": 2136,
              "spot_prices": [
                304,
                304.5,
                304.25
              ]
            },
            {
              "id": 4445,
              "name": "Lille à Valenciennes (3%) (remb. à 500 fr)",
              "security_id": 3346
            },
            {
              "id": 33475,
              "name": "Orléans, 1848, 4%, remb. à 1250f",
              "security_id": 6603
            },
            {
              "id": 517,
              "name": "Rouen 1845, 4%, r. à 1250f., Int. Gar. P. l'Etat",
              "security_id": 381
            },
            {
              "id": 24092,
              "name": "Havre, 1848, 6%, r. à 1250f, Int. Gar. P. l'Etat",
              "security_id": 388
            },
            {
              "id": 2016,
              "name": "Ouest (int. Gar. Par l'Etat),3%, r.à 500f",
              "security_id": 907,
              "spot_prices": [
                338,
                338.25,
                339
              ]
            },
            {
              "id": 2107,
              "name": "Ouest 5% 1855, r. à 1250 f",
              "security_id": 998
            },
            {
              "id": 2111,
              "name": "Midi, r. à 500f. (Int.gar.p.l'Etat)",
              "security_id": 1002,
              "spot_prices": [
                338,
                338.25,
                339
              ]
            },
            {
              "id": 2117,
              "name": "Ardennes, 3%, (Int. Gar. Par l'Etat) Remboursables à 500fr.",
              "security_id": 1008
            },
            {
              "id": 2275,
              "name": "Avignon à Marseille, 5%, remb. à 1250f",
              "security_id": 1166
            },
            {
              "id": 1464,
              "name": "Mines Grand-Combe (obligation)",
              "security_id": 1260
            },
            {
              "id": 2407,
              "name": "Dieuze, 3%, emb à 500fr.",
              "security_id": 1298
            },
            {
              "id": 2569,
              "name": "Charentes, 3%, Remboursables à 500fr.",
              "security_id": 1460,
              "spot_prices": [
                325.5,
                326,
                326.5,
                327
              ]
            },
            {
              "id": 2618,
              "name": "Messageries Imp., 1866, 5%, t. p., r. 500f",
              "security_id": 1509
            },
            {
              "id": 2728,
              "name": "Ce cent. d'éclairage par le Gaz, 5%, r. à 300f",
              "security_id": 1619,
              "spot_prices": [
                278.75
              ]
            },
            {
              "id": 2743,
              "name": "La Vologne, 5% remb. à 600f",
              "security_id": 1634
            },
            {
              "id": 3233,
              "name": "Glacières de Paris, 3%, remb. À 300f",
              "security_id": 2134
            },
            {
              "id": 941,
              "name": "Orléans, 3%, Remboursables à 500fr.",
              "security_id": 710,
              "spot_prices": [
                342.5
              ]
            },
            {
              "id": 1116,
              "name": "Lyon 5%, remb. à 1250f",
              "security_id": 856,
              "spot_prices": [
                1130
              ]
            },
            {
              "id": 2109,
              "name": "Bourbonnais, 3%, gar. Par Lyon, Orléans, Gr.-Cent. Remboursables à 500fr.",
              "security_id": 1000,
              "spot_prices": [
                340,
                339
              ]
            },
            {
              "id": 1460,
              "name": "Omnibus, 500f, 5%, t. p.",
              "security_id": 1270,
              "spot_prices": [
                514
              ]
            },
            {
              "id": 1467,
              "name": "Credit colonial,6%, .à 600f",
              "security_id": 1415,
              "spot_prices": [
                428.75
              ]
            },
            {
              "id": 2726,
              "name": "Glos-Montfort à Pont-Audemer, 3%, r. à 500f",
              "security_id": 1617
            },
            {
              "id": 2737,
              "name": "Suez, 5%, r. à 500f, t. p.",
              "security_id": 1628,
              "spot_prices": [
                378.75,
                380,
                377.5
              ]
            },
            {
              "id": 418,
              "name": "Strasbourg à Bâle, 1843, remb. À 1250f",
              "security_id": 285
            },
            {
              "id": 2123,
              "name": "Teste, r`a 1250f",
              "security_id": 286
            },
            {
              "id": 943,
              "name": "Strassbourg à Bâle, 5% (gar. Par l'Etat) r. à 625f",
              "security_id": 712,
              "spot_prices": [
                555
              ]
            },
            {
              "id": 1120,
              "name": "Est, 1852-54-56, 5%, remb. À 650f",
              "security_id": 860,
              "spot_prices": [
                552,
                550
              ]
            },
            {
              "id": 2008,
              "name": "Lyon à Genève, 1855 (Int. Gar. Par l'Etat) Remboursables à 500fr.",
              "security_id": 899,
              "spot_prices": [
                338
              ]
            },
            {
              "id": 2115,
              "name": "Est, 3% (Int. Gar. Par l'Etat) Remboursables à 500fr.",
              "security_id": 1006,
              "spot_prices": [
                343.75,
                343
              ]
            },
            {
              "id": 1375,
              "name": "Ce Immobiliére de Paris, 500f, .p",
              "security_id": 1247,
              "spot_prices": [
                210,
                207.5,
                212.5,
                213.75,
                214,
                207.5,
                205,
                210
              ]
            },
            {
              "id": 1458,
              "name": "Ce Gle des Eaux, 3%, r. à 500f ",
              "security_id": 1490
            },
            {
              "id": 2727,
              "name": "Vitré à Fougères, 3%, r. à 500f.",
              "security_id": 1618
            },
            {
              "id": 2732,
              "name": "Pont-de-l'Arche à Gisors, 3%, remb. 500f, t. p.",
              "security_id": 1623,
              "spot_prices": [
                310
              ]
            },
            {
              "id": 3232,
              "name": "Halles et Marchés de Naples, obl. 6%, r. à 400f",
              "security_id": 2133,
              "spot_prices": [
                240,
                242.5
              ]
            },
            {
              "id": 4447,
              "name": "Picardie et Flandres (3%) (r. à 500 fr.) (t.p.)",
              "security_id": 3348,
              "spot_prices": [
                297.5
              ]
            }
          ]
        },
        {
          "id": 74,
          "name": "FONDS d'ETATS et de VILLES ETRANGERES",
          "notations": [
            {
              "id": 2357,
              "name": "Obl. Empt Ottoman, 1860, t. p.",
              "security_id": 1248
            },
            {
              "id": 2358,
              "name": "Emprunt Belge, 4,5%, 1844-55-57-60",
              "security_id": 1249
            },
            {
              "id": 2362,
              "name": "Emp. Belge, 4%, 1836",
              "security_id": 1253
            },
            {
              "id": 2411,
              "name": "Ville de Liège 1853",
              "security_id": 1302
            },
            {
              "id": 2661,
              "name": "Emprunt Russe, 4%, 1867, ob. 500f, 57f50 tout payé (unités seules négociables)",
              "security_id": 1552,
              "spot_prices": [
                357,
                356
              ]
            },
            {
              "id": 2666,
              "name": "Empt Egyptien, 7% 1868, t. payé. (coup. 35 f, seules nég.)",
              "security_id": 1557,
              "spot_prices": [
                81,
                81.5
              ]
            },
            {
              "id": 1005,
              "name": "Emprunt Romain, 5%",
              "security_id": 575,
              "spot_prices": [
                64.5,
                65
              ]
            },
            {
              "id": 1333,
              "name": "Obl. Piémont, cert. Anglais, 5%",
              "security_id": 683
            },
            {
              "id": 2501,
              "name": "Emprunt Autrichien, 1860 (5es)",
              "security_id": 1392,
              "spot_prices": [
                235
              ]
            },
            {
              "id": 2578,
              "name": "Emp. Autrichien, 1865, ob. 500f, (200 flor.) t. p.",
              "security_id": 1469,
              "spot_prices": [
                332.5
              ]
            },
            {
              "id": 2668,
              "name": "Bons Ottoman 6%, avril 1870, 500f, t. p.",
              "security_id": 1559
            },
            {
              "id": 2675,
              "name": "Bons Ottoman 6%, oct. 1873, 500f, t. p.",
              "security_id": 1566
            },
            {
              "id": 2366,
              "name": "Ville de Bruxelles 1856",
              "security_id": 1257
            },
            {
              "id": 2502,
              "name": "Obl. Empt Ottoman, 1863, t. p.",
              "security_id": 1393,
              "spot_prices": [
                347.5,
                348.75,
                350,
                347.5
              ]
            },
            {
              "id": 1469,
              "name": "Emprunt Tunisien, 7%,  remb. au pr (=pair), oblig. 500 fr.",
              "security_id": 1451,
              "spot_prices": [
                183
              ]
            },
            {
              "id": 2659,
              "name": "Ob. Domaniales Autrich. 66, est.",
              "security_id": 1550,
              "spot_prices": [
                262.5,
                263,
                263.5
              ]
            },
            {
              "id": 2670,
              "name": "Bons Ottoman 6%, avril 1871, 500f, t. p.",
              "security_id": 1561
            },
            {
              "id": 2672,
              "name": "Bons Ottoman 6%, avril 1872, 500f, t. p.",
              "security_id": 1563
            },
            {
              "id": 2678,
              "name": "Emprunt Russe, 1869, r. à 500f, t. p.",
              "security_id": 1569,
              "spot_prices": [
                357.25,
                357.5
              ]
            },
            {
              "id": 18000,
              "name": "Emprunt Belge, 2,5%",
              "security_id": 367
            },
            {
              "id": 1327,
              "name": "Emprunt Russe, 4,5%, 1850",
              "security_id": 1316
            },
            {
              "id": 2478,
              "name": "Emprunt Mexicain, 1865, obl. 500f, t. p.",
              "security_id": 1369
            },
            {
              "id": 1499,
              "name": "Emprunt Tunisien, 7%, 1865, obl. 500f, t.p.",
              "security_id": 1452,
              "spot_prices": [
                187
              ]
            },
            {
              "id": 2662,
              "name": "Emprunt Hongrois, obl. 300f, 180f, p.",
              "security_id": 1553,
              "spot_prices": [
                228,
                227.5
              ]
            },
            {
              "id": 3174,
              "name": "Emprunt Honduras (obl. Hyp.), remb. À 300f. t. p. (Unités seules négociables)",
              "security_id": 2075,
              "spot_prices": [
                212,
                212.25
              ]
            },
            {
              "id": 430,
              "name": "Emprunt d'Haiti",
              "security_id": 145
            },
            {
              "id": 18004,
              "name": "Emprunt Hollandais, 2,5%, CF (Certificats Français)",
              "security_id": 255
            },
            {
              "id": 1332,
              "name": "Oblig. Piémont 1849 (4%)",
              "security_id": 570
            },
            {
              "id": 2579,
              "name": "Obl. Empt Ottoman, 1865, 180f p.",
              "security_id": 1470,
              "spot_prices": [
                362.5,
                360
              ]
            },
            {
              "id": 2657,
              "name": "Empr. Danubien (Principautés-Unies), 8%, 60 pay.",
              "security_id": 1548
            },
            {
              "id": 2669,
              "name": "Bons Ottoman 6%, oct. 1870, 500f, t. p.",
              "security_id": 1560
            },
            {
              "id": 2673,
              "name": "Bons Ottoman 6%, oct. 1872, 500f, t. p.",
              "security_id": 1564
            },
            {
              "id": 2671,
              "name": "Bons Ottoman 6%, oct. 1871, 500f, t. p.",
              "security_id": 1562
            },
            {
              "id": 1331,
              "name": "Obl. Piémont, 1834, 4%",
              "security_id": 352
            },
            {
              "id": 2413,
              "name": "Ville de Bruxelles 1862",
              "security_id": 1304
            },
            {
              "id": 2658,
              "name": "Ville d'Anvers 1867, t. p.",
              "security_id": 1549,
              "spot_prices": [
                99
              ]
            },
            {
              "id": 2674,
              "name": "Bons Ottoman 6%, avril 1873, 500f, t. p.",
              "security_id": 1565
            },
            {
              "id": 3175,
              "name": "Emp. Ottoman, 1860, t. p., r. 500f.",
              "security_id": 2076,
              "spot_prices": [
                342.5
              ]
            },
            {
              "id": 2367,
              "name": "Ville de Bruxelles 1853",
              "security_id": 1258
            },
            {
              "id": 2500,
              "name": "Emprunt Autrichien, 1860, ob. 500 flor.",
              "security_id": 1391,
              "spot_prices": [
                1017.5
              ]
            },
            {
              "id": 2663,
              "name": "Ville de Bruxelles, 1868, t. p.",
              "security_id": 1554,
              "spot_prices": [
                104.5
              ]
            },
            {
              "id": 2664,
              "name": "Ville de Liège 1868, r. 100f, t. p.",
              "security_id": 1555,
              "spot_prices": [
                97.5
              ]
            },
            {
              "id": 2665,
              "name": "Et vice-roi d'Egyp. Ob. Hyp. R. 500f",
              "security_id": 1556,
              "spot_prices": [
                425
              ]
            },
            {
              "id": 200190,
              "name": "Emprunt Piémont, 1850, 4%",
              "security_id": 100115
            }
          ]
        },
        {
          "id": 82,
          "name": "VALEURS ETRANGERES: ACTIONS",
          "notations": [
            {
              "id": 2621,
              "name": "Mines de Santander",
              "security_id": 1118
            },
            {
              "id": 1473,
              "name": "Ligne d'Italie, act. 500f t. p.",
              "security_id": 1397
            },
            {
              "id": 2687,
              "name": "Zinc Nouvelle-Montagne, act. 5es",
              "security_id": 1578,
              "spot_prices": [
                235
              ]
            },
            {
              "id": 1479,
              "name": "Zinc V-Montagne (= Vieille Montagne) (10me d'action)",
              "security_id": 325,
              "spot_prices": [
                287.5
              ]
            },
            {
              "id": 1470,
              "name": "Ch. Fer Romains, act. Trentenaires privilégiées 6%, act. 500 f t. p.",
              "security_id": 1318
            },
            {
              "id": 2684,
              "name": "Soc. Autrichienne, act. De jouis.",
              "security_id": 1575,
              "spot_prices": [
                370
              ]
            },
            {
              "id": 2682,
              "name": "Crédit foncier et Commt Suisse, act. 500f, 150f p.",
              "security_id": 1573,
              "spot_prices": [
                487.5,
                485,
                486.25,
                490,
                488.75
              ]
            },
            {
              "id": 2686,
              "name": "Zinc Nouvelle-Montagne, act. 1000f",
              "security_id": 1577,
              "spot_prices": [
                1175
              ]
            },
            {
              "id": 1484,
              "name": "Cie générale de Bruxelles, pour l'éclairage et le chauffage par le gaz, act. 500 f,350f p.",
              "security_id": 1411
            },
            {
              "id": 1474,
              "name": "Ce Italienne, ch. de fer Méridionaux, act. de 500 f., t.p.",
              "security_id": 2727
            }
          ]
        },
        {
          "id": 83,
          "name": "VALEURS ETRANGERES: OBLIGATIONS",
          "notations": [
            {
              "id": 3367,
              "name": "Chemin de Fer Nord de l'Espagne, 3%, obligat. De priorité (Jouissance Avr. 70)",
              "security_id": 2268,
              "spot_prices": [
                191,
                190.5,
                190,
                190.5,
                191
              ]
            },
            {
              "id": 3424,
              "name": "Nord de l'Espagne. 3%, remb. à 500 f. (oct 1868)",
              "security_id": 2325,
              "spot_prices": [
                168
              ]
            },
            {
              "id": 2625,
              "name": "Ch. de fer Guill-Luxemb., r. 625f",
              "security_id": 1516,
              "spot_prices": [
                514
              ]
            },
            {
              "id": 3363,
              "name": "Bons Lombards, série 7, r. sept. 70, remboursables à 500f",
              "security_id": 2264,
              "spot_prices": [
                505.5
              ]
            },
            {
              "id": 3373,
              "name": "Bons Lombards, série n°8, r. sept 1871",
              "security_id": 2274,
              "spot_prices": [
                506
              ]
            },
            {
              "id": 1498,
              "name": "Ch. De fer Saragosse 3%, remb. À 500 fr",
              "security_id": 1048,
              "spot_prices": [
                181,
                180
              ]
            },
            {
              "id": 1486,
              "name": "Romaines, 3%, remb. à 500 fr.",
              "security_id": 1122,
              "spot_prices": [
                128,
                128.5,
                128
              ]
            },
            {
              "id": 1491,
              "name": "Saragosse à Pampelune, 3% remb. À 500 fr",
              "security_id": 1222,
              "spot_prices": [
                142,
                140.5
              ]
            },
            {
              "id": 2695,
              "name": "Crédit Fonçier Suisse 5%, r. à 500 f.",
              "security_id": 1586,
              "spot_prices": [
                265,
                262.5,
                260,
                257.5,
                255,
                252.5,
                260,
                258.75
              ]
            },
            {
              "id": 3368,
              "name": "Chemin de Fer Nord de l'Espagne, 3%, à revenu variable",
              "security_id": 2269,
              "spot_prices": [
                85,
                85.5,
                86,
                84
              ]
            },
            {
              "id": 3375,
              "name": "Bons Lombards, série n°8, r. de 1872 à 74",
              "security_id": 2276,
              "spot_prices": [
                505,
                504,
                505
              ]
            },
            {
              "id": 3386,
              "name": "Bons Méridionaux 6%, r. 500f. En 30 ans, 310f. P",
              "security_id": 2287,
              "spot_prices": [
                440
              ]
            },
            {
              "id": 1485,
              "name": "Lombardes, 3%, remb. à 500 fr.",
              "security_id": 1125,
              "spot_prices": [
                241.25,
                241,
                240.25,
                241.25,
                241.5,
                241,
                240.5
              ]
            },
            {
              "id": 1495,
              "name": "Ligne d'Italie, 3% remb. à 500 fr",
              "security_id": 1217
            },
            {
              "id": 3378,
              "name": "Bons Lombards, série n°8, r. 1876, t.p.",
              "security_id": 2279,
              "spot_prices": [
                504.5,
                503,
                500
              ]
            },
            {
              "id": 3380,
              "name": "Bons Lombards, série n°8, r. 1877, t.p.",
              "security_id": 2281
            },
            {
              "id": 1493,
              "name": "Portugaise, 3% remb. à 500 fr",
              "security_id": 1266,
              "spot_prices": [
                108,
                107,
                106
              ]
            },
            {
              "id": 3388,
              "name": "Bons Méridionaux 6%, r. 500f. En 30 ans, tout payé",
              "security_id": 2289
            },
            {
              "id": 3382,
              "name": "Bons Lombards, série n°8, r. 1878, t.p.",
              "security_id": 2283,
              "spot_prices": [
                505,
                506,
                507
              ]
            },
            {
              "id": 2693,
              "name": "Transcontinental (Bons hypothécaires 6% du ch. de fer), r. à 1000 dol.",
              "security_id": 1584,
              "spot_prices": [
                782,
                784
              ]
            },
            {
              "id": 3371,
              "name": "Bons Lombards, série n°9, r. mars 1871",
              "security_id": 2272,
              "spot_prices": [
                506
              ]
            },
            {
              "id": 3377,
              "name": "Bons Lombards, série n°8, r. 1875, t.p.",
              "security_id": 2278,
              "spot_prices": [
                505,
                504
              ]
            }
          ]
        }
      ]
    }
  ],
  "date": "1870-04-30",
  "stock_exchange": {
    "id": 1,
    "name": "Paris (Official List)"
  }
}