{
  "id": 9999,
  "name": "Paris official list",
  "children": [
    {
      "id": 77,
      "name": "COMPTANT & TERME & PRIMES",
      "children": [
        {
          "id": 10,
          "name": "RENTES FRANCAISES",
          "notations": [
            {
              "id": 1110,
              "name": "4,5% Empt, 1854, j 22 mars 1854",
              "security_id": 853
            },
            {
              "id": 1111,
              "name": "4,5% certif. de 1000 f. et au-dessous, j. du mars 1854",
              "security_id": 854,
              "spot_prices": [
                98.5
              ]
            },
            {
              "id": 1108,
              "name": "3% Empt, 1854, j 22 déc 53",
              "security_id": 851
            },
            {
              "id": 278,
              "name": "4,5% (j du 22 sept)",
              "security_id": 208,
              "spot_prices": [
                93.5
              ]
            },
            {
              "id": 928,
              "name": "4,5% jouissance du 22 mars 1852, non remb.le pendant 10 ans",
              "security_id": 697,
              "spot_prices": [
                98,
                98.25,
                98.5
              ]
            },
            {
              "id": 143606,
              "name": "3% jouissance du 22 juin",
              "security_id": 13031
            },
            {
              "id": 276,
              "name": "4% (jouissance du 22 sept)",
              "security_id": 206,
              "spot_prices": [
                86
              ]
            },
            {
              "id": 279,
              "name": "3% jouissance du 22 décembre",
              "security_id": 209,
              "spot_prices": [
                71.2
              ]
            },
            {
              "id": 1109,
              "name": "3% certif. de 1000 f. et au-dessous, j. 22 déc. 1853",
              "security_id": 852
            }
          ]
        },
        {
          "id": 574,
          "name": "ARTIFICIEL (Bons de Trésor etc)",
          "notations": [
            {
              "id": 444,
              "name": "Bons du Trésor à 2 mois",
              "security_id": 308
            },
            {
              "id": 447,
              "name": "Bons du Trésor à 6 mois",
              "security_id": 311
            },
            {
              "id": 1018,
              "name": "Soc. gén. Crédit mob., j. (Act. de 500 f, 250 f. payés)",
              "security_id": 770,
              "spot_prices": [
                690,
                687.5
              ]
            },
            {
              "id": 33719,
              "name": "Crédit fonc de France, Obligat., 500 f, j. Nov. (300 f payés)",
              "security_id": 6847
            },
            {
              "id": 443,
              "name": "Bons du Trésor à 4 mois",
              "security_id": 307
            },
            {
              "id": 319,
              "name": "Bons du Trésor",
              "security_id": 210
            },
            {
              "id": 451,
              "name": "Bons du Trésor à 10 mois",
              "security_id": 315
            },
            {
              "id": 1020,
              "name": "Comptoir d'esc., j. jer 1853 (Act de 500 fr, tout payé)",
              "security_id": 621,
              "spot_prices": [
                602.5,
                600,
                597.5,
                600
              ]
            },
            {
              "id": 448,
              "name": "Bons du Trésor à 7 mois",
              "security_id": 312
            },
            {
              "id": 449,
              "name": "Bons du Trésor à 8 mois",
              "security_id": 313
            },
            {
              "id": 452,
              "name": "Bons du Trésor à 11 mois",
              "security_id": 316
            },
            {
              "id": 50204,
              "name": "Bons du Trésor à 12 mois",
              "security_id": 317
            },
            {
              "id": 1039,
              "name": "Crédit fonc. de France, 10ème d'obligations tout payé",
              "security_id": 791
            },
            {
              "id": 1017,
              "name": "Crédit fonc. de France, j. jer (Act. de 500 f, 250 f. payés)",
              "security_id": 1341
            },
            {
              "id": 446,
              "name": "Bons du Trésor à 5 mois",
              "security_id": 310
            },
            {
              "id": 1019,
              "name": "Crédit fonc. de France, Obl. de 1000 fr.",
              "security_id": 771
            },
            {
              "id": 332,
              "name": "Banque de France (actions de la) (jouis. janvier 1852)",
              "security_id": 63,
              "spot_prices": [
                2900,
                2895
              ]
            },
            {
              "id": 442,
              "name": "Bons du Trésor à 1 mois",
              "security_id": 306
            },
            {
              "id": 445,
              "name": "Bons du Trésor à 3 mois",
              "security_id": 309
            },
            {
              "id": 450,
              "name": "Bons du Trésor à 9 mois",
              "security_id": 314
            },
            {
              "id": 1038,
              "name": "Crédit fonc. de France, Obligations tout payé",
              "security_id": 790
            }
          ]
        },
        {
          "id": 67,
          "name": "SECTOR ARTIFICIEL [= FONDS ETRANGERS]",
          "notations": [
            {
              "id": 864,
              "name": "Emp. Belge 1840-1842 (jouis. nov.)",
              "security_id": 638
            },
            {
              "id": 786,
              "name": "Emprunt Piémont. 5% (jouissance juillet)",
              "security_id": 577,
              "spot_prices": [
                83.75,
                83.5
              ]
            },
            {
              "id": 933,
              "name": "Autrichien, 5%, j. jer 1853 (tout payé)",
              "security_id": 702,
              "spot_prices": [
                80.625,
                81
              ]
            },
            {
              "id": 1015,
              "name": "Piémontais 1853 3%, j. janvier 1853 (1/6 payé, soit 115 f.)",
              "security_id": 767
            }
          ]
        },
        {
          "id": 68,
          "name": "SECTOR ARTIFICIEL [=CHEMINS DE FER (actions)]",
          "notations": [
            {
              "id": 1114,
              "name": "Bordeaux à la Teste (actions de 500 fr tout payé)",
              "security_id": 37,
              "spot_prices": [
                250,
                245
              ]
            },
            {
              "id": 920,
              "name": "Paris à Lyon (action de 500 fr, 250 fr payés)",
              "security_id": 689,
              "spot_prices": [
                942.5
              ]
            },
            {
              "id": 934,
              "name": "Ouest (action de 500 fr., 250 fr payés)",
              "security_id": 703,
              "spot_prices": [
                637.5,
                635
              ]
            },
            {
              "id": 865,
              "name": "Sceaux (tout payé)",
              "security_id": 369,
              "spot_prices": [
                200
              ]
            },
            {
              "id": 24093,
              "name": "Nord (actions de 500 fr, dont 400 fr payé)",
              "security_id": 374,
              "spot_prices": [
                816.25,
                815
              ]
            },
            {
              "id": 967,
              "name": "Lyon à la Mediterranée (action de 500 fr., 300 fr payés)",
              "security_id": 732,
              "spot_prices": [
                842.5,
                843.75,
                845
              ]
            },
            {
              "id": 1085,
              "name": "Lyon à Genève (Act de 500 f, 200 f payés) ",
              "security_id": 792,
              "spot_prices": [
                502.5,
                505
              ]
            },
            {
              "id": 1042,
              "name": "Est, act. anciennes, j. oct. 53 (Tout payé)",
              "security_id": 981,
              "spot_prices": [
                777.5,
                780,
                778.75
              ]
            },
            {
              "id": 143702,
              "name": "Orléans (actions de 500 fr tout payé)",
              "security_id": 10456,
              "spot_prices": [
                1165,
                1163.75,
                1165
              ]
            },
            {
              "id": 29,
              "name": "St. Germain (actions de 500 fr tout payé)",
              "security_id": 27,
              "spot_prices": [
                687.5
              ]
            },
            {
              "id": 35,
              "name": "Rouen au Havre (actions de 500 fr tout payé)",
              "security_id": 32,
              "spot_prices": [
                576.25,
                577.5
              ]
            },
            {
              "id": 512,
              "name": "Dieppe et Fécamp (actions de 500 fr, 400 fr payés)",
              "security_id": 417,
              "spot_prices": [
                285
              ]
            },
            {
              "id": 34,
              "name": "Paris à Rouen (actions de 500 fr tout payé)",
              "security_id": 31,
              "spot_prices": [
                1017.5,
                1016.25,
                1015
              ]
            },
            {
              "id": 1041,
              "name": "Est, nouvelles, j oct. 1853 (Act de 500 f, 100 payés)",
              "security_id": 793,
              "spot_prices": [
                618.75,
                620
              ]
            },
            {
              "id": 32,
              "name": "Versailles (rive gauche) (actions de 500 fr tout payé)",
              "security_id": 29,
              "spot_prices": [
                312.5
              ]
            },
            {
              "id": 939,
              "name": "Caen à Cherbourg (action de 500 fr., 100 fr payés)",
              "security_id": 708,
              "spot_prices": [
                517.5
              ]
            },
            {
              "id": 968,
              "name": "Midi (action de 500 fr., 250 fr payés)",
              "security_id": 733,
              "spot_prices": [
                610,
                607.5
              ]
            },
            {
              "id": 1115,
              "name": "St-Rambert à Grenoble (Act de 500 f, 200 f payés)",
              "security_id": 855,
              "spot_prices": [
                430
              ]
            },
            {
              "id": 143743,
              "name": "Orleans nouvle, j. oct. 1852",
              "security_id": 13168
            },
            {
              "id": 1016,
              "name": "Graissessac à Beziers (Act. de 500 f, 200 f. payés)",
              "security_id": 768
            },
            {
              "id": 966,
              "name": "Grand Central de France (Act. de 500 f, 200 f. payés)",
              "security_id": 731,
              "spot_prices": [
                492.5,
                491.25
              ]
            }
          ]
        }
      ]
    },
    {
      "id": 78,
      "name": "COMPTANT [ARTIFICIEL]",
      "children": [
        {
          "id": 70,
          "name": "OBLIGATIONS",
          "notations": [
            {
              "id": 416,
              "name": "St. Germain 1842 - 1849",
              "security_id": 281
            },
            {
              "id": 24092,
              "name": "Havre 1848 6%",
              "security_id": 388
            },
            {
              "id": 527,
              "name": "Rouen 1847-1849, 5%",
              "security_id": 391,
              "spot_prices": [
                1000
              ]
            },
            {
              "id": 941,
              "name": "Orléans 1852, jouis.oct.1852",
              "security_id": 710,
              "spot_prices": [
                310,
                308.75
              ]
            },
            {
              "id": 415,
              "name": "St. Germain 1838-40 (anc. 5%)",
              "security_id": 268
            },
            {
              "id": 480,
              "name": "Montpellier (5,5%)",
              "security_id": 344
            },
            {
              "id": 922,
              "name": "Avignon (intérêt 5% garanti par l'Etat) (300 fr payé)",
              "security_id": 380
            },
            {
              "id": 517,
              "name": "Rouen 1845 4%",
              "security_id": 381
            },
            {
              "id": 518,
              "name": "Havre 1846 5%",
              "security_id": 382,
              "spot_prices": [
                1010
              ]
            },
            {
              "id": 523,
              "name": "Marseille 1850 remb en 1250 f d. 1000 int 5% gar par l'Etat",
              "security_id": 387
            },
            {
              "id": 861,
              "name": "Orléans 1848 5% (jouissance janvier) (Remboursable à 1250 fr)",
              "security_id": 636,
              "spot_prices": [
                1015
              ]
            },
            {
              "id": 866,
              "name": "Nord, (500 fr.), 3%",
              "security_id": 640,
              "spot_prices": [
                307.5,
                306.25,
                305,
                307.5,
                306.25,
                307.5
              ]
            },
            {
              "id": 1045,
              "name": "Ouest 1853 oblig. 1000 f., 250 f. pay. j. jt (rembours. à 1250 fr)",
              "security_id": 797,
              "spot_prices": [
                995
              ]
            },
            {
              "id": 970,
              "name": "Méditerranée, 3% (tout payé) (jouissance juillet 1852)",
              "security_id": 735,
              "spot_prices": [
                307.5
              ]
            },
            {
              "id": 418,
              "name": "Strasbourg à Bale, obl de 1250 f",
              "security_id": 285
            },
            {
              "id": 929,
              "name": "Ouest 1852, tout payé (rembours. à 1250 fr)",
              "security_id": 698,
              "spot_prices": [
                995
              ]
            },
            {
              "id": 1117,
              "name": "Orléans, 1854, 75 fr payés (Remboursable à 500 fr)",
              "security_id": 857,
              "spot_prices": [
                310
              ]
            },
            {
              "id": 1120,
              "name": "Est 1852-54, tout pay j juin",
              "security_id": 860,
              "spot_prices": [
                505
              ]
            },
            {
              "id": 143741,
              "name": "Méditerranée, 375 f. pay.j.avr int 25 et remb. g. pr l'Etat Lib.",
              "security_id": 13166
            },
            {
              "id": 417,
              "name": "Versailles (Rive droite) de 1843, de 1250 fr (5%)",
              "security_id": 284
            },
            {
              "id": 791,
              "name": "Montereau à Troyes",
              "security_id": 582
            },
            {
              "id": 860,
              "name": "Orléans 1842 5% (jouissance janvier) (Remboursable à 1250 fr)",
              "security_id": 635
            },
            {
              "id": 943,
              "name": "Bale, 5% j. mai 1852 125 f payés remb à 625 f",
              "security_id": 712,
              "spot_prices": [
                500
              ]
            },
            {
              "id": 1043,
              "name": "Paris à Sceaux, obl. de 500 f., 4% j. mai 1852",
              "security_id": 795
            },
            {
              "id": 1116,
              "name": "Lyon, 5%, j oct 1853 (Remboursable à 1250 fr)",
              "security_id": 856,
              "spot_prices": [
                1027.5
              ]
            },
            {
              "id": 1118,
              "name": "Rhone et Loire, t pay j jr 1854 (Int 25, g par l'Etat)",
              "security_id": 858
            },
            {
              "id": 2004,
              "name": "Grand-Central, 3% obl. de 500 f",
              "security_id": 895,
              "spot_prices": [
                291.25
              ]
            },
            {
              "id": 1044,
              "name": "Versailles (rd) 5% 1839, remb. à 1000 f., j. jer 1853",
              "security_id": 796
            },
            {
              "id": 1119,
              "name": "Rhone et Loire, t pay j jr 1854 (Int 15, g par l'Etat)",
              "security_id": 906,
              "spot_prices": [
                300
              ]
            },
            {
              "id": 969,
              "name": "Méditerranée, 160 f pay j d'octobre int 25 et remb gar par l'Etat",
              "security_id": 734,
              "spot_prices": [
                510
              ]
            },
            {
              "id": 1046,
              "name": "Dijon à Besanç., tout pay. j. oct. int. 25, remb g pr l'Etat",
              "security_id": 798
            }
          ]
        },
        {
          "id": 71,
          "name": "VILLE",
          "notations": [
            {
              "id": 1112,
              "name": "Oblig. 1852, j. jer 1853 (5%)",
              "security_id": 765,
              "spot_prices": [
                1115
              ]
            },
            {
              "id": 1113,
              "name": "Oblig. 1849, j. oct. 1852 (5%)",
              "security_id": 764,
              "spot_prices": [
                1060
              ]
            },
            {
              "id": 1121,
              "name": "Caisse de la Boulangerie (Bons)",
              "security_id": 863
            }
          ]
        },
        {
          "id": 579,
          "name": "ARTIFICIEL",
          "notations": [
            {
              "id": 1157,
              "name": "Oblig. dép. Seine, . jer 1853",
              "security_id": 393
            },
            {
              "id": 1158,
              "name": "3 Ponts, annuités municipales",
              "security_id": 583
            }
          ]
        },
        {
          "id": 72,
          "name": "CANAUX",
          "notations": [
            {
              "id": 364,
              "name": "Canal d'Aire à la Bassée",
              "security_id": 108
            },
            {
              "id": 314,
              "name": "Canal d'Arles à Bouc Act. de 1000 f 5%",
              "security_id": 233
            },
            {
              "id": 24090,
              "name": "4 canaux act de jouissance",
              "security_id": 171
            },
            {
              "id": 971,
              "name": "Sambre canalisée act 500 f",
              "security_id": 699
            },
            {
              "id": 340,
              "name": "Sambre à l'Oise, act de 1000 fr., 5%",
              "security_id": 241
            },
            {
              "id": 295,
              "name": "4 canaux et c.p. (= coupon de prime)",
              "security_id": 107
            },
            {
              "id": 312,
              "name": "Canal de Bourgogne Act. de jouissance 1/27200",
              "security_id": 198
            },
            {
              "id": 310,
              "name": "Canal Rhone au Rhin Act. de 1000 f 5%",
              "security_id": 229
            },
            {
              "id": 158412,
              "name": "Canal de Bourgogne Act de 1000 f 5%",
              "security_id": 196
            }
          ]
        },
        {
          "id": 73,
          "name": "COMPAGNIES ANONYMES",
          "notations": [
            {
              "id": 1021,
              "name": "Le soleil, incendie",
              "security_id": 773
            },
            {
              "id": 301,
              "name": "Française du Phénix",
              "security_id": 85
            },
            {
              "id": 1049,
              "name": "Palais de cristal, j. oc. 1852 (Int. 4% g. p. l'Etat ac. 100 f 50 pay.)",
              "security_id": 744,
              "spot_prices": [
                110
              ]
            },
            {
              "id": 924,
              "name": "La Nationale, assurances (VIE)",
              "security_id": 2790
            },
            {
              "id": 1050,
              "name": "Générale d'ass. (Maritime) assurances gén",
              "security_id": 802
            },
            {
              "id": 381,
              "name": "Caisse hypothecaire (act. de 1000 fr.)(ex 8° répartition)",
              "security_id": 175
            },
            {
              "id": 796,
              "name": "L'Union, actions Incendie",
              "security_id": 201
            },
            {
              "id": 535,
              "name": "Fils et tissus de lins de Maberly",
              "security_id": 399
            }
          ]
        },
        {
          "id": 74,
          "name": "FONDS ETRANGERS (2° Partie)",
          "notations": [
            {
              "id": 426,
              "name": "2,5% Hollandais cert. franç., (jouissance du 22 janvier)",
              "security_id": 255
            },
            {
              "id": 994,
              "name": "Emprunt Belge 2,5% (jouissance juillet 1851)",
              "security_id": 367
            },
            {
              "id": 143742,
              "name": "Banque Belge 1835, j.anr.1853 nouvelle 1841",
              "security_id": 13167
            },
            {
              "id": 424,
              "name": "Espagne, Dette passive sans intéret",
              "security_id": 262
            },
            {
              "id": 425,
              "name": "Espagne 3% 1841 (jouiss de janvier)",
              "security_id": 298,
              "spot_prices": [
                37
              ]
            },
            {
              "id": 983,
              "name": "Emprunt Belge 4,5% (jouis. nov.)",
              "security_id": 368,
              "spot_prices": [
                90.125
              ]
            },
            {
              "id": 1005,
              "name": "Emprunt Romain, j. déc 1850",
              "security_id": 575,
              "spot_prices": [
                83.75
              ]
            },
            {
              "id": 875,
              "name": "Espagne, Dette diff convertie",
              "security_id": 649,
              "spot_prices": [
                18
              ]
            },
            {
              "id": 430,
              "name": "Emprunt d'Haiti",
              "security_id": 145
            },
            {
              "id": 996,
              "name": "Emprunt Belge 3% (jouis. fevr. 1851)",
              "security_id": 301
            },
            {
              "id": 999,
              "name": "Rente de Naples récépissés de Rothschild (jouis. juillet 1851)",
              "security_id": 366
            },
            {
              "id": 947,
              "name": "Empt Grec, j. mars 1852",
              "security_id": 716
            },
            {
              "id": 422,
              "name": "Espagne. Dette active, jouiss. de mai 1836",
              "security_id": 260
            },
            {
              "id": 948,
              "name": "Emprunt d'Haiti ex int 1849",
              "security_id": 717
            },
            {
              "id": 537,
              "name": "Espagne 3% dette intérieure",
              "security_id": 401,
              "spot_prices": [
                33.125,
                33.25,
                33.5,
                33.75,
                33.5
              ]
            },
            {
              "id": 998,
              "name": "Emprunt Belge 1852 (5%)",
              "security_id": 700
            },
            {
              "id": 427,
              "name": "Banque Belge 1835",
              "security_id": 273
            },
            {
              "id": 1051,
              "name": "Portugal, 3%",
              "security_id": 803
            },
            {
              "id": 143719,
              "name": "Espagne, Dette passive nouvelle",
              "security_id": 13144
            }
          ]
        },
        {
          "id": 576,
          "name": "VALEURS DIVERSES",
          "notations": [
            {
              "id": 801,
              "name": "Mines de la Loire oblig.",
              "security_id": 559
            },
            {
              "id": 1097,
              "name": "Le Phoenix, métallurg., j jet (Act de 750 f., 200 thalers)",
              "security_id": 842
            },
            {
              "id": 9748,
              "name": "Lits militaires, 1000f.j.d'avr.",
              "security_id": 491
            },
            {
              "id": 839,
              "name": "Emp.Russe 1850 4,5%lib.j.jer ",
              "security_id": 619
            },
            {
              "id": 1107,
              "name": "Comp Gle des Eaux, act 250 f 125f pay",
              "security_id": 850
            },
            {
              "id": 143769,
              "name": "Min. de Stolberg, j. jer 1853 10e",
              "security_id": 13153
            },
            {
              "id": 1132,
              "name": "Caisse Paternelle, act.500f, 100f.payés",
              "security_id": 670
            },
            {
              "id": 990,
              "name": "E. autrichien 95 florins payés)",
              "security_id": 752
            },
            {
              "id": 1036,
              "name": "Glaces d'Aix-la-Chapelle",
              "security_id": 788
            },
            {
              "id": 724,
              "name": "Société Béchet",
              "security_id": 521
            },
            {
              "id": 822,
              "name": "Espagne intérieure, 3% p.coup., j. janvier (P coup. = petites coupures)",
              "security_id": 605,
              "spot_prices": [
                34,
                34.5
              ]
            },
            {
              "id": 1137,
              "name": "Dijon à Besançon, j jer 1854 (Act de 500 f, 350 f payés) ",
              "security_id": 709
            },
            {
              "id": 1065,
              "name": "Mines de la Grand-Combe [Mines Gr.-Combe, j jet 1852]",
              "security_id": 816
            },
            {
              "id": 1098,
              "name": "Zinc V-Montagne Obl 500 f 5% j jr 1854",
              "security_id": 843,
              "spot_prices": [
                460
              ]
            },
            {
              "id": 1134,
              "name": "Strasbourg à Bale, j jer 1853 (Act reduites à 350 f, tout payé) ",
              "security_id": 34,
              "spot_prices": [
                395
              ]
            },
            {
              "id": 1136,
              "name": "Cohin et Ce",
              "security_id": 612
            },
            {
              "id": 913,
              "name": "Piémont Anglais 5% [Piemont certif anglais 5%]",
              "security_id": 683
            },
            {
              "id": 1024,
              "name": "Hauts fourn.d'Herserange",
              "security_id": 776,
              "spot_prices": [
                197.5,
                195,
                196.25
              ]
            },
            {
              "id": 143740,
              "name": "Mines Gr.-Combe, j jet 1853. Obl. n.",
              "security_id": 13165
            },
            {
              "id": 779,
              "name": "Oblig. du Piémont 1849",
              "security_id": 570,
              "spot_prices": [
                895
              ]
            },
            {
              "id": 1003,
              "name": "Ch.de fer Central Suisse",
              "security_id": 759,
              "spot_prices": [
                430
              ]
            },
            {
              "id": 50323,
              "name": "Banque de Darmstadt (act.de 537 50, 275f pay)",
              "security_id": 823,
              "spot_prices": [
                460
              ]
            },
            {
              "id": 2023,
              "name": "Obligat.d'Arcachon",
              "security_id": 914
            },
            {
              "id": 746,
              "name": "Mines et Fonderies Zinc de Stolberg",
              "security_id": 919,
              "spot_prices": [
                1010
              ]
            },
            {
              "id": 488,
              "name": "Obligations du Piemont, jouissance de juillet",
              "security_id": 352
            },
            {
              "id": 1124,
              "name": "Lots d'Autriche",
              "security_id": 353
            },
            {
              "id": 1012,
              "name": "Cail",
              "security_id": 684,
              "spot_prices": [
                765
              ]
            },
            {
              "id": 143781,
              "name": "Mines Mouzaïa, act., tout pay",
              "security_id": 685
            },
            {
              "id": 1006,
              "name": "Centre de l'Italie (jouissance octobre) (50 fr. pay.)",
              "security_id": 760
            },
            {
              "id": 1104,
              "name": "Usines Métallurg de Septèmes (Act de 250 f tout payé)",
              "security_id": 833
            },
            {
              "id": 1084,
              "name": "Ch de fer Sarde, Victor Emmanuel (Act de 500 f, 100 f payés)",
              "security_id": 834
            },
            {
              "id": 1099,
              "name": "Zinc de Silésie, j oct 1853 (Act de 100 th, soit 375 f, tout pay)",
              "security_id": 844
            },
            {
              "id": 1138,
              "name": "Ce Cavé, act. 250 f t payé, j jet",
              "security_id": 875
            },
            {
              "id": 551,
              "name": "Zinc V-Montagne (= Vieille Montagne) (10me d'action)",
              "security_id": 325,
              "spot_prices": [
                500
              ]
            },
            {
              "id": 766,
              "name": "Mines de la Loire (action)",
              "security_id": 558,
              "spot_prices": [
                620
              ]
            },
            {
              "id": 1000,
              "name": "Liste Civil",
              "security_id": 632,
              "spot_prices": [
                1050
              ]
            },
            {
              "id": 997,
              "name": "Oblig. Piémont 1851, 4% (j. d'août)",
              "security_id": 674
            },
            {
              "id": 1139,
              "name": "Glaces de Montluçon, 125 f pay.",
              "security_id": 817
            }
          ]
        }
      ]
    }
  ],
  "date": "1854-07-31",
  "stock_exchange": {
    "id": 1,
    "name": "Paris (Official List)"
  }
}