{
  "id": 9999,
  "name": "Paris official list",
  "children": [
    {
      "id": 78,
      "name": "COMPTANT [ARTIFICIEL]",
      "children": [
        {
          "id": 10,
          "name": "Effets Publics [SECTEUR ARTIFICIEL]",
          "notations": [
            {
              "id": 23306,
              "name": "Inscription",
              "security_id": 41,
              "spot_prices": [
                15,
                14,
                15
              ]
            },
            {
              "id": 58,
              "name": "Bons 1/4",
              "security_id": 45,
              "spot_prices": [
                52
              ]
            },
            {
              "id": 57,
              "name": "Bons 3/4",
              "security_id": 44,
              "spot_prices": [
                11.13,
                10.75
              ]
            }
          ]
        }
      ]
    }
  ],
  "date": "1797-08-15",
  "stock_exchange": {
    "id": 1,
    "name": "Paris (Official List)"
  }
}