{
  "id": 9999,
  "name": "Paris official list",
  "children": [
    {
      "id": 78,
      "name": "COMPTANT [ARTIFICIEL]",
      "children": [
        {
          "id": 10,
          "name": "FONDS Francais",
          "notations": [
            {
              "id": 143626,
              "name": "BONS ROYAUX à 10 mois",
              "security_id": 13051
            },
            {
              "id": 143619,
              "name": "BONS ROYAUX à 3 mois",
              "security_id": 13044
            },
            {
              "id": 8,
              "name": "Cinq % cons. J du 22 septembre 1823",
              "security_id": 65,
              "spot_prices": [
                101.65,
                101.6,
                101.65,
                101.6,
                101.5,
                101.55,
                101.6,
                101.55,
                101.5,
                101.45,
                101.4
              ]
            },
            {
              "id": 163,
              "name": "Reconn. de liquid. nomin. 1825",
              "security_id": 120
            },
            {
              "id": 134,
              "name": "Annuités à 4%",
              "security_id": 117,
              "spot_prices": [
                1100
              ]
            },
            {
              "id": 143617,
              "name": "BONS ROYAUX à 1 mois",
              "security_id": 13042
            },
            {
              "id": 118,
              "name": "Reconn. de liquid. ech. 1825",
              "security_id": 101,
              "spot_prices": [
                100.5
              ]
            },
            {
              "id": 164,
              "name": "Bons royaux",
              "security_id": 121
            },
            {
              "id": 143584,
              "name": "5% cons. J du 22 sept 1819",
              "security_id": 13009
            },
            {
              "id": 126,
              "name": "Emprunt de 1823",
              "security_id": 109
            },
            {
              "id": 143622,
              "name": "BONS ROYAUX à 6 mois",
              "security_id": 13047
            }
          ]
        },
        {
          "id": 66,
          "name": "SECTEUR ARTIFICIEL (= EFFETS PARTICULIERS Francais)",
          "notations": [
            {
              "id": 137,
              "name": "Compagnie Française du Phénix",
              "security_id": 85
            },
            {
              "id": 171,
              "name": "Quatre Canaux Action de Jouissance",
              "security_id": 171
            },
            {
              "id": 141,
              "name": "C. d' as gener. Actions Nominatives 5%",
              "security_id": 100111
            },
            {
              "id": 144,
              "name": "Actions du canal de Monsieur",
              "security_id": 103
            },
            {
              "id": 170,
              "name": "Act. des Quatre Canaux – Billet de pr. de 250 f. et Act de l'emp. de 1000 f. dont 800 restant à payer [Bill. de 250 f Act d'emp. 1000 f reste à p. 711 f 41 c / Act de 1000 f 5% dont 711f41 non pay.]",
              "security_id": 107
            },
            {
              "id": 166,
              "name": "Act de la Comp Royale d'Assurances, Incendie",
              "security_id": 87
            },
            {
              "id": 148,
              "name": "Compagnie d'as. générales – Actions au port – Sur la vie",
              "security_id": 90
            },
            {
              "id": 175,
              "name": "Canal de Bourgog. Omnium",
              "security_id": 132
            },
            {
              "id": 176,
              "name": "Canal des Ardennes – Act d'Emp 1000f à 4% et billet de prime 750 f",
              "security_id": 133
            },
            {
              "id": 145,
              "name": "Billets de la caisse syndicale des Boulangers",
              "security_id": 13
            },
            {
              "id": 167,
              "name": "Act du canal du duc d'Angouleme act de l'emp 1000 f à 4% du 10 oct. 1827 et billet de pr 700 fr",
              "security_id": 110
            },
            {
              "id": 169,
              "name": "Act. du canal d'Arles à Bouc",
              "security_id": 233
            },
            {
              "id": 161,
              "name": "Rente de la Ville de Paris",
              "security_id": 16
            },
            {
              "id": 24,
              "name": "Compagnie d'assurances générales – Actions au port – Incendie",
              "security_id": 84
            },
            {
              "id": 147,
              "name": "Compagnie d'as. générales – Actions au port – Maritime",
              "security_id": 89,
              "spot_prices": [
                10
              ]
            },
            {
              "id": 157,
              "name": "Bons de la ville de Paris",
              "security_id": 104
            },
            {
              "id": 172,
              "name": "Quatre Canaux Omnium",
              "security_id": 129
            },
            {
              "id": 174,
              "name": "Canal de Bourgog. Action de Jouissance",
              "security_id": 131
            },
            {
              "id": 23,
              "name": "Act. de la Banque de France",
              "security_id": 63,
              "spot_prices": [
                1920
              ]
            },
            {
              "id": 146,
              "name": "Act. du Canal d'Aire à la Bassée",
              "security_id": 108
            },
            {
              "id": 168,
              "name": "Act. du canal du duc d'Angoul. Act de J. de 10000 fr",
              "security_id": 125
            },
            {
              "id": 173,
              "name": "Canal de Bourgog. Act de l'emp. de 2500 f dont 2073 restant à payer",
              "security_id": 130
            },
            {
              "id": 142,
              "name": "Actions des 3 ponts sur la Seine",
              "security_id": 105
            },
            {
              "id": 177,
              "name": "Canal des Ardennes – Act de Jouiss de 10000 f",
              "security_id": 134
            },
            {
              "id": 160,
              "name": "Obligations de la Ville de Paris",
              "security_id": 637,
              "spot_prices": [
                1400,
                1397.5
              ]
            }
          ]
        },
        {
          "id": 67,
          "name": "FONDS ETRANGERS",
          "notations": [
            {
              "id": 181,
              "name": "Rente de Nap. 5% cap au ch. de 440 Cert. franç, de 59 d. ch. fixe 423 43/59",
              "security_id": 138,
              "spot_prices": [
                90.5
              ]
            },
            {
              "id": 182,
              "name": "Emp. d'Autriche, 1820 avec prime",
              "security_id": 139
            },
            {
              "id": 184,
              "name": "Obligations métalliques d'Autriche admin. Rotschild",
              "security_id": 141
            },
            {
              "id": 154,
              "name": "Obligations de Sicile",
              "security_id": 102
            },
            {
              "id": 150,
              "name": "Emprunt Royal d'Espagne 1823",
              "security_id": 114,
              "spot_prices": [
                57.5
              ]
            },
            {
              "id": 156,
              "name": "Rente de Nap. 5% cap au ch. de 440 Cert. falc. de 25 d,",
              "security_id": 74,
              "spot_prices": [
                89.5
              ]
            },
            {
              "id": 151,
              "name": "Obligations d'Espagne 1820",
              "security_id": 112
            },
            {
              "id": 153,
              "name": "Obligations Partielles de Bade",
              "security_id": 116
            },
            {
              "id": 185,
              "name": "Emprunt Naples payable à Londre et à Paris [Oblig. de Naples Emp. Rothschild en livre sterling, change 25f 50c]",
              "security_id": 142
            },
            {
              "id": 25,
              "name": "Obligations de Prusse de 1822 a Londres",
              "security_id": 25
            },
            {
              "id": 155,
              "name": "Rente d'Espagne Certif. Français 5%",
              "security_id": 113,
              "spot_prices": [
                18.5
              ]
            },
            {
              "id": 179,
              "name": "Rente d'Espagne 5% certif. Anglais 1821",
              "security_id": 136
            },
            {
              "id": 183,
              "name": "Emprunt Portugais 1823",
              "security_id": 140
            }
          ]
        }
      ]
    }
  ],
  "date": "1824-09-30",
  "stock_exchange": {
    "id": 1,
    "name": "Paris (Official List)"
  }
}