{
  "id": 9999,
  "name": "Paris official list",
  "children": [
    {
      "id": 78,
      "name": "COMPTANT [ARTIFICIEL]",
      "children": [
        {
          "id": 10,
          "name": "FONDS Francais",
          "notations": [
            {
              "id": 213,
              "name": "Actions des 3 ponts sur la Seine",
              "security_id": 105
            },
            {
              "id": 249,
              "name": "CA de la somme actions de jouissance",
              "security_id": 179
            },
            {
              "id": 252,
              "name": "Action des Pont, Garre et Port de Grenelle",
              "security_id": 182
            },
            {
              "id": 267,
              "name": "Canal de Bourgogne Act. de 1000 f non lib 287f 90 pay 5% j d'O",
              "security_id": 197
            },
            {
              "id": 276,
              "name": "Rente 4% [Quatre %]",
              "security_id": 206
            },
            {
              "id": 50190,
              "name": "BONS ROYAUX en novembre",
              "security_id": 13064
            },
            {
              "id": 50191,
              "name": "BONS ROYAUX en décembre",
              "security_id": 13065
            },
            {
              "id": 206,
              "name": "Compagnie d'as. générales – Actions au port – Sur la vie",
              "security_id": 90
            },
            {
              "id": 228,
              "name": "Canal de Monsieur, jouissance de juillet 1827, Omnium j. de juillet [Canal de Monsieur Omnium]",
              "security_id": 159
            },
            {
              "id": 248,
              "name": "CA de la Somme Certificat du Trésor de 1000 à 4% [CA de la Somme act. de 1000 f à 4%] / Canal de la Somme. Action de 1000 f]",
              "security_id": 178
            },
            {
              "id": 24040,
              "name": "Action du Gaz, Compagnie Pawels",
              "security_id": 183
            },
            {
              "id": 260,
              "name": "Navigation de l'Oise Action de 1250 f à 4% j de janv",
              "security_id": 190
            },
            {
              "id": 265,
              "name": "Canal d'Arles à Bouc Act de jouissance 1/1000",
              "security_id": 195
            },
            {
              "id": 261,
              "name": "Canal d'Arles à Bouc Act de 1000 f libérée 5% jouis d'Oct",
              "security_id": 233
            },
            {
              "id": 243,
              "name": "4 canaux billets de prime",
              "security_id": 267
            },
            {
              "id": 50170,
              "name": "BONS ROYAUX à 3 mois",
              "security_id": 13044,
              "spot_prices": [
                4.5
              ]
            },
            {
              "id": 143629,
              "name": "BONS ROYAUX en janviér",
              "security_id": 13054
            },
            {
              "id": 226,
              "name": "Can. Monsieur act. de jouissance",
              "security_id": 157
            },
            {
              "id": 245,
              "name": "Caise hypothéc. Act. de 1000f. J.de janv",
              "security_id": 175,
              "spot_prices": [
                500
              ]
            },
            {
              "id": 24039,
              "name": "Caisse hypothéc. Obl. endos. 5 éme sér. Int. à 5% j d'Av",
              "security_id": 177
            },
            {
              "id": 264,
              "name": "Canal d'Arles à Bouc Act de 5500 dont 4840 payés",
              "security_id": 194
            },
            {
              "id": 266,
              "name": "Canal de Bourgogne Act. de 1000 f libérée 5% jouiss. d'oct [Canal de Bourgogne action de 1000 f libérée]",
              "security_id": 196
            },
            {
              "id": 279,
              "name": "3%, j. du 22 juin",
              "security_id": 209,
              "spot_prices": [
                59.4,
                59.35,
                59.4,
                59.5,
                59.6,
                59.55,
                59.5,
                59.4,
                59.3,
                59.25,
                59.3
              ]
            },
            {
              "id": 143619,
              "name": "BONS ROYAUX à 3 mois",
              "security_id": 13044
            },
            {
              "id": 50172,
              "name": "BONS ROYAUX à 5 mois",
              "security_id": 13046,
              "spot_prices": [
                5
              ]
            },
            {
              "id": 212,
              "name": "Rente de la Ville de Paris",
              "security_id": 16
            },
            {
              "id": 27,
              "name": "Act. de la Banque de France",
              "security_id": 63,
              "spot_prices": [
                1520,
                1525
              ]
            },
            {
              "id": 8,
              "name": "Cinq % cons. J du 22 septembre 1823",
              "security_id": 65,
              "spot_prices": [
                87.5,
                87.6,
                87.7,
                87.8,
                87.75,
                87.65,
                87.7,
                87.65,
                87.55,
                87.5,
                87.6,
                87.5,
                87.45,
                87.5,
                87.55,
                87.6,
                87.7,
                87.75
              ]
            },
            {
              "id": 188,
              "name": "Act de la Comp Royale d'Assurances, Incendie",
              "security_id": 87
            },
            {
              "id": 198,
              "name": "Canal de Bourgogne Act. de 2500 f dont 2318 f payés",
              "security_id": 130
            },
            {
              "id": 269,
              "name": "Canal de Bourgogne act de jouissance",
              "security_id": 131
            },
            {
              "id": 244,
              "name": "Canal de la Sensée jouiss d [Canal de la Sencée]",
              "security_id": 174
            },
            {
              "id": 255,
              "name": "Act des Salines de l'Est",
              "security_id": 185
            },
            {
              "id": 271,
              "name": "Comp. d'ass. de l'Union contre l'Incendie",
              "security_id": 201
            },
            {
              "id": 272,
              "name": "Comp. d'ass. de l'Union sur la vie (humaine)",
              "security_id": 202
            },
            {
              "id": 277,
              "name": "Emprunt 1831",
              "security_id": 207
            },
            {
              "id": 144076,
              "name": "Canal de Bourgogne act. avec Act. de jouis. 1/10000",
              "security_id": 232
            },
            {
              "id": 143630,
              "name": "BONS ROYAUX en février",
              "security_id": 13055
            },
            {
              "id": 196,
              "name": "Billets de la caisse syndicale des Boulangers",
              "security_id": 13
            },
            {
              "id": 208,
              "name": "Compagnie Française du Phénix",
              "security_id": 85
            },
            {
              "id": 242,
              "name": "4 canaux act. non libérée dont 682 f 58 c pay sans jouis",
              "security_id": 172
            },
            {
              "id": 257,
              "name": "Act des Fonderies du Creuzot",
              "security_id": 187
            },
            {
              "id": 143617,
              "name": "BONS ROYAUX à 1 mois",
              "security_id": 13042
            },
            {
              "id": 143639,
              "name": "BONS ROYAUX en novembre",
              "security_id": 13064
            },
            {
              "id": 250,
              "name": "Can. Ardennes Certificat du Tresor de 10000 f à 4% [Canal des Ardennes. Certif. de 10000 f]",
              "security_id": 134
            },
            {
              "id": 229,
              "name": "Canal de Monsieur, jouissance de janv 1828, act. libérée, sans jouis ni prime",
              "security_id": 160
            },
            {
              "id": 241,
              "name": "4 canaux act de jouiss des 4 can 1/68000 [4 canaux actions de jouissance]",
              "security_id": 171
            },
            {
              "id": 263,
              "name": "Canal d'Arles à Bouc Act de jouissance 1/6000",
              "security_id": 193
            },
            {
              "id": 207,
              "name": "C. d' as gener. Actions Nominatives 5%",
              "security_id": 100111
            },
            {
              "id": 28,
              "name": "Compagnie d'assurances générales – Actions au port – Incendie",
              "security_id": 84
            },
            {
              "id": 236,
              "name": "4 canaux act. libérée de 1000 f int à 5% [4 canaux act. libérée de 1000 f]",
              "security_id": 107,
              "spot_prices": [
                890
              ]
            },
            {
              "id": 164,
              "name": "Bons royaux",
              "security_id": 121
            },
            {
              "id": 240,
              "name": "4 canaux certificats de depot de 19 act de jouiss et 19 act non lib dont 212 f 76c non pay [Quatre canaux certificats]",
              "security_id": 170
            },
            {
              "id": 278,
              "name": "4,5%, jouiss.",
              "security_id": 208,
              "spot_prices": [
                77.75
              ]
            },
            {
              "id": 143584,
              "name": "5% cons. J du 22 sept 1819",
              "security_id": 13009
            },
            {
              "id": 50181,
              "name": "BONS ROYAUX en février",
              "security_id": 13055
            },
            {
              "id": 205,
              "name": "Compagnie d'as. générales – Actions au port – Maritime",
              "security_id": 89
            },
            {
              "id": 190,
              "name": "Canal d'Aire à la Bassée",
              "security_id": 108
            },
            {
              "id": 225,
              "name": "Canal de Monsieur, jouissance de juillet 1827, Act. de 1000 f 5% Coupon de prime de 250 f [Canal de Monsieur action de 1000 f]",
              "security_id": 156
            },
            {
              "id": 24041,
              "name": "4 canaux act. non libérée dont 401f 70c pay [4 canaux act. non libérée dont 682 f 58 c pay sans prime]",
              "security_id": 168
            },
            {
              "id": 239,
              "name": "4 canaux act. non libérée dito (=dont 401f 70c pay) avec act de jouiss. [4 canaux act. non libérée avec act de jouis. et billet de prime]",
              "security_id": 169
            },
            {
              "id": 251,
              "name": "Can Ardennes Actions de Jouissance de 5000 f",
              "security_id": 181
            },
            {
              "id": 259,
              "name": "Nav. de l'Oise emp. 3000000 Act. de jouissance de 1/3000",
              "security_id": 189
            },
            {
              "id": 143622,
              "name": "BONS ROYAUX à 6 mois",
              "security_id": 13047
            },
            {
              "id": 50180,
              "name": "BONS ROYAUX en janviér",
              "security_id": 13054
            },
            {
              "id": 143640,
              "name": "BONS ROYAUX en décembre",
              "security_id": 13065
            }
          ]
        },
        {
          "id": 67,
          "name": "SECTOR ARTIFICIEL [= FONDS ETRANGERS]",
          "notations": [
            {
              "id": 156,
              "name": "Rente de Naples Certif. Falconnet de 25 ducats change valiable. Jouiss. De Janvier",
              "security_id": 74,
              "spot_prices": [
                69.6,
                69.5
              ]
            },
            {
              "id": 214,
              "name": "Emprunt d'Haiti",
              "security_id": 145
            },
            {
              "id": 216,
              "name": "Rente perpetuelle d'Esp 5% jouiss de Janv",
              "security_id": 147,
              "spot_prices": [
                47,
                47.25,
                47.5,
                47.25,
                47.125,
                47.25
              ]
            },
            {
              "id": 182,
              "name": "Emp. d'Autriche, 1820 avec prime",
              "security_id": 139
            },
            {
              "id": 184,
              "name": "Obligations métalliques d'Autriche admin. Rotschild",
              "security_id": 141
            },
            {
              "id": 220,
              "name": "Obligations d'Espagne",
              "security_id": 151
            },
            {
              "id": 154,
              "name": "Obligations de Sicile",
              "security_id": 102
            },
            {
              "id": 150,
              "name": "Emprunt Royal d'Espagne 1823",
              "security_id": 114,
              "spot_prices": [
                64
              ]
            },
            {
              "id": 153,
              "name": "Obligations Partielles de Bade",
              "security_id": 116
            },
            {
              "id": 185,
              "name": "Emprunt Naples payable à Londre et à Paris [Oblig. de Naples Emp. Rothschild en livre sterling, change 25f 50c]",
              "security_id": 142
            },
            {
              "id": 25,
              "name": "Obligations de Prusse de 1822 a Londres",
              "security_id": 25
            },
            {
              "id": 155,
              "name": "Rente d'Espagne Certif. Français 5%",
              "security_id": 113
            }
          ]
        }
      ]
    }
  ],
  "date": "1831-09-15",
  "stock_exchange": {
    "id": 1,
    "name": "Paris (Official List)"
  }
}