{
  "id": 9999,
  "name": "Paris official list",
  "children": [
    {
      "id": 78,
      "name": "COMPTANT [ARTIFICIEL]",
      "children": [
        {
          "id": 10,
          "name": "Effets Publics",
          "notations": [
            {
              "id": 158411,
              "name": "Actions de la Banque de France (Jouissance du 1er janvier 1811)",
              "security_id": 63,
              "spot_prices": [
                1238.75,
                1237.5
              ]
            },
            {
              "id": 83,
              "name": "Rescriptions non reclamées dans des departments",
              "security_id": 70
            },
            {
              "id": 4,
              "name": "Emp. du Roi de Saxe (a 6%) (c/o J. du 1er Juin 1811",
              "security_id": 4
            },
            {
              "id": 81,
              "name": "5% CONS. jouis.de Germinal an XI (5% jouiss. du 1er avril 1806/5% jouiss. du 22 mars)",
              "security_id": 68
            },
            {
              "id": 8,
              "name": "5% CONS. jouiss. du 22 sept.",
              "security_id": 65,
              "spot_prices": [
                83.15,
                83.2,
                83.25
              ]
            }
          ]
        },
        {
          "id": 11,
          "name": "Entreprises Particulieres",
          "notations": [
            {
              "id": 24303,
              "name": "Act. des Ponts",
              "security_id": 5
            },
            {
              "id": 96,
              "name": "Actions Jabach",
              "security_id": 6
            }
          ]
        }
      ]
    }
  ],
  "date": "1812-02-29",
  "stock_exchange": {
    "id": 1,
    "name": "Paris (Official List)"
  }
}