{
  "id": 9999,
  "name": "Paris official list",
  "children": [
    {
      "id": 78,
      "name": "COMPTANT [ARTIFICIEL]",
      "children": [
        {
          "id": 10,
          "name": "Effets Publics [SECTEUR ARTIFICIEL]",
          "notations": [
            {
              "id": 65,
              "name": "Bon d'arrérage",
              "security_id": 52
            },
            {
              "id": 58,
              "name": "Bons 1/4",
              "security_id": 45
            },
            {
              "id": 23307,
              "name": "Rente provisoire (Provisoire, déposé)",
              "security_id": 48,
              "spot_prices": [
                10.63,
                10.75,
                10.88
              ]
            },
            {
              "id": 59,
              "name": "Bons 2/3",
              "security_id": 46,
              "spot_prices": [
                1.4,
                1.3,
                1.2
              ]
            },
            {
              "id": 66,
              "name": "Bons an 8",
              "security_id": 53,
              "spot_prices": [
                65.63,
                65.88,
                66,
                66.13,
                66.25,
                66
              ]
            },
            {
              "id": 60,
              "name": "Tiers Consolidé",
              "security_id": 65,
              "spot_prices": [
                18.75,
                18.63,
                18.5,
                18.88,
                18.75
              ]
            },
            {
              "id": 57,
              "name": "Bons 3/4",
              "security_id": 44
            },
            {
              "id": 64,
              "name": "Action de 50 f de la Caisse des Rentiers",
              "security_id": 51
            }
          ]
        }
      ]
    }
  ],
  "date": "1800-01-15",
  "stock_exchange": {
    "id": 1,
    "name": "Paris (Official List)"
  }
}