{
  "id": 9999,
  "name": "Paris official list",
  "children": [
    {
      "id": 78,
      "name": "COMPTANT [ARTIFICIEL]",
      "children": [
        {
          "id": 10,
          "name": "Effets Publics",
          "notations": [
            {
              "id": 9,
              "name": "Bons de la ville de Paris % longue écheance",
              "security_id": 9,
              "spot_prices": [
                0.5625
              ]
            },
            {
              "id": 158411,
              "name": "Actions de la Banque de France (Jouissance du 1er janvier 1811)",
              "security_id": 63,
              "spot_prices": [
                1295,
                1297.5,
                1295
              ]
            },
            {
              "id": 10,
              "name": "Rentes sur la Ville de Paris jouiss du 1er avril 1816",
              "security_id": 10
            },
            {
              "id": 81,
              "name": "5% CONS. jouiss. du 22 Mars 1816.",
              "security_id": 68,
              "spot_prices": [
                66.9,
                67,
                66.9,
                67,
                66.95,
                66.9,
                66.95,
                66.9,
                66.85,
                66.8,
                66.9,
                66.85,
                66.9,
                67,
                67.3,
                67.2,
                67.15,
                67.5,
                67.55
              ]
            },
            {
              "id": 1,
              "name": "Obligations du Trésor Royal (perte par année)",
              "security_id": 1,
              "spot_prices": [
                0.625
              ]
            },
            {
              "id": 18,
              "name": "Act. au porteur de la Compagnie Royale d'assurances (jouissance du 1er Fevrier 1817)",
              "security_id": 18,
              "spot_prices": [
                5500,
                5450
              ]
            },
            {
              "id": 8,
              "name": "5% CONS. jouiss. du 22 sept.",
              "security_id": 65
            },
            {
              "id": 19,
              "name": "Act. des Ponts",
              "security_id": 5
            },
            {
              "id": 7,
              "name": "Bons de la ville de Paris % courte écheance",
              "security_id": 7,
              "spot_prices": [
                0.5
              ]
            }
          ]
        }
      ]
    }
  ],
  "date": "1817-04-15",
  "stock_exchange": {
    "id": 1,
    "name": "Paris (Official List)"
  }
}