{
  "id": 9999,
  "name": "Paris official list",
  "children": [
    {
      "id": 77,
      "name": "COMPTANT & TERME & PRIMES",
      "children": [
        {
          "id": 10,
          "name": "RENTES FRANCAISES",
          "notations": [
            {
              "id": 278,
              "name": "4,5% (j du 22 sept)",
              "security_id": 208
            },
            {
              "id": 928,
              "name": "4,5% jouissance du 22 mars 1852, non remb.le pendant 10 ans",
              "security_id": 697,
              "spot_prices": [
                104,
                104.05,
                104.1,
                104.15,
                104.2,
                104.15,
                104.2,
                104.25,
                104.3,
                104.25,
                104.5,
                104.6,
                104.7,
                104.9
              ]
            },
            {
              "id": 143584,
              "name": "5% jouiss.du 22 sept.1845",
              "security_id": 13009
            },
            {
              "id": 143606,
              "name": "3% jouissance du 22 juin",
              "security_id": 13031
            },
            {
              "id": 276,
              "name": "4% (jouissance du 22 sept)",
              "security_id": 206
            },
            {
              "id": 279,
              "name": "3% jouissance du 22 décembre",
              "security_id": 209,
              "spot_prices": [
                74.9,
                75,
                75.1,
                75.2
              ]
            }
          ]
        },
        {
          "id": 574,
          "name": "ARTIFICIEL (Bons de Trésor etc)",
          "notations": [
            {
              "id": 444,
              "name": "Bons du Trésor à 2 mois",
              "security_id": 308
            },
            {
              "id": 447,
              "name": "Bons du Trésor à 6 mois",
              "security_id": 311
            },
            {
              "id": 443,
              "name": "Bons du Trésor à 4 mois",
              "security_id": 307
            },
            {
              "id": 319,
              "name": "Bons du Trésor",
              "security_id": 210
            },
            {
              "id": 451,
              "name": "Bons du Trésor à 10 mois",
              "security_id": 315
            },
            {
              "id": 448,
              "name": "Bons du Trésor à 7 mois",
              "security_id": 312
            },
            {
              "id": 449,
              "name": "Bons du Trésor à 8 mois",
              "security_id": 313
            },
            {
              "id": 452,
              "name": "Bons du Trésor à 11 mois",
              "security_id": 316
            },
            {
              "id": 50204,
              "name": "Bons du Trésor à 12 mois",
              "security_id": 317
            },
            {
              "id": 446,
              "name": "Bons du Trésor à 5 mois",
              "security_id": 310
            },
            {
              "id": 332,
              "name": "Banque de France (actions de la) (jouis. janvier 1852)",
              "security_id": 63,
              "spot_prices": [
                2875,
                2880,
                2885
              ]
            },
            {
              "id": 442,
              "name": "Bons du Trésor à 1 mois",
              "security_id": 306
            },
            {
              "id": 445,
              "name": "Bons du Trésor à 3 mois",
              "security_id": 309
            },
            {
              "id": 450,
              "name": "Bons du Trésor à 9 mois",
              "security_id": 314
            }
          ]
        },
        {
          "id": 67,
          "name": "SECTOR ARTIFICIEL [= FONDS ETRANGERS]",
          "notations": [
            {
              "id": 931,
              "name": "Emprunt Belge 1852 (5%)",
              "security_id": 700
            },
            {
              "id": 932,
              "name": "E. Autrichien, 5% j. j.et 1852",
              "security_id": 701,
              "spot_prices": [
                95.25,
                95.375,
                95.5
              ]
            },
            {
              "id": 504,
              "name": "Emprunt Belge 4,5% (jouis. nov.)",
              "security_id": 368
            },
            {
              "id": 933,
              "name": "E. Autrichien, 5% tout payé",
              "security_id": 702,
              "spot_prices": [
                95,
                95.125
              ]
            },
            {
              "id": 437,
              "name": "Emprunt Belge 3% (jouis. fevr. 1851)",
              "security_id": 301
            },
            {
              "id": 864,
              "name": "Emp. Belge 1840-1842 (jouis. nov.)",
              "security_id": 638,
              "spot_prices": [
                102
              ]
            },
            {
              "id": 786,
              "name": "Emprunt Piémont. 5% (jouissance juillet)",
              "security_id": 577,
              "spot_prices": [
                96.25,
                96.5
              ]
            },
            {
              "id": 502,
              "name": "Rente de Naples récépissés de Rothschild (jouis. juillet 1851)",
              "security_id": 366,
              "spot_prices": [
                104.25
              ]
            },
            {
              "id": 503,
              "name": "Emprunt Belge 2,5% (jouissance juillet 1851)",
              "security_id": 367
            },
            {
              "id": 784,
              "name": "Emprunt Romain, j. déc 1850",
              "security_id": 575,
              "spot_prices": [
                96.25,
                96,
                96.5
              ]
            }
          ]
        },
        {
          "id": 68,
          "name": "SECTOR ARTIFICIEL [=CHEMINS DE FER (actions)]",
          "notations": [
            {
              "id": 934,
              "name": "Ouest, j",
              "security_id": 703,
              "spot_prices": [
                630,
                625
              ]
            },
            {
              "id": 514,
              "name": "Paris à Strasbourg (actions de 500 fr, dont 375 fr payés)",
              "security_id": 378,
              "spot_prices": [
                661.25,
                660
              ]
            },
            {
              "id": 143702,
              "name": "Orléans (actions de 500 fr tout payé)",
              "security_id": 10456,
              "spot_prices": [
                1425,
                1430
              ]
            },
            {
              "id": 29,
              "name": "St. Germain (actions de 500 fr tout payé)",
              "security_id": 27,
              "spot_prices": [
                1110,
                1120
              ]
            },
            {
              "id": 35,
              "name": "Rouen au Havre (actions de 500 fr tout payé)",
              "security_id": 32,
              "spot_prices": [
                372.5,
                371.25,
                375,
                380
              ]
            },
            {
              "id": 512,
              "name": "Dieppe et Fécamp (actions de 500 fr, 400 fr payés)",
              "security_id": 417,
              "spot_prices": [
                272.5,
                275,
                272.5,
                270
              ]
            },
            {
              "id": 34,
              "name": "Paris à Rouen (actions de 500 fr tout payé)",
              "security_id": 31,
              "spot_prices": [
                930,
                932.5
              ]
            },
            {
              "id": 865,
              "name": "Sceaux",
              "security_id": 369
            },
            {
              "id": 510,
              "name": "Nord (actions de 500 fr, dont 400 fr payé)",
              "security_id": 374,
              "spot_prices": [
                662.5,
                667.5,
                670,
                672.5,
                675
              ]
            },
            {
              "id": 508,
              "name": "Montereau à Troyes (actions de 500 fr tout payé)",
              "security_id": 446,
              "spot_prices": [
                220,
                222.5,
                225
              ]
            },
            {
              "id": 32,
              "name": "Versailles (rive gauche) (actions de 500 fr tout payé)",
              "security_id": 29,
              "spot_prices": [
                325
              ]
            },
            {
              "id": 36,
              "name": "Avignon à Marseilles (actions de 500 fr tout payé)",
              "security_id": 33,
              "spot_prices": [
                480
              ]
            },
            {
              "id": 37,
              "name": "Strasbourg a Bale (actions de 500 fr dont 350 fr payé, le surplus par l'ETAT)",
              "security_id": 34,
              "spot_prices": [
                300,
                298.75,
                300
              ]
            },
            {
              "id": 40,
              "name": "Bordeaux à la Teste (actions de 500 fr tout payé)",
              "security_id": 37,
              "spot_prices": [
                160
              ]
            },
            {
              "id": 920,
              "name": "Paris à Lyon",
              "security_id": 689,
              "spot_prices": [
                760,
                762.5,
                765,
                767.5,
                766.25,
                765,
                768.75,
                770,
                772.5
              ]
            },
            {
              "id": 935,
              "name": "Lyon à Avignon, j avril 1852",
              "security_id": 704,
              "spot_prices": [
                605,
                607.5
              ]
            }
          ]
        }
      ]
    },
    {
      "id": 78,
      "name": "COMPTANT [ARTIFICIEL]",
      "children": [
        {
          "id": 70,
          "name": "OBLIGATIONS",
          "notations": [
            {
              "id": 414,
              "name": "Versailles (Rive droite) de 1000 fr",
              "security_id": 271
            },
            {
              "id": 416,
              "name": "St. Germain 1842 - 1849",
              "security_id": 281
            },
            {
              "id": 24092,
              "name": "Havre 1848 6%",
              "security_id": 388
            },
            {
              "id": 527,
              "name": "Rouen 1847-1849, 5%",
              "security_id": 391
            },
            {
              "id": 480,
              "name": "Montpellier (5,5%)",
              "security_id": 344
            },
            {
              "id": 922,
              "name": "Avignon (intérêt 5% garanti par l'Etat) (300 fr payé)",
              "security_id": 380,
              "spot_prices": [
                1055
              ]
            },
            {
              "id": 517,
              "name": "Rouen 1845 4%",
              "security_id": 381
            },
            {
              "id": 518,
              "name": "Havre 1846 5%",
              "security_id": 382
            },
            {
              "id": 929,
              "name": "Ouest (rembours. à 1250 fr)",
              "security_id": 698,
              "spot_prices": [
                1025
              ]
            },
            {
              "id": 523,
              "name": "Marseille 1850 remb en 1250 f d. 1000 int 5% gar par l'Etat",
              "security_id": 387
            },
            {
              "id": 866,
              "name": "Nord, (500 fr.), 3%",
              "security_id": 640,
              "spot_prices": [
                350,
                348.75
              ]
            },
            {
              "id": 942,
              "name": "Paris à Lyon, tout payé (5%)",
              "security_id": 856,
              "spot_prices": [
                1085,
                1090
              ]
            },
            {
              "id": 413,
              "name": "Saint-Etienne (5%)",
              "security_id": 279
            },
            {
              "id": 521,
              "name": "Paris à Sceaux",
              "security_id": 385
            },
            {
              "id": 860,
              "name": "Orléans 5% (jouissance janvier 1949) (Remboursable à 1250 fr)",
              "security_id": 635
            },
            {
              "id": 418,
              "name": "Strasbourg à Bale, obl de 1250 f",
              "security_id": 285
            },
            {
              "id": 861,
              "name": "Orléans 5% (jouissance janvier 1949) NOUVELLE",
              "security_id": 636,
              "spot_prices": [
                1100
              ]
            },
            {
              "id": 417,
              "name": "Versailles (Rive droite) de 1843, de 1250 fr (5%)",
              "security_id": 284,
              "spot_prices": [
                1070
              ]
            },
            {
              "id": 411,
              "name": "La Teste (5%)",
              "security_id": 286
            },
            {
              "id": 791,
              "name": "Montereau à Troyes",
              "security_id": 582
            },
            {
              "id": 921,
              "name": "Paris à Lyon (obligation)",
              "security_id": 690,
              "spot_prices": [
                1095,
                1100
              ]
            },
            {
              "id": 943,
              "name": "Strasb. à Bale, 5% j. mai 1852 125 f payés remb à 625 f (Bale, 5% j. mai 1852 125 f payés remb à 625 f)",
              "security_id": 712,
              "spot_prices": [
                525
              ]
            },
            {
              "id": 415,
              "name": "St. Germain 1838-1840 (anc. 5%)",
              "security_id": 268
            },
            {
              "id": 944,
              "name": "Strasbourg, 125 f pay. j. juin (Paris à Strasb., 500 f 125 pay)",
              "security_id": 713,
              "spot_prices": [
                560,
                561.25
              ]
            }
          ]
        },
        {
          "id": 71,
          "name": "VILLE et DEPARTEMENT",
          "notations": [
            {
              "id": 433,
              "name": "Rente 5%",
              "security_id": 16
            },
            {
              "id": 529,
              "name": "Obligations du dép de la Seine",
              "security_id": 393,
              "spot_prices": [
                1045
              ]
            },
            {
              "id": 528,
              "name": "Obligations 1849",
              "security_id": 392,
              "spot_prices": [
                1225
              ]
            },
            {
              "id": 867,
              "name": "Obligations 1852",
              "security_id": 641,
              "spot_prices": [
                1270
              ]
            },
            {
              "id": 792,
              "name": "Annuités municip des 3 Ponts",
              "security_id": 583
            }
          ]
        },
        {
          "id": 72,
          "name": "CANAUX",
          "notations": [
            {
              "id": 364,
              "name": "Canal d'Aire à la Bassée",
              "security_id": 108
            },
            {
              "id": 314,
              "name": "Canal d'Arles à Bouc Act. de 1000 f 5%",
              "security_id": 233
            },
            {
              "id": 365,
              "name": "Roanne a Digoin (1/23000)",
              "security_id": 265
            },
            {
              "id": 945,
              "name": "4 Canaux coup. de prime [billets de prime] ",
              "security_id": 267
            },
            {
              "id": 24090,
              "name": "4 canaux act de jouissance",
              "security_id": 171,
              "spot_prices": [
                136.25
              ]
            },
            {
              "id": 336,
              "name": "3 Canaux et c.p. (= Coupons de prime)",
              "security_id": 237
            },
            {
              "id": 340,
              "name": "Sambre à l'Oise, act de 1000 fr., 5%",
              "security_id": 241
            },
            {
              "id": 295,
              "name": "4 canaux et c.p. (= coupon de prime)",
              "security_id": 107
            },
            {
              "id": 312,
              "name": "Canal de Bourgogne Act. de jouissance 1/27200",
              "security_id": 198,
              "spot_prices": [
                187.5
              ]
            },
            {
              "id": 310,
              "name": "Canal Rhone au Rhin Act. de 1000 f 5%",
              "security_id": 229
            },
            {
              "id": 158412,
              "name": "Canal de Bourgogne Act de 1000 f 5%",
              "security_id": 196
            }
          ]
        },
        {
          "id": 73,
          "name": "COMPAGNIES ANONYMES",
          "notations": [
            {
              "id": 301,
              "name": "Française du Phénix",
              "security_id": 85
            },
            {
              "id": 924,
              "name": "La Nationale, assurances (VIE)",
              "security_id": 2790
            },
            {
              "id": 143691,
              "name": "Caisse hypothécaire (obligations de 500 fr à 4%)",
              "security_id": 244
            },
            {
              "id": 796,
              "name": "L'Union, actions Incendie",
              "security_id": 201
            },
            {
              "id": 798,
              "name": "La France, incendie",
              "security_id": 589
            },
            {
              "id": 381,
              "name": "Caisse hypothecaire (act. de 1000 fr.)",
              "security_id": 175
            },
            {
              "id": 535,
              "name": "Fils et tissus de lins de Maberly",
              "security_id": 399,
              "spot_prices": [
                880
              ]
            },
            {
              "id": 925,
              "name": "Ce générale d'assur (Ce générale d'assur, incendie)",
              "security_id": 694
            },
            {
              "id": 946,
              "name": "C.e Générale d'assurances., Marit.",
              "security_id": 715
            }
          ]
        },
        {
          "id": 74,
          "name": "FONDS ETRANGERS (AU COMPTANT)",
          "notations": [
            {
              "id": 871,
              "name": "Metal. d'Autriche 5%",
              "security_id": 115
            },
            {
              "id": 426,
              "name": "2,5% Hollandais cert. franç., (jouissance du 22 janvier)",
              "security_id": 255
            },
            {
              "id": 424,
              "name": "Espagne, Dette passive sans intéret",
              "security_id": 262
            },
            {
              "id": 425,
              "name": "Espagne 3% 1841 (jouiss de janvier)",
              "security_id": 298,
              "spot_prices": [
                48.5
              ]
            },
            {
              "id": 429,
              "name": "Banque Belge 1841",
              "security_id": 296
            },
            {
              "id": 875,
              "name": "Espagne, Dette diff convertie",
              "security_id": 649,
              "spot_prices": [
                22.5
              ]
            },
            {
              "id": 430,
              "name": "Emprunt d'Haiti",
              "security_id": 145
            },
            {
              "id": 874,
              "name": "Portugal, 4%",
              "security_id": 648
            },
            {
              "id": 947,
              "name": "Empt Grec, j. mars 1852",
              "security_id": 716
            },
            {
              "id": 422,
              "name": "Espagne. Dette active, jouiss. de mai 1836",
              "security_id": 260
            },
            {
              "id": 537,
              "name": "Espagne 3% dette intérieure",
              "security_id": 401,
              "spot_prices": [
                44.5
              ]
            },
            {
              "id": 427,
              "name": "Banque Belge 1835",
              "security_id": 273,
              "spot_prices": [
                765
              ]
            },
            {
              "id": 877,
              "name": "Espagne, Dette act de nov. 1841",
              "security_id": 651
            }
          ]
        },
        {
          "id": 576,
          "name": "VALEURS DIVERSES",
          "notations": [
            {
              "id": 9741,
              "name": "Gaz français",
              "security_id": 538
            },
            {
              "id": 801,
              "name": "Mines de la Loire oblig.",
              "security_id": 559
            },
            {
              "id": 956,
              "name": "Cohin et Ce",
              "security_id": 612,
              "spot_prices": [
                550
              ]
            },
            {
              "id": 836,
              "name": "Obl. de la Ville de Marseille (jouissance janvier)",
              "security_id": 616
            },
            {
              "id": 857,
              "name": "Liste Civil",
              "security_id": 632
            },
            {
              "id": 953,
              "name": "Blanc de Zinc Act.d'Apport",
              "security_id": 722
            },
            {
              "id": 957,
              "name": "Eventualit, Bordeaux à Cette",
              "security_id": 725
            },
            {
              "id": 958,
              "name": "Chemin de fer de Charleroi",
              "security_id": 726
            },
            {
              "id": 949,
              "name": "Blanc de Zinc",
              "security_id": 594,
              "spot_prices": [
                580,
                590
              ]
            },
            {
              "id": 143769,
              "name": "Min. de Stolberg, j. jer 1853 10e",
              "security_id": 13153
            },
            {
              "id": 959,
              "name": "Lits Militaires, obl. 1000 f (jouissance d'avril)",
              "security_id": 491
            },
            {
              "id": 839,
              "name": "Emprunt Russe, 4,5% lib.",
              "security_id": 619,
              "spot_prices": [
                103
              ]
            },
            {
              "id": 841,
              "name": "Comptoir d'Escompte",
              "security_id": 621,
              "spot_prices": [
                660,
                665
              ]
            },
            {
              "id": 551,
              "name": "Zinc V-Montagne (= Vieille Montagne)",
              "security_id": 325
            },
            {
              "id": 489,
              "name": "Lots d'Autriche",
              "security_id": 353
            },
            {
              "id": 912,
              "name": "Chemin de fer d'Orleans (act de jouissance)",
              "security_id": 481
            },
            {
              "id": 724,
              "name": "Société Béchet",
              "security_id": 521,
              "spot_prices": [
                480
              ]
            },
            {
              "id": 903,
              "name": "Oblig. Du Piemont 1851",
              "security_id": 674,
              "spot_prices": [
                985
              ]
            },
            {
              "id": 955,
              "name": "Chemin de fer, St-Dizier à Gray",
              "security_id": 705,
              "spot_prices": [
                565,
                570,
                575,
                572.5,
                570
              ]
            },
            {
              "id": 50317,
              "name": "Hauts-Fourneaux du Nord",
              "security_id": 494
            },
            {
              "id": 822,
              "name": "Dette intérieure d'Espagne (P coup. = petites coupures)",
              "security_id": 605
            },
            {
              "id": 913,
              "name": "Piémont Anglais 5% [Piemont certif anglais 5%]",
              "security_id": 683
            },
            {
              "id": 919,
              "name": "Monceau-sur-Sambre (j. d'avril)",
              "security_id": 837
            },
            {
              "id": 853,
              "name": "Zinc Nouvelle Montagne",
              "security_id": 423
            },
            {
              "id": 779,
              "name": "Oblig. du Piémont 1849",
              "security_id": 570
            },
            {
              "id": 143773,
              "name": "Cail 10e",
              "security_id": 678
            },
            {
              "id": 952,
              "name": "Ch.de fer d'Orléans, fractions",
              "security_id": 721
            },
            {
              "id": 746,
              "name": "Mines et Fonderies Zinc de Stolberg",
              "security_id": 919,
              "spot_prices": [
                1040
              ]
            },
            {
              "id": 488,
              "name": "Obligations du Piemont, jouissance de juillet",
              "security_id": 352,
              "spot_prices": [
                995
              ]
            },
            {
              "id": 1012,
              "name": "Cail",
              "security_id": 684
            },
            {
              "id": 766,
              "name": "Mines de la Loire (action)",
              "security_id": 558
            },
            {
              "id": 926,
              "name": "G.-Combe, Ch. Du Gard, j.av.",
              "security_id": 695
            }
          ]
        }
      ]
    }
  ],
  "date": "1852-07-31",
  "stock_exchange": {
    "id": 1,
    "name": "Paris (Official List)"
  }
}