{
  "id": 9999,
  "name": "Paris official list",
  "children": [
    {
      "id": 78,
      "name": "COMPTANT [ARTIFICIEL]",
      "children": [
        {
          "id": 10,
          "name": "Effets Publics",
          "notations": [
            {
              "id": 158411,
              "name": "Actions de la Banque de France (Jouissance du 1er janvier 1811)",
              "security_id": 63,
              "spot_prices": [
                1015,
                1025,
                1020,
                1015,
                1012.5,
                1020,
                1025,
                1020
              ]
            },
            {
              "id": 81,
              "name": "5% CONS. jouis.de Germinal an XI (5% jouiss. du 1er avril 1806/5% jouiss. du 22 mars)",
              "security_id": 68,
              "spot_prices": [
                64.25,
                64.5,
                64.25,
                64.5,
                65,
                65.25,
                65.5,
                66,
                65.5,
                65.75,
                66,
                65.5,
                66,
                65.5,
                65,
                65.25,
                65,
                64.75
              ]
            },
            {
              "id": 1,
              "name": "Obligations du Trésor Royal (perte par année)",
              "security_id": 1
            },
            {
              "id": 8,
              "name": "5% CONS. jouiss. du 22 sept.",
              "security_id": 65
            },
            {
              "id": 19,
              "name": "Act. des Ponts",
              "security_id": 5
            }
          ]
        },
        {
          "id": 11,
          "name": "Entreprises Particulieres",
          "notations": [
            {
              "id": 17,
              "name": "Actions des Canaux du Midi, d'Orleans et Loing (Jouis. du Ier Janvier 1812)",
              "security_id": 17
            }
          ]
        }
      ]
    }
  ],
  "date": "1815-06-30",
  "stock_exchange": {
    "id": 1,
    "name": "Paris (Official List)"
  }
}