{
  "id": 9999,
  "name": "Paris official list",
  "children": [
    {
      "id": 78,
      "name": "COMPTANT [ARTIFICIEL]",
      "children": [
        {
          "id": 10,
          "name": "Effets Publics [SECTEUR ARTIFICIEL]",
          "notations": [
            {
              "id": 73,
              "name": "Rescription sur domaines",
              "security_id": 60,
              "spot_prices": [
                92
              ]
            },
            {
              "id": 81,
              "name": "C.% C. jouis.de Germinal an XI (C. pour C. jouiss. du 1er avril 1806/C. % C. jouiss. du 22 mars)",
              "security_id": 68,
              "spot_prices": [
                64.95,
                65,
                65.15,
                65.2,
                65.25,
                65.2,
                65.15,
                65.1
              ]
            },
            {
              "id": 83,
              "name": "Rescriptions non reclamées dans des departments",
              "security_id": 70
            },
            {
              "id": 71,
              "name": "Bons et Promesses de 2/3 (Bons de remboursement)",
              "security_id": 58
            },
            {
              "id": 23307,
              "name": "Rente provisoire (Provisoire, déposé)",
              "security_id": 48
            },
            {
              "id": 66,
              "name": "Bons an 8",
              "security_id": 53
            },
            {
              "id": 8,
              "name": "5% CONS. jouiss. du 22 sept.",
              "security_id": 65,
              "spot_prices": [
                62
              ]
            },
            {
              "id": 143839,
              "name": "Rescriptions avec arrérages",
              "security_id": 13264
            },
            {
              "id": 23308,
              "name": "Bons an 7",
              "security_id": 62
            }
          ]
        },
        {
          "id": 11,
          "name": "Entreprises Particulieres [ARTIFICIEL]",
          "notations": [
            {
              "id": 5,
              "name": "Act. des Ponts",
              "security_id": 5,
              "spot_prices": [
                1300
              ]
            },
            {
              "id": 86,
              "name": "Action de la Banque de France",
              "security_id": 63,
              "spot_prices": [
                1140,
                1142.5,
                1140
              ]
            },
            {
              "id": 24089,
              "name": "Caisse des Rentiers",
              "security_id": 51
            }
          ]
        }
      ]
    }
  ],
  "date": "1806-06-30",
  "stock_exchange": {
    "id": 1,
    "name": "Paris (Official List)"
  }
}