{
  "id": 9999,
  "name": "Paris official list",
  "children": [
    {
      "id": 78,
      "name": "COMPTANT [ARTIFICIEL]",
      "children": [
        {
          "id": 10,
          "name": "Effets Publics [SECTEUR ARTIFICIEL]",
          "notations": [
            {
              "id": 73,
              "name": "Rescription sur domaines",
              "security_id": 60,
              "spot_prices": [
                92
              ]
            },
            {
              "id": 81,
              "name": "C.% C. jouis.de Germinal an XI (C. pour C. jouiss. du 1er avril 1806/C. % C. jouiss. du 22 mars)",
              "security_id": 68,
              "spot_prices": [
                73,
                73.05,
                72.9,
                73,
                73
              ]
            },
            {
              "id": 83,
              "name": "Rescriptions non reclamées dans des departments",
              "security_id": 70
            },
            {
              "id": 24302,
              "name": "Act. des Ponts",
              "security_id": 5,
              "spot_prices": [
                1315
              ]
            },
            {
              "id": 24300,
              "name": "Caisse des Rentiers",
              "security_id": 51
            },
            {
              "id": 71,
              "name": "Bons et Promesses de 2/3 (Bons de remboursement)",
              "security_id": 58
            },
            {
              "id": 50086,
              "name": "Provisoire",
              "security_id": 13036
            },
            {
              "id": 24304,
              "name": "Action de la Banque de France",
              "security_id": 63,
              "spot_prices": [
                1221.25
              ]
            },
            {
              "id": 66,
              "name": "Bons an 8",
              "security_id": 53
            },
            {
              "id": 8,
              "name": "5% CONS. jouiss. du 22 sept.",
              "security_id": 65
            },
            {
              "id": 143839,
              "name": "Rescriptions avec arrérages",
              "security_id": 13264
            },
            {
              "id": 23308,
              "name": "Bons an 7",
              "security_id": 62
            }
          ]
        }
      ]
    }
  ],
  "date": "1807-03-31",
  "stock_exchange": {
    "id": 1,
    "name": "Paris (Official List)"
  }
}