{
  "id": 9999,
  "name": "Paris official list",
  "children": [
    {
      "id": 77,
      "name": "COMPTANT & TERME & PRIMES",
      "children": [
        {
          "id": 10,
          "name": "RENTES FRANCAISES",
          "notations": [
            {
              "id": 278,
              "name": "4,5% (j du 22 sept)",
              "security_id": 208,
              "spot_prices": [
                100
              ]
            },
            {
              "id": 928,
              "name": "4,5% jouissance du 22 mars 1852, non remb.le pendant 10 ans",
              "security_id": 697,
              "spot_prices": [
                101.65,
                101.7,
                101.75,
                101.95,
                101.9
              ]
            },
            {
              "id": 143606,
              "name": "3% jouissance du 22 juin",
              "security_id": 13031
            },
            {
              "id": 276,
              "name": "4% (jouissance du 22 sept)",
              "security_id": 206
            },
            {
              "id": 279,
              "name": "3% jouissance du 22 décembre",
              "security_id": 209,
              "spot_prices": [
                77,
                77.1,
                76.9
              ]
            }
          ]
        },
        {
          "id": 574,
          "name": "ARTIFICIEL (Bons de Trésor etc)",
          "notations": [
            {
              "id": 444,
              "name": "Bons du Trésor à 2 mois",
              "security_id": 308
            },
            {
              "id": 447,
              "name": "Bons du Trésor à 6 mois",
              "security_id": 311
            },
            {
              "id": 1018,
              "name": "Soc. gén. Crédit mob., j. (Act. de 500 f, 250 f. payés)",
              "security_id": 770,
              "spot_prices": [
                750,
                755
              ]
            },
            {
              "id": 443,
              "name": "Bons du Trésor à 4 mois",
              "security_id": 307
            },
            {
              "id": 319,
              "name": "Bons du Trésor",
              "security_id": 210
            },
            {
              "id": 451,
              "name": "Bons du Trésor à 10 mois",
              "security_id": 315
            },
            {
              "id": 1020,
              "name": "Comptoir d'esc., j. jer 1853 (Act de 500 fr, tout payé)",
              "security_id": 621,
              "spot_prices": [
                665,
                667.5,
                665
              ]
            },
            {
              "id": 448,
              "name": "Bons du Trésor à 7 mois",
              "security_id": 312
            },
            {
              "id": 449,
              "name": "Bons du Trésor à 8 mois",
              "security_id": 313,
              "spot_prices": [
                3.5
              ]
            },
            {
              "id": 452,
              "name": "Bons du Trésor à 11 mois",
              "security_id": 316
            },
            {
              "id": 50204,
              "name": "Bons du Trésor à 12 mois",
              "security_id": 317
            },
            {
              "id": 1017,
              "name": "Crédit fonc. de France, j. jer (Act. de 500 f, 250 f. payés)",
              "security_id": 1341,
              "spot_prices": [
                660
              ]
            },
            {
              "id": 446,
              "name": "Bons du Trésor à 5 mois",
              "security_id": 310
            },
            {
              "id": 1019,
              "name": "Crédit fonc. de France, Obl. de 1000 fr.",
              "security_id": 771,
              "spot_prices": [
                1022.5
              ]
            },
            {
              "id": 332,
              "name": "Banque de France (actions de la) (jouis. janvier 1852)",
              "security_id": 63,
              "spot_prices": [
                2655
              ]
            },
            {
              "id": 442,
              "name": "Bons du Trésor à 1 mois",
              "security_id": 306
            },
            {
              "id": 445,
              "name": "Bons du Trésor à 3 mois",
              "security_id": 309
            },
            {
              "id": 450,
              "name": "Bons du Trésor à 9 mois",
              "security_id": 314,
              "spot_prices": [
                3.5
              ]
            }
          ]
        },
        {
          "id": 580,
          "name": "VILLE",
          "notations": [
            {
              "id": 1011,
              "name": "Ville. Oblig. 1852, j. jer 1853 (5%)",
              "security_id": 765,
              "spot_prices": [
                1245
              ]
            },
            {
              "id": 1010,
              "name": "Ville. Oblig. 1849, j. oct. 1852 (5%)",
              "security_id": 764
            }
          ]
        },
        {
          "id": 67,
          "name": "SECTOR ARTIFICIEL [= FONDS ETRANGERS]",
          "notations": [
            {
              "id": 864,
              "name": "Emp. Belge 1840-1842 (jouis. nov.)",
              "security_id": 638
            },
            {
              "id": 786,
              "name": "Emprunt Piémont. 5% (jouissance juillet)",
              "security_id": 577,
              "spot_prices": [
                98.45,
                98.4
              ]
            },
            {
              "id": 933,
              "name": "Autrichien, 5%, j. jer 1853 (tout payé)",
              "security_id": 702,
              "spot_prices": [
                94
              ]
            },
            {
              "id": 1015,
              "name": "Piémontais 1853 3%, j. janvier 1853 (1/6 payé, soit 115 f.)",
              "security_id": 767,
              "spot_prices": [
                63.5
              ]
            }
          ]
        },
        {
          "id": 68,
          "name": "SECTOR ARTIFICIEL [=CHEMINS DE FER (actions)]",
          "notations": [
            {
              "id": 934,
              "name": "Ouest, j",
              "security_id": 703,
              "spot_prices": [
                725
              ]
            },
            {
              "id": 24093,
              "name": "Nord (actions de 500 fr, dont 400 fr payé)",
              "security_id": 374,
              "spot_prices": [
                855,
                856.25,
                857.5,
                855,
                853.75
              ]
            },
            {
              "id": 514,
              "name": "Paris à Strasbourg (actions de 500 fr, dont 375 fr payés)",
              "security_id": 378,
              "spot_prices": [
                900,
                905,
                900,
                897.5,
                900,
                902.5
              ]
            },
            {
              "id": 143702,
              "name": "Orléans (actions de 500 fr tout payé)",
              "security_id": 10456,
              "spot_prices": [
                1080,
                1085,
                1090,
                1085,
                1087.5,
                1090
              ]
            },
            {
              "id": 29,
              "name": "St. Germain (actions de 500 fr tout payé)",
              "security_id": 27
            },
            {
              "id": 35,
              "name": "Rouen au Havre (actions de 500 fr tout payé)",
              "security_id": 32,
              "spot_prices": [
                490
              ]
            },
            {
              "id": 512,
              "name": "Dieppe et Fécamp (actions de 500 fr, 400 fr payés)",
              "security_id": 417
            },
            {
              "id": 34,
              "name": "Paris à Rouen (actions de 500 fr tout payé)",
              "security_id": 31,
              "spot_prices": [
                1050
              ]
            },
            {
              "id": 865,
              "name": "Sceaux",
              "security_id": 369,
              "spot_prices": [
                215
              ]
            },
            {
              "id": 508,
              "name": "Montereau à Troyes (actions de 500 fr tout payé)",
              "security_id": 446,
              "spot_prices": [
                435
              ]
            },
            {
              "id": 940,
              "name": "Dijon à Besançon, j oct 1852",
              "security_id": 709,
              "spot_prices": [
                510
              ]
            },
            {
              "id": 32,
              "name": "Versailles (rive gauche) (actions de 500 fr tout payé)",
              "security_id": 29
            },
            {
              "id": 968,
              "name": "Midi",
              "security_id": 733,
              "spot_prices": [
                612.5,
                615
              ]
            },
            {
              "id": 143743,
              "name": "Orleans nouvle, j. oct. 1852",
              "security_id": 13168
            },
            {
              "id": 936,
              "name": "St-Dizier à Gray",
              "security_id": 705
            },
            {
              "id": 37,
              "name": "Strasbourg a Bale (actions de 500 fr dont 350 fr payé, le surplus par l'ETAT)",
              "security_id": 34,
              "spot_prices": [
                340
              ]
            },
            {
              "id": 40,
              "name": "Bordeaux à la Teste (actions de 500 fr tout payé)",
              "security_id": 37,
              "spot_prices": [
                270
              ]
            },
            {
              "id": 920,
              "name": "Paris à Lyon",
              "security_id": 689,
              "spot_prices": [
                897.5,
                900,
                898.75,
                902.5,
                903.75,
                905,
                897.5
              ]
            },
            {
              "id": 1016,
              "name": "Graissessac à Beziers (Act. de 500 f, 100 f. payés)",
              "security_id": 768
            },
            {
              "id": 939,
              "name": "Caen à Cherbourg, j sep 1852",
              "security_id": 708,
              "spot_prices": [
                605
              ]
            },
            {
              "id": 967,
              "name": "Lyon à la Mediterranée",
              "security_id": 732
            }
          ]
        }
      ]
    },
    {
      "id": 78,
      "name": "COMPTANT [ARTIFICIEL]",
      "children": [
        {
          "id": 70,
          "name": "OBLIGATIONS",
          "notations": [
            {
              "id": 416,
              "name": "St. Germain 1842 - 1849",
              "security_id": 281
            },
            {
              "id": 24092,
              "name": "Havre 1848 6%",
              "security_id": 388
            },
            {
              "id": 527,
              "name": "Rouen 1847-1849, 5%",
              "security_id": 391
            },
            {
              "id": 941,
              "name": "Orléans 1852, jouis.oct.1852",
              "security_id": 710,
              "spot_prices": [
                350
              ]
            },
            {
              "id": 415,
              "name": "St. Germain 1838-40 (anc. 5%)",
              "security_id": 268
            },
            {
              "id": 480,
              "name": "Montpellier (5,5%)",
              "security_id": 344
            },
            {
              "id": 922,
              "name": "Avignon (intérêt 5% garanti par l'Etat) (300 fr payé)",
              "security_id": 380
            },
            {
              "id": 517,
              "name": "Rouen 1845 4%",
              "security_id": 381
            },
            {
              "id": 518,
              "name": "Havre 1846 5%",
              "security_id": 382,
              "spot_prices": [
                1075
              ]
            },
            {
              "id": 929,
              "name": "Ouest (rembours. à 1250 fr)",
              "security_id": 698
            },
            {
              "id": 143749,
              "name": "Strasb. à Bále, 5%j. mai 1852 125f. payés, remb. à 625f. obl. lib.",
              "security_id": 13174
            },
            {
              "id": 523,
              "name": "Marseille 1850 remb en 1250 f d. 1000 int 5% gar par l'Etat",
              "security_id": 387
            },
            {
              "id": 861,
              "name": "Orléans 1848 5% (jouissance janvier) (Remboursable à 1250 fr)",
              "security_id": 636
            },
            {
              "id": 866,
              "name": "Nord, (500 fr.), 3%",
              "security_id": 640,
              "spot_prices": [
                355
              ]
            },
            {
              "id": 942,
              "name": "Paris à Lyon, tout payé (5%)",
              "security_id": 856,
              "spot_prices": [
                1120
              ]
            },
            {
              "id": 143739,
              "name": "Orléans 1852, jouis.jet.1853, remb. à 500 f. 240 f. payés. Lib.",
              "security_id": 13164
            },
            {
              "id": 413,
              "name": "Saint-Etienne (5%)",
              "security_id": 279
            },
            {
              "id": 970,
              "name": "Méditerranée, 3% (tout payé) (jouissance juillet 1852)",
              "security_id": 735,
              "spot_prices": [
                337.5
              ]
            },
            {
              "id": 418,
              "name": "Strasbourg à Bale, obl de 1250 f",
              "security_id": 285
            },
            {
              "id": 143741,
              "name": "Méditerranée, 375 f. pay.j.avr int 25 et remb. g. pr l'Etat Lib.",
              "security_id": 13166,
              "spot_prices": [
                535
              ]
            },
            {
              "id": 143748,
              "name": "Strasbourg, 250f pay. j. dec. lib.",
              "security_id": 13173
            },
            {
              "id": 417,
              "name": "Versailles (Rive droite) de 1843, de 1250 fr (5%)",
              "security_id": 284
            },
            {
              "id": 791,
              "name": "Montereau à Troyes",
              "security_id": 582,
              "spot_prices": [
                1000
              ]
            },
            {
              "id": 860,
              "name": "Orléans 1842 5% (jouissance janvier) (Remboursable à 1250 fr)",
              "security_id": 635
            },
            {
              "id": 943,
              "name": "Bale, 5% j. mai 1852 125 f payés remb à 625 f",
              "security_id": 712
            },
            {
              "id": 1043,
              "name": "Paris à Sceaux, obl. de 500 f., 4% j. mai 1852",
              "security_id": 795
            },
            {
              "id": 1044,
              "name": "Versailles (rd) 5% 1839, remb. à 1000 f., j. jer 1853",
              "security_id": 796
            },
            {
              "id": 944,
              "name": "Strasbourg, 125 f pay. j. juin (Paris à Strasb., 500 f 125 pay)",
              "security_id": 713,
              "spot_prices": [
                557.5
              ]
            },
            {
              "id": 969,
              "name": "Méditerranée, 160 f pay j d'octobre int 25 et remb gar par l'Etat",
              "security_id": 734,
              "spot_prices": [
                537.5
              ]
            }
          ]
        },
        {
          "id": 71,
          "name": "FONDS du DEPARTEMENT",
          "notations": [
            {
              "id": 529,
              "name": "Oblig. dép. Seine, . jer 1853",
              "security_id": 393
            },
            {
              "id": 792,
              "name": "3 Ponts, annuités",
              "security_id": 583
            }
          ]
        },
        {
          "id": 72,
          "name": "CANAUX",
          "notations": [
            {
              "id": 364,
              "name": "Canal d'Aire à la Bassée",
              "security_id": 108
            },
            {
              "id": 314,
              "name": "Canal d'Arles à Bouc Act. de 1000 f 5%",
              "security_id": 233
            },
            {
              "id": 365,
              "name": "Roanne a Digoin (1/23000)",
              "security_id": 265
            },
            {
              "id": 24094,
              "name": "4 canaux sans prime",
              "security_id": 266
            },
            {
              "id": 24090,
              "name": "4 canaux act de jouissance",
              "security_id": 171
            },
            {
              "id": 971,
              "name": "Sambre canalisée act 500 f",
              "security_id": 699
            },
            {
              "id": 340,
              "name": "Sambre à l'Oise, act de 1000 fr., 5%",
              "security_id": 241
            },
            {
              "id": 295,
              "name": "4 canaux et c.p. (= coupon de prime)",
              "security_id": 107,
              "spot_prices": [
                1100
              ]
            },
            {
              "id": 312,
              "name": "Canal de Bourgogne Act. de jouissance 1/27200",
              "security_id": 198,
              "spot_prices": [
                172.5
              ]
            },
            {
              "id": 310,
              "name": "Canal Rhone au Rhin Act. de 1000 f 5%",
              "security_id": 229
            },
            {
              "id": 158412,
              "name": "Canal de Bourgogne Act de 1000 f 5%",
              "security_id": 196
            }
          ]
        },
        {
          "id": 73,
          "name": "COMPAGNIES ANONYMES",
          "notations": [
            {
              "id": 1021,
              "name": "Le soleil, incendie",
              "security_id": 773
            },
            {
              "id": 301,
              "name": "Française du Phénix",
              "security_id": 85
            },
            {
              "id": 1049,
              "name": "Palais de cristal, j. oc. 1852 (Int. 4% g. p. l'Etat ac. 100 f 50 pay.)",
              "security_id": 744,
              "spot_prices": [
                113.75,
                115
              ]
            },
            {
              "id": 924,
              "name": "La Nationale, assurances (VIE)",
              "security_id": 2790
            },
            {
              "id": 143691,
              "name": "Caisse hypothécaire (obligations de 500 fr à 4%)",
              "security_id": 244
            },
            {
              "id": 796,
              "name": "L'Union, actions Incendie",
              "security_id": 201
            },
            {
              "id": 381,
              "name": "Caisse hypothecaire (act. de 1000 fr.)",
              "security_id": 175
            },
            {
              "id": 535,
              "name": "Fils et tissus de lins de Maberly",
              "security_id": 399,
              "spot_prices": [
                890
              ]
            },
            {
              "id": 925,
              "name": "Ce générale d'assur (Ce générale d'assur, incendie)",
              "security_id": 694
            }
          ]
        },
        {
          "id": 74,
          "name": "FONDS ETRANGERS (2° Partie)",
          "notations": [
            {
              "id": 426,
              "name": "2,5% Hollandais cert. franç., (jouissance du 22 janvier)",
              "security_id": 255
            },
            {
              "id": 994,
              "name": "Emprunt Belge 2,5% (jouissance juillet 1851)",
              "security_id": 367
            },
            {
              "id": 143742,
              "name": "Banque Belge 1835, j.anr.1853 nouvelle 1841",
              "security_id": 13167
            },
            {
              "id": 424,
              "name": "Espagne, Dette passive sans intéret",
              "security_id": 262
            },
            {
              "id": 425,
              "name": "Espagne 3% 1841 (jouiss de janvier)",
              "security_id": 298
            },
            {
              "id": 983,
              "name": "Emprunt Belge 4,5% (jouis. nov.)",
              "security_id": 368,
              "spot_prices": [
                98
              ]
            },
            {
              "id": 1005,
              "name": "Emprunt Romain, j. déc 1850",
              "security_id": 575,
              "spot_prices": [
                95,
                95
              ]
            },
            {
              "id": 875,
              "name": "Espagne, Dette diff convertie",
              "security_id": 649
            },
            {
              "id": 430,
              "name": "Emprunt d'Haiti",
              "security_id": 145
            },
            {
              "id": 996,
              "name": "Emprunt Belge 3% (jouis. fevr. 1851)",
              "security_id": 301
            },
            {
              "id": 999,
              "name": "Rente de Naples récépissés de Rothschild (jouis. juillet 1851)",
              "security_id": 366,
              "spot_prices": [
                104.5
              ]
            },
            {
              "id": 874,
              "name": "Portugal, 4%",
              "security_id": 648
            },
            {
              "id": 947,
              "name": "Empt Grec, j. mars 1852",
              "security_id": 716
            },
            {
              "id": 422,
              "name": "Espagne. Dette active, jouiss. de mai 1836",
              "security_id": 260
            },
            {
              "id": 948,
              "name": "Emprunt d'Haiti ex int 1849",
              "security_id": 717
            },
            {
              "id": 537,
              "name": "Espagne 3% dette intérieure",
              "security_id": 401,
              "spot_prices": [
                41.375,
                41.5
              ]
            },
            {
              "id": 998,
              "name": "Emprunt Belge 1852 (5%)",
              "security_id": 700
            },
            {
              "id": 427,
              "name": "Banque Belge 1835",
              "security_id": 273
            },
            {
              "id": 143719,
              "name": "Espagne, Dette passive nouvelle",
              "security_id": 13144
            }
          ]
        },
        {
          "id": 576,
          "name": "VALEURS DIVERSES",
          "notations": [
            {
              "id": 801,
              "name": "Mines de la Loire oblig.",
              "security_id": 559
            },
            {
              "id": 985,
              "name": "Obl.de de la Ville de Marseille",
              "security_id": 616
            },
            {
              "id": 1063,
              "name": "Cohin et Ce",
              "security_id": 612
            },
            {
              "id": 143662,
              "name": "Crédit Maritime, act de 500 f (100 f pay)",
              "security_id": 827
            },
            {
              "id": 1078,
              "name": "Mines de Prusse et Nassau",
              "security_id": 828
            },
            {
              "id": 1073,
              "name": "Empr Toscan, j jer 1853",
              "security_id": 926
            },
            {
              "id": 143769,
              "name": "Min. de Stolberg, j. jer 1853 10e",
              "security_id": 13153
            },
            {
              "id": 839,
              "name": "Emprunt Russe, 4,5% lib.",
              "security_id": 619,
              "spot_prices": [
                98.25,
                98.75
              ]
            },
            {
              "id": 990,
              "name": "E. autrichien 95 florins payés)",
              "security_id": 752
            },
            {
              "id": 1036,
              "name": "Glaces d'Aix-la-Chapelle",
              "security_id": 788,
              "spot_prices": [
                445,
                450
              ]
            },
            {
              "id": 1061,
              "name": "L'Ebre canalisée (200 fr pay.) [Canalisation de l'Ebre, act. De 400 f., 200 f pay]",
              "security_id": 813
            },
            {
              "id": 551,
              "name": "Zinc V-Montagne (= Vieille Montagne)",
              "security_id": 325,
              "spot_prices": [
                1190
              ]
            },
            {
              "id": 724,
              "name": "Société Béchet",
              "security_id": 521
            },
            {
              "id": 822,
              "name": "Espagne intérieure, 3% p.coup., j. janvier (P coup. = petites coupures)",
              "security_id": 605
            },
            {
              "id": 1052,
              "name": "Forges de Chatillon et Commentry, j.janv.1853",
              "security_id": 779
            },
            {
              "id": 1065,
              "name": "Mines de la Grand-Combe [Mines Gr.-Combe, j jet 1852]",
              "security_id": 816
            },
            {
              "id": 1068,
              "name": "Ch fer de Mulhouse à Thann",
              "security_id": 331
            },
            {
              "id": 913,
              "name": "Piémont Anglais 5% [Piemont certif anglais 5%]",
              "security_id": 683
            },
            {
              "id": 1024,
              "name": "Hauts fourn.d'Herserange",
              "security_id": 776,
              "spot_prices": [
                400,
                397.5,
                395,
                425
              ]
            },
            {
              "id": 1031,
              "name": "Zinc de Prusse [Zinc Prusse Rhénane]",
              "security_id": 783
            },
            {
              "id": 143740,
              "name": "Mines Gr.-Combe, j jet 1853. Obl. n.",
              "security_id": 13165
            },
            {
              "id": 779,
              "name": "Oblig. du Piémont 1849",
              "security_id": 570
            },
            {
              "id": 143773,
              "name": "Cail 10e",
              "security_id": 678
            },
            {
              "id": 1003,
              "name": "Ch.de fer Central Suisse",
              "security_id": 759
            },
            {
              "id": 50323,
              "name": "Banque de Darmstadt (act.de 537 50, 275f pay)",
              "security_id": 823,
              "spot_prices": [
                540
              ]
            },
            {
              "id": 746,
              "name": "Mines et Fonderies Zinc de Stolberg",
              "security_id": 919
            },
            {
              "id": 488,
              "name": "Obligations du Piemont, jouissance de juillet",
              "security_id": 352,
              "spot_prices": [
                990
              ]
            },
            {
              "id": 995,
              "name": "Lots d'Autriche",
              "security_id": 353
            },
            {
              "id": 9747,
              "name": "Lits Militaires, obl. 1000 f (jouissance d'octobre)",
              "security_id": 491,
              "spot_prices": [
                1010
              ]
            },
            {
              "id": 1012,
              "name": "Cail",
              "security_id": 684
            },
            {
              "id": 143781,
              "name": "Mines Mouzaïa act tout",
              "security_id": 685
            },
            {
              "id": 979,
              "name": "Marseille converti j.oct.1852, remb.à 625, int.25f.g.pr l'Etat",
              "security_id": 743
            },
            {
              "id": 1006,
              "name": "Centre de l'Italie (jouissance octobre) (50 fr. pay.)",
              "security_id": 760
            },
            {
              "id": 1066,
              "name": "Glaces de Montluçon, 125 f pay.",
              "security_id": 817
            },
            {
              "id": 143730,
              "name": "E. autrichien, j. nov. 1852 lib.",
              "security_id": 13155
            },
            {
              "id": 766,
              "name": "Mines de la Loire (action)",
              "security_id": 558,
              "spot_prices": [
                660
              ]
            },
            {
              "id": 1000,
              "name": "Liste Civil",
              "security_id": 632
            },
            {
              "id": 997,
              "name": "Oblig. Piémont 1851, 4% (j. d'août)",
              "security_id": 674
            }
          ]
        }
      ]
    }
  ],
  "date": "1853-07-15",
  "stock_exchange": {
    "id": 1,
    "name": "Paris (Official List)"
  }
}