{
  "id": 9999,
  "name": "Paris official list",
  "children": [
    {
      "id": 78,
      "name": "COMPTANT [ARTIFICIEL]",
      "children": [
        {
          "id": 10,
          "name": "Effets Publics [SECTEUR ARTIFICIEL]",
          "notations": [
            {
              "id": 81,
              "name": "C.% C. jouis.de Germinal an XI (C. pour C. jouiss. du 1er avril 1806/C. % C. jouiss. du 22 mars)",
              "security_id": 68,
              "spot_prices": [
                54.15,
                54.25,
                54.4,
                54.25,
                54.2,
                54,
                54.15,
                54.25
              ]
            },
            {
              "id": 71,
              "name": "Bons et Promesses de 2/3 (Bons de remboursement)",
              "security_id": 58
            },
            {
              "id": 23307,
              "name": "Rente provisoire (Provisoire, déposé)",
              "security_id": 48
            },
            {
              "id": 73,
              "name": "Ordonnances pour rescription de domaines",
              "security_id": 60,
              "spot_prices": [
                91
              ]
            },
            {
              "id": 74,
              "name": "Ordonnances pour rachat de rentes",
              "security_id": 61
            },
            {
              "id": 67,
              "name": "Syndicat",
              "security_id": 54
            },
            {
              "id": 8,
              "name": "5%",
              "security_id": 65,
              "spot_prices": [
                51.25,
                51,
                51.25
              ]
            },
            {
              "id": 143611,
              "name": "Provisoire",
              "security_id": 13036
            },
            {
              "id": 66,
              "name": "Bons an 8",
              "security_id": 53
            },
            {
              "id": 68,
              "name": "Coupures",
              "security_id": 55
            },
            {
              "id": 23308,
              "name": "Bons an 7",
              "security_id": 62
            },
            {
              "id": 77,
              "name": "Provisoire (non déposé)",
              "security_id": 64
            }
          ]
        },
        {
          "id": 11,
          "name": "Entreprises Particulieres [ARTIFICIEL]",
          "notations": [
            {
              "id": 86,
              "name": "Action de la Banque de France",
              "security_id": 63,
              "spot_prices": [
                1110,
                1115,
                1112.5,
                1115,
                1112.5
              ]
            },
            {
              "id": 24089,
              "name": "Caisse des Rentiers",
              "security_id": 51
            }
          ]
        }
      ]
    }
  ],
  "date": "1803-04-15",
  "stock_exchange": {
    "id": 1,
    "name": "Paris (Official List)"
  }
}