{
  "id": 9999,
  "name": "Paris official list",
  "children": [
    {
      "id": 78,
      "name": "COMPTANT [ARTIFICIEL]",
      "children": [
        {
          "id": 10,
          "name": "RENTES FRANCAISES (ARTIFICIEL)",
          "notations": [
            {
              "id": 279,
              "name": "3%, j. du 22 juin 1833",
              "security_id": 209,
              "spot_prices": [
                79.55,
                79.5,
                79.55,
                79.5
              ]
            },
            {
              "id": 278,
              "name": "4,5% (j du 22 mars)",
              "security_id": 208
            },
            {
              "id": 143584,
              "name": "5% cons. J du 22 sept 1819",
              "security_id": 13009
            },
            {
              "id": 276,
              "name": "Quatre % (jouissance du 22 mars)",
              "security_id": 206,
              "spot_prices": [
                101.3
              ]
            }
          ]
        },
        {
          "id": 574,
          "name": "ARTIFICIEL (Bons de Trésor etc)",
          "notations": [
            {
              "id": 320,
              "name": "Bons du Trésor – janvier",
              "security_id": 211
            },
            {
              "id": 325,
              "name": "Bons du Trésor – juin",
              "security_id": 216
            },
            {
              "id": 331,
              "name": "Bons du Trésor – decembre",
              "security_id": 222
            },
            {
              "id": 321,
              "name": "Bons du Trésor – février",
              "security_id": 212
            },
            {
              "id": 326,
              "name": "Bons du Trésor – juillet",
              "security_id": 217
            },
            {
              "id": 319,
              "name": "Bons du Trésor",
              "security_id": 210
            },
            {
              "id": 323,
              "name": "Bons du Trésor – avril",
              "security_id": 214
            },
            {
              "id": 327,
              "name": "Bons du Trésor – aout",
              "security_id": 218
            },
            {
              "id": 322,
              "name": "Bons du Trésor – mars",
              "security_id": 213
            },
            {
              "id": 330,
              "name": "Bons du Trésor – novembre",
              "security_id": 221
            },
            {
              "id": 332,
              "name": "Act. de la Banque de France",
              "security_id": 63,
              "spot_prices": [
                2760
              ]
            },
            {
              "id": 328,
              "name": "Bons du Trésor – septembre",
              "security_id": 219
            },
            {
              "id": 324,
              "name": "Bons du Trésor – mai",
              "security_id": 215
            },
            {
              "id": 329,
              "name": "Bons du Trésor – octobre",
              "security_id": 220
            }
          ]
        },
        {
          "id": 575,
          "name": "SECTOR ARTIFICIEL [ = Fonds de la Ville de Paris]",
          "notations": [
            {
              "id": 335,
              "name": "Rente de la Ville de Paris jouissance de juil 1833",
              "security_id": 16
            },
            {
              "id": 143604,
              "name": "OBL de la Ville de PARIS,4% J de JAN. 1844, avec primes",
              "security_id": 13029,
              "spot_prices": [
                1200
              ]
            },
            {
              "id": 333,
              "name": "Obligations de la ville de Paris 4% avec tirage des primes",
              "security_id": 225
            }
          ]
        },
        {
          "id": 72,
          "name": "CANAUX",
          "notations": [
            {
              "id": 364,
              "name": "Canal d'Aire à la Bassée",
              "security_id": 108
            },
            {
              "id": 314,
              "name": "Canal d'Arles à Bouc Act. de 1000 f 5%",
              "security_id": 233
            },
            {
              "id": 316,
              "name": "Canal d'Arles à Bouc Act de 5500 f et act de j 1/1000",
              "security_id": 235
            },
            {
              "id": 341,
              "name": "Canalisation de la Sambre act 1000 f",
              "security_id": 242
            },
            {
              "id": 295,
              "name": "4 canaux Act de 1000 f 5% et billet de prime 250 f",
              "security_id": 107,
              "spot_prices": [
                1252.5
              ]
            },
            {
              "id": 293,
              "name": "4 canaux act de jouissance 1/68000",
              "security_id": 171
            },
            {
              "id": 336,
              "name": "3 CANAUX, j. d'OCT. Act. 100f. et b. de pr. 250f",
              "security_id": 237
            },
            {
              "id": 368,
              "name": "4 canaux billet de prime",
              "security_id": 267
            },
            {
              "id": 311,
              "name": "Canal Rhone au Rhin act. de jouissance 1/10000",
              "security_id": 230
            },
            {
              "id": 367,
              "name": "4 canaux act sans billet de prime",
              "security_id": 266
            },
            {
              "id": 337,
              "name": "3 Canaux action de jouissance de la Somme",
              "security_id": 238
            },
            {
              "id": 339,
              "name": "3 Canaux action de jouissance de l'Oise",
              "security_id": 240
            },
            {
              "id": 338,
              "name": "3 Canaux action de jouissance des Ardennes",
              "security_id": 239
            },
            {
              "id": 315,
              "name": "Canal d'Arles à Bouc Act de jouissance 1/6000",
              "security_id": 193
            },
            {
              "id": 294,
              "name": "Canal de Bourgogne Act de 1000 f 5%",
              "security_id": 196
            },
            {
              "id": 310,
              "name": "Canal Rhone au Rhin act. 1000 f 5%",
              "security_id": 229
            },
            {
              "id": 365,
              "name": "Canal de Roanne a Digoin",
              "security_id": 265
            },
            {
              "id": 340,
              "name": "Canal de Sambre à l'Oise, act de 1000 fr à 5%",
              "security_id": 241
            }
          ]
        },
        {
          "id": 68,
          "name": "SECTOR ARTIFICIEL [=CHEMINS DE FER (actions)]",
          "notations": [
            {
              "id": 31,
              "name": "Chemin de Fer de Versailles Rive Droite",
              "security_id": 28,
              "spot_prices": [
                692.5,
                695
              ]
            },
            {
              "id": 37,
              "name": "Chemin de Fer Strasbourg a Bale",
              "security_id": 34,
              "spot_prices": [
                310,
                305,
                307.5,
                305,
                307.5,
                310
              ]
            },
            {
              "id": 29,
              "name": "Chemin de Fer de Paris à St.Germain, act de 600 f",
              "security_id": 27
            },
            {
              "id": 33,
              "name": "Chemin de Fer Paris a Orleans",
              "security_id": 30
            },
            {
              "id": 371,
              "name": "Chemin de Fer Paris a la Mer",
              "security_id": 270,
              "spot_prices": [
                950
              ]
            },
            {
              "id": 40,
              "name": "Chemin de Fer Bordeaux à la Teste",
              "security_id": 37,
              "spot_prices": [
                410
              ]
            },
            {
              "id": 372,
              "name": "Chemin de Fer Versailles Rive Droite Emprunt dudit de 4,000,000, oblig de 1000 f",
              "security_id": 271,
              "spot_prices": [
                1000
              ]
            },
            {
              "id": 32,
              "name": "Chemin de Fer de Versailles Rive Gauche",
              "security_id": 29,
              "spot_prices": [
                170,
                167.5,
                162.5,
                160,
                165
              ]
            },
            {
              "id": 370,
              "name": "Chemin de Fer de la Sambre a la Meuse",
              "security_id": 269
            },
            {
              "id": 369,
              "name": "Chemin de Fer de Paris à St.Germain Emprunt dudit, Oblig de 1250 f interet 50 f",
              "security_id": 268
            },
            {
              "id": 38,
              "name": "Chemin de Fer Montpellier a Cette",
              "security_id": 35
            },
            {
              "id": 143702,
              "name": "Chemin de Fer de Paris à Orleans j.JANV.",
              "security_id": 10456
            }
          ]
        },
        {
          "id": 73,
          "name": "SECTEUR ARTIFICIEL [= COMPAGNIES ANONYMES]",
          "notations": [
            {
              "id": 302,
              "name": "L'Union comp. d'assurances contre l'incendie",
              "security_id": 201
            },
            {
              "id": 303,
              "name": "L'Union comp. d'assurances Sur la vie humaine",
              "security_id": 202
            },
            {
              "id": 300,
              "name": "Act de la Comp Royale d'Assurances, Incendie",
              "security_id": 87
            },
            {
              "id": 317,
              "name": "Act. de la comp. roy. d'assurance, sur la vie",
              "security_id": 2790
            },
            {
              "id": 299,
              "name": "Actions des 3 ponts sur la Seine, jouis de janv.",
              "security_id": 105
            },
            {
              "id": 386,
              "name": "Assurances Générales (Actions au porteur) SUR LA VIE",
              "security_id": 90
            },
            {
              "id": 384,
              "name": "Act des Salines de l'Est",
              "security_id": 185
            },
            {
              "id": 383,
              "name": "Assurances Générales – Action nominative",
              "security_id": 100111
            },
            {
              "id": 381,
              "name": "Caise hypothéc. Act. de 1000f. J.de janv",
              "security_id": 175,
              "spot_prices": [
                800
              ]
            },
            {
              "id": 382,
              "name": "Assurances Générales (Actions au porteur) INCENDIE",
              "security_id": 84
            },
            {
              "id": 301,
              "name": "Comp. Française du Phénix, jouis de Janv",
              "security_id": 85
            },
            {
              "id": 318,
              "name": "Action des Pont, Garre et Port de Grenelle",
              "security_id": 182
            },
            {
              "id": 385,
              "name": "Assurances Générales (Actions au porteur) MARITIME",
              "security_id": 89
            },
            {
              "id": 143691,
              "name": "Caisse hypot. Ob. de 500f 5%. de j",
              "security_id": 244
            }
          ]
        },
        {
          "id": 67,
          "name": "FONDS ETRANGERS",
          "notations": [
            {
              "id": 156,
              "name": "Rente de NAPLES. 5% (jouissance de janvier 1832)",
              "security_id": 74,
              "spot_prices": [
                99.5
              ]
            },
            {
              "id": 355,
              "name": "Metallique d'Autriche",
              "security_id": 115
            },
            {
              "id": 350,
              "name": "Emprunt Grec certificats russe",
              "security_id": 251
            },
            {
              "id": 360,
              "name": "Espagne. Dette differee sans intéret",
              "security_id": 261
            },
            {
              "id": 214,
              "name": "Emprunt d'Haiti",
              "security_id": 145,
              "spot_prices": [
                417.5
              ]
            },
            {
              "id": 363,
              "name": "Act. de 1000 f de la Comp de Mutualité Industrielle de Belgique",
              "security_id": 264
            },
            {
              "id": 373,
              "name": "Société Générale de Bruxelles 1822 cert au porteur",
              "security_id": 272
            },
            {
              "id": 374,
              "name": "Banque Belge, 1835 (jouissance juillet)",
              "security_id": 273,
              "spot_prices": [
                805
              ]
            },
            {
              "id": 376,
              "name": "3% belge",
              "security_id": 274,
              "spot_prices": [
                72.25
              ]
            },
            {
              "id": 216,
              "name": "Rente PERPETUELLE d'ESPAGNE 5% (jouiss de Janvier)",
              "security_id": 147
            },
            {
              "id": 356,
              "name": "Emprunt d'Autriche 3%, cert Rothschild",
              "security_id": 257
            },
            {
              "id": 223,
              "name": "5% belge",
              "security_id": 154,
              "spot_prices": [
                102.5
              ]
            },
            {
              "id": 222,
              "name": "Rem, Etat Romain, j Juin 1838",
              "security_id": 153,
              "spot_prices": [
                101.5
              ]
            },
            {
              "id": 348,
              "name": "Emprunt Grec certificats français",
              "security_id": 249
            },
            {
              "id": 349,
              "name": "Emprunt Grec certificats anglais",
              "security_id": 250
            },
            {
              "id": 354,
              "name": "2,5% Hollandais cert au porteur",
              "security_id": 255,
              "spot_prices": [
                55.5
              ]
            },
            {
              "id": 361,
              "name": "Espagne, Dette passive sans intéret",
              "security_id": 262,
              "spot_prices": [
                4.25
              ]
            },
            {
              "id": 362,
              "name": "Espagne. Empr des cortes",
              "security_id": 263
            },
            {
              "id": 388,
              "name": "Rente d'Espagne 3%",
              "security_id": 276
            },
            {
              "id": 154,
              "name": "Obligations de Sicile",
              "security_id": 102
            },
            {
              "id": 150,
              "name": "Emprunt Royal d'Espagne 1823",
              "security_id": 114
            },
            {
              "id": 353,
              "name": "Emp. portug. 3%",
              "security_id": 254,
              "spot_prices": [
                21.5
              ]
            },
            {
              "id": 351,
              "name": "Emp. portug. 5%",
              "security_id": 252
            },
            {
              "id": 359,
              "name": "Espagne. Dette active",
              "security_id": 260,
              "spot_prices": [
                19.5,
                19.25,
                19.125,
                19.25,
                19.375
              ]
            }
          ]
        }
      ]
    }
  ],
  "date": "1839-06-15",
  "stock_exchange": {
    "id": 1,
    "name": "Paris (Official List)"
  }
}