{
  "id": 9999,
  "name": "Paris official list",
  "children": [
    {
      "id": 78,
      "name": "COMPTANT [ARTIFICIEL]",
      "children": [
        {
          "id": 10,
          "name": "FONDS Francais",
          "notations": [
            {
              "id": 276,
              "name": "Rente 4% [Quatre %]",
              "security_id": 206,
              "spot_prices": [
                93
              ]
            },
            {
              "id": 281,
              "name": "Bons du Trésor – janvier",
              "security_id": 211
            },
            {
              "id": 289,
              "name": "Bons du Trésor – septembre",
              "security_id": 219
            },
            {
              "id": 284,
              "name": "Bons du Trésor – avril",
              "security_id": 214
            },
            {
              "id": 292,
              "name": "Bons du Trésor – decembre",
              "security_id": 222
            },
            {
              "id": 279,
              "name": "3%, j. du 22 juin",
              "security_id": 209,
              "spot_prices": [
                78.1,
                78.05,
                78.1,
                78.15,
                78.2,
                78.15
              ]
            },
            {
              "id": 285,
              "name": "Bons du Trésor – mai",
              "security_id": 215
            },
            {
              "id": 291,
              "name": "Bons du Trésor – novembre",
              "security_id": 221
            },
            {
              "id": 307,
              "name": "Obl de la ville de Paris 4% sorties",
              "security_id": 226
            },
            {
              "id": 212,
              "name": "Rente de la Ville de Paris",
              "security_id": 16
            },
            {
              "id": 27,
              "name": "Act. de la Banque de France",
              "security_id": 63,
              "spot_prices": [
                1772.5
              ]
            },
            {
              "id": 8,
              "name": "Cinq % cons. J du 22 septembre 1823",
              "security_id": 65,
              "spot_prices": [
                102.9,
                102.8,
                102.75,
                102.8
              ]
            },
            {
              "id": 286,
              "name": "Bons du Trésor – juin",
              "security_id": 216
            },
            {
              "id": 304,
              "name": "Emprunt national",
              "security_id": 223,
              "spot_prices": [
                102.8
              ]
            },
            {
              "id": 282,
              "name": "Bons du Trésor – février",
              "security_id": 212
            },
            {
              "id": 305,
              "name": "Emp de 1832, 5%",
              "security_id": 224
            },
            {
              "id": 278,
              "name": "4,5%, jouiss.",
              "security_id": 208,
              "spot_prices": [
                99.5
              ]
            },
            {
              "id": 283,
              "name": "Bons du Trésor – mars",
              "security_id": 213
            },
            {
              "id": 288,
              "name": "Bons du Trésor – aout",
              "security_id": 218
            },
            {
              "id": 143584,
              "name": "5% cons. J du 22 sept 1819",
              "security_id": 13009
            },
            {
              "id": 280,
              "name": "Bons du Trésor",
              "security_id": 210
            },
            {
              "id": 287,
              "name": "Bons du Trésor – juillet",
              "security_id": 217
            },
            {
              "id": 290,
              "name": "Bons du Trésor – octobre",
              "security_id": 220
            },
            {
              "id": 306,
              "name": "Obligations de la ville de Paris 4% [Obl de la ville de Paris 4% avec tirage des primes]",
              "security_id": 225,
              "spot_prices": [
                1080
              ]
            }
          ]
        },
        {
          "id": 72,
          "name": "CANAUX",
          "notations": [
            {
              "id": 314,
              "name": "Canal d'Arles à Bouc Act. de 1000 f 5%",
              "security_id": 233
            },
            {
              "id": 316,
              "name": "Canal d'Arles à Bouc Act de 5500 f et act de j 1/1000",
              "security_id": 235
            },
            {
              "id": 295,
              "name": "4 canaux Act de 1000 f 5% et billet de prime 250 f",
              "security_id": 107,
              "spot_prices": [
                1140
              ]
            },
            {
              "id": 293,
              "name": "4 canaux act de jouissance 1/68000",
              "security_id": 171
            },
            {
              "id": 298,
              "name": "Navigation de l'OISE. Action de 1250 f j. de janv..",
              "security_id": 190
            },
            {
              "id": 297,
              "name": "Canal des Ardennes Certif de 10000 f j d'avril",
              "security_id": 134
            },
            {
              "id": 311,
              "name": "Canal Rhone au Rhin act. de jouissance 1/10000",
              "security_id": 230
            },
            {
              "id": 313,
              "name": "Canal de Bourgogne act. de 2500 f et act de j 1/10000",
              "security_id": 232
            },
            {
              "id": 309,
              "name": "4 canaux coupons de prime de 250 f",
              "security_id": 267
            },
            {
              "id": 296,
              "name": "Canal de la Somme Action de 1000 f j d'Avril",
              "security_id": 178
            },
            {
              "id": 315,
              "name": "Canal d'Arles à Bouc Act de jouissance 1/6000",
              "security_id": 193
            },
            {
              "id": 294,
              "name": "Canal de Bourgogne Act de 1000 f 5%",
              "security_id": 196
            },
            {
              "id": 310,
              "name": "Canal Rhone au Rhin act. 1000 f 5%",
              "security_id": 229
            }
          ]
        },
        {
          "id": 73,
          "name": "SECTEUR ARTIFICIEL [= COMPAGNIES ANONYMES]",
          "notations": [
            {
              "id": 302,
              "name": "L'Union comp. d'assurances contre l'incendie",
              "security_id": 201
            },
            {
              "id": 303,
              "name": "L'Union comp. d'assurances Sur la vie humaine",
              "security_id": 202
            },
            {
              "id": 300,
              "name": "Act de la Comp Royale d'Assurances, Incendie",
              "security_id": 87
            },
            {
              "id": 317,
              "name": "Act. de la comp. roy. d'assurance, sur la vie",
              "security_id": 2790
            },
            {
              "id": 299,
              "name": "Actions des 3 ponts sur la Seine, jouis de janv.",
              "security_id": 105
            },
            {
              "id": 386,
              "name": "Assurances Générales (Actions au porteur) SUR LA VIE",
              "security_id": 90
            },
            {
              "id": 384,
              "name": "Act des Salines de l'Est",
              "security_id": 185
            },
            {
              "id": 383,
              "name": "Assurances Générales – Action nominative",
              "security_id": 100111
            },
            {
              "id": 381,
              "name": "Caise hypothéc. Act. de 1000f. J.de janv",
              "security_id": 175,
              "spot_prices": [
                580,
                578.75
              ]
            },
            {
              "id": 382,
              "name": "Assurances Générales (Actions au porteur) INCENDIE",
              "security_id": 84
            },
            {
              "id": 301,
              "name": "Comp. Française du Phénix, jouis de Janv",
              "security_id": 85
            },
            {
              "id": 318,
              "name": "Action des Pont, Garre et Port de Grenelle",
              "security_id": 182
            },
            {
              "id": 385,
              "name": "Assurances Générales (Actions au porteur) MARITIME",
              "security_id": 89
            }
          ]
        },
        {
          "id": 67,
          "name": "FONDS ETRANGERS",
          "notations": [
            {
              "id": 156,
              "name": "Rente de NAPLES. 5% (jouissance de janvier 1832)",
              "security_id": 74,
              "spot_prices": [
                92.85,
                92.9
              ]
            },
            {
              "id": 155,
              "name": "Rente d'ESPAGNE 5% (jouissance de MAI)",
              "security_id": 113,
              "spot_prices": [
                15.75,
                15.875
              ]
            },
            {
              "id": 389,
              "name": "Emprunt royale d'Espagne, 4ème série remboursable",
              "security_id": 277,
              "spot_prices": [
                89.5
              ]
            },
            {
              "id": 214,
              "name": "Emprunt d'Haiti",
              "security_id": 145,
              "spot_prices": [
                270
              ]
            },
            {
              "id": 216,
              "name": "Rente PERPETUELLE d'ESPAGNE 5% (jouiss de Janvier)",
              "security_id": 147,
              "spot_prices": [
                76.25,
                76.125,
                76.25,
                76.125
              ]
            },
            {
              "id": 388,
              "name": "Rente d'Espagne 3%",
              "security_id": 276,
              "spot_prices": [
                44.5,
                44.375,
                44.5,
                44.375,
                44.5,
                44.375
              ]
            },
            {
              "id": 154,
              "name": "Obligations de Sicile",
              "security_id": 102
            },
            {
              "id": 150,
              "name": "Emprunt Royal d'Espagne 1823",
              "security_id": 114
            },
            {
              "id": 222,
              "name": "Rente 5% de l'Etat Romain",
              "security_id": 153,
              "spot_prices": [
                89.25,
                89.5
              ]
            },
            {
              "id": 223,
              "name": "Emp Belge de 1831 Rente 5%",
              "security_id": 154,
              "spot_prices": [
                88.25,
                88.5,
                88.25
              ]
            }
          ]
        }
      ]
    }
  ],
  "date": "1833-05-15",
  "stock_exchange": {
    "id": 1,
    "name": "Paris (Official List)"
  }
}