{
  "id": 9999,
  "name": "Paris official list",
  "children": [
    {
      "id": 78,
      "name": "COMPTANT [ARTIFICIEL]",
      "children": [
        {
          "id": 10,
          "name": "Effets Publics",
          "notations": [
            {
              "id": 158411,
              "name": "Actions de la Banque de France (Jouissance du 1er janvier 1811)",
              "security_id": 63,
              "spot_prices": [
                980,
                990,
                985,
                990,
                995,
                1000,
                997.5
              ]
            },
            {
              "id": 81,
              "name": "5% CONS. jouis.de Germinal an XI (5% jouiss. du 1er avril 1806/5% jouiss. du 22 mars)",
              "security_id": 68,
              "spot_prices": [
                63,
                63.5,
                64,
                64.25,
                64.5,
                64,
                63.75,
                63.25,
                63.5,
                63.25,
                63,
                63.25,
                63.5,
                63.25,
                63,
                63.25,
                63.4,
                63.5,
                63.75,
                63.5,
                63.25
              ]
            },
            {
              "id": 1,
              "name": "Obligations du Trésor Royal (perte par année)",
              "security_id": 1,
              "spot_prices": [
                9
              ]
            },
            {
              "id": 8,
              "name": "5% CONS. jouiss. du 22 sept.",
              "security_id": 65
            },
            {
              "id": 19,
              "name": "Act. des Ponts",
              "security_id": 5
            }
          ]
        },
        {
          "id": 11,
          "name": "Entreprises Particulieres"
        }
      ]
    }
  ],
  "date": "1815-07-15",
  "stock_exchange": {
    "id": 1,
    "name": "Paris (Official List)"
  }
}