{
  "id": 9999,
  "name": "Paris official list",
  "children": [
    {
      "id": 78,
      "name": "COMPTANT [ARTIFICIEL]",
      "children": [
        {
          "id": 10,
          "name": "Effets Publics [SECTEUR ARTIFICIEL]",
          "notations": [
            {
              "id": 65,
              "name": "Bon d'arrérage",
              "security_id": 52,
              "spot_prices": [
                86.75,
                86.5,
                86.25,
                86.38,
                86.6
              ]
            },
            {
              "id": 58,
              "name": "Bons 1/4",
              "security_id": 45
            },
            {
              "id": 23307,
              "name": "Rente provisoire (Provisoire, déposé)",
              "security_id": 48,
              "spot_prices": [
                24.75,
                24.63,
                24.65,
                24.75
              ]
            },
            {
              "id": 69,
              "name": "Syndicat en 500",
              "security_id": 56
            },
            {
              "id": 67,
              "name": "Syndicat",
              "security_id": 54
            },
            {
              "id": 143611,
              "name": "Provisoire",
              "security_id": 13036
            },
            {
              "id": 59,
              "name": "Bons 2/3",
              "security_id": 46,
              "spot_prices": [
                1.61,
                1.6,
                1.61
              ]
            },
            {
              "id": 66,
              "name": "Bons an 8",
              "security_id": 53,
              "spot_prices": [
                94.75,
                94.38,
                94.5,
                94.4
              ]
            },
            {
              "id": 60,
              "name": "Tiers Consolidé",
              "security_id": 65,
              "spot_prices": [
                36.25,
                36.2,
                36.15,
                36.1,
                36.13,
                36.05,
                36
              ]
            },
            {
              "id": 57,
              "name": "Bons 3/4",
              "security_id": 44
            },
            {
              "id": 68,
              "name": "Coupures",
              "security_id": 55,
              "spot_prices": [
                81
              ]
            },
            {
              "id": 64,
              "name": "Action de 50 f de la Caisse des Rentiers",
              "security_id": 51
            }
          ]
        }
      ]
    }
  ],
  "date": "1800-12-15",
  "stock_exchange": {
    "id": 1,
    "name": "Paris (Official List)"
  }
}