{
  "id": 118927,
  "names": [
    "R. -J. Beaumont"
  ],
  "functions": [
    {
      "issuer": {
        "id": 4943,
        "name": "THE SHAWINISAN WATER AND POWER C°"
      },
      "job": {
        "id": 102,
        "name": "Président",
        "short_name": "P."
      },
      "start_date": "1921-01-01",
      "end_date": "1952-12-31"
    },
    {
      "issuer": {
        "id": 3352,
        "name": "THE CENTRAL MINING AND INVESTMENT CORPORATION LTD"
      },
      "job": {
        "id": 219,
        "name": "Administrateur"
      },
      "start_date": "1948-01-01",
      "end_date": "1948-12-31"
    },
    {
      "issuer": {
        "id": 2840,
        "name": "TRANSVAAL CONSOLIDATED LAND AND EXPLORATION COMPANY, LIMITED"
      },
      "job": {
        "id": 219,
        "name": "Administrateur"
      },
      "start_date": "1953-01-01",
      "end_date": "1953-12-31"
    },
    {
      "issuer": {
        "id": 4943,
        "name": "THE SHAWINISAN WATER AND POWER C°"
      },
      "job": {
        "id": 102,
        "name": "Président",
        "short_name": "P."
      },
      "start_date": "1953-01-01",
      "end_date": "1953-12-31"
    },
    {
      "issuer": {
        "id": 2773,
        "name": "CROWN MINES, LIMITED"
      },
      "job": {
        "id": 219,
        "name": "Administrateur"
      },
      "start_date": "1953-01-01",
      "end_date": "1953-12-31"
    }
  ],
  "name": "R. -J. Beaumont"
}