{
  "id": 90422,
  "names": [
    "J. Marcellot"
  ],
  "functions": [
    {
      "issuer": {
        "id": 5441,
        "name": "ENERGIE ELECTRIQUE DE MEUSE ET MARNE"
      },
      "job": {
        "id": 219,
        "name": "Administrateur"
      },
      "start_date": "1933-01-01",
      "end_date": "1933-12-31"
    }
  ],
  "name": "J. Marcellot"
}