{
  "id": 91146,
  "names": [
    "comte Le Marois"
  ],
  "functions": [
    {
      "issuer": {
        "id": 10978,
        "name": "COMPAGNIE PETROLIFERE STARNAPHTA"
      },
      "job": {
        "id": 219,
        "name": "Administrateur"
      },
      "start_date": "1933-01-01",
      "end_date": "1933-12-31"
    }
  ],
  "name": "comte Le Marois"
}