{
  "id": 80695,
  "names": [
    "Raoul Charbonnel"
  ],
  "functions": [
    {
      "issuer": {
        "id": 5427,
        "name": "COMPAGNIE NOSYBEENNE D'INDUSTRIES AGRICOLES"
      },
      "job": {
        "id": 219,
        "name": "Administrateur"
      },
      "start_date": "1927-01-01",
      "end_date": "1933-12-31"
    },
    {
      "issuer": {
        "id": 11001,
        "name": "SOCIETE ANONYME D'ENTREPRISES FROMENT-CLAVIER"
      },
      "job": {
        "id": 219,
        "name": "Administrateur"
      },
      "start_date": "1933-01-01",
      "end_date": "1933-12-31"
    },
    {
      "issuer": {
        "id": 5427,
        "name": "COMPAGNIE NOSYBEENNE D'INDUSTRIES AGRICOLES"
      },
      "job": {
        "id": 219,
        "name": "Administrateur"
      },
      "start_date": "1940-01-01",
      "end_date": "1940-12-31"
    }
  ],
  "name": "Raoul Charbonnel"
}