{
  "id": 128143,
  "names": [
    "Carlo Gualino"
  ],
  "functions": [
    {
      "issuer": {
        "id": 5187,
        "name": "SNIA VISCOSA (Soolétà Nazionale Industrla AppllcazionI Vîscosa)"
      },
      "job": {
        "id": 219,
        "name": "Administrateur"
      },
      "start_date": "1927-01-01",
      "end_date": "1927-12-31"
    }
  ],
  "name": "Carlo Gualino"
}