{
  "id": 101928,
  "names": [
    "H.-L. du Pasquier"
  ],
  "functions": [
    {
      "issuer": {
        "id": 4784,
        "name": "ETABLISSEMENTS DICKSON"
      },
      "job": {
        "id": 102,
        "name": "Président",
        "short_name": "P."
      },
      "start_date": "1940-01-01",
      "end_date": "1948-12-31"
    }
  ],
  "name": "H.-L. du Pasquier"
}