{
  "id": 98388,
  "names": [
    "Robert Marin"
  ],
  "functions": [
    {
      "issuer": {
        "id": 3544,
        "name": "BANQUE INTERNATiONALE DE COMMERCE"
      },
      "job": {
        "id": 219,
        "name": "Administrateur"
      },
      "start_date": "1940-01-01",
      "end_date": "1940-12-31"
    }
  ],
  "name": "Robert Marin"
}