{
  "id": 52180,
  "names": [
    "G. Lévy-Alexandre"
  ],
  "functions": [
    {
      "issuer": {
        "id": 946,
        "name": "Société de l'Union des gaz"
      },
      "job": {
        "id": 10019,
        "name": "Commissaire des comptes"
      },
      "start_date": "1908-01-01",
      "end_date": "1908-12-31"
    },
    {
      "issuer": {
        "id": 3654,
        "name": "SOCIETE INDUSTRIELLE DE TRANSPORTS AUTOMOBILES (SITA)"
      },
      "job": {
        "id": 219,
        "name": "Administrateur"
      },
      "start_date": "1923-01-01",
      "end_date": "1923-12-31"
    },
    {
      "issuer": {
        "id": 3654,
        "name": "SOCIETE INDUSTRIELLE DE TRANSPORTS AUTOMOBILES (SITA)"
      },
      "job": {
        "id": 219,
        "name": "Administrateur"
      },
      "start_date": "1927-01-01",
      "end_date": "1933-12-31"
    },
    {
      "issuer": {
        "id": 11003,
        "name": "LE SOLIDITIT FRANÇAIS"
      },
      "job": {
        "id": 219,
        "name": "Administrateur"
      },
      "start_date": "1933-01-01",
      "end_date": "1933-12-31"
    },
    {
      "issuer": {
        "id": 10905,
        "name": "SOCIÉTÉ DE CONSTRUCTIONS ET D'INSTALLATIONS INDUSTRIELLES"
      },
      "job": {
        "id": 219,
        "name": "Administrateur"
      },
      "start_date": "1933-01-01",
      "end_date": "1933-12-31"
    },
    {
      "issuer": {
        "id": 3654,
        "name": "SOCIETE INDUSTRIELLE DE TRANSPORTS AUTOMOBILES (SITA)"
      },
      "job": {
        "id": 117,
        "name": "Vice-Président",
        "short_name": "V.-Pr."
      },
      "start_date": "1940-01-01",
      "end_date": "1940-12-31"
    }
  ],
  "name": "G. Lévy-Alexandre"
}