{
  "id": 56020,
  "names": [
    "P. Mankiewitz"
  ],
  "functions": [
    {
      "issuer": {
        "id": 2892,
        "name": "UNION CORPORATION, LIMITED (Anciennement A. GOERZ AND COMPANY, LIMITED)"
      },
      "job": {
        "id": 219,
        "name": "Administrateur"
      },
      "start_date": "1912-01-01",
      "end_date": "1912-12-31"
    }
  ],
  "name": "P. Mankiewitz"
}