{
  "id": 103321,
  "names": [
    "Marx Henriquez"
  ],
  "functions": [
    {
      "issuer": {
        "id": 3857,
        "name": "COMPAGNIE FRANÇAISE DU BAS-CONGO"
      },
      "job": {
        "id": 117,
        "name": "Vice-Président",
        "short_name": "V.-Pr."
      },
      "start_date": "1940-01-01",
      "end_date": "1948-12-31"
    }
  ],
  "name": "Marx Henriquez"
}