{
  "id": 42889,
  "names": [
    "Charles-Emile Collin"
  ],
  "functions": [
    {
      "issuer": {
        "id": 2257,
        "name": "Compagnie Française des Mines et Usines d'Escombrera-Bleyberg"
      },
      "job": {
        "id": 10626,
        "name": "Membre de Comité de Direction"
      },
      "start_date": "1880-01-01",
      "end_date": "1880-12-31"
    },
    {
      "issuer": {
        "id": 2257,
        "name": "Compagnie Française des Mines et Usines d'Escombrera-Bleyberg"
      },
      "job": {
        "id": 219,
        "name": "Administrateur"
      },
      "start_date": "1883-01-01",
      "end_date": "1908-12-31"
    },
    {
      "issuer": {
        "id": 2424,
        "name": "Société anonyme des Mines de charbon de Puertollano"
      },
      "job": {
        "id": 219,
        "name": "Administrateur"
      },
      "start_date": "1898-01-01",
      "end_date": "1908-12-31"
    },
    {
      "issuer": {
        "id": 2257,
        "name": "Compagnie Française des Mines et Usines d'Escombrera-Bleyberg"
      },
      "job": {
        "id": 219,
        "name": "Administrateur"
      },
      "start_date": "1912-01-01",
      "end_date": "1912-12-31"
    },
    {
      "issuer": {
        "id": 2425,
        "name": "COMPAGNIE DE CHARBONNAGES DE PUERTOLLANO"
      },
      "job": {
        "id": 219,
        "name": "Administrateur"
      },
      "start_date": "1912-01-01",
      "end_date": "1912-12-31"
    }
  ],
  "name": "Charles-Emile Collin"
}