{
  "id": 70967,
  "names": [
    "D. E. Bernheim"
  ],
  "functions": [
    {
      "issuer": {
        "id": 2841,
        "name": "NEW JAGERSFONTEIN MINING AND EXPLORATION COMPANY"
      },
      "job": {
        "id": 219,
        "name": "Administrateur"
      },
      "start_date": "1917-01-01",
      "end_date": "1927-12-31"
    }
  ],
  "name": "D. E. Bernheim"
}