{
  "id": 52436,
  "names": [
    "Delsart"
  ],
  "functions": [
    {
      "issuer": {
        "id": 7100,
        "name": "Société générale de Transport de Liquides"
      },
      "job": {
        "id": 219,
        "name": "Administrateur"
      },
      "start_date": "1908-01-01",
      "end_date": "1908-12-31"
    }
  ],
  "name": "Delsart"
}