{
  "id": 103279,
  "names": [
    "A. Dubout"
  ],
  "functions": [
    {
      "issuer": {
        "id": 4604,
        "name": "SOCIÉTÉ AGRICOLE DE THANH-TUY-HA"
      },
      "job": {
        "id": 103,
        "name": "Commissaire"
      },
      "start_date": "1940-01-01",
      "end_date": "1940-12-31"
    }
  ],
  "name": "A. Dubout"
}