{
  "id": 79412,
  "names": [
    "Henri Cahen"
  ],
  "functions": [
    {
      "issuer": {
        "id": 10337,
        "name": "« AU CRÉDIT COMMERCIAL » Jules Weil et Cie"
      },
      "job": {
        "id": 10637,
        "name": "Membre du Comité de surveillance"
      },
      "start_date": "1917-01-01",
      "end_date": "1917-12-31"
    },
    {
      "issuer": {
        "id": 3106,
        "name": "\" EST-LUMIERE \" (Compagnie d'Electricité de l'Est-Parisien)"
      },
      "job": {
        "id": 219,
        "name": "Administrateur"
      },
      "start_date": "1923-01-01",
      "end_date": "1923-12-31"
    },
    {
      "issuer": {
        "id": 3091,
        "name": "SOCIÉTÉ D'APPLICATIONS INDUSTRIELLES (Cie d'Entreprises électriques)"
      },
      "job": {
        "id": 219,
        "name": "Administrateur"
      },
      "start_date": "1923-01-01",
      "end_date": "1923-12-31"
    },
    {
      "issuer": {
        "id": 3105,
        "name": "ENERGIE ELECTRIQUE DU NORD DE LA FRANCE"
      },
      "job": {
        "id": 219,
        "name": "Administrateur"
      },
      "start_date": "1923-01-01",
      "end_date": "1927-12-31"
    },
    {
      "issuer": {
        "id": 2704,
        "name": "FORCES MOTRICES D'AUVERGNE"
      },
      "job": {
        "id": 219,
        "name": "Administrateur"
      },
      "start_date": "1923-01-01",
      "end_date": "1927-12-31"
    },
    {
      "issuer": {
        "id": 3114,
        "name": "SOCIÉTÉ SUD ELECTRIQUE"
      },
      "job": {
        "id": 219,
        "name": "Administrateur"
      },
      "start_date": "1923-01-01",
      "end_date": "1927-12-31"
    },
    {
      "issuer": {
        "id": 4383,
        "name": "COMPAGNIE GENERALE DE RADIOLOGIE (Anciennement Etablissements Gaiffe-Gallot et Pilon)"
      },
      "job": {
        "id": 219,
        "name": "Administrateur"
      },
      "start_date": "1927-01-01",
      "end_date": "1927-12-31"
    },
    {
      "issuer": {
        "id": 10337,
        "name": "« AU CRÉDIT COMMERCIAL » Jules Weil et Cie"
      },
      "job": {
        "id": 219,
        "name": "Administrateur"
      },
      "start_date": "1927-01-01",
      "end_date": "1927-12-31"
    },
    {
      "issuer": {
        "id": 5138,
        "name": "SOCIÉTÉ D'ELECTRICITE DE CAEN"
      },
      "job": {
        "id": 219,
        "name": "Administrateur"
      },
      "start_date": "1927-01-01",
      "end_date": "1933-12-31"
    },
    {
      "issuer": {
        "id": 3577,
        "name": "UNION INDUSTRIELLE DE CREDIT POUR LA RECONSTITUTION"
      },
      "job": {
        "id": 219,
        "name": "Administrateur"
      },
      "start_date": "1927-01-01",
      "end_date": "1933-12-31"
    },
    {
      "issuer": {
        "id": 4383,
        "name": "COMPAGNIE GENERALE DE RADIOLOGIE (Anciennement Etablissements Gaiffe-Gallot et Pilon)"
      },
      "job": {
        "id": 102,
        "name": "Président",
        "short_name": "P."
      },
      "start_date": "1933-01-01",
      "end_date": "1933-12-31"
    },
    {
      "issuer": {
        "id": 5174,
        "name": "ELECTRICITE DU NORD-EST PARISIEN"
      },
      "job": {
        "id": 219,
        "name": "Administrateur"
      },
      "start_date": "1933-01-01",
      "end_date": "1933-12-31"
    },
    {
      "issuer": {
        "id": 3091,
        "name": "SOCIÉTÉ D'APPLICATIONS INDUSTRIELLES (Cie d'Entreprises électriques)"
      },
      "job": {
        "id": 219,
        "name": "Administrateur"
      },
      "start_date": "1933-01-01",
      "end_date": "1933-12-31"
    },
    {
      "issuer": {
        "id": 3114,
        "name": "SOCIÉTÉ SUD ELECTRIQUE"
      },
      "job": {
        "id": 117,
        "name": "Vice-Président",
        "short_name": "V.-Pr."
      },
      "start_date": "1933-01-01",
      "end_date": "1933-12-31"
    },
    {
      "issuer": {
        "id": 3105,
        "name": "ENERGIE ELECTRIQUE DU NORD DE LA FRANCE"
      },
      "job": {
        "id": 219,
        "name": "Administrateur"
      },
      "start_date": "1933-01-01",
      "end_date": "1933-12-31"
    },
    {
      "issuer": {
        "id": 3106,
        "name": "\" EST-LUMIERE \" (Compagnie d'Electricité de l'Est-Parisien)"
      },
      "job": {
        "id": 219,
        "name": "Administrateur"
      },
      "start_date": "1933-01-01",
      "end_date": "1933-12-31"
    },
    {
      "issuer": {
        "id": 10942,
        "name": "UNION ELECTRIQUE DE L'OUEST"
      },
      "job": {
        "id": 219,
        "name": "Administrateur"
      },
      "start_date": "1933-01-01",
      "end_date": "1933-12-31"
    },
    {
      "issuer": {
        "id": 2701,
        "name": "ENERGIE ELECTRIQUE DU LITTORAL MEDITERRANEEN"
      },
      "job": {
        "id": 219,
        "name": "Administrateur"
      },
      "start_date": "1933-01-01",
      "end_date": "1933-12-31"
    },
    {
      "issuer": {
        "id": 3094,
        "name": "EST-ELECTRIQUE"
      },
      "job": {
        "id": 219,
        "name": "Administrateur"
      },
      "start_date": "1933-01-01",
      "end_date": "1933-12-31"
    }
  ],
  "name": "Henri Cahen"
}