{
  "id": 48835,
  "names": [
    "Poirot-Delpech"
  ],
  "functions": [
    {
      "issuer": {
        "id": 735,
        "name": "Chemin de fer du Médoc"
      },
      "job": {
        "id": 219,
        "name": "Administrateur"
      },
      "start_date": "1898-01-01",
      "end_date": "1898-12-31"
    },
    {
      "issuer": {
        "id": 3090,
        "name": "COMPAGNIE DES EAUX ET D'ÉLECTRICITE DE L'INDOCHINE"
      },
      "job": {
        "id": 219,
        "name": "Administrateur"
      },
      "start_date": "1908-01-01",
      "end_date": "1908-12-31"
    },
    {
      "issuer": {
        "id": 5478,
        "name": "SOCIÉTÉ INDO-CHINOISE D'ÉLECTRICITÉ"
      },
      "job": {
        "id": 219,
        "name": "Administrateur"
      },
      "start_date": "1908-01-01",
      "end_date": "1908-12-31"
    }
  ],
  "name": "Poirot-Delpech"
}