{
  "id": 117742,
  "names": [
    "J. de Feyerimhoff"
  ],
  "functions": [
    {
      "issuer": {
        "id": 4484,
        "name": "FORGES ET ACIERIES DE COMMERCY (Anciens Etablissements Grosdidier)"
      },
      "job": {
        "id": 219,
        "name": "Administrateur"
      },
      "start_date": "1953-01-01",
      "end_date": "1953-12-31"
    }
  ],
  "name": "J. de Feyerimhoff"
}