{
  "id": 117626,
  "names": [
    "J.M. Bonvallet"
  ],
  "functions": [
    {
      "issuer": {
        "id": 4525,
        "name": "Cie MINIERE DE L'OUBANGHI ORIENTAL (C. M. O. O.)"
      },
      "job": {
        "id": 219,
        "name": "Administrateur"
      },
      "start_date": "1953-01-01",
      "end_date": "1953-12-31"
    }
  ],
  "name": "J.M. Bonvallet"
}