{
  "id": 112687,
  "names": [
    "R. Levent"
  ],
  "functions": [
    {
      "issuer": {
        "id": 4456,
        "name": "FONDERIES DEBERNY ET PEIGNOT"
      },
      "job": {
        "id": 219,
        "name": "Administrateur"
      },
      "start_date": "1948-01-01",
      "end_date": "1953-12-31"
    }
  ],
  "name": "R. Levent"
}