{
  "id": 102221,
  "names": [
    "François Peugeot"
  ],
  "functions": [
    {
      "issuer": {
        "id": 3943,
        "name": "CYCLES PEUGEOT"
      },
      "job": {
        "id": 101,
        "name": "Administrateur Délégué",
        "short_name": "Ad. Dél."
      },
      "start_date": "1940-01-01",
      "end_date": "1940-12-31"
    },
    {
      "issuer": {
        "id": 3935,
        "name": "STE DES AUTOMOBILES ET CYCLES PEUGEOT"
      },
      "job": {
        "id": 219,
        "name": "Administrateur"
      },
      "start_date": "1945-01-01",
      "end_date": "1948-12-31"
    },
    {
      "issuer": {
        "id": 3943,
        "name": "CYCLES PEUGEOT"
      },
      "job": {
        "id": 219,
        "name": "Administrateur"
      },
      "start_date": "1945-01-01",
      "end_date": "1953-12-31"
    },
    {
      "issuer": {
        "id": 4129,
        "name": "PEUGEOT ET Cie"
      },
      "job": {
        "id": 229,
        "name": "Gérant"
      },
      "start_date": "1953-01-01",
      "end_date": "1953-12-31"
    }
  ],
  "name": "François Peugeot"
}