{
  "id": 77726,
  "names": [
    "H. Lecocq"
  ],
  "functions": [
    {
      "issuer": {
        "id": 5248,
        "name": "SOCIÉTÉ FONCIÈRE DU NORD DE LA FRANCE"
      },
      "job": {
        "id": 219,
        "name": "Administrateur"
      },
      "start_date": "1923-01-01",
      "end_date": "1933-12-31"
    }
  ],
  "name": "H. Lecocq"
}