{
  "id": 108516,
  "names": [
    "Maurice Lainé"
  ],
  "functions": [
    {
      "issuer": {
        "id": 4852,
        "name": "ETABLISSEMENTS SOULIER"
      },
      "job": {
        "id": 219,
        "name": "Administrateur"
      },
      "start_date": "1945-01-01",
      "end_date": "1945-12-31"
    }
  ],
  "name": "Maurice Lainé"
}