{
  "id": 93459,
  "names": [
    "marquis de Barrai"
  ],
  "functions": [
    {
      "issuer": {
        "id": 5205,
        "name": "COMPAGNIE FRANCO-COLONIALE DES RIZ (Anciennement Société des Rizeries de la Méditerranée) (Établissements Pellas Frères)"
      },
      "job": {
        "id": 219,
        "name": "Administrateur"
      },
      "start_date": "1933-01-01",
      "end_date": "1933-12-31"
    }
  ],
  "name": "marquis de Barrai"
}