{
  "id": 48884,
  "names": [
    "Léon Emile Francq"
  ],
  "functions": [
    {
      "issuer": {
        "id": 2589,
        "name": "CHEMINS DE FER A VOIE ÉTROITE DE ST-ETIENNE, FIRMINY, RIVE-DE-GIER ET EXTENSIONS"
      },
      "job": {
        "id": 101,
        "name": "Administrateur Délégué",
        "short_name": "Ad. Dél."
      },
      "start_date": "1893-01-01",
      "end_date": "1898-12-31"
    },
    {
      "issuer": {
        "id": 2901,
        "name": "Compagnie française des Voies ferrées économiques"
      },
      "job": {
        "id": 101,
        "name": "Administrateur Délégué",
        "short_name": "Ad. Dél."
      },
      "start_date": "1893-01-01",
      "end_date": "1898-12-31"
    },
    {
      "issuer": {
        "id": 2643,
        "name": "Compagnie des Tramways de Roubaix et de Tourcoing"
      },
      "job": {
        "id": 10635,
        "name": "Délégué Général du conseil d'administration"
      },
      "start_date": "1898-01-01",
      "end_date": "1898-12-31"
    },
    {
      "issuer": {
        "id": 3332,
        "name": "Compagnie Lyonnaise de Tramways"
      },
      "job": {
        "id": 10635,
        "name": "Délégué Général du conseil d'administration"
      },
      "start_date": "1898-01-01",
      "end_date": "1898-12-31"
    }
  ],
  "name": "Léon Emile Francq"
}