{
  "id": 41154,
  "names": [
    "bey Mohamed El Chaouarbi"
  ],
  "functions": [
    {
      "issuer": {
        "id": 1824,
        "name": "Société du Crédit Foncier Egyptien"
      },
      "job": {
        "id": 219,
        "name": "Administrateur"
      },
      "start_date": "1883-01-01",
      "end_date": "1883-12-31"
    }
  ],
  "name": "bey Mohamed El Chaouarbi"
}