{
  "id": 114211,
  "names": [
    "Ricoux"
  ],
  "functions": [
    {
      "issuer": {
        "id": 3766,
        "name": "OMNIUM IMMOBILIER TUNISIEN"
      },
      "job": {
        "id": 10019,
        "name": "Commissaire des comptes"
      },
      "start_date": "1948-01-01",
      "end_date": "1953-12-31"
    }
  ],
  "name": "Ricoux"
}