{
  "id": 51532,
  "names": [
    "Alphonse Marchand"
  ],
  "functions": [
    {
      "issuer": {
        "id": 2258,
        "name": "Société anonyme des Gisements d'or de Saint-Elie (Guyane française)"
      },
      "job": {
        "id": 10019,
        "name": "Commissaire des comptes"
      },
      "start_date": "1908-01-01",
      "end_date": "1908-12-31"
    },
    {
      "issuer": {
        "id": 3013,
        "name": "SOCIÉTÉ ANONYME DU \"PETIT JOURNAL\""
      },
      "job": {
        "id": 219,
        "name": "Administrateur"
      },
      "start_date": "1912-01-01",
      "end_date": "1917-12-31"
    },
    {
      "issuer": {
        "id": 10906,
        "name": "COMPAGNIE FONCIERE DU CHAMP-DE-MARS, DE NEUILLV ET DE CLICHY"
      },
      "job": {
        "id": 102,
        "name": "Président",
        "short_name": "P."
      },
      "start_date": "1933-01-01",
      "end_date": "1933-12-31"
    },
    {
      "issuer": {
        "id": 2294,
        "name": "Société FONCIERE LYONNAISE"
      },
      "job": {
        "id": 101,
        "name": "Administrateur Délégué",
        "short_name": "Ad. Dél."
      },
      "start_date": "1933-01-01",
      "end_date": "1933-12-31"
    },
    {
      "issuer": {
        "id": 3630,
        "name": "CAISSE FONCIERE DE CREDIT POUR L'AMELIORATION DU LOGEMENT DANS L'INDUSTRIE"
      },
      "job": {
        "id": 219,
        "name": "Administrateur"
      },
      "start_date": "1933-01-01",
      "end_date": "1940-12-31"
    },
    {
      "issuer": {
        "id": 3639,
        "name": "REGIE FONCIÈRE DE LA VILLE D'ALGER"
      },
      "job": {
        "id": 219,
        "name": "Administrateur"
      },
      "start_date": "1940-01-01",
      "end_date": "1940-12-31"
    },
    {
      "issuer": {
        "id": 2294,
        "name": "Société FONCIERE LYONNAISE"
      },
      "job": {
        "id": 101,
        "name": "Administrateur Délégué",
        "short_name": "Ad. Dél."
      },
      "start_date": "1940-01-01",
      "end_date": "1940-12-31"
    },
    {
      "issuer": {
        "id": 2568,
        "name": "REGIE FONCIERE DE LA VILLE DE GRENOBLE"
      },
      "job": {
        "id": 102,
        "name": "Président",
        "short_name": "P."
      },
      "start_date": "1940-01-01",
      "end_date": "1940-12-31"
    },
    {
      "issuer": {
        "id": 2737,
        "name": "Société des NOUVEAUX QUARTIERS DE PARIS"
      },
      "job": {
        "id": 101,
        "name": "Administrateur Délégué",
        "short_name": "Ad. Dél."
      },
      "start_date": "1940-01-01",
      "end_date": "1940-12-31"
    },
    {
      "issuer": {
        "id": 2074,
        "name": "SOCIÉTÉ FONCIERE PARISIENNE"
      },
      "job": {
        "id": 102,
        "name": "Président",
        "short_name": "P."
      },
      "start_date": "1940-01-01",
      "end_date": "1948-12-31"
    },
    {
      "issuer": {
        "id": 2294,
        "name": "Société FONCIERE LYONNAISE"
      },
      "job": {
        "id": 141,
        "name": "Directeur Général",
        "short_name": "D.G."
      },
      "start_date": "1945-01-01",
      "end_date": "1948-12-31"
    },
    {
      "issuer": {
        "id": 3630,
        "name": "CAISSE FONCIERE DE CREDIT POUR L'AMELIORATION DU LOGEMENT DANS L'INDUSTRIE"
      },
      "job": {
        "id": 219,
        "name": "Administrateur"
      },
      "start_date": "1945-01-01",
      "end_date": "1948-12-31"
    },
    {
      "issuer": {
        "id": 2737,
        "name": "Société des NOUVEAUX QUARTIERS DE PARIS"
      },
      "job": {
        "id": 141,
        "name": "Directeur Général",
        "short_name": "D.G."
      },
      "start_date": "1945-01-01",
      "end_date": "1953-12-31"
    },
    {
      "issuer": {
        "id": 2294,
        "name": "Société FONCIERE LYONNAISE"
      },
      "job": {
        "id": 141,
        "name": "Directeur Général",
        "short_name": "D.G."
      },
      "start_date": "1953-01-01",
      "end_date": "1953-12-31"
    },
    {
      "issuer": {
        "id": 3630,
        "name": "CAISSE FONCIERE DE CREDIT POUR L'AMELIORATION DU LOGEMENT DANS L'INDUSTRIE"
      },
      "job": {
        "id": 189,
        "name": "Président directeur général",
        "short_name": "P.D.G."
      },
      "start_date": "1953-01-01",
      "end_date": "1953-12-31"
    }
  ],
  "name": "Alphonse Marchand"
}