{
  "id": 88062,
  "names": [
    "général de Poilloüe de Saint-Mars"
  ],
  "functions": [
    {
      "issuer": {
        "id": 10375,
        "name": "CREDIT FONCIER DE L'URUGUAY"
      },
      "job": {
        "id": 102,
        "name": "Président",
        "short_name": "P."
      },
      "start_date": "1933-01-01",
      "end_date": "1933-12-31"
    }
  ],
  "name": "général de Poilloüe de Saint-Mars"
}