{
  "id": 45033,
  "names": [
    "Th. Sutherland"
  ],
  "functions": [
    {
      "issuer": {
        "id": 1251,
        "name": "Compagnie universelle du Canal maritime de Suez"
      },
      "job": {
        "id": 219,
        "name": "Administrateur"
      },
      "start_date": "1889-01-01",
      "end_date": "1898-12-31"
    },
    {
      "issuer": {
        "id": 1251,
        "name": "Compagnie universelle du Canal maritime de Suez"
      },
      "job": {
        "id": 117,
        "name": "Vice-Président",
        "short_name": "V.-Pr."
      },
      "start_date": "1903-01-01",
      "end_date": "1908-12-31"
    },
    {
      "issuer": {
        "id": 1251,
        "name": "Compagnie universelle du Canal maritime de Suez"
      },
      "job": {
        "id": 219,
        "name": "Administrateur"
      },
      "start_date": "1912-01-01",
      "end_date": "1912-12-31"
    },
    {
      "issuer": {
        "id": 1251,
        "name": "Compagnie universelle du Canal maritime de Suez"
      },
      "job": {
        "id": 219,
        "name": "Administrateur"
      },
      "start_date": "1917-01-01",
      "end_date": "1917-12-31"
    }
  ],
  "name": "Th. Sutherland"
}