{
  "id": 83845,
  "names": [
    "G. Ducornet"
  ],
  "functions": [
    {
      "issuer": {
        "id": 5348,
        "name": "STE INDUSTRIELLE DES TEXTILES DE ROUBAIX"
      },
      "job": {
        "id": 219,
        "name": "Administrateur"
      },
      "start_date": "1927-01-01",
      "end_date": "1927-12-31"
    }
  ],
  "name": "G. Ducornet"
}