{
  "id": 113578,
  "names": [
    "R. Courone"
  ],
  "functions": [
    {
      "issuer": {
        "id": 4686,
        "name": "SOCIÉTÉ \"L'OXHYDRIQUE FRANÇAISE\""
      },
      "job": {
        "id": 102,
        "name": "Président",
        "short_name": "P."
      },
      "start_date": "1948-01-01",
      "end_date": "1948-12-31"
    }
  ],
  "name": "R. Courone"
}