{
  "id": 115016,
  "names": [
    "Ph. Cruse (madame)"
  ],
  "functions": [
    {
      "issuer": {
        "id": 11495,
        "name": "SOCIETE DÈS HOTELS D'EVIAN"
      },
      "job": {
        "id": 219,
        "name": "Administrateur"
      },
      "start_date": "1948-01-01",
      "end_date": "1948-12-31"
    }
  ],
  "name": "Ph. Cruse (madame)"
}