{
  "id": 107410,
  "names": [
    "M. Borie"
  ],
  "functions": [
    {
      "issuer": {
        "id": 4209,
        "name": "SOCIETE DES APPAREILS BOIRAULT"
      },
      "job": {
        "id": 219,
        "name": "Administrateur"
      },
      "start_date": "1945-01-01",
      "end_date": "1945-12-31"
    }
  ],
  "name": "M. Borie"
}