{
  "id": 48236,
  "names": [
    "Yankobey"
  ],
  "functions": [
    {
      "issuer": {
        "id": 3069,
        "name": "SOCIÉTÉ D'HÉRACLEE"
      },
      "job": {
        "id": 219,
        "name": "Administrateur"
      },
      "start_date": "1898-01-01",
      "end_date": "1908-12-31"
    }
  ],
  "name": "Yankobey"
}