{
  "id": 121714,
  "names": [
    "J. Dian"
  ],
  "functions": [
    {
      "issuer": {
        "id": 3843,
        "name": "UNION DE BRASSERIES (Grutli-Karcher)"
      },
      "job": {
        "id": 219,
        "name": "Administrateur"
      },
      "start_date": "1953-01-01",
      "end_date": "1953-12-31"
    }
  ],
  "name": "J. Dian"
}