{
  "id": 63936,
  "names": [
    "Pourvich"
  ],
  "functions": [
    {
      "issuer": {
        "id": 3407,
        "name": "CHEMIN DE FER DU NORD-EST DE L'OURAL"
      },
      "job": {
        "id": 219,
        "name": "Administrateur"
      },
      "start_date": "1917-01-01",
      "end_date": "1933-12-31"
    }
  ],
  "name": "Pourvich"
}