{
  "id": 114986,
  "names": [
    "G. Gobin-Daude"
  ],
  "functions": [
    {
      "issuer": {
        "id": 3781,
        "name": "L'ALIMENT ESSENTIEL (Procédés Charles Heudebert)"
      },
      "job": {
        "id": 219,
        "name": "Administrateur"
      },
      "start_date": "1948-01-01",
      "end_date": "1953-12-31"
    }
  ],
  "name": "G. Gobin-Daude"
}