{
  "id": 58913,
  "names": [
    "Michel"
  ],
  "functions": [
    {
      "issuer": {
        "id": 4052,
        "name": "OMNIUM D'ENTREPRISES (Groupement pour travaux publics)"
      },
      "job": {
        "id": 219,
        "name": "Administrateur"
      },
      "start_date": "1927-01-01",
      "end_date": "1927-12-31"
    },
    {
      "issuer": {
        "id": 4365,
        "name": "COMPAGNIE ELECTRO-MECANIQUE"
      },
      "job": {
        "id": 10019,
        "name": "Commissaire des comptes"
      },
      "start_date": "1953-01-01",
      "end_date": "1953-12-31"
    }
  ],
  "name": "Michel"
}