{
  "id": 104029,
  "names": [
    "F. Garcin"
  ],
  "functions": [
    {
      "issuer": {
        "id": 4603,
        "name": "SOCIETE DES CAOUTCHOUCS DE PHUOC HOA"
      },
      "job": {
        "id": 219,
        "name": "Administrateur"
      },
      "start_date": "1940-01-01",
      "end_date": "1945-12-31"
    },
    {
      "issuer": {
        "id": 4603,
        "name": "SOCIETE DES CAOUTCHOUCS DE PHUOC HOA"
      },
      "job": {
        "id": 219,
        "name": "Administrateur"
      },
      "start_date": "1953-01-01",
      "end_date": "1953-12-31"
    }
  ],
  "name": "F. Garcin"
}