{
  "id": 112015,
  "names": [
    "H. Solente"
  ],
  "functions": [
    {
      "issuer": {
        "id": 4563,
        "name": "SOCIETE GENERALE DES HUILES DE PETROLE BP"
      },
      "job": {
        "id": 219,
        "name": "Administrateur"
      },
      "start_date": "1948-01-01",
      "end_date": "1953-12-31"
    }
  ],
  "name": "H. Solente"
}