{
  "id": 90569,
  "names": [
    "Jean Marinescu"
  ],
  "functions": [
    {
      "issuer": {
        "id": 5310,
        "name": "HYDROFINA (Compagnie financière d'exploitation Hydro-Electrique)"
      },
      "job": {
        "id": 219,
        "name": "Administrateur"
      },
      "start_date": "1933-01-01",
      "end_date": "1933-12-31"
    },
    {
      "issuer": {
        "id": 5310,
        "name": "HYDROFINA (Compagnie financière d'exploitation Hydro-Electrique)"
      },
      "job": {
        "id": 219,
        "name": "Administrateur"
      },
      "start_date": "1940-01-01",
      "end_date": "1940-12-31"
    },
    {
      "issuer": {
        "id": 5113,
        "name": "COMPAGNIE FINANCIÈRE BELGE DES PÉTROLES \"PÉTROFINA\""
      },
      "job": {
        "id": 219,
        "name": "Administrateur"
      },
      "start_date": "1940-01-01",
      "end_date": "1945-12-31"
    }
  ],
  "name": "Jean Marinescu"
}