{
  "id": 99765,
  "names": [
    "A. Cochard"
  ],
  "functions": [
    {
      "issuer": {
        "id": 5230,
        "name": "VERRER ES DE CARMAUX"
      },
      "job": {
        "id": 10019,
        "name": "Commissaire des comptes"
      },
      "start_date": "1940-01-01",
      "end_date": "1945-12-31"
    },
    {
      "issuer": {
        "id": 3124,
        "name": "Compagnie des Fonderies et Forges d'Alais"
      },
      "job": {
        "id": 10019,
        "name": "Commissaire des comptes"
      },
      "start_date": "1940-01-01",
      "end_date": "1945-12-31"
    },
    {
      "issuer": {
        "id": 5314,
        "name": "SOCIÉTÉ D'ÉTUDES ET D'EXPLOITATIONS MINIÈRES DE L'INDOCHINE"
      },
      "job": {
        "id": 10019,
        "name": "Commissaire des comptes"
      },
      "start_date": "1940-01-01",
      "end_date": "1945-12-31"
    }
  ],
  "name": "A. Cochard"
}