{
  "id": 98072,
  "names": [
    "d’Orcasberro"
  ],
  "functions": [
    {
      "issuer": {
        "id": 3170,
        "name": "SOCIETE ANONYME DE REDEVANCES MINIÈRES ET DE PARTICIPATIONS"
      },
      "job": {
        "id": 219,
        "name": "Administrateur"
      },
      "start_date": "1940-01-01",
      "end_date": "1940-12-31"
    }
  ],
  "name": "d’Orcasberro"
}