{
  "id": 91115,
  "names": [
    "Jonkheer Hugo Loudon"
  ],
  "functions": [
    {
      "issuer": {
        "id": 3448,
        "name": "ROYAL DUTCH Société Royale Néerlandaise pour l'Exploitation des Gisements de Pétrole"
      },
      "job": {
        "id": 219,
        "name": "Administrateur"
      },
      "start_date": "1912-01-01",
      "end_date": "1917-12-31"
    },
    {
      "issuer": {
        "id": 3447,
        "name": "ASTRA ROMANA"
      },
      "job": {
        "id": 219,
        "name": "Administrateur"
      },
      "start_date": "1912-01-01",
      "end_date": "1923-12-31"
    },
    {
      "issuer": {
        "id": 4996,
        "name": "THE MEXICAN EAGLE OIL COMPANY LIMITED (Compania Mexicana de Petroleo \"El Aguila\" S. A.)"
      },
      "job": {
        "id": 219,
        "name": "Administrateur"
      },
      "start_date": "1923-01-01",
      "end_date": "1923-12-31"
    },
    {
      "issuer": {
        "id": 3448,
        "name": "ROYAL DUTCH Société Royale Néerlandaise pour l'Exploitation des Gisements de Pétrole"
      },
      "job": {
        "id": 219,
        "name": "Administrateur"
      },
      "start_date": "1923-01-01",
      "end_date": "1927-12-31"
    },
    {
      "issuer": {
        "id": 4996,
        "name": "THE MEXICAN EAGLE OIL COMPANY LIMITED (Compania Mexicana de Petroleo \"El Aguila\" S. A.)"
      },
      "job": {
        "id": 219,
        "name": "Administrateur"
      },
      "start_date": "1927-01-01",
      "end_date": "1927-12-31"
    },
    {
      "issuer": {
        "id": 4913,
        "name": "CANADIAN EAGLE OIL COMPANY LTD"
      },
      "job": {
        "id": 219,
        "name": "Administrateur"
      },
      "start_date": "1933-01-01",
      "end_date": "1933-12-31"
    },
    {
      "issuer": {
        "id": 3448,
        "name": "ROYAL DUTCH Société Royale Néerlandaise pour l'Exploitation des Gisements de Pétrole"
      },
      "job": {
        "id": 102,
        "name": "Président",
        "short_name": "P."
      },
      "start_date": "1933-01-01",
      "end_date": "1933-12-31"
    },
    {
      "issuer": {
        "id": 4996,
        "name": "THE MEXICAN EAGLE OIL COMPANY LIMITED (Compania Mexicana de Petroleo \"El Aguila\" S. A.)"
      },
      "job": {
        "id": 219,
        "name": "Administrateur"
      },
      "start_date": "1933-01-01",
      "end_date": "1933-12-31"
    },
    {
      "issuer": {
        "id": 3448,
        "name": "ROYAL DUTCH Société Royale Néerlandaise pour l'Exploitation des Gisements de Pétrole"
      },
      "job": {
        "id": 153,
        "name": "President-Commissaire"
      },
      "start_date": "1940-01-01",
      "end_date": "1940-12-31"
    }
  ],
  "name": "Jonkheer Hugo Loudon"
}