{
  "id": 48989,
  "names": [
    "Alves de Sa"
  ],
  "functions": [
    {
      "issuer": {
        "id": 1224,
        "name": "Compagnie royale des Chemins de fer Portugais"
      },
      "job": {
        "id": 117,
        "name": "Vice-Président",
        "short_name": "V.-Pr."
      },
      "start_date": "1898-01-01",
      "end_date": "1898-12-31"
    },
    {
      "issuer": {
        "id": 1224,
        "name": "Compagnie royale des Chemins de fer Portugais"
      },
      "job": {
        "id": 10634,
        "name": "Membre du comité de Paris"
      },
      "start_date": "1898-01-01",
      "end_date": "1898-12-31"
    },
    {
      "issuer": {
        "id": 1224,
        "name": "Compagnie royale des Chemins de fer Portugais"
      },
      "job": {
        "id": 10634,
        "name": "Membre du comité de Paris"
      },
      "start_date": "1903-01-01",
      "end_date": "1903-12-31"
    },
    {
      "issuer": {
        "id": 1224,
        "name": "Compagnie royale des Chemins de fer Portugais"
      },
      "job": {
        "id": 117,
        "name": "Vice-Président",
        "short_name": "V.-Pr."
      },
      "start_date": "1903-01-01",
      "end_date": "1903-12-31"
    }
  ],
  "name": "Alves de Sa"
}