{
  "id": 62801,
  "names": [
    "F. Maitre"
  ],
  "functions": [
    {
      "issuer": {
        "id": 10125,
        "name": "MAISON ALFRED MAME ET FILS"
      },
      "job": {
        "id": 219,
        "name": "Administrateur"
      },
      "start_date": "1917-01-01",
      "end_date": "1927-12-31"
    },
    {
      "issuer": {
        "id": 4897,
        "name": "USINES HYDRO-ELECTRIQUES DE CREUSE ET VIENNE"
      },
      "job": {
        "id": 219,
        "name": "Administrateur"
      },
      "start_date": "1933-01-01",
      "end_date": "1933-12-31"
    }
  ],
  "name": "F. Maitre"
}