{
  "id": 81882,
  "names": [
    "Marcel Postel-Vinay"
  ],
  "functions": [
    {
      "issuer": {
        "id": 5128,
        "name": "SOCIÉTÉ DE CONSTRUCTION ET DE LOCATION D'APPAREILS DE LEVAGE ET DE MATÉRIEL DE TRAVAUX PUBLICS (Anciens Etablissements Vve BERNIER et Cie)"
      },
      "job": {
        "id": 219,
        "name": "Administrateur"
      },
      "start_date": "1923-01-01",
      "end_date": "1923-12-31"
    },
    {
      "issuer": {
        "id": 5128,
        "name": "SOCIÉTÉ DE CONSTRUCTION ET DE LOCATION D'APPAREILS DE LEVAGE ET DE MATÉRIEL DE TRAVAUX PUBLICS (Anciens Etablissements Vve BERNIER et Cie)"
      },
      "job": {
        "id": 219,
        "name": "Administrateur"
      },
      "start_date": "1927-01-01",
      "end_date": "1927-12-31"
    },
    {
      "issuer": {
        "id": 5128,
        "name": "SOCIÉTÉ DE CONSTRUCTION ET DE LOCATION D'APPAREILS DE LEVAGE ET DE MATÉRIEL DE TRAVAUX PUBLICS (Anciens Etablissements Vve BERNIER et Cie)"
      },
      "job": {
        "id": 101,
        "name": "Administrateur Délégué",
        "short_name": "Ad. Dél."
      },
      "start_date": "1933-01-01",
      "end_date": "1933-12-31"
    },
    {
      "issuer": {
        "id": 2714,
        "name": "CIE GLE DE TRAVAUX D'ÉCLAIRAGE ET DE FORCE (Anciens Etablissements Clemançon)"
      },
      "job": {
        "id": 219,
        "name": "Administrateur"
      },
      "start_date": "1940-01-01",
      "end_date": "1940-12-31"
    },
    {
      "issuer": {
        "id": 5128,
        "name": "SOCIÉTÉ DE CONSTRUCTION ET DE LOCATION D'APPAREILS DE LEVAGE ET DE MATÉRIEL DE TRAVAUX PUBLICS (Anciens Etablissements Vve BERNIER et Cie)"
      },
      "job": {
        "id": 101,
        "name": "Administrateur Délégué",
        "short_name": "Ad. Dél."
      },
      "start_date": "1940-01-01",
      "end_date": "1940-12-31"
    },
    {
      "issuer": {
        "id": 101,
        "name": "L'ABEILLE COMPAGNIE ANONYME D'ASSURANCES A PRIMES FIXE CONTRE LES RISQUES D'ACCIDENTS"
      },
      "job": {
        "id": 104,
        "name": "Secrétaire"
      },
      "start_date": "1940-01-01",
      "end_date": "1940-12-31"
    },
    {
      "issuer": {
        "id": 1146,
        "name": "L'ABEILLE COMPAGNIE D'ASSURANCES A PRIMES FIXES CONTRE L'INCENDIE"
      },
      "job": {
        "id": 104,
        "name": "Secrétaire"
      },
      "start_date": "1940-01-01",
      "end_date": "1940-12-31"
    },
    {
      "issuer": {
        "id": 10205,
        "name": "L'ABEILLE CIE D'ASSURANCES A PRIMES FIXES CONTRE LA GRÊLE"
      },
      "job": {
        "id": 219,
        "name": "Administrateur"
      },
      "start_date": "1940-01-01",
      "end_date": "1945-12-31"
    },
    {
      "issuer": {
        "id": 2101,
        "name": "L'ABEILLE COMPAGNIE ANONYME D'ASSURANCES SUR LA VIE"
      },
      "job": {
        "id": 104,
        "name": "Secrétaire"
      },
      "start_date": "1940-01-01",
      "end_date": "1945-12-31"
    },
    {
      "issuer": {
        "id": 1146,
        "name": "L'ABEILLE COMPAGNIE D'ASSURANCES A PRIMES FIXES CONTRE L'INCENDIE"
      },
      "job": {
        "id": 219,
        "name": "Administrateur"
      },
      "start_date": "1945-01-01",
      "end_date": "1945-12-31"
    },
    {
      "issuer": {
        "id": 5128,
        "name": "SOCIÉTÉ DE CONSTRUCTION ET DE LOCATION D'APPAREILS DE LEVAGE ET DE MATÉRIEL DE TRAVAUX PUBLICS (Anciens Etablissements Vve BERNIER et Cie)"
      },
      "job": {
        "id": 102,
        "name": "Président",
        "short_name": "P."
      },
      "start_date": "1945-01-01",
      "end_date": "1945-12-31"
    },
    {
      "issuer": {
        "id": 101,
        "name": "L'ABEILLE COMPAGNIE ANONYME D'ASSURANCES A PRIMES FIXE CONTRE LES RISQUES D'ACCIDENTS"
      },
      "job": {
        "id": 219,
        "name": "Administrateur"
      },
      "start_date": "1945-01-01",
      "end_date": "1945-12-31"
    },
    {
      "issuer": {
        "id": 2714,
        "name": "CIE GLE DE TRAVAUX D'ÉCLAIRAGE ET DE FORCE (Anciens Etablissements Clemançon)"
      },
      "job": {
        "id": 219,
        "name": "Administrateur"
      },
      "start_date": "1945-01-01",
      "end_date": "1948-12-31"
    },
    {
      "issuer": {
        "id": 4728,
        "name": "COMPAGNIE DES EAUX ET DE L'OZONE (Procédés M.P. Otto)"
      },
      "job": {
        "id": 219,
        "name": "Administrateur"
      },
      "start_date": "1945-01-01",
      "end_date": "1948-12-31"
    },
    {
      "issuer": {
        "id": 5128,
        "name": "SOCIÉTÉ DE CONSTRUCTION ET DE LOCATION D'APPAREILS DE LEVAGE ET DE MATÉRIEL DE TRAVAUX PUBLICS (Anciens Etablissements Vve BERNIER et Cie)"
      },
      "job": {
        "id": 224,
        "name": "Président d'honneur"
      },
      "start_date": "1948-01-01",
      "end_date": "1948-12-31"
    }
  ],
  "name": "Marcel Postel-Vinay"
}