{
  "id": 42133,
  "names": [
    "Gh. Porgès"
  ],
  "functions": [
    {
      "issuer": {
        "id": 1751,
        "name": "Banque centrale du commerce"
      },
      "job": {
        "id": 102,
        "name": "Président",
        "short_name": "P."
      },
      "start_date": "1883-01-01",
      "end_date": "1883-12-31"
    }
  ],
  "name": "Gh. Porgès"
}