{
  "id": 104123,
  "names": [
    "J. Lartigue"
  ],
  "functions": [
    {
      "issuer": {
        "id": 4595,
        "name": "SOCIETE DES PLANTATIONS D'HÉVÉAS DE XUAN LOC"
      },
      "job": {
        "id": 103,
        "name": "Commissaire"
      },
      "start_date": "1940-01-01",
      "end_date": "1945-12-31"
    },
    {
      "issuer": {
        "id": 4332,
        "name": "COMPAGNIE OPTORG"
      },
      "job": {
        "id": 10019,
        "name": "Commissaire des comptes"
      },
      "start_date": "1948-01-01",
      "end_date": "1953-12-31"
    },
    {
      "issuer": {
        "id": 5450,
        "name": "CREDIT HYPOTHECAIRE DE L'INDOCHINE (Anciennement Crédit Foncier Agricole de l'Indochine)"
      },
      "job": {
        "id": 10019,
        "name": "Commissaire des comptes"
      },
      "start_date": "1953-01-01",
      "end_date": "1953-12-31"
    }
  ],
  "name": "J. Lartigue"
}