{
  "id": 92445,
  "names": [
    "Paul Dumas"
  ],
  "functions": [
    {
      "issuer": {
        "id": 4282,
        "name": "PAUL DUMAS"
      },
      "job": {
        "id": 102,
        "name": "Président",
        "short_name": "P."
      },
      "start_date": "1933-01-01",
      "end_date": "1933-12-31"
    }
  ],
  "name": "Paul Dumas"
}