{
  "id": 58527,
  "names": [
    "Camille Blanc"
  ],
  "functions": [
    {
      "issuer": {
        "id": 3018,
        "name": "SOCIETE DES BAINS DE MER ET DU CERCLE DES ETRANGERS A MONACO"
      },
      "job": {
        "id": 219,
        "name": "Administrateur"
      },
      "start_date": "1917-01-01",
      "end_date": "1923-12-31"
    }
  ],
  "name": "Camille Blanc"
}