{
  "id": 45513,
  "names": [
    "Barbe"
  ],
  "functions": [
    {
      "issuer": {
        "id": 3926,
        "name": "ETABLISSEMENTS ALPHONSE BINET"
      },
      "job": {
        "id": 219,
        "name": "Administrateur"
      },
      "start_date": "1945-01-01",
      "end_date": "1948-12-31"
    }
  ],
  "name": "Barbe"
}