{
  "id": 90981,
  "names": [
    "H. Guêt"
  ],
  "functions": [
    {
      "issuer": {
        "id": 2413,
        "name": "MINES D'ANTHRACITE DE LAVAL (En liquidation)"
      },
      "job": {
        "id": 219,
        "name": "Administrateur"
      },
      "start_date": "1933-01-01",
      "end_date": "1933-12-31"
    }
  ],
  "name": "H. Guêt"
}