{
  "id": 79079,
  "names": [
    "J. de Savignac"
  ],
  "functions": [
    {
      "issuer": {
        "id": 4395,
        "name": "GRANOUX"
      },
      "job": {
        "id": 10254,
        "name": "Conseiller de surveillance"
      },
      "start_date": "1927-01-01",
      "end_date": "1927-12-31"
    },
    {
      "issuer": {
        "id": 4395,
        "name": "GRANOUX"
      },
      "job": {
        "id": 176,
        "name": "Membre du conseil de surveillance",
        "short_name": "M.C.S."
      },
      "start_date": "1933-01-01",
      "end_date": "1933-12-31"
    },
    {
      "issuer": {
        "id": 4395,
        "name": "GRANOUX"
      },
      "job": {
        "id": 102,
        "name": "Président",
        "short_name": "P."
      },
      "start_date": "1940-01-01",
      "end_date": "1945-12-31"
    },
    {
      "issuer": {
        "id": 4395,
        "name": "GRANOUX"
      },
      "job": {
        "id": 10021,
        "name": "Président du conseil de surveillance"
      },
      "start_date": "1948-01-01",
      "end_date": "1948-12-31"
    },
    {
      "issuer": {
        "id": 4395,
        "name": "GRANOUX"
      },
      "job": {
        "id": 219,
        "name": "Administrateur"
      },
      "start_date": "1953-01-01",
      "end_date": "1953-12-31"
    }
  ],
  "name": "J. de Savignac"
}