{
  "id": 120443,
  "names": [
    "J. de Beaurepaire"
  ],
  "functions": [
    {
      "issuer": {
        "id": 4868,
        "name": "STOP-FIRE"
      },
      "job": {
        "id": 219,
        "name": "Administrateur"
      },
      "start_date": "1953-01-01",
      "end_date": "1953-12-31"
    }
  ],
  "name": "J. de Beaurepaire"
}