{
  "id": 93406,
  "names": [
    "André Pernod"
  ],
  "functions": [
    {
      "issuer": {
        "id": 3841,
        "name": "ETABLISSEMENTS PERNOD (Maisons Pernod fils, Hémard et Pernod père et fils réunies)"
      },
      "job": {
        "id": 219,
        "name": "Administrateur"
      },
      "start_date": "1933-01-01",
      "end_date": "1933-12-31"
    },
    {
      "issuer": {
        "id": 3841,
        "name": "ETABLISSEMENTS PERNOD (Maisons Pernod fils, Hémard et Pernod père et fils réunies)"
      },
      "job": {
        "id": 219,
        "name": "Administrateur"
      },
      "start_date": "1940-01-01",
      "end_date": "1953-12-31"
    },
    {
      "issuer": {
        "id": 2379,
        "name": "Comptoir National d'Escompte de Paris"
      },
      "job": {
        "id": 219,
        "name": "Administrateur"
      },
      "start_date": "1948-01-01",
      "end_date": "1948-12-31"
    }
  ],
  "name": "André Pernod"
}