{
  "id": 58255,
  "names": [
    "L. Sudre"
  ],
  "functions": [
    {
      "issuer": {
        "id": 2991,
        "name": "Société anonyme des Ciments de laitier de Donjeux"
      },
      "job": {
        "id": 219,
        "name": "Administrateur"
      },
      "start_date": "1912-01-01",
      "end_date": "1912-12-31"
    }
  ],
  "name": "L. Sudre"
}