{
  "id": 47822,
  "names": [
    "F. Londe"
  ],
  "functions": [
    {
      "issuer": {
        "id": 783,
        "name": "LA CAPITALISATION SOCIÉTÉ ANONYME POUR FAVORISER L'ÉCONOMIE ET L'ÉPARGNE PAR LA CONSTITUTION DE CAPITAUX"
      },
      "job": {
        "id": 219,
        "name": "Administrateur"
      },
      "start_date": "1898-01-01",
      "end_date": "1927-12-31"
    }
  ],
  "name": "F. Londe"
}