{
  "id": 42825,
  "names": [
    "L. du Marais"
  ],
  "functions": [
    {
      "issuer": {
        "id": 615,
        "name": "Sté DES HOUILLÈRES DE MONTRAMBERT ET DE LA BERAUDIÈRE"
      },
      "job": {
        "id": 219,
        "name": "Administrateur"
      },
      "start_date": "1880-01-01",
      "end_date": "1898-12-31"
    }
  ],
  "name": "L. du Marais"
}