{
  "id": 118753,
  "names": [
    "Tubes de Valenciennes et Denain"
  ],
  "functions": [
    {
      "issuer": {
        "id": 5434,
        "name": "TUBES DE VINCEY"
      },
      "job": {
        "id": 219,
        "name": "Administrateur"
      },
      "start_date": "1953-01-01",
      "end_date": "1953-12-31"
    },
    {
      "issuer": {
        "id": 3626,
        "name": "Société INDUSTRIELLE ET FINANCIERE DES TUBES"
      },
      "job": {
        "id": 219,
        "name": "Administrateur"
      },
      "start_date": "1953-01-01",
      "end_date": "1953-12-31"
    }
  ],
  "name": "Tubes de Valenciennes et Denain"
}