{
  "id": 108501,
  "names": [
    "A. de Geouffre de la Pradelle"
  ],
  "functions": [
    {
      "issuer": {
        "id": 2902,
        "name": "COMPAGNIE GENERALE DES INDUSTRIES TEXTILES (Sté Anonyme des Etablissements Allart, Rousseau et Cie)"
      },
      "job": {
        "id": 219,
        "name": "Administrateur"
      },
      "start_date": "1945-01-01",
      "end_date": "1953-12-31"
    }
  ],
  "name": "A. de Geouffre de la Pradelle"
}