{
  "id": 55686,
  "names": [
    "G. de Lapanouse"
  ],
  "functions": [
    {
      "issuer": {
        "id": 680,
        "name": "Société des Mines de Carmaux"
      },
      "job": {
        "id": 219,
        "name": "Administrateur"
      },
      "start_date": "1912-01-01",
      "end_date": "1923-12-31"
    }
  ],
  "name": "G. de Lapanouse"
}