{
  "id": 120949,
  "names": [
    "G. Lebret"
  ],
  "functions": [
    {
      "issuer": {
        "id": 4789,
        "name": "ETABLISSEMENTS LAEDERICH (Société Cotonnière des Vosges)"
      },
      "job": {
        "id": 219,
        "name": "Administrateur"
      },
      "start_date": "1953-01-01",
      "end_date": "1953-12-31"
    }
  ],
  "name": "G. Lebret"
}