{
  "id": 79808,
  "names": [
    "L. Defays"
  ],
  "functions": [
    {
      "issuer": {
        "id": 4471,
        "name": "TUBES DE BESSEGES"
      },
      "job": {
        "id": 219,
        "name": "Administrateur"
      },
      "start_date": "1927-01-01",
      "end_date": "1933-12-31"
    },
    {
      "issuer": {
        "id": 4422,
        "name": "SOCIETE ESCAUT ET MEUSE"
      },
      "job": {
        "id": 125,
        "name": "Administrateur Directeur",
        "short_name": "Ad. Dir."
      },
      "start_date": "1940-01-01",
      "end_date": "1945-12-31"
    },
    {
      "issuer": {
        "id": 4471,
        "name": "TUBES DE BESSEGES"
      },
      "job": {
        "id": 219,
        "name": "Administrateur"
      },
      "start_date": "1940-01-01",
      "end_date": "1948-12-31"
    },
    {
      "issuer": {
        "id": 2766,
        "name": "SOCIETÉ MÉTALLURGIQUE DE SENELLE-MAUBEUGE"
      },
      "job": {
        "id": 219,
        "name": "Administrateur"
      },
      "start_date": "1945-01-01",
      "end_date": "1953-12-31"
    },
    {
      "issuer": {
        "id": 4422,
        "name": "SOCIETE ESCAUT ET MEUSE"
      },
      "job": {
        "id": 101,
        "name": "Administrateur Délégué",
        "short_name": "Ad. Dél."
      },
      "start_date": "1948-01-01",
      "end_date": "1948-12-31"
    },
    {
      "issuer": {
        "id": 4422,
        "name": "SOCIETE ESCAUT ET MEUSE"
      },
      "job": {
        "id": 117,
        "name": "Vice-Président",
        "short_name": "V.-Pr."
      },
      "start_date": "1953-01-01",
      "end_date": "1953-12-31"
    }
  ],
  "name": "L. Defays"
}