{
  "id": 57898,
  "names": [
    "Georges Marie Léon Antoine Marrel"
  ],
  "functions": [
    {
      "issuer": {
        "id": 3150,
        "name": "USINES FRANCO-RUSSES (Anciens Établissements Baird, à Pétrograd)"
      },
      "job": {
        "id": 219,
        "name": "Administrateur"
      },
      "start_date": "1912-01-01",
      "end_date": "1927-12-31"
    },
    {
      "issuer": {
        "id": 2537,
        "name": "FORCES MOTRICES BONNE ET DRAC"
      },
      "job": {
        "id": 219,
        "name": "Administrateur"
      },
      "start_date": "1940-01-01",
      "end_date": "1940-12-31"
    },
    {
      "issuer": {
        "id": 1683,
        "name": "COMPAGNIE DES HAUTS-FOURNEAUX DE CHASSE (ISERE)"
      },
      "job": {
        "id": 219,
        "name": "Administrateur"
      },
      "start_date": "1940-01-01",
      "end_date": "1953-12-31"
    }
  ],
  "name": "Georges Marie Léon Antoine Marrel"
}