{
  "id": 51545,
  "names": [
    "C. Ray"
  ],
  "functions": [
    {
      "issuer": {
        "id": 153,
        "name": "La Nationale, Compagnie anonyme d'assurances sur la vie"
      },
      "job": {
        "id": 107,
        "name": "Directeur",
        "short_name": "Dir."
      },
      "start_date": "1908-01-01",
      "end_date": "1908-12-31"
    }
  ],
  "name": "C. Ray"
}