{
  "id": 121374,
  "names": [
    "E. Raoul-Duval et Cie (S. A)"
  ],
  "functions": [
    {
      "issuer": {
        "id": 3879,
        "name": "SOCIETE FRANÇAISE DES NOUVELLES HEBRIDES"
      },
      "job": {
        "id": 219,
        "name": "Administrateur"
      },
      "start_date": "1933-01-01",
      "end_date": "1933-12-31"
    },
    {
      "issuer": {
        "id": 3864,
        "name": "SOCIÉTÉ INDUSTRIELLE ET AGRICOLE DE LA POINTE-A-PITRE (Etablissements Darboussier)"
      },
      "job": {
        "id": 219,
        "name": "Administrateur"
      },
      "start_date": "1933-01-01",
      "end_date": "1933-12-31"
    },
    {
      "issuer": {
        "id": 3864,
        "name": "SOCIÉTÉ INDUSTRIELLE ET AGRICOLE DE LA POINTE-A-PITRE (Etablissements Darboussier)"
      },
      "job": {
        "id": 219,
        "name": "Administrateur"
      },
      "start_date": "1940-01-01",
      "end_date": "1948-12-31"
    },
    {
      "issuer": {
        "id": 3864,
        "name": "SOCIÉTÉ INDUSTRIELLE ET AGRICOLE DE LA POINTE-A-PITRE (Etablissements Darboussier)"
      },
      "job": {
        "id": 219,
        "name": "Administrateur"
      },
      "start_date": "1953-01-01",
      "end_date": "1953-12-31"
    }
  ],
  "name": "E. Raoul-Duval et Cie (S. A)"
}