{
  "id": 50825,
  "names": [
    "Basinski"
  ],
  "functions": [
    {
      "issuer": {
        "id": 2891,
        "name": "Compagnie des Chemins de fer du Sud de l'Espagne"
      },
      "job": {
        "id": 219,
        "name": "Administrateur"
      },
      "start_date": "1903-01-01",
      "end_date": "1903-12-31"
    },
    {
      "issuer": {
        "id": 2891,
        "name": "Compagnie des Chemins de fer du Sud de l'Espagne"
      },
      "job": {
        "id": 10634,
        "name": "Membre du comité de Paris"
      },
      "start_date": "1903-01-01",
      "end_date": "1912-12-31"
    }
  ],
  "name": "Basinski"
}