{
  "id": 95851,
  "names": [
    "Raoul Plouin"
  ],
  "functions": [
    {
      "issuer": {
        "id": 2847,
        "name": "COMPAGNIE DU BOLEO"
      },
      "job": {
        "id": 107,
        "name": "Directeur",
        "short_name": "Dir."
      },
      "start_date": "1924-01-01",
      "end_date": "1924-12-31"
    },
    {
      "issuer": {
        "id": 2847,
        "name": "COMPAGNIE DU BOLEO"
      },
      "job": {
        "id": 141,
        "name": "Directeur Général",
        "short_name": "D.G."
      },
      "start_date": "1925-01-01",
      "end_date": "1940-12-31"
    },
    {
      "issuer": {
        "id": 2831,
        "name": "COMPAGNIE MINIERE \"LAS DOS ESTRELLAS\""
      },
      "job": {
        "id": 133,
        "name": "Secrétaire général"
      },
      "start_date": "1928-01-01",
      "end_date": "1928-12-31"
    },
    {
      "issuer": {
        "id": 5045,
        "name": "ESTRELLAS MINING AND FINANCE CORPORATION LIMITED"
      },
      "job": {
        "id": 219,
        "name": "Administrateur"
      },
      "start_date": "1940-01-01",
      "end_date": "1940-12-31"
    },
    {
      "issuer": {
        "id": 5358,
        "name": "ÉTABLISSEMENTS COTELLE ET FOUCHER (Javel \" La Croix \")"
      },
      "job": {
        "id": 219,
        "name": "Administrateur"
      },
      "start_date": "1940-01-01",
      "end_date": "1940-12-31"
    },
    {
      "issuer": {
        "id": 2831,
        "name": "COMPAGNIE MINIERE \"LAS DOS ESTRELLAS\""
      },
      "job": {
        "id": 10634,
        "name": "Membre du comité de Paris"
      },
      "start_date": "1940-01-01",
      "end_date": "1948-12-31"
    },
    {
      "issuer": {
        "id": 4525,
        "name": "Cie MINIERE DE L'OUBANGHI ORIENTAL (C. M. O. O.)"
      },
      "job": {
        "id": 219,
        "name": "Administrateur"
      },
      "start_date": "1940-01-01",
      "end_date": "1948-12-31"
    }
  ],
  "name": "Raoul Plouin"
}