{
  "id": 47664,
  "names": [
    "baron de Niebauer"
  ],
  "functions": [
    {
      "issuer": {
        "id": 1257,
        "name": "Société Générale Impériale Royale Privilégiée du Crédit foncier d'Autriche"
      },
      "job": {
        "id": 161,
        "name": "Administrateur President"
      },
      "start_date": "1898-01-01",
      "end_date": "1898-12-31"
    },
    {
      "issuer": {
        "id": 1257,
        "name": "Société Générale Impériale Royale Privilégiée du Crédit foncier d'Autriche"
      },
      "job": {
        "id": 10624,
        "name": "Administrateur à Vienne"
      },
      "start_date": "1903-01-01",
      "end_date": "1903-12-31"
    }
  ],
  "name": "baron de Niebauer"
}