{
  "id": 86012,
  "names": [
    "G. Bassinet"
  ],
  "functions": [
    {
      "issuer": {
        "id": 10915,
        "name": "IMMOBILIERE DE BANYULS-SUR-MER ET DES PYRÉNÉES"
      },
      "job": {
        "id": 219,
        "name": "Administrateur"
      },
      "start_date": "1933-01-01",
      "end_date": "1933-12-31"
    },
    {
      "issuer": {
        "id": 4246,
        "name": "EAUX MINERALES DE CHARBONNIERES-LES-BAINS"
      },
      "job": {
        "id": 219,
        "name": "Administrateur"
      },
      "start_date": "1933-01-01",
      "end_date": "1933-12-31"
    },
    {
      "issuer": {
        "id": 4246,
        "name": "EAUX MINERALES DE CHARBONNIERES-LES-BAINS"
      },
      "job": {
        "id": 102,
        "name": "Président",
        "short_name": "P."
      },
      "start_date": "1953-01-01",
      "end_date": "1953-12-31"
    }
  ],
  "name": "G. Bassinet"
}