{
  "id": 51605,
  "names": [
    "E. Leyris"
  ],
  "functions": [
    {
      "issuer": {
        "id": 2104,
        "name": "La Foncière, compagnie anonyme d'assurances sur la vie à primes fixes"
      },
      "job": {
        "id": 107,
        "name": "Directeur",
        "short_name": "Dir."
      },
      "start_date": "1908-01-01",
      "end_date": "1908-12-31"
    }
  ],
  "name": "E. Leyris"
}