{
  "id": 115676,
  "names": [
    "pacha Ahmed Saddik"
  ],
  "functions": [
    {
      "issuer": {
        "id": 4962,
        "name": "THE CAIRO ELECTRIC RAILWAYS AND HELIOPOLIS OASES C°"
      },
      "job": {
        "id": 219,
        "name": "Administrateur"
      },
      "start_date": "1948-01-01",
      "end_date": "1948-12-31"
    },
    {
      "issuer": {
        "id": 4962,
        "name": "THE CAIRO ELECTRIC RAILWAYS AND HELIOPOLIS OASES C°"
      },
      "job": {
        "id": 219,
        "name": "Administrateur"
      },
      "start_date": "1953-01-01",
      "end_date": "1953-12-31"
    }
  ],
  "name": "pacha Ahmed Saddik"
}