{
  "id": 77982,
  "names": [
    "Philippe Delmas"
  ],
  "functions": [
    {
      "issuer": {
        "id": 3044,
        "name": "BANQUE DE L'AFRIQUE OCCIDENTALE"
      },
      "job": {
        "id": 219,
        "name": "Administrateur"
      },
      "start_date": "1923-01-01",
      "end_date": "1927-12-31"
    },
    {
      "issuer": {
        "id": 10722,
        "name": "SOCIÉTÉ DU COTON AFRICAIN"
      },
      "job": {
        "id": 219,
        "name": "Administrateur"
      },
      "start_date": "1927-01-01",
      "end_date": "1927-12-31"
    }
  ],
  "name": "Philippe Delmas"
}