{
  "id": 106178,
  "names": [
    "J. Léon-Dufour"
  ],
  "functions": [
    {
      "issuer": {
        "id": 436,
        "name": "LE PHENIX COMPAGNIE FRANÇAISE D'ASSURANCES SUR LA VIE"
      },
      "job": {
        "id": 10258,
        "name": "Suppléant"
      },
      "start_date": "1945-01-01",
      "end_date": "1945-12-31"
    }
  ],
  "name": "J. Léon-Dufour"
}