{
  "id": 98079,
  "names": [
    "Pierre Vogt"
  ],
  "functions": [
    {
      "issuer": {
        "id": 11427,
        "name": "SOCIÉTÉ DES MINES D'AMBATOBE"
      },
      "job": {
        "id": 101,
        "name": "Administrateur Délégué",
        "short_name": "Ad. Dél."
      },
      "start_date": "1940-01-01",
      "end_date": "1940-12-31"
    },
    {
      "issuer": {
        "id": 4064,
        "name": "MINES DE KALI SAINTE-THERESE"
      },
      "job": {
        "id": 219,
        "name": "Administrateur"
      },
      "start_date": "1948-01-01",
      "end_date": "1953-12-31"
    }
  ],
  "name": "Pierre Vogt"
}