{
  "id": 42835,
  "names": [
    "Sevelinge"
  ],
  "functions": [
    {
      "issuer": {
        "id": 614,
        "name": "Société anonyme des Houillères de Rive-de-Gier"
      },
      "job": {
        "id": 219,
        "name": "Administrateur"
      },
      "start_date": "1880-01-01",
      "end_date": "1883-12-31"
    }
  ],
  "name": "Sevelinge"
}