{
  "id": 55113,
  "names": [
    "A. de Eger"
  ],
  "functions": [
    {
      "issuer": {
        "id": 979,
        "name": "Compagnie des Chemins de fer du Sud de l'Autriche"
      },
      "job": {
        "id": 10624,
        "name": "Administrateur à Vienne"
      },
      "start_date": "1912-01-01",
      "end_date": "1912-12-31"
    },
    {
      "issuer": {
        "id": 979,
        "name": "Compagnie des Chemins de fer du Sud de l'Autriche"
      },
      "job": {
        "id": 14020,
        "name": "Membre du conseil de Vienne"
      },
      "start_date": "1923-01-01",
      "end_date": "1923-12-31"
    },
    {
      "issuer": {
        "id": 979,
        "name": "Compagnie des Chemins de fer du Sud de l'Autriche"
      },
      "job": {
        "id": 219,
        "name": "Administrateur"
      },
      "start_date": "1927-01-01",
      "end_date": "1927-12-31"
    },
    {
      "issuer": {
        "id": 979,
        "name": "Compagnie des Chemins de fer du Sud de l'Autriche"
      },
      "job": {
        "id": 219,
        "name": "Administrateur"
      },
      "start_date": "1933-01-01",
      "end_date": "1933-12-31"
    }
  ],
  "name": "A. de Eger"
}