{
  "id": 58092,
  "names": [
    "J.-L. Madieu"
  ],
  "functions": [
    {
      "issuer": {
        "id": 10038,
        "name": "ÉTABLISSEMENTS P. BRETON ET CIE"
      },
      "job": {
        "id": 219,
        "name": "Administrateur"
      },
      "start_date": "1917-01-01",
      "end_date": "1927-12-31"
    },
    {
      "issuer": {
        "id": 3194,
        "name": "MAISON BERNOT FRERES (Ch. BERNOT ET Cie)"
      },
      "job": {
        "id": 219,
        "name": "Administrateur"
      },
      "start_date": "1923-01-01",
      "end_date": "1923-12-31"
    },
    {
      "issuer": {
        "id": 10638,
        "name": "Sté ANONYME DES ETABLISSEMENTS CH. BERTRAND"
      },
      "job": {
        "id": 219,
        "name": "Administrateur"
      },
      "start_date": "1927-01-01",
      "end_date": "1927-12-31"
    }
  ],
  "name": "J.-L. Madieu"
}