{
  "id": 92041,
  "names": [
    "E. Delcourt"
  ],
  "functions": [
    {
      "issuer": {
        "id": 3918,
        "name": "COMPAGNIE DE LA MAMORA (Anciennement SOCIÉTÉ DES LIÈGES DE LA MAMORA)"
      },
      "job": {
        "id": 219,
        "name": "Administrateur"
      },
      "start_date": "1933-01-01",
      "end_date": "1933-12-31"
    },
    {
      "issuer": {
        "id": 3918,
        "name": "COMPAGNIE DE LA MAMORA (Anciennement SOCIÉTÉ DES LIÈGES DE LA MAMORA)"
      },
      "job": {
        "id": 219,
        "name": "Administrateur"
      },
      "start_date": "1940-01-01",
      "end_date": "1948-12-31"
    },
    {
      "issuer": {
        "id": 4411,
        "name": "LES ISOLANTS FRANÇAIS"
      },
      "job": {
        "id": 219,
        "name": "Administrateur"
      },
      "start_date": "1945-01-01",
      "end_date": "1953-12-31"
    }
  ],
  "name": "E. Delcourt"
}