{
  "id": 110874,
  "names": [
    "Costa de Beauregard"
  ],
  "functions": [
    {
      "issuer": {
        "id": 1589,
        "name": "LA FONCIÈRE COMPAGNIE D'ASSURANCES CONTRE L'INCENDIE"
      },
      "job": {
        "id": 219,
        "name": "Administrateur"
      },
      "start_date": "1948-01-01",
      "end_date": "1953-12-31"
    },
    {
      "issuer": {
        "id": 2104,
        "name": "La Foncière, compagnie anonyme d'assurances sur la vie à primes fixes"
      },
      "job": {
        "id": 219,
        "name": "Administrateur"
      },
      "start_date": "1948-01-01",
      "end_date": "1953-12-31"
    }
  ],
  "name": "Costa de Beauregard"
}