{
  "id": 111801,
  "names": [
    "Cie Belge pour les Industries Chimiques"
  ],
  "functions": [
    {
      "issuer": {
        "id": 4612,
        "name": "CARBONISATION ET CHARBONS ACTIFS"
      },
      "job": {
        "id": 219,
        "name": "Administrateur"
      },
      "start_date": "1948-01-01",
      "end_date": "1948-12-31"
    }
  ],
  "name": "Cie Belge pour les Industries Chimiques"
}