{
  "id": 108278,
  "names": [
    "St. Davey Bickford"
  ],
  "functions": [
    {
      "issuer": {
        "id": 4664,
        "name": "CARTOUCHERIE FRANÇAISE"
      },
      "job": {
        "id": 219,
        "name": "Administrateur"
      },
      "start_date": "1945-01-01",
      "end_date": "1945-12-31"
    }
  ],
  "name": "St. Davey Bickford"
}