{
  "id": 62495,
  "names": [
    "J.-B. Rabaté"
  ],
  "functions": [
    {
      "issuer": {
        "id": 2690,
        "name": "CIE DES EAUX MINÉRALES DE LA BOURBOULE"
      },
      "job": {
        "id": 219,
        "name": "Administrateur"
      },
      "start_date": "1917-01-01",
      "end_date": "1917-12-31"
    }
  ],
  "name": "J.-B. Rabaté"
}