{
  "id": 112330,
  "names": [
    "H.-H. Lacey"
  ],
  "functions": [
    {
      "issuer": {
        "id": 5013,
        "name": "ROBINSON DEEP, LTD"
      },
      "job": {
        "id": 219,
        "name": "Administrateur"
      },
      "start_date": "1948-01-01",
      "end_date": "1948-12-31"
    },
    {
      "issuer": {
        "id": 5013,
        "name": "ROBINSON DEEP, LTD"
      },
      "job": {
        "id": 14620,
        "name": "Membre du comité de Londres"
      },
      "start_date": "1953-01-01",
      "end_date": "1953-12-31"
    }
  ],
  "name": "H.-H. Lacey"
}