{
  "id": 58780,
  "names": [
    "Grune"
  ],
  "functions": [
    {
      "issuer": {
        "id": 3372,
        "name": "BANQUE DE L'UNION A MOSCOU"
      },
      "job": {
        "id": 219,
        "name": "Administrateur"
      },
      "start_date": "1912-01-01",
      "end_date": "1912-12-31"
    }
  ],
  "name": "Grune"
}