{
  "id": 89844,
  "names": [
    "O. Beibgeder"
  ],
  "functions": [
    {
      "issuer": {
        "id": 4441,
        "name": "SOCIÉTÉ ANONYME DES HAUTS-FOURNEAUX, FORGES ET ACIÉRIES DU SAUT-DU-TARN"
      },
      "job": {
        "id": 117,
        "name": "Vice-Président",
        "short_name": "V.-Pr."
      },
      "start_date": "1933-01-01",
      "end_date": "1933-12-31"
    }
  ],
  "name": "O. Beibgeder"
}