{
  "id": 73069,
  "names": [
    "Th. Schulze"
  ],
  "functions": [
    {
      "issuer": {
        "id": 3829,
        "name": "Utah Copper"
      },
      "job": {
        "id": 219,
        "name": "Administrateur"
      },
      "start_date": "1923-01-01",
      "end_date": "1927-12-31"
    }
  ],
  "name": "Th. Schulze"
}