{
  "id": 94921,
  "names": [
    "A. Faessel"
  ],
  "functions": [
    {
      "issuer": {
        "id": 3832,
        "name": "BRASSERIES ET MALTERIES FRANCHE-COMTE-ALSACE (Anciennement Sté des Malteries Franche-Comté-Haut-Rhin)"
      },
      "job": {
        "id": 10019,
        "name": "Commissaire des comptes"
      },
      "start_date": "1940-01-01",
      "end_date": "1940-12-31"
    },
    {
      "issuer": {
        "id": 5244,
        "name": "FABRIQUES DE PRODUITS CHIMIQUES DE THANN ET MULHOUSE"
      },
      "job": {
        "id": 10258,
        "name": "Suppléant"
      },
      "start_date": "1940-01-01",
      "end_date": "1945-12-31"
    },
    {
      "issuer": {
        "id": 11045,
        "name": "UNION ELECTRIQUE DU RHIN (Uner)"
      },
      "job": {
        "id": 10019,
        "name": "Commissaire des comptes"
      },
      "start_date": "1940-01-01",
      "end_date": "1945-12-31"
    },
    {
      "issuer": {
        "id": 5339,
        "name": "ENERGIE ELECTRIQUE DU RHIN (Usine de Kembs)"
      },
      "job": {
        "id": 10019,
        "name": "Commissaire des comptes"
      },
      "start_date": "1940-01-01",
      "end_date": "1945-12-31"
    },
    {
      "issuer": {
        "id": 4064,
        "name": "MINES DE KALI SAINTE-THERESE"
      },
      "job": {
        "id": 10019,
        "name": "Commissaire des comptes"
      },
      "start_date": "1940-01-01",
      "end_date": "1945-12-31"
    },
    {
      "issuer": {
        "id": 2233,
        "name": "SOCIETE TRANSELECTRIQUE"
      },
      "job": {
        "id": 10019,
        "name": "Commissaire des comptes"
      },
      "start_date": "1940-01-01",
      "end_date": "1945-12-31"
    },
    {
      "issuer": {
        "id": 5122,
        "name": "FORCES MOTRICES DU HAUT-RHIN"
      },
      "job": {
        "id": 10019,
        "name": "Commissaire des comptes"
      },
      "start_date": "1945-01-01",
      "end_date": "1945-12-31"
    }
  ],
  "name": "A. Faessel"
}