{
  "id": 55824,
  "names": [
    "G. E. Baker"
  ],
  "functions": [
    {
      "issuer": {
        "id": 10093,
        "name": "GREAT COBAR LIMITED"
      },
      "job": {
        "id": 219,
        "name": "Administrateur"
      },
      "start_date": "1912-01-01",
      "end_date": "1917-12-31"
    }
  ],
  "name": "G. E. Baker"
}