{
  "id": 48607,
  "names": [
    "Ed. Clémançon"
  ],
  "functions": [
    {
      "issuer": {
        "id": 2714,
        "name": "CIE GLE DE TRAVAUX D'ÉCLAIRAGE ET DE FORCE (Anciens Etablissements Clemançon)"
      },
      "job": {
        "id": 102,
        "name": "Président",
        "short_name": "P."
      },
      "start_date": "1898-01-01",
      "end_date": "1903-12-31"
    }
  ],
  "name": "Ed. Clémançon"
}