{
  "id": 107903,
  "names": [
    "F. Hartmann"
  ],
  "functions": [
    {
      "issuer": {
        "id": 11044,
        "name": "FORCES HYDRAULIQUES DE MEUSE dites \"F. H. Y. M.\""
      },
      "job": {
        "id": 219,
        "name": "Administrateur"
      },
      "start_date": "1945-01-01",
      "end_date": "1945-12-31"
    }
  ],
  "name": "F. Hartmann"
}