{
  "id": 99611,
  "names": [
    "Georges Schiff-Giorgini"
  ],
  "functions": [
    {
      "issuer": {
        "id": 3573,
        "name": "Société GÉNÉRALE FONCIÈRE"
      },
      "job": {
        "id": 102,
        "name": "Président",
        "short_name": "P."
      },
      "start_date": "1940-01-01",
      "end_date": "1940-12-31"
    },
    {
      "issuer": {
        "id": 11552,
        "name": "ETABLISSEMENTS GERARD NOSTEN"
      },
      "job": {
        "id": 219,
        "name": "Administrateur"
      },
      "start_date": "1948-01-01",
      "end_date": "1953-12-31"
    },
    {
      "issuer": {
        "id": 4549,
        "name": "Cie FRANÇAISE DES MINES D'OR DU PEK"
      },
      "job": {
        "id": 219,
        "name": "Administrateur"
      },
      "start_date": "1953-01-01",
      "end_date": "1953-12-31"
    },
    {
      "issuer": {
        "id": 3573,
        "name": "Société GÉNÉRALE FONCIÈRE"
      },
      "job": {
        "id": 102,
        "name": "Président",
        "short_name": "P."
      },
      "start_date": "1953-01-01",
      "end_date": "1953-12-31"
    }
  ],
  "name": "Georges Schiff-Giorgini"
}