{
  "id": 118814,
  "names": [
    "J. Hue de la Colombe"
  ],
  "functions": [
    {
      "issuer": {
        "id": 3127,
        "name": "SOCIETE ANONYME DES TUBES DE VALENCIENNES ET DENAIN"
      },
      "job": {
        "id": 219,
        "name": "Administrateur"
      },
      "start_date": "1953-01-01",
      "end_date": "1953-12-31"
    }
  ],
  "name": "J. Hue de la Colombe"
}