{
  "id": 100032,
  "names": [
    "P. Banteignie"
  ],
  "functions": [
    {
      "issuer": {
        "id": 4431,
        "name": "FORGES DE LEVAL-AULNOYE"
      },
      "job": {
        "id": 10019,
        "name": "Commissaire des comptes"
      },
      "start_date": "1940-01-01",
      "end_date": "1948-12-31"
    }
  ],
  "name": "P. Banteignie"
}