{
  "id": 103818,
  "names": [
    "E. Saint-Rémy Pélissier"
  ],
  "functions": [
    {
      "issuer": {
        "id": 3006,
        "name": "SOCIETE GÉNÉRALE DES HUILERIES DU SAHEL TUNISIEN"
      },
      "job": {
        "id": 10019,
        "name": "Commissaire des comptes"
      },
      "start_date": "1940-01-01",
      "end_date": "1940-12-31"
    }
  ],
  "name": "E. Saint-Rémy Pélissier"
}