{
  "id": 42680,
  "names": [
    "L. Wiener"
  ],
  "functions": [
    {
      "issuer": {
        "id": 1236,
        "name": "CIE GÉNÉRALE BELGE POUR L'ÉCLAIRAGE ET LE CHAUFFAGE PAR LE GAZ"
      },
      "job": {
        "id": 219,
        "name": "Administrateur"
      },
      "start_date": "1880-01-01",
      "end_date": "1889-12-31"
    }
  ],
  "name": "L. Wiener"
}