{
  "id": 90386,
  "names": [
    "A. Antoine"
  ],
  "functions": [
    {
      "issuer": {
        "id": 4031,
        "name": "SOCIETE PARISIENNE DES SCIURES (Applications industrielles Agglomérés. Matériaux de construction)"
      },
      "job": {
        "id": 101,
        "name": "Administrateur Délégué",
        "short_name": "Ad. Dél."
      },
      "start_date": "1933-01-01",
      "end_date": "1933-12-31"
    },
    {
      "issuer": {
        "id": 3368,
        "name": "ELECTRICITE ET GAZ DU NORD"
      },
      "job": {
        "id": 219,
        "name": "Administrateur"
      },
      "start_date": "1933-01-01",
      "end_date": "1933-12-31"
    },
    {
      "issuer": {
        "id": 3103,
        "name": "SOCIETE D'ÉLECTRICITÉ DE PARIS"
      },
      "job": {
        "id": 219,
        "name": "Administrateur"
      },
      "start_date": "1933-01-01",
      "end_date": "1933-12-31"
    },
    {
      "issuer": {
        "id": 5339,
        "name": "ENERGIE ELECTRIQUE DU RHIN (Usine de Kembs)"
      },
      "job": {
        "id": 219,
        "name": "Administrateur"
      },
      "start_date": "1933-01-01",
      "end_date": "1933-12-31"
    },
    {
      "issuer": {
        "id": 3103,
        "name": "SOCIETE D'ÉLECTRICITÉ DE PARIS"
      },
      "job": {
        "id": 101,
        "name": "Administrateur Délégué",
        "short_name": "Ad. Dél."
      },
      "start_date": "1940-01-01",
      "end_date": "1940-12-31"
    },
    {
      "issuer": {
        "id": 2230,
        "name": "ENERGIE ÉLECTRIQUE DE L'OUEST DE LA FRANCE"
      },
      "job": {
        "id": 219,
        "name": "Administrateur"
      },
      "start_date": "1940-01-01",
      "end_date": "1940-12-31"
    },
    {
      "issuer": {
        "id": 2586,
        "name": "Société PARISIENNE POUR L'INDUSTRIE DES CHEMINS DE FER ET DES TRAMWAYS ÉLECTRIQUES"
      },
      "job": {
        "id": 101,
        "name": "Administrateur Délégué",
        "short_name": "Ad. Dél."
      },
      "start_date": "1940-01-01",
      "end_date": "1940-12-31"
    },
    {
      "issuer": {
        "id": 10961,
        "name": "SOCIÉTÉ HYDRO-ÉLECTRIQUE DE LA CÈRE"
      },
      "job": {
        "id": 219,
        "name": "Administrateur"
      },
      "start_date": "1940-01-01",
      "end_date": "1940-12-31"
    },
    {
      "issuer": {
        "id": 5294,
        "name": "ELECTRICITE DE LA SEINE"
      },
      "job": {
        "id": 101,
        "name": "Administrateur Délégué",
        "short_name": "Ad. Dél."
      },
      "start_date": "1940-01-01",
      "end_date": "1940-12-31"
    },
    {
      "issuer": {
        "id": 5139,
        "name": "SOCIÉTÉ NANTAISE D'ECLAIRAGE ET DE FORCE PAR L'ELECTRICITÉ"
      },
      "job": {
        "id": 219,
        "name": "Administrateur"
      },
      "start_date": "1940-01-01",
      "end_date": "1940-12-31"
    },
    {
      "issuer": {
        "id": 3368,
        "name": "ELECTRICITE ET GAZ DU NORD"
      },
      "job": {
        "id": 102,
        "name": "Président",
        "short_name": "P."
      },
      "start_date": "1940-01-01",
      "end_date": "1940-12-31"
    },
    {
      "issuer": {
        "id": 5339,
        "name": "ENERGIE ELECTRIQUE DU RHIN (Usine de Kembs)"
      },
      "job": {
        "id": 219,
        "name": "Administrateur"
      },
      "start_date": "1940-01-01",
      "end_date": "1940-12-31"
    },
    {
      "issuer": {
        "id": 5471,
        "name": "COMPAGNIE D'ÉLECTRICITÉ LOIRE ET NIÈVRE"
      },
      "job": {
        "id": 101,
        "name": "Administrateur Délégué",
        "short_name": "Ad. Dél."
      },
      "start_date": "1940-01-01",
      "end_date": "1940-12-31"
    },
    {
      "issuer": {
        "id": 5087,
        "name": "DISTRIBUTION D'ELECTRICITE DE L'OUEST"
      },
      "job": {
        "id": 219,
        "name": "Administrateur"
      },
      "start_date": "1940-01-01",
      "end_date": "1940-12-31"
    },
    {
      "issuer": {
        "id": 2695,
        "name": "Cie PARISIENNE DE DISTRIBUTION D'ÉLECTRICITÉ"
      },
      "job": {
        "id": 219,
        "name": "Administrateur"
      },
      "start_date": "1940-01-01",
      "end_date": "1940-12-31"
    },
    {
      "issuer": {
        "id": 4741,
        "name": "COMPAGNIE PARISIENNE DE CHAUFFAGE URBAIN"
      },
      "job": {
        "id": 219,
        "name": "Administrateur"
      },
      "start_date": "1940-01-01",
      "end_date": "1940-12-31"
    },
    {
      "issuer": {
        "id": 4031,
        "name": "SOCIETE PARISIENNE DES SCIURES (Applications industrielles Agglomérés. Matériaux de construction)"
      },
      "job": {
        "id": 101,
        "name": "Administrateur Délégué",
        "short_name": "Ad. Dél."
      },
      "start_date": "1940-01-01",
      "end_date": "1940-12-31"
    },
    {
      "issuer": {
        "id": 4031,
        "name": "SOCIETE PARISIENNE DES SCIURES (Applications industrielles Agglomérés. Matériaux de construction)"
      },
      "job": {
        "id": 189,
        "name": "Président directeur général",
        "short_name": "P.D.G."
      },
      "start_date": "1945-01-01",
      "end_date": "1953-12-31"
    }
  ],
  "name": "A. Antoine"
}