{
  "id": 114543,
  "names": [
    "Edouard Descamps-Thiriez"
  ],
  "functions": [
    {
      "issuer": {
        "id": 4757,
        "name": "FILATURES ET FILTERIES DE FRANCE"
      },
      "job": {
        "id": 219,
        "name": "Administrateur"
      },
      "start_date": "1927-01-01",
      "end_date": "1933-12-31"
    },
    {
      "issuer": {
        "id": 2381,
        "name": "CREDIT DU NORD"
      },
      "job": {
        "id": 219,
        "name": "Administrateur"
      },
      "start_date": "1940-01-01",
      "end_date": "1940-12-31"
    },
    {
      "issuer": {
        "id": 4757,
        "name": "FILATURES ET FILTERIES DE FRANCE"
      },
      "job": {
        "id": 219,
        "name": "Administrateur"
      },
      "start_date": "1940-01-01",
      "end_date": "1945-12-31"
    },
    {
      "issuer": {
        "id": 2381,
        "name": "CREDIT DU NORD"
      },
      "job": {
        "id": 219,
        "name": "Administrateur"
      },
      "start_date": "1945-01-01",
      "end_date": "1953-12-31"
    },
    {
      "issuer": {
        "id": 4757,
        "name": "FILATURES ET FILTERIES DE FRANCE"
      },
      "job": {
        "id": 162,
        "name": "Président honoraire"
      },
      "start_date": "1948-01-01",
      "end_date": "1953-12-31"
    }
  ],
  "name": "Edouard Descamps-Thiriez"
}