{
  "id": 75846,
  "names": [
    "J. Dol-Pias"
  ],
  "functions": [
    {
      "issuer": {
        "id": 4225,
        "name": "COMPAGN E DU PORT DE FEDALA"
      },
      "job": {
        "id": 219,
        "name": "Administrateur"
      },
      "start_date": "1923-01-01",
      "end_date": "1923-12-31"
    }
  ],
  "name": "J. Dol-Pias"
}