{
  "id": 106725,
  "names": [
    "K. Bergmann"
  ],
  "functions": [
    {
      "issuer": {
        "id": 1777,
        "name": "CREDIT FONCIER ET COMMUNAL D'ALSACE ET DE LORRAINE"
      },
      "job": {
        "id": 219,
        "name": "Administrateur"
      },
      "start_date": "1945-01-01",
      "end_date": "1945-12-31"
    }
  ],
  "name": "K. Bergmann"
}