{
  "id": 56203,
  "names": [
    "Chater"
  ],
  "functions": [
    {
      "issuer": {
        "id": 2429,
        "name": "STE FSE DES CHARBONNAGES DU TONKIN"
      },
      "job": {
        "id": 219,
        "name": "Administrateur"
      },
      "start_date": "1912-01-01",
      "end_date": "1912-12-31"
    }
  ],
  "name": "Chater"
}