{
  "id": 59050,
  "names": [
    "A. Ralli"
  ],
  "functions": [
    {
      "issuer": {
        "id": 2391,
        "name": "BANQUE D'ATHENES"
      },
      "job": {
        "id": 219,
        "name": "Administrateur"
      },
      "start_date": "1945-01-01",
      "end_date": "1945-12-31"
    }
  ],
  "name": "A. Ralli"
}