{
  "id": 106766,
  "names": [
    "Jean F. Speth"
  ],
  "functions": [
    {
      "issuer": {
        "id": 3445,
        "name": "ROTTERDAMSCHE BANK N. V."
      },
      "job": {
        "id": 219,
        "name": "Administrateur"
      },
      "start_date": "1945-01-01",
      "end_date": "1948-12-31"
    }
  ],
  "name": "Jean F. Speth"
}