{
  "id": 118301,
  "names": [
    "M. Flouret"
  ],
  "functions": [
    {
      "issuer": {
        "id": 3583,
        "name": "BANQUE INDUSTRIELLE DE L'AFRIQUE DU NORD"
      },
      "job": {
        "id": 139,
        "name": "Commissaire du Gouvernement"
      },
      "start_date": "1953-01-01",
      "end_date": "1953-12-31"
    }
  ],
  "name": "M. Flouret"
}