{
  "id": 74279,
  "names": [
    "prince Sixte de Bourbon"
  ],
  "functions": [
    {
      "issuer": {
        "id": 10565,
        "name": "SOCIÉTÉ FRANÇAISE DES PÉTROLES ESSENCES ET NAPHTES"
      },
      "job": {
        "id": 219,
        "name": "Administrateur"
      },
      "start_date": "1923-01-01",
      "end_date": "1923-12-31"
    }
  ],
  "name": "prince Sixte de Bourbon"
}