{
  "id": 42463,
  "names": [
    "J. Vaillant"
  ],
  "functions": [
    {
      "issuer": {
        "id": 1245,
        "name": "Crédit Lyonnais"
      },
      "job": {
        "id": 103,
        "name": "Commissaire"
      },
      "start_date": "1880-01-01",
      "end_date": "1880-12-31"
    }
  ],
  "name": "J. Vaillant"
}