{
  "id": 98171,
  "names": [
    "G. Foulonneau"
  ],
  "functions": [
    {
      "issuer": {
        "id": 10420,
        "name": "CIE DES CHARBONNAGES D EKATHERINE"
      },
      "job": {
        "id": 219,
        "name": "Administrateur"
      },
      "start_date": "1940-01-01",
      "end_date": "1953-12-31"
    },
    {
      "issuer": {
        "id": 4682,
        "name": "Société Générale des Matières Grasses"
      },
      "job": {
        "id": 189,
        "name": "Président directeur général",
        "short_name": "P.D.G."
      },
      "start_date": "1945-01-01",
      "end_date": "1948-12-31"
    },
    {
      "issuer": {
        "id": 10926,
        "name": "SOCIETE DE RECHERCHES MINIERES DU FALTA"
      },
      "job": {
        "id": 219,
        "name": "Administrateur"
      },
      "start_date": "1945-01-01",
      "end_date": "1953-12-31"
    }
  ],
  "name": "G. Foulonneau"
}