{
  "id": 53702,
  "names": [
    "Sennelier"
  ],
  "functions": [
    {
      "issuer": {
        "id": 3209,
        "name": "SOCIÉTÉ ANONYME POUR L'EXPLOITATION DE LA MAISON DURST-WILD FRÈRES"
      },
      "job": {
        "id": 10019,
        "name": "Commissaire des comptes"
      },
      "start_date": "1908-01-01",
      "end_date": "1908-12-31"
    }
  ],
  "name": "Sennelier"
}