{
  "id": 46408,
  "names": [
    "Ghancel"
  ],
  "functions": [
    {
      "issuer": {
        "id": 3124,
        "name": "Compagnie des Fonderies et Forges d'Alais"
      },
      "job": {
        "id": 219,
        "name": "Administrateur"
      },
      "start_date": "1893-01-01",
      "end_date": "1893-12-31"
    }
  ],
  "name": "Ghancel"
}