{
  "id": 85983,
  "names": [
    "A. Grossi"
  ],
  "functions": [
    {
      "issuer": {
        "id": 4395,
        "name": "GRANOUX"
      },
      "job": {
        "id": 176,
        "name": "Membre du conseil de surveillance",
        "short_name": "M.C.S."
      },
      "start_date": "1933-01-01",
      "end_date": "1933-12-31"
    }
  ],
  "name": "A. Grossi"
}