{
  "id": 82802,
  "names": [
    "Gaston Berthe"
  ],
  "functions": [
    {
      "issuer": {
        "id": 10797,
        "name": "ÉTABLISSEMENTS DU “ROYAL GAILLAC”"
      },
      "job": {
        "id": 219,
        "name": "Administrateur"
      },
      "start_date": "1927-01-01",
      "end_date": "1927-12-31"
    }
  ],
  "name": "Gaston Berthe"
}