{
  "id": 106632,
  "names": [
    "V. Manneville"
  ],
  "functions": [
    {
      "issuer": {
        "id": 11424,
        "name": "SOCIETE DES MINES DU SIDI MAROUF"
      },
      "job": {
        "id": 10019,
        "name": "Commissaire des comptes"
      },
      "start_date": "1945-01-01",
      "end_date": "1953-12-31"
    }
  ],
  "name": "V. Manneville"
}