{
  "id": 87873,
  "names": [
    "V. Kalliokoski"
  ],
  "functions": [
    {
      "issuer": {
        "id": 5338,
        "name": "BANQUE CENTRALE DES CAISSES RURALES DE CREDIT"
      },
      "job": {
        "id": 219,
        "name": "Administrateur"
      },
      "start_date": "1933-01-01",
      "end_date": "1933-12-31"
    },
    {
      "issuer": {
        "id": 5338,
        "name": "BANQUE CENTRALE DES CAISSES RURALES DE CREDIT"
      },
      "job": {
        "id": 117,
        "name": "Vice-Président",
        "short_name": "V.-Pr."
      },
      "start_date": "1940-01-01",
      "end_date": "1945-12-31"
    }
  ],
  "name": "V. Kalliokoski"
}