{
  "id": 112867,
  "names": [
    "Alphonse Bocquet"
  ],
  "functions": [
    {
      "issuer": {
        "id": 3126,
        "name": "ATELIERS DE CONSTRUCTION DU NORD DE LA FRANCE"
      },
      "job": {
        "id": 219,
        "name": "Administrateur"
      },
      "start_date": "1940-01-01",
      "end_date": "1940-12-31"
    },
    {
      "issuer": {
        "id": 3126,
        "name": "ATELIERS DE CONSTRUCTION DU NORD DE LA FRANCE"
      },
      "job": {
        "id": 219,
        "name": "Administrateur"
      },
      "start_date": "1948-01-01",
      "end_date": "1948-12-31"
    }
  ],
  "name": "Alphonse Bocquet"
}