{
  "id": 105725,
  "names": [
    "Marc Bénignus"
  ],
  "functions": [
    {
      "issuer": {
        "id": 11443,
        "name": "SOCIETE FONCIERE DU CAMBODGE"
      },
      "job": {
        "id": 219,
        "name": "Administrateur"
      },
      "start_date": "1945-01-01",
      "end_date": "1948-12-31"
    },
    {
      "issuer": {
        "id": 4093,
        "name": "INDOCHINE FILMS ET CINEMAS"
      },
      "job": {
        "id": 219,
        "name": "Administrateur"
      },
      "start_date": "1948-01-01",
      "end_date": "1953-12-31"
    }
  ],
  "name": "Marc Bénignus"
}