{
  "id": 58784,
  "names": [
    "Tatischeff"
  ],
  "functions": [
    {
      "issuer": {
        "id": 3372,
        "name": "BANQUE DE L'UNION A MOSCOU"
      },
      "job": {
        "id": 10626,
        "name": "Membre de Comité de Direction"
      },
      "start_date": "1912-01-01",
      "end_date": "1917-12-31"
    },
    {
      "issuer": {
        "id": 3372,
        "name": "BANQUE DE L'UNION A MOSCOU"
      },
      "job": {
        "id": 11223,
        "name": "Membre du Conseil de Direction"
      },
      "start_date": "1923-01-01",
      "end_date": "1923-12-31"
    },
    {
      "issuer": {
        "id": 3372,
        "name": "BANQUE DE L'UNION A MOSCOU"
      },
      "job": {
        "id": 10626,
        "name": "Membre de Comité de Direction"
      },
      "start_date": "1927-01-01",
      "end_date": "1927-12-31"
    }
  ],
  "name": "Tatischeff"
}