{
  "id": 92128,
  "names": [
    "E. de Joannio"
  ],
  "functions": [
    {
      "issuer": {
        "id": 4320,
        "name": "L'AFRICAINE FRANÇAISE (Société d'exploitation des produits africains)"
      },
      "job": {
        "id": 102,
        "name": "Président",
        "short_name": "P."
      },
      "start_date": "1933-01-01",
      "end_date": "1933-12-31"
    }
  ],
  "name": "E. de Joannio"
}