{
  "id": 105008,
  "names": [
    "R. H. Merry"
  ],
  "functions": [
    {
      "issuer": {
        "id": 4956,
        "name": "COMPAGNIE BARCELONAISE DE TRACTION (The Barcelona Traction, Light and Power Co Ld.)"
      },
      "job": {
        "id": 219,
        "name": "Administrateur"
      },
      "start_date": "1945-01-01",
      "end_date": "1945-12-31"
    },
    {
      "issuer": {
        "id": 3379,
        "name": "MEXICO TRAMWAYS COMPANY"
      },
      "job": {
        "id": 117,
        "name": "Vice-Président",
        "short_name": "V.-Pr."
      },
      "start_date": "1945-01-01",
      "end_date": "1945-12-31"
    }
  ],
  "name": "R. H. Merry"
}