{
  "id": 100844,
  "names": [
    "H. F. Sheets"
  ],
  "functions": [
    {
      "issuer": {
        "id": 3208,
        "name": "Compagnie Industrielle des Pétroles"
      },
      "job": {
        "id": 219,
        "name": "Administrateur"
      },
      "start_date": "1933-01-01",
      "end_date": "1933-12-31"
    },
    {
      "issuer": {
        "id": 3208,
        "name": "Compagnie Industrielle des Pétroles"
      },
      "job": {
        "id": 219,
        "name": "Administrateur"
      },
      "start_date": "1940-01-01",
      "end_date": "1940-12-31"
    }
  ],
  "name": "H. F. Sheets"
}