{
  "id": 51254,
  "names": [
    "H. Crawford"
  ],
  "functions": [
    {
      "issuer": {
        "id": 2402,
        "name": "THE NATIONAL BANK OF SOUTH AFRICA LTED (Banque Nationale de l'Afrique du Sud)"
      },
      "job": {
        "id": 219,
        "name": "Administrateur"
      },
      "start_date": "1903-01-01",
      "end_date": "1903-12-31"
    },
    {
      "issuer": {
        "id": 2402,
        "name": "THE NATIONAL BANK OF SOUTH AFRICA LTED (Banque Nationale de l'Afrique du Sud)"
      },
      "job": {
        "id": 102,
        "name": "Président",
        "short_name": "P."
      },
      "start_date": "1908-01-01",
      "end_date": "1908-12-31"
    },
    {
      "issuer": {
        "id": 2402,
        "name": "THE NATIONAL BANK OF SOUTH AFRICA LTED (Banque Nationale de l'Afrique du Sud)"
      },
      "job": {
        "id": 219,
        "name": "Administrateur"
      },
      "start_date": "1912-01-01",
      "end_date": "1912-12-31"
    },
    {
      "issuer": {
        "id": 2402,
        "name": "THE NATIONAL BANK OF SOUTH AFRICA LTED (Banque Nationale de l'Afrique du Sud)"
      },
      "job": {
        "id": 219,
        "name": "Administrateur"
      },
      "start_date": "1917-01-01",
      "end_date": "1917-12-31"
    }
  ],
  "name": "H. Crawford"
}