{
  "id": 78409,
  "names": [
    "Sabatier-Désarnaud"
  ],
  "functions": [
    {
      "issuer": {
        "id": 4117,
        "name": "ETABLISSEMENTS FOUGA ET Cie"
      },
      "job": {
        "id": 219,
        "name": "Administrateur"
      },
      "start_date": "1923-01-01",
      "end_date": "1923-12-31"
    }
  ],
  "name": "Sabatier-Désarnaud"
}