{
  "id": 114245,
  "names": [
    "P. Bourceret"
  ],
  "functions": [
    {
      "issuer": {
        "id": 4347,
        "name": "COMPAGNIE SOUDANAISE"
      },
      "job": {
        "id": 219,
        "name": "Administrateur"
      },
      "start_date": "1948-01-01",
      "end_date": "1948-12-31"
    },
    {
      "issuer": {
        "id": 3850,
        "name": "SOCIETE D'IMPORTATION DE BOIS EXOTIQUES"
      },
      "job": {
        "id": 219,
        "name": "Administrateur"
      },
      "start_date": "1948-01-01",
      "end_date": "1948-12-31"
    }
  ],
  "name": "P. Bourceret"
}