{
  "id": 118752,
  "names": [
    "Forges d'Allevard"
  ],
  "functions": [
    {
      "issuer": {
        "id": 5434,
        "name": "TUBES DE VINCEY"
      },
      "job": {
        "id": 219,
        "name": "Administrateur"
      },
      "start_date": "1953-01-01",
      "end_date": "1953-12-31"
    }
  ],
  "name": "Forges d'Allevard"
}