{
  "id": 84321,
  "names": [
    "Léonce Vieljeux"
  ],
  "functions": [
    {
      "issuer": {
        "id": 5267,
        "name": "COMPAGNIE DELMAS-VIELJEUX"
      },
      "job": {
        "id": 219,
        "name": "Administrateur"
      },
      "start_date": "1927-01-01",
      "end_date": "1933-12-31"
    },
    {
      "issuer": {
        "id": 11016,
        "name": "COMPAGNIE GÉNÉRALE DE L'ÉQUATEUR (Société Africaine de Culture et de Commerce)"
      },
      "job": {
        "id": 219,
        "name": "Administrateur"
      },
      "start_date": "1933-01-01",
      "end_date": "1933-12-31"
    },
    {
      "issuer": {
        "id": 5267,
        "name": "COMPAGNIE DELMAS-VIELJEUX"
      },
      "job": {
        "id": 102,
        "name": "Président",
        "short_name": "P."
      },
      "start_date": "1940-01-01",
      "end_date": "1945-12-31"
    }
  ],
  "name": "Léonce Vieljeux"
}