{
  "id": 62744,
  "names": [
    "A. Bryce"
  ],
  "functions": [
    {
      "issuer": {
        "id": 3176,
        "name": "Spies Petroleum Co, Ld"
      },
      "job": {
        "id": 219,
        "name": "Administrateur"
      },
      "start_date": "1917-01-01",
      "end_date": "1917-12-31"
    }
  ],
  "name": "A. Bryce"
}