{
  "id": 121672,
  "names": [
    "Ch. Schiller"
  ],
  "functions": [
    {
      "issuer": {
        "id": 3842,
        "name": "DE RICQLÈS"
      },
      "job": {
        "id": 219,
        "name": "Administrateur"
      },
      "start_date": "1953-01-01",
      "end_date": "1953-12-31"
    }
  ],
  "name": "Ch. Schiller"
}