{
  "id": 105709,
  "names": [
    "E. Lombardi"
  ],
  "functions": [
    {
      "issuer": {
        "id": 3639,
        "name": "REGIE FONCIÈRE DE LA VILLE D'ALGER"
      },
      "job": {
        "id": 102,
        "name": "Président",
        "short_name": "P."
      },
      "start_date": "1945-01-01",
      "end_date": "1945-12-31"
    }
  ],
  "name": "E. Lombardi"
}