{
  "id": 88039,
  "names": [
    "Louis Julliot de la Morandière"
  ],
  "functions": [
    {
      "issuer": {
        "id": 3776,
        "name": "COMPAGNIE AGRICOLE ET SUCRIERE DE NOSSI-BÉ"
      },
      "job": {
        "id": 219,
        "name": "Administrateur"
      },
      "start_date": "1933-01-01",
      "end_date": "1933-12-31"
    },
    {
      "issuer": {
        "id": 3586,
        "name": "BNCI (Océan Indien)"
      },
      "job": {
        "id": 219,
        "name": "Administrateur"
      },
      "start_date": "1933-01-01",
      "end_date": "1933-12-31"
    },
    {
      "issuer": {
        "id": 4314,
        "name": "COMPAGNIE LYONNAISE DE MADAGASCAR"
      },
      "job": {
        "id": 101,
        "name": "Administrateur Délégué",
        "short_name": "Ad. Dél."
      },
      "start_date": "1940-01-01",
      "end_date": "1940-12-31"
    },
    {
      "issuer": {
        "id": 4288,
        "name": "L'ALFA (Société pour la Fabrication des Pâtes de Cellulose)"
      },
      "job": {
        "id": 219,
        "name": "Administrateur"
      },
      "start_date": "1940-01-01",
      "end_date": "1948-12-31"
    },
    {
      "issuer": {
        "id": 3776,
        "name": "COMPAGNIE AGRICOLE ET SUCRIERE DE NOSSI-BÉ"
      },
      "job": {
        "id": 219,
        "name": "Administrateur"
      },
      "start_date": "1940-01-01",
      "end_date": "1948-12-31"
    },
    {
      "issuer": {
        "id": 4314,
        "name": "COMPAGNIE LYONNAISE DE MADAGASCAR"
      },
      "job": {
        "id": 219,
        "name": "Administrateur"
      },
      "start_date": "1948-01-01",
      "end_date": "1948-12-31"
    },
    {
      "issuer": {
        "id": 4314,
        "name": "COMPAGNIE LYONNAISE DE MADAGASCAR"
      },
      "job": {
        "id": 117,
        "name": "Vice-Président",
        "short_name": "V.-Pr."
      },
      "start_date": "1953-01-01",
      "end_date": "1953-12-31"
    },
    {
      "issuer": {
        "id": 4288,
        "name": "L'ALFA (Société pour la Fabrication des Pâtes de Cellulose)"
      },
      "job": {
        "id": 219,
        "name": "Administrateur"
      },
      "start_date": "1953-01-01",
      "end_date": "1953-12-31"
    }
  ],
  "name": "Louis Julliot de la Morandière"
}