{
  "id": 84754,
  "names": [
    "J. Ehrlich"
  ],
  "functions": [
    {
      "issuer": {
        "id": 10880,
        "name": "SOCIÉTÉ ANONYME DES CHAUSSURES FAYARD"
      },
      "job": {
        "id": 219,
        "name": "Administrateur"
      },
      "start_date": "1933-01-01",
      "end_date": "1933-12-31"
    },
    {
      "issuer": {
        "id": 5049,
        "name": "SOCIÉTÉ INTERNATIONALE D'ENERGIE HYDRO-ELECTRIQUE (SIDRO)"
      },
      "job": {
        "id": 219,
        "name": "Administrateur"
      },
      "start_date": "1940-01-01",
      "end_date": "1940-12-31"
    },
    {
      "issuer": {
        "id": 11473,
        "name": "COMPANIA HISPANO-AMERICANA DE ELECTRICIDAD (C. H. A. D. E.)"
      },
      "job": {
        "id": 219,
        "name": "Administrateur"
      },
      "start_date": "1945-01-01",
      "end_date": "1953-12-31"
    },
    {
      "issuer": {
        "id": 5049,
        "name": "SOCIÉTÉ INTERNATIONALE D'ENERGIE HYDRO-ELECTRIQUE (SIDRO)"
      },
      "job": {
        "id": 219,
        "name": "Administrateur"
      },
      "start_date": "1948-01-01",
      "end_date": "1948-12-31"
    }
  ],
  "name": "J. Ehrlich"
}