{
  "id": 58141,
  "names": [
    "H. Tourneur"
  ],
  "functions": [
    {
      "issuer": {
        "id": 3217,
        "name": "COMPAGNIE DES SUCRERIES DE PORTO-RICO"
      },
      "job": {
        "id": 219,
        "name": "Administrateur"
      },
      "start_date": "1912-01-01",
      "end_date": "1912-12-31"
    }
  ],
  "name": "H. Tourneur"
}