{
  "id": 59137,
  "names": [
    "L. Delâtre"
  ],
  "functions": [
    {
      "issuer": {
        "id": 3048,
        "name": "Comptoir Lyon-Alemand"
      },
      "job": {
        "id": 219,
        "name": "Administrateur"
      },
      "start_date": "1912-01-01",
      "end_date": "1912-12-31"
    }
  ],
  "name": "L. Delâtre"
}