{
  "id": 118437,
  "names": [
    "C. Beauleux"
  ],
  "functions": [
    {
      "issuer": {
        "id": 4438,
        "name": "ETABLISSEMENTS NOZAL"
      },
      "job": {
        "id": 10019,
        "name": "Commissaire des comptes"
      },
      "start_date": "1953-01-01",
      "end_date": "1953-12-31"
    }
  ],
  "name": "C. Beauleux"
}