{
  "id": 45570,
  "names": [
    "Cassigneul"
  ],
  "functions": [
    {
      "issuer": {
        "id": 3013,
        "name": "SOCIÉTÉ ANONYME DU \"PETIT JOURNAL\""
      },
      "job": {
        "id": 219,
        "name": "Administrateur"
      },
      "start_date": "1889-01-01",
      "end_date": "1898-12-31"
    },
    {
      "issuer": {
        "id": 3013,
        "name": "SOCIÉTÉ ANONYME DU \"PETIT JOURNAL\""
      },
      "job": {
        "id": 101,
        "name": "Administrateur Délégué",
        "short_name": "Ad. Dél."
      },
      "start_date": "1903-01-01",
      "end_date": "1903-12-31"
    }
  ],
  "name": "Cassigneul"
}