{
  "id": 119152,
  "names": [
    "P. Le Gallais"
  ],
  "functions": [
    {
      "issuer": {
        "id": 4881,
        "name": "L'ENTREPRISE MARITIME ET COMMERCIALE"
      },
      "job": {
        "id": 219,
        "name": "Administrateur"
      },
      "start_date": "1953-01-01",
      "end_date": "1953-12-31"
    }
  ],
  "name": "P. Le Gallais"
}