{
  "id": 111631,
  "names": [
    "lord Rotherwick"
  ],
  "functions": [
    {
      "issuer": {
        "id": 1251,
        "name": "Compagnie universelle du Canal maritime de Suez"
      },
      "job": {
        "id": 219,
        "name": "Administrateur"
      },
      "start_date": "1948-01-01",
      "end_date": "1953-12-31"
    }
  ],
  "name": "lord Rotherwick"
}