{
  "id": 117508,
  "names": [
    "H. N. Hart"
  ],
  "functions": [
    {
      "issuer": {
        "id": 5021,
        "name": "STILFONTEIN GOLD MINING"
      },
      "job": {
        "id": 219,
        "name": "Administrateur"
      },
      "start_date": "1953-01-01",
      "end_date": "1953-12-31"
    }
  ],
  "name": "H. N. Hart"
}