{
  "id": 90349,
  "names": [
    "Alfred Courtot"
  ],
  "functions": [
    {
      "issuer": {
        "id": 4410,
        "name": "COMPAGNIE GÉNÉRALE ELECTRIQUE"
      },
      "job": {
        "id": 219,
        "name": "Administrateur"
      },
      "start_date": "1933-01-01",
      "end_date": "1933-12-31"
    }
  ],
  "name": "Alfred Courtot"
}