{
  "id": 127445,
  "names": [
    "E. Barthélémy"
  ],
  "functions": [
    {
      "issuer": {
        "id": 3991,
        "name": "Sté DES MATERIAUX DE CONSTRUCTION DE LA LOISNE"
      },
      "job": {
        "id": 219,
        "name": "Administrateur"
      },
      "start_date": "1927-01-01",
      "end_date": "1927-12-31"
    },
    {
      "issuer": {
        "id": 10628,
        "name": "COMPAGNIE ELECTRIQUE DU NORD"
      },
      "job": {
        "id": 219,
        "name": "Administrateur"
      },
      "start_date": "1927-01-01",
      "end_date": "1927-12-31"
    },
    {
      "issuer": {
        "id": 4554,
        "name": "SOCIETE FRANÇAISE DES CARBURANTS"
      },
      "job": {
        "id": 10019,
        "name": "Commissaire des comptes"
      },
      "start_date": "1940-01-01",
      "end_date": "1953-12-31"
    }
  ],
  "name": "E. Barthélémy"
}