{
  "id": 94874,
  "names": [
    "R. Romain"
  ],
  "functions": [
    {
      "issuer": {
        "id": 5288,
        "name": "COMPAGNIE D'ELECTRICITE INDUSTRIELLE"
      },
      "job": {
        "id": 10019,
        "name": "Commissaire des comptes"
      },
      "start_date": "1940-01-01",
      "end_date": "1945-12-31"
    }
  ],
  "name": "R. Romain"
}