{
  "id": 56168,
  "names": [
    "baron William del Marmol"
  ],
  "functions": [
    {
      "issuer": {
        "id": 2545,
        "name": "Compagnie Internationale des Wagons-lits et des grands Express européens"
      },
      "job": {
        "id": 219,
        "name": "Administrateur"
      },
      "start_date": "1903-01-01",
      "end_date": "1908-12-31"
    },
    {
      "issuer": {
        "id": 778,
        "name": "SOCIETE DES MINES ET FONDERIES DE ZINC DE LA VIEILLE-MONTAGNE"
      },
      "job": {
        "id": 219,
        "name": "Administrateur"
      },
      "start_date": "1912-01-01",
      "end_date": "1912-12-31"
    },
    {
      "issuer": {
        "id": 2545,
        "name": "Compagnie Internationale des Wagons-lits et des grands Express européens"
      },
      "job": {
        "id": 219,
        "name": "Administrateur"
      },
      "start_date": "1912-01-01",
      "end_date": "1912-12-31"
    }
  ],
  "name": "baron William del Marmol"
}