{
  "id": 53824,
  "names": [
    "L. Tièche"
  ],
  "functions": [
    {
      "issuer": {
        "id": 2318,
        "name": "Société anonyme de la Grande distillerie E. Cusenier fils aîné et Cie"
      },
      "job": {
        "id": 219,
        "name": "Administrateur"
      },
      "start_date": "1908-01-01",
      "end_date": "1912-12-31"
    },
    {
      "issuer": {
        "id": 2318,
        "name": "Société anonyme de la Grande distillerie E. Cusenier fils aîné et Cie"
      },
      "job": {
        "id": 219,
        "name": "Administrateur"
      },
      "start_date": "1923-01-01",
      "end_date": "1923-12-31"
    },
    {
      "issuer": {
        "id": 2318,
        "name": "Société anonyme de la Grande distillerie E. Cusenier fils aîné et Cie"
      },
      "job": {
        "id": 219,
        "name": "Administrateur"
      },
      "start_date": "1927-01-01",
      "end_date": "1927-12-31"
    }
  ],
  "name": "L. Tièche"
}