{
  "id": 79627,
  "names": [
    "A. de Lafudié"
  ],
  "functions": [
    {
      "issuer": {
        "id": 1320,
        "name": "SOCIÉTÉ DES MINES ET FONDERIES DE PONTGIBAUD"
      },
      "job": {
        "id": 219,
        "name": "Administrateur"
      },
      "start_date": "1927-01-01",
      "end_date": "1933-12-31"
    }
  ],
  "name": "A. de Lafudié"
}