{
  "id": 102410,
  "names": [
    "Briet"
  ],
  "functions": [
    {
      "issuer": {
        "id": 11469,
        "name": "SECTEUR ELECTRIQUE DE BILLY-MONTIGNY ET EXTENSIONS"
      },
      "job": {
        "id": 232,
        "name": "Commissaire de surveillance"
      },
      "start_date": "1940-01-01",
      "end_date": "1945-12-31"
    }
  ],
  "name": "Briet"
}