{
  "id": 88188,
  "names": [
    "V. Graetz"
  ],
  "functions": [
    {
      "issuer": {
        "id": 1257,
        "name": "Société Générale Impériale Royale Privilégiée du Crédit foncier d'Autriche"
      },
      "job": {
        "id": 219,
        "name": "Administrateur"
      },
      "start_date": "1933-01-01",
      "end_date": "1933-12-31"
    }
  ],
  "name": "V. Graetz"
}