{
  "id": 116645,
  "names": [
    "J.-A. Berger (madame)"
  ],
  "functions": [
    {
      "issuer": {
        "id": 4536,
        "name": "SOCIETE MINIERE INTERCOLONIALE"
      },
      "job": {
        "id": 219,
        "name": "Administrateur"
      },
      "start_date": "1953-01-01",
      "end_date": "1953-12-31"
    }
  ],
  "name": "J.-A. Berger (madame)"
}