{
  "id": 113980,
  "names": [
    "G. de-Broissia"
  ],
  "functions": [
    {
      "issuer": {
        "id": 11003,
        "name": "LE SOLIDITIT FRANÇAIS"
      },
      "job": {
        "id": 219,
        "name": "Administrateur"
      },
      "start_date": "1948-01-01",
      "end_date": "1948-12-31"
    },
    {
      "issuer": {
        "id": 11003,
        "name": "LE SOLIDITIT FRANÇAIS"
      },
      "job": {
        "id": 219,
        "name": "Administrateur"
      },
      "start_date": "1953-01-01",
      "end_date": "1953-12-31"
    }
  ],
  "name": "G. de-Broissia"
}