{
  "id": 51701,
  "names": [
    "Houdou"
  ],
  "functions": [
    {
      "issuer": {
        "id": 2637,
        "name": "Cie DES TRAMWAYS ELECTRIQUES D'ORAN"
      },
      "job": {
        "id": 219,
        "name": "Administrateur"
      },
      "start_date": "1908-01-01",
      "end_date": "1912-12-31"
    }
  ],
  "name": "Houdou"
}