{
  "id": 99665,
  "names": [
    "V. Wiedman"
  ],
  "functions": [
    {
      "issuer": {
        "id": 2293,
        "name": "La Rente Foncière"
      },
      "job": {
        "id": 219,
        "name": "Administrateur"
      },
      "start_date": "1940-01-01",
      "end_date": "1945-12-31"
    }
  ],
  "name": "V. Wiedman"
}