{
  "id": 59118,
  "names": [
    "Salcido Aviles"
  ],
  "functions": [
    {
      "issuer": {
        "id": 3373,
        "name": "SOCIÉTÉ FONCIERE DU MEXIQUE"
      },
      "job": {
        "id": 219,
        "name": "Administrateur"
      },
      "start_date": "1912-01-01",
      "end_date": "1923-12-31"
    }
  ],
  "name": "Salcido Aviles"
}