{
  "id": 112660,
  "names": [
    "R. Anxionnaz"
  ],
  "functions": [
    {
      "issuer": {
        "id": 4134,
        "name": "SOCIETE RATEAU"
      },
      "job": {
        "id": 219,
        "name": "Administrateur"
      },
      "start_date": "1948-01-01",
      "end_date": "1948-12-31"
    },
    {
      "issuer": {
        "id": 4134,
        "name": "SOCIETE RATEAU"
      },
      "job": {
        "id": 132,
        "name": "Administrateur Directeur General",
        "short_name": "Ad.-Dir. G."
      },
      "start_date": "1953-01-01",
      "end_date": "1953-12-31"
    }
  ],
  "name": "R. Anxionnaz"
}