{
  "id": 45930,
  "names": [
    "R. Coumont"
  ],
  "functions": [
    {
      "issuer": {
        "id": 2944,
        "name": "Société Cotonnière de St-Etienne-du-Rouvray"
      },
      "job": {
        "id": 219,
        "name": "Administrateur"
      },
      "start_date": "1893-01-01",
      "end_date": "1893-12-31"
    }
  ],
  "name": "R. Coumont"
}