{
  "id": 42844,
  "names": [
    "Edgard Voilquin"
  ],
  "functions": [
    {
      "issuer": {
        "id": 613,
        "name": "SOCIÉTÉ DES HOUILLÈRES DE SAINT-ÉTIENNE"
      },
      "job": {
        "id": 219,
        "name": "Administrateur"
      },
      "start_date": "1880-01-01",
      "end_date": "1893-12-31"
    }
  ],
  "name": "Edgard Voilquin"
}