{
  "id": 63634,
  "names": [
    "Ch. Godchaux"
  ],
  "functions": [
    {
      "issuer": {
        "id": 10145,
        "name": "NEW-ORLEANS RAILWAY AND LIGHT CY"
      },
      "job": {
        "id": 219,
        "name": "Administrateur"
      },
      "start_date": "1917-01-01",
      "end_date": "1917-12-31"
    }
  ],
  "name": "Ch. Godchaux"
}