{
  "id": 82561,
  "names": [
    "Jacques Erreira"
  ],
  "functions": [
    {
      "issuer": {
        "id": 5158,
        "name": "Minoterie (Cie Agricole de)"
      },
      "job": {
        "id": 219,
        "name": "Administrateur"
      },
      "start_date": "1927-01-01",
      "end_date": "1927-12-31"
    }
  ],
  "name": "Jacques Erreira"
}