{
  "id": 56670,
  "names": [
    "A. Laugier"
  ],
  "functions": [
    {
      "issuer": {
        "id": 10023,
        "name": "Atlixco (Cie Industrielle d’)"
      },
      "job": {
        "id": 219,
        "name": "Administrateur"
      },
      "start_date": "1912-01-01",
      "end_date": "1912-12-31"
    }
  ],
  "name": "A. Laugier"
}