{
  "id": 104133,
  "names": [
    "L. Gunzburger"
  ],
  "functions": [
    {
      "issuer": {
        "id": 4873,
        "name": "CAOUTCHOUC MANUFACTURÉ \"DYNAMIC\" (Compagnie de)"
      },
      "job": {
        "id": 219,
        "name": "Administrateur"
      },
      "start_date": "1933-01-01",
      "end_date": "1933-12-31"
    },
    {
      "issuer": {
        "id": 4873,
        "name": "CAOUTCHOUC MANUFACTURÉ \"DYNAMIC\" (Compagnie de)"
      },
      "job": {
        "id": 219,
        "name": "Administrateur"
      },
      "start_date": "1940-01-01",
      "end_date": "1945-12-31"
    },
    {
      "issuer": {
        "id": 4873,
        "name": "CAOUTCHOUC MANUFACTURÉ \"DYNAMIC\" (Compagnie de)"
      },
      "job": {
        "id": 219,
        "name": "Administrateur"
      },
      "start_date": "1948-01-01",
      "end_date": "1948-12-31"
    },
    {
      "issuer": {
        "id": 4873,
        "name": "CAOUTCHOUC MANUFACTURÉ \"DYNAMIC\" (Compagnie de)"
      },
      "job": {
        "id": 219,
        "name": "Administrateur"
      },
      "start_date": "1953-01-01",
      "end_date": "1953-12-31"
    }
  ],
  "name": "L. Gunzburger"
}