{
  "id": 63486,
  "names": [
    "Billard"
  ],
  "functions": [
    {
      "issuer": {
        "id": 10421,
        "name": "SOCIETE DES GRAISSES MINERALES ET DES CHARBONS AGGLOMÉRÉS"
      },
      "job": {
        "id": 219,
        "name": "Administrateur"
      },
      "start_date": "1917-01-01",
      "end_date": "1917-12-31"
    }
  ],
  "name": "Billard"
}