{
  "id": 57869,
  "names": [
    "S. Hermanowitsch Nathan"
  ],
  "functions": [
    {
      "issuer": {
        "id": 5484,
        "name": "USINES DE FABRICATION DE TUBES ET DES FORGES DE SOSNOWICE"
      },
      "job": {
        "id": 219,
        "name": "Administrateur"
      },
      "start_date": "1912-01-01",
      "end_date": "1912-12-31"
    }
  ],
  "name": "S. Hermanowitsch Nathan"
}