{
  "id": 73028,
  "names": [
    "C. Garnier"
  ],
  "functions": [
    {
      "issuer": {
        "id": 2844,
        "name": "SOCIÉTÉ FRANÇAISE DES MINES DE L'ARIEGE"
      },
      "job": {
        "id": 219,
        "name": "Administrateur"
      },
      "start_date": "1923-01-01",
      "end_date": "1927-12-31"
    },
    {
      "issuer": {
        "id": 10950,
        "name": "LA PILE HYDRA (Etablissements E. Meyer)"
      },
      "job": {
        "id": 117,
        "name": "Vice-Président",
        "short_name": "V.-Pr."
      },
      "start_date": "1940-01-01",
      "end_date": "1940-12-31"
    }
  ],
  "name": "C. Garnier"
}