{
  "id": 114167,
  "names": [
    "Valensi"
  ],
  "functions": [
    {
      "issuer": {
        "id": 11547,
        "name": "UNION DES COMPTOIRS D'OUTRE-MER (ex-Rouchard)"
      },
      "job": {
        "id": 10019,
        "name": "Commissaire des comptes"
      },
      "start_date": "1948-01-01",
      "end_date": "1948-12-31"
    }
  ],
  "name": "Valensi"
}