{
  "id": 108262,
  "names": [
    "comte Siffrein des Isnards"
  ],
  "functions": [
    {
      "issuer": {
        "id": 2871,
        "name": "COMPAGNIE DES PHOSPHATES DU DYR"
      },
      "job": {
        "id": 219,
        "name": "Administrateur"
      },
      "start_date": "1945-01-01",
      "end_date": "1953-12-31"
    }
  ],
  "name": "comte Siffrein des Isnards"
}