{
  "id": 102457,
  "names": [
    "P. Héring"
  ],
  "functions": [
    {
      "issuer": {
        "id": 4729,
        "name": "ELECTRICITE DE STRASBOURG"
      },
      "job": {
        "id": 219,
        "name": "Administrateur"
      },
      "start_date": "1940-01-01",
      "end_date": "1940-12-31"
    }
  ],
  "name": "P. Héring"
}