{
  "id": 99433,
  "names": [
    "Eugène Martel"
  ],
  "functions": [
    {
      "issuer": {
        "id": 3647,
        "name": "Société IMMOBILIERE DES FOIRES, EXPOSITIONS ET FETES DE LA VILLE DE PARIS ET DE LA RÉGION PARISIENNE"
      },
      "job": {
        "id": 101,
        "name": "Administrateur Délégué",
        "short_name": "Ad. Dél."
      },
      "start_date": "1940-01-01",
      "end_date": "1940-12-31"
    },
    {
      "issuer": {
        "id": 3647,
        "name": "Société IMMOBILIERE DES FOIRES, EXPOSITIONS ET FETES DE LA VILLE DE PARIS ET DE LA RÉGION PARISIENNE"
      },
      "job": {
        "id": 10259,
        "name": "Président-Directeur"
      },
      "start_date": "1945-01-01",
      "end_date": "1948-12-31"
    },
    {
      "issuer": {
        "id": 3647,
        "name": "Société IMMOBILIERE DES FOIRES, EXPOSITIONS ET FETES DE LA VILLE DE PARIS ET DE LA RÉGION PARISIENNE"
      },
      "job": {
        "id": 189,
        "name": "Président directeur général",
        "short_name": "P.D.G."
      },
      "start_date": "1953-01-01",
      "end_date": "1953-12-31"
    }
  ],
  "name": "Eugène Martel"
}