{
  "id": 102285,
  "names": [
    "de la Pleignière d’Adler"
  ],
  "functions": [
    {
      "issuer": {
        "id": 3954,
        "name": "AEROPLANES MORANE-SAULNIER"
      },
      "job": {
        "id": 219,
        "name": "Administrateur"
      },
      "start_date": "1940-01-01",
      "end_date": "1940-12-31"
    }
  ],
  "name": "de la Pleignière d’Adler"
}