{
  "id": 57244,
  "names": [
    "René-Achille Henry"
  ],
  "functions": [
    {
      "issuer": {
        "id": 3082,
        "name": "LA HAUTE SANGHA"
      },
      "job": {
        "id": 219,
        "name": "Administrateur"
      },
      "start_date": "1912-01-01",
      "end_date": "1912-12-31"
    },
    {
      "issuer": {
        "id": 3083,
        "name": "Cie Commerciale et Coloniale de la Kadei-Sangha"
      },
      "job": {
        "id": 219,
        "name": "Administrateur"
      },
      "start_date": "1912-01-01",
      "end_date": "1912-12-31"
    },
    {
      "issuer": {
        "id": 3767,
        "name": "COMPAGNIE FORESTIERE SANGHA-OUBANGUI"
      },
      "job": {
        "id": 219,
        "name": "Administrateur"
      },
      "start_date": "1917-01-01",
      "end_date": "1933-12-31"
    },
    {
      "issuer": {
        "id": 3767,
        "name": "COMPAGNIE FORESTIERE SANGHA-OUBANGUI"
      },
      "job": {
        "id": 219,
        "name": "Administrateur"
      },
      "start_date": "1940-01-01",
      "end_date": "1940-12-31"
    },
    {
      "issuer": {
        "id": 3563,
        "name": "COMPAGNIE DES CHEMINS DE FER SECONDAIRES DU NORD-EST"
      },
      "job": {
        "id": 219,
        "name": "Administrateur"
      },
      "start_date": "1945-01-01",
      "end_date": "1953-12-31"
    },
    {
      "issuer": {
        "id": 2441,
        "name": "Cie DES CHEMINS DE FER SECONDAIRES Anc. : Chemins de fer de la Banlieue de Reims et extensions"
      },
      "job": {
        "id": 219,
        "name": "Administrateur"
      },
      "start_date": "1945-01-01",
      "end_date": "1953-12-31"
    }
  ],
  "name": "René-Achille Henry"
}