{
  "id": 78329,
  "names": [
    "Auguste Zbinden"
  ],
  "functions": [
    {
      "issuer": {
        "id": 10593,
        "name": "ATELIERS DE CONSTRUCTIONS ÉLECTRIQUES DE LYON ET DU DAUPHINÉ"
      },
      "job": {
        "id": 219,
        "name": "Administrateur"
      },
      "start_date": "1923-01-01",
      "end_date": "1923-12-31"
    },
    {
      "issuer": {
        "id": 3714,
        "name": "SOCIETE DES ETABLISSEMENTS INDUSTRIELS DE E. C. GRAMMONT ET DE ALEXANDRE GRAMMONT"
      },
      "job": {
        "id": 219,
        "name": "Administrateur"
      },
      "start_date": "1923-01-01",
      "end_date": "1923-12-31"
    },
    {
      "issuer": {
        "id": 10614,
        "name": "SOCIÉTÉ ANONYME DE L'ESCALETTE"
      },
      "job": {
        "id": 219,
        "name": "Administrateur"
      },
      "start_date": "1927-01-01",
      "end_date": "1927-12-31"
    },
    {
      "issuer": {
        "id": 2374,
        "name": "BANQUE PRIVÉE, INDUSTRIELLE, COMMERCIALE, COLONIALE, LYON-MARSEILLE"
      },
      "job": {
        "id": 219,
        "name": "Administrateur"
      },
      "start_date": "1927-01-01",
      "end_date": "1927-12-31"
    },
    {
      "issuer": {
        "id": 4260,
        "name": "PAPETERIES NAVARRE"
      },
      "job": {
        "id": 219,
        "name": "Administrateur"
      },
      "start_date": "1933-01-01",
      "end_date": "1933-12-31"
    }
  ],
  "name": "Auguste Zbinden"
}