{
  "id": 91934,
  "names": [
    "H. Laloux-Ancion"
  ],
  "functions": [
    {
      "issuer": {
        "id": 5023,
        "name": "PLANTATIONS DE CAOUTCHOUC DE SUMATRA"
      },
      "job": {
        "id": 219,
        "name": "Administrateur"
      },
      "start_date": "1933-01-01",
      "end_date": "1933-12-31"
    },
    {
      "issuer": {
        "id": 5025,
        "name": "PLANTATIONS DE CAOUTCHOUC DE TAPANOELIE"
      },
      "job": {
        "id": 219,
        "name": "Administrateur"
      },
      "start_date": "1933-01-01",
      "end_date": "1933-12-31"
    }
  ],
  "name": "H. Laloux-Ancion"
}