{
  "id": 58291,
  "names": [
    "E. Koch"
  ],
  "functions": [
    {
      "issuer": {
        "id": 2961,
        "name": "PROWODNIK (En liquidation)"
      },
      "job": {
        "id": 219,
        "name": "Administrateur"
      },
      "start_date": "1912-01-01",
      "end_date": "1912-12-31"
    }
  ],
  "name": "E. Koch"
}