{
  "id": 89696,
  "names": [
    "A. Ducloux"
  ],
  "functions": [
    {
      "issuer": {
        "id": 3926,
        "name": "ETABLISSEMENTS ALPHONSE BINET"
      },
      "job": {
        "id": 219,
        "name": "Administrateur"
      },
      "start_date": "1933-01-01",
      "end_date": "1933-12-31"
    },
    {
      "issuer": {
        "id": 11450,
        "name": "SOCIETE DES MINES D'ARGUT"
      },
      "job": {
        "id": 219,
        "name": "Administrateur"
      },
      "start_date": "1935-01-01",
      "end_date": "1935-12-31"
    },
    {
      "issuer": {
        "id": 11450,
        "name": "SOCIETE DES MINES D'ARGUT"
      },
      "job": {
        "id": 219,
        "name": "Administrateur"
      },
      "start_date": "1937-01-01",
      "end_date": "1937-12-31"
    },
    {
      "issuer": {
        "id": 3926,
        "name": "ETABLISSEMENTS ALPHONSE BINET"
      },
      "job": {
        "id": 219,
        "name": "Administrateur"
      },
      "start_date": "1940-01-01",
      "end_date": "1940-12-31"
    }
  ],
  "name": "A. Ducloux"
}