{
  "id": 126582,
  "names": [
    "Max Fontaine"
  ],
  "functions": [
    {
      "issuer": {
        "id": 2932,
        "name": "Compania Huanchaca de Bolivia"
      },
      "job": {
        "id": 219,
        "name": "Administrateur"
      },
      "start_date": "1923-01-01",
      "end_date": "1933-12-31"
    },
    {
      "issuer": {
        "id": 2932,
        "name": "Compania Huanchaca de Bolivia"
      },
      "job": {
        "id": 102,
        "name": "Président",
        "short_name": "P."
      },
      "start_date": "1940-01-01",
      "end_date": "1948-12-31"
    }
  ],
  "name": "Max Fontaine"
}