{
  "id": 103979,
  "names": [
    "Georgi"
  ],
  "functions": [
    {
      "issuer": {
        "id": 3723,
        "name": "ETABLISSEMENTS JULIEN DAMOY"
      },
      "job": {
        "id": 219,
        "name": "Administrateur"
      },
      "start_date": "1940-01-01",
      "end_date": "1953-12-31"
    }
  ],
  "name": "Georgi"
}