{
  "id": 113928,
  "names": [
    "Merceron-Vicat"
  ],
  "functions": [
    {
      "issuer": {
        "id": 3994,
        "name": "SOCIETE POUR LA CONSTRUCTION ET L'ENTRETIEN DES ROUTES"
      },
      "job": {
        "id": 219,
        "name": "Administrateur"
      },
      "start_date": "1948-01-01",
      "end_date": "1953-12-31"
    }
  ],
  "name": "Merceron-Vicat"
}