{
  "id": 48269,
  "names": [
    "A. de Lapeyrière"
  ],
  "functions": [
    {
      "issuer": {
        "id": 2433,
        "name": "Société des Charbonnages de Trifail"
      },
      "job": {
        "id": 219,
        "name": "Administrateur"
      },
      "start_date": "1898-01-01",
      "end_date": "1923-12-31"
    }
  ],
  "name": "A. de Lapeyrière"
}