{
  "id": 85965,
  "names": [
    "Ch.-M. Labattud-Verdaud"
  ],
  "functions": [
    {
      "issuer": {
        "id": 3890,
        "name": "ENTREPOTS FRIGORIFIQUES DES HALLES DE PARIS"
      },
      "job": {
        "id": 219,
        "name": "Administrateur"
      },
      "start_date": "1933-01-01",
      "end_date": "1933-12-31"
    },
    {
      "issuer": {
        "id": 3890,
        "name": "ENTREPOTS FRIGORIFIQUES DES HALLES DE PARIS"
      },
      "job": {
        "id": 219,
        "name": "Administrateur"
      },
      "start_date": "1940-01-01",
      "end_date": "1945-12-31"
    }
  ],
  "name": "Ch.-M. Labattud-Verdaud"
}