{
  "id": 45525,
  "names": [
    "Saboulard"
  ],
  "functions": [
    {
      "issuer": {
        "id": 2328,
        "name": "Société anonyme de produits chimiques, Etablissements Malétra"
      },
      "job": {
        "id": 219,
        "name": "Administrateur"
      },
      "start_date": "1889-01-01",
      "end_date": "1889-12-31"
    }
  ],
  "name": "Saboulard"
}