{
  "id": 74332,
  "names": [
    "Bertrand"
  ],
  "functions": [
    {
      "issuer": {
        "id": 882,
        "name": "Comptoir de l'Industrie linière"
      },
      "job": {
        "id": 229,
        "name": "Gérant"
      },
      "start_date": "1923-01-01",
      "end_date": "1923-12-31"
    },
    {
      "issuer": {
        "id": 882,
        "name": "Comptoir de l'Industrie linière"
      },
      "job": {
        "id": 219,
        "name": "Administrateur"
      },
      "start_date": "1927-01-01",
      "end_date": "1927-12-31"
    },
    {
      "issuer": {
        "id": 882,
        "name": "Comptoir de l'Industrie linière"
      },
      "job": {
        "id": 229,
        "name": "Gérant"
      },
      "start_date": "1933-01-01",
      "end_date": "1933-12-31"
    },
    {
      "issuer": {
        "id": 3495,
        "name": "CHARBONNAGES DE FRANCE ET HOUILLERES DE BASSIN"
      },
      "job": {
        "id": 219,
        "name": "Administrateur"
      },
      "start_date": "1953-01-01",
      "end_date": "1953-12-31"
    }
  ],
  "name": "Bertrand"
}