{
  "id": 114312,
  "names": [
    "Cornat"
  ],
  "functions": [
    {
      "issuer": {
        "id": 3488,
        "name": "Electricité de France ()"
      },
      "job": {
        "id": 173,
        "name": "Ingenieur en Chef"
      },
      "start_date": "1948-01-01",
      "end_date": "1948-12-31"
    }
  ],
  "name": "Cornat"
}