{
  "id": 81417,
  "names": [
    "R. Delbort"
  ],
  "functions": [
    {
      "issuer": {
        "id": 10640,
        "name": "Etablissements Bravard Frères"
      },
      "job": {
        "id": 219,
        "name": "Administrateur"
      },
      "start_date": "1927-01-01",
      "end_date": "1927-12-31"
    }
  ],
  "name": "R. Delbort"
}