{
  "id": 90304,
  "names": [
    "Généra"
  ],
  "functions": [
    {
      "issuer": {
        "id": 4375,
        "name": "COMPAGNIE RADIO-FRANCE"
      },
      "job": {
        "id": 219,
        "name": "Administrateur"
      },
      "start_date": "1933-01-01",
      "end_date": "1933-12-31"
    }
  ],
  "name": "Généra"
}