{
  "id": 48144,
  "names": [
    "Moyne"
  ],
  "functions": [
    {
      "issuer": {
        "id": 2454,
        "name": "CIE DES CHEMINS DE FER DE LA DROME"
      },
      "job": {
        "id": 219,
        "name": "Administrateur"
      },
      "start_date": "1898-01-01",
      "end_date": "1898-12-31"
    },
    {
      "issuer": {
        "id": 2903,
        "name": "Société Française et Italienne des Houillères de Dombrowa"
      },
      "job": {
        "id": 219,
        "name": "Administrateur"
      },
      "start_date": "1898-01-01",
      "end_date": "1912-12-31"
    },
    {
      "issuer": {
        "id": 1330,
        "name": "Société de Commentry-Fourchambault"
      },
      "job": {
        "id": 103,
        "name": "Commissaire"
      },
      "start_date": "1903-01-01",
      "end_date": "1903-12-31"
    }
  ],
  "name": "Moyne"
}