{
  "id": 71327,
  "names": [
    "J. A. R. Stephenson"
  ],
  "functions": [
    {
      "issuer": {
        "id": 10093,
        "name": "GREAT COBAR LIMITED"
      },
      "job": {
        "id": 219,
        "name": "Administrateur"
      },
      "start_date": "1917-01-01",
      "end_date": "1917-12-31"
    }
  ],
  "name": "J. A. R. Stephenson"
}