{
  "id": 41883,
  "names": [
    "baron de Livois"
  ],
  "functions": [
    {
      "issuer": {
        "id": 1244,
        "name": "Caisse générale des assurances agricoles et des assurances contre l'incendie"
      },
      "job": {
        "id": 219,
        "name": "Administrateur"
      },
      "start_date": "1883-01-01",
      "end_date": "1883-12-31"
    },
    {
      "issuer": {
        "id": 1244,
        "name": "Caisse générale des assurances agricoles et des assurances contre l'incendie"
      },
      "job": {
        "id": 117,
        "name": "Vice-Président",
        "short_name": "V.-Pr."
      },
      "start_date": "1889-01-01",
      "end_date": "1889-12-31"
    },
    {
      "issuer": {
        "id": 664,
        "name": "Caisse Générale des Familles, Assurances sur la Vie et de pret viager"
      },
      "job": {
        "id": 219,
        "name": "Administrateur"
      },
      "start_date": "1893-01-01",
      "end_date": "1893-12-31"
    },
    {
      "issuer": {
        "id": 2082,
        "name": "LA MÉTROPOLE COMPAGNIE D'ASSURANCES CONTRE L'INCENDIE"
      },
      "job": {
        "id": 219,
        "name": "Administrateur"
      },
      "start_date": "1893-01-01",
      "end_date": "1898-12-31"
    },
    {
      "issuer": {
        "id": 664,
        "name": "Caisse Générale des Familles, Assurances sur la Vie et de pret viager"
      },
      "job": {
        "id": 219,
        "name": "Administrateur"
      },
      "start_date": "1898-01-01",
      "end_date": "1898-12-31"
    },
    {
      "issuer": {
        "id": 2082,
        "name": "LA MÉTROPOLE COMPAGNIE D'ASSURANCES CONTRE L'INCENDIE"
      },
      "job": {
        "id": 117,
        "name": "Vice-Président",
        "short_name": "V.-Pr."
      },
      "start_date": "1903-01-01",
      "end_date": "1903-12-31"
    },
    {
      "issuer": {
        "id": 2082,
        "name": "LA MÉTROPOLE COMPAGNIE D'ASSURANCES CONTRE L'INCENDIE"
      },
      "job": {
        "id": 117,
        "name": "Vice-Président",
        "short_name": "V.-Pr."
      },
      "start_date": "1908-01-01",
      "end_date": "1908-12-31"
    }
  ],
  "name": "baron de Livois"
}