{
  "id": 99251,
  "names": [
    "G. A. Hutter"
  ],
  "functions": [
    {
      "issuer": {
        "id": 4607,
        "name": "PEINTURES ASTRAL CELLUCO (Ex Les Fils Lévy-Finger-Celluco)"
      },
      "job": {
        "id": 10019,
        "name": "Commissaire des comptes"
      },
      "start_date": "1940-01-01",
      "end_date": "1940-12-31"
    },
    {
      "issuer": {
        "id": 5131,
        "name": "ETABLISSEMENTS HENRY HAMELLE"
      },
      "job": {
        "id": 10258,
        "name": "Suppléant"
      },
      "start_date": "1940-01-01",
      "end_date": "1945-12-31"
    },
    {
      "issuer": {
        "id": 5131,
        "name": "ETABLISSEMENTS HENRY HAMELLE"
      },
      "job": {
        "id": 16233,
        "name": "Commissaire des comptes adjoint"
      },
      "start_date": "1948-01-01",
      "end_date": "1948-12-31"
    },
    {
      "issuer": {
        "id": 5131,
        "name": "ETABLISSEMENTS HENRY HAMELLE"
      },
      "job": {
        "id": 10019,
        "name": "Commissaire des comptes"
      },
      "start_date": "1953-01-01",
      "end_date": "1953-12-31"
    }
  ],
  "name": "G. A. Hutter"
}