{
  "id": 107956,
  "names": [
    "Société Industrielle et Financière d’Electricité"
  ],
  "functions": [
    {
      "issuer": {
        "id": 2282,
        "name": "FORCES MOTRICES DES PYRENEES CENTRALES"
      },
      "job": {
        "id": 219,
        "name": "Administrateur"
      },
      "start_date": "1945-01-01",
      "end_date": "1945-12-31"
    }
  ],
  "name": "Société Industrielle et Financière d’Electricité"
}