{
  "id": 96392,
  "names": [
    "A. Baar"
  ],
  "functions": [
    {
      "issuer": {
        "id": 2383,
        "name": "CIE FINANCIERE ET INDUSTRIELLE COFININDUS (Anciennement Cie Financière et Industrielle d'Ougrée)"
      },
      "job": {
        "id": 10019,
        "name": "Commissaire des comptes"
      },
      "start_date": "1940-01-01",
      "end_date": "1940-12-31"
    },
    {
      "issuer": {
        "id": 5185,
        "name": "ELECTRICITE DE BEYROUTH (Anciennement Tramways et Eclairage de Beyrouth)"
      },
      "job": {
        "id": 219,
        "name": "Administrateur"
      },
      "start_date": "1940-01-01",
      "end_date": "1940-12-31"
    },
    {
      "issuer": {
        "id": 11464,
        "name": "SOCIÉTÉ ANONYME D'OUGRÉE-MARIHAYE"
      },
      "job": {
        "id": 219,
        "name": "Administrateur"
      },
      "start_date": "1940-01-01",
      "end_date": "1940-12-31"
    }
  ],
  "name": "A. Baar"
}