{
  "id": 62879,
  "names": [
    "C.-A. Charnier"
  ],
  "functions": [
    {
      "issuer": {
        "id": 5252,
        "name": "ANGLO-CONTINENTAL SUPPLY COMPANY LIMITED \"Au Planteur de Caïffa\""
      },
      "job": {
        "id": 219,
        "name": "Administrateur"
      },
      "start_date": "1917-01-01",
      "end_date": "1923-12-31"
    }
  ],
  "name": "C.-A. Charnier"
}