{
  "id": 103919,
  "names": [
    "R. R. Brewis"
  ],
  "functions": [
    {
      "issuer": {
        "id": 3200,
        "name": "SOCIÉTÉ GÉNÉRALE DES SUCRERIES ET DE LA RAFFINERIE D'EGYPTE"
      },
      "job": {
        "id": 10019,
        "name": "Commissaire des comptes"
      },
      "start_date": "1940-01-01",
      "end_date": "1940-12-31"
    },
    {
      "issuer": {
        "id": 3200,
        "name": "SOCIÉTÉ GÉNÉRALE DES SUCRERIES ET DE LA RAFFINERIE D'EGYPTE"
      },
      "job": {
        "id": 10019,
        "name": "Commissaire des comptes"
      },
      "start_date": "1945-01-01",
      "end_date": "1945-12-31"
    },
    {
      "issuer": {
        "id": 10251,
        "name": "BANQUE NATIONALE D'EGYPTE"
      },
      "job": {
        "id": 10242,
        "name": "sous-censseur"
      },
      "start_date": "1945-01-01",
      "end_date": "1945-12-31"
    }
  ],
  "name": "R. R. Brewis"
}