{
  "id": 54597,
  "names": [
    "Jean Mirabaud"
  ],
  "functions": [
    {
      "issuer": {
        "id": 3061,
        "name": "HOUILLÈRES ET CHEMIN DE FER D'ÉPINAC"
      },
      "job": {
        "id": 219,
        "name": "Administrateur"
      },
      "start_date": "1908-01-01",
      "end_date": "1908-12-31"
    },
    {
      "issuer": {
        "id": 3061,
        "name": "HOUILLÈRES ET CHEMIN DE FER D'ÉPINAC"
      },
      "job": {
        "id": 219,
        "name": "Administrateur"
      },
      "start_date": "1912-01-01",
      "end_date": "1912-12-31"
    },
    {
      "issuer": {
        "id": 1320,
        "name": "SOCIÉTÉ DES MINES ET FONDERIES DE PONTGIBAUD"
      },
      "job": {
        "id": 219,
        "name": "Administrateur"
      },
      "start_date": "1912-01-01",
      "end_date": "1912-12-31"
    },
    {
      "issuer": {
        "id": 2949,
        "name": "STé GLE DE TOUAGE ET DE REMORQUAGE"
      },
      "job": {
        "id": 219,
        "name": "Administrateur"
      },
      "start_date": "1912-01-01",
      "end_date": "1912-12-31"
    },
    {
      "issuer": {
        "id": 1748,
        "name": "Société FRANÇAISE DE REPORTS ET DEPOTS"
      },
      "job": {
        "id": 219,
        "name": "Administrateur"
      },
      "start_date": "1917-01-01",
      "end_date": "1917-12-31"
    },
    {
      "issuer": {
        "id": 2030,
        "name": "SOCIÉTÉ ANONYME DES GLACIÈRES DE PARIS"
      },
      "job": {
        "id": 219,
        "name": "Administrateur"
      },
      "start_date": "1917-01-01",
      "end_date": "1927-12-31"
    },
    {
      "issuer": {
        "id": 3163,
        "name": "COMPAGNIE FRANÇAISE DES MINES DE BOR"
      },
      "job": {
        "id": 219,
        "name": "Administrateur"
      },
      "start_date": "1923-01-01",
      "end_date": "1933-12-31"
    },
    {
      "issuer": {
        "id": 3419,
        "name": "SOCIÉTÉ DES EAUX MINÉRALES D'ÉVIAN-LES-BAINS"
      },
      "job": {
        "id": 219,
        "name": "Administrateur"
      },
      "start_date": "1927-01-01",
      "end_date": "1927-12-31"
    },
    {
      "issuer": {
        "id": 3163,
        "name": "COMPAGNIE FRANÇAISE DES MINES DE BOR"
      },
      "job": {
        "id": 219,
        "name": "Administrateur"
      },
      "start_date": "1940-01-01",
      "end_date": "1940-12-31"
    }
  ],
  "name": "Jean Mirabaud"
}