{
  "id": 102804,
  "names": [
    "C.-E. Cleeve"
  ],
  "functions": [
    {
      "issuer": {
        "id": 10997,
        "name": "ERINOID (Ex-Omnilithe)"
      },
      "job": {
        "id": 219,
        "name": "Administrateur"
      },
      "start_date": "1940-01-01",
      "end_date": "1948-12-31"
    }
  ],
  "name": "C.-E. Cleeve"
}