{
  "id": 98971,
  "names": [
    "E. Saviniat"
  ],
  "functions": [
    {
      "issuer": {
        "id": 2627,
        "name": "TRAMWAYS ÉLECTRIQUES DE DOUAI"
      },
      "job": {
        "id": 219,
        "name": "Administrateur"
      },
      "start_date": "1940-01-01",
      "end_date": "1953-12-31"
    }
  ],
  "name": "E. Saviniat"
}