{
  "id": 71292,
  "names": [
    "L. Brodsky"
  ],
  "functions": [
    {
      "issuer": {
        "id": 3165,
        "name": "SOCIÉTÉ FINANCIÈRE CUIVRE ET PYRITES POUR LE COMMERCE ET L'INDUSTRIE"
      },
      "job": {
        "id": 219,
        "name": "Administrateur"
      },
      "start_date": "1917-01-01",
      "end_date": "1923-12-31"
    }
  ],
  "name": "L. Brodsky"
}