{
  "id": 50064,
  "names": [
    "M. Troost"
  ],
  "functions": [
    {
      "issuer": {
        "id": 638,
        "name": "Compagnie parisienne d'éclairage et de chauffage par le gaz"
      },
      "job": {
        "id": 102,
        "name": "Président",
        "short_name": "P."
      },
      "start_date": "1903-01-01",
      "end_date": "1903-12-31"
    }
  ],
  "name": "M. Troost"
}