{
  "id": 121227,
  "names": [
    "P. Aubin"
  ],
  "functions": [
    {
      "issuer": {
        "id": 4292,
        "name": "EDITIONS BOURRELIER"
      },
      "job": {
        "id": 219,
        "name": "Administrateur"
      },
      "start_date": "1953-01-01",
      "end_date": "1953-12-31"
    }
  ],
  "name": "P. Aubin"
}