{
  "id": 116212,
  "names": [
    "Société d'Entreprises"
  ],
  "functions": [
    {
      "issuer": {
        "id": 3500,
        "name": "MINES DE VAGNAS"
      },
      "job": {
        "id": 219,
        "name": "Administrateur"
      },
      "start_date": "1953-01-01",
      "end_date": "1953-12-31"
    }
  ],
  "name": "Société d'Entreprises"
}