{
  "id": 124058,
  "names": [
    "A. Vemhette"
  ],
  "functions": [
    {
      "issuer": {
        "id": 2102,
        "name": "Le Temps, Compagnie d'assurances à primes fixes"
      },
      "job": {
        "id": 219,
        "name": "Administrateur"
      },
      "start_date": "1880-01-01",
      "end_date": "1880-12-31"
    }
  ],
  "name": "A. Vemhette"
}