{
  "id": 95436,
  "names": [
    "Luton"
  ],
  "functions": [
    {
      "issuer": {
        "id": 11042,
        "name": "SOCIÉTÉ FRANÇAISE DE PRODUITS PHARMACEUTIQUES (anciennement Adrian et Cie)"
      },
      "job": {
        "id": 102,
        "name": "Président",
        "short_name": "P."
      },
      "start_date": "1940-01-01",
      "end_date": "1940-12-31"
    }
  ],
  "name": "Luton"
}