{
  "id": 95331,
  "names": [
    "Ganière"
  ],
  "functions": [
    {
      "issuer": {
        "id": 4641,
        "name": "POTASSE ET ENGRAIS CHIMIQUES"
      },
      "job": {
        "id": 219,
        "name": "Administrateur"
      },
      "start_date": "1940-01-01",
      "end_date": "1940-12-31"
    }
  ],
  "name": "Ganière"
}