{
  "id": 99859,
  "names": [
    "J. Dauteroche"
  ],
  "functions": [
    {
      "issuer": {
        "id": 2867,
        "name": "SOCIETE DES MINES DES MALINES"
      },
      "job": {
        "id": 219,
        "name": "Administrateur"
      },
      "start_date": "1940-01-01",
      "end_date": "1940-12-31"
    }
  ],
  "name": "J. Dauteroche"
}