{
  "id": 124399,
  "names": [
    "don Al. Llorente"
  ],
  "functions": [
    {
      "issuer": {
        "id": 1493,
        "name": "Banque Hypothécaire d'Espagne"
      },
      "job": {
        "id": 106,
        "name": "Gouverneur",
        "short_name": "Gouv."
      },
      "start_date": "1880-01-01",
      "end_date": "1880-12-31"
    }
  ],
  "name": "don Al. Llorente"
}