{
  "id": 111049,
  "names": [
    "A. Prouharam"
  ],
  "functions": [
    {
      "issuer": {
        "id": 566,
        "name": "Crédit Foncier de France"
      },
      "job": {
        "id": 138,
        "name": "Censeur",
        "short_name": "Cens."
      },
      "start_date": "1948-01-01",
      "end_date": "1948-12-31"
    },
    {
      "issuer": {
        "id": 4158,
        "name": "ÉTABLISSETS CAREL, FOUCHÉ ET Cie"
      },
      "job": {
        "id": 219,
        "name": "Administrateur"
      },
      "start_date": "1948-01-01",
      "end_date": "1948-12-31"
    }
  ],
  "name": "A. Prouharam"
}