{
  "id": 84763,
  "names": [
    "C. Weil"
  ],
  "functions": [
    {
      "issuer": {
        "id": 3327,
        "name": "STÉ ANME DES CHAUSSURES \" INCROYABLE \""
      },
      "job": {
        "id": 219,
        "name": "Administrateur"
      },
      "start_date": "1933-01-01",
      "end_date": "1933-12-31"
    }
  ],
  "name": "C. Weil"
}