{
  "id": 97961,
  "names": [
    "J. Stétanopoulos"
  ],
  "functions": [
    {
      "issuer": {
        "id": 3249,
        "name": "Cie DES CHEMINS DE FER DE THESSALIE"
      },
      "job": {
        "id": 219,
        "name": "Administrateur"
      },
      "start_date": "1940-01-01",
      "end_date": "1948-12-31"
    }
  ],
  "name": "J. Stétanopoulos"
}