{
  "id": 119419,
  "names": [
    "A. Grobet"
  ],
  "functions": [
    {
      "issuer": {
        "id": 11576,
        "name": "Societe UMAS Arc-et-Senans (Doubs)"
      },
      "job": {
        "id": 189,
        "name": "Président directeur général",
        "short_name": "P.D.G."
      },
      "start_date": "1953-01-01",
      "end_date": "1953-12-31"
    }
  ],
  "name": "A. Grobet"
}