{
  "id": 90712,
  "names": [
    "prince de Robeck"
  ],
  "functions": [
    {
      "issuer": {
        "id": 3479,
        "name": "COMPAGNIE DES PRODUITS CHIMIQUES ET ÉLECTRO-MÉTALLURGIQUES ALAIS, FROGES ET CAMARGUE"
      },
      "job": {
        "id": 219,
        "name": "Administrateur"
      },
      "start_date": "1933-01-01",
      "end_date": "1933-12-31"
    },
    {
      "issuer": {
        "id": 365,
        "name": "La Providence, Compagnie d'assurances contre l'incendie"
      },
      "job": {
        "id": 219,
        "name": "Administrateur"
      },
      "start_date": "1933-01-01",
      "end_date": "1933-12-31"
    },
    {
      "issuer": {
        "id": 1660,
        "name": "COMPAGNIE HOUILLERE DE BESSEGES"
      },
      "job": {
        "id": 117,
        "name": "Vice-Président",
        "short_name": "V.-Pr."
      },
      "start_date": "1933-01-01",
      "end_date": "1933-12-31"
    },
    {
      "issuer": {
        "id": 365,
        "name": "La Providence, Compagnie d'assurances contre l'incendie"
      },
      "job": {
        "id": 219,
        "name": "Administrateur"
      },
      "start_date": "1940-01-01",
      "end_date": "1940-12-31"
    },
    {
      "issuer": {
        "id": 3578,
        "name": "L'Union des Mines"
      },
      "job": {
        "id": 219,
        "name": "Administrateur"
      },
      "start_date": "1940-01-01",
      "end_date": "1940-12-31"
    },
    {
      "issuer": {
        "id": 3479,
        "name": "COMPAGNIE DES PRODUITS CHIMIQUES ET ÉLECTRO-MÉTALLURGIQUES ALAIS, FROGES ET CAMARGUE"
      },
      "job": {
        "id": 219,
        "name": "Administrateur"
      },
      "start_date": "1940-01-01",
      "end_date": "1940-12-31"
    },
    {
      "issuer": {
        "id": 1660,
        "name": "COMPAGNIE HOUILLERE DE BESSEGES"
      },
      "job": {
        "id": 102,
        "name": "Président",
        "short_name": "P."
      },
      "start_date": "1940-01-01",
      "end_date": "1940-12-31"
    },
    {
      "issuer": {
        "id": 2120,
        "name": "LA PROVIDENCE CIE D'ASSURANCES A PRIMES FIXES CONTRE LES ACCIDENTS"
      },
      "job": {
        "id": 219,
        "name": "Administrateur"
      },
      "start_date": "1940-01-01",
      "end_date": "1945-12-31"
    },
    {
      "issuer": {
        "id": 1660,
        "name": "COMPAGNIE HOUILLERE DE BESSEGES"
      },
      "job": {
        "id": 117,
        "name": "Vice-Président",
        "short_name": "V.-Pr."
      },
      "start_date": "1945-01-01",
      "end_date": "1945-12-31"
    },
    {
      "issuer": {
        "id": 365,
        "name": "La Providence, Compagnie d'assurances contre l'incendie"
      },
      "job": {
        "id": 219,
        "name": "Administrateur"
      },
      "start_date": "1948-01-01",
      "end_date": "1948-12-31"
    }
  ],
  "name": "prince de Robeck"
}