{
  "id": 102144,
  "names": [
    "C. Adamski"
  ],
  "functions": [
    {
      "issuer": {
        "id": 5484,
        "name": "USINES DE FABRICATION DE TUBES ET DES FORGES DE SOSNOWICE"
      },
      "job": {
        "id": 10637,
        "name": "Membre du Comité de surveillance"
      },
      "start_date": "1940-01-01",
      "end_date": "1940-12-31"
    }
  ],
  "name": "C. Adamski"
}