{
  "id": 45396,
  "names": [
    "Angilbert"
  ],
  "functions": [
    {
      "issuer": {
        "id": 2687,
        "name": "Diamants (Ce générale de Mines de)"
      },
      "job": {
        "id": 219,
        "name": "Administrateur"
      },
      "start_date": "1889-01-01",
      "end_date": "1889-12-31"
    }
  ],
  "name": "Angilbert"
}