{
  "id": 58315,
  "names": [
    "L. Tronchet"
  ],
  "functions": [
    {
      "issuer": {
        "id": 10373,
        "name": "RAFFINERIE FRANÇOIS"
      },
      "job": {
        "id": 219,
        "name": "Administrateur"
      },
      "start_date": "1912-01-01",
      "end_date": "1933-12-31"
    }
  ],
  "name": "L. Tronchet"
}