{
  "id": 113904,
  "names": [
    "Barret"
  ],
  "functions": [
    {
      "issuer": {
        "id": 3978,
        "name": "SOCIETE ANONYME DES CIMENTS VICAT"
      },
      "job": {
        "id": 10019,
        "name": "Commissaire des comptes"
      },
      "start_date": "1948-01-01",
      "end_date": "1948-12-31"
    }
  ],
  "name": "Barret"
}