{
  "id": 86024,
  "names": [
    "Boy"
  ],
  "functions": [
    {
      "issuer": {
        "id": 2558,
        "name": "Compagnie générale d'Eaux minérales et de Bains de mer"
      },
      "job": {
        "id": 219,
        "name": "Administrateur"
      },
      "start_date": "1933-01-01",
      "end_date": "1933-12-31"
    }
  ],
  "name": "Boy"
}