{
  "id": 63703,
  "names": [
    "Georges Collignon"
  ],
  "functions": [
    {
      "issuer": {
        "id": 10077,
        "name": "COMPAGNIE FRANÇAISE DE CHEMINS DE FER DE L'ÉQUATEUR"
      },
      "job": {
        "id": 219,
        "name": "Administrateur"
      },
      "start_date": "1917-01-01",
      "end_date": "1927-12-31"
    },
    {
      "issuer": {
        "id": 10776,
        "name": "GRANDE BRASSERIE ORLÉANAISE SCHMETZ"
      },
      "job": {
        "id": 219,
        "name": "Administrateur"
      },
      "start_date": "1927-01-01",
      "end_date": "1927-12-31"
    }
  ],
  "name": "Georges Collignon"
}