{
  "id": 97833,
  "names": [
    "Barrow"
  ],
  "functions": [
    {
      "issuer": {
        "id": 4986,
        "name": "INTERNATIONAL RWYS OF CENTRAL AMERICA"
      },
      "job": {
        "id": 10019,
        "name": "Commissaire des comptes"
      },
      "start_date": "1940-01-01",
      "end_date": "1948-12-31"
    }
  ],
  "name": "Barrow"
}