{
  "id": 48947,
  "names": [
    "L. Schweigert"
  ],
  "functions": [
    {
      "issuer": {
        "id": 979,
        "name": "Compagnie des Chemins de fer du Sud de l'Autriche"
      },
      "job": {
        "id": 219,
        "name": "Administrateur"
      },
      "start_date": "1898-01-01",
      "end_date": "1898-12-31"
    },
    {
      "issuer": {
        "id": 979,
        "name": "Compagnie des Chemins de fer du Sud de l'Autriche"
      },
      "job": {
        "id": 10624,
        "name": "Administrateur à Vienne"
      },
      "start_date": "1903-01-01",
      "end_date": "1903-12-31"
    }
  ],
  "name": "L. Schweigert"
}