{
  "id": 108204,
  "names": [
    "E. Roze"
  ],
  "functions": [
    {
      "issuer": {
        "id": 4725,
        "name": "ETABLISSEMENTS SILBERT ET RIPERT FRÈRES (Société Française de Drogues et Produits Chimiques)"
      },
      "job": {
        "id": 102,
        "name": "Président",
        "short_name": "P."
      },
      "start_date": "1945-01-01",
      "end_date": "1948-12-31"
    },
    {
      "issuer": {
        "id": 4725,
        "name": "ETABLISSEMENTS SILBERT ET RIPERT FRÈRES (Société Française de Drogues et Produits Chimiques)"
      },
      "job": {
        "id": 219,
        "name": "Administrateur"
      },
      "start_date": "1953-01-01",
      "end_date": "1953-12-31"
    }
  ],
  "name": "E. Roze"
}