{
  "id": 106639,
  "names": [
    "A. Huguier"
  ],
  "functions": [
    {
      "issuer": {
        "id": 4533,
        "name": "MINES DE FER DE MILIANA"
      },
      "job": {
        "id": 219,
        "name": "Administrateur"
      },
      "start_date": "1945-01-01",
      "end_date": "1945-12-31"
    },
    {
      "issuer": {
        "id": 4533,
        "name": "MINES DE FER DE MILIANA"
      },
      "job": {
        "id": 102,
        "name": "Président",
        "short_name": "P."
      },
      "start_date": "1948-01-01",
      "end_date": "1953-12-31"
    }
  ],
  "name": "A. Huguier"
}