{
  "id": 80403,
  "names": [
    "C. Hockley"
  ],
  "functions": [
    {
      "issuer": {
        "id": 2837,
        "name": "THE BECHUANALAND EXPLORATION C° LTD"
      },
      "job": {
        "id": 219,
        "name": "Administrateur"
      },
      "start_date": "1927-01-01",
      "end_date": "1933-12-31"
    },
    {
      "issuer": {
        "id": 2837,
        "name": "THE BECHUANALAND EXPLORATION C° LTD"
      },
      "job": {
        "id": 219,
        "name": "Administrateur"
      },
      "start_date": "1940-01-01",
      "end_date": "1953-12-31"
    }
  ],
  "name": "C. Hockley"
}