{
  "id": 56956,
  "names": [
    "T. Belozersky"
  ],
  "functions": [
    {
      "issuer": {
        "id": 10345,
        "name": "Société de Production de Naphte G. M. Lianosoff"
      },
      "job": {
        "id": 219,
        "name": "Administrateur"
      },
      "start_date": "1912-01-01",
      "end_date": "1927-12-31"
    },
    {
      "issuer": {
        "id": 10383,
        "name": "THE RUSSIAN GENERAL OIL CORPORATION"
      },
      "job": {
        "id": 219,
        "name": "Administrateur"
      },
      "start_date": "1917-01-01",
      "end_date": "1927-12-31"
    }
  ],
  "name": "T. Belozersky"
}