{
  "id": 121697,
  "names": [
    "A. Beaune"
  ],
  "functions": [
    {
      "issuer": {
        "id": 2691,
        "name": "SOCIÉTÉ DES EAUX MINÉRALES DE CHATEL-GUYON"
      },
      "job": {
        "id": 219,
        "name": "Administrateur"
      },
      "start_date": "1953-01-01",
      "end_date": "1953-12-31"
    }
  ],
  "name": "A. Beaune"
}