{
  "id": 120350,
  "names": [
    "P.-A. Dubois"
  ],
  "functions": [
    {
      "issuer": {
        "id": 4715,
        "name": "SOCIETE TECHNIQUE DE PARFUMERIE"
      },
      "job": {
        "id": 219,
        "name": "Administrateur"
      },
      "start_date": "1953-01-01",
      "end_date": "1953-12-31"
    }
  ],
  "name": "P.-A. Dubois"
}