{
  "id": 41110,
  "names": [
    "J. W. Larking"
  ],
  "functions": [
    {
      "issuer": {
        "id": 1259,
        "name": "Banque impériale Ottomane"
      },
      "job": {
        "id": 10236,
        "name": "administrateur à Londres"
      },
      "start_date": "1880-01-01",
      "end_date": "1883-12-31"
    },
    {
      "issuer": {
        "id": 1259,
        "name": "Banque impériale Ottomane"
      },
      "job": {
        "id": 11221,
        "name": "Membre du comité Central à Londres"
      },
      "start_date": "1889-01-01",
      "end_date": "1889-12-31"
    }
  ],
  "name": "J. W. Larking"
}