{
  "id": 83325,
  "names": [
    "A. Odero"
  ],
  "functions": [
    {
      "issuer": {
        "id": 2390,
        "name": "Banca Commerciale Italiana"
      },
      "job": {
        "id": 219,
        "name": "Administrateur"
      },
      "start_date": "1927-01-01",
      "end_date": "1927-12-31"
    }
  ],
  "name": "A. Odero"
}