{
  "id": 90824,
  "names": [
    "J. Piat"
  ],
  "functions": [
    {
      "issuer": {
        "id": 10748,
        "name": "Explosifs Minélite"
      },
      "job": {
        "id": 219,
        "name": "Administrateur"
      },
      "start_date": "1933-01-01",
      "end_date": "1933-12-31"
    },
    {
      "issuer": {
        "id": 3926,
        "name": "ETABLISSEMENTS ALPHONSE BINET"
      },
      "job": {
        "id": 219,
        "name": "Administrateur"
      },
      "start_date": "1953-01-01",
      "end_date": "1953-12-31"
    }
  ],
  "name": "J. Piat"
}