{
  "id": 85113,
  "names": [
    "M.A. Maira"
  ],
  "functions": [
    {
      "issuer": {
        "id": 2896,
        "name": "The Lautaro Nitrate Company, limited"
      },
      "job": {
        "id": 219,
        "name": "Administrateur"
      },
      "start_date": "1933-01-01",
      "end_date": "1933-12-31"
    }
  ],
  "name": "M.A. Maira"
}