{
  "id": 45488,
  "names": [
    "G. Coquelin"
  ],
  "functions": [
    {
      "issuer": {
        "id": 2320,
        "name": "Société anonyme du Restaurant et des Caves du Café Anglais"
      },
      "job": {
        "id": 219,
        "name": "Administrateur"
      },
      "start_date": "1889-01-01",
      "end_date": "1889-12-31"
    }
  ],
  "name": "G. Coquelin"
}