{
  "id": 90481,
  "names": [
    "Aciéries et Forges de Firminy"
  ],
  "functions": [
    {
      "issuer": {
        "id": 5227,
        "name": "SOCIETE DE TRANSPORT D'ENERGIE DU CENTRE"
      },
      "job": {
        "id": 219,
        "name": "Administrateur"
      },
      "start_date": "1933-01-01",
      "end_date": "1933-12-31"
    },
    {
      "issuer": {
        "id": 4898,
        "name": "\"LA DALMATIENNE\" SOCIETE FRANÇAISE DES FORCES HYDRO-ELECTRIQUES DE LA DALMATIE"
      },
      "job": {
        "id": 219,
        "name": "Administrateur"
      },
      "start_date": "1940-01-01",
      "end_date": "1940-12-31"
    },
    {
      "issuer": {
        "id": 5438,
        "name": "SOCIETE CENTRALE DE CHARBONNAGES (S.O.C.C.)"
      },
      "job": {
        "id": 219,
        "name": "Administrateur"
      },
      "start_date": "1940-01-01",
      "end_date": "1948-12-31"
    },
    {
      "issuer": {
        "id": 4158,
        "name": "ÉTABLISSETS CAREL, FOUCHÉ ET Cie"
      },
      "job": {
        "id": 219,
        "name": "Administrateur"
      },
      "start_date": "1945-01-01",
      "end_date": "1953-12-31"
    },
    {
      "issuer": {
        "id": 4166,
        "name": "SOCIÉTÉ DES ETABLISSEMENTS COULAUX ET CIE"
      },
      "job": {
        "id": 219,
        "name": "Administrateur"
      },
      "start_date": "1948-01-01",
      "end_date": "1953-12-31"
    }
  ],
  "name": "Aciéries et Forges de Firminy"
}