{
  "id": 74058,
  "names": [
    "R.-Y. Manàut"
  ],
  "functions": [
    {
      "issuer": {
        "id": 3013,
        "name": "SOCIÉTÉ ANONYME DU \"PETIT JOURNAL\""
      },
      "job": {
        "id": 219,
        "name": "Administrateur"
      },
      "start_date": "1923-01-01",
      "end_date": "1923-12-31"
    }
  ],
  "name": "R.-Y. Manàut"
}