{
  "id": 110597,
  "names": [
    "M. A. Anziani"
  ],
  "functions": [
    {
      "issuer": {
        "id": 3044,
        "name": "BANQUE DE L'AFRIQUE OCCIDENTALE"
      },
      "job": {
        "id": 139,
        "name": "Commissaire du Gouvernement"
      },
      "start_date": "1948-01-01",
      "end_date": "1948-12-31"
    }
  ],
  "name": "M. A. Anziani"
}