{
  "id": 75242,
  "names": [
    "J. R. de Pinbo"
  ],
  "functions": [
    {
      "issuer": {
        "id": 2893,
        "name": "Compagnie des Tabacs de Portugal"
      },
      "job": {
        "id": 219,
        "name": "Administrateur"
      },
      "start_date": "1923-01-01",
      "end_date": "1923-12-31"
    }
  ],
  "name": "J. R. de Pinbo"
}