{
  "id": 59708,
  "names": [
    "G. Wilenkin"
  ],
  "functions": [
    {
      "issuer": {
        "id": 3455,
        "name": "Banque Russe du Commerce et de l'Industrie"
      },
      "job": {
        "id": 219,
        "name": "Administrateur"
      },
      "start_date": "1917-01-01",
      "end_date": "1927-12-31"
    }
  ],
  "name": "G. Wilenkin"
}