{
  "id": 112190,
  "names": [
    "A. Falcimaigne"
  ],
  "functions": [
    {
      "issuer": {
        "id": 5341,
        "name": "SOCIÉTÉ FRANÇAISE DES ACIERIES DE BLANC-MISSERON"
      },
      "job": {
        "id": 10019,
        "name": "Commissaire des comptes"
      },
      "start_date": "1948-01-01",
      "end_date": "1953-12-31"
    }
  ],
  "name": "A. Falcimaigne"
}