{
  "id": 103566,
  "names": [
    "R. Brianza"
  ],
  "functions": [
    {
      "issuer": {
        "id": 4246,
        "name": "EAUX MINERALES DE CHARBONNIERES-LES-BAINS"
      },
      "job": {
        "id": 219,
        "name": "Administrateur"
      },
      "start_date": "1940-01-01",
      "end_date": "1948-12-31"
    }
  ],
  "name": "R. Brianza"
}