{
  "id": 63595,
  "names": [
    "E. Féret"
  ],
  "functions": [
    {
      "issuer": {
        "id": 3223,
        "name": "EL BUEN TONO Compagnie manufacturière de cigarettes sans colle"
      },
      "job": {
        "id": 10634,
        "name": "Membre du comité de Paris"
      },
      "start_date": "1917-01-01",
      "end_date": "1923-12-31"
    },
    {
      "issuer": {
        "id": 4213,
        "name": "ÉTABLISSEMENTS SAMGA ET BAVOX RÉUNIS"
      },
      "job": {
        "id": 10019,
        "name": "Commissaire des comptes"
      },
      "start_date": "1940-01-01",
      "end_date": "1940-12-31"
    }
  ],
  "name": "E. Féret"
}