{
  "id": 90313,
  "names": [
    "Pierre Durant"
  ],
  "functions": [
    {
      "issuer": {
        "id": 5394,
        "name": "Forces Motrices du Refrain"
      },
      "job": {
        "id": 102,
        "name": "Président",
        "short_name": "P."
      },
      "start_date": "1933-01-01",
      "end_date": "1933-12-31"
    }
  ],
  "name": "Pierre Durant"
}