{
  "id": 55451,
  "names": [
    "E. Brizon"
  ],
  "functions": [
    {
      "issuer": {
        "id": 625,
        "name": "SOCIÉTÉ BITERROISE DE FORCE ET LUMIERE"
      },
      "job": {
        "id": 219,
        "name": "Administrateur"
      },
      "start_date": "1912-01-01",
      "end_date": "1917-12-31"
    },
    {
      "issuer": {
        "id": 625,
        "name": "SOCIÉTÉ BITERROISE DE FORCE ET LUMIERE"
      },
      "job": {
        "id": 219,
        "name": "Administrateur"
      },
      "start_date": "1923-01-01",
      "end_date": "1923-12-31"
    },
    {
      "issuer": {
        "id": 4140,
        "name": "Ateliers de Construction Schwartz-Hautmont"
      },
      "job": {
        "id": 219,
        "name": "Administrateur"
      },
      "start_date": "1923-01-01",
      "end_date": "1933-12-31"
    },
    {
      "issuer": {
        "id": 625,
        "name": "SOCIÉTÉ BITERROISE DE FORCE ET LUMIERE"
      },
      "job": {
        "id": 219,
        "name": "Administrateur"
      },
      "start_date": "1927-01-01",
      "end_date": "1927-12-31"
    },
    {
      "issuer": {
        "id": 625,
        "name": "SOCIÉTÉ BITERROISE DE FORCE ET LUMIERE"
      },
      "job": {
        "id": 219,
        "name": "Administrateur"
      },
      "start_date": "1933-01-01",
      "end_date": "1933-12-31"
    },
    {
      "issuer": {
        "id": 5388,
        "name": "LA GARANTIE FONCIERE"
      },
      "job": {
        "id": 219,
        "name": "Administrateur"
      },
      "start_date": "1933-01-01",
      "end_date": "1933-12-31"
    },
    {
      "issuer": {
        "id": 4140,
        "name": "Ateliers de Construction Schwartz-Hautmont"
      },
      "job": {
        "id": 219,
        "name": "Administrateur"
      },
      "start_date": "1940-01-01",
      "end_date": "1940-12-31"
    },
    {
      "issuer": {
        "id": 625,
        "name": "SOCIÉTÉ BITERROISE DE FORCE ET LUMIERE"
      },
      "job": {
        "id": 219,
        "name": "Administrateur"
      },
      "start_date": "1940-01-01",
      "end_date": "1940-12-31"
    }
  ],
  "name": "E. Brizon"
}