{
  "id": 119764,
  "names": [
    "comte Hermano da Silva Ramos"
  ],
  "functions": [
    {
      "issuer": {
        "id": 4368,
        "name": "FORGES ET ATELIERS DE CONSTRUCTIONS ELECTRIQUES DE JEUMONT"
      },
      "job": {
        "id": 219,
        "name": "Administrateur"
      },
      "start_date": "1953-01-01",
      "end_date": "1953-12-31"
    }
  ],
  "name": "comte Hermano da Silva Ramos"
}