{
  "id": 105715,
  "names": [
    "Charles Althusser"
  ],
  "functions": [
    {
      "issuer": {
        "id": 11441,
        "name": "CAISSE DE PRETS IMMOBILIERS DU MAROC"
      },
      "job": {
        "id": 219,
        "name": "Administrateur"
      },
      "start_date": "1945-01-01",
      "end_date": "1953-12-31"
    }
  ],
  "name": "Charles Althusser"
}