{
  "id": 85672,
  "names": [
    "E. Challiol"
  ],
  "functions": [
    {
      "issuer": {
        "id": 4920,
        "name": "CHEMINS DE FER DANUBE SAVE ADRIATIQUE"
      },
      "job": {
        "id": 219,
        "name": "Administrateur"
      },
      "start_date": "1933-01-01",
      "end_date": "1933-12-31"
    }
  ],
  "name": "E. Challiol"
}