{
  "id": 100932,
  "names": [
    "N. Hiott"
  ],
  "functions": [
    {
      "issuer": {
        "id": 3172,
        "name": "COLOMBIA (Société Franco-Roumaine de Pétrole)"
      },
      "job": {
        "id": 219,
        "name": "Administrateur"
      },
      "start_date": "1940-01-01",
      "end_date": "1953-12-31"
    }
  ],
  "name": "N. Hiott"
}