{
  "id": 114775,
  "names": [
    "M. Devouge"
  ],
  "functions": [
    {
      "issuer": {
        "id": 4329,
        "name": "ETABLISSEMENTS LANCEL"
      },
      "job": {
        "id": 219,
        "name": "Administrateur"
      },
      "start_date": "1948-01-01",
      "end_date": "1953-12-31"
    }
  ],
  "name": "M. Devouge"
}