{
  "id": 122859,
  "names": [
    "Jean de Fonclare"
  ],
  "functions": [
    {
      "issuer": {
        "id": 1034,
        "name": "BANQUE L. DUPONT ET Cie"
      },
      "job": {
        "id": 10002,
        "name": "Directeur Général Adjoint",
        "short_name": "D.G.Adj"
      },
      "start_date": "1953-01-01",
      "end_date": "1953-12-31"
    }
  ],
  "name": "Jean de Fonclare"
}