{
  "id": 45808,
  "names": [
    "Pablo Bosch y Barrau"
  ],
  "functions": [
    {
      "issuer": {
        "id": 2784,
        "name": "Banque générale de Madrid"
      },
      "job": {
        "id": 219,
        "name": "Administrateur"
      },
      "start_date": "1893-01-01",
      "end_date": "1893-12-31"
    },
    {
      "issuer": {
        "id": 7060,
        "name": "Société des Téléphones de Madrid"
      },
      "job": {
        "id": 10420,
        "name": "Liquidateur"
      },
      "start_date": "1898-01-01",
      "end_date": "1898-12-31"
    },
    {
      "issuer": {
        "id": 1711,
        "name": "Compagnie Madrilène d'éclairage et de Chauffage par le gaz"
      },
      "job": {
        "id": 219,
        "name": "Administrateur"
      },
      "start_date": "1898-01-01",
      "end_date": "1903-12-31"
    },
    {
      "issuer": {
        "id": 1711,
        "name": "Compagnie Madrilène d'éclairage et de Chauffage par le gaz"
      },
      "job": {
        "id": 117,
        "name": "Vice-Président",
        "short_name": "V.-Pr."
      },
      "start_date": "1908-01-01",
      "end_date": "1908-12-31"
    },
    {
      "issuer": {
        "id": 2717,
        "name": "Cie générale Madrilène d'Electricité"
      },
      "job": {
        "id": 219,
        "name": "Administrateur"
      },
      "start_date": "1908-01-01",
      "end_date": "1908-12-31"
    },
    {
      "issuer": {
        "id": 1711,
        "name": "Compagnie Madrilène d'éclairage et de Chauffage par le gaz"
      },
      "job": {
        "id": 219,
        "name": "Administrateur"
      },
      "start_date": "1912-01-01",
      "end_date": "1912-12-31"
    },
    {
      "issuer": {
        "id": 2717,
        "name": "Cie générale Madrilène d'Electricité"
      },
      "job": {
        "id": 219,
        "name": "Administrateur"
      },
      "start_date": "1912-01-01",
      "end_date": "1917-12-31"
    }
  ],
  "name": "Pablo Bosch y Barrau"
}