{
  "id": 91390,
  "names": [
    "R. Koch"
  ],
  "functions": [
    {
      "issuer": {
        "id": 5123,
        "name": "MANUFACTURE DE BUHL (Anciennement E. Rogelet)."
      },
      "job": {
        "id": 219,
        "name": "Administrateur"
      },
      "start_date": "1933-01-01",
      "end_date": "1933-12-31"
    },
    {
      "issuer": {
        "id": 3782,
        "name": "SOCIÉTÉ D'ALIMENTATION DE PROVENCE"
      },
      "job": {
        "id": 101,
        "name": "Administrateur Délégué",
        "short_name": "Ad. Dél."
      },
      "start_date": "1940-01-01",
      "end_date": "1940-12-31"
    },
    {
      "issuer": {
        "id": 3782,
        "name": "SOCIÉTÉ D'ALIMENTATION DE PROVENCE"
      },
      "job": {
        "id": 219,
        "name": "Administrateur"
      },
      "start_date": "1945-01-01",
      "end_date": "1948-12-31"
    },
    {
      "issuer": {
        "id": 3782,
        "name": "SOCIÉTÉ D'ALIMENTATION DE PROVENCE"
      },
      "job": {
        "id": 189,
        "name": "Président directeur général",
        "short_name": "P.D.G."
      },
      "start_date": "1953-01-01",
      "end_date": "1953-12-31"
    }
  ],
  "name": "R. Koch"
}