{
  "id": 108150,
  "names": [
    "M. A. Veyrenc"
  ],
  "functions": [
    {
      "issuer": {
        "id": 4034,
        "name": "ETABLISSEMENTS SAINRAPT ET BRICE"
      },
      "job": {
        "id": 10019,
        "name": "Commissaire des comptes"
      },
      "start_date": "1945-01-01",
      "end_date": "1945-12-31"
    }
  ],
  "name": "M. A. Veyrenc"
}