{
  "id": 48428,
  "names": [
    "Hesketh Jones"
  ],
  "functions": [
    {
      "issuer": {
        "id": 946,
        "name": "Société de l'Union des gaz"
      },
      "job": {
        "id": 219,
        "name": "Administrateur"
      },
      "start_date": "1898-01-01",
      "end_date": "1908-12-31"
    }
  ],
  "name": "Hesketh Jones"
}