{
  "id": 116582,
  "names": [
    "M. Renoul"
  ],
  "functions": [
    {
      "issuer": {
        "id": 4544,
        "name": "SOCIETE NANTAISE DES MINERAIS DE L'OUEST"
      },
      "job": {
        "id": 219,
        "name": "Administrateur"
      },
      "start_date": "1953-01-01",
      "end_date": "1953-12-31"
    }
  ],
  "name": "M. Renoul"
}