{
  "id": 90984,
  "names": [
    "R. Piot"
  ],
  "functions": [
    {
      "issuer": {
        "id": 5302,
        "name": "Anthracites du Tonkin"
      },
      "job": {
        "id": 219,
        "name": "Administrateur"
      },
      "start_date": "1933-01-01",
      "end_date": "1933-12-31"
    },
    {
      "issuer": {
        "id": 1293,
        "name": "SOCIÉTÉ DES MINES DE HOUILLE DE BLANZY"
      },
      "job": {
        "id": 10019,
        "name": "Commissaire des comptes"
      },
      "start_date": "1953-01-01",
      "end_date": "1953-12-31"
    }
  ],
  "name": "R. Piot"
}