{
  "id": 103851,
  "names": [
    "R. Beauzemont"
  ],
  "functions": [
    {
      "issuer": {
        "id": 3885,
        "name": "BISCUITS RAMEY ET LANGLES REUNIS"
      },
      "job": {
        "id": 219,
        "name": "Administrateur"
      },
      "start_date": "1940-01-01",
      "end_date": "1945-12-31"
    },
    {
      "issuer": {
        "id": 3885,
        "name": "BISCUITS RAMEY ET LANGLES REUNIS"
      },
      "job": {
        "id": 219,
        "name": "Administrateur"
      },
      "start_date": "1953-01-01",
      "end_date": "1953-12-31"
    }
  ],
  "name": "R. Beauzemont"
}