{
  "id": 114581,
  "names": [
    "P. Vereeeken"
  ],
  "functions": [
    {
      "issuer": {
        "id": 5025,
        "name": "PLANTATIONS DE CAOUTCHOUC DE TAPANOELIE"
      },
      "job": {
        "id": 103,
        "name": "Commissaire"
      },
      "start_date": "1948-01-01",
      "end_date": "1948-12-31"
    }
  ],
  "name": "P. Vereeeken"
}