{
  "id": 112902,
  "names": [
    "G. Lospied"
  ],
  "functions": [
    {
      "issuer": {
        "id": 4159,
        "name": "ETABLISSEMENTS A. CAZENEUVE"
      },
      "job": {
        "id": 219,
        "name": "Administrateur"
      },
      "start_date": "1948-01-01",
      "end_date": "1948-12-31"
    }
  ],
  "name": "G. Lospied"
}