{
  "id": 83087,
  "names": [
    "L. Line"
  ],
  "functions": [
    {
      "issuer": {
        "id": 2402,
        "name": "THE NATIONAL BANK OF SOUTH AFRICA LTED (Banque Nationale de l'Afrique du Sud)"
      },
      "job": {
        "id": 219,
        "name": "Administrateur"
      },
      "start_date": "1927-01-01",
      "end_date": "1927-12-31"
    }
  ],
  "name": "L. Line"
}