{
  "id": 111974,
  "names": [
    "sir Albert Gérald Stern"
  ],
  "functions": [
    {
      "issuer": {
        "id": 1257,
        "name": "Société Générale Impériale Royale Privilégiée du Crédit foncier d'Autriche"
      },
      "job": {
        "id": 107,
        "name": "Directeur",
        "short_name": "Dir."
      },
      "start_date": "1923-01-01",
      "end_date": "1923-12-31"
    },
    {
      "issuer": {
        "id": 3177,
        "name": "\" STEAUA ROMANA \" ETOILE ROUMAINE Société Anonyme pour l'Industrie du Pétrole"
      },
      "job": {
        "id": 219,
        "name": "Administrateur"
      },
      "start_date": "1923-01-01",
      "end_date": "1923-12-31"
    },
    {
      "issuer": {
        "id": 1259,
        "name": "Banque impériale Ottomane"
      },
      "job": {
        "id": 10236,
        "name": "administrateur à Londres"
      },
      "start_date": "1923-01-01",
      "end_date": "1923-12-31"
    },
    {
      "issuer": {
        "id": 1259,
        "name": "Banque impériale Ottomane"
      },
      "job": {
        "id": 14620,
        "name": "Membre du comité de Londres"
      },
      "start_date": "1927-01-01",
      "end_date": "1927-12-31"
    },
    {
      "issuer": {
        "id": 1259,
        "name": "Banque impériale Ottomane"
      },
      "job": {
        "id": 10241,
        "name": "administrateur dans le Comité central à Londres"
      },
      "start_date": "1933-01-01",
      "end_date": "1933-12-31"
    },
    {
      "issuer": {
        "id": 3177,
        "name": "\" STEAUA ROMANA \" ETOILE ROUMAINE Société Anonyme pour l'Industrie du Pétrole"
      },
      "job": {
        "id": 117,
        "name": "Vice-Président",
        "short_name": "V.-Pr."
      },
      "start_date": "1933-01-01",
      "end_date": "1933-12-31"
    },
    {
      "issuer": {
        "id": 1257,
        "name": "Société Générale Impériale Royale Privilégiée du Crédit foncier d'Autriche"
      },
      "job": {
        "id": 107,
        "name": "Directeur",
        "short_name": "Dir."
      },
      "start_date": "1933-01-01",
      "end_date": "1933-12-31"
    },
    {
      "issuer": {
        "id": 3177,
        "name": "\" STEAUA ROMANA \" ETOILE ROUMAINE Société Anonyme pour l'Industrie du Pétrole"
      },
      "job": {
        "id": 117,
        "name": "Vice-Président",
        "short_name": "V.-Pr."
      },
      "start_date": "1940-01-01",
      "end_date": "1945-12-31"
    },
    {
      "issuer": {
        "id": 3177,
        "name": "\" STEAUA ROMANA \" ETOILE ROUMAINE Société Anonyme pour l'Industrie du Pétrole"
      },
      "job": {
        "id": 117,
        "name": "Vice-Président",
        "short_name": "V.-Pr."
      },
      "start_date": "1948-01-01",
      "end_date": "1953-12-31"
    }
  ],
  "name": "sir Albert Gérald Stern"
}