{
  "id": 98894,
  "names": [
    "John P"
  ],
  "functions": [
    {
      "issuer": {
        "id": 1259,
        "name": "Banque impériale Ottomane"
      },
      "job": {
        "id": 14620,
        "name": "Membre du comité de Londres"
      },
      "start_date": "1940-01-01",
      "end_date": "1940-12-31"
    }
  ],
  "name": "John P"
}