{
  "id": 99476,
  "names": [
    "général Vidal"
  ],
  "functions": [
    {
      "issuer": {
        "id": 11440,
        "name": "SOCIETE FONCIERE DE SYRIE"
      },
      "job": {
        "id": 102,
        "name": "Président",
        "short_name": "P."
      },
      "start_date": "1940-01-01",
      "end_date": "1940-12-31"
    }
  ],
  "name": "général Vidal"
}