{
  "id": 119943,
  "names": [
    "Houillères de Provence"
  ],
  "functions": [
    {
      "issuer": {
        "id": 3506,
        "name": "SOCIETE CHIMIQUE DES BOUCHES-DU-RHONE"
      },
      "job": {
        "id": 219,
        "name": "Administrateur"
      },
      "start_date": "1953-01-01",
      "end_date": "1953-12-31"
    }
  ],
  "name": "Houillères de Provence"
}