{
  "id": 58747,
  "names": [
    "Y. Lustig"
  ],
  "functions": [
    {
      "issuer": {
        "id": 3392,
        "name": "BANQUE RUSSO-ASIATIQUE"
      },
      "job": {
        "id": 219,
        "name": "Administrateur"
      },
      "start_date": "1912-01-01",
      "end_date": "1912-12-31"
    }
  ],
  "name": "Y. Lustig"
}