{
  "id": 45334,
  "names": [
    "L. Figuerola"
  ],
  "functions": [
    {
      "issuer": {
        "id": 1711,
        "name": "Compagnie Madrilène d'éclairage et de Chauffage par le gaz"
      },
      "job": {
        "id": 10266,
        "name": "administrateur à Madrid"
      },
      "start_date": "1880-01-01",
      "end_date": "1880-12-31"
    },
    {
      "issuer": {
        "id": 1711,
        "name": "Compagnie Madrilène d'éclairage et de Chauffage par le gaz"
      },
      "job": {
        "id": 10264,
        "name": "Président à Madrid"
      },
      "start_date": "1883-01-01",
      "end_date": "1883-12-31"
    },
    {
      "issuer": {
        "id": 1711,
        "name": "Compagnie Madrilène d'éclairage et de Chauffage par le gaz"
      },
      "job": {
        "id": 10264,
        "name": "Président à Madrid"
      },
      "start_date": "1889-01-01",
      "end_date": "1889-12-31"
    },
    {
      "issuer": {
        "id": 2891,
        "name": "Compagnie des Chemins de fer du Sud de l'Espagne"
      },
      "job": {
        "id": 10264,
        "name": "Président à Madrid"
      },
      "start_date": "1893-01-01",
      "end_date": "1898-12-31"
    },
    {
      "issuer": {
        "id": 1711,
        "name": "Compagnie Madrilène d'éclairage et de Chauffage par le gaz"
      },
      "job": {
        "id": 156,
        "name": "President-Administrateur-Delegue"
      },
      "start_date": "1893-01-01",
      "end_date": "1898-12-31"
    },
    {
      "issuer": {
        "id": 1711,
        "name": "Compagnie Madrilène d'éclairage et de Chauffage par le gaz"
      },
      "job": {
        "id": 102,
        "name": "Président",
        "short_name": "P."
      },
      "start_date": "1903-01-01",
      "end_date": "1903-12-31"
    },
    {
      "issuer": {
        "id": 2891,
        "name": "Compagnie des Chemins de fer du Sud de l'Espagne"
      },
      "job": {
        "id": 10257,
        "name": "Président du Conseil"
      },
      "start_date": "1903-01-01",
      "end_date": "1903-12-31"
    }
  ],
  "name": "L. Figuerola"
}