{
  "id": 77975,
  "names": [
    "M. Dubar"
  ],
  "functions": [
    {
      "issuer": {
        "id": 10552,
        "name": "FRUCTIDOR-GESTION SOCIÉTÉ POUR FAVORISER L'ESSOR MUTUALISTE"
      },
      "job": {
        "id": 219,
        "name": "Administrateur"
      },
      "start_date": "1923-01-01",
      "end_date": "1923-12-31"
    }
  ],
  "name": "M. Dubar"
}