{
  "id": 116907,
  "names": [
    "Société Pétro-Frette"
  ],
  "functions": [
    {
      "issuer": {
        "id": 5424,
        "name": "SOCIETE FRANÇAISE INDUSTRIELLE ET COMMERCIALE DES PETROLES"
      },
      "job": {
        "id": 219,
        "name": "Administrateur"
      },
      "start_date": "1953-01-01",
      "end_date": "1953-12-31"
    }
  ],
  "name": "Société Pétro-Frette"
}