{
  "id": 126734,
  "names": [
    "Paul Gillet(2)"
  ],
  "functions": [
    {
      "issuer": {
        "id": 3226,
        "name": "CHEMINS DE FER DU CONGO SUPÉRIEUR AUX GRANDS LACS AFRICAINS"
      },
      "job": {
        "id": 219,
        "name": "Administrateur"
      },
      "start_date": "1933-01-01",
      "end_date": "1933-12-31"
    },
    {
      "issuer": {
        "id": 3226,
        "name": "CHEMINS DE FER DU CONGO SUPÉRIEUR AUX GRANDS LACS AFRICAINS"
      },
      "job": {
        "id": 219,
        "name": "Administrateur"
      },
      "start_date": "1940-01-01",
      "end_date": "1948-12-31"
    },
    {
      "issuer": {
        "id": 472,
        "name": "SOCIETE GENERALE DE BELGIQUE"
      },
      "job": {
        "id": 11223,
        "name": "Membre du Conseil de Direction"
      },
      "start_date": "1945-01-01",
      "end_date": "1945-12-31"
    },
    {
      "issuer": {
        "id": 472,
        "name": "SOCIETE GENERALE DE BELGIQUE"
      },
      "job": {
        "id": 219,
        "name": "Administrateur"
      },
      "start_date": "1948-01-01",
      "end_date": "1948-12-31"
    },
    {
      "issuer": {
        "id": 2588,
        "name": "COMPAGNIE GENERALE DE CHEMINS DE FER DANS LA PROVINCE DE BUENOS-AYRES"
      },
      "job": {
        "id": 219,
        "name": "Administrateur"
      },
      "start_date": "1948-01-01",
      "end_date": "1948-12-31"
    },
    {
      "issuer": {
        "id": 493,
        "name": "Compagnie du Chemin de fer du NORD"
      },
      "job": {
        "id": 219,
        "name": "Administrateur"
      },
      "start_date": "1948-01-01",
      "end_date": "1953-12-31"
    },
    {
      "issuer": {
        "id": 2545,
        "name": "Compagnie Internationale des Wagons-lits et des grands Express européens"
      },
      "job": {
        "id": 102,
        "name": "Président",
        "short_name": "P."
      },
      "start_date": "1948-01-01",
      "end_date": "1953-12-31"
    },
    {
      "issuer": {
        "id": 5030,
        "name": "UNION MINIERE DU HAUT-KATANGA"
      },
      "job": {
        "id": 117,
        "name": "Vice-Président",
        "short_name": "V.-Pr."
      },
      "start_date": "1953-01-01",
      "end_date": "1953-12-31"
    },
    {
      "issuer": {
        "id": 472,
        "name": "SOCIETE GENERALE DE BELGIQUE"
      },
      "job": {
        "id": 106,
        "name": "Gouverneur",
        "short_name": "Gouv."
      },
      "start_date": "1953-01-01",
      "end_date": "1953-12-31"
    }
  ],
  "name": "Paul Gillet(2)"
}