{
  "id": 90946,
  "names": [
    "comte G. de Montalembert"
  ],
  "functions": [
    {
      "issuer": {
        "id": 2416,
        "name": "CIE DES MINES DE HOUILLE DE LA CLARENCE"
      },
      "job": {
        "id": 219,
        "name": "Administrateur"
      },
      "start_date": "1933-01-01",
      "end_date": "1933-12-31"
    }
  ],
  "name": "comte G. de Montalembert"
}