{
  "id": 92044,
  "names": [
    "F. Germaneau"
  ],
  "functions": [
    {
      "issuer": {
        "id": 3918,
        "name": "COMPAGNIE DE LA MAMORA (Anciennement SOCIÉTÉ DES LIÈGES DE LA MAMORA)"
      },
      "job": {
        "id": 219,
        "name": "Administrateur"
      },
      "start_date": "1933-01-01",
      "end_date": "1933-12-31"
    }
  ],
  "name": "F. Germaneau"
}