{
  "id": 102979,
  "names": [
    "Ch. Candelier"
  ],
  "functions": [
    {
      "issuer": {
        "id": 11003,
        "name": "LE SOLIDITIT FRANÇAIS"
      },
      "job": {
        "id": 102,
        "name": "Président",
        "short_name": "P."
      },
      "start_date": "1940-01-01",
      "end_date": "1940-12-31"
    }
  ],
  "name": "Ch. Candelier"
}