{
  "id": 102973,
  "names": [
    "G. Dussaud"
  ],
  "functions": [
    {
      "issuer": {
        "id": 4056,
        "name": "SOCIETE GENERALE DES TUILERIES DE MARSEILLE"
      },
      "job": {
        "id": 219,
        "name": "Administrateur"
      },
      "start_date": "1940-01-01",
      "end_date": "1953-12-31"
    }
  ],
  "name": "G. Dussaud"
}