{
  "id": 107161,
  "names": [
    "P. Roquère"
  ],
  "functions": [
    {
      "issuer": {
        "id": 4558,
        "name": "SOCIETE D'HYDROCARBURES DE SAINT-DENIS (Les Chantiers de France)"
      },
      "job": {
        "id": 219,
        "name": "Administrateur"
      },
      "start_date": "1945-01-01",
      "end_date": "1948-12-31"
    }
  ],
  "name": "P. Roquère"
}