{
  "id": 88538,
  "names": [
    "J.-L. Marlio"
  ],
  "functions": [
    {
      "issuer": {
        "id": 5414,
        "name": "Cie CENTRALE DE PLACEMENTS ET DE PRÊTS FONCIERS (N. V. Algemeene Maatschappij voor Gronderediet)"
      },
      "job": {
        "id": 102,
        "name": "Président",
        "short_name": "P."
      },
      "start_date": "1933-01-01",
      "end_date": "1933-12-31"
    }
  ],
  "name": "J.-L. Marlio"
}