{
  "id": 80682,
  "names": [
    "E. Lévy"
  ],
  "functions": [
    {
      "issuer": {
        "id": 5129,
        "name": "Magondeaux (Société des Appareils)"
      },
      "job": {
        "id": 219,
        "name": "Administrateur"
      },
      "start_date": "1927-01-01",
      "end_date": "1927-12-31"
    },
    {
      "issuer": {
        "id": 10751,
        "name": "SOCIÉTÉ AGRICOLE DE MOPÉLIA (TAHITI)"
      },
      "job": {
        "id": 219,
        "name": "Administrateur"
      },
      "start_date": "1927-01-01",
      "end_date": "1927-12-31"
    },
    {
      "issuer": {
        "id": 5232,
        "name": "SOCIÉTÉ ANONYME INDUSTRIELLE DU BAS-OGOOUÉ"
      },
      "job": {
        "id": 219,
        "name": "Administrateur"
      },
      "start_date": "1927-01-01",
      "end_date": "1927-12-31"
    }
  ],
  "name": "E. Lévy"
}