{
  "id": 84728,
  "names": [
    "Ivan Barrelon"
  ],
  "functions": [
    {
      "issuer": {
        "id": 3209,
        "name": "SOCIÉTÉ ANONYME POUR L'EXPLOITATION DE LA MAISON DURST-WILD FRÈRES"
      },
      "job": {
        "id": 12822,
        "name": "Administrateur à Buenos-Aires"
      },
      "start_date": "1933-01-01",
      "end_date": "1933-12-31"
    },
    {
      "issuer": {
        "id": 3209,
        "name": "SOCIÉTÉ ANONYME POUR L'EXPLOITATION DE LA MAISON DURST-WILD FRÈRES"
      },
      "job": {
        "id": 219,
        "name": "Administrateur"
      },
      "start_date": "1940-01-01",
      "end_date": "1953-12-31"
    }
  ],
  "name": "Ivan Barrelon"
}