{
  "id": 54578,
  "names": [
    "I. P. y Ugarteche"
  ],
  "functions": [
    {
      "issuer": {
        "id": 3390,
        "name": "CIE PÉRUVIENNE DE NAVIGATION A VAPEUR ET DU DOCK FLOTTANT DU CALLAO"
      },
      "job": {
        "id": 219,
        "name": "Administrateur"
      },
      "start_date": "1912-01-01",
      "end_date": "1912-12-31"
    }
  ],
  "name": "I. P. y Ugarteche"
}