{
  "id": 105969,
  "names": [
    "R. Pagnier"
  ],
  "functions": [
    {
      "issuer": {
        "id": 4408,
        "name": "SOCIETE DES TELEPHONES ERICSSON"
      },
      "job": {
        "id": 10019,
        "name": "Commissaire des comptes"
      },
      "start_date": "1945-01-01",
      "end_date": "1953-12-31"
    },
    {
      "issuer": {
        "id": 3983,
        "name": "ETABLISSEMENTS FOURRE ET RHODES"
      },
      "job": {
        "id": 219,
        "name": "Administrateur"
      },
      "start_date": "1948-01-01",
      "end_date": "1953-12-31"
    },
    {
      "issuer": {
        "id": 4894,
        "name": "ETABLISSEMENTS ROBBE FRERES"
      },
      "job": {
        "id": 10019,
        "name": "Commissaire des comptes"
      },
      "start_date": "1953-01-01",
      "end_date": "1953-12-31"
    }
  ],
  "name": "R. Pagnier"
}