{
  "id": 55578,
  "names": [
    "Auguste Robin"
  ],
  "functions": [
    {
      "issuer": {
        "id": 2707,
        "name": "SOCIÉTÉ GÉNÉRALE DE FORCES MOTRICES ET D'ÉCLAIRAGE DE LA VILLE DE GRENOBLE"
      },
      "job": {
        "id": 219,
        "name": "Administrateur"
      },
      "start_date": "1912-01-01",
      "end_date": "1912-12-31"
    }
  ],
  "name": "Auguste Robin"
}