{
  "id": 104548,
  "names": [
    "J. Jeannin"
  ],
  "functions": [
    {
      "issuer": {
        "id": 4280,
        "name": "SOCIETE PARISIENNE D'EDITION (Publications Offenstadt)"
      },
      "job": {
        "id": 10019,
        "name": "Commissaire des comptes"
      },
      "start_date": "1940-01-01",
      "end_date": "1945-12-31"
    }
  ],
  "name": "J. Jeannin"
}