{
  "id": 102571,
  "names": [
    "J. Ruet"
  ],
  "functions": [
    {
      "issuer": {
        "id": 4885,
        "name": "LE GAZ INDUSTRIEL (Société Alsacienne des Anneaux Raschig, le Gaz Industriel Société Uettwiller et Cie réunis)"
      },
      "job": {
        "id": 219,
        "name": "Administrateur"
      },
      "start_date": "1940-01-01",
      "end_date": "1940-12-31"
    }
  ],
  "name": "J. Ruet"
}