{
  "id": 41461,
  "names": [
    "Hippolyte-Gaston Griolet"
  ],
  "functions": [
    {
      "issuer": {
        "id": 493,
        "name": "Compagnie du Chemin de fer du NORD"
      },
      "job": {
        "id": 219,
        "name": "Administrateur"
      },
      "start_date": "1880-01-01",
      "end_date": "1883-12-31"
    },
    {
      "issuer": {
        "id": 493,
        "name": "Compagnie du Chemin de fer du NORD"
      },
      "job": {
        "id": 228,
        "name": "Membre du Comité"
      },
      "start_date": "1883-01-01",
      "end_date": "1883-12-31"
    },
    {
      "issuer": {
        "id": 493,
        "name": "Compagnie du Chemin de fer du NORD"
      },
      "job": {
        "id": 10626,
        "name": "Membre de Comité de Direction"
      },
      "start_date": "1889-01-01",
      "end_date": "1889-12-31"
    },
    {
      "issuer": {
        "id": 493,
        "name": "Compagnie du Chemin de fer du NORD"
      },
      "job": {
        "id": 117,
        "name": "Vice-Président",
        "short_name": "V.-Pr."
      },
      "start_date": "1889-01-01",
      "end_date": "1903-12-31"
    },
    {
      "issuer": {
        "id": 493,
        "name": "Compagnie du Chemin de fer du NORD"
      },
      "job": {
        "id": 10026,
        "name": "Vice-Président du comité de direction"
      },
      "start_date": "1893-01-01",
      "end_date": "1893-12-31"
    },
    {
      "issuer": {
        "id": 2210,
        "name": "Chemin de fer de GRANDE CEINTURE DE PARIS"
      },
      "job": {
        "id": 219,
        "name": "Administrateur"
      },
      "start_date": "1893-01-01",
      "end_date": "1903-12-31"
    },
    {
      "issuer": {
        "id": 959,
        "name": "Compagnie des chemins de fer de Madrid à Saragosse et à Alicante"
      },
      "job": {
        "id": 219,
        "name": "Administrateur"
      },
      "start_date": "1898-01-01",
      "end_date": "1898-12-31"
    },
    {
      "issuer": {
        "id": 2697,
        "name": "SOCIÉTÉ D'ECLAIRAGE ET DE FORCE PAR L'ÉLECTRICITÉ A PARIS"
      },
      "job": {
        "id": 219,
        "name": "Administrateur"
      },
      "start_date": "1898-01-01",
      "end_date": "1903-12-31"
    },
    {
      "issuer": {
        "id": 2506,
        "name": "FORGES ET ACIERIES DU NORD ET DE L'EST"
      },
      "job": {
        "id": 219,
        "name": "Administrateur"
      },
      "start_date": "1903-01-01",
      "end_date": "1903-12-31"
    },
    {
      "issuer": {
        "id": 959,
        "name": "Compagnie des chemins de fer de Madrid à Saragosse et à Alicante"
      },
      "job": {
        "id": 219,
        "name": "Administrateur"
      },
      "start_date": "1903-01-01",
      "end_date": "1903-12-31"
    },
    {
      "issuer": {
        "id": 2506,
        "name": "FORGES ET ACIERIES DU NORD ET DE L'EST"
      },
      "job": {
        "id": 102,
        "name": "Président",
        "short_name": "P."
      },
      "start_date": "1908-01-01",
      "end_date": "1908-12-31"
    },
    {
      "issuer": {
        "id": 2697,
        "name": "SOCIÉTÉ D'ECLAIRAGE ET DE FORCE PAR L'ÉLECTRICITÉ A PARIS"
      },
      "job": {
        "id": 219,
        "name": "Administrateur"
      },
      "start_date": "1908-01-01",
      "end_date": "1908-12-31"
    },
    {
      "issuer": {
        "id": 979,
        "name": "Compagnie des Chemins de fer du Sud de l'Autriche"
      },
      "job": {
        "id": 10633,
        "name": "Vice-Président du comité de Paris"
      },
      "start_date": "1908-01-01",
      "end_date": "1908-12-31"
    },
    {
      "issuer": {
        "id": 959,
        "name": "Compagnie des chemins de fer de Madrid à Saragosse et à Alicante"
      },
      "job": {
        "id": 102,
        "name": "Président",
        "short_name": "P."
      },
      "start_date": "1908-01-01",
      "end_date": "1908-12-31"
    },
    {
      "issuer": {
        "id": 2697,
        "name": "SOCIÉTÉ D'ECLAIRAGE ET DE FORCE PAR L'ÉLECTRICITÉ A PARIS"
      },
      "job": {
        "id": 219,
        "name": "Administrateur"
      },
      "start_date": "1912-01-01",
      "end_date": "1912-12-31"
    },
    {
      "issuer": {
        "id": 959,
        "name": "Compagnie des chemins de fer de Madrid à Saragosse et à Alicante"
      },
      "job": {
        "id": 12823,
        "name": "Administrateur à Paris"
      },
      "start_date": "1912-01-01",
      "end_date": "1912-12-31"
    },
    {
      "issuer": {
        "id": 979,
        "name": "Compagnie des Chemins de fer du Sud de l'Autriche"
      },
      "job": {
        "id": 12823,
        "name": "Administrateur à Paris"
      },
      "start_date": "1912-01-01",
      "end_date": "1912-12-31"
    },
    {
      "issuer": {
        "id": 2506,
        "name": "FORGES ET ACIERIES DU NORD ET DE L'EST"
      },
      "job": {
        "id": 219,
        "name": "Administrateur"
      },
      "start_date": "1912-01-01",
      "end_date": "1912-12-31"
    },
    {
      "issuer": {
        "id": 2695,
        "name": "Cie PARISIENNE DE DISTRIBUTION D'ÉLECTRICITÉ"
      },
      "job": {
        "id": 219,
        "name": "Administrateur"
      },
      "start_date": "1912-01-01",
      "end_date": "1917-12-31"
    },
    {
      "issuer": {
        "id": 3380,
        "name": "SOCIETE NORVEGIENNE DE L'AZOTE ET DE FORCES HYDRO-ELECTRIQUES"
      },
      "job": {
        "id": 219,
        "name": "Administrateur"
      },
      "start_date": "1912-01-01",
      "end_date": "1927-12-31"
    },
    {
      "issuer": {
        "id": 1387,
        "name": "BANQUE PARIBAS"
      },
      "job": {
        "id": 219,
        "name": "Administrateur"
      },
      "start_date": "1912-01-01",
      "end_date": "1933-12-31"
    },
    {
      "issuer": {
        "id": 2697,
        "name": "SOCIÉTÉ D'ECLAIRAGE ET DE FORCE PAR L'ÉLECTRICITÉ A PARIS"
      },
      "job": {
        "id": 219,
        "name": "Administrateur"
      },
      "start_date": "1917-01-01",
      "end_date": "1917-12-31"
    },
    {
      "issuer": {
        "id": 2506,
        "name": "FORGES ET ACIERIES DU NORD ET DE L'EST"
      },
      "job": {
        "id": 219,
        "name": "Administrateur"
      },
      "start_date": "1917-01-01",
      "end_date": "1917-12-31"
    },
    {
      "issuer": {
        "id": 2210,
        "name": "Chemin de fer de GRANDE CEINTURE DE PARIS"
      },
      "job": {
        "id": 219,
        "name": "Administrateur"
      },
      "start_date": "1917-01-01",
      "end_date": "1917-12-31"
    },
    {
      "issuer": {
        "id": 493,
        "name": "Compagnie du Chemin de fer du NORD"
      },
      "job": {
        "id": 219,
        "name": "Administrateur"
      },
      "start_date": "1917-01-01",
      "end_date": "1927-12-31"
    },
    {
      "issuer": {
        "id": 10390,
        "name": "USINES MÉTALLURGIQUES DU HAINAUT"
      },
      "job": {
        "id": 219,
        "name": "Administrateur"
      },
      "start_date": "1917-01-01",
      "end_date": "1927-12-31"
    },
    {
      "issuer": {
        "id": 959,
        "name": "Compagnie des chemins de fer de Madrid à Saragosse et à Alicante"
      },
      "job": {
        "id": 12823,
        "name": "Administrateur à Paris"
      },
      "start_date": "1923-01-01",
      "end_date": "1923-12-31"
    },
    {
      "issuer": {
        "id": 4253,
        "name": "LIBRAIRIE HACHETTE"
      },
      "job": {
        "id": 219,
        "name": "Administrateur"
      },
      "start_date": "1923-01-01",
      "end_date": "1923-12-31"
    },
    {
      "issuer": {
        "id": 979,
        "name": "Compagnie des Chemins de fer du Sud de l'Autriche"
      },
      "job": {
        "id": 10634,
        "name": "Membre du comité de Paris"
      },
      "start_date": "1923-01-01",
      "end_date": "1923-12-31"
    },
    {
      "issuer": {
        "id": 3564,
        "name": "Banque Nationale Française du Commerce Extérieure"
      },
      "job": {
        "id": 219,
        "name": "Administrateur"
      },
      "start_date": "1923-01-01",
      "end_date": "1923-12-31"
    },
    {
      "issuer": {
        "id": 2506,
        "name": "FORGES ET ACIERIES DU NORD ET DE L'EST"
      },
      "job": {
        "id": 219,
        "name": "Administrateur"
      },
      "start_date": "1923-01-01",
      "end_date": "1923-12-31"
    },
    {
      "issuer": {
        "id": 2697,
        "name": "SOCIÉTÉ D'ECLAIRAGE ET DE FORCE PAR L'ÉLECTRICITÉ A PARIS"
      },
      "job": {
        "id": 219,
        "name": "Administrateur"
      },
      "start_date": "1923-01-01",
      "end_date": "1923-12-31"
    },
    {
      "issuer": {
        "id": 2724,
        "name": "COMPAGNIE DU GAZ DE PARIS"
      },
      "job": {
        "id": 219,
        "name": "Administrateur"
      },
      "start_date": "1923-01-01",
      "end_date": "1923-12-31"
    },
    {
      "issuer": {
        "id": 2210,
        "name": "Chemin de fer de GRANDE CEINTURE DE PARIS"
      },
      "job": {
        "id": 219,
        "name": "Administrateur"
      },
      "start_date": "1923-01-01",
      "end_date": "1923-12-31"
    },
    {
      "issuer": {
        "id": 1181,
        "name": "CIE NATIONALE DE MATIÈRES COLORANTES ET DE PRODUITS CHIMIQUES"
      },
      "job": {
        "id": 219,
        "name": "Administrateur"
      },
      "start_date": "1923-01-01",
      "end_date": "1923-12-31"
    },
    {
      "issuer": {
        "id": 3700,
        "name": "COMPAGNIE GENERALE DU MAROC"
      },
      "job": {
        "id": 219,
        "name": "Administrateur"
      },
      "start_date": "1923-01-01",
      "end_date": "1927-12-31"
    },
    {
      "issuer": {
        "id": 4821,
        "name": "Compagnie des Chemins de Fer du Maroc"
      },
      "job": {
        "id": 219,
        "name": "Administrateur"
      },
      "start_date": "1923-01-01",
      "end_date": "1927-12-31"
    },
    {
      "issuer": {
        "id": 1824,
        "name": "Société du Crédit Foncier Egyptien"
      },
      "job": {
        "id": 219,
        "name": "Administrateur"
      },
      "start_date": "1923-01-01",
      "end_date": "1927-12-31"
    },
    {
      "issuer": {
        "id": 4823,
        "name": "CHEMINS DE FER DE TANGER A FEZ (Compagnie Franco-Espagnole)"
      },
      "job": {
        "id": 219,
        "name": "Administrateur"
      },
      "start_date": "1923-01-01",
      "end_date": "1927-12-31"
    },
    {
      "issuer": {
        "id": 2695,
        "name": "Cie PARISIENNE DE DISTRIBUTION D'ÉLECTRICITÉ"
      },
      "job": {
        "id": 219,
        "name": "Administrateur"
      },
      "start_date": "1923-01-01",
      "end_date": "1927-12-31"
    },
    {
      "issuer": {
        "id": 4736,
        "name": "ENERGIE ELECTRIQUE DU MAROC"
      },
      "job": {
        "id": 219,
        "name": "Administrateur"
      },
      "start_date": "1927-01-01",
      "end_date": "1927-12-31"
    },
    {
      "issuer": {
        "id": 4765,
        "name": "SAINT FRERES"
      },
      "job": {
        "id": 219,
        "name": "Administrateur"
      },
      "start_date": "1927-01-01",
      "end_date": "1927-12-31"
    },
    {
      "issuer": {
        "id": 4630,
        "name": "ETABLISSEMENTS KUHLMANN Manufactures de Produits Chimiques du Nord"
      },
      "job": {
        "id": 219,
        "name": "Administrateur"
      },
      "start_date": "1927-01-01",
      "end_date": "1927-12-31"
    },
    {
      "issuer": {
        "id": 4253,
        "name": "LIBRAIRIE HACHETTE"
      },
      "job": {
        "id": 219,
        "name": "Administrateur"
      },
      "start_date": "1927-01-01",
      "end_date": "1927-12-31"
    },
    {
      "issuer": {
        "id": 2697,
        "name": "SOCIÉTÉ D'ECLAIRAGE ET DE FORCE PAR L'ÉLECTRICITÉ A PARIS"
      },
      "job": {
        "id": 219,
        "name": "Administrateur"
      },
      "start_date": "1927-01-01",
      "end_date": "1927-12-31"
    },
    {
      "issuer": {
        "id": 2715,
        "name": "LE TRIPHASE"
      },
      "job": {
        "id": 219,
        "name": "Administrateur"
      },
      "start_date": "1927-01-01",
      "end_date": "1927-12-31"
    },
    {
      "issuer": {
        "id": 959,
        "name": "Compagnie des chemins de fer de Madrid à Saragosse et à Alicante"
      },
      "job": {
        "id": 219,
        "name": "Administrateur"
      },
      "start_date": "1927-01-01",
      "end_date": "1927-12-31"
    },
    {
      "issuer": {
        "id": 2506,
        "name": "FORGES ET ACIERIES DU NORD ET DE L'EST"
      },
      "job": {
        "id": 219,
        "name": "Administrateur"
      },
      "start_date": "1927-01-01",
      "end_date": "1927-12-31"
    },
    {
      "issuer": {
        "id": 2210,
        "name": "Chemin de fer de GRANDE CEINTURE DE PARIS"
      },
      "job": {
        "id": 219,
        "name": "Administrateur"
      },
      "start_date": "1927-01-01",
      "end_date": "1927-12-31"
    },
    {
      "issuer": {
        "id": 979,
        "name": "Compagnie des Chemins de fer du Sud de l'Autriche"
      },
      "job": {
        "id": 219,
        "name": "Administrateur"
      },
      "start_date": "1927-01-01",
      "end_date": "1933-12-31"
    },
    {
      "issuer": {
        "id": 2695,
        "name": "Cie PARISIENNE DE DISTRIBUTION D'ÉLECTRICITÉ"
      },
      "job": {
        "id": 219,
        "name": "Administrateur"
      },
      "start_date": "1933-01-01",
      "end_date": "1933-12-31"
    },
    {
      "issuer": {
        "id": 2697,
        "name": "SOCIÉTÉ D'ECLAIRAGE ET DE FORCE PAR L'ÉLECTRICITÉ A PARIS"
      },
      "job": {
        "id": 162,
        "name": "Président honoraire"
      },
      "start_date": "1933-01-01",
      "end_date": "1933-12-31"
    },
    {
      "issuer": {
        "id": 493,
        "name": "Compagnie du Chemin de fer du NORD"
      },
      "job": {
        "id": 117,
        "name": "Vice-Président",
        "short_name": "V.-Pr."
      },
      "start_date": "1933-01-01",
      "end_date": "1933-12-31"
    },
    {
      "issuer": {
        "id": 2506,
        "name": "FORGES ET ACIERIES DU NORD ET DE L'EST"
      },
      "job": {
        "id": 162,
        "name": "Président honoraire"
      },
      "start_date": "1933-01-01",
      "end_date": "1933-12-31"
    },
    {
      "issuer": {
        "id": 959,
        "name": "Compagnie des chemins de fer de Madrid à Saragosse et à Alicante"
      },
      "job": {
        "id": 219,
        "name": "Administrateur"
      },
      "start_date": "1933-01-01",
      "end_date": "1933-12-31"
    },
    {
      "issuer": {
        "id": 2210,
        "name": "Chemin de fer de GRANDE CEINTURE DE PARIS"
      },
      "job": {
        "id": 219,
        "name": "Administrateur"
      },
      "start_date": "1933-01-01",
      "end_date": "1933-12-31"
    },
    {
      "issuer": {
        "id": 3699,
        "name": "COMPAGNIE GENERALE DES COLONIES"
      },
      "job": {
        "id": 224,
        "name": "Président d'honneur"
      },
      "start_date": "1933-01-01",
      "end_date": "1933-12-31"
    },
    {
      "issuer": {
        "id": 3700,
        "name": "COMPAGNIE GENERALE DU MAROC"
      },
      "job": {
        "id": 162,
        "name": "Président honoraire"
      },
      "start_date": "1933-01-01",
      "end_date": "1933-12-31"
    },
    {
      "issuer": {
        "id": 2715,
        "name": "LE TRIPHASE"
      },
      "job": {
        "id": 117,
        "name": "Vice-Président",
        "short_name": "V.-Pr."
      },
      "start_date": "1933-01-01",
      "end_date": "1933-12-31"
    }
  ],
  "name": "Hippolyte-Gaston Griolet"
}