{
  "id": 111051,
  "names": [
    "R. Rogeon"
  ],
  "functions": [
    {
      "issuer": {
        "id": 566,
        "name": "Crédit Foncier de France"
      },
      "job": {
        "id": 133,
        "name": "Secrétaire général"
      },
      "start_date": "1948-01-01",
      "end_date": "1948-12-31"
    }
  ],
  "name": "R. Rogeon"
}