{
  "id": 112298,
  "names": [
    "M. Gomprée"
  ],
  "functions": [
    {
      "issuer": {
        "id": 5050,
        "name": "MINES D'OR DE KILO MOTO"
      },
      "job": {
        "id": 219,
        "name": "Administrateur"
      },
      "start_date": "1948-01-01",
      "end_date": "1948-12-31"
    }
  ],
  "name": "M. Gomprée"
}