{
  "id": 42072,
  "names": [
    "Otto Bemberg"
  ],
  "functions": [
    {
      "issuer": {
        "id": 510,
        "name": "La Sphère, Compagnie d'assurances maritimes"
      },
      "job": {
        "id": 219,
        "name": "Administrateur"
      },
      "start_date": "1883-01-01",
      "end_date": "1883-12-31"
    },
    {
      "issuer": {
        "id": 510,
        "name": "La Sphère, Compagnie d'assurances maritimes"
      },
      "job": {
        "id": 219,
        "name": "Administrateur"
      },
      "start_date": "1889-01-01",
      "end_date": "1889-12-31"
    }
  ],
  "name": "Otto Bemberg"
}