{
  "id": 62636,
  "names": [
    "Th. Boyd"
  ],
  "functions": [
    {
      "issuer": {
        "id": 4980,
        "name": "THE GULA-KALUMPONG RUBBER ESTATES"
      },
      "job": {
        "id": 219,
        "name": "Administrateur"
      },
      "start_date": "1917-01-01",
      "end_date": "1927-12-31"
    }
  ],
  "name": "Th. Boyd"
}