{
  "id": 90573,
  "names": [
    "H. Gasauet"
  ],
  "functions": [
    {
      "issuer": {
        "id": 10964,
        "name": "Sté INDEPENDANTE DE TELEGRAPHIE SANS FIL"
      },
      "job": {
        "id": 219,
        "name": "Administrateur"
      },
      "start_date": "1933-01-01",
      "end_date": "1933-12-31"
    }
  ],
  "name": "H. Gasauet"
}