{
  "id": 124452,
  "names": [
    "de la Bastide"
  ],
  "functions": [
    {
      "issuer": {
        "id": 1729,
        "name": "Banque de prêts à l'Industrie"
      },
      "job": {
        "id": 219,
        "name": "Administrateur"
      },
      "start_date": "1880-01-01",
      "end_date": "1880-12-31"
    }
  ],
  "name": "de la Bastide"
}