{
  "id": 92584,
  "names": [
    "M. Doifoy"
  ],
  "functions": [
    {
      "issuer": {
        "id": 4035,
        "name": "TUILERIES DE BEAUVAIS"
      },
      "job": {
        "id": 219,
        "name": "Administrateur"
      },
      "start_date": "1933-01-01",
      "end_date": "1933-12-31"
    }
  ],
  "name": "M. Doifoy"
}