{
  "id": 95583,
  "names": [
    "P. Cnuse"
  ],
  "functions": [
    {
      "issuer": {
        "id": 3510,
        "name": "LA CONCORDE (Compagnie d'assurances contre les risques de toute nature)"
      },
      "job": {
        "id": 176,
        "name": "Membre du conseil de surveillance",
        "short_name": "M.C.S."
      },
      "start_date": "1940-01-01",
      "end_date": "1940-12-31"
    }
  ],
  "name": "P. Cnuse"
}