{
  "id": 104538,
  "names": [
    "Henry Dubois"
  ],
  "functions": [
    {
      "issuer": {
        "id": 2039,
        "name": "SOCIETE DU FIGARO"
      },
      "job": {
        "id": 219,
        "name": "Administrateur"
      },
      "start_date": "1940-01-01",
      "end_date": "1940-12-31"
    }
  ],
  "name": "Henry Dubois"
}