{
  "id": 112969,
  "names": [
    "L. Brandt"
  ],
  "functions": [
    {
      "issuer": {
        "id": 4180,
        "name": "Cie INDUSTRIELLE DE MECANIQUE HORLOGERIE (JAZ)"
      },
      "job": {
        "id": 219,
        "name": "Administrateur"
      },
      "start_date": "1948-01-01",
      "end_date": "1953-12-31"
    }
  ],
  "name": "L. Brandt"
}