{
  "id": 122111,
  "names": [
    "Jean Schwob d'Héricourt"
  ],
  "functions": [
    {
      "issuer": {
        "id": 10565,
        "name": "SOCIÉTÉ FRANÇAISE DES PÉTROLES ESSENCES ET NAPHTES"
      },
      "job": {
        "id": 219,
        "name": "Administrateur"
      },
      "start_date": "1923-01-01",
      "end_date": "1923-12-31"
    },
    {
      "issuer": {
        "id": 2996,
        "name": "STÉ FSE DES DISTILLERIES DE L'INDO-CHINE"
      },
      "job": {
        "id": 219,
        "name": "Administrateur"
      },
      "start_date": "1927-01-01",
      "end_date": "1927-12-31"
    },
    {
      "issuer": {
        "id": 5424,
        "name": "SOCIETE FRANÇAISE INDUSTRIELLE ET COMMERCIALE DES PETROLES"
      },
      "job": {
        "id": 219,
        "name": "Administrateur"
      },
      "start_date": "1927-01-01",
      "end_date": "1933-12-31"
    },
    {
      "issuer": {
        "id": 2996,
        "name": "STÉ FSE DES DISTILLERIES DE L'INDO-CHINE"
      },
      "job": {
        "id": 219,
        "name": "Administrateur"
      },
      "start_date": "1933-01-01",
      "end_date": "1933-12-31"
    },
    {
      "issuer": {
        "id": 3730,
        "name": "Vinicole de Champagne"
      },
      "job": {
        "id": 102,
        "name": "Président",
        "short_name": "P."
      },
      "start_date": "1933-01-01",
      "end_date": "1933-12-31"
    },
    {
      "issuer": {
        "id": 3776,
        "name": "COMPAGNIE AGRICOLE ET SUCRIERE DE NOSSI-BÉ"
      },
      "job": {
        "id": 219,
        "name": "Administrateur"
      },
      "start_date": "1940-01-01",
      "end_date": "1940-12-31"
    },
    {
      "issuer": {
        "id": 4332,
        "name": "COMPAGNIE OPTORG"
      },
      "job": {
        "id": 102,
        "name": "Président",
        "short_name": "P."
      },
      "start_date": "1940-01-01",
      "end_date": "1940-12-31"
    },
    {
      "issuer": {
        "id": 2996,
        "name": "STÉ FSE DES DISTILLERIES DE L'INDO-CHINE"
      },
      "job": {
        "id": 219,
        "name": "Administrateur"
      },
      "start_date": "1940-01-01",
      "end_date": "1940-12-31"
    },
    {
      "issuer": {
        "id": 3752,
        "name": "SUCRERIE-RAFFINERIE DE NASSANDRES (Les Fils d'Albert Bouchon et Comptoir Sucrier réunis)"
      },
      "job": {
        "id": 219,
        "name": "Administrateur"
      },
      "start_date": "1940-01-01",
      "end_date": "1940-12-31"
    },
    {
      "issuer": {
        "id": 10985,
        "name": "SOCIETE NATIONALE DE LA VISCOSE"
      },
      "job": {
        "id": 219,
        "name": "Administrateur"
      },
      "start_date": "1940-01-01",
      "end_date": "1940-12-31"
    },
    {
      "issuer": {
        "id": 3730,
        "name": "Vinicole de Champagne"
      },
      "job": {
        "id": 102,
        "name": "Président",
        "short_name": "P."
      },
      "start_date": "1940-01-01",
      "end_date": "1940-12-31"
    },
    {
      "issuer": {
        "id": 4311,
        "name": "SOCIÉTÉ FRANÇAISE POUR LE COMMERCE AVEC LES COLONIES ET L'ÉTRANGER (Anciens Etablissements David Gradis et fils)"
      },
      "job": {
        "id": 219,
        "name": "Administrateur"
      },
      "start_date": "1945-01-01",
      "end_date": "1945-12-31"
    },
    {
      "issuer": {
        "id": 2996,
        "name": "STÉ FSE DES DISTILLERIES DE L'INDO-CHINE"
      },
      "job": {
        "id": 219,
        "name": "Administrateur"
      },
      "start_date": "1948-01-01",
      "end_date": "1948-12-31"
    },
    {
      "issuer": {
        "id": 4311,
        "name": "SOCIÉTÉ FRANÇAISE POUR LE COMMERCE AVEC LES COLONIES ET L'ÉTRANGER (Anciens Etablissements David Gradis et fils)"
      },
      "job": {
        "id": 219,
        "name": "Administrateur"
      },
      "start_date": "1948-01-01",
      "end_date": "1948-12-31"
    },
    {
      "issuer": {
        "id": 3752,
        "name": "SUCRERIE-RAFFINERIE DE NASSANDRES (Les Fils d'Albert Bouchon et Comptoir Sucrier réunis)"
      },
      "job": {
        "id": 219,
        "name": "Administrateur"
      },
      "start_date": "1948-01-01",
      "end_date": "1948-12-31"
    },
    {
      "issuer": {
        "id": 3776,
        "name": "COMPAGNIE AGRICOLE ET SUCRIERE DE NOSSI-BÉ"
      },
      "job": {
        "id": 219,
        "name": "Administrateur"
      },
      "start_date": "1953-01-01",
      "end_date": "1953-12-31"
    },
    {
      "issuer": {
        "id": 3752,
        "name": "SUCRERIE-RAFFINERIE DE NASSANDRES (Les Fils d'Albert Bouchon et Comptoir Sucrier réunis)"
      },
      "job": {
        "id": 219,
        "name": "Administrateur"
      },
      "start_date": "1953-01-01",
      "end_date": "1953-12-31"
    },
    {
      "issuer": {
        "id": 2996,
        "name": "STÉ FSE DES DISTILLERIES DE L'INDO-CHINE"
      },
      "job": {
        "id": 219,
        "name": "Administrateur"
      },
      "start_date": "1953-01-01",
      "end_date": "1953-12-31"
    },
    {
      "issuer": {
        "id": 4311,
        "name": "SOCIÉTÉ FRANÇAISE POUR LE COMMERCE AVEC LES COLONIES ET L'ÉTRANGER (Anciens Etablissements David Gradis et fils)"
      },
      "job": {
        "id": 16022,
        "name": "Administrateur Directeur Général"
      },
      "start_date": "1953-01-01",
      "end_date": "1953-12-31"
    }
  ],
  "name": "Jean Schwob d'Héricourt"
}