{
  "id": 48032,
  "names": [
    "A. Goethals"
  ],
  "functions": [
    {
      "issuer": {
        "id": 7060,
        "name": "Société des Téléphones de Madrid"
      },
      "job": {
        "id": 10420,
        "name": "Liquidateur"
      },
      "start_date": "1898-01-01",
      "end_date": "1898-12-31"
    },
    {
      "issuer": {
        "id": 2223,
        "name": "SOCIÉTÉ DES CHEMINS DE FER DE MADRID A CACÉRÈS ET AU PORTUGAL"
      },
      "job": {
        "id": 219,
        "name": "Administrateur"
      },
      "start_date": "1898-01-01",
      "end_date": "1898-12-31"
    }
  ],
  "name": "A. Goethals"
}