{
  "id": 59646,
  "names": [
    "C. G. Leijonhufvud"
  ],
  "functions": [
    {
      "issuer": {
        "id": 2404,
        "name": "CREDIT FONCIER DE STOCKHOLM"
      },
      "job": {
        "id": 219,
        "name": "Administrateur"
      },
      "start_date": "1917-01-01",
      "end_date": "1917-12-31"
    }
  ],
  "name": "C. G. Leijonhufvud"
}