{
  "id": 102593,
  "names": [
    "E. Vlamynck"
  ],
  "functions": [
    {
      "issuer": {
        "id": 3268,
        "name": "COMPAGNIES RÉUNIES GAZ ET ÉLECTRICITÉ (Gaz et Electricité de Lisbonne)"
      },
      "job": {
        "id": 176,
        "name": "Membre du conseil de surveillance",
        "short_name": "M.C.S."
      },
      "start_date": "1940-01-01",
      "end_date": "1945-12-31"
    }
  ],
  "name": "E. Vlamynck"
}