{
  "id": 78056,
  "names": [
    "Girche"
  ],
  "functions": [
    {
      "issuer": {
        "id": 3541,
        "name": "ASSOCIATION FINANCIÈRE POUR LE COMMERCE ET L'INDUSTRIE"
      },
      "job": {
        "id": 219,
        "name": "Administrateur"
      },
      "start_date": "1923-01-01",
      "end_date": "1927-12-31"
    }
  ],
  "name": "Girche"
}