{
  "id": 109612,
  "names": [
    "P. Soureuil"
  ],
  "functions": [
    {
      "issuer": {
        "id": 11498,
        "name": "UNION CHAPELIERE FRANÇAISE"
      },
      "job": {
        "id": 10258,
        "name": "Suppléant"
      },
      "start_date": "1945-01-01",
      "end_date": "1945-12-31"
    }
  ],
  "name": "P. Soureuil"
}