{
  "id": 75757,
  "names": [
    "J. Pedriali"
  ],
  "functions": [
    {
      "issuer": {
        "id": 3275,
        "name": "CIE GLE DE TRAMWAYS DE BUENOS-AYRES"
      },
      "job": {
        "id": 219,
        "name": "Administrateur"
      },
      "start_date": "1923-01-01",
      "end_date": "1933-12-31"
    }
  ],
  "name": "J. Pedriali"
}