{
  "id": 102985,
  "names": [
    "E. Duhem"
  ],
  "functions": [
    {
      "issuer": {
        "id": 3994,
        "name": "SOCIETE POUR LA CONSTRUCTION ET L'ENTRETIEN DES ROUTES"
      },
      "job": {
        "id": 219,
        "name": "Administrateur"
      },
      "start_date": "1940-01-01",
      "end_date": "1953-12-31"
    }
  ],
  "name": "E. Duhem"
}