{
  "id": 58539,
  "names": [
    "G. Fehrenbach"
  ],
  "functions": [
    {
      "issuer": {
        "id": 10370,
        "name": "Société R. Perrody & Cie"
      },
      "job": {
        "id": 10637,
        "name": "Membre du Comité de surveillance"
      },
      "start_date": "1912-01-01",
      "end_date": "1912-12-31"
    }
  ],
  "name": "G. Fehrenbach"
}