{
  "id": 48634,
  "names": [
    "Perrichont"
  ],
  "functions": [
    {
      "issuer": {
        "id": 7057,
        "name": "SOCIETE SERBE-FRANÇAISE D'ECLAIRAGE ET DE VOIES FERRÉES"
      },
      "job": {
        "id": 219,
        "name": "Administrateur"
      },
      "start_date": "1898-01-01",
      "end_date": "1898-12-31"
    }
  ],
  "name": "Perrichont"
}