{
  "id": 103227,
  "names": [
    "J. Bedouet"
  ],
  "functions": [
    {
      "issuer": {
        "id": 3914,
        "name": "CULTURES DE DIAKANDAPE"
      },
      "job": {
        "id": 219,
        "name": "Administrateur"
      },
      "start_date": "1933-01-01",
      "end_date": "1933-12-31"
    },
    {
      "issuer": {
        "id": 3914,
        "name": "CULTURES DE DIAKANDAPE"
      },
      "job": {
        "id": 219,
        "name": "Administrateur"
      },
      "start_date": "1940-01-01",
      "end_date": "1940-12-31"
    },
    {
      "issuer": {
        "id": 11485,
        "name": "SOCIETE DES PLANTATIONS DE CASAMANCE"
      },
      "job": {
        "id": 219,
        "name": "Administrateur"
      },
      "start_date": "1945-01-01",
      "end_date": "1945-12-31"
    },
    {
      "issuer": {
        "id": 11485,
        "name": "SOCIETE DES PLANTATIONS DE CASAMANCE"
      },
      "job": {
        "id": 102,
        "name": "Président",
        "short_name": "P."
      },
      "start_date": "1948-01-01",
      "end_date": "1948-12-31"
    },
    {
      "issuer": {
        "id": 2075,
        "name": "COMPAGNIE DE CULTURE COTONNIERE DU NIGER"
      },
      "job": {
        "id": 219,
        "name": "Administrateur"
      },
      "start_date": "1953-01-01",
      "end_date": "1953-12-31"
    }
  ],
  "name": "J. Bedouet"
}