{
  "id": 41633,
  "names": [
    "baron Trenck de Tonder"
  ],
  "functions": [
    {
      "issuer": {
        "id": 1162,
        "name": "Société autrichienne-hongroise privilégiée des chemins de fer de l'État"
      },
      "job": {
        "id": 219,
        "name": "Administrateur"
      },
      "start_date": "1880-01-01",
      "end_date": "1883-12-31"
    }
  ],
  "name": "baron Trenck de Tonder"
}