{
  "id": 63416,
  "names": [
    "C. Renard"
  ],
  "functions": [
    {
      "issuer": {
        "id": 10427,
        "name": "MANUFACTURE DES PIANOS GUILLOT"
      },
      "job": {
        "id": 219,
        "name": "Administrateur"
      },
      "start_date": "1917-01-01",
      "end_date": "1923-12-31"
    }
  ],
  "name": "C. Renard"
}