{
  "id": 105442,
  "names": [
    "P. Rouzé"
  ],
  "functions": [
    {
      "issuer": {
        "id": 3062,
        "name": "COMPAGNIE DES MINES DE L'ESCARPELLE"
      },
      "job": {
        "id": 219,
        "name": "Administrateur"
      },
      "start_date": "1945-01-01",
      "end_date": "1945-12-31"
    }
  ],
  "name": "P. Rouzé"
}