{
  "id": 51164,
  "names": [
    "de Kubinyi"
  ],
  "functions": [
    {
      "issuer": {
        "id": 1943,
        "name": "CRÉDIT FONCIER DU ROYAUME DE HONGRIE"
      },
      "job": {
        "id": 219,
        "name": "Administrateur"
      },
      "start_date": "1903-01-01",
      "end_date": "1927-12-31"
    }
  ],
  "name": "de Kubinyi"
}