{
  "id": 115020,
  "names": [
    "P. Kieffer"
  ],
  "functions": [
    {
      "issuer": {
        "id": 4231,
        "name": "SOCIÉTÉ DE L'HOTEL MEURICE"
      },
      "job": {
        "id": 219,
        "name": "Administrateur"
      },
      "start_date": "1948-01-01",
      "end_date": "1948-12-31"
    }
  ],
  "name": "P. Kieffer"
}