{
  "id": 56989,
  "names": [
    "J. Reverchon"
  ],
  "functions": [
    {
      "issuer": {
        "id": 10993,
        "name": "SOCIÉTÉ ANONYME DE TEINTURE, IMPRESSION ET APPRÊTS DE THIZY"
      },
      "job": {
        "id": 219,
        "name": "Administrateur"
      },
      "start_date": "1912-01-01",
      "end_date": "1912-12-31"
    },
    {
      "issuer": {
        "id": 10993,
        "name": "SOCIÉTÉ ANONYME DE TEINTURE, IMPRESSION ET APPRÊTS DE THIZY"
      },
      "job": {
        "id": 219,
        "name": "Administrateur"
      },
      "start_date": "1917-01-01",
      "end_date": "1917-12-31"
    }
  ],
  "name": "J. Reverchon"
}