{
  "id": 118735,
  "names": [
    "C. Weiffenbach"
  ],
  "functions": [
    {
      "issuer": {
        "id": 4204,
        "name": "COMPAGNIE DES MEULES NORTON"
      },
      "job": {
        "id": 219,
        "name": "Administrateur"
      },
      "start_date": "1953-01-01",
      "end_date": "1953-12-31"
    }
  ],
  "name": "C. Weiffenbach"
}