{
  "id": 75286,
  "names": [
    "H. Ponnier"
  ],
  "functions": [
    {
      "issuer": {
        "id": 4089,
        "name": "SOCIÉTÉ GAVEAU ET Cie"
      },
      "job": {
        "id": 219,
        "name": "Administrateur"
      },
      "start_date": "1923-01-01",
      "end_date": "1927-12-31"
    },
    {
      "issuer": {
        "id": 4089,
        "name": "SOCIÉTÉ GAVEAU ET Cie"
      },
      "job": {
        "id": 176,
        "name": "Membre du conseil de surveillance",
        "short_name": "M.C.S."
      },
      "start_date": "1933-01-01",
      "end_date": "1933-12-31"
    }
  ],
  "name": "H. Ponnier"
}