{
  "id": 75779,
  "names": [
    "Lcewe"
  ],
  "functions": [
    {
      "issuer": {
        "id": 5069,
        "name": "Armateurs Français"
      },
      "job": {
        "id": 219,
        "name": "Administrateur"
      },
      "start_date": "1923-01-01",
      "end_date": "1923-12-31"
    }
  ],
  "name": "Lcewe"
}