{
  "id": 92504,
  "names": [
    "Casadesus"
  ],
  "functions": [
    {
      "issuer": {
        "id": 10074,
        "name": "STÉ D'ÉDITIONS LITTÉRAIRES & ARTISTIQUES"
      },
      "job": {
        "id": 219,
        "name": "Administrateur"
      },
      "start_date": "1933-01-01",
      "end_date": "1933-12-31"
    }
  ],
  "name": "Casadesus"
}