{
  "id": 57160,
  "names": [
    "J. Donegani"
  ],
  "functions": [
    {
      "issuer": {
        "id": 2873,
        "name": "SOCIÉTÉ DES PHOSPHATES TUNISIENS ET DES ENGRAIS ET PRODUITS CHIMIQUES"
      },
      "job": {
        "id": 219,
        "name": "Administrateur"
      },
      "start_date": "1912-01-01",
      "end_date": "1917-12-31"
    }
  ],
  "name": "J. Donegani"
}