{
  "id": 80683,
  "names": [
    "Rocca"
  ],
  "functions": [
    {
      "issuer": {
        "id": 10751,
        "name": "SOCIÉTÉ AGRICOLE DE MOPÉLIA (TAHITI)"
      },
      "job": {
        "id": 219,
        "name": "Administrateur"
      },
      "start_date": "1927-01-01",
      "end_date": "1927-12-31"
    }
  ],
  "name": "Rocca"
}