{
  "id": 78268,
  "names": [
    "G. Vilain XIII"
  ],
  "functions": [
    {
      "issuer": {
        "id": 10398,
        "name": "TRUST METALLURGIQUE BELGE-FRANÇAIS (En liquidation)"
      },
      "job": {
        "id": 219,
        "name": "Administrateur"
      },
      "start_date": "1923-01-01",
      "end_date": "1927-12-31"
    }
  ],
  "name": "G. Vilain XIII"
}