{
  "id": 109265,
  "names": [
    "comte Etienne de Ganay"
  ],
  "functions": [
    {
      "issuer": {
        "id": 3749,
        "name": "Sté NOUVELLE DE RAFFINERIE LEBAUDY-SOMMIER"
      },
      "job": {
        "id": 219,
        "name": "Administrateur"
      },
      "start_date": "1945-01-01",
      "end_date": "1948-12-31"
    },
    {
      "issuer": {
        "id": 4162,
        "name": "ATELIERS DE CONSTRUCTION LAVALETTE"
      },
      "job": {
        "id": 219,
        "name": "Administrateur"
      },
      "start_date": "1945-01-01",
      "end_date": "1953-12-31"
    },
    {
      "issuer": {
        "id": 4846,
        "name": "TANNERIES DE FRANCE"
      },
      "job": {
        "id": 219,
        "name": "Administrateur"
      },
      "start_date": "1948-01-01",
      "end_date": "1953-12-31"
    }
  ],
  "name": "comte Etienne de Ganay"
}