{
  "id": 90237,
  "names": [
    "L. Lacarrière"
  ],
  "functions": [
    {
      "issuer": {
        "id": 4369,
        "name": "COMPAGNIE DES LAMPES"
      },
      "job": {
        "id": 219,
        "name": "Administrateur"
      },
      "start_date": "1933-01-01",
      "end_date": "1933-12-31"
    }
  ],
  "name": "L. Lacarrière"
}