{
  "id": 85206,
  "names": [
    "Jacques Achalme"
  ],
  "functions": [
    {
      "issuer": {
        "id": 10888,
        "name": "COMPAGNIE MINIERE DE LA RIBEIRA"
      },
      "job": {
        "id": 219,
        "name": "Administrateur"
      },
      "start_date": "1933-01-01",
      "end_date": "1933-12-31"
    },
    {
      "issuer": {
        "id": 5313,
        "name": "AFRIQUE MINIERE ÉQUATORIALE (A. M. E.)"
      },
      "job": {
        "id": 219,
        "name": "Administrateur"
      },
      "start_date": "1933-01-01",
      "end_date": "1933-12-31"
    },
    {
      "issuer": {
        "id": 4503,
        "name": "COMPAGNIE MINIERE DU CONGO FRANÇAIS"
      },
      "job": {
        "id": 219,
        "name": "Administrateur"
      },
      "start_date": "1933-01-01",
      "end_date": "1933-12-31"
    }
  ],
  "name": "Jacques Achalme"
}