{
  "id": 118816,
  "names": [
    "R. Courbin"
  ],
  "functions": [
    {
      "issuer": {
        "id": 11573,
        "name": "Etablissements H. Grenier"
      },
      "job": {
        "id": 10019,
        "name": "Commissaire des comptes"
      },
      "start_date": "1953-01-01",
      "end_date": "1953-12-31"
    }
  ],
  "name": "R. Courbin"
}