{
  "id": 71021,
  "names": [
    "H. M. Gutmann"
  ],
  "functions": [
    {
      "issuer": {
        "id": 3266,
        "name": "CHARBONNAGES DE HARPEN (Harpener-Bergbau-Actien-Gesellschaft)"
      },
      "job": {
        "id": 219,
        "name": "Administrateur"
      },
      "start_date": "1917-01-01",
      "end_date": "1933-12-31"
    },
    {
      "issuer": {
        "id": 1325,
        "name": "SOCIETE DE MINES ET USINES A ZINC DE SILÉSIE"
      },
      "job": {
        "id": 219,
        "name": "Administrateur"
      },
      "start_date": "1933-01-01",
      "end_date": "1933-12-31"
    }
  ],
  "name": "H. M. Gutmann"
}