{
  "id": 57212,
  "names": [
    "R. Romeu"
  ],
  "functions": [
    {
      "issuer": {
        "id": 10354,
        "name": "The Safety Bioscope Supplies Co, Ltd"
      },
      "job": {
        "id": 219,
        "name": "Administrateur"
      },
      "start_date": "1912-01-01",
      "end_date": "1912-12-31"
    },
    {
      "issuer": {
        "id": 10206,
        "name": "COMPAGNIE FONCIERE ET INDUSTRIELLE"
      },
      "job": {
        "id": 219,
        "name": "Administrateur"
      },
      "start_date": "1912-01-01",
      "end_date": "1912-12-31"
    },
    {
      "issuer": {
        "id": 10059,
        "name": "THE COLOMBIAN INDIA RUBBER EXPLORATION COMPANY, LIMITED"
      },
      "job": {
        "id": 219,
        "name": "Administrateur"
      },
      "start_date": "1912-01-01",
      "end_date": "1912-12-31"
    },
    {
      "issuer": {
        "id": 10240,
        "name": "LE CHAMP D'OR FRENCH GOLD MINING C° LTD"
      },
      "job": {
        "id": 219,
        "name": "Administrateur"
      },
      "start_date": "1917-01-01",
      "end_date": "1917-12-31"
    }
  ],
  "name": "R. Romeu"
}