{
  "id": 72583,
  "names": [
    "de San Luis"
  ],
  "functions": [
    {
      "issuer": {
        "id": 959,
        "name": "Compagnie des chemins de fer de Madrid à Saragosse et à Alicante"
      },
      "job": {
        "id": 10266,
        "name": "administrateur à Madrid"
      },
      "start_date": "1923-01-01",
      "end_date": "1923-12-31"
    }
  ],
  "name": "de San Luis"
}