{
  "id": 79721,
  "names": [
    "Schwoerer"
  ],
  "functions": [
    {
      "issuer": {
        "id": 4834,
        "name": "SOCIÉTÉ INDOCHINOISE DE TRANSPORTS"
      },
      "job": {
        "id": 219,
        "name": "Administrateur"
      },
      "start_date": "1927-01-01",
      "end_date": "1933-12-31"
    }
  ],
  "name": "Schwoerer"
}