{
  "id": 112095,
  "names": [
    "E. Ottulescu"
  ],
  "functions": [
    {
      "issuer": {
        "id": 3447,
        "name": "ASTRA ROMANA"
      },
      "job": {
        "id": 219,
        "name": "Administrateur"
      },
      "start_date": "1948-01-01",
      "end_date": "1948-12-31"
    }
  ],
  "name": "E. Ottulescu"
}