{
  "id": 63428,
  "names": [
    "Ozanne"
  ],
  "functions": [
    {
      "issuer": {
        "id": 10387,
        "name": "SOCIETE DES AGGLOMÉRÉS DE PARIS"
      },
      "job": {
        "id": 219,
        "name": "Administrateur"
      },
      "start_date": "1917-01-01",
      "end_date": "1917-12-31"
    }
  ],
  "name": "Ozanne"
}