{
  "id": 83093,
  "names": [
    "Lucien Lassalle"
  ],
  "functions": [
    {
      "issuer": {
        "id": 5208,
        "name": "RÉGIE IMMOBILIERE DE LA VILLE DE PARIS"
      },
      "job": {
        "id": 219,
        "name": "Administrateur"
      },
      "start_date": "1927-01-01",
      "end_date": "1927-12-31"
    },
    {
      "issuer": {
        "id": 1381,
        "name": "Sous-Comptoir des Entrepreneurs"
      },
      "job": {
        "id": 219,
        "name": "Administrateur"
      },
      "start_date": "1927-01-01",
      "end_date": "1933-12-31"
    },
    {
      "issuer": {
        "id": 566,
        "name": "Crédit Foncier de France"
      },
      "job": {
        "id": 219,
        "name": "Administrateur"
      },
      "start_date": "1940-01-01",
      "end_date": "1940-12-31"
    },
    {
      "issuer": {
        "id": 1381,
        "name": "Sous-Comptoir des Entrepreneurs"
      },
      "job": {
        "id": 219,
        "name": "Administrateur"
      },
      "start_date": "1940-01-01",
      "end_date": "1948-12-31"
    },
    {
      "issuer": {
        "id": 566,
        "name": "Crédit Foncier de France"
      },
      "job": {
        "id": 223,
        "name": "Sous-gouverneur"
      },
      "start_date": "1945-01-01",
      "end_date": "1945-12-31"
    },
    {
      "issuer": {
        "id": 566,
        "name": "Crédit Foncier de France"
      },
      "job": {
        "id": 219,
        "name": "Administrateur"
      },
      "start_date": "1948-01-01",
      "end_date": "1953-12-31"
    },
    {
      "issuer": {
        "id": 1381,
        "name": "Sous-Comptoir des Entrepreneurs"
      },
      "job": {
        "id": 219,
        "name": "Administrateur"
      },
      "start_date": "1953-01-01",
      "end_date": "1953-12-31"
    }
  ],
  "name": "Lucien Lassalle"
}