{
  "id": 126599,
  "names": [
    "Albert Carlier"
  ],
  "functions": [
    {
      "issuer": {
        "id": 3723,
        "name": "ETABLISSEMENTS JULIEN DAMOY"
      },
      "job": {
        "id": 219,
        "name": "Administrateur"
      },
      "start_date": "1933-01-01",
      "end_date": "1933-12-31"
    },
    {
      "issuer": {
        "id": 2655,
        "name": "SOCIETE ANONYME OMNIA (CINÉMA MONTMARTRE ET EXTENSIONS)"
      },
      "job": {
        "id": 219,
        "name": "Administrateur"
      },
      "start_date": "1945-01-01",
      "end_date": "1945-12-31"
    },
    {
      "issuer": {
        "id": 3723,
        "name": "ETABLISSEMENTS JULIEN DAMOY"
      },
      "job": {
        "id": 219,
        "name": "Administrateur"
      },
      "start_date": "1948-01-01",
      "end_date": "1953-12-31"
    },
    {
      "issuer": {
        "id": 2655,
        "name": "SOCIETE ANONYME OMNIA (CINÉMA MONTMARTRE ET EXTENSIONS)"
      },
      "job": {
        "id": 219,
        "name": "Administrateur"
      },
      "start_date": "1953-01-01",
      "end_date": "1953-12-31"
    }
  ],
  "name": "Albert Carlier"
}