{
  "id": 43114,
  "names": [
    "H. Renard"
  ],
  "functions": [
    {
      "issuer": {
        "id": 2333,
        "name": "Société générale de fournitures militaires"
      },
      "job": {
        "id": 219,
        "name": "Administrateur"
      },
      "start_date": "1883-01-01",
      "end_date": "1883-12-31"
    }
  ],
  "name": "H. Renard"
}