{
  "id": 75036,
  "names": [
    "A. Estier"
  ],
  "functions": [
    {
      "issuer": {
        "id": 4224,
        "name": "SOCIETE DE TRAVAUX ET INDUSTRIES MARITIMES"
      },
      "job": {
        "id": 219,
        "name": "Administrateur"
      },
      "start_date": "1923-01-01",
      "end_date": "1923-12-31"
    },
    {
      "issuer": {
        "id": 4224,
        "name": "SOCIETE DE TRAVAUX ET INDUSTRIES MARITIMES"
      },
      "job": {
        "id": 219,
        "name": "Administrateur"
      },
      "start_date": "1927-01-01",
      "end_date": "1927-12-31"
    },
    {
      "issuer": {
        "id": 4224,
        "name": "SOCIETE DE TRAVAUX ET INDUSTRIES MARITIMES"
      },
      "job": {
        "id": 219,
        "name": "Administrateur"
      },
      "start_date": "1933-01-01",
      "end_date": "1933-12-31"
    }
  ],
  "name": "A. Estier"
}