{
  "id": 72467,
  "names": [
    "baron Durrieu"
  ],
  "functions": [
    {
      "issuer": {
        "id": 10520,
        "name": "SOCIETE COMMERCIALE ET INDUSTRIELLE DES PALMERAIES AFRICAINES (S. C. I. P. A.)"
      },
      "job": {
        "id": 219,
        "name": "Administrateur"
      },
      "start_date": "1923-01-01",
      "end_date": "1923-12-31"
    },
    {
      "issuer": {
        "id": 10520,
        "name": "SOCIETE COMMERCIALE ET INDUSTRIELLE DES PALMERAIES AFRICAINES (S. C. I. P. A.)"
      },
      "job": {
        "id": 219,
        "name": "Administrateur"
      },
      "start_date": "1927-01-01",
      "end_date": "1927-12-31"
    }
  ],
  "name": "baron Durrieu"
}