{
  "id": 95807,
  "names": [
    "lord George Ambrose Lloyd of Dolobran"
  ],
  "functions": [
    {
      "issuer": {
        "id": 2409,
        "name": "THE BRITISH SOUTH AFRICA COMPANY (CHARTERED)"
      },
      "job": {
        "id": 219,
        "name": "Administrateur"
      },
      "start_date": "1940-01-01",
      "end_date": "1940-12-31"
    }
  ],
  "name": "lord George Ambrose Lloyd of Dolobran"
}