{
  "id": 59742,
  "names": [
    "F. Dobrynine"
  ],
  "functions": [
    {
      "issuer": {
        "id": 3756,
        "name": "BANQUE DE COMMERCE PRIVÉE DE SAINT-PÉTERSBOURG"
      },
      "job": {
        "id": 219,
        "name": "Administrateur"
      },
      "start_date": "1917-01-01",
      "end_date": "1917-12-31"
    },
    {
      "issuer": {
        "id": 3756,
        "name": "BANQUE DE COMMERCE PRIVÉE DE SAINT-PÉTERSBOURG"
      },
      "job": {
        "id": 219,
        "name": "Administrateur"
      },
      "start_date": "1927-01-01",
      "end_date": "1927-12-31"
    }
  ],
  "name": "F. Dobrynine"
}