{
  "id": 81511,
  "names": [
    "Jules Gilbert"
  ],
  "functions": [
    {
      "issuer": {
        "id": 670,
        "name": "Compagnie du Jardin Zoologique d'Acclimatation"
      },
      "job": {
        "id": 219,
        "name": "Administrateur"
      },
      "start_date": "1927-01-01",
      "end_date": "1927-12-31"
    },
    {
      "issuer": {
        "id": 4045,
        "name": "CONSTRUCTIONS EDMOND COIGNET"
      },
      "job": {
        "id": 219,
        "name": "Administrateur"
      },
      "start_date": "1927-01-01",
      "end_date": "1933-12-31"
    },
    {
      "issuer": {
        "id": 4045,
        "name": "CONSTRUCTIONS EDMOND COIGNET"
      },
      "job": {
        "id": 101,
        "name": "Administrateur Délégué",
        "short_name": "Ad. Dél."
      },
      "start_date": "1940-01-01",
      "end_date": "1940-12-31"
    },
    {
      "issuer": {
        "id": 2744,
        "name": "COMPAGNIE FRANÇAISE DU BI-MÉTAL"
      },
      "job": {
        "id": 10019,
        "name": "Commissaire des comptes"
      },
      "start_date": "1945-01-01",
      "end_date": "1953-12-31"
    },
    {
      "issuer": {
        "id": 4242,
        "name": "SOCIETE DES HOTELS ET CASINOS DE DEAUVILLE"
      },
      "job": {
        "id": 219,
        "name": "Administrateur"
      },
      "start_date": "1948-01-01",
      "end_date": "1953-12-31"
    }
  ],
  "name": "Jules Gilbert"
}