{
  "id": 81603,
  "names": [
    "H. Gutzeit"
  ],
  "functions": [
    {
      "issuer": {
        "id": 2574,
        "name": "SOCIÉTÉ CENTRALE DES BOIS"
      },
      "job": {
        "id": 219,
        "name": "Administrateur"
      },
      "start_date": "1927-01-01",
      "end_date": "1933-12-31"
    },
    {
      "issuer": {
        "id": 3969,
        "name": "Société Centrale des Bois et des Scieries de la Manche"
      },
      "job": {
        "id": 231,
        "name": "administrateur délégué directeur"
      },
      "start_date": "1940-01-01",
      "end_date": "1940-12-31"
    },
    {
      "issuer": {
        "id": 3969,
        "name": "Société Centrale des Bois et des Scieries de la Manche"
      },
      "job": {
        "id": 219,
        "name": "Administrateur"
      },
      "start_date": "1945-01-01",
      "end_date": "1948-12-31"
    },
    {
      "issuer": {
        "id": 4027,
        "name": "IMPORTATION DES BOIS DU NORD ET D'AMERIQUE HAILAUST ET GUTZEIT"
      },
      "job": {
        "id": 219,
        "name": "Administrateur"
      },
      "start_date": "1953-01-01",
      "end_date": "1953-12-31"
    },
    {
      "issuer": {
        "id": 3969,
        "name": "Société Centrale des Bois et des Scieries de la Manche"
      },
      "job": {
        "id": 102,
        "name": "Président",
        "short_name": "P."
      },
      "start_date": "1953-01-01",
      "end_date": "1953-12-31"
    },
    {
      "issuer": {
        "id": 4360,
        "name": "SOCIETE NANTAISE D'IMPORTATION AU MAROC"
      },
      "job": {
        "id": 141,
        "name": "Directeur Général",
        "short_name": "D.G."
      },
      "start_date": "1953-01-01",
      "end_date": "1953-12-31"
    }
  ],
  "name": "H. Gutzeit"
}