{
  "id": 98743,
  "names": [
    "J. D. W. Holmes"
  ],
  "functions": [
    {
      "issuer": {
        "id": 1957,
        "name": "Banque Nationale du Mexique"
      },
      "job": {
        "id": 219,
        "name": "Administrateur"
      },
      "start_date": "1940-01-01",
      "end_date": "1953-12-31"
    }
  ],
  "name": "J. D. W. Holmes"
}