{
  "id": 112941,
  "names": [
    "P. Descourtie"
  ],
  "functions": [
    {
      "issuer": {
        "id": 11534,
        "name": "LA PRECISION MECANIQUE"
      },
      "job": {
        "id": 219,
        "name": "Administrateur"
      },
      "start_date": "1948-01-01",
      "end_date": "1948-12-31"
    }
  ],
  "name": "P. Descourtie"
}