{
  "id": 41945,
  "names": [
    "Outin"
  ],
  "functions": [
    {
      "issuer": {
        "id": 444,
        "name": "LA CONFIANCE Compagnie d'Assurances contre l'Incendie"
      },
      "job": {
        "id": 219,
        "name": "Administrateur"
      },
      "start_date": "1880-01-01",
      "end_date": "1880-12-31"
    },
    {
      "issuer": {
        "id": 444,
        "name": "LA CONFIANCE Compagnie d'Assurances contre l'Incendie"
      },
      "job": {
        "id": 102,
        "name": "Président",
        "short_name": "P."
      },
      "start_date": "1883-01-01",
      "end_date": "1883-12-31"
    }
  ],
  "name": "Outin"
}