{
  "id": 62907,
  "names": [
    "Léon Dupré"
  ],
  "functions": [
    {
      "issuer": {
        "id": 2984,
        "name": "SOCIÉTÉ ANONYME DES CAVES ET DES PRODUCTEURS RÉUNIS DE ROQUEFORT"
      },
      "job": {
        "id": 219,
        "name": "Administrateur"
      },
      "start_date": "1917-01-01",
      "end_date": "1933-12-31"
    },
    {
      "issuer": {
        "id": 3297,
        "name": "COMPAGNIE GENERALE DES TRANSPORTS EN AFRIQUE"
      },
      "job": {
        "id": 219,
        "name": "Administrateur"
      },
      "start_date": "1953-01-01",
      "end_date": "1953-12-31"
    }
  ],
  "name": "Léon Dupré"
}