{
  "id": 99744,
  "names": [
    "Fuller"
  ],
  "functions": [
    {
      "issuer": {
        "id": 5026,
        "name": "TAVOY TIN DREDGING CORPORATION LIMITED"
      },
      "job": {
        "id": 10019,
        "name": "Commissaire des comptes"
      },
      "start_date": "1940-01-01",
      "end_date": "1953-12-31"
    }
  ],
  "name": "Fuller"
}