{
  "id": 42973,
  "names": [
    "Ferdinand Périer"
  ],
  "functions": [
    {
      "issuer": {
        "id": 2238,
        "name": "Compagnie Havraise péninsulaire de navigation a vapeur"
      },
      "job": {
        "id": 219,
        "name": "Administrateur"
      },
      "start_date": "1883-01-01",
      "end_date": "1889-12-31"
    },
    {
      "issuer": {
        "id": 2238,
        "name": "Compagnie Havraise péninsulaire de navigation a vapeur"
      },
      "job": {
        "id": 102,
        "name": "Président",
        "short_name": "P."
      },
      "start_date": "1893-01-01",
      "end_date": "1908-12-31"
    },
    {
      "issuer": {
        "id": 2238,
        "name": "Compagnie Havraise péninsulaire de navigation a vapeur"
      },
      "job": {
        "id": 102,
        "name": "Président",
        "short_name": "P."
      },
      "start_date": "1898-01-01",
      "end_date": "1898-12-31"
    },
    {
      "issuer": {
        "id": 2238,
        "name": "Compagnie Havraise péninsulaire de navigation a vapeur"
      },
      "job": {
        "id": 102,
        "name": "Président",
        "short_name": "P."
      },
      "start_date": "1903-01-01",
      "end_date": "1903-12-31"
    },
    {
      "issuer": {
        "id": 2286,
        "name": "Société anonyme des Chantiers et ateliers de la Gironde anciens établissements Bichon frères"
      },
      "job": {
        "id": 117,
        "name": "Vice-Président",
        "short_name": "V.-Pr."
      },
      "start_date": "1903-01-01",
      "end_date": "1908-12-31"
    },
    {
      "issuer": {
        "id": 1239,
        "name": "Compagnie du Gaz de Mulhouse"
      },
      "job": {
        "id": 219,
        "name": "Administrateur"
      },
      "start_date": "1903-01-01",
      "end_date": "1917-12-31"
    },
    {
      "issuer": {
        "id": 2255,
        "name": "Société anonyme des Mines de Malfidano"
      },
      "job": {
        "id": 219,
        "name": "Administrateur"
      },
      "start_date": "1908-01-01",
      "end_date": "1912-12-31"
    },
    {
      "issuer": {
        "id": 2238,
        "name": "Compagnie Havraise péninsulaire de navigation a vapeur"
      },
      "job": {
        "id": 219,
        "name": "Administrateur"
      },
      "start_date": "1912-01-01",
      "end_date": "1912-12-31"
    },
    {
      "issuer": {
        "id": 3200,
        "name": "SOCIÉTÉ GÉNÉRALE DES SUCRERIES ET DE LA RAFFINERIE D'EGYPTE"
      },
      "job": {
        "id": 219,
        "name": "Administrateur"
      },
      "start_date": "1912-01-01",
      "end_date": "1917-12-31"
    },
    {
      "issuer": {
        "id": 2286,
        "name": "Société anonyme des Chantiers et ateliers de la Gironde anciens établissements Bichon frères"
      },
      "job": {
        "id": 219,
        "name": "Administrateur"
      },
      "start_date": "1912-01-01",
      "end_date": "1917-12-31"
    },
    {
      "issuer": {
        "id": 2238,
        "name": "Compagnie Havraise péninsulaire de navigation a vapeur"
      },
      "job": {
        "id": 219,
        "name": "Administrateur"
      },
      "start_date": "1917-01-01",
      "end_date": "1917-12-31"
    },
    {
      "issuer": {
        "id": 3530,
        "name": "LA RÉUNION FRANÇAISE ET Cie D'ASSURANCES UNIVERSELLES RÉUNIES"
      },
      "job": {
        "id": 219,
        "name": "Administrateur"
      },
      "start_date": "1917-01-01",
      "end_date": "1917-12-31"
    }
  ],
  "name": "Ferdinand Périer"
}