{
  "id": 47545,
  "names": [
    "Joseph de Ribary"
  ],
  "functions": [
    {
      "issuer": {
        "id": 1943,
        "name": "CRÉDIT FONCIER DU ROYAUME DE HONGRIE"
      },
      "job": {
        "id": 10263,
        "name": "Conseiller de surveillance"
      },
      "start_date": "1898-01-01",
      "end_date": "1898-12-31"
    }
  ],
  "name": "Joseph de Ribary"
}