{
  "id": 80640,
  "names": [
    "R. Payot"
  ],
  "functions": [
    {
      "issuer": {
        "id": 10762,
        "name": "COMPAGNIE DE LA CHINE ET DES INDES"
      },
      "job": {
        "id": 219,
        "name": "Administrateur"
      },
      "start_date": "1927-01-01",
      "end_date": "1927-12-31"
    }
  ],
  "name": "R. Payot"
}