{
  "id": 119020,
  "names": [
    "R. Izambard"
  ],
  "functions": [
    {
      "issuer": {
        "id": 4829,
        "name": "\"Autobus C.I.T.R.A.M.\" (Compagnie de l'Industrie et des Transports Automobiles des Charentes)"
      },
      "job": {
        "id": 219,
        "name": "Administrateur"
      },
      "start_date": "1953-01-01",
      "end_date": "1953-12-31"
    }
  ],
  "name": "R. Izambard"
}