{
  "id": 73037,
  "names": [
    "Emile Berthier"
  ],
  "functions": [
    {
      "issuer": {
        "id": 2831,
        "name": "COMPAGNIE MINIERE \"LAS DOS ESTRELLAS\""
      },
      "job": {
        "id": 10269,
        "name": "Directeur Adjoint"
      },
      "start_date": "1912-01-01",
      "end_date": "1912-12-31"
    },
    {
      "issuer": {
        "id": 10414,
        "name": "NEGOCIACION MINERA DE SAN RAFAEL Y ANEXAS"
      },
      "job": {
        "id": 219,
        "name": "Administrateur"
      },
      "start_date": "1923-01-01",
      "end_date": "1927-12-31"
    }
  ],
  "name": "Emile Berthier"
}