{
  "id": 54252,
  "names": [
    "Guy de Lévis-Mirepoix"
  ],
  "functions": [
    {
      "issuer": {
        "id": 2106,
        "name": "La Providence, Compagnie anonyme d'assurances sur la vie"
      },
      "job": {
        "id": 219,
        "name": "Administrateur"
      },
      "start_date": "1893-01-01",
      "end_date": "1898-12-31"
    },
    {
      "issuer": {
        "id": 2120,
        "name": "LA PROVIDENCE CIE D'ASSURANCES A PRIMES FIXES CONTRE LES ACCIDENTS"
      },
      "job": {
        "id": 219,
        "name": "Administrateur"
      },
      "start_date": "1893-01-01",
      "end_date": "1898-12-31"
    },
    {
      "issuer": {
        "id": 365,
        "name": "La Providence, Compagnie d'assurances contre l'incendie"
      },
      "job": {
        "id": 219,
        "name": "Administrateur"
      },
      "start_date": "1893-01-01",
      "end_date": "1908-12-31"
    },
    {
      "issuer": {
        "id": 365,
        "name": "La Providence, Compagnie d'assurances contre l'incendie"
      },
      "job": {
        "id": 219,
        "name": "Administrateur"
      },
      "start_date": "1912-01-01",
      "end_date": "1917-12-31"
    },
    {
      "issuer": {
        "id": 2116,
        "name": "LE PATRIMOINE Cie D'ASSURANCES A PRIMES FIXES CONTRE LES ACCIDENTS"
      },
      "job": {
        "id": 219,
        "name": "Administrateur"
      },
      "start_date": "1912-01-01",
      "end_date": "1917-12-31"
    },
    {
      "issuer": {
        "id": 2120,
        "name": "LA PROVIDENCE CIE D'ASSURANCES A PRIMES FIXES CONTRE LES ACCIDENTS"
      },
      "job": {
        "id": 219,
        "name": "Administrateur"
      },
      "start_date": "1912-01-01",
      "end_date": "1927-12-31"
    },
    {
      "issuer": {
        "id": 2100,
        "name": "LE PATRIMOINE COMPAGNIE ANONYME D'ASSURANCES SUR LA VIE"
      },
      "job": {
        "id": 219,
        "name": "Administrateur"
      },
      "start_date": "1912-01-01",
      "end_date": "1927-12-31"
    },
    {
      "issuer": {
        "id": 365,
        "name": "La Providence, Compagnie d'assurances contre l'incendie"
      },
      "job": {
        "id": 219,
        "name": "Administrateur"
      },
      "start_date": "1927-01-01",
      "end_date": "1927-12-31"
    }
  ],
  "name": "Guy de Lévis-Mirepoix"
}