{
  "id": 41208,
  "names": [
    "St. lonnide"
  ],
  "functions": [
    {
      "issuer": {
        "id": 1969,
        "name": "Société de crédit mobilier roumain, pour le développement de l'industrie, du commerce et de l'agriculture en Roumanie"
      },
      "job": {
        "id": 10622,
        "name": "Administrateur à Bucarest"
      },
      "start_date": "1883-01-01",
      "end_date": "1883-12-31"
    }
  ],
  "name": "St. lonnide"
}