{
  "id": 59969,
  "names": [
    "Bruns"
  ],
  "functions": [
    {
      "issuer": {
        "id": 3445,
        "name": "ROTTERDAMSCHE BANK N. V."
      },
      "job": {
        "id": 158,
        "name": "President du Comite de Direction"
      },
      "start_date": "1917-01-01",
      "end_date": "1917-12-31"
    }
  ],
  "name": "Bruns"
}