{
  "id": 45359,
  "names": [
    "de la Martellière"
  ],
  "functions": [
    {
      "issuer": {
        "id": 2284,
        "name": "Société des Ateliers et Chantiers de la Loire"
      },
      "job": {
        "id": 219,
        "name": "Administrateur"
      },
      "start_date": "1889-01-01",
      "end_date": "1889-12-31"
    }
  ],
  "name": "de la Martellière"
}