{
  "id": 41994,
  "names": [
    "André Mallet"
  ],
  "functions": [
    {
      "issuer": {
        "id": 11447,
        "name": "SOCIETE DES ETAINS DE L'INDOCHINE"
      },
      "job": {
        "id": 162,
        "name": "Président honoraire"
      },
      "start_date": "1940-01-01",
      "end_date": "1940-12-31"
    },
    {
      "issuer": {
        "id": 151,
        "name": "LA NATIONALE Cie D'ASSURANCES CONTRE L'INCENDIE ET LES EXPLOSIONS"
      },
      "job": {
        "id": 219,
        "name": "Administrateur"
      },
      "start_date": "1940-01-01",
      "end_date": "1945-12-31"
    },
    {
      "issuer": {
        "id": 2204,
        "name": "LA NATIONALE (Compagnie de réassurances de toute nature)"
      },
      "job": {
        "id": 219,
        "name": "Administrateur"
      },
      "start_date": "1940-01-01",
      "end_date": "1945-12-31"
    },
    {
      "issuer": {
        "id": 5068,
        "name": "LA NATIONALE-RISQUES DIVERS Compagnie d'assurances et de réassurances de risques divers"
      },
      "job": {
        "id": 219,
        "name": "Administrateur"
      },
      "start_date": "1940-01-01",
      "end_date": "1948-12-31"
    },
    {
      "issuer": {
        "id": 153,
        "name": "La Nationale, Compagnie anonyme d'assurances sur la vie"
      },
      "job": {
        "id": 219,
        "name": "Administrateur"
      },
      "start_date": "1940-01-01",
      "end_date": "1948-12-31"
    },
    {
      "issuer": {
        "id": 3701,
        "name": "COMPAGNIE MAROCAINE"
      },
      "job": {
        "id": 219,
        "name": "Administrateur"
      },
      "start_date": "1940-01-01",
      "end_date": "1953-12-31"
    },
    {
      "issuer": {
        "id": 11447,
        "name": "SOCIETE DES ETAINS DE L'INDOCHINE"
      },
      "job": {
        "id": 189,
        "name": "Président directeur général",
        "short_name": "P.D.G."
      },
      "start_date": "1945-01-01",
      "end_date": "1945-12-31"
    },
    {
      "issuer": {
        "id": 10547,
        "name": "CIE GÉNÉRALE DE CONSTRUCTION DE LOCOMOTIVES (BATIGNOLLES-CHATILLON)"
      },
      "job": {
        "id": 219,
        "name": "Administrateur"
      },
      "start_date": "1945-01-01",
      "end_date": "1953-12-31"
    },
    {
      "issuer": {
        "id": 2284,
        "name": "Société des Ateliers et Chantiers de la Loire"
      },
      "job": {
        "id": 219,
        "name": "Administrateur"
      },
      "start_date": "1945-01-01",
      "end_date": "1953-12-31"
    },
    {
      "issuer": {
        "id": 4508,
        "name": "ETAINS ET WOLFRAM DU TONKIN"
      },
      "job": {
        "id": 219,
        "name": "Administrateur"
      },
      "start_date": "1945-01-01",
      "end_date": "1953-12-31"
    },
    {
      "issuer": {
        "id": 2232,
        "name": "CHANTIERS NAVALS FRANÇAIS"
      },
      "job": {
        "id": 219,
        "name": "Administrateur"
      },
      "start_date": "1948-01-01",
      "end_date": "1953-12-31"
    },
    {
      "issuer": {
        "id": 11447,
        "name": "SOCIETE DES ETAINS DE L'INDOCHINE"
      },
      "job": {
        "id": 219,
        "name": "Administrateur"
      },
      "start_date": "1948-01-01",
      "end_date": "1953-12-31"
    },
    {
      "issuer": {
        "id": 3701,
        "name": "COMPAGNIE MAROCAINE"
      },
      "job": {
        "id": 219,
        "name": "Administrateur"
      },
      "start_date": "1953-01-01",
      "end_date": "1953-12-31"
    }
  ],
  "name": "André Mallet"
}