{
  "id": 54830,
  "names": [
    "H. Jones"
  ],
  "functions": [
    {
      "issuer": {
        "id": 3401,
        "name": "ATCHISON, TOPEKA AND SANTA-FÉ RAILWAY"
      },
      "job": {
        "id": 219,
        "name": "Administrateur"
      },
      "start_date": "1917-01-01",
      "end_date": "1927-12-31"
    }
  ],
  "name": "H. Jones"
}