{
  "id": 45240,
  "names": [
    "Cottu"
  ],
  "functions": [
    {
      "issuer": {
        "id": 2563,
        "name": "CIE universelle du Canal interocéanique de Panama"
      },
      "job": {
        "id": 219,
        "name": "Administrateur"
      },
      "start_date": "1889-01-01",
      "end_date": "1889-12-31"
    }
  ],
  "name": "Cottu"
}