{
  "id": 118298,
  "names": [
    "M. Yves Hadengue"
  ],
  "functions": [
    {
      "issuer": {
        "id": 3577,
        "name": "UNION INDUSTRIELLE DE CREDIT POUR LA RECONSTITUTION"
      },
      "job": {
        "id": 15222,
        "name": "Secrétaire du Conseil général"
      },
      "start_date": "1953-01-01",
      "end_date": "1953-12-31"
    }
  ],
  "name": "M. Yves Hadengue"
}