{
  "id": 104031,
  "names": [
    "Robert Thion de la Chaume"
  ],
  "functions": [
    {
      "issuer": {
        "id": 3858,
        "name": "COMPAGNIE DES HAUTS-PLATEAUX INDOCHINOIS"
      },
      "job": {
        "id": 101,
        "name": "Administrateur Délégué",
        "short_name": "Ad. Dél."
      },
      "start_date": "1940-01-01",
      "end_date": "1940-12-31"
    },
    {
      "issuer": {
        "id": 3858,
        "name": "COMPAGNIE DES HAUTS-PLATEAUX INDOCHINOIS"
      },
      "job": {
        "id": 102,
        "name": "Président",
        "short_name": "P."
      },
      "start_date": "1940-01-01",
      "end_date": "1940-12-31"
    },
    {
      "issuer": {
        "id": 3863,
        "name": "PLANTATIONS REUNIES DE L'OUEST AFRICAIN"
      },
      "job": {
        "id": 219,
        "name": "Administrateur"
      },
      "start_date": "1945-01-01",
      "end_date": "1948-12-31"
    },
    {
      "issuer": {
        "id": 4601,
        "name": "SOCIÉTÉ INDOCHINOISE DES PLANTATIONS RÉUNIES DE MIMOT"
      },
      "job": {
        "id": 219,
        "name": "Administrateur"
      },
      "start_date": "1945-01-01",
      "end_date": "1953-12-31"
    },
    {
      "issuer": {
        "id": 4592,
        "name": "SOCIÉTÉ INDOCHINOISE DE PLANTATIONS D'HEVÉAS"
      },
      "job": {
        "id": 219,
        "name": "Administrateur"
      },
      "start_date": "1945-01-01",
      "end_date": "1953-12-31"
    },
    {
      "issuer": {
        "id": 4603,
        "name": "SOCIETE DES CAOUTCHOUCS DE PHUOC HOA"
      },
      "job": {
        "id": 219,
        "name": "Administrateur"
      },
      "start_date": "1945-01-01",
      "end_date": "1953-12-31"
    },
    {
      "issuer": {
        "id": 4590,
        "name": "SOCIÉTÉ DES CAOUTCHOUCS DE KOMPONG-THOM"
      },
      "job": {
        "id": 219,
        "name": "Administrateur"
      },
      "start_date": "1948-01-01",
      "end_date": "1948-12-31"
    },
    {
      "issuer": {
        "id": 11613,
        "name": "SOCIETE FINANCIERE DU CONGO FRANÇAIS"
      },
      "job": {
        "id": 219,
        "name": "Administrateur"
      },
      "start_date": "1953-01-01",
      "end_date": "1953-12-31"
    },
    {
      "issuer": {
        "id": 3863,
        "name": "PLANTATIONS REUNIES DE L'OUEST AFRICAIN"
      },
      "job": {
        "id": 102,
        "name": "Président",
        "short_name": "P."
      },
      "start_date": "1953-01-01",
      "end_date": "1953-12-31"
    },
    {
      "issuer": {
        "id": 3857,
        "name": "COMPAGNIE FRANÇAISE DU BAS-CONGO"
      },
      "job": {
        "id": 219,
        "name": "Administrateur"
      },
      "start_date": "1953-01-01",
      "end_date": "1953-12-31"
    },
    {
      "issuer": {
        "id": 4590,
        "name": "SOCIÉTÉ DES CAOUTCHOUCS DE KOMPONG-THOM"
      },
      "job": {
        "id": 219,
        "name": "Administrateur"
      },
      "start_date": "1953-01-01",
      "end_date": "1953-12-31"
    },
    {
      "issuer": {
        "id": 3858,
        "name": "COMPAGNIE DES HAUTS-PLATEAUX INDOCHINOIS"
      },
      "job": {
        "id": 101,
        "name": "Administrateur Délégué",
        "short_name": "Ad. Dél."
      },
      "start_date": "1953-01-01",
      "end_date": "1953-12-31"
    }
  ],
  "name": "Robert Thion de la Chaume"
}