{
  "id": 89939,
  "names": [
    "Zapiropoulo"
  ],
  "functions": [
    {
      "issuer": {
        "id": 3942,
        "name": "SOCIETE DU CARBURATEUR ZENITH"
      },
      "job": {
        "id": 219,
        "name": "Administrateur"
      },
      "start_date": "1933-01-01",
      "end_date": "1933-12-31"
    }
  ],
  "name": "Zapiropoulo"
}