{
  "id": 114519,
  "names": [
    "L. Cassan de Valry"
  ],
  "functions": [
    {
      "issuer": {
        "id": 11544,
        "name": "SOCIETE NOUVELLE DE TEINTURE ET NETTOYAGE"
      },
      "job": {
        "id": 219,
        "name": "Administrateur"
      },
      "start_date": "1948-01-01",
      "end_date": "1953-12-31"
    }
  ],
  "name": "L. Cassan de Valry"
}