{
  "id": 42758,
  "names": [
    "général baron Boissonnet"
  ],
  "functions": [
    {
      "issuer": {
        "id": 1180,
        "name": "Compagnie des Forges et Aciéries de la Marine et des Chemins de fer"
      },
      "job": {
        "id": 219,
        "name": "Administrateur"
      },
      "start_date": "1880-01-01",
      "end_date": "1893-12-31"
    },
    {
      "issuer": {
        "id": 1180,
        "name": "Compagnie des Forges et Aciéries de la Marine et des Chemins de fer"
      },
      "job": {
        "id": 117,
        "name": "Vice-Président",
        "short_name": "V.-Pr."
      },
      "start_date": "1898-01-01",
      "end_date": "1898-12-31"
    }
  ],
  "name": "général baron Boissonnet"
}