{
  "id": 112256,
  "names": [
    "Pierre Olivier"
  ],
  "functions": [
    {
      "issuer": {
        "id": 1331,
        "name": "SOCIETE ANONYME DES HAUTS FOURNEAUX, FONDERIES ET FORGES DE FRANCHE-COMTE"
      },
      "job": {
        "id": 219,
        "name": "Administrateur"
      },
      "start_date": "1948-01-01",
      "end_date": "1948-12-31"
    },
    {
      "issuer": {
        "id": 4203,
        "name": "ETABLISSEMENTS BAJAC"
      },
      "job": {
        "id": 102,
        "name": "Président",
        "short_name": "P."
      },
      "start_date": "1948-01-01",
      "end_date": "1948-12-31"
    },
    {
      "issuer": {
        "id": 4203,
        "name": "ETABLISSEMENTS BAJAC"
      },
      "job": {
        "id": 219,
        "name": "Administrateur"
      },
      "start_date": "1953-01-01",
      "end_date": "1953-12-31"
    },
    {
      "issuer": {
        "id": 3017,
        "name": "SOCIETE FRANÇAISE DE MATÉRIEL AGRICOLE ET INDUSTRIEL"
      },
      "job": {
        "id": 219,
        "name": "Administrateur"
      },
      "start_date": "1953-01-01",
      "end_date": "1953-12-31"
    }
  ],
  "name": "Pierre Olivier"
}