{
  "id": 63497,
  "names": [
    "Gufflet"
  ],
  "functions": [
    {
      "issuer": {
        "id": 4235,
        "name": "SOCIÉTÉ DES CHEMINS DE FER ET HOTELS DE MONTAGNE AUX PYRÉNÉES"
      },
      "job": {
        "id": 219,
        "name": "Administrateur"
      },
      "start_date": "1917-01-01",
      "end_date": "1927-12-31"
    }
  ],
  "name": "Gufflet"
}