{
  "id": 83877,
  "names": [
    "Henri de Peyerimhoff de Fontenelle"
  ],
  "functions": [
    {
      "issuer": {
        "id": 10503,
        "name": "UNION ESPAGNOLE DE FABRIQUES D'ENGRAIS DE PRODUITS CHIMIQUES ET DE SUPERPHOSPHATES"
      },
      "job": {
        "id": 219,
        "name": "Administrateur"
      },
      "start_date": "1917-01-01",
      "end_date": "1917-12-31"
    },
    {
      "issuer": {
        "id": 3069,
        "name": "SOCIÉTÉ D'HÉRACLEE"
      },
      "job": {
        "id": 219,
        "name": "Administrateur"
      },
      "start_date": "1917-01-01",
      "end_date": "1933-12-31"
    },
    {
      "issuer": {
        "id": 10503,
        "name": "UNION ESPAGNOLE DE FABRIQUES D'ENGRAIS DE PRODUITS CHIMIQUES ET DE SUPERPHOSPHATES"
      },
      "job": {
        "id": 219,
        "name": "Administrateur"
      },
      "start_date": "1923-01-01",
      "end_date": "1927-12-31"
    },
    {
      "issuer": {
        "id": 4067,
        "name": "Cie DES PHOSPHATES DE CONSTANTINE"
      },
      "job": {
        "id": 219,
        "name": "Administrateur"
      },
      "start_date": "1923-01-01",
      "end_date": "1927-12-31"
    },
    {
      "issuer": {
        "id": 3294,
        "name": "SOCIÉTÉ ALGÉRIENNE DE NAVIGATION POUR L'AFRIQUE DU NORD (CH. SCHIAFFINO et Cie)"
      },
      "job": {
        "id": 219,
        "name": "Administrateur"
      },
      "start_date": "1923-01-01",
      "end_date": "1927-12-31"
    },
    {
      "issuer": {
        "id": 2418,
        "name": "SOCIETE DES MINES DE DOURGES"
      },
      "job": {
        "id": 219,
        "name": "Administrateur"
      },
      "start_date": "1923-01-01",
      "end_date": "1927-12-31"
    },
    {
      "issuer": {
        "id": 2868,
        "name": "STÉ DES MINES DE CUIVRE DE NALTAGUA"
      },
      "job": {
        "id": 219,
        "name": "Administrateur"
      },
      "start_date": "1923-01-01",
      "end_date": "1927-12-31"
    },
    {
      "issuer": {
        "id": 5154,
        "name": "HOUILLERES DE SARRE ET MOSELLE"
      },
      "job": {
        "id": 219,
        "name": "Administrateur"
      },
      "start_date": "1927-01-01",
      "end_date": "1927-12-31"
    },
    {
      "issuer": {
        "id": 3102,
        "name": "COMPAGNiE GÉNÉRALE D'ÉLECTRICITÉ"
      },
      "job": {
        "id": 219,
        "name": "Administrateur"
      },
      "start_date": "1927-01-01",
      "end_date": "1927-12-31"
    },
    {
      "issuer": {
        "id": 3577,
        "name": "UNION INDUSTRIELLE DE CREDIT POUR LA RECONSTITUTION"
      },
      "job": {
        "id": 219,
        "name": "Administrateur"
      },
      "start_date": "1927-01-01",
      "end_date": "1927-12-31"
    },
    {
      "issuer": {
        "id": 4562,
        "name": "PECHELBRONN (Société anonyme d'Exploitations minières)"
      },
      "job": {
        "id": 219,
        "name": "Administrateur"
      },
      "start_date": "1927-01-01",
      "end_date": "1927-12-31"
    },
    {
      "issuer": {
        "id": 5154,
        "name": "HOUILLERES DE SARRE ET MOSELLE"
      },
      "job": {
        "id": 102,
        "name": "Président",
        "short_name": "P."
      },
      "start_date": "1933-01-01",
      "end_date": "1933-12-31"
    },
    {
      "issuer": {
        "id": 3559,
        "name": "CREDIT NATIONAL"
      },
      "job": {
        "id": 219,
        "name": "Administrateur"
      },
      "start_date": "1933-01-01",
      "end_date": "1933-12-31"
    },
    {
      "issuer": {
        "id": 3578,
        "name": "L'Union des Mines"
      },
      "job": {
        "id": 102,
        "name": "Président",
        "short_name": "P."
      },
      "start_date": "1933-01-01",
      "end_date": "1933-12-31"
    },
    {
      "issuer": {
        "id": 3577,
        "name": "UNION INDUSTRIELLE DE CREDIT POUR LA RECONSTITUTION"
      },
      "job": {
        "id": 219,
        "name": "Administrateur"
      },
      "start_date": "1933-01-01",
      "end_date": "1933-12-31"
    },
    {
      "issuer": {
        "id": 3294,
        "name": "SOCIÉTÉ ALGÉRIENNE DE NAVIGATION POUR L'AFRIQUE DU NORD (CH. SCHIAFFINO et Cie)"
      },
      "job": {
        "id": 102,
        "name": "Président",
        "short_name": "P."
      },
      "start_date": "1933-01-01",
      "end_date": "1933-12-31"
    },
    {
      "issuer": {
        "id": 2868,
        "name": "STÉ DES MINES DE CUIVRE DE NALTAGUA"
      },
      "job": {
        "id": 102,
        "name": "Président",
        "short_name": "P."
      },
      "start_date": "1933-01-01",
      "end_date": "1933-12-31"
    },
    {
      "issuer": {
        "id": 3162,
        "name": "Société GÉNÉRALE DE MINES D'ALGÉRIE-TUNISIE (Omnium)"
      },
      "job": {
        "id": 219,
        "name": "Administrateur"
      },
      "start_date": "1933-01-01",
      "end_date": "1933-12-31"
    },
    {
      "issuer": {
        "id": 2760,
        "name": "SOCIETE DES HAUTS FOURNEAUX DE SAULNES (Jean Raty et Cie)"
      },
      "job": {
        "id": 219,
        "name": "Administrateur"
      },
      "start_date": "1933-01-01",
      "end_date": "1933-12-31"
    },
    {
      "issuer": {
        "id": 3102,
        "name": "COMPAGNiE GÉNÉRALE D'ÉLECTRICITÉ"
      },
      "job": {
        "id": 219,
        "name": "Administrateur"
      },
      "start_date": "1933-01-01",
      "end_date": "1933-12-31"
    },
    {
      "issuer": {
        "id": 2418,
        "name": "SOCIETE DES MINES DE DOURGES"
      },
      "job": {
        "id": 117,
        "name": "Vice-Président",
        "short_name": "V.-Pr."
      },
      "start_date": "1933-01-01",
      "end_date": "1933-12-31"
    },
    {
      "issuer": {
        "id": 4562,
        "name": "PECHELBRONN (Société anonyme d'Exploitations minières)"
      },
      "job": {
        "id": 117,
        "name": "Vice-Président",
        "short_name": "V.-Pr."
      },
      "start_date": "1933-01-01",
      "end_date": "1933-12-31"
    },
    {
      "issuer": {
        "id": 5483,
        "name": "Cie DES MINES DE POTASSE DE BLODELSHEIM (ALSACE)"
      },
      "job": {
        "id": 219,
        "name": "Administrateur"
      },
      "start_date": "1933-01-01",
      "end_date": "1933-12-31"
    },
    {
      "issuer": {
        "id": 3091,
        "name": "SOCIÉTÉ D'APPLICATIONS INDUSTRIELLES (Cie d'Entreprises électriques)"
      },
      "job": {
        "id": 102,
        "name": "Président",
        "short_name": "P."
      },
      "start_date": "1933-01-01",
      "end_date": "1933-12-31"
    },
    {
      "issuer": {
        "id": 3102,
        "name": "COMPAGNiE GÉNÉRALE D'ÉLECTRICITÉ"
      },
      "job": {
        "id": 219,
        "name": "Administrateur"
      },
      "start_date": "1940-01-01",
      "end_date": "1940-12-31"
    },
    {
      "issuer": {
        "id": 4118,
        "name": "SOCIÉTÉ GÉNÉRALE DE FONDERIE Anciens Etablissements Chappée, Etablissements Nanquette, Fonderie Caloria,"
      },
      "job": {
        "id": 219,
        "name": "Administrateur"
      },
      "start_date": "1940-01-01",
      "end_date": "1940-12-31"
    },
    {
      "issuer": {
        "id": 2760,
        "name": "SOCIETE DES HAUTS FOURNEAUX DE SAULNES (Jean Raty et Cie)"
      },
      "job": {
        "id": 10637,
        "name": "Membre du Comité de surveillance"
      },
      "start_date": "1940-01-01",
      "end_date": "1940-12-31"
    },
    {
      "issuer": {
        "id": 3294,
        "name": "SOCIÉTÉ ALGÉRIENNE DE NAVIGATION POUR L'AFRIQUE DU NORD (CH. SCHIAFFINO et Cie)"
      },
      "job": {
        "id": 102,
        "name": "Président",
        "short_name": "P."
      },
      "start_date": "1940-01-01",
      "end_date": "1940-12-31"
    },
    {
      "issuer": {
        "id": 4562,
        "name": "PECHELBRONN (Société anonyme d'Exploitations minières)"
      },
      "job": {
        "id": 117,
        "name": "Vice-Président",
        "short_name": "V.-Pr."
      },
      "start_date": "1940-01-01",
      "end_date": "1940-12-31"
    },
    {
      "issuer": {
        "id": 10628,
        "name": "COMPAGNIE ELECTRIQUE DU NORD"
      },
      "job": {
        "id": 219,
        "name": "Administrateur"
      },
      "start_date": "1940-01-01",
      "end_date": "1940-12-31"
    },
    {
      "issuer": {
        "id": 3162,
        "name": "Société GÉNÉRALE DE MINES D'ALGÉRIE-TUNISIE (Omnium)"
      },
      "job": {
        "id": 117,
        "name": "Vice-Président",
        "short_name": "V.-Pr."
      },
      "start_date": "1940-01-01",
      "end_date": "1940-12-31"
    },
    {
      "issuer": {
        "id": 2868,
        "name": "STÉ DES MINES DE CUIVRE DE NALTAGUA"
      },
      "job": {
        "id": 102,
        "name": "Président",
        "short_name": "P."
      },
      "start_date": "1940-01-01",
      "end_date": "1940-12-31"
    },
    {
      "issuer": {
        "id": 4067,
        "name": "Cie DES PHOSPHATES DE CONSTANTINE"
      },
      "job": {
        "id": 102,
        "name": "Président",
        "short_name": "P."
      },
      "start_date": "1940-01-01",
      "end_date": "1940-12-31"
    },
    {
      "issuer": {
        "id": 5483,
        "name": "Cie DES MINES DE POTASSE DE BLODELSHEIM (ALSACE)"
      },
      "job": {
        "id": 219,
        "name": "Administrateur"
      },
      "start_date": "1940-01-01",
      "end_date": "1940-12-31"
    },
    {
      "issuer": {
        "id": 2201,
        "name": "SOCIETE MOSELLANE INDUSTRIELLE ET FINANCIERE"
      },
      "job": {
        "id": 102,
        "name": "Président",
        "short_name": "P."
      },
      "start_date": "1940-01-01",
      "end_date": "1940-12-31"
    },
    {
      "issuer": {
        "id": 3578,
        "name": "L'Union des Mines"
      },
      "job": {
        "id": 162,
        "name": "Président honoraire"
      },
      "start_date": "1940-01-01",
      "end_date": "1940-12-31"
    },
    {
      "issuer": {
        "id": 3559,
        "name": "CREDIT NATIONAL"
      },
      "job": {
        "id": 219,
        "name": "Administrateur"
      },
      "start_date": "1940-01-01",
      "end_date": "1940-12-31"
    },
    {
      "issuer": {
        "id": 2418,
        "name": "SOCIETE DES MINES DE DOURGES"
      },
      "job": {
        "id": 102,
        "name": "Président",
        "short_name": "P."
      },
      "start_date": "1940-01-01",
      "end_date": "1940-12-31"
    },
    {
      "issuer": {
        "id": 5154,
        "name": "HOUILLERES DE SARRE ET MOSELLE"
      },
      "job": {
        "id": 102,
        "name": "Président",
        "short_name": "P."
      },
      "start_date": "1940-01-01",
      "end_date": "1940-12-31"
    },
    {
      "issuer": {
        "id": 3146,
        "name": "SOCIÉTÉ DES FORCES MOTRICES DE LA TRUYERE"
      },
      "job": {
        "id": 102,
        "name": "Président",
        "short_name": "P."
      },
      "start_date": "1940-01-01",
      "end_date": "1945-12-31"
    },
    {
      "issuer": {
        "id": 4058,
        "name": "THEG (TRAVAUX HYDRAULIQUES ET ENTREPRISES GENERALES)"
      },
      "job": {
        "id": 10015,
        "name": "Vice-Président d'Honneur",
        "short_name": "V.-Pr. d'H."
      },
      "start_date": "1945-01-01",
      "end_date": "1945-12-31"
    },
    {
      "issuer": {
        "id": 3294,
        "name": "SOCIÉTÉ ALGÉRIENNE DE NAVIGATION POUR L'AFRIQUE DU NORD (CH. SCHIAFFINO et Cie)"
      },
      "job": {
        "id": 178,
        "name": "President du conseil de surveillance",
        "short_name": "P.C.S."
      },
      "start_date": "1945-01-01",
      "end_date": "1945-12-31"
    },
    {
      "issuer": {
        "id": 2760,
        "name": "SOCIETE DES HAUTS FOURNEAUX DE SAULNES (Jean Raty et Cie)"
      },
      "job": {
        "id": 219,
        "name": "Administrateur"
      },
      "start_date": "1945-01-01",
      "end_date": "1945-12-31"
    },
    {
      "issuer": {
        "id": 2418,
        "name": "SOCIETE DES MINES DE DOURGES"
      },
      "job": {
        "id": 102,
        "name": "Président",
        "short_name": "P."
      },
      "start_date": "1945-01-01",
      "end_date": "1945-12-31"
    },
    {
      "issuer": {
        "id": 2760,
        "name": "SOCIETE DES HAUTS FOURNEAUX DE SAULNES (Jean Raty et Cie)"
      },
      "job": {
        "id": 176,
        "name": "Membre du conseil de surveillance",
        "short_name": "M.C.S."
      },
      "start_date": "1948-01-01",
      "end_date": "1948-12-31"
    },
    {
      "issuer": {
        "id": 3102,
        "name": "COMPAGNiE GÉNÉRALE D'ÉLECTRICITÉ"
      },
      "job": {
        "id": 219,
        "name": "Administrateur"
      },
      "start_date": "1948-01-01",
      "end_date": "1948-12-31"
    },
    {
      "issuer": {
        "id": 3294,
        "name": "SOCIÉTÉ ALGÉRIENNE DE NAVIGATION POUR L'AFRIQUE DU NORD (CH. SCHIAFFINO et Cie)"
      },
      "job": {
        "id": 102,
        "name": "Président",
        "short_name": "P."
      },
      "start_date": "1948-01-01",
      "end_date": "1953-12-31"
    },
    {
      "issuer": {
        "id": 4058,
        "name": "THEG (TRAVAUX HYDRAULIQUES ET ENTREPRISES GENERALES)"
      },
      "job": {
        "id": 224,
        "name": "Président d'honneur"
      },
      "start_date": "1953-01-01",
      "end_date": "1953-12-31"
    },
    {
      "issuer": {
        "id": 2760,
        "name": "SOCIETE DES HAUTS FOURNEAUX DE SAULNES (Jean Raty et Cie)"
      },
      "job": {
        "id": 10637,
        "name": "Membre du Comité de surveillance"
      },
      "start_date": "1953-01-01",
      "end_date": "1953-12-31"
    },
    {
      "issuer": {
        "id": 4067,
        "name": "Cie DES PHOSPHATES DE CONSTANTINE"
      },
      "job": {
        "id": 219,
        "name": "Administrateur"
      },
      "start_date": "1953-01-01",
      "end_date": "1953-12-31"
    },
    {
      "issuer": {
        "id": 3162,
        "name": "Société GÉNÉRALE DE MINES D'ALGÉRIE-TUNISIE (Omnium)"
      },
      "job": {
        "id": 219,
        "name": "Administrateur"
      },
      "start_date": "1953-01-01",
      "end_date": "1953-12-31"
    },
    {
      "issuer": {
        "id": 3102,
        "name": "COMPAGNiE GÉNÉRALE D'ÉLECTRICITÉ"
      },
      "job": {
        "id": 219,
        "name": "Administrateur"
      },
      "start_date": "1953-01-01",
      "end_date": "1953-12-31"
    }
  ],
  "name": "Henri de Peyerimhoff de Fontenelle"
}