{
  "id": 59779,
  "names": [
    "A. Gabbe"
  ],
  "functions": [
    {
      "issuer": {
        "id": 3372,
        "name": "BANQUE DE L'UNION A MOSCOU"
      },
      "job": {
        "id": 219,
        "name": "Administrateur"
      },
      "start_date": "1917-01-01",
      "end_date": "1927-12-31"
    }
  ],
  "name": "A. Gabbe"
}