{
  "id": 80135,
  "names": [
    "E. Lyonnais"
  ],
  "functions": [
    {
      "issuer": {
        "id": 4518,
        "name": "SOCIETE DES MINES ET USINES DE SALSIGNE"
      },
      "job": {
        "id": 219,
        "name": "Administrateur"
      },
      "start_date": "1927-01-01",
      "end_date": "1927-12-31"
    },
    {
      "issuer": {
        "id": 4518,
        "name": "SOCIETE DES MINES ET USINES DE SALSIGNE"
      },
      "job": {
        "id": 101,
        "name": "Administrateur Délégué",
        "short_name": "Ad. Dél."
      },
      "start_date": "1933-01-01",
      "end_date": "1933-12-31"
    }
  ],
  "name": "E. Lyonnais"
}