{
  "id": 89643,
  "names": [
    "G. Paitel"
  ],
  "functions": [
    {
      "issuer": {
        "id": 5398,
        "name": "Tosi-Dujardin"
      },
      "job": {
        "id": 117,
        "name": "Vice-Président",
        "short_name": "V.-Pr."
      },
      "start_date": "1933-01-01",
      "end_date": "1933-12-31"
    },
    {
      "issuer": {
        "id": 1954,
        "name": "COMPAGNIE DE NAVIGATION SUD-ATLANTIQUE"
      },
      "job": {
        "id": 102,
        "name": "Président",
        "short_name": "P."
      },
      "start_date": "1940-01-01",
      "end_date": "1945-12-31"
    },
    {
      "issuer": {
        "id": 4589,
        "name": "CAOUTCHOUCS DE L'INDOCHINE"
      },
      "job": {
        "id": 103,
        "name": "Commissaire"
      },
      "start_date": "1940-01-01",
      "end_date": "1945-12-31"
    }
  ],
  "name": "G. Paitel"
}