{
  "id": 124696,
  "names": [
    "L. Martineau"
  ],
  "functions": [
    {
      "issuer": {
        "id": 552,
        "name": "Société de la Sambre française canalisée"
      },
      "job": {
        "id": 125,
        "name": "Administrateur Directeur",
        "short_name": "Ad. Dir."
      },
      "start_date": "1880-01-01",
      "end_date": "1880-12-31"
    }
  ],
  "name": "L. Martineau"
}