{
  "id": 77822,
  "names": [
    "D.-J. Péon"
  ],
  "functions": [
    {
      "issuer": {
        "id": 10308,
        "name": "BANQUE PÉNINSULAIRE MEXICAINE (Anciennement Banque de Yucatan)"
      },
      "job": {
        "id": 219,
        "name": "Administrateur"
      },
      "start_date": "1923-01-01",
      "end_date": "1927-12-31"
    }
  ],
  "name": "D.-J. Péon"
}