{
  "id": 90791,
  "names": [
    "L. Dégosse"
  ],
  "functions": [
    {
      "issuer": {
        "id": 5358,
        "name": "ÉTABLISSEMENTS COTELLE ET FOUCHER (Javel \" La Croix \")"
      },
      "job": {
        "id": 102,
        "name": "Président",
        "short_name": "P."
      },
      "start_date": "1933-01-01",
      "end_date": "1933-12-31"
    }
  ],
  "name": "L. Dégosse"
}