{
  "id": 104165,
  "names": [
    "Ch. Riotteau"
  ],
  "functions": [
    {
      "issuer": {
        "id": 4961,
        "name": "BULOH KASAP RUBBER PLANTATIONS LIMITED"
      },
      "job": {
        "id": 219,
        "name": "Administrateur"
      },
      "start_date": "1940-01-01",
      "end_date": "1948-12-31"
    }
  ],
  "name": "Ch. Riotteau"
}