{
  "id": 92140,
  "names": [
    "Charles Decron"
  ],
  "functions": [
    {
      "issuer": {
        "id": 2664,
        "name": "CiE FRANÇAISE DE L'AFRIQUE OCCIDENTALE"
      },
      "job": {
        "id": 101,
        "name": "Administrateur Délégué",
        "short_name": "Ad. Dél."
      },
      "start_date": "1933-01-01",
      "end_date": "1933-12-31"
    },
    {
      "issuer": {
        "id": 2664,
        "name": "CiE FRANÇAISE DE L'AFRIQUE OCCIDENTALE"
      },
      "job": {
        "id": 10233,
        "name": "Administrateur délégué de l'agence de Paris"
      },
      "start_date": "1940-01-01",
      "end_date": "1940-12-31"
    },
    {
      "issuer": {
        "id": 3588,
        "name": "CREDIT FONCIER DE L'OUEST AFRICAIN"
      },
      "job": {
        "id": 219,
        "name": "Administrateur"
      },
      "start_date": "1940-01-01",
      "end_date": "1953-12-31"
    },
    {
      "issuer": {
        "id": 2664,
        "name": "CiE FRANÇAISE DE L'AFRIQUE OCCIDENTALE"
      },
      "job": {
        "id": 101,
        "name": "Administrateur Délégué",
        "short_name": "Ad. Dél."
      },
      "start_date": "1945-01-01",
      "end_date": "1945-12-31"
    },
    {
      "issuer": {
        "id": 3044,
        "name": "BANQUE DE L'AFRIQUE OCCIDENTALE"
      },
      "job": {
        "id": 219,
        "name": "Administrateur"
      },
      "start_date": "1945-01-01",
      "end_date": "1953-12-31"
    },
    {
      "issuer": {
        "id": 2664,
        "name": "CiE FRANÇAISE DE L'AFRIQUE OCCIDENTALE"
      },
      "job": {
        "id": 117,
        "name": "Vice-Président",
        "short_name": "V.-Pr."
      },
      "start_date": "1948-01-01",
      "end_date": "1953-12-31"
    }
  ],
  "name": "Charles Decron"
}