{
  "id": 112431,
  "names": [
    "Ph. Treboul"
  ],
  "functions": [
    {
      "issuer": {
        "id": 4202,
        "name": "USINES DE SAINTE-MARIE ET GRAVIGNY"
      },
      "job": {
        "id": 219,
        "name": "Administrateur"
      },
      "start_date": "1948-01-01",
      "end_date": "1953-12-31"
    }
  ],
  "name": "Ph. Treboul"
}