{
  "id": 83825,
  "names": [
    "M. Bergès"
  ],
  "functions": [
    {
      "issuer": {
        "id": 4259,
        "name": "SOCIETE DES PAPETERIES DE FRANCE"
      },
      "job": {
        "id": 219,
        "name": "Administrateur"
      },
      "start_date": "1927-01-01",
      "end_date": "1933-12-31"
    },
    {
      "issuer": {
        "id": 4259,
        "name": "SOCIETE DES PAPETERIES DE FRANCE"
      },
      "job": {
        "id": 219,
        "name": "Administrateur"
      },
      "start_date": "1940-01-01",
      "end_date": "1948-12-31"
    },
    {
      "issuer": {
        "id": 4259,
        "name": "SOCIETE DES PAPETERIES DE FRANCE"
      },
      "job": {
        "id": 117,
        "name": "Vice-Président",
        "short_name": "V.-Pr."
      },
      "start_date": "1953-01-01",
      "end_date": "1953-12-31"
    }
  ],
  "name": "M. Bergès"
}