{
  "id": 75882,
  "names": [
    "L. Tronchon"
  ],
  "functions": [
    {
      "issuer": {
        "id": 10595,
        "name": "CIE DES TRANSAÉRIENS DE TOURISME ET DE MESSAGERIES CC. T. M.)"
      },
      "job": {
        "id": 219,
        "name": "Administrateur"
      },
      "start_date": "1923-01-01",
      "end_date": "1923-12-31"
    }
  ],
  "name": "L. Tronchon"
}