{
  "id": 111468,
  "names": [
    "P. Destoumieux"
  ],
  "functions": [
    {
      "issuer": {
        "id": 4522,
        "name": "SOCIÉTÉ DES MINES DE DOUARIA"
      },
      "job": {
        "id": 219,
        "name": "Administrateur"
      },
      "start_date": "1948-01-01",
      "end_date": "1948-12-31"
    },
    {
      "issuer": {
        "id": 4388,
        "name": "ETABLISSEMENTS DUCELLIER"
      },
      "job": {
        "id": 189,
        "name": "Président directeur général",
        "short_name": "P.D.G."
      },
      "start_date": "1948-01-01",
      "end_date": "1948-12-31"
    },
    {
      "issuer": {
        "id": 4522,
        "name": "SOCIÉTÉ DES MINES DE DOUARIA"
      },
      "job": {
        "id": 189,
        "name": "Président directeur général",
        "short_name": "P.D.G."
      },
      "start_date": "1953-01-01",
      "end_date": "1953-12-31"
    }
  ],
  "name": "P. Destoumieux"
}