{
  "id": 92709,
  "names": [
    "E. Fuchs"
  ],
  "functions": [
    {
      "issuer": {
        "id": 833,
        "name": "SOCIETE FINANCIERE ET FONCIERE DES GARAGES RENAULT"
      },
      "job": {
        "id": 102,
        "name": "Président",
        "short_name": "P."
      },
      "start_date": "1933-01-01",
      "end_date": "1933-12-31"
    },
    {
      "issuer": {
        "id": 833,
        "name": "SOCIETE FINANCIERE ET FONCIERE DES GARAGES RENAULT"
      },
      "job": {
        "id": 102,
        "name": "Président",
        "short_name": "P."
      },
      "start_date": "1940-01-01",
      "end_date": "1940-12-31"
    }
  ],
  "name": "E. Fuchs"
}