{
  "id": 45410,
  "names": [
    "E. Ferminhac"
  ],
  "functions": [
    {
      "issuer": {
        "id": 2524,
        "name": "Compagnie de Porman"
      },
      "job": {
        "id": 219,
        "name": "Administrateur"
      },
      "start_date": "1889-01-01",
      "end_date": "1889-12-31"
    }
  ],
  "name": "E. Ferminhac"
}