{
  "id": 114783,
  "names": [
    "Ch. Camlorbe"
  ],
  "functions": [
    {
      "issuer": {
        "id": 3210,
        "name": "STÉ FSE DES NOUVELLES GALERIES RÉUNIES"
      },
      "job": {
        "id": 102,
        "name": "Président",
        "short_name": "P."
      },
      "start_date": "1948-01-01",
      "end_date": "1948-12-31"
    }
  ],
  "name": "Ch. Camlorbe"
}