{
  "id": 103904,
  "names": [
    "H. Jossier"
  ],
  "functions": [
    {
      "issuer": {
        "id": 3799,
        "name": "ETABLISSEMENTS FOULLON"
      },
      "job": {
        "id": 219,
        "name": "Administrateur"
      },
      "start_date": "1940-01-01",
      "end_date": "1940-12-31"
    }
  ],
  "name": "H. Jossier"
}