{
  "id": 106688,
  "names": [
    "H.-S. Job"
  ],
  "functions": [
    {
      "issuer": {
        "id": 10251,
        "name": "BANQUE NATIONALE D'EGYPTE"
      },
      "job": {
        "id": 223,
        "name": "Sous-gouverneur"
      },
      "start_date": "1945-01-01",
      "end_date": "1948-12-31"
    }
  ],
  "name": "H.-S. Job"
}