{
  "id": 90520,
  "names": [
    "Georges Strauss"
  ],
  "functions": [
    {
      "issuer": {
        "id": 5291,
        "name": "SOCIETE DU GRAND DORON"
      },
      "job": {
        "id": 219,
        "name": "Administrateur"
      },
      "start_date": "1933-01-01",
      "end_date": "1933-12-31"
    },
    {
      "issuer": {
        "id": 5291,
        "name": "SOCIETE DU GRAND DORON"
      },
      "job": {
        "id": 219,
        "name": "Administrateur"
      },
      "start_date": "1940-01-01",
      "end_date": "1940-12-31"
    }
  ],
  "name": "Georges Strauss"
}