{
  "id": 79861,
  "names": [
    "Durteste"
  ],
  "functions": [
    {
      "issuer": {
        "id": 2507,
        "name": "Société anonyme des Aciéries de France"
      },
      "job": {
        "id": 219,
        "name": "Administrateur"
      },
      "start_date": "1927-01-01",
      "end_date": "1933-12-31"
    }
  ],
  "name": "Durteste"
}