{
  "id": 120877,
  "names": [
    "C. Eyraud"
  ],
  "functions": [
    {
      "issuer": {
        "id": 4741,
        "name": "COMPAGNIE PARISIENNE DE CHAUFFAGE URBAIN"
      },
      "job": {
        "id": 219,
        "name": "Administrateur"
      },
      "start_date": "1953-01-01",
      "end_date": "1953-12-31"
    }
  ],
  "name": "C. Eyraud"
}