{
  "id": 81922,
  "names": [
    "colonel Guillaume"
  ],
  "functions": [
    {
      "issuer": {
        "id": 670,
        "name": "Compagnie du Jardin Zoologique d'Acclimatation"
      },
      "job": {
        "id": 219,
        "name": "Administrateur"
      },
      "start_date": "1927-01-01",
      "end_date": "1933-12-31"
    },
    {
      "issuer": {
        "id": 670,
        "name": "Compagnie du Jardin Zoologique d'Acclimatation"
      },
      "job": {
        "id": 219,
        "name": "Administrateur"
      },
      "start_date": "1940-01-01",
      "end_date": "1940-12-31"
    }
  ],
  "name": "colonel Guillaume"
}