{
  "id": 95294,
  "names": [
    "M. de Montremy"
  ],
  "functions": [
    {
      "issuer": {
        "id": 2754,
        "name": "STé D'ELECTRO-CHIMIE ET D'ELECTRO-METALLURGIE ET DES ACIÉRIES ÉLECTRIQUES D'UGINE"
      },
      "job": {
        "id": 10019,
        "name": "Commissaire des comptes"
      },
      "start_date": "1940-01-01",
      "end_date": "1953-12-31"
    },
    {
      "issuer": {
        "id": 3634,
        "name": "IMMOBILIERE D'UGINE"
      },
      "job": {
        "id": 10019,
        "name": "Commissaire des comptes"
      },
      "start_date": "1948-01-01",
      "end_date": "1948-12-31"
    }
  ],
  "name": "M. de Montremy"
}