{
  "id": 75850,
  "names": [
    "sir J. Pilter"
  ],
  "functions": [
    {
      "issuer": {
        "id": 4225,
        "name": "COMPAGN E DU PORT DE FEDALA"
      },
      "job": {
        "id": 219,
        "name": "Administrateur"
      },
      "start_date": "1923-01-01",
      "end_date": "1923-12-31"
    },
    {
      "issuer": {
        "id": 4225,
        "name": "COMPAGN E DU PORT DE FEDALA"
      },
      "job": {
        "id": 219,
        "name": "Administrateur"
      },
      "start_date": "1933-01-01",
      "end_date": "1933-12-31"
    }
  ],
  "name": "sir J. Pilter"
}