{
  "id": 71204,
  "names": [
    "H. Wilson Fox"
  ],
  "functions": [
    {
      "issuer": {
        "id": 2409,
        "name": "THE BRITISH SOUTH AFRICA COMPANY (CHARTERED)"
      },
      "job": {
        "id": 219,
        "name": "Administrateur"
      },
      "start_date": "1917-01-01",
      "end_date": "1917-12-31"
    }
  ],
  "name": "H. Wilson Fox"
}