{
  "id": 88357,
  "names": [
    "R. Dubreuil"
  ],
  "functions": [
    {
      "issuer": {
        "id": 3145,
        "name": "SOCIETE MÉTALLURGIQUE DU PÉRIGORD"
      },
      "job": {
        "id": 219,
        "name": "Administrateur"
      },
      "start_date": "1933-01-01",
      "end_date": "1933-12-31"
    },
    {
      "issuer": {
        "id": 5415,
        "name": "Compagnie GENERALE DE SERVICES URBAINS ET DE CREDIT (ÉDILITÉ-CRÉDIT)"
      },
      "job": {
        "id": 101,
        "name": "Administrateur Délégué",
        "short_name": "Ad. Dél."
      },
      "start_date": "1933-01-01",
      "end_date": "1933-12-31"
    },
    {
      "issuer": {
        "id": 5415,
        "name": "Compagnie GENERALE DE SERVICES URBAINS ET DE CREDIT (ÉDILITÉ-CRÉDIT)"
      },
      "job": {
        "id": 219,
        "name": "Administrateur"
      },
      "start_date": "1940-01-01",
      "end_date": "1940-12-31"
    }
  ],
  "name": "R. Dubreuil"
}