{
  "id": 59141,
  "names": [
    "Dejeanne"
  ],
  "functions": [
    {
      "issuer": {
        "id": 1742,
        "name": "CRÉDIT FONCIER D'ALGÉRIE ET DE TUNISIE"
      },
      "job": {
        "id": 219,
        "name": "Administrateur"
      },
      "start_date": "1912-01-01",
      "end_date": "1912-12-31"
    }
  ],
  "name": "Dejeanne"
}