{
  "id": 46621,
  "names": [
    "G.-P. de Saint-Maurice"
  ],
  "functions": [
    {
      "issuer": {
        "id": 1251,
        "name": "Compagnie universelle du Canal maritime de Suez"
      },
      "job": {
        "id": 133,
        "name": "Secrétaire général"
      },
      "start_date": "1898-01-01",
      "end_date": "1898-12-31"
    }
  ],
  "name": "G.-P. de Saint-Maurice"
}