{
  "id": 55401,
  "names": [
    "Edouard Vincenti"
  ],
  "functions": [
    {
      "issuer": {
        "id": 1711,
        "name": "Compagnie Madrilène d'éclairage et de Chauffage par le gaz"
      },
      "job": {
        "id": 219,
        "name": "Administrateur"
      },
      "start_date": "1912-01-01",
      "end_date": "1912-12-31"
    },
    {
      "issuer": {
        "id": 1711,
        "name": "Compagnie Madrilène d'éclairage et de Chauffage par le gaz"
      },
      "job": {
        "id": 219,
        "name": "Administrateur"
      },
      "start_date": "1923-01-01",
      "end_date": "1923-12-31"
    },
    {
      "issuer": {
        "id": 10494,
        "name": "SOCIÉTÉ INDUSTRIELLE DE VERRERIE"
      },
      "job": {
        "id": 219,
        "name": "Administrateur"
      },
      "start_date": "1927-01-01",
      "end_date": "1927-12-31"
    },
    {
      "issuer": {
        "id": 2503,
        "name": "COMPAGNIE INDUSTRIELLE DES PROCEDES RAOUL PICTET"
      },
      "job": {
        "id": 219,
        "name": "Administrateur"
      },
      "start_date": "1927-01-01",
      "end_date": "1927-12-31"
    },
    {
      "issuer": {
        "id": 11448,
        "name": "SOCIETE DES MINES D'ÉTAIN DU HAUT-TONKIN"
      },
      "job": {
        "id": 219,
        "name": "Administrateur"
      },
      "start_date": "1940-01-01",
      "end_date": "1953-12-31"
    }
  ],
  "name": "Edouard Vincenti"
}