{
  "id": 76404,
  "names": [
    "P. Eschwege"
  ],
  "functions": [
    {
      "issuer": {
        "id": 5053,
        "name": "ÉNERGIE ELECTRIQUE DE LA BASSE-LOIRE"
      },
      "job": {
        "id": 219,
        "name": "Administrateur"
      },
      "start_date": "1923-01-01",
      "end_date": "1923-12-31"
    },
    {
      "issuer": {
        "id": 2697,
        "name": "SOCIÉTÉ D'ECLAIRAGE ET DE FORCE PAR L'ÉLECTRICITÉ A PARIS"
      },
      "job": {
        "id": 219,
        "name": "Administrateur"
      },
      "start_date": "1923-01-01",
      "end_date": "1927-12-31"
    },
    {
      "issuer": {
        "id": 2722,
        "name": "Fusion des gaz, Société anonyme d'éclairage et de chauffage"
      },
      "job": {
        "id": 219,
        "name": "Administrateur"
      },
      "start_date": "1923-01-01",
      "end_date": "1927-12-31"
    },
    {
      "issuer": {
        "id": 5087,
        "name": "DISTRIBUTION D'ELECTRICITE DE L'OUEST"
      },
      "job": {
        "id": 219,
        "name": "Administrateur"
      },
      "start_date": "1927-01-01",
      "end_date": "1927-12-31"
    },
    {
      "issuer": {
        "id": 2696,
        "name": "CIE DISTRIBUTION D'ÉNERGIE ÉLECTRIQUE"
      },
      "job": {
        "id": 219,
        "name": "Administrateur"
      },
      "start_date": "1927-01-01",
      "end_date": "1927-12-31"
    },
    {
      "issuer": {
        "id": 5194,
        "name": "LE CENTRE ELECTRIQUE"
      },
      "job": {
        "id": 219,
        "name": "Administrateur"
      },
      "start_date": "1933-01-01",
      "end_date": "1933-12-31"
    },
    {
      "issuer": {
        "id": 5087,
        "name": "DISTRIBUTION D'ELECTRICITE DE L'OUEST"
      },
      "job": {
        "id": 101,
        "name": "Administrateur Délégué",
        "short_name": "Ad. Dél."
      },
      "start_date": "1933-01-01",
      "end_date": "1933-12-31"
    },
    {
      "issuer": {
        "id": 2696,
        "name": "CIE DISTRIBUTION D'ÉNERGIE ÉLECTRIQUE"
      },
      "job": {
        "id": 219,
        "name": "Administrateur"
      },
      "start_date": "1933-01-01",
      "end_date": "1933-12-31"
    },
    {
      "issuer": {
        "id": 2697,
        "name": "SOCIÉTÉ D'ECLAIRAGE ET DE FORCE PAR L'ÉLECTRICITÉ A PARIS"
      },
      "job": {
        "id": 101,
        "name": "Administrateur Délégué",
        "short_name": "Ad. Dél."
      },
      "start_date": "1933-01-01",
      "end_date": "1933-12-31"
    },
    {
      "issuer": {
        "id": 10276,
        "name": "SECTEUR ÉLECTRIQUE DE LA VILLE D'ASNIERES"
      },
      "job": {
        "id": 102,
        "name": "Président",
        "short_name": "P."
      },
      "start_date": "1933-01-01",
      "end_date": "1933-12-31"
    },
    {
      "issuer": {
        "id": 5395,
        "name": "SOCIÉTÉ FRANÇAISE DES POTEAUX ÉLECTRIQUES"
      },
      "job": {
        "id": 224,
        "name": "Président d'honneur"
      },
      "start_date": "1933-01-01",
      "end_date": "1933-12-31"
    },
    {
      "issuer": {
        "id": 5138,
        "name": "SOCIÉTÉ D'ELECTRICITE DE CAEN"
      },
      "job": {
        "id": 219,
        "name": "Administrateur"
      },
      "start_date": "1933-01-01",
      "end_date": "1933-12-31"
    },
    {
      "issuer": {
        "id": 5174,
        "name": "ELECTRICITE DU NORD-EST PARISIEN"
      },
      "job": {
        "id": 219,
        "name": "Administrateur"
      },
      "start_date": "1933-01-01",
      "end_date": "1933-12-31"
    }
  ],
  "name": "P. Eschwege"
}