{
  "id": 75212,
  "names": [
    "H. Gougnard"
  ],
  "functions": [
    {
      "issuer": {
        "id": 10615,
        "name": "UNION FINANCIERE INTERNATIONALE"
      },
      "job": {
        "id": 219,
        "name": "Administrateur"
      },
      "start_date": "1923-01-01",
      "end_date": "1923-12-31"
    },
    {
      "issuer": {
        "id": 10462,
        "name": "SOCIÉTÉ BOULONNAISE DE TRAVAUX ET CONSTRUCTIONS"
      },
      "job": {
        "id": 219,
        "name": "Administrateur"
      },
      "start_date": "1923-01-01",
      "end_date": "1923-12-31"
    },
    {
      "issuer": {
        "id": 4686,
        "name": "SOCIÉTÉ \"L'OXHYDRIQUE FRANÇAISE\""
      },
      "job": {
        "id": 219,
        "name": "Administrateur"
      },
      "start_date": "1933-01-01",
      "end_date": "1933-12-31"
    }
  ],
  "name": "H. Gougnard"
}