{
  "id": 57897,
  "names": [
    "de Saint-Genis"
  ],
  "functions": [
    {
      "issuer": {
        "id": 3150,
        "name": "USINES FRANCO-RUSSES (Anciens Établissements Baird, à Pétrograd)"
      },
      "job": {
        "id": 219,
        "name": "Administrateur"
      },
      "start_date": "1912-01-01",
      "end_date": "1927-12-31"
    }
  ],
  "name": "de Saint-Genis"
}