{
  "id": 86757,
  "names": [
    "J. Ribeiro"
  ],
  "functions": [
    {
      "issuer": {
        "id": 10043,
        "name": "COMPANHIA COLONIAL DO BUZI"
      },
      "job": {
        "id": 219,
        "name": "Administrateur"
      },
      "start_date": "1933-01-01",
      "end_date": "1933-12-31"
    }
  ],
  "name": "J. Ribeiro"
}