{
  "id": 57098,
  "names": [
    "D. Fox"
  ],
  "functions": [
    {
      "issuer": {
        "id": 2959,
        "name": "BRITISH SOUTH AFRICAN EXPLOSIVES Cie"
      },
      "job": {
        "id": 219,
        "name": "Administrateur"
      },
      "start_date": "1912-01-01",
      "end_date": "1917-12-31"
    }
  ],
  "name": "D. Fox"
}