{
  "id": 100918,
  "names": [
    "P. Monod"
  ],
  "functions": [
    {
      "issuer": {
        "id": 2378,
        "name": "SOCIETE FRANÇAISE DES MINES D'OR DE TRANSYLVANIE"
      },
      "job": {
        "id": 219,
        "name": "Administrateur"
      },
      "start_date": "1940-01-01",
      "end_date": "1953-12-31"
    }
  ],
  "name": "P. Monod"
}