{
  "id": 95389,
  "names": [
    "A. Blain"
  ],
  "functions": [
    {
      "issuer": {
        "id": 4717,
        "name": "SOCIETE MERIDIONALE DE PRODUITS AGRICOLES \" AGRICOLA \""
      },
      "job": {
        "id": 219,
        "name": "Administrateur"
      },
      "start_date": "1940-01-01",
      "end_date": "1945-12-31"
    },
    {
      "issuer": {
        "id": 4717,
        "name": "SOCIETE MERIDIONALE DE PRODUITS AGRICOLES \" AGRICOLA \""
      },
      "job": {
        "id": 219,
        "name": "Administrateur"
      },
      "start_date": "1953-01-01",
      "end_date": "1953-12-31"
    }
  ],
  "name": "A. Blain"
}