{
  "id": 41301,
  "names": [
    "Alloury"
  ],
  "functions": [
    {
      "issuer": {
        "id": 1251,
        "name": "Compagnie universelle du Canal maritime de Suez"
      },
      "job": {
        "id": 219,
        "name": "Administrateur"
      },
      "start_date": "1880-01-01",
      "end_date": "1883-12-31"
    }
  ],
  "name": "Alloury"
}