{
  "id": 110769,
  "names": [
    "La Patrie"
  ],
  "functions": [
    {
      "issuer": {
        "id": 324,
        "name": "LA FRANCE Compagnie d'assurances contre l'incendie"
      },
      "job": {
        "id": 219,
        "name": "Administrateur"
      },
      "start_date": "1948-01-01",
      "end_date": "1948-12-31"
    }
  ],
  "name": "La Patrie"
}