{
  "id": 120906,
  "names": [
    "J. Guéron"
  ],
  "functions": [
    {
      "issuer": {
        "id": 10539,
        "name": "(M.T.O.) MANUFACTURE DE TAPIS D'ORIENT -MANUFACTURE TEXTILE ORANAISE"
      },
      "job": {
        "id": 219,
        "name": "Administrateur"
      },
      "start_date": "1953-01-01",
      "end_date": "1953-12-31"
    }
  ],
  "name": "J. Guéron"
}