{
  "id": 127198,
  "names": [
    "Paul Simon (Belgique)"
  ],
  "functions": [
    {
      "issuer": {
        "id": 11464,
        "name": "SOCIÉTÉ ANONYME D'OUGRÉE-MARIHAYE"
      },
      "job": {
        "id": 219,
        "name": "Administrateur"
      },
      "start_date": "1940-01-01",
      "end_date": "1945-12-31"
    }
  ],
  "name": "Paul Simon (Belgique)"
}