{
  "id": 108829,
  "names": [
    "A. Fruhinsholz"
  ],
  "functions": [
    {
      "issuer": {
        "id": 11492,
        "name": "SOCIÉTÉ DES ETABLISSEMENTS ADOLPHE FRUHINSHOLZ"
      },
      "job": {
        "id": 189,
        "name": "Président directeur général",
        "short_name": "P.D.G."
      },
      "start_date": "1945-01-01",
      "end_date": "1948-12-31"
    },
    {
      "issuer": {
        "id": 11492,
        "name": "SOCIÉTÉ DES ETABLISSEMENTS ADOLPHE FRUHINSHOLZ"
      },
      "job": {
        "id": 224,
        "name": "Président d'honneur"
      },
      "start_date": "1953-01-01",
      "end_date": "1953-12-31"
    }
  ],
  "name": "A. Fruhinsholz"
}