{
  "id": 41737,
  "names": [
    "J. Dounine"
  ],
  "functions": [
    {
      "issuer": {
        "id": 953,
        "name": "Grande Société des Chemins de fer Russes"
      },
      "job": {
        "id": 219,
        "name": "Administrateur"
      },
      "start_date": "1883-01-01",
      "end_date": "1883-12-31"
    }
  ],
  "name": "J. Dounine"
}