{
  "id": 54942,
  "names": [
    "E. Richards"
  ],
  "functions": [
    {
      "issuer": {
        "id": 3355,
        "name": "FERROCARRILES NACIONALES DE MEXICO (Chemins de fer Nationaux du Mexique)"
      },
      "job": {
        "id": 12821,
        "name": "Comité à New York"
      },
      "start_date": "1912-01-01",
      "end_date": "1912-12-31"
    }
  ],
  "name": "E. Richards"
}