{
  "id": 103989,
  "names": [
    "L. Lhère"
  ],
  "functions": [
    {
      "issuer": {
        "id": 2533,
        "name": "ENTREPOTS MODERNES DE PANTIN"
      },
      "job": {
        "id": 101,
        "name": "Administrateur Délégué",
        "short_name": "Ad. Dél."
      },
      "start_date": "1940-01-01",
      "end_date": "1940-12-31"
    },
    {
      "issuer": {
        "id": 2533,
        "name": "ENTREPOTS MODERNES DE PANTIN"
      },
      "job": {
        "id": 219,
        "name": "Administrateur"
      },
      "start_date": "1953-01-01",
      "end_date": "1953-12-31"
    }
  ],
  "name": "L. Lhère"
}