{
  "id": 119119,
  "names": [
    "L. Schiafflnor"
  ],
  "functions": [
    {
      "issuer": {
        "id": 1628,
        "name": "Sté GENERALE DE TRANSPORTS MARITIMES A VAPEUR"
      },
      "job": {
        "id": 219,
        "name": "Administrateur"
      },
      "start_date": "1953-01-01",
      "end_date": "1953-12-31"
    }
  ],
  "name": "L. Schiafflnor"
}