{
  "id": 44544,
  "names": [
    "Maurice Bertin"
  ],
  "functions": [
    {
      "issuer": {
        "id": 4474,
        "name": "Laminoir et Tréfilerie d'Afrique \"Latraf\""
      },
      "job": {
        "id": 219,
        "name": "Administrateur"
      },
      "start_date": "1948-01-01",
      "end_date": "1948-12-31"
    },
    {
      "issuer": {
        "id": 3902,
        "name": "ETABLISSEMENTS ARSENE SAUPIQUET"
      },
      "job": {
        "id": 219,
        "name": "Administrateur"
      },
      "start_date": "1953-01-01",
      "end_date": "1953-12-31"
    },
    {
      "issuer": {
        "id": 11344,
        "name": "Crédit nantais"
      },
      "job": {
        "id": 117,
        "name": "Vice-Président",
        "short_name": "V.-Pr."
      },
      "start_date": "1953-01-01",
      "end_date": "1953-12-31"
    }
  ],
  "name": "Maurice Bertin"
}