{
  "id": 90958,
  "names": [
    "Brylinski"
  ],
  "functions": [
    {
      "issuer": {
        "id": 3068,
        "name": "STE D'INDUSTRIE MINIÈRE D'EKATERINOVKA"
      },
      "job": {
        "id": 219,
        "name": "Administrateur"
      },
      "start_date": "1933-01-01",
      "end_date": "1933-12-31"
    }
  ],
  "name": "Brylinski"
}