{
  "id": 49724,
  "names": [
    "Bonneau du Martray"
  ],
  "functions": [
    {
      "issuer": {
        "id": 1596,
        "name": "LA CONFIANCE Compagnie d'Assurances sur la Vie"
      },
      "job": {
        "id": 125,
        "name": "Administrateur Directeur",
        "short_name": "Ad. Dir."
      },
      "start_date": "1903-01-01",
      "end_date": "1903-12-31"
    },
    {
      "issuer": {
        "id": 1596,
        "name": "LA CONFIANCE Compagnie d'Assurances sur la Vie"
      },
      "job": {
        "id": 219,
        "name": "Administrateur"
      },
      "start_date": "1908-01-01",
      "end_date": "1923-12-31"
    },
    {
      "issuer": {
        "id": 1596,
        "name": "LA CONFIANCE Compagnie d'Assurances sur la Vie"
      },
      "job": {
        "id": 162,
        "name": "Président honoraire"
      },
      "start_date": "1933-01-01",
      "end_date": "1933-12-31"
    }
  ],
  "name": "Bonneau du Martray"
}