{
  "id": 79366,
  "names": [
    "Ed. Velton"
  ],
  "functions": [
    {
      "issuer": {
        "id": 10622,
        "name": "L'ELECTRICITE DE MARSEILLE"
      },
      "job": {
        "id": 219,
        "name": "Administrateur"
      },
      "start_date": "1927-01-01",
      "end_date": "1927-12-31"
    }
  ],
  "name": "Ed. Velton"
}