{
  "id": 121204,
  "names": [
    "Régis Gabriel-Thomas"
  ],
  "functions": [
    {
      "issuer": {
        "id": 3020,
        "name": "MUSÉE GREVIN"
      },
      "job": {
        "id": 219,
        "name": "Administrateur"
      },
      "start_date": "1953-01-01",
      "end_date": "1953-12-31"
    }
  ],
  "name": "Régis Gabriel-Thomas"
}