{
  "id": 53594,
  "names": [
    "Léon Rueff"
  ],
  "functions": [
    {
      "issuer": {
        "id": 2375,
        "name": "CREDIT COMMERCIAL DE FRANCE"
      },
      "job": {
        "id": 219,
        "name": "Administrateur"
      },
      "start_date": "1908-01-01",
      "end_date": "1908-12-31"
    },
    {
      "issuer": {
        "id": 2375,
        "name": "CREDIT COMMERCIAL DE FRANCE"
      },
      "job": {
        "id": 219,
        "name": "Administrateur"
      },
      "start_date": "1912-01-01",
      "end_date": "1917-12-31"
    }
  ],
  "name": "Léon Rueff"
}