{
  "id": 53345,
  "names": [
    "L. Davydoff"
  ],
  "functions": [
    {
      "issuer": {
        "id": 2403,
        "name": "Banque Russo-Chinoise"
      },
      "job": {
        "id": 219,
        "name": "Administrateur"
      },
      "start_date": "1908-01-01",
      "end_date": "1908-12-31"
    }
  ],
  "name": "L. Davydoff"
}