{
  "id": 59712,
  "names": [
    "N. Laclau"
  ],
  "functions": [
    {
      "issuer": {
        "id": 2400,
        "name": "Banque Française du Rio de la Plata"
      },
      "job": {
        "id": 219,
        "name": "Administrateur"
      },
      "start_date": "1917-01-01",
      "end_date": "1917-12-31"
    }
  ],
  "name": "N. Laclau"
}