{
  "id": 48583,
  "names": [
    "de Stucklé"
  ],
  "functions": [
    {
      "issuer": {
        "id": 202,
        "name": "Sté DES ANCIENNES SALINES DOMANIALES DE L'EST"
      },
      "job": {
        "id": 219,
        "name": "Administrateur"
      },
      "start_date": "1917-01-01",
      "end_date": "1923-12-31"
    },
    {
      "issuer": {
        "id": 4857,
        "name": "Chantiers naval de l'Ouest"
      },
      "job": {
        "id": 219,
        "name": "Administrateur"
      },
      "start_date": "1923-01-01",
      "end_date": "1927-12-31"
    }
  ],
  "name": "de Stucklé"
}