{
  "id": 91365,
  "names": [
    "H. Bouchery"
  ],
  "functions": [
    {
      "issuer": {
        "id": 4747,
        "name": "ÉTABLISSEMENTS AGACHE FILS (Société anonyme de Pérenchies)"
      },
      "job": {
        "id": 219,
        "name": "Administrateur"
      },
      "start_date": "1933-01-01",
      "end_date": "1933-12-31"
    }
  ],
  "name": "H. Bouchery"
}