{
  "id": 57639,
  "names": [
    "Chauvin"
  ],
  "functions": [
    {
      "issuer": {
        "id": 10336,
        "name": "Société F.R.A.M. Française"
      },
      "job": {
        "id": 219,
        "name": "Administrateur"
      },
      "start_date": "1912-01-01",
      "end_date": "1912-12-31"
    }
  ],
  "name": "Chauvin"
}