{
  "id": 42275,
  "names": [
    "Edouard Clément Naud"
  ],
  "functions": [
    {
      "issuer": {
        "id": 969,
        "name": "Comptoir Central de Crédit (E. Naud et Cie)"
      },
      "job": {
        "id": 229,
        "name": "Gérant"
      },
      "start_date": "1880-01-01",
      "end_date": "1889-12-31"
    },
    {
      "issuer": {
        "id": 2100,
        "name": "LE PATRIMOINE COMPAGNIE ANONYME D'ASSURANCES SUR LA VIE"
      },
      "job": {
        "id": 117,
        "name": "Vice-Président",
        "short_name": "V.-Pr."
      },
      "start_date": "1889-01-01",
      "end_date": "1893-12-31"
    },
    {
      "issuer": {
        "id": 969,
        "name": "Comptoir Central de Crédit (E. Naud et Cie)"
      },
      "job": {
        "id": 141,
        "name": "Directeur Général",
        "short_name": "D.G."
      },
      "start_date": "1893-01-01",
      "end_date": "1893-12-31"
    }
  ],
  "name": "Edouard Clément Naud"
}