{
  "id": 48542,
  "names": [
    "Cossange"
  ],
  "functions": [
    {
      "issuer": {
        "id": 3017,
        "name": "SOCIETE FRANÇAISE DE MATÉRIEL AGRICOLE ET INDUSTRIEL"
      },
      "job": {
        "id": 219,
        "name": "Administrateur"
      },
      "start_date": "1898-01-01",
      "end_date": "1903-12-31"
    },
    {
      "issuer": {
        "id": 10445,
        "name": "SOCIÉTÉ DES MINES D'OR DU KATCHKAR"
      },
      "job": {
        "id": 219,
        "name": "Administrateur"
      },
      "start_date": "1917-01-01",
      "end_date": "1917-12-31"
    }
  ],
  "name": "Cossange"
}