{
  "id": 109645,
  "names": [
    "R. Lacarrière"
  ],
  "functions": [
    {
      "issuer": {
        "id": 4334,
        "name": "ANCIENS ÉTABLISSEMENTS SIÉGEL ET STOCKMAN RÉUNIS"
      },
      "job": {
        "id": 219,
        "name": "Administrateur"
      },
      "start_date": "1945-01-01",
      "end_date": "1953-12-31"
    }
  ],
  "name": "R. Lacarrière"
}