{
  "id": 90868,
  "names": [
    "Compagnie Nationale des Colorantes et Manufacture des Produits Chimiques du Nord Réunis (Etablissements Kuhlmann)"
  ],
  "functions": [
    {
      "issuer": {
        "id": 5483,
        "name": "Cie DES MINES DE POTASSE DE BLODELSHEIM (ALSACE)"
      },
      "job": {
        "id": 219,
        "name": "Administrateur"
      },
      "start_date": "1933-01-01",
      "end_date": "1933-12-31"
    },
    {
      "issuer": {
        "id": 5483,
        "name": "Cie DES MINES DE POTASSE DE BLODELSHEIM (ALSACE)"
      },
      "job": {
        "id": 219,
        "name": "Administrateur"
      },
      "start_date": "1940-01-01",
      "end_date": "1940-12-31"
    },
    {
      "issuer": {
        "id": 5290,
        "name": "FORCES MOTRICES DE LA HAUTE-ROMANCHE"
      },
      "job": {
        "id": 219,
        "name": "Administrateur"
      },
      "start_date": "1940-01-01",
      "end_date": "1940-12-31"
    },
    {
      "issuer": {
        "id": 4335,
        "name": "UNION COMMERCIALE AGRICOLE"
      },
      "job": {
        "id": 219,
        "name": "Administrateur"
      },
      "start_date": "1940-01-01",
      "end_date": "1945-12-31"
    },
    {
      "issuer": {
        "id": 4694,
        "name": "Produits Chimiques Coignet"
      },
      "job": {
        "id": 219,
        "name": "Administrateur"
      },
      "start_date": "1945-01-01",
      "end_date": "1945-12-31"
    },
    {
      "issuer": {
        "id": 5290,
        "name": "FORCES MOTRICES DE LA HAUTE-ROMANCHE"
      },
      "job": {
        "id": 219,
        "name": "Administrateur"
      },
      "start_date": "1945-01-01",
      "end_date": "1945-12-31"
    },
    {
      "issuer": {
        "id": 5444,
        "name": "SOCIÉTÉ DE PRODUITS CHIMIQUES COURRIÈRES-KUHLMANN"
      },
      "job": {
        "id": 219,
        "name": "Administrateur"
      },
      "start_date": "1945-01-01",
      "end_date": "1948-12-31"
    },
    {
      "issuer": {
        "id": 2329,
        "name": "STÉ ANONYME DES MATIÈRES COLORANTES ET PRODUITS CHIMIQUES DE SAINT-DENIS (Établissements A. Poirier et O. Dalsace)."
      },
      "job": {
        "id": 219,
        "name": "Administrateur"
      },
      "start_date": "1948-01-01",
      "end_date": "1948-12-31"
    },
    {
      "issuer": {
        "id": 4694,
        "name": "Produits Chimiques Coignet"
      },
      "job": {
        "id": 219,
        "name": "Administrateur"
      },
      "start_date": "1948-01-01",
      "end_date": "1948-12-31"
    },
    {
      "issuer": {
        "id": 4660,
        "name": "SOCIETE DE PRODUITS CHIMIQUES MARLES-KUHLMANN"
      },
      "job": {
        "id": 219,
        "name": "Administrateur"
      },
      "start_date": "1948-01-01",
      "end_date": "1948-12-31"
    },
    {
      "issuer": {
        "id": 4694,
        "name": "Produits Chimiques Coignet"
      },
      "job": {
        "id": 219,
        "name": "Administrateur"
      },
      "start_date": "1953-01-01",
      "end_date": "1953-12-31"
    },
    {
      "issuer": {
        "id": 4660,
        "name": "SOCIETE DE PRODUITS CHIMIQUES MARLES-KUHLMANN"
      },
      "job": {
        "id": 219,
        "name": "Administrateur"
      },
      "start_date": "1953-01-01",
      "end_date": "1953-12-31"
    },
    {
      "issuer": {
        "id": 5444,
        "name": "SOCIÉTÉ DE PRODUITS CHIMIQUES COURRIÈRES-KUHLMANN"
      },
      "job": {
        "id": 219,
        "name": "Administrateur"
      },
      "start_date": "1953-01-01",
      "end_date": "1953-12-31"
    },
    {
      "issuer": {
        "id": 2329,
        "name": "STÉ ANONYME DES MATIÈRES COLORANTES ET PRODUITS CHIMIQUES DE SAINT-DENIS (Établissements A. Poirier et O. Dalsace)."
      },
      "job": {
        "id": 219,
        "name": "Administrateur"
      },
      "start_date": "1953-01-01",
      "end_date": "1953-12-31"
    }
  ],
  "name": "Compagnie Nationale des Colorantes et Manufacture des Produits Chimiques du Nord Réunis (Etablissements Kuhlmann)"
}