{
  "id": 85239,
  "names": [
    "Fernand Bonnier de La Chapelle"
  ],
  "functions": [
    {
      "issuer": {
        "id": 10875,
        "name": "COMPAGNIE DES MINES D'ARRENS"
      },
      "job": {
        "id": 219,
        "name": "Administrateur"
      },
      "start_date": "1933-01-01",
      "end_date": "1933-12-31"
    },
    {
      "issuer": {
        "id": 5288,
        "name": "COMPAGNIE D'ELECTRICITE INDUSTRIELLE"
      },
      "job": {
        "id": 219,
        "name": "Administrateur"
      },
      "start_date": "1933-01-01",
      "end_date": "1933-12-31"
    },
    {
      "issuer": {
        "id": 5420,
        "name": "UNION ELECTRIQUE RURALE (En liquidation)"
      },
      "job": {
        "id": 219,
        "name": "Administrateur"
      },
      "start_date": "1933-01-01",
      "end_date": "1933-12-31"
    },
    {
      "issuer": {
        "id": 4900,
        "name": "L'ENERGIE ELECTRIQUE RHONE ET JURA"
      },
      "job": {
        "id": 219,
        "name": "Administrateur"
      },
      "start_date": "1933-01-01",
      "end_date": "1933-12-31"
    },
    {
      "issuer": {
        "id": 2203,
        "name": "SOCIÉTÉ GÉNÉRALE DE FORCE ET LUMIERE (Anciennement Société Grenobloise de Force et de Lumière)"
      },
      "job": {
        "id": 219,
        "name": "Administrateur"
      },
      "start_date": "1940-01-01",
      "end_date": "1945-12-31"
    },
    {
      "issuer": {
        "id": 4900,
        "name": "L'ENERGIE ELECTRIQUE RHONE ET JURA"
      },
      "job": {
        "id": 219,
        "name": "Administrateur"
      },
      "start_date": "1940-01-01",
      "end_date": "1945-12-31"
    },
    {
      "issuer": {
        "id": 11186,
        "name": "Banque italo-française de crédit"
      },
      "job": {
        "id": 219,
        "name": "Administrateur"
      },
      "start_date": "1945-01-01",
      "end_date": "1945-12-31"
    },
    {
      "issuer": {
        "id": 5053,
        "name": "ÉNERGIE ELECTRIQUE DE LA BASSE-LOIRE"
      },
      "job": {
        "id": 219,
        "name": "Administrateur"
      },
      "start_date": "1945-01-01",
      "end_date": "1945-12-31"
    },
    {
      "issuer": {
        "id": 5288,
        "name": "COMPAGNIE D'ELECTRICITE INDUSTRIELLE"
      },
      "job": {
        "id": 219,
        "name": "Administrateur"
      },
      "start_date": "1945-01-01",
      "end_date": "1945-12-31"
    },
    {
      "issuer": {
        "id": 3576,
        "name": "UNION EUROPEENNE INDUSTRIELLE ET FINANCIERE"
      },
      "job": {
        "id": 219,
        "name": "Administrateur"
      },
      "start_date": "1953-01-01",
      "end_date": "1953-12-31"
    }
  ],
  "name": "Fernand Bonnier de La Chapelle"
}