{
  "id": 112646,
  "names": [
    "René Thévenot"
  ],
  "functions": [
    {
      "issuer": {
        "id": 3957,
        "name": "STE ANONYME DES USINES MOTOBLOC"
      },
      "job": {
        "id": 219,
        "name": "Administrateur"
      },
      "start_date": "1923-01-01",
      "end_date": "1927-12-31"
    },
    {
      "issuer": {
        "id": 4154,
        "name": "BERNARD MOTEURS"
      },
      "job": {
        "id": 10019,
        "name": "Commissaire des comptes"
      },
      "start_date": "1948-01-01",
      "end_date": "1953-12-31"
    },
    {
      "issuer": {
        "id": 4310,
        "name": "LE COMMERCE AFRICAIN"
      },
      "job": {
        "id": 10019,
        "name": "Commissaire des comptes"
      },
      "start_date": "1948-01-01",
      "end_date": "1953-12-31"
    },
    {
      "issuer": {
        "id": 3872,
        "name": "Etablissements Dubonnet"
      },
      "job": {
        "id": 219,
        "name": "Administrateur"
      },
      "start_date": "1953-01-01",
      "end_date": "1953-12-31"
    },
    {
      "issuer": {
        "id": 4038,
        "name": "COMPAGNIE D'EXPLOITATIONS FORESTIERES AFRICAINES"
      },
      "job": {
        "id": 10019,
        "name": "Commissaire des comptes"
      },
      "start_date": "1953-01-01",
      "end_date": "1953-12-31"
    },
    {
      "issuer": {
        "id": 4359,
        "name": "Compagnie d'Exploitations Commerciales Africaines"
      },
      "job": {
        "id": 10019,
        "name": "Commissaire des comptes"
      },
      "start_date": "1953-01-01",
      "end_date": "1953-12-31"
    },
    {
      "issuer": {
        "id": 3999,
        "name": "Société Coloniale des Chaux et Ciments de l'A.O.F."
      },
      "job": {
        "id": 10258,
        "name": "Suppléant"
      },
      "start_date": "1953-01-01",
      "end_date": "1953-12-31"
    },
    {
      "issuer": {
        "id": 3580,
        "name": "Banque Commerciale Africaine"
      },
      "job": {
        "id": 10019,
        "name": "Commissaire des comptes"
      },
      "start_date": "1953-01-01",
      "end_date": "1953-12-31"
    },
    {
      "issuer": {
        "id": 4800,
        "name": "ETABLISSEMENTS R. GONFREVILLE"
      },
      "job": {
        "id": 10258,
        "name": "Suppléant"
      },
      "start_date": "1953-01-01",
      "end_date": "1953-12-31"
    },
    {
      "issuer": {
        "id": 3923,
        "name": "LESIEUR-AFRIQUE (CASABLANCA)"
      },
      "job": {
        "id": 10019,
        "name": "Commissaire des comptes"
      },
      "start_date": "1953-01-01",
      "end_date": "1953-12-31"
    },
    {
      "issuer": {
        "id": 3744,
        "name": "DUBONNET"
      },
      "job": {
        "id": 10019,
        "name": "Commissaire des comptes"
      },
      "start_date": "1953-01-01",
      "end_date": "1953-12-31"
    },
    {
      "issuer": {
        "id": 3781,
        "name": "L'ALIMENT ESSENTIEL (Procédés Charles Heudebert)"
      },
      "job": {
        "id": 10019,
        "name": "Commissaire des comptes"
      },
      "start_date": "1953-01-01",
      "end_date": "1953-12-31"
    }
  ],
  "name": "René Thévenot"
}