{
  "id": 78797,
  "names": [
    "G. Augustin"
  ],
  "functions": [
    {
      "issuer": {
        "id": 10738,
        "name": "COMPAGNIE FRANÇAISE DE RÉASSURANCES GÉNÉRALES"
      },
      "job": {
        "id": 219,
        "name": "Administrateur"
      },
      "start_date": "1927-01-01",
      "end_date": "1927-12-31"
    }
  ],
  "name": "G. Augustin"
}