{
  "id": 99069,
  "names": [
    "J. -L. Mariage"
  ],
  "functions": [
    {
      "issuer": {
        "id": 2632,
        "name": "Compagnie des Tramways de Nice et du Littoral"
      },
      "job": {
        "id": 101,
        "name": "Administrateur Délégué",
        "short_name": "Ad. Dél."
      },
      "start_date": "1940-01-01",
      "end_date": "1940-12-31"
    },
    {
      "issuer": {
        "id": 4554,
        "name": "SOCIETE FRANÇAISE DES CARBURANTS"
      },
      "job": {
        "id": 219,
        "name": "Administrateur"
      },
      "start_date": "1940-01-01",
      "end_date": "1940-12-31"
    },
    {
      "issuer": {
        "id": 2632,
        "name": "Compagnie des Tramways de Nice et du Littoral"
      },
      "job": {
        "id": 189,
        "name": "Président directeur général",
        "short_name": "P.D.G."
      },
      "start_date": "1948-01-01",
      "end_date": "1948-12-31"
    },
    {
      "issuer": {
        "id": 2632,
        "name": "Compagnie des Tramways de Nice et du Littoral"
      },
      "job": {
        "id": 189,
        "name": "Président directeur général",
        "short_name": "P.D.G."
      },
      "start_date": "1953-01-01",
      "end_date": "1953-12-31"
    }
  ],
  "name": "J. -L. Mariage"
}