{
  "id": 41791,
  "names": [
    "imbelli"
  ],
  "functions": [
    {
      "issuer": {
        "id": 2236,
        "name": "Compagnie nationale de navigation"
      },
      "job": {
        "id": 219,
        "name": "Administrateur"
      },
      "start_date": "1883-01-01",
      "end_date": "1893-12-31"
    }
  ],
  "name": "imbelli"
}