{
  "id": 44605,
  "names": [
    "L. Martin"
  ],
  "functions": [
    {
      "issuer": {
        "id": 497,
        "name": "Compagnie des Chemins de fer de l'Est"
      },
      "job": {
        "id": 219,
        "name": "Administrateur"
      },
      "start_date": "1933-01-01",
      "end_date": "1933-12-31"
    },
    {
      "issuer": {
        "id": 497,
        "name": "Compagnie des Chemins de fer de l'Est"
      },
      "job": {
        "id": 219,
        "name": "Administrateur"
      },
      "start_date": "1940-01-01",
      "end_date": "1940-12-31"
    },
    {
      "issuer": {
        "id": 3374,
        "name": "Brazil Railway Cy"
      },
      "job": {
        "id": 13620,
        "name": "Délégué des Obligataires"
      },
      "start_date": "1945-01-01",
      "end_date": "1948-12-31"
    },
    {
      "issuer": {
        "id": 3267,
        "name": "PORT DE PARA"
      },
      "job": {
        "id": 219,
        "name": "Administrateur"
      },
      "start_date": "1953-01-01",
      "end_date": "1953-12-31"
    },
    {
      "issuer": {
        "id": 3374,
        "name": "Brazil Railway Cy"
      },
      "job": {
        "id": 228,
        "name": "Membre du Comité"
      },
      "start_date": "1953-01-01",
      "end_date": "1953-12-31"
    }
  ],
  "name": "L. Martin"
}