{
  "id": 114990,
  "names": [
    "Sté Métropolitaine d'Entreprises Industrielles et Commerciales"
  ],
  "functions": [
    {
      "issuer": {
        "id": 3749,
        "name": "Sté NOUVELLE DE RAFFINERIE LEBAUDY-SOMMIER"
      },
      "job": {
        "id": 219,
        "name": "Administrateur"
      },
      "start_date": "1948-01-01",
      "end_date": "1953-12-31"
    }
  ],
  "name": "Sté Métropolitaine d'Entreprises Industrielles et Commerciales"
}