{
  "id": 62958,
  "names": [
    "G. Lamaille"
  ],
  "functions": [
    {
      "issuer": {
        "id": 882,
        "name": "Comptoir de l'Industrie linière"
      },
      "job": {
        "id": 232,
        "name": "Commissaire de surveillance"
      },
      "start_date": "1917-01-01",
      "end_date": "1917-12-31"
    },
    {
      "issuer": {
        "id": 882,
        "name": "Comptoir de l'Industrie linière"
      },
      "job": {
        "id": 10637,
        "name": "Membre du Comité de surveillance"
      },
      "start_date": "1923-01-01",
      "end_date": "1923-12-31"
    },
    {
      "issuer": {
        "id": 882,
        "name": "Comptoir de l'Industrie linière"
      },
      "job": {
        "id": 232,
        "name": "Commissaire de surveillance"
      },
      "start_date": "1927-01-01",
      "end_date": "1927-12-31"
    }
  ],
  "name": "G. Lamaille"
}