{
  "id": 115725,
  "names": [
    "Y. Le Duc"
  ],
  "functions": [
    {
      "issuer": {
        "id": 2620,
        "name": "SOCIÉTÉ DES TRAMWAYS ALGERIENS"
      },
      "job": {
        "id": 219,
        "name": "Administrateur"
      },
      "start_date": "1953-01-01",
      "end_date": "1953-12-31"
    }
  ],
  "name": "Y. Le Duc"
}