{
  "id": 102134,
  "names": [
    "A. Ceuterick"
  ],
  "functions": [
    {
      "issuer": {
        "id": 4905,
        "name": "ACIÉRIES RÉUNIES DE BURBACH-EICH-DUDELANGE (ARBED)"
      },
      "job": {
        "id": 103,
        "name": "Commissaire"
      },
      "start_date": "1940-01-01",
      "end_date": "1945-12-31"
    }
  ],
  "name": "A. Ceuterick"
}