{
  "id": 84270,
  "names": [
    "J. Prénat"
  ],
  "functions": [
    {
      "issuer": {
        "id": 10546,
        "name": "PORCELAINES & APPAREILLAGES ELECTRIQUES GRAMMONT"
      },
      "job": {
        "id": 219,
        "name": "Administrateur"
      },
      "start_date": "1927-01-01",
      "end_date": "1927-12-31"
    }
  ],
  "name": "J. Prénat"
}