{
  "id": 74304,
  "names": [
    "E. Domenge"
  ],
  "functions": [
    {
      "issuer": {
        "id": 3031,
        "name": "FABRIQUES DE PAPIER SAN RAFAEL Y ANEXAS"
      },
      "job": {
        "id": 219,
        "name": "Administrateur"
      },
      "start_date": "1923-01-01",
      "end_date": "1923-12-31"
    }
  ],
  "name": "E. Domenge"
}