{
  "id": 110878,
  "names": [
    "D. d'Audiffret-Pasquier"
  ],
  "functions": [
    {
      "issuer": {
        "id": 3518,
        "name": "LE LLOYD DE FRANCE-VIE"
      },
      "job": {
        "id": 219,
        "name": "Administrateur"
      },
      "start_date": "1948-01-01",
      "end_date": "1953-12-31"
    }
  ],
  "name": "D. d'Audiffret-Pasquier"
}