{
  "id": 118933,
  "names": [
    "W.-B. Scott"
  ],
  "functions": [
    {
      "issuer": {
        "id": 4943,
        "name": "THE SHAWINISAN WATER AND POWER C°"
      },
      "job": {
        "id": 219,
        "name": "Administrateur"
      },
      "start_date": "1953-01-01",
      "end_date": "1953-12-31"
    }
  ],
  "name": "W.-B. Scott"
}