{
  "id": 112918,
  "names": [
    "M. Macaux"
  ],
  "functions": [
    {
      "issuer": {
        "id": 4166,
        "name": "SOCIÉTÉ DES ETABLISSEMENTS COULAUX ET CIE"
      },
      "job": {
        "id": 219,
        "name": "Administrateur"
      },
      "start_date": "1948-01-01",
      "end_date": "1953-12-31"
    },
    {
      "issuer": {
        "id": 4459,
        "name": "FORGES ET ATELIERS DE MEUDON"
      },
      "job": {
        "id": 102,
        "name": "Président",
        "short_name": "P."
      },
      "start_date": "1948-01-01",
      "end_date": "1953-12-31"
    },
    {
      "issuer": {
        "id": 1675,
        "name": "ACIERIES ET FORGES DE FIRMINY"
      },
      "job": {
        "id": 219,
        "name": "Administrateur"
      },
      "start_date": "1953-01-01",
      "end_date": "1953-12-31"
    },
    {
      "issuer": {
        "id": 1675,
        "name": "ACIERIES ET FORGES DE FIRMINY"
      },
      "job": {
        "id": 141,
        "name": "Directeur Général",
        "short_name": "D.G."
      },
      "start_date": "1953-01-01",
      "end_date": "1953-12-31"
    }
  ],
  "name": "M. Macaux"
}