{
  "id": 126334,
  "names": [
    "Louis Dupont (Paris)"
  ],
  "functions": [
    {
      "issuer": {
        "id": 4676,
        "name": "HUILES, GOUDRONS ET DERIVES"
      },
      "job": {
        "id": 102,
        "name": "Président",
        "short_name": "P."
      },
      "start_date": "1940-01-01",
      "end_date": "1945-12-31"
    },
    {
      "issuer": {
        "id": 4676,
        "name": "HUILES, GOUDRONS ET DERIVES"
      },
      "job": {
        "id": 219,
        "name": "Administrateur"
      },
      "start_date": "1948-01-01",
      "end_date": "1948-12-31"
    }
  ],
  "name": "Louis Dupont (Paris)"
}