{
  "id": 120599,
  "names": [
    "P. Andrieux"
  ],
  "functions": [
    {
      "issuer": {
        "id": 4337,
        "name": "COMPAGNIE COMMERCIALE DES ANTILLES FRANÇAISES F. TANON et Cie"
      },
      "job": {
        "id": 219,
        "name": "Administrateur"
      },
      "start_date": "1953-01-01",
      "end_date": "1953-12-31"
    }
  ],
  "name": "P. Andrieux"
}