{
  "id": 51339,
  "names": [
    "Louis Castan"
  ],
  "functions": [
    {
      "issuer": {
        "id": 1742,
        "name": "CRÉDIT FONCIER D'ALGÉRIE ET DE TUNISIE"
      },
      "job": {
        "id": 138,
        "name": "Censeur",
        "short_name": "Cens."
      },
      "start_date": "1903-01-01",
      "end_date": "1903-12-31"
    },
    {
      "issuer": {
        "id": 2734,
        "name": "COMPAGNIE FONCIERE ET IMMOBILIÈRE DE LA VILLE D'ALGER"
      },
      "job": {
        "id": 219,
        "name": "Administrateur"
      },
      "start_date": "1903-01-01",
      "end_date": "1903-12-31"
    },
    {
      "issuer": {
        "id": 1742,
        "name": "CRÉDIT FONCIER D'ALGÉRIE ET DE TUNISIE"
      },
      "job": {
        "id": 11022,
        "name": "Administrateur à Alger"
      },
      "start_date": "1908-01-01",
      "end_date": "1908-12-31"
    },
    {
      "issuer": {
        "id": 2734,
        "name": "COMPAGNIE FONCIERE ET IMMOBILIÈRE DE LA VILLE D'ALGER"
      },
      "job": {
        "id": 219,
        "name": "Administrateur"
      },
      "start_date": "1912-01-01",
      "end_date": "1912-12-31"
    },
    {
      "issuer": {
        "id": 1742,
        "name": "CRÉDIT FONCIER D'ALGÉRIE ET DE TUNISIE"
      },
      "job": {
        "id": 219,
        "name": "Administrateur"
      },
      "start_date": "1912-01-01",
      "end_date": "1912-12-31"
    }
  ],
  "name": "Louis Castan"
}