{
  "id": 102176,
  "names": [
    "A. Krecht"
  ],
  "functions": [
    {
      "issuer": {
        "id": 5333,
        "name": "ANCIENS ETABLISSEMENTS SKODA A PLZEN (Tchécoslovaquie)"
      },
      "job": {
        "id": 10019,
        "name": "Commissaire des comptes"
      },
      "start_date": "1940-01-01",
      "end_date": "1940-12-31"
    }
  ],
  "name": "A. Krecht"
}