{
  "id": 55941,
  "names": [
    "Jayme A. dos Santos Couvreur"
  ],
  "functions": [
    {
      "issuer": {
        "id": 3057,
        "name": "COMPAGNIE DU ZAMBÈZE (Companhia da Zambezia)"
      },
      "job": {
        "id": 219,
        "name": "Administrateur"
      },
      "start_date": "1912-01-01",
      "end_date": "1912-12-31"
    }
  ],
  "name": "Jayme A. dos Santos Couvreur"
}