{
  "id": 126716,
  "names": [
    "R. Gérard"
  ],
  "functions": [
    {
      "issuer": {
        "id": 566,
        "name": "Crédit Foncier de France"
      },
      "job": {
        "id": 223,
        "name": "Sous-gouverneur"
      },
      "start_date": "1912-01-01",
      "end_date": "1917-12-31"
    },
    {
      "issuer": {
        "id": 1381,
        "name": "Sous-Comptoir des Entrepreneurs"
      },
      "job": {
        "id": 219,
        "name": "Administrateur"
      },
      "start_date": "1923-01-01",
      "end_date": "1923-12-31"
    },
    {
      "issuer": {
        "id": 566,
        "name": "Crédit Foncier de France"
      },
      "job": {
        "id": 219,
        "name": "Administrateur"
      },
      "start_date": "1923-01-01",
      "end_date": "1923-12-31"
    },
    {
      "issuer": {
        "id": 10892,
        "name": "TRÉFILERIES, LAMINOIRS ET FONDERIES DE CHAUNY"
      },
      "job": {
        "id": 219,
        "name": "Administrateur"
      },
      "start_date": "1933-01-01",
      "end_date": "1933-12-31"
    },
    {
      "issuer": {
        "id": 4969,
        "name": "SOCIETE DES PLANTATIONS DE DJEMBER"
      },
      "job": {
        "id": 219,
        "name": "Administrateur"
      },
      "start_date": "1953-01-01",
      "end_date": "1953-12-31"
    }
  ],
  "name": "R. Gérard"
}