{
  "id": 99827,
  "names": [
    "Pierre Félix Robert Pécaut"
  ],
  "functions": [
    {
      "issuer": {
        "id": 2256,
        "name": "CIE FRANÇAISE DES MINES DU LAURIUM"
      },
      "job": {
        "id": 219,
        "name": "Administrateur"
      },
      "start_date": "1940-01-01",
      "end_date": "1940-12-31"
    }
  ],
  "name": "Pierre Félix Robert Pécaut"
}