{
  "id": 57193,
  "names": [
    "J. C. Bunge"
  ],
  "functions": [
    {
      "issuer": {
        "id": 4963,
        "name": "SOCIÉTÉ FINANCIERE DES CAOUTCHOUCS"
      },
      "job": {
        "id": 219,
        "name": "Administrateur"
      },
      "start_date": "1912-01-01",
      "end_date": "1917-12-31"
    }
  ],
  "name": "J. C. Bunge"
}