{
  "id": 85272,
  "names": [
    "P. Sèbe"
  ],
  "functions": [
    {
      "issuer": {
        "id": 2849,
        "name": "SOCIÉTÉ DES MINES DU BOU-THALEB"
      },
      "job": {
        "id": 219,
        "name": "Administrateur"
      },
      "start_date": "1933-01-01",
      "end_date": "1933-12-31"
    },
    {
      "issuer": {
        "id": 2849,
        "name": "SOCIÉTÉ DES MINES DU BOU-THALEB"
      },
      "job": {
        "id": 219,
        "name": "Administrateur"
      },
      "start_date": "1940-01-01",
      "end_date": "1948-12-31"
    }
  ],
  "name": "P. Sèbe"
}