{
  "id": 91240,
  "names": [
    "R. Gabreau-Mougeot"
  ],
  "functions": [
    {
      "issuer": {
        "id": 10554,
        "name": "COMPAGNIE FRANCO-POLONAISE DES PÉTROLES"
      },
      "job": {
        "id": 219,
        "name": "Administrateur"
      },
      "start_date": "1933-01-01",
      "end_date": "1933-12-31"
    }
  ],
  "name": "R. Gabreau-Mougeot"
}