{
  "id": 86889,
  "names": [
    "L. Prangey"
  ],
  "functions": [
    {
      "issuer": {
        "id": 5265,
        "name": "SOCIÉTÉ DES CIMENTS DE NEUVILLE-SUR-ESCAUT"
      },
      "job": {
        "id": 102,
        "name": "Président",
        "short_name": "P."
      },
      "start_date": "1933-01-01",
      "end_date": "1933-12-31"
    }
  ],
  "name": "L. Prangey"
}