{
  "id": 124410,
  "names": [
    "G. Cetterio"
  ],
  "functions": [
    {
      "issuer": {
        "id": 1237,
        "name": "Banque de Crédit italien"
      },
      "job": {
        "id": 219,
        "name": "Administrateur"
      },
      "start_date": "1880-01-01",
      "end_date": "1880-12-31"
    }
  ],
  "name": "G. Cetterio"
}