{
  "id": 53837,
  "names": [
    "G. Brack"
  ],
  "functions": [
    {
      "issuer": {
        "id": 2661,
        "name": "COMPAGNIE FRANÇAISE DU HAUT CONGO"
      },
      "job": {
        "id": 101,
        "name": "Administrateur Délégué",
        "short_name": "Ad. Dél."
      },
      "start_date": "1908-01-01",
      "end_date": "1908-12-31"
    },
    {
      "issuer": {
        "id": 10350,
        "name": "SOCIÉTÉ ANONYME DE BRASSERIES, RESTAURANTS ET HÔTELS RÉUNIS"
      },
      "job": {
        "id": 219,
        "name": "Administrateur"
      },
      "start_date": "1912-01-01",
      "end_date": "1912-12-31"
    },
    {
      "issuer": {
        "id": 2661,
        "name": "COMPAGNIE FRANÇAISE DU HAUT CONGO"
      },
      "job": {
        "id": 219,
        "name": "Administrateur"
      },
      "start_date": "1912-01-01",
      "end_date": "1917-12-31"
    },
    {
      "issuer": {
        "id": 2658,
        "name": "L'ALIMAIENNE"
      },
      "job": {
        "id": 219,
        "name": "Administrateur"
      },
      "start_date": "1917-01-01",
      "end_date": "1917-12-31"
    },
    {
      "issuer": {
        "id": 3857,
        "name": "COMPAGNIE FRANÇAISE DU BAS-CONGO"
      },
      "job": {
        "id": 219,
        "name": "Administrateur"
      },
      "start_date": "1917-01-01",
      "end_date": "1923-12-31"
    },
    {
      "issuer": {
        "id": 10402,
        "name": "ÉTABLISSEMENTS J. PRUDHON ET Cie"
      },
      "job": {
        "id": 219,
        "name": "Administrateur"
      },
      "start_date": "1917-01-01",
      "end_date": "1923-12-31"
    }
  ],
  "name": "G. Brack"
}