{
  "id": 113326,
  "names": [
    "baron Alain de Rothschild"
  ],
  "functions": [
    {
      "issuer": {
        "id": 4365,
        "name": "COMPAGNIE ELECTRO-MECANIQUE"
      },
      "job": {
        "id": 219,
        "name": "Administrateur"
      },
      "start_date": "1948-01-01",
      "end_date": "1953-12-31"
    },
    {
      "issuer": {
        "id": 2493,
        "name": "STÉ MINIÈRE & MÉTALLURGIQUE DE PENARROYA"
      },
      "job": {
        "id": 219,
        "name": "Administrateur"
      },
      "start_date": "1953-01-01",
      "end_date": "1953-12-31"
    }
  ],
  "name": "baron Alain de Rothschild"
}