{
  "id": 108234,
  "names": [
    "H. Leduc (de la Banque A. de Saint-Phalle et Cie)"
  ],
  "functions": [
    {
      "issuer": {
        "id": 4679,
        "name": "MANUFACTURE LANDAISE DE PRODUITS CHIMIQUES"
      },
      "job": {
        "id": 167,
        "name": "Directeur-Gerant des Usines metallurgiques"
      },
      "start_date": "1945-01-01",
      "end_date": "1945-12-31"
    }
  ],
  "name": "H. Leduc (de la Banque A. de Saint-Phalle et Cie)"
}