{
  "id": 104332,
  "names": [
    "Genelier"
  ],
  "functions": [
    {
      "issuer": {
        "id": 4354,
        "name": "GRAND BAZAR DE LYON"
      },
      "job": {
        "id": 10019,
        "name": "Commissaire des comptes"
      },
      "start_date": "1940-01-01",
      "end_date": "1940-12-31"
    }
  ],
  "name": "Genelier"
}