{
  "id": 106702,
  "names": [
    "Ch. Clerfayt"
  ],
  "functions": [
    {
      "issuer": {
        "id": 3047,
        "name": "BANQUE HYPOTHECAIRE FRANCO-ARGENTINE"
      },
      "job": {
        "id": 10019,
        "name": "Commissaire des comptes"
      },
      "start_date": "1945-01-01",
      "end_date": "1948-12-31"
    }
  ],
  "name": "Ch. Clerfayt"
}