{
  "id": 81772,
  "names": [
    "M Valette"
  ],
  "functions": [
    {
      "issuer": {
        "id": 3986,
        "name": "SOCIÉTÉ DES ÉTABLISSEMENTS HAOUR FRERES"
      },
      "job": {
        "id": 219,
        "name": "Administrateur"
      },
      "start_date": "1927-01-01",
      "end_date": "1927-12-31"
    },
    {
      "issuer": {
        "id": 3986,
        "name": "SOCIÉTÉ DES ÉTABLISSEMENTS HAOUR FRERES"
      },
      "job": {
        "id": 102,
        "name": "Président",
        "short_name": "P."
      },
      "start_date": "1933-01-01",
      "end_date": "1933-12-31"
    },
    {
      "issuer": {
        "id": 2075,
        "name": "COMPAGNIE DE CULTURE COTONNIERE DU NIGER"
      },
      "job": {
        "id": 219,
        "name": "Administrateur"
      },
      "start_date": "1948-01-01",
      "end_date": "1953-12-31"
    }
  ],
  "name": "M Valette"
}