{
  "id": 103884,
  "names": [
    "P. Métayer"
  ],
  "functions": [
    {
      "issuer": {
        "id": 3790,
        "name": "CHOCOLAT TOBLER Talence (Gironde)"
      },
      "job": {
        "id": 219,
        "name": "Administrateur"
      },
      "start_date": "1940-01-01",
      "end_date": "1940-12-31"
    }
  ],
  "name": "P. Métayer"
}