{
  "id": 95567,
  "names": [
    "Ed. de Lestrange"
  ],
  "functions": [
    {
      "issuer": {
        "id": 2111,
        "name": "LE SOLEIL - SÉCURITÉ GÉNÉRALE ET RESPONSABILITÉ CIVILE RÉUNIES"
      },
      "job": {
        "id": 219,
        "name": "Administrateur"
      },
      "start_date": "1940-01-01",
      "end_date": "1940-12-31"
    }
  ],
  "name": "Ed. de Lestrange"
}