{
  "id": 122209,
  "names": [
    "P. Bazy"
  ],
  "functions": [
    {
      "issuer": {
        "id": 11605,
        "name": "PRODUITS ALIMENTAIRES LOUIT FRERES ET Cie"
      },
      "job": {
        "id": 219,
        "name": "Administrateur"
      },
      "start_date": "1953-01-01",
      "end_date": "1953-12-31"
    }
  ],
  "name": "P. Bazy"
}