{
  "id": 51873,
  "names": [
    "G. Künz"
  ],
  "functions": [
    {
      "issuer": {
        "id": 2603,
        "name": "CHEMIN DE FER DES ALPES BERNOISES BERNE-LŒTSCHBERG-SIMPLON"
      },
      "job": {
        "id": 219,
        "name": "Administrateur"
      },
      "start_date": "1908-01-01",
      "end_date": "1908-12-31"
    },
    {
      "issuer": {
        "id": 2603,
        "name": "CHEMIN DE FER DES ALPES BERNOISES BERNE-LŒTSCHBERG-SIMPLON"
      },
      "job": {
        "id": 219,
        "name": "Administrateur"
      },
      "start_date": "1933-01-01",
      "end_date": "1933-12-31"
    }
  ],
  "name": "G. Künz"
}