{
  "id": 93362,
  "names": [
    "A. Marone"
  ],
  "functions": [
    {
      "issuer": {
        "id": 11028,
        "name": "SOCIÉTÉ FRANÇAISE DES ANCIENS ÉTABLISSEMENTS \"CINZANO\""
      },
      "job": {
        "id": 102,
        "name": "Président",
        "short_name": "P."
      },
      "start_date": "1933-01-01",
      "end_date": "1933-12-31"
    },
    {
      "issuer": {
        "id": 11028,
        "name": "SOCIÉTÉ FRANÇAISE DES ANCIENS ÉTABLISSEMENTS \"CINZANO\""
      },
      "job": {
        "id": 219,
        "name": "Administrateur"
      },
      "start_date": "1940-01-01",
      "end_date": "1945-12-31"
    }
  ],
  "name": "A. Marone"
}