{
  "id": 80290,
  "names": [
    "Schipman"
  ],
  "functions": [
    {
      "issuer": {
        "id": 10685,
        "name": "SOCIÉTÉ ANONYME DES BRIOUETERIES, CIMENTERIES ET MATÉRIAUX DU NORD (DERYCKSEN, GAUTHIER et PIETERS)"
      },
      "job": {
        "id": 219,
        "name": "Administrateur"
      },
      "start_date": "1927-01-01",
      "end_date": "1927-12-31"
    }
  ],
  "name": "Schipman"
}