{
  "id": 103198,
  "names": [
    "L. Benazeth"
  ],
  "functions": [
    {
      "issuer": {
        "id": 3763,
        "name": "Cie AGRICOLE ET INDUSTRIELLE DE MADAGASCAR"
      },
      "job": {
        "id": 219,
        "name": "Administrateur"
      },
      "start_date": "1940-01-01",
      "end_date": "1940-12-31"
    },
    {
      "issuer": {
        "id": 4315,
        "name": "COMPAGNIE MARSEILLAISE DE MADAGASCAR (L. Besson et Cie)"
      },
      "job": {
        "id": 219,
        "name": "Administrateur"
      },
      "start_date": "1945-01-01",
      "end_date": "1948-12-31"
    },
    {
      "issuer": {
        "id": 3763,
        "name": "Cie AGRICOLE ET INDUSTRIELLE DE MADAGASCAR"
      },
      "job": {
        "id": 219,
        "name": "Administrateur"
      },
      "start_date": "1948-01-01",
      "end_date": "1953-12-31"
    }
  ],
  "name": "L. Benazeth"
}