{
  "id": 119636,
  "names": [
    "R. Paul-Dauphin"
  ],
  "functions": [
    {
      "issuer": {
        "id": 4389,
        "name": "SOCIÉTÉ DE FORCE ET LUMIÈRE ELECTRIQUES (Forclum)"
      },
      "job": {
        "id": 219,
        "name": "Administrateur"
      },
      "start_date": "1953-01-01",
      "end_date": "1953-12-31"
    }
  ],
  "name": "R. Paul-Dauphin"
}