{
  "id": 92656,
  "names": [
    "Lebeau"
  ],
  "functions": [
    {
      "issuer": {
        "id": 10080,
        "name": "STÉ DES ÉTABLISSEMENTS NERSON AINÉ"
      },
      "job": {
        "id": 219,
        "name": "Administrateur"
      },
      "start_date": "1933-01-01",
      "end_date": "1933-12-31"
    }
  ],
  "name": "Lebeau"
}