{
  "id": 83855,
  "names": [
    "P. Defaucamberge"
  ],
  "functions": [
    {
      "issuer": {
        "id": 1291,
        "name": "SOCIÉTÉ FRANÇAISE DE LA VISCOSE"
      },
      "job": {
        "id": 219,
        "name": "Administrateur"
      },
      "start_date": "1927-01-01",
      "end_date": "1927-12-31"
    },
    {
      "issuer": {
        "id": 10819,
        "name": "SOCIETE SUISSE DE LA VISCOSE"
      },
      "job": {
        "id": 219,
        "name": "Administrateur"
      },
      "start_date": "1927-01-01",
      "end_date": "1927-12-31"
    },
    {
      "issuer": {
        "id": 10817,
        "name": "Société albigeoise de la Viscose"
      },
      "job": {
        "id": 219,
        "name": "Administrateur"
      },
      "start_date": "1927-01-01",
      "end_date": "1933-12-31"
    },
    {
      "issuer": {
        "id": 10819,
        "name": "SOCIETE SUISSE DE LA VISCOSE"
      },
      "job": {
        "id": 219,
        "name": "Administrateur"
      },
      "start_date": "1933-01-01",
      "end_date": "1933-12-31"
    }
  ],
  "name": "P. Defaucamberge"
}