{
  "id": 59838,
  "names": [
    "A. A. Escalante"
  ],
  "functions": [
    {
      "issuer": {
        "id": 10308,
        "name": "BANQUE PÉNINSULAIRE MEXICAINE (Anciennement Banque de Yucatan)"
      },
      "job": {
        "id": 10258,
        "name": "Suppléant"
      },
      "start_date": "1917-01-01",
      "end_date": "1917-12-31"
    }
  ],
  "name": "A. A. Escalante"
}