{
  "id": 63586,
  "names": [
    "J. T. Petrocochino"
  ],
  "functions": [
    {
      "issuer": {
        "id": 10317,
        "name": "FABRIQUE DE TABACS \"A.N. BOGDANOFF ET Cie\""
      },
      "job": {
        "id": 219,
        "name": "Administrateur"
      },
      "start_date": "1917-01-01",
      "end_date": "1923-12-31"
    }
  ],
  "name": "J. T. Petrocochino"
}