{
  "id": 42978,
  "names": [
    "Brekenridge"
  ],
  "functions": [
    {
      "issuer": {
        "id": 2234,
        "name": "Compagnie commerciale de transports à vapeur français"
      },
      "job": {
        "id": 219,
        "name": "Administrateur"
      },
      "start_date": "1883-01-01",
      "end_date": "1883-12-31"
    }
  ],
  "name": "Brekenridge"
}