{
  "id": 108215,
  "names": [
    "H. Flevet"
  ],
  "functions": [
    {
      "issuer": {
        "id": 3788,
        "name": "LA CARBONIQUE FRANÇAISE"
      },
      "job": {
        "id": 189,
        "name": "Président directeur général",
        "short_name": "P.D.G."
      },
      "start_date": "1945-01-01",
      "end_date": "1948-12-31"
    }
  ],
  "name": "H. Flevet"
}