{
  "id": 120725,
  "names": [
    "J. Carbonel"
  ],
  "functions": [
    {
      "issuer": {
        "id": 4300,
        "name": "SOCIETE \"AU BON MARCHÉ\" (Maison Aristide BOUCICAUT)"
      },
      "job": {
        "id": 219,
        "name": "Administrateur"
      },
      "start_date": "1953-01-01",
      "end_date": "1953-12-31"
    }
  ],
  "name": "J. Carbonel"
}