{
  "id": 45905,
  "names": [
    "Jacques Stern"
  ],
  "functions": [
    {
      "issuer": {
        "id": 595,
        "name": "Compagnie Générale des Eaux"
      },
      "job": {
        "id": 219,
        "name": "Administrateur"
      },
      "start_date": "1889-01-01",
      "end_date": "1903-12-31"
    },
    {
      "issuer": {
        "id": 2323,
        "name": "Compagnie générale des Eaux pour l'Étranger"
      },
      "job": {
        "id": 219,
        "name": "Administrateur"
      },
      "start_date": "1893-01-01",
      "end_date": "1903-12-31"
    },
    {
      "issuer": {
        "id": 2594,
        "name": "CHEMINS DE FER DU SUD DE LA FRANCE"
      },
      "job": {
        "id": 219,
        "name": "Administrateur"
      },
      "start_date": "1917-01-01",
      "end_date": "1927-12-31"
    },
    {
      "issuer": {
        "id": 5425,
        "name": "CIE GLE DES AUTOMOBILES POSTALES"
      },
      "job": {
        "id": 219,
        "name": "Administrateur"
      },
      "start_date": "1917-01-01",
      "end_date": "1927-12-31"
    },
    {
      "issuer": {
        "id": 5425,
        "name": "CIE GLE DES AUTOMOBILES POSTALES"
      },
      "job": {
        "id": 102,
        "name": "Président",
        "short_name": "P."
      },
      "start_date": "1933-01-01",
      "end_date": "1933-12-31"
    },
    {
      "issuer": {
        "id": 5425,
        "name": "CIE GLE DES AUTOMOBILES POSTALES"
      },
      "job": {
        "id": 102,
        "name": "Président",
        "short_name": "P."
      },
      "start_date": "1940-01-01",
      "end_date": "1940-12-31"
    }
  ],
  "name": "Jacques Stern"
}