{
  "id": 95268,
  "names": [
    "P. de Robien"
  ],
  "functions": [
    {
      "issuer": {
        "id": 4630,
        "name": "ETABLISSEMENTS KUHLMANN Manufactures de Produits Chimiques du Nord"
      },
      "job": {
        "id": 10019,
        "name": "Commissaire des comptes"
      },
      "start_date": "1940-01-01",
      "end_date": "1940-12-31"
    }
  ],
  "name": "P. de Robien"
}