{
  "id": 121463,
  "names": [
    "Jean Gontard"
  ],
  "functions": [
    {
      "issuer": {
        "id": 3888,
        "name": "DOCKS LYONNAIS"
      },
      "job": {
        "id": 219,
        "name": "Administrateur"
      },
      "start_date": "1953-01-01",
      "end_date": "1953-12-31"
    }
  ],
  "name": "Jean Gontard"
}