{
  "id": 63680,
  "names": [
    "G. Loyd Courthope"
  ],
  "functions": [
    {
      "issuer": {
        "id": 10432,
        "name": "BRITISH MOTOR CAB COMPANY Ltd"
      },
      "job": {
        "id": 219,
        "name": "Administrateur"
      },
      "start_date": "1917-01-01",
      "end_date": "1917-12-31"
    }
  ],
  "name": "G. Loyd Courthope"
}