{
  "id": 84737,
  "names": [
    "H. Bokanowski"
  ],
  "functions": [
    {
      "issuer": {
        "id": 5066,
        "name": "BOKA-NOUVEAUTES (Ane. Ets Bokanowsky et Cie)"
      },
      "job": {
        "id": 219,
        "name": "Administrateur"
      },
      "start_date": "1933-01-01",
      "end_date": "1933-12-31"
    }
  ],
  "name": "H. Bokanowski"
}