{
  "id": 72285,
  "names": [
    "J. Juvanon"
  ],
  "functions": [
    {
      "issuer": {
        "id": 10458,
        "name": "SOCIÉTÉ MINIÈRE ET FONCIÈRE DU BANDAMA (COTE D'IVOIRE)"
      },
      "job": {
        "id": 219,
        "name": "Administrateur"
      },
      "start_date": "1923-01-01",
      "end_date": "1923-12-31"
    }
  ],
  "name": "J. Juvanon"
}