{
  "id": 57640,
  "names": [
    "Descours Desacres"
  ],
  "functions": [
    {
      "issuer": {
        "id": 7037,
        "name": "La France (soc. Anon. Pour la construction des Machines Agric.)"
      },
      "job": {
        "id": 219,
        "name": "Administrateur"
      },
      "start_date": "1912-01-01",
      "end_date": "1912-12-31"
    }
  ],
  "name": "Descours Desacres"
}