{
  "id": 44647,
  "names": [
    "D.-L. Sgonta"
  ],
  "functions": [
    {
      "issuer": {
        "id": 1939,
        "name": "Banque hellénique de crédit général"
      },
      "job": {
        "id": 101,
        "name": "Administrateur Délégué",
        "short_name": "Ad. Dél."
      },
      "start_date": "1889-01-01",
      "end_date": "1893-12-31"
    }
  ],
  "name": "D.-L. Sgonta"
}