{
  "id": 115471,
  "names": [
    "M. H. Charrier"
  ],
  "functions": [
    {
      "issuer": {
        "id": 3735,
        "name": "O.F.C.O."
      },
      "job": {
        "id": 10019,
        "name": "Commissaire des comptes"
      },
      "start_date": "1948-01-01",
      "end_date": "1948-12-31"
    },
    {
      "issuer": {
        "id": 3476,
        "name": "UNION PROVINCIALE IMMOBILIERE"
      },
      "job": {
        "id": 10019,
        "name": "Commissaire des comptes"
      },
      "start_date": "1953-01-01",
      "end_date": "1953-12-31"
    }
  ],
  "name": "M. H. Charrier"
}