{
  "id": 78437,
  "names": [
    "O. Rothballer"
  ],
  "functions": [
    {
      "issuer": {
        "id": 2270,
        "name": "SOCIÉTÉ MINIÈRE ET MÉTALLURGIQUE DES ALPES AUTRICHIENNES (ALPINES)"
      },
      "job": {
        "id": 219,
        "name": "Administrateur"
      },
      "start_date": "1923-01-01",
      "end_date": "1923-12-31"
    }
  ],
  "name": "O. Rothballer"
}