{
  "id": 78051,
  "names": [
    "C. Balézeaux"
  ],
  "functions": [
    {
      "issuer": {
        "id": 2082,
        "name": "LA MÉTROPOLE COMPAGNIE D'ASSURANCES CONTRE L'INCENDIE"
      },
      "job": {
        "id": 219,
        "name": "Administrateur"
      },
      "start_date": "1923-01-01",
      "end_date": "1923-12-31"
    }
  ],
  "name": "C. Balézeaux"
}