{
  "id": 94991,
  "names": [
    "E. Rauber"
  ],
  "functions": [
    {
      "issuer": {
        "id": 5443,
        "name": "VAPEUR ET ÉLECTRICITÉ"
      },
      "job": {
        "id": 219,
        "name": "Administrateur"
      },
      "start_date": "1940-01-01",
      "end_date": "1940-12-31"
    },
    {
      "issuer": {
        "id": 4741,
        "name": "COMPAGNIE PARISIENNE DE CHAUFFAGE URBAIN"
      },
      "job": {
        "id": 219,
        "name": "Administrateur"
      },
      "start_date": "1940-01-01",
      "end_date": "1953-12-31"
    }
  ],
  "name": "E. Rauber"
}