{
  "id": 111372,
  "names": [
    "Duohesne"
  ],
  "functions": [
    {
      "issuer": {
        "id": 2632,
        "name": "Compagnie des Tramways de Nice et du Littoral"
      },
      "job": {
        "id": 219,
        "name": "Administrateur"
      },
      "start_date": "1948-01-01",
      "end_date": "1948-12-31"
    }
  ],
  "name": "Duohesne"
}