{
  "id": 70652,
  "names": [
    "de Wulitcch"
  ],
  "functions": [
    {
      "issuer": {
        "id": 2430,
        "name": "SOCIÉTÉ DES SOUDIÈRES DU DONETZ"
      },
      "job": {
        "id": 219,
        "name": "Administrateur"
      },
      "start_date": "1917-01-01",
      "end_date": "1917-12-31"
    }
  ],
  "name": "de Wulitcch"
}