{
  "id": 88339,
  "names": [
    "J. W. Beijen"
  ],
  "functions": [
    {
      "issuer": {
        "id": 3445,
        "name": "ROTTERDAMSCHE BANK N. V."
      },
      "job": {
        "id": 10008,
        "name": "Membre du Directoire",
        "short_name": "M.Dir."
      },
      "start_date": "1933-01-01",
      "end_date": "1933-12-31"
    }
  ],
  "name": "J. W. Beijen"
}