{
  "id": 120815,
  "names": [
    "Cl. Bouvard"
  ],
  "functions": [
    {
      "issuer": {
        "id": 11586,
        "name": "ENTREPRISES LEON BALLOT"
      },
      "job": {
        "id": 219,
        "name": "Administrateur"
      },
      "start_date": "1953-01-01",
      "end_date": "1953-12-31"
    }
  ],
  "name": "Cl. Bouvard"
}