{
  "id": 107507,
  "names": [
    "marquis de la Boissière Thiennes"
  ],
  "functions": [
    {
      "issuer": {
        "id": 1337,
        "name": "Société Anonyme John Cockerill"
      },
      "job": {
        "id": 10019,
        "name": "Commissaire des comptes"
      },
      "start_date": "1945-01-01",
      "end_date": "1953-12-31"
    }
  ],
  "name": "marquis de la Boissière Thiennes"
}