{
  "id": 88010,
  "names": [
    "T. Kimimori"
  ],
  "functions": [
    {
      "issuer": {
        "id": 3389,
        "name": "BANQUE INDUSTRIELLE DU JAPON"
      },
      "job": {
        "id": 219,
        "name": "Administrateur"
      },
      "start_date": "1933-01-01",
      "end_date": "1933-12-31"
    }
  ],
  "name": "T. Kimimori"
}