{
  "id": 126244,
  "names": [
    "Veyrat"
  ],
  "functions": [
    {
      "issuer": {
        "id": 3964,
        "name": "ETABLISSEMENTS SULITZER FRÈRES"
      },
      "job": {
        "id": 10019,
        "name": "Commissaire des comptes"
      },
      "start_date": "1945-01-01",
      "end_date": "1945-12-31"
    },
    {
      "issuer": {
        "id": 3779,
        "name": "ETABLISSEMENTS BARBIER ET DAUPHIN"
      },
      "job": {
        "id": 10019,
        "name": "Commissaire des comptes"
      },
      "start_date": "1948-01-01",
      "end_date": "1948-12-31"
    }
  ],
  "name": "Veyrat"
}