{
  "id": 57060,
  "names": [
    "L. Teichmann"
  ],
  "functions": [
    {
      "issuer": {
        "id": 10293,
        "name": "Société Asia Caoutchouc pour la Russie"
      },
      "job": {
        "id": 219,
        "name": "Administrateur"
      },
      "start_date": "1912-01-01",
      "end_date": "1912-12-31"
    }
  ],
  "name": "L. Teichmann"
}