{
  "id": 48002,
  "names": [
    "Paul Monchicourt"
  ],
  "functions": [
    {
      "issuer": {
        "id": 610,
        "name": "Comptoir d'escompte de Paris"
      },
      "job": {
        "id": 10420,
        "name": "Liquidateur"
      },
      "start_date": "1893-01-01",
      "end_date": "1893-12-31"
    },
    {
      "issuer": {
        "id": 1384,
        "name": "Société Financière de Paris"
      },
      "job": {
        "id": 10420,
        "name": "Liquidateur"
      },
      "start_date": "1893-01-01",
      "end_date": "1898-12-31"
    },
    {
      "issuer": {
        "id": 2256,
        "name": "CIE FRANÇAISE DES MINES DU LAURIUM"
      },
      "job": {
        "id": 10019,
        "name": "Commissaire des comptes"
      },
      "start_date": "1903-01-01",
      "end_date": "1908-12-31"
    },
    {
      "issuer": {
        "id": 2849,
        "name": "SOCIÉTÉ DES MINES DU BOU-THALEB"
      },
      "job": {
        "id": 10019,
        "name": "Commissaire des comptes"
      },
      "start_date": "1908-01-01",
      "end_date": "1908-12-31"
    }
  ],
  "name": "Paul Monchicourt"
}