{
  "id": 114865,
  "names": [
    "comte de Mun Bertrand"
  ],
  "functions": [
    {
      "issuer": {
        "id": 3731,
        "name": "Veuve CLIQUOT-PONSARDIN B. de Vogüé et Cie Successeurs"
      },
      "job": {
        "id": 229,
        "name": "Gérant"
      },
      "start_date": "1948-01-01",
      "end_date": "1948-12-31"
    }
  ],
  "name": "comte de Mun Bertrand"
}