{
  "id": 108494,
  "names": [
    "Manzolini"
  ],
  "functions": [
    {
      "issuer": {
        "id": 11520,
        "name": "TEXTILOSES ET TEXTILES"
      },
      "job": {
        "id": 219,
        "name": "Administrateur"
      },
      "start_date": "1945-01-01",
      "end_date": "1945-12-31"
    },
    {
      "issuer": {
        "id": 11520,
        "name": "TEXTILOSES ET TEXTILES"
      },
      "job": {
        "id": 219,
        "name": "Administrateur"
      },
      "start_date": "1948-01-01",
      "end_date": "1948-12-31"
    }
  ],
  "name": "Manzolini"
}