{
  "id": 56553,
  "names": [
    "Emile Jacobs"
  ],
  "functions": [
    {
      "issuer": {
        "id": 2774,
        "name": "Durban Roodepoort Deep, Ld"
      },
      "job": {
        "id": 219,
        "name": "Administrateur"
      },
      "start_date": "1912-01-01",
      "end_date": "1912-12-31"
    },
    {
      "issuer": {
        "id": 10286,
        "name": "SOCIÉTÉ ANONYME DES ÉTABLISSEMENTS MILLION-GUIET"
      },
      "job": {
        "id": 219,
        "name": "Administrateur"
      },
      "start_date": "1912-01-01",
      "end_date": "1912-12-31"
    },
    {
      "issuer": {
        "id": 3227,
        "name": "CAISSE HYPOTHÉCAIRE D'EGYPTE"
      },
      "job": {
        "id": 219,
        "name": "Administrateur"
      },
      "start_date": "1923-01-01",
      "end_date": "1927-12-31"
    },
    {
      "issuer": {
        "id": 3394,
        "name": "CREDIT FONCIER D'ORIENT"
      },
      "job": {
        "id": 219,
        "name": "Administrateur"
      },
      "start_date": "1927-01-01",
      "end_date": "1927-12-31"
    },
    {
      "issuer": {
        "id": 3394,
        "name": "CREDIT FONCIER D'ORIENT"
      },
      "job": {
        "id": 101,
        "name": "Administrateur Délégué",
        "short_name": "Ad. Dél."
      },
      "start_date": "1933-01-01",
      "end_date": "1933-12-31"
    },
    {
      "issuer": {
        "id": 3227,
        "name": "CAISSE HYPOTHÉCAIRE D'EGYPTE"
      },
      "job": {
        "id": 101,
        "name": "Administrateur Délégué",
        "short_name": "Ad. Dél."
      },
      "start_date": "1933-01-01",
      "end_date": "1933-12-31"
    },
    {
      "issuer": {
        "id": 3598,
        "name": "SOCIÉTÉ DES MONTS-DE-PIÉTE EGYPTIENS (Banque de prêts sur nantissements]"
      },
      "job": {
        "id": 219,
        "name": "Administrateur"
      },
      "start_date": "1933-01-01",
      "end_date": "1933-12-31"
    },
    {
      "issuer": {
        "id": 3227,
        "name": "CAISSE HYPOTHÉCAIRE D'EGYPTE"
      },
      "job": {
        "id": 151,
        "name": "President Administrateur Directeur"
      },
      "start_date": "1940-01-01",
      "end_date": "1945-12-31"
    },
    {
      "issuer": {
        "id": 3598,
        "name": "SOCIÉTÉ DES MONTS-DE-PIÉTE EGYPTIENS (Banque de prêts sur nantissements]"
      },
      "job": {
        "id": 219,
        "name": "Administrateur"
      },
      "start_date": "1940-01-01",
      "end_date": "1953-12-31"
    },
    {
      "issuer": {
        "id": 3227,
        "name": "CAISSE HYPOTHÉCAIRE D'EGYPTE"
      },
      "job": {
        "id": 16021,
        "name": "Président Administrateur Délégué"
      },
      "start_date": "1948-01-01",
      "end_date": "1953-12-31"
    }
  ],
  "name": "Emile Jacobs"
}