{
  "id": 99398,
  "names": [
    "Société Fiduciaire Suisse"
  ],
  "functions": [
    {
      "issuer": {
        "id": 11436,
        "name": "SOCIETE FINHOLSA"
      },
      "job": {
        "id": 10019,
        "name": "Commissaire des comptes"
      },
      "start_date": "1940-01-01",
      "end_date": "1953-12-31"
    }
  ],
  "name": "Société Fiduciaire Suisse"
}