{
  "id": 62828,
  "names": [
    "L. Adriaensen"
  ],
  "functions": [
    {
      "issuer": {
        "id": 10379,
        "name": "PETROLES DE BORYSLAW"
      },
      "job": {
        "id": 219,
        "name": "Administrateur"
      },
      "start_date": "1917-01-01",
      "end_date": "1933-12-31"
    },
    {
      "issuer": {
        "id": 10752,
        "name": "SOCIETE DE CULTURE \" NIEUW TJISALAK\""
      },
      "job": {
        "id": 219,
        "name": "Administrateur"
      },
      "start_date": "1927-01-01",
      "end_date": "1933-12-31"
    },
    {
      "issuer": {
        "id": 10752,
        "name": "SOCIETE DE CULTURE \" NIEUW TJISALAK\""
      },
      "job": {
        "id": 219,
        "name": "Administrateur"
      },
      "start_date": "1940-01-01",
      "end_date": "1953-12-31"
    }
  ],
  "name": "L. Adriaensen"
}