{
  "id": 99249,
  "names": [
    "A. Perreau-Saussine"
  ],
  "functions": [
    {
      "issuer": {
        "id": 5131,
        "name": "ETABLISSEMENTS HENRY HAMELLE"
      },
      "job": {
        "id": 219,
        "name": "Administrateur"
      },
      "start_date": "1940-01-01",
      "end_date": "1948-12-31"
    }
  ],
  "name": "A. Perreau-Saussine"
}