{
  "id": 91427,
  "names": [
    "M. Burrus"
  ],
  "functions": [
    {
      "issuer": {
        "id": 4775,
        "name": "FILATURES ET TISSAGES DE WITTENHEIM"
      },
      "job": {
        "id": 102,
        "name": "Président",
        "short_name": "P."
      },
      "start_date": "1933-01-01",
      "end_date": "1933-12-31"
    },
    {
      "issuer": {
        "id": 4846,
        "name": "TANNERIES DE FRANCE"
      },
      "job": {
        "id": 219,
        "name": "Administrateur"
      },
      "start_date": "1933-01-01",
      "end_date": "1933-12-31"
    },
    {
      "issuer": {
        "id": 4775,
        "name": "FILATURES ET TISSAGES DE WITTENHEIM"
      },
      "job": {
        "id": 117,
        "name": "Vice-Président",
        "short_name": "V.-Pr."
      },
      "start_date": "1940-01-01",
      "end_date": "1948-12-31"
    }
  ],
  "name": "M. Burrus"
}