{
  "id": 74651,
  "names": [
    "H. Cornu-Langy"
  ],
  "functions": [
    {
      "issuer": {
        "id": 3993,
        "name": "ETABLISSEMENTS POLIET ET CHAUSSON"
      },
      "job": {
        "id": 219,
        "name": "Administrateur"
      },
      "start_date": "1923-01-01",
      "end_date": "1927-12-31"
    }
  ],
  "name": "H. Cornu-Langy"
}