{
  "id": 55679,
  "names": [
    "Auguste Avon"
  ],
  "functions": [
    {
      "issuer": {
        "id": 10045,
        "name": "Canadian American Coal and Coke C° Ltd"
      },
      "job": {
        "id": 219,
        "name": "Administrateur"
      },
      "start_date": "1912-01-01",
      "end_date": "1912-12-31"
    },
    {
      "issuer": {
        "id": 2461,
        "name": "CHEMINS DE FER DE L'INDO-CHINE ET DU YUNNAN"
      },
      "job": {
        "id": 219,
        "name": "Administrateur"
      },
      "start_date": "1948-01-01",
      "end_date": "1953-12-31"
    },
    {
      "issuer": {
        "id": 10913,
        "name": "LES MARBRES FRANÇAIS (Anciennement MERBES-SPRIMONT)"
      },
      "job": {
        "id": 219,
        "name": "Administrateur"
      },
      "start_date": "1953-01-01",
      "end_date": "1953-12-31"
    },
    {
      "issuer": {
        "id": 3851,
        "name": "COMPAGNIE COTONNIERE ÉQUATORIALE FRANÇAISE"
      },
      "job": {
        "id": 219,
        "name": "Administrateur"
      },
      "start_date": "1953-01-01",
      "end_date": "1953-12-31"
    },
    {
      "issuer": {
        "id": 4011,
        "name": "Chimique et Routière de la Gironde"
      },
      "job": {
        "id": 219,
        "name": "Administrateur"
      },
      "start_date": "1953-01-01",
      "end_date": "1953-12-31"
    }
  ],
  "name": "Auguste Avon"
}