{
  "id": 119666,
  "names": [
    "Louis Prévost"
  ],
  "functions": [
    {
      "issuer": {
        "id": 11408,
        "name": "Société Nouvelle DE CONSTRUCTIONS TELEPHONIQUES"
      },
      "job": {
        "id": 189,
        "name": "Président directeur général",
        "short_name": "P.D.G."
      },
      "start_date": "1953-01-01",
      "end_date": "1953-12-31"
    }
  ],
  "name": "Louis Prévost"
}