{
  "id": 111880,
  "names": [
    "André-LéopoldTouzet"
  ],
  "functions": [
    {
      "issuer": {
        "id": 10887,
        "name": "COMPAGNIE PENINSULAIRE DES ETAINS (Anciennement Société Minière des Etains de Salamanque)"
      },
      "job": {
        "id": 219,
        "name": "Administrateur"
      },
      "start_date": "1948-01-01",
      "end_date": "1948-12-31"
    },
    {
      "issuer": {
        "id": 11593,
        "name": "LA HOLDING COLONIALE"
      },
      "job": {
        "id": 219,
        "name": "Administrateur"
      },
      "start_date": "1953-01-01",
      "end_date": "1953-12-31"
    }
  ],
  "name": "André-LéopoldTouzet"
}