{
  "id": 113358,
  "names": [
    "A. Amet"
  ],
  "functions": [
    {
      "issuer": {
        "id": 4374,
        "name": "ELECTRICITE MORS"
      },
      "job": {
        "id": 219,
        "name": "Administrateur"
      },
      "start_date": "1948-01-01",
      "end_date": "1953-12-31"
    }
  ],
  "name": "A. Amet"
}