{
  "id": 115939,
  "names": [
    "M. R. Le Roy"
  ],
  "functions": [
    {
      "issuer": {
        "id": 365,
        "name": "La Providence, Compagnie d'assurances contre l'incendie"
      },
      "job": {
        "id": 141,
        "name": "Directeur Général",
        "short_name": "D.G."
      },
      "start_date": "1953-01-01",
      "end_date": "1953-12-31"
    }
  ],
  "name": "M. R. Le Roy"
}