{
  "id": 74169,
  "names": [
    "J. Picart"
  ],
  "functions": [
    {
      "issuer": {
        "id": 10553,
        "name": "COMPTOIR DES PRODUITS DU PÉTROLE"
      },
      "job": {
        "id": 219,
        "name": "Administrateur"
      },
      "start_date": "1923-01-01",
      "end_date": "1923-12-31"
    },
    {
      "issuer": {
        "id": 10941,
        "name": "SOCIETE PARISIENNE DE FONDERIES ET ACIERIES"
      },
      "job": {
        "id": 102,
        "name": "Président",
        "short_name": "P."
      },
      "start_date": "1945-01-01",
      "end_date": "1948-12-31"
    },
    {
      "issuer": {
        "id": 10941,
        "name": "SOCIETE PARISIENNE DE FONDERIES ET ACIERIES"
      },
      "job": {
        "id": 189,
        "name": "Président directeur général",
        "short_name": "P.D.G."
      },
      "start_date": "1953-01-01",
      "end_date": "1953-12-31"
    }
  ],
  "name": "J. Picart"
}