{
  "id": 80355,
  "names": [
    "L. da Camara Lima"
  ],
  "functions": [
    {
      "issuer": {
        "id": 4720,
        "name": "SOCIÉTÉ MINIERE ET INDUSTRIELLE FRANCO-BRÉSILIENNE"
      },
      "job": {
        "id": 219,
        "name": "Administrateur"
      },
      "start_date": "1912-01-01",
      "end_date": "1912-12-31"
    },
    {
      "issuer": {
        "id": 4720,
        "name": "SOCIÉTÉ MINIERE ET INDUSTRIELLE FRANCO-BRÉSILIENNE"
      },
      "job": {
        "id": 219,
        "name": "Administrateur"
      },
      "start_date": "1923-01-01",
      "end_date": "1923-12-31"
    },
    {
      "issuer": {
        "id": 4720,
        "name": "SOCIÉTÉ MINIERE ET INDUSTRIELLE FRANCO-BRÉSILIENNE"
      },
      "job": {
        "id": 219,
        "name": "Administrateur"
      },
      "start_date": "1927-01-01",
      "end_date": "1927-12-31"
    },
    {
      "issuer": {
        "id": 4720,
        "name": "SOCIÉTÉ MINIERE ET INDUSTRIELLE FRANCO-BRÉSILIENNE"
      },
      "job": {
        "id": 219,
        "name": "Administrateur"
      },
      "start_date": "1933-01-01",
      "end_date": "1933-12-31"
    }
  ],
  "name": "L. da Camara Lima"
}