{
  "id": 75090,
  "names": [
    "Gettit"
  ],
  "functions": [
    {
      "issuer": {
        "id": 4105,
        "name": "ATELIERS DE CONSTRUCTIONS MÉCANIQUES \"L'ASTER\" (Anciennement l'Aster)"
      },
      "job": {
        "id": 219,
        "name": "Administrateur"
      },
      "start_date": "1923-01-01",
      "end_date": "1923-12-31"
    }
  ],
  "name": "Gettit"
}