{
  "id": 55474,
  "names": [
    "L. Weil"
  ],
  "functions": [
    {
      "issuer": {
        "id": 2188,
        "name": "L'UNION ET LE PHÉNIX ESPAGNOL COMPAGNIE D'ASSURANCES RÉUNIES"
      },
      "job": {
        "id": 219,
        "name": "Administrateur"
      },
      "start_date": "1898-01-01",
      "end_date": "1898-12-31"
    },
    {
      "issuer": {
        "id": 2188,
        "name": "L'UNION ET LE PHÉNIX ESPAGNOL COMPAGNIE D'ASSURANCES RÉUNIES"
      },
      "job": {
        "id": 219,
        "name": "Administrateur"
      },
      "start_date": "1903-01-01",
      "end_date": "1903-12-31"
    },
    {
      "issuer": {
        "id": 3052,
        "name": "BANQUE ESPAGNOLE DE CRÉDIT"
      },
      "job": {
        "id": 219,
        "name": "Administrateur"
      },
      "start_date": "1908-01-01",
      "end_date": "1908-12-31"
    },
    {
      "issuer": {
        "id": 10314,
        "name": "COMPAGNIE CENTRALE DES ALCOOLS POUR L'ÉCLAIRAGE, LE CHAUFFAGE ET LA FORCE MOTRICE ET LEURS APPLICATIONS"
      },
      "job": {
        "id": 219,
        "name": "Administrateur"
      },
      "start_date": "1912-01-01",
      "end_date": "1912-12-31"
    },
    {
      "issuer": {
        "id": 2188,
        "name": "L'UNION ET LE PHÉNIX ESPAGNOL COMPAGNIE D'ASSURANCES RÉUNIES"
      },
      "job": {
        "id": 12823,
        "name": "Administrateur à Paris"
      },
      "start_date": "1912-01-01",
      "end_date": "1912-12-31"
    },
    {
      "issuer": {
        "id": 10053,
        "name": "COMPAGNIE CENTRALE D'ÉLECTRICITÉ (Anciennement Compagnie Centrale d'Électricité de Moscou)"
      },
      "job": {
        "id": 219,
        "name": "Administrateur"
      },
      "start_date": "1912-01-01",
      "end_date": "1912-12-31"
    },
    {
      "issuer": {
        "id": 10118,
        "name": "THE LONELY REEF GOLD MINING Co LIMITED"
      },
      "job": {
        "id": 219,
        "name": "Administrateur"
      },
      "start_date": "1923-01-01",
      "end_date": "1933-12-31"
    },
    {
      "issuer": {
        "id": 10118,
        "name": "THE LONELY REEF GOLD MINING Co LIMITED"
      },
      "job": {
        "id": 219,
        "name": "Administrateur"
      },
      "start_date": "1940-01-01",
      "end_date": "1940-12-31"
    }
  ],
  "name": "L. Weil"
}