{
  "id": 103024,
  "names": [
    "Ed. Cazal"
  ],
  "functions": [
    {
      "issuer": {
        "id": 3995,
        "name": "FAÏENCERIES DE SARREGUEMINES, DIGOIN ET VITRY-LE-FRANÇOIS"
      },
      "job": {
        "id": 102,
        "name": "Président",
        "short_name": "P."
      },
      "start_date": "1940-01-01",
      "end_date": "1940-12-31"
    },
    {
      "issuer": {
        "id": 3995,
        "name": "FAÏENCERIES DE SARREGUEMINES, DIGOIN ET VITRY-LE-FRANÇOIS"
      },
      "job": {
        "id": 219,
        "name": "Administrateur"
      },
      "start_date": "1945-01-01",
      "end_date": "1945-12-31"
    }
  ],
  "name": "Ed. Cazal"
}