{
  "id": 124563,
  "names": [
    "Tondeur"
  ],
  "functions": [
    {
      "issuer": {
        "id": 2045,
        "name": "Compagnie des chemins de fer des Vosges"
      },
      "job": {
        "id": 219,
        "name": "Administrateur"
      },
      "start_date": "1880-01-01",
      "end_date": "1880-12-31"
    }
  ],
  "name": "Tondeur"
}