{
  "id": 104095,
  "names": [
    "R. Jacquot"
  ],
  "functions": [
    {
      "issuer": {
        "id": 11492,
        "name": "SOCIÉTÉ DES ETABLISSEMENTS ADOLPHE FRUHINSHOLZ"
      },
      "job": {
        "id": 219,
        "name": "Administrateur"
      },
      "start_date": "1940-01-01",
      "end_date": "1948-12-31"
    },
    {
      "issuer": {
        "id": 11492,
        "name": "SOCIÉTÉ DES ETABLISSEMENTS ADOLPHE FRUHINSHOLZ"
      },
      "job": {
        "id": 189,
        "name": "Président directeur général",
        "short_name": "P.D.G."
      },
      "start_date": "1953-01-01",
      "end_date": "1953-12-31"
    }
  ],
  "name": "R. Jacquot"
}