{
  "id": 53648,
  "names": [
    "Porfirio Diaz"
  ],
  "functions": [
    {
      "issuer": {
        "id": 3031,
        "name": "FABRIQUES DE PAPIER SAN RAFAEL Y ANEXAS"
      },
      "job": {
        "id": 219,
        "name": "Administrateur"
      },
      "start_date": "1908-01-01",
      "end_date": "1908-12-31"
    }
  ],
  "name": "Porfirio Diaz"
}