{
  "id": 49360,
  "names": [
    "Paufique"
  ],
  "functions": [
    {
      "issuer": {
        "id": 2629,
        "name": "Compagnie industrielle de Traction"
      },
      "job": {
        "id": 219,
        "name": "Administrateur"
      },
      "start_date": "1903-01-01",
      "end_date": "1908-12-31"
    }
  ],
  "name": "Paufique"
}