{
  "id": 54738,
  "names": [
    "E.-W. Mac Kenna"
  ],
  "functions": [
    {
      "issuer": {
        "id": 3375,
        "name": "CHICAGO MILWAUKEE AND SAINT PAUL RAILWAY"
      },
      "job": {
        "id": 219,
        "name": "Administrateur"
      },
      "start_date": "1912-01-01",
      "end_date": "1912-12-31"
    }
  ],
  "name": "E.-W. Mac Kenna"
}