{
  "id": 111850,
  "names": [
    "M. Kiefier"
  ],
  "functions": [
    {
      "issuer": {
        "id": 2264,
        "name": "COMPAGNIE D'AGUILAS"
      },
      "job": {
        "id": 10019,
        "name": "Commissaire des comptes"
      },
      "start_date": "1948-01-01",
      "end_date": "1948-12-31"
    }
  ],
  "name": "M. Kiefier"
}