{
  "id": 96827,
  "names": [
    "F. Briançon"
  ],
  "functions": [
    {
      "issuer": {
        "id": 2947,
        "name": "Compagnie générale des Bateaux Parisiens"
      },
      "job": {
        "id": 101,
        "name": "Administrateur Délégué",
        "short_name": "Ad. Dél."
      },
      "start_date": "1940-01-01",
      "end_date": "1940-12-31"
    },
    {
      "issuer": {
        "id": 2947,
        "name": "Compagnie générale des Bateaux Parisiens"
      },
      "job": {
        "id": 102,
        "name": "Président",
        "short_name": "P."
      },
      "start_date": "1945-01-01",
      "end_date": "1948-12-31"
    },
    {
      "issuer": {
        "id": 663,
        "name": "Compagnie Générale de Navigation"
      },
      "job": {
        "id": 219,
        "name": "Administrateur"
      },
      "start_date": "1948-01-01",
      "end_date": "1953-12-31"
    },
    {
      "issuer": {
        "id": 2947,
        "name": "Compagnie générale des Bateaux Parisiens"
      },
      "job": {
        "id": 189,
        "name": "Président directeur général",
        "short_name": "P.D.G."
      },
      "start_date": "1953-01-01",
      "end_date": "1953-12-31"
    }
  ],
  "name": "F. Briançon"
}