{
  "id": 124435,
  "names": [
    "Navarro"
  ],
  "functions": [
    {
      "issuer": {
        "id": 1077,
        "name": "Société générale de crédit mobilier espagnol"
      },
      "job": {
        "id": 10266,
        "name": "administrateur à Madrid"
      },
      "start_date": "1880-01-01",
      "end_date": "1880-12-31"
    }
  ],
  "name": "Navarro"
}