{
  "id": 86741,
  "names": [
    "E. Lafond"
  ],
  "functions": [
    {
      "issuer": {
        "id": 10631,
        "name": "MINES D'OR DE L'ANDAVAKOERA"
      },
      "job": {
        "id": 219,
        "name": "Administrateur"
      },
      "start_date": "1933-01-01",
      "end_date": "1933-12-31"
    }
  ],
  "name": "E. Lafond"
}