{
  "id": 88381,
  "names": [
    "Leblanc"
  ],
  "functions": [
    {
      "issuer": {
        "id": 4183,
        "name": "LE METAL DÉPLOYÉ"
      },
      "job": {
        "id": 219,
        "name": "Administrateur"
      },
      "start_date": "1933-01-01",
      "end_date": "1933-12-31"
    },
    {
      "issuer": {
        "id": 3418,
        "name": "L'IMMOBILIERE PARISIENNE ET DÉPARTEMENTALE"
      },
      "job": {
        "id": 219,
        "name": "Administrateur"
      },
      "start_date": "1933-01-01",
      "end_date": "1933-12-31"
    },
    {
      "issuer": {
        "id": 4183,
        "name": "LE METAL DÉPLOYÉ"
      },
      "job": {
        "id": 219,
        "name": "Administrateur"
      },
      "start_date": "1940-01-01",
      "end_date": "1940-12-31"
    }
  ],
  "name": "Leblanc"
}