{
  "id": 70673,
  "names": [
    "C. G. Wilson"
  ],
  "functions": [
    {
      "issuer": {
        "id": 10290,
        "name": "VIRGINIA CAROLINA CHEMICAL COMPANY"
      },
      "job": {
        "id": 219,
        "name": "Administrateur"
      },
      "start_date": "1917-01-01",
      "end_date": "1917-12-31"
    }
  ],
  "name": "C. G. Wilson"
}