{
  "id": 48459,
  "names": [
    "Ch. Carpentier"
  ],
  "functions": [
    {
      "issuer": {
        "id": 3327,
        "name": "STÉ ANME DES CHAUSSURES \" INCROYABLE \""
      },
      "job": {
        "id": 219,
        "name": "Administrateur"
      },
      "start_date": "1898-01-01",
      "end_date": "1908-12-31"
    },
    {
      "issuer": {
        "id": 3327,
        "name": "STÉ ANME DES CHAUSSURES \" INCROYABLE \""
      },
      "job": {
        "id": 219,
        "name": "Administrateur"
      },
      "start_date": "1912-01-01",
      "end_date": "1912-12-31"
    }
  ],
  "name": "Ch. Carpentier"
}