{
  "id": 54875,
  "names": [
    "C. Martinho"
  ],
  "functions": [
    {
      "issuer": {
        "id": 3377,
        "name": "CHEMINS DE FER FÉDÉRAUX BRÉSILIENS (Réseau Sud de Minas)"
      },
      "job": {
        "id": 219,
        "name": "Administrateur"
      },
      "start_date": "1912-01-01",
      "end_date": "1912-12-31"
    }
  ],
  "name": "C. Martinho"
}