{
  "id": 57615,
  "names": [
    "W. de Kislanski"
  ],
  "functions": [
    {
      "issuer": {
        "id": 3269,
        "name": "SOCIÉTÉ MÉTALLURGIQUE DNIÉPROVIENNE DU MIDI DE LA RUSSIE"
      },
      "job": {
        "id": 219,
        "name": "Administrateur"
      },
      "start_date": "1912-01-01",
      "end_date": "1933-12-31"
    },
    {
      "issuer": {
        "id": 3269,
        "name": "SOCIÉTÉ MÉTALLURGIQUE DNIÉPROVIENNE DU MIDI DE LA RUSSIE"
      },
      "job": {
        "id": 219,
        "name": "Administrateur"
      },
      "start_date": "1940-01-01",
      "end_date": "1940-12-31"
    }
  ],
  "name": "W. de Kislanski"
}