{
  "id": 110994,
  "names": [
    "E. Moniek"
  ],
  "functions": [
    {
      "issuer": {
        "id": 4910,
        "name": "BANQUE DES REGLEMENTS INTERNATIONAUX"
      },
      "job": {
        "id": 219,
        "name": "Administrateur"
      },
      "start_date": "1948-01-01",
      "end_date": "1948-12-31"
    }
  ],
  "name": "E. Moniek"
}