{
  "id": 109606,
  "names": [
    "L. H. Coffart"
  ],
  "functions": [
    {
      "issuer": {
        "id": 4307,
        "name": "GRANDS MAGASINS SIGRAND ET Cie"
      },
      "job": {
        "id": 10637,
        "name": "Membre du Comité de surveillance"
      },
      "start_date": "1945-01-01",
      "end_date": "1945-12-31"
    },
    {
      "issuer": {
        "id": 4307,
        "name": "GRANDS MAGASINS SIGRAND ET Cie"
      },
      "job": {
        "id": 176,
        "name": "Membre du conseil de surveillance",
        "short_name": "M.C.S."
      },
      "start_date": "1948-01-01",
      "end_date": "1948-12-31"
    },
    {
      "issuer": {
        "id": 4307,
        "name": "GRANDS MAGASINS SIGRAND ET Cie"
      },
      "job": {
        "id": 10637,
        "name": "Membre du Comité de surveillance"
      },
      "start_date": "1953-01-01",
      "end_date": "1953-12-31"
    }
  ],
  "name": "L. H. Coffart"
}