{
  "id": 114198,
  "names": [
    "L. de Saporta"
  ],
  "functions": [
    {
      "issuer": {
        "id": 3849,
        "name": "FORETS ET SCIERIES DE BIENHOA"
      },
      "job": {
        "id": 219,
        "name": "Administrateur"
      },
      "start_date": "1948-01-01",
      "end_date": "1953-12-31"
    }
  ],
  "name": "L. de Saporta"
}