{
  "id": 98739,
  "names": [
    "M. J. Mourino"
  ],
  "functions": [
    {
      "issuer": {
        "id": 3051,
        "name": "CREDIT ESPANOL DEL RIO DE LA PLATA (Anciennement Banco Espanol del Rio de la Plata)"
      },
      "job": {
        "id": 10421,
        "name": "Syndic"
      },
      "start_date": "1940-01-01",
      "end_date": "1948-12-31"
    }
  ],
  "name": "M. J. Mourino"
}