{
  "id": 93577,
  "names": [
    "E. Dugay"
  ],
  "functions": [
    {
      "issuer": {
        "id": 11026,
        "name": "CONSTRUCTIONS EN “ FER BÉTON ” ET \"PIERRE ARMÉE ” PAUCHOT"
      },
      "job": {
        "id": 219,
        "name": "Administrateur"
      },
      "start_date": "1933-01-01",
      "end_date": "1933-12-31"
    }
  ],
  "name": "E. Dugay"
}