{
  "id": 54430,
  "names": [
    "G. Van Gelder"
  ],
  "functions": [
    {
      "issuer": {
        "id": 3443,
        "name": "CRÉDIT ANVERSOIS"
      },
      "job": {
        "id": 219,
        "name": "Administrateur"
      },
      "start_date": "1912-01-01",
      "end_date": "1912-12-31"
    },
    {
      "issuer": {
        "id": 10191,
        "name": "TRAMWAYS ET ÉCLAIRAGE ÉLECTRIQUES DE VLADICAUCASE"
      },
      "job": {
        "id": 219,
        "name": "Administrateur"
      },
      "start_date": "1917-01-01",
      "end_date": "1927-12-31"
    },
    {
      "issuer": {
        "id": 3275,
        "name": "CIE GLE DE TRAMWAYS DE BUENOS-AYRES"
      },
      "job": {
        "id": 219,
        "name": "Administrateur"
      },
      "start_date": "1923-01-01",
      "end_date": "1927-12-31"
    }
  ],
  "name": "G. Van Gelder"
}