{
  "id": 45371,
  "names": [
    "de Torcy"
  ],
  "functions": [
    {
      "issuer": {
        "id": 715,
        "name": "COMPAGNIE ANONYME DES HOUILLERES D'AHUN (Creuse)"
      },
      "job": {
        "id": 219,
        "name": "Administrateur"
      },
      "start_date": "1889-01-01",
      "end_date": "1889-12-31"
    }
  ],
  "name": "de Torcy"
}