{
  "id": 50813,
  "names": [
    "Dufeuille"
  ],
  "functions": [
    {
      "issuer": {
        "id": 959,
        "name": "Compagnie des chemins de fer de Madrid à Saragosse et à Alicante"
      },
      "job": {
        "id": 219,
        "name": "Administrateur"
      },
      "start_date": "1903-01-01",
      "end_date": "1908-12-31"
    },
    {
      "issuer": {
        "id": 959,
        "name": "Compagnie des chemins de fer de Madrid à Saragosse et à Alicante"
      },
      "job": {
        "id": 12823,
        "name": "Administrateur à Paris"
      },
      "start_date": "1912-01-01",
      "end_date": "1912-12-31"
    }
  ],
  "name": "Dufeuille"
}