{
  "id": 109476,
  "names": [
    "Gillon-Bonté"
  ],
  "functions": [
    {
      "issuer": {
        "id": 3880,
        "name": "ETABLISSEMENTS H. BONTE ET Cie"
      },
      "job": {
        "id": 219,
        "name": "Administrateur"
      },
      "start_date": "1945-01-01",
      "end_date": "1948-12-31"
    },
    {
      "issuer": {
        "id": 3880,
        "name": "ETABLISSEMENTS H. BONTE ET Cie"
      },
      "job": {
        "id": 189,
        "name": "Président directeur général",
        "short_name": "P.D.G."
      },
      "start_date": "1953-01-01",
      "end_date": "1953-12-31"
    }
  ],
  "name": "Gillon-Bonté"
}