{
  "id": 128130,
  "names": [
    "Cozis Stephanos Agelasto"
  ],
  "functions": [
    {
      "issuer": {
        "id": 3284,
        "name": "LAURIUM GREC (SOCIETE DES USINES DU LAURIUM)"
      },
      "job": {
        "id": 219,
        "name": "Administrateur"
      },
      "start_date": "1906-01-01",
      "end_date": "1906-12-31"
    }
  ],
  "name": "Cozis Stephanos Agelasto"
}