{
  "id": 103913,
  "names": [
    "J. Klein"
  ],
  "functions": [
    {
      "issuer": {
        "id": 4958,
        "name": "BRASSERIE SCHLAU (Cerveceria Schlau)"
      },
      "job": {
        "id": 10019,
        "name": "Commissaire des comptes"
      },
      "start_date": "1940-01-01",
      "end_date": "1940-12-31"
    },
    {
      "issuer": {
        "id": 4958,
        "name": "BRASSERIE SCHLAU (Cerveceria Schlau)"
      },
      "job": {
        "id": 10019,
        "name": "Commissaire des comptes"
      },
      "start_date": "1945-01-01",
      "end_date": "1948-12-31"
    }
  ],
  "name": "J. Klein"
}