{
  "id": 119994,
  "names": [
    "P. Chemin"
  ],
  "functions": [
    {
      "issuer": {
        "id": 3999,
        "name": "Société Coloniale des Chaux et Ciments de l'A.O.F."
      },
      "job": {
        "id": 219,
        "name": "Administrateur"
      },
      "start_date": "1953-01-01",
      "end_date": "1953-12-31"
    }
  ],
  "name": "P. Chemin"
}