{
  "id": 42277,
  "names": [
    "vicomte Georges de Louvencourt"
  ],
  "functions": [
    {
      "issuer": {
        "id": 2380,
        "name": "CRÉDIT ALGERIEN pour favoriser le développement agricole, commercial et industriel de l'Algérie"
      },
      "job": {
        "id": 219,
        "name": "Administrateur"
      },
      "start_date": "1883-01-01",
      "end_date": "1889-12-31"
    },
    {
      "issuer": {
        "id": 2380,
        "name": "CRÉDIT ALGERIEN pour favoriser le développement agricole, commercial et industriel de l'Algérie"
      },
      "job": {
        "id": 219,
        "name": "Administrateur"
      },
      "start_date": "1893-01-01",
      "end_date": "1898-12-31"
    }
  ],
  "name": "vicomte Georges de Louvencourt"
}