{
  "id": 89920,
  "names": [
    "Jean Brizon"
  ],
  "functions": [
    {
      "issuer": {
        "id": 3954,
        "name": "AEROPLANES MORANE-SAULNIER"
      },
      "job": {
        "id": 219,
        "name": "Administrateur"
      },
      "start_date": "1933-01-01",
      "end_date": "1933-12-31"
    },
    {
      "issuer": {
        "id": 3954,
        "name": "AEROPLANES MORANE-SAULNIER"
      },
      "job": {
        "id": 219,
        "name": "Administrateur"
      },
      "start_date": "1940-01-01",
      "end_date": "1940-12-31"
    },
    {
      "issuer": {
        "id": 625,
        "name": "SOCIÉTÉ BITERROISE DE FORCE ET LUMIERE"
      },
      "job": {
        "id": 219,
        "name": "Administrateur"
      },
      "start_date": "1945-01-01",
      "end_date": "1945-12-31"
    }
  ],
  "name": "Jean Brizon"
}