{
  "id": 90067,
  "names": [
    "Ch. Ziègler"
  ],
  "functions": [
    {
      "issuer": {
        "id": 4939,
        "name": "ETABLISSEMENTS ZIEGLER"
      },
      "job": {
        "id": 219,
        "name": "Administrateur"
      },
      "start_date": "1933-01-01",
      "end_date": "1933-12-31"
    },
    {
      "issuer": {
        "id": 4939,
        "name": "ETABLISSEMENTS ZIEGLER"
      },
      "job": {
        "id": 117,
        "name": "Vice-Président",
        "short_name": "V.-Pr."
      },
      "start_date": "1940-01-01",
      "end_date": "1940-12-31"
    }
  ],
  "name": "Ch. Ziègler"
}