{
  "id": 126217,
  "names": [
    "Herzog"
  ],
  "functions": [
    {
      "issuer": {
        "id": 1594,
        "name": "Compagnie du Soleil, Société anonyme française d'assurances sur la vie"
      },
      "job": {
        "id": 219,
        "name": "Administrateur"
      },
      "start_date": "1933-01-01",
      "end_date": "1933-12-31"
    },
    {
      "issuer": {
        "id": 1594,
        "name": "Compagnie du Soleil, Société anonyme française d'assurances sur la vie"
      },
      "job": {
        "id": 219,
        "name": "Administrateur"
      },
      "start_date": "1940-01-01",
      "end_date": "1945-12-31"
    },
    {
      "issuer": {
        "id": 3490,
        "name": "GAZ DE FRANCE (G.D.F.) SERVICE NATIONAL"
      },
      "job": {
        "id": 16620,
        "name": "Représentant des consommateurs"
      },
      "start_date": "1948-01-01",
      "end_date": "1948-12-31"
    }
  ],
  "name": "Herzog"
}