{
  "id": 45435,
  "names": [
    "Vésignié"
  ],
  "functions": [
    {
      "issuer": {
        "id": 556,
        "name": "Compagnie des Messageries Maritimes"
      },
      "job": {
        "id": 219,
        "name": "Administrateur"
      },
      "start_date": "1889-01-01",
      "end_date": "1889-12-31"
    }
  ],
  "name": "Vésignié"
}