{
  "id": 115150,
  "names": [
    "J. Leduc"
  ],
  "functions": [
    {
      "issuer": {
        "id": 4740,
        "name": "SOCIETE AUXILIAIRE DES DISTRIBUTIONS D'EAU"
      },
      "job": {
        "id": 219,
        "name": "Administrateur"
      },
      "start_date": "1948-01-01",
      "end_date": "1948-12-31"
    }
  ],
  "name": "J. Leduc"
}