{
  "id": 56308,
  "names": [
    "W. Elpliinstone"
  ],
  "functions": [
    {
      "issuer": {
        "id": 3054,
        "name": "COMPAGNIE DE MOZAMBIQUE"
      },
      "job": {
        "id": 11221,
        "name": "Membre du comité Central à Londres"
      },
      "start_date": "1912-01-01",
      "end_date": "1912-12-31"
    },
    {
      "issuer": {
        "id": 3054,
        "name": "COMPAGNIE DE MOZAMBIQUE"
      },
      "job": {
        "id": 10241,
        "name": "administrateur dans le Comité central à Londres"
      },
      "start_date": "1917-01-01",
      "end_date": "1923-12-31"
    }
  ],
  "name": "W. Elpliinstone"
}