{
  "id": 59865,
  "names": [
    "Gaston Guiot"
  ],
  "functions": [
    {
      "issuer": {
        "id": 2374,
        "name": "BANQUE PRIVÉE, INDUSTRIELLE, COMMERCIALE, COLONIALE, LYON-MARSEILLE"
      },
      "job": {
        "id": 219,
        "name": "Administrateur"
      },
      "start_date": "1917-01-01",
      "end_date": "1917-12-31"
    },
    {
      "issuer": {
        "id": 1181,
        "name": "CIE NATIONALE DE MATIÈRES COLORANTES ET DE PRODUITS CHIMIQUES"
      },
      "job": {
        "id": 219,
        "name": "Administrateur"
      },
      "start_date": "1923-01-01",
      "end_date": "1923-12-31"
    },
    {
      "issuer": {
        "id": 2374,
        "name": "BANQUE PRIVÉE, INDUSTRIELLE, COMMERCIALE, COLONIALE, LYON-MARSEILLE"
      },
      "job": {
        "id": 219,
        "name": "Administrateur"
      },
      "start_date": "1923-01-01",
      "end_date": "1923-12-31"
    },
    {
      "issuer": {
        "id": 1220,
        "name": "CHEMINS DE FER DU NORD DE L'ESPAGNE"
      },
      "job": {
        "id": 10645,
        "name": "Administrateur à Barcelone"
      },
      "start_date": "1923-01-01",
      "end_date": "1927-12-31"
    },
    {
      "issuer": {
        "id": 4850,
        "name": "SOCIETE INTERNATIONALE DE RÉGIE CO-INTÉRESSÉE DES TABACS AU MAROC"
      },
      "job": {
        "id": 219,
        "name": "Administrateur"
      },
      "start_date": "1923-01-01",
      "end_date": "1933-12-31"
    },
    {
      "issuer": {
        "id": 2374,
        "name": "BANQUE PRIVÉE, INDUSTRIELLE, COMMERCIALE, COLONIALE, LYON-MARSEILLE"
      },
      "job": {
        "id": 219,
        "name": "Administrateur"
      },
      "start_date": "1927-01-01",
      "end_date": "1927-12-31"
    },
    {
      "issuer": {
        "id": 1220,
        "name": "CHEMINS DE FER DU NORD DE L'ESPAGNE"
      },
      "job": {
        "id": 219,
        "name": "Administrateur"
      },
      "start_date": "1933-01-01",
      "end_date": "1933-12-31"
    }
  ],
  "name": "Gaston Guiot"
}