{
  "id": 74763,
  "names": [
    "M. Chalon"
  ],
  "functions": [
    {
      "issuer": {
        "id": 3986,
        "name": "SOCIÉTÉ DES ÉTABLISSEMENTS HAOUR FRERES"
      },
      "job": {
        "id": 219,
        "name": "Administrateur"
      },
      "start_date": "1923-01-01",
      "end_date": "1927-12-31"
    },
    {
      "issuer": {
        "id": 3965,
        "name": "ETABLISSEMENTS TERROT"
      },
      "job": {
        "id": 219,
        "name": "Administrateur"
      },
      "start_date": "1940-01-01",
      "end_date": "1940-12-31"
    },
    {
      "issuer": {
        "id": 3965,
        "name": "ETABLISSEMENTS TERROT"
      },
      "job": {
        "id": 102,
        "name": "Président",
        "short_name": "P."
      },
      "start_date": "1945-01-01",
      "end_date": "1953-12-31"
    }
  ],
  "name": "M. Chalon"
}