{
  "id": 121646,
  "names": [
    "comtesse Gérard de Nazelle"
  ],
  "functions": [
    {
      "issuer": {
        "id": 3731,
        "name": "Veuve CLIQUOT-PONSARDIN B. de Vogüé et Cie Successeurs"
      },
      "job": {
        "id": 176,
        "name": "Membre du conseil de surveillance",
        "short_name": "M.C.S."
      },
      "start_date": "1953-01-01",
      "end_date": "1953-12-31"
    }
  ],
  "name": "comtesse Gérard de Nazelle"
}