{
  "id": 73059,
  "names": [
    "Maurice Hentsch"
  ],
  "functions": [
    {
      "issuer": {
        "id": 2878,
        "name": "ANGLO-FRENCH TICAPAMPA SILVER MINING CY"
      },
      "job": {
        "id": 219,
        "name": "Administrateur"
      },
      "start_date": "1923-01-01",
      "end_date": "1923-12-31"
    },
    {
      "issuer": {
        "id": 11035,
        "name": "SOCIÉTÉ INDUSTRIELLE DE BRASSERIE ET MALTERIE (BRASSERIE DES MOULINEAUX)"
      },
      "job": {
        "id": 102,
        "name": "Président",
        "short_name": "P."
      },
      "start_date": "1933-01-01",
      "end_date": "1933-12-31"
    },
    {
      "issuer": {
        "id": 11489,
        "name": "BRASSERIES DES MOULINEAUX (Anciennement Société française de Brasserie)"
      },
      "job": {
        "id": 117,
        "name": "Vice-Président",
        "short_name": "V.-Pr."
      },
      "start_date": "1940-01-01",
      "end_date": "1940-12-31"
    }
  ],
  "name": "Maurice Hentsch"
}