{
  "id": 109768,
  "names": [
    "Joannès Dupraz"
  ],
  "functions": [
    {
      "issuer": {
        "id": 2316,
        "name": "AGENCE HAVAS"
      },
      "job": {
        "id": 219,
        "name": "Administrateur"
      },
      "start_date": "1945-01-01",
      "end_date": "1945-12-31"
    }
  ],
  "name": "Joannès Dupraz"
}