{
  "id": 97064,
  "names": [
    "François Berry"
  ],
  "functions": [
    {
      "issuer": {
        "id": 2415,
        "name": "SOCIETE ANONYME DES MINES DE CARVIN"
      },
      "job": {
        "id": 10019,
        "name": "Commissaire des comptes"
      },
      "start_date": "1940-01-01",
      "end_date": "1945-12-31"
    },
    {
      "issuer": {
        "id": 4406,
        "name": "LA TELEMECANIQUE ELECTRIQUE"
      },
      "job": {
        "id": 219,
        "name": "Administrateur"
      },
      "start_date": "1945-01-01",
      "end_date": "1953-12-31"
    }
  ],
  "name": "François Berry"
}