{
  "id": 127521,
  "names": [
    "Auguste-Edouard-Eugène Picanon"
  ],
  "functions": [
    {
      "issuer": {
        "id": 3879,
        "name": "SOCIETE FRANÇAISE DES NOUVELLES HEBRIDES"
      },
      "job": {
        "id": 102,
        "name": "Président",
        "short_name": "P."
      },
      "start_date": "1933-01-01",
      "end_date": "1933-12-31"
    },
    {
      "issuer": {
        "id": 11441,
        "name": "CAISSE DE PRETS IMMOBILIERS DU MAROC"
      },
      "job": {
        "id": 102,
        "name": "Président",
        "short_name": "P."
      },
      "start_date": "1940-01-01",
      "end_date": "1940-12-31"
    }
  ],
  "name": "Auguste-Edouard-Eugène Picanon"
}