{
  "id": 72672,
  "names": [
    "R. Balensi"
  ],
  "functions": [
    {
      "issuer": {
        "id": 2447,
        "name": "Cie DES CHEMINS DE FER DE LA CAMARGUE"
      },
      "job": {
        "id": 219,
        "name": "Administrateur"
      },
      "start_date": "1923-01-01",
      "end_date": "1933-12-31"
    },
    {
      "issuer": {
        "id": 2447,
        "name": "Cie DES CHEMINS DE FER DE LA CAMARGUE"
      },
      "job": {
        "id": 117,
        "name": "Vice-Président",
        "short_name": "V.-Pr."
      },
      "start_date": "1940-01-01",
      "end_date": "1940-12-31"
    },
    {
      "issuer": {
        "id": 2447,
        "name": "Cie DES CHEMINS DE FER DE LA CAMARGUE"
      },
      "job": {
        "id": 117,
        "name": "Vice-Président",
        "short_name": "V.-Pr."
      },
      "start_date": "1948-01-01",
      "end_date": "1953-12-31"
    }
  ],
  "name": "R. Balensi"
}