{
  "id": 96946,
  "names": [
    "E. Debionne"
  ],
  "functions": [
    {
      "issuer": {
        "id": 2666,
        "name": "Cie DES DOCKS ET ENTREPOTS DE ROUEN"
      },
      "job": {
        "id": 10019,
        "name": "Commissaire des comptes"
      },
      "start_date": "1940-01-01",
      "end_date": "1940-12-31"
    }
  ],
  "name": "E. Debionne"
}