{
  "id": 82819,
  "names": [
    "M. Rives"
  ],
  "functions": [
    {
      "issuer": {
        "id": 3815,
        "name": "ETABLISSEMENTS SELLIER FRÈRES"
      },
      "job": {
        "id": 219,
        "name": "Administrateur"
      },
      "start_date": "1927-01-01",
      "end_date": "1933-12-31"
    }
  ],
  "name": "M. Rives"
}