{
  "id": 53783,
  "names": [
    "Ch. Halais"
  ],
  "functions": [
    {
      "issuer": {
        "id": 2996,
        "name": "STÉ FSE DES DISTILLERIES DE L'INDO-CHINE"
      },
      "job": {
        "id": 102,
        "name": "Président",
        "short_name": "P."
      },
      "start_date": "1908-01-01",
      "end_date": "1908-12-31"
    },
    {
      "issuer": {
        "id": 2996,
        "name": "STÉ FSE DES DISTILLERIES DE L'INDO-CHINE"
      },
      "job": {
        "id": 219,
        "name": "Administrateur"
      },
      "start_date": "1917-01-01",
      "end_date": "1923-12-31"
    }
  ],
  "name": "Ch. Halais"
}