{
  "id": 52183,
  "names": [
    "Eug. Sartiaux Didisheim"
  ],
  "functions": [
    {
      "issuer": {
        "id": 1236,
        "name": "CIE GÉNÉRALE BELGE POUR L'ÉCLAIRAGE ET LE CHAUFFAGE PAR LE GAZ"
      },
      "job": {
        "id": 232,
        "name": "Commissaire de surveillance"
      },
      "start_date": "1908-01-01",
      "end_date": "1908-12-31"
    }
  ],
  "name": "Eug. Sartiaux Didisheim"
}