{
  "id": 92062,
  "names": [
    "P. Couturiau"
  ],
  "functions": [
    {
      "issuer": {
        "id": 4338,
        "name": "SOCIETE COMMERCIALE FRANÇAISE DE L'INDOCHINE"
      },
      "job": {
        "id": 219,
        "name": "Administrateur"
      },
      "start_date": "1933-01-01",
      "end_date": "1933-12-31"
    }
  ],
  "name": "P. Couturiau"
}