{
  "id": 127250,
  "names": [
    "Fauconnier"
  ],
  "functions": [
    {
      "issuer": {
        "id": 3504,
        "name": "Regie Autonome des Transports Parisiens (R.A.T.P)"
      },
      "job": {
        "id": 219,
        "name": "Administrateur"
      },
      "start_date": "1953-01-01",
      "end_date": "1953-12-31"
    }
  ],
  "name": "Fauconnier"
}