{
  "id": 42283,
  "names": [
    "J. Wittersheim"
  ],
  "functions": [
    {
      "issuer": {
        "id": 968,
        "name": "BANQUE DE L'ALGERIE"
      },
      "job": {
        "id": 149,
        "name": "Sous Directeur"
      },
      "start_date": "1880-01-01",
      "end_date": "1880-12-31"
    },
    {
      "issuer": {
        "id": 1742,
        "name": "CRÉDIT FONCIER D'ALGÉRIE ET DE TUNISIE"
      },
      "job": {
        "id": 141,
        "name": "Directeur Général",
        "short_name": "D.G."
      },
      "start_date": "1880-01-01",
      "end_date": "1883-12-31"
    },
    {
      "issuer": {
        "id": 1742,
        "name": "CRÉDIT FONCIER D'ALGÉRIE ET DE TUNISIE"
      },
      "job": {
        "id": 10257,
        "name": "Président du Conseil"
      },
      "start_date": "1880-01-01",
      "end_date": "1883-12-31"
    },
    {
      "issuer": {
        "id": 968,
        "name": "BANQUE DE L'ALGERIE"
      },
      "job": {
        "id": 219,
        "name": "Administrateur"
      },
      "start_date": "1889-01-01",
      "end_date": "1889-12-31"
    },
    {
      "issuer": {
        "id": 1742,
        "name": "CRÉDIT FONCIER D'ALGÉRIE ET DE TUNISIE"
      },
      "job": {
        "id": 11022,
        "name": "Administrateur à Alger"
      },
      "start_date": "1889-01-01",
      "end_date": "1889-12-31"
    }
  ],
  "name": "J. Wittersheim"
}