{
  "id": 88387,
  "names": [
    "E. Bovar-Perrier"
  ],
  "functions": [
    {
      "issuer": {
        "id": 5236,
        "name": "L'IMMOBILIÈRE DES VOITURES A PARIS"
      },
      "job": {
        "id": 117,
        "name": "Vice-Président",
        "short_name": "V.-Pr."
      },
      "start_date": "1933-01-01",
      "end_date": "1933-12-31"
    }
  ],
  "name": "E. Bovar-Perrier"
}