{
  "id": 117889,
  "names": [
    "Villadier"
  ],
  "functions": [
    {
      "issuer": {
        "id": 3487,
        "name": "CAISSE NATIONALE D'EQUIPEMENT DE L'ELECTRICITE ET DU GAZ"
      },
      "job": {
        "id": 219,
        "name": "Administrateur"
      },
      "start_date": "1953-01-01",
      "end_date": "1953-12-31"
    }
  ],
  "name": "Villadier"
}