{
  "id": 84781,
  "names": [
    "Ed. Lanos"
  ],
  "functions": [
    {
      "issuer": {
        "id": 4301,
        "name": "SOCIÉTÉ ANONYME DES GRANDS MAGASINS DE NOUVEAUTÉS \"AUX FABRIQUES FRANÇAISES\""
      },
      "job": {
        "id": 219,
        "name": "Administrateur"
      },
      "start_date": "1933-01-01",
      "end_date": "1933-12-31"
    }
  ],
  "name": "Ed. Lanos"
}