{
  "id": 48167,
  "names": [
    "de Boissieu"
  ],
  "functions": [
    {
      "issuer": {
        "id": 7005,
        "name": "Société Lyonnaise des Mines et Usines de Borax"
      },
      "job": {
        "id": 219,
        "name": "Administrateur"
      },
      "start_date": "1898-01-01",
      "end_date": "1898-12-31"
    },
    {
      "issuer": {
        "id": 2757,
        "name": "SOCIETE D'ELECTRO METALLURGIE DE DIVES"
      },
      "job": {
        "id": 219,
        "name": "Administrateur"
      },
      "start_date": "1903-01-01",
      "end_date": "1912-12-31"
    },
    {
      "issuer": {
        "id": 2757,
        "name": "SOCIETE D'ELECTRO METALLURGIE DE DIVES"
      },
      "job": {
        "id": 226,
        "name": "agent administratif"
      },
      "start_date": "1917-01-01",
      "end_date": "1917-12-31"
    },
    {
      "issuer": {
        "id": 2757,
        "name": "SOCIETE D'ELECTRO METALLURGIE DE DIVES"
      },
      "job": {
        "id": 219,
        "name": "Administrateur"
      },
      "start_date": "1923-01-01",
      "end_date": "1923-12-31"
    },
    {
      "issuer": {
        "id": 2757,
        "name": "SOCIETE D'ELECTRO METALLURGIE DE DIVES"
      },
      "job": {
        "id": 219,
        "name": "Administrateur"
      },
      "start_date": "1927-01-01",
      "end_date": "1927-12-31"
    }
  ],
  "name": "de Boissieu"
}