{
  "id": 83989,
  "names": [
    "Benno Borzykowski"
  ],
  "functions": [
    {
      "issuer": {
        "id": 10847,
        "name": "BORVISK FRANÇAISE"
      },
      "job": {
        "id": 219,
        "name": "Administrateur"
      },
      "start_date": "1927-01-01",
      "end_date": "1927-12-31"
    }
  ],
  "name": "Benno Borzykowski"
}