{
  "id": 110792,
  "names": [
    "Ch. de Chillaz"
  ],
  "functions": [
    {
      "issuer": {
        "id": 424,
        "name": "L'Aigle, Compagnie d'assurances a primes contre l'incendie"
      },
      "job": {
        "id": 189,
        "name": "Président directeur général",
        "short_name": "P.D.G."
      },
      "start_date": "1948-01-01",
      "end_date": "1953-12-31"
    },
    {
      "issuer": {
        "id": 245,
        "name": "LE SOLEIL SOCIÉTÉ D'ASSURANCES A PRIMES FIXES CONTRE L'INCENDIE"
      },
      "job": {
        "id": 189,
        "name": "Président directeur général",
        "short_name": "P.D.G."
      },
      "start_date": "1948-01-01",
      "end_date": "1953-12-31"
    }
  ],
  "name": "Ch. de Chillaz"
}