{
  "id": 91463,
  "names": [
    "G. Thiè-baud"
  ],
  "functions": [
    {
      "issuer": {
        "id": 4758,
        "name": "FILATURES DE LAINES PEIGNEES DE LA RÉGION DE FOURMIES"
      },
      "job": {
        "id": 117,
        "name": "Vice-Président",
        "short_name": "V.-Pr."
      },
      "start_date": "1933-01-01",
      "end_date": "1933-12-31"
    }
  ],
  "name": "G. Thiè-baud"
}