{
  "id": 127177,
  "names": [
    "Robert Monnier"
  ],
  "functions": [
    {
      "issuer": {
        "id": 3603,
        "name": "BANQUE COURTOIS"
      },
      "job": {
        "id": 219,
        "name": "Administrateur"
      },
      "start_date": "1953-01-01",
      "end_date": "1953-12-31"
    },
    {
      "issuer": {
        "id": 4135,
        "name": "ETABLISSEMENTS ROFFO"
      },
      "job": {
        "id": 219,
        "name": "Administrateur"
      },
      "start_date": "1953-01-01",
      "end_date": "1953-12-31"
    }
  ],
  "name": "Robert Monnier"
}