{
  "id": 92740,
  "names": [
    "amiral Basire"
  ],
  "functions": [
    {
      "issuer": {
        "id": 11005,
        "name": "SOCIÉTÉ FRANÇAISE DE PEINTURES ET VERNIS"
      },
      "job": {
        "id": 219,
        "name": "Administrateur"
      },
      "start_date": "1933-01-01",
      "end_date": "1933-12-31"
    }
  ],
  "name": "amiral Basire"
}