{
  "id": 58588,
  "names": [
    "J. Matras"
  ],
  "functions": [
    {
      "issuer": {
        "id": 10179,
        "name": "LE SODEX"
      },
      "job": {
        "id": 219,
        "name": "Administrateur"
      },
      "start_date": "1917-01-01",
      "end_date": "1923-12-31"
    }
  ],
  "name": "J. Matras"
}