{
  "id": 105532,
  "names": [
    "De Fouchier"
  ],
  "functions": [
    {
      "issuer": {
        "id": 3564,
        "name": "Banque Nationale Française du Commerce Extérieure"
      },
      "job": {
        "id": 139,
        "name": "Commissaire du Gouvernement"
      },
      "start_date": "1945-01-01",
      "end_date": "1948-12-31"
    }
  ],
  "name": "De Fouchier"
}