{
  "id": 92202,
  "names": [
    "P. Balsan"
  ],
  "functions": [
    {
      "issuer": {
        "id": 117,
        "name": "Canal d'Aigues Mortes a Beaucaire"
      },
      "job": {
        "id": 219,
        "name": "Administrateur"
      },
      "start_date": "1933-01-01",
      "end_date": "1933-12-31"
    },
    {
      "issuer": {
        "id": 4751,
        "name": "ETABLISSEMENTS BALSAN"
      },
      "job": {
        "id": 219,
        "name": "Administrateur"
      },
      "start_date": "1948-01-01",
      "end_date": "1948-12-31"
    }
  ],
  "name": "P. Balsan"
}