{
  "id": 53520,
  "names": [
    "G. Richard"
  ],
  "functions": [
    {
      "issuer": {
        "id": 3353,
        "name": "SOCIÉTÉ CIVILE D'AMORTISSEMENT DES OBLIGATIONS “ CANAL DE PANAMA \" (Émission de mars 1888)"
      },
      "job": {
        "id": 219,
        "name": "Administrateur"
      },
      "start_date": "1908-01-01",
      "end_date": "1908-12-31"
    },
    {
      "issuer": {
        "id": 4211,
        "name": "Grames"
      },
      "job": {
        "id": 10019,
        "name": "Commissaire des comptes"
      },
      "start_date": "1953-01-01",
      "end_date": "1953-12-31"
    }
  ],
  "name": "G. Richard"
}