{
  "id": 94958,
  "names": [
    "Jean Imbert"
  ],
  "functions": [
    {
      "issuer": {
        "id": 11048,
        "name": "SOCIÉTÉ INDUSTRIELLE ET FINANCIÈRE D'ELECTRICITE"
      },
      "job": {
        "id": 219,
        "name": "Administrateur"
      },
      "start_date": "1940-01-01",
      "end_date": "1940-12-31"
    },
    {
      "issuer": {
        "id": 11048,
        "name": "SOCIÉTÉ INDUSTRIELLE ET FINANCIÈRE D'ELECTRICITE"
      },
      "job": {
        "id": 219,
        "name": "Administrateur"
      },
      "start_date": "1945-01-01",
      "end_date": "1948-12-31"
    }
  ],
  "name": "Jean Imbert"
}