{
  "id": 52043,
  "names": [
    "L. Magnan"
  ],
  "functions": [
    {
      "issuer": {
        "id": 668,
        "name": "Cie DES DOCKS ET ENTREPOTS DE MARSEILLE"
      },
      "job": {
        "id": 219,
        "name": "Administrateur"
      },
      "start_date": "1908-01-01",
      "end_date": "1912-12-31"
    }
  ],
  "name": "L. Magnan"
}