{
  "id": 113016,
  "names": [
    "André Lenoir"
  ],
  "functions": [
    {
      "issuer": {
        "id": 10969,
        "name": "ETABLISSEMENTS MONTREUIL"
      },
      "job": {
        "id": 219,
        "name": "Administrateur"
      },
      "start_date": "1948-01-01",
      "end_date": "1953-12-31"
    }
  ],
  "name": "André Lenoir"
}