{
  "id": 96859,
  "names": [
    "N. Lempessis"
  ],
  "functions": [
    {
      "issuer": {
        "id": 10215,
        "name": "NOUVELLE SOCIETE DU CANAL DE CORINTHE"
      },
      "job": {
        "id": 10019,
        "name": "Commissaire des comptes"
      },
      "start_date": "1940-01-01",
      "end_date": "1953-12-31"
    }
  ],
  "name": "N. Lempessis"
}