{
  "id": 55003,
  "names": [
    "Alphonse Meyer de Rothschild"
  ],
  "functions": [
    {
      "issuer": {
        "id": 979,
        "name": "Compagnie des Chemins de fer du Sud de l'Autriche"
      },
      "job": {
        "id": 10624,
        "name": "Administrateur à Vienne"
      },
      "start_date": "1912-01-01",
      "end_date": "1912-12-31"
    }
  ],
  "name": "Alphonse Meyer de Rothschild"
}