{
  "id": 119144,
  "names": [
    "M. E. de Percin"
  ],
  "functions": [
    {
      "issuer": {
        "id": 663,
        "name": "Compagnie Générale de Navigation"
      },
      "job": {
        "id": 141,
        "name": "Directeur Général",
        "short_name": "D.G."
      },
      "start_date": "1953-01-01",
      "end_date": "1953-12-31"
    }
  ],
  "name": "M. E. de Percin"
}