{
  "id": 124714,
  "names": [
    "Beaujeu"
  ],
  "functions": [
    {
      "issuer": {
        "id": 2034,
        "name": "Tréport"
      },
      "job": {
        "id": 10421,
        "name": "Syndic"
      },
      "start_date": "1880-01-01",
      "end_date": "1880-12-31"
    }
  ],
  "name": "Beaujeu"
}