{
  "id": 45418,
  "names": [
    "Herla"
  ],
  "functions": [
    {
      "issuer": {
        "id": 2518,
        "name": "Mines et Usines de cuivre de Vigsnaes"
      },
      "job": {
        "id": 219,
        "name": "Administrateur"
      },
      "start_date": "1889-01-01",
      "end_date": "1889-12-31"
    }
  ],
  "name": "Herla"
}