{
  "id": 51597,
  "names": [
    "Bardot"
  ],
  "functions": [
    {
      "issuer": {
        "id": 1596,
        "name": "LA CONFIANCE Compagnie d'Assurances sur la Vie"
      },
      "job": {
        "id": 219,
        "name": "Administrateur"
      },
      "start_date": "1908-01-01",
      "end_date": "1923-12-31"
    }
  ],
  "name": "Bardot"
}