{
  "id": 41859,
  "names": [
    "de Saint-Léger"
  ],
  "functions": [
    {
      "issuer": {
        "id": 2322,
        "name": "Compagnie Parisienne de vidanges et engrais"
      },
      "job": {
        "id": 10420,
        "name": "Liquidateur"
      },
      "start_date": "1883-01-01",
      "end_date": "1883-12-31"
    },
    {
      "issuer": {
        "id": 2923,
        "name": "Compagnie française des Métaux"
      },
      "job": {
        "id": 219,
        "name": "Administrateur"
      },
      "start_date": "1893-01-01",
      "end_date": "1893-12-31"
    }
  ],
  "name": "de Saint-Léger"
}