{
  "id": 108468,
  "names": [
    "E. Soler"
  ],
  "functions": [
    {
      "issuer": {
        "id": 4749,
        "name": "TRICOTAGE DE L'ARIËGE ET BONNETERIE DE LA GARONNE RÉUNIS (Anciens Etablissements J. Soler-Puig)"
      },
      "job": {
        "id": 219,
        "name": "Administrateur"
      },
      "start_date": "1945-01-01",
      "end_date": "1948-12-31"
    }
  ],
  "name": "E. Soler"
}