{
  "id": 51983,
  "names": [
    "A.-M. Fox"
  ],
  "functions": [
    {
      "issuer": {
        "id": 3351,
        "name": "Pennsylvania Cy"
      },
      "job": {
        "id": 219,
        "name": "Administrateur"
      },
      "start_date": "1908-01-01",
      "end_date": "1908-12-31"
    }
  ],
  "name": "A.-M. Fox"
}