{
  "id": 50548,
  "names": [
    "Freret"
  ],
  "functions": [
    {
      "issuer": {
        "id": 3203,
        "name": "SOCIÉTÉ DES ÉTABLISSEMENTS J. VOIRIN"
      },
      "job": {
        "id": 219,
        "name": "Administrateur"
      },
      "start_date": "1903-01-01",
      "end_date": "1903-12-31"
    }
  ],
  "name": "Freret"
}