{
  "id": 119729,
  "names": [
    "Jean de Faucamberge"
  ],
  "functions": [
    {
      "issuer": {
        "id": 4388,
        "name": "ETABLISSEMENTS DUCELLIER"
      },
      "job": {
        "id": 219,
        "name": "Administrateur"
      },
      "start_date": "1953-01-01",
      "end_date": "1953-12-31"
    }
  ],
  "name": "Jean de Faucamberge"
}