{
  "id": 83213,
  "names": [
    "E. Adolphe"
  ],
  "functions": [
    {
      "issuer": {
        "id": 2380,
        "name": "CRÉDIT ALGERIEN pour favoriser le développement agricole, commercial et industriel de l'Algérie"
      },
      "job": {
        "id": 219,
        "name": "Administrateur"
      },
      "start_date": "1927-01-01",
      "end_date": "1933-12-31"
    }
  ],
  "name": "E. Adolphe"
}