{
  "id": 55781,
  "names": [
    "de Redon de Colombier"
  ],
  "functions": [
    {
      "issuer": {
        "id": 10013,
        "name": "Ain-Arko (Mines de Zinc d’)"
      },
      "job": {
        "id": 219,
        "name": "Administrateur"
      },
      "start_date": "1912-01-01",
      "end_date": "1912-12-31"
    },
    {
      "issuer": {
        "id": 10208,
        "name": "SOCIETE DES MINES DU KEF-CHAMBI"
      },
      "job": {
        "id": 219,
        "name": "Administrateur"
      },
      "start_date": "1912-01-01",
      "end_date": "1912-12-31"
    }
  ],
  "name": "de Redon de Colombier"
}