{
  "id": 43240,
  "names": [
    "vice-amiral Bosse"
  ],
  "functions": [
    {
      "issuer": {
        "id": 2569,
        "name": "Compagnie française du Télégraphe de Paris à New-York"
      },
      "job": {
        "id": 219,
        "name": "Administrateur"
      },
      "start_date": "1880-01-01",
      "end_date": "1883-12-31"
    }
  ],
  "name": "vice-amiral Bosse"
}