{
  "id": 103257,
  "names": [
    "J. Bach"
  ],
  "functions": [
    {
      "issuer": {
        "id": 3863,
        "name": "PLANTATIONS REUNIES DE L'OUEST AFRICAIN"
      },
      "job": {
        "id": 103,
        "name": "Commissaire"
      },
      "start_date": "1940-01-01",
      "end_date": "1940-12-31"
    },
    {
      "issuer": {
        "id": 3863,
        "name": "PLANTATIONS REUNIES DE L'OUEST AFRICAIN"
      },
      "job": {
        "id": 10258,
        "name": "Suppléant"
      },
      "start_date": "1945-01-01",
      "end_date": "1945-12-31"
    }
  ],
  "name": "J. Bach"
}