{
  "id": 50556,
  "names": [
    "comte de La Mazelière"
  ],
  "functions": [
    {
      "issuer": {
        "id": 2039,
        "name": "SOCIETE DU FIGARO"
      },
      "job": {
        "id": 176,
        "name": "Membre du conseil de surveillance",
        "short_name": "M.C.S."
      },
      "start_date": "1903-01-01",
      "end_date": "1903-12-31"
    },
    {
      "issuer": {
        "id": 2039,
        "name": "SOCIETE DU FIGARO"
      },
      "job": {
        "id": 10254,
        "name": "Conseiller de surveillance"
      },
      "start_date": "1908-01-01",
      "end_date": "1908-12-31"
    },
    {
      "issuer": {
        "id": 2039,
        "name": "SOCIETE DU FIGARO"
      },
      "job": {
        "id": 10637,
        "name": "Membre du Comité de surveillance"
      },
      "start_date": "1912-01-01",
      "end_date": "1912-12-31"
    },
    {
      "issuer": {
        "id": 2768,
        "name": "FORGES ET ACIÉRIES DE LA KAMA"
      },
      "job": {
        "id": 219,
        "name": "Administrateur"
      },
      "start_date": "1912-01-01",
      "end_date": "1927-12-31"
    },
    {
      "issuer": {
        "id": 2039,
        "name": "SOCIETE DU FIGARO"
      },
      "job": {
        "id": 219,
        "name": "Administrateur"
      },
      "start_date": "1917-01-01",
      "end_date": "1917-12-31"
    },
    {
      "issuer": {
        "id": 10239,
        "name": "COMPAGNIE DES MINES DE FALÉMÉ-GAMBIE"
      },
      "job": {
        "id": 219,
        "name": "Administrateur"
      },
      "start_date": "1927-01-01",
      "end_date": "1927-12-31"
    },
    {
      "issuer": {
        "id": 10239,
        "name": "COMPAGNIE DES MINES DE FALÉMÉ-GAMBIE"
      },
      "job": {
        "id": 117,
        "name": "Vice-Président",
        "short_name": "V.-Pr."
      },
      "start_date": "1933-01-01",
      "end_date": "1933-12-31"
    },
    {
      "issuer": {
        "id": 3913,
        "name": "SOCIETE COLONIALE AGRICOLE ET MINIERE"
      },
      "job": {
        "id": 102,
        "name": "Président",
        "short_name": "P."
      },
      "start_date": "1940-01-01",
      "end_date": "1940-12-31"
    }
  ],
  "name": "comte de La Mazelière"
}