{
  "id": 114777,
  "names": [
    "H. Gross"
  ],
  "functions": [
    {
      "issuer": {
        "id": 4326,
        "name": "AUX GALERIES BARBES"
      },
      "job": {
        "id": 219,
        "name": "Administrateur"
      },
      "start_date": "1948-01-01",
      "end_date": "1953-12-31"
    }
  ],
  "name": "H. Gross"
}