{
  "id": 54641,
  "names": [
    "S. D. Brown"
  ],
  "functions": [
    {
      "issuer": {
        "id": 3267,
        "name": "PORT DE PARA"
      },
      "job": {
        "id": 219,
        "name": "Administrateur"
      },
      "start_date": "1912-01-01",
      "end_date": "1912-12-31"
    }
  ],
  "name": "S. D. Brown"
}