{
  "id": 93551,
  "names": [
    "F. Salvagnini"
  ],
  "functions": [
    {
      "issuer": {
        "id": 3286,
        "name": "SOCIÉTÉ GÉNÉRALE DE SUCRERIES ET RAFFINERIES EN ROUMANIE"
      },
      "job": {
        "id": 219,
        "name": "Administrateur"
      },
      "start_date": "1933-01-01",
      "end_date": "1933-12-31"
    },
    {
      "issuer": {
        "id": 3286,
        "name": "SOCIÉTÉ GÉNÉRALE DE SUCRERIES ET RAFFINERIES EN ROUMANIE"
      },
      "job": {
        "id": 219,
        "name": "Administrateur"
      },
      "start_date": "1940-01-01",
      "end_date": "1945-12-31"
    }
  ],
  "name": "F. Salvagnini"
}