{
  "id": 55786,
  "names": [
    "E. Descombes"
  ],
  "functions": [
    {
      "issuer": {
        "id": 2856,
        "name": "SOCIETE DES ETAINS DE KINTA"
      },
      "job": {
        "id": 219,
        "name": "Administrateur"
      },
      "start_date": "1912-01-01",
      "end_date": "1927-12-31"
    },
    {
      "issuer": {
        "id": 3467,
        "name": "SOCIÉTÉ FERMIERE DE LA VOIRIE DE PARIS"
      },
      "job": {
        "id": 219,
        "name": "Administrateur"
      },
      "start_date": "1917-01-01",
      "end_date": "1917-12-31"
    }
  ],
  "name": "E. Descombes"
}