{
  "id": 111696,
  "names": [
    "H. Loiseau"
  ],
  "functions": [
    {
      "issuer": {
        "id": 3309,
        "name": "Compagnie des BATEAUX A VAPEUR DU NORD"
      },
      "job": {
        "id": 219,
        "name": "Administrateur"
      },
      "start_date": "1948-01-01",
      "end_date": "1953-12-31"
    }
  ],
  "name": "H. Loiseau"
}