{
  "id": 96110,
  "names": [
    "H. Blanc"
  ],
  "functions": [
    {
      "issuer": {
        "id": 3753,
        "name": "SOCIETE VERMANDOISE DE SUCRERIES (Usines sinistrées de Sfe-Emilie, Hervilly et Cartigny)"
      },
      "job": {
        "id": 10019,
        "name": "Commissaire des comptes"
      },
      "start_date": "1940-01-01",
      "end_date": "1940-12-31"
    },
    {
      "issuer": {
        "id": 4147,
        "name": "ÉTABLISSEMENTS SAINTE-MARIE DUPRE, LELIEVRE & Cie"
      },
      "job": {
        "id": 103,
        "name": "Commissaire"
      },
      "start_date": "1940-01-01",
      "end_date": "1940-12-31"
    },
    {
      "issuer": {
        "id": 2726,
        "name": "SOCIÉTÉ DU GAZ ET DE L'ELECTRICITÉ DE MARSEILLE"
      },
      "job": {
        "id": 219,
        "name": "Administrateur"
      },
      "start_date": "1940-01-01",
      "end_date": "1940-12-31"
    },
    {
      "issuer": {
        "id": 2441,
        "name": "Cie DES CHEMINS DE FER SECONDAIRES Anc. : Chemins de fer de la Banlieue de Reims et extensions"
      },
      "job": {
        "id": 10019,
        "name": "Commissaire des comptes"
      },
      "start_date": "1940-01-01",
      "end_date": "1945-12-31"
    },
    {
      "issuer": {
        "id": 10007,
        "name": "SOCIÉTÉ FRANÇAISE DE CONSTRUCTIONS MÉCANIQUES (Anciens Etablissements Cail)"
      },
      "job": {
        "id": 10019,
        "name": "Commissaire des comptes"
      },
      "start_date": "1940-01-01",
      "end_date": "1945-12-31"
    },
    {
      "issuer": {
        "id": 1339,
        "name": "ORFÈVRERIE CHRISTOFLE"
      },
      "job": {
        "id": 103,
        "name": "Commissaire"
      },
      "start_date": "1940-01-01",
      "end_date": "1945-12-31"
    },
    {
      "issuer": {
        "id": 3682,
        "name": "Comptoirs Frigorifiques Henri Lebossé"
      },
      "job": {
        "id": 10019,
        "name": "Commissaire des comptes"
      },
      "start_date": "1940-01-01",
      "end_date": "1945-12-31"
    },
    {
      "issuer": {
        "id": 2294,
        "name": "Société FONCIERE LYONNAISE"
      },
      "job": {
        "id": 10019,
        "name": "Commissaire des comptes"
      },
      "start_date": "1945-01-01",
      "end_date": "1945-12-31"
    },
    {
      "issuer": {
        "id": 4147,
        "name": "ÉTABLISSEMENTS SAINTE-MARIE DUPRE, LELIEVRE & Cie"
      },
      "job": {
        "id": 10019,
        "name": "Commissaire des comptes"
      },
      "start_date": "1945-01-01",
      "end_date": "1945-12-31"
    },
    {
      "issuer": {
        "id": 3563,
        "name": "COMPAGNIE DES CHEMINS DE FER SECONDAIRES DU NORD-EST"
      },
      "job": {
        "id": 10019,
        "name": "Commissaire des comptes"
      },
      "start_date": "1945-01-01",
      "end_date": "1945-12-31"
    },
    {
      "issuer": {
        "id": 3753,
        "name": "SOCIETE VERMANDOISE DE SUCRERIES (Usines sinistrées de Sfe-Emilie, Hervilly et Cartigny)"
      },
      "job": {
        "id": 103,
        "name": "Commissaire"
      },
      "start_date": "1945-01-01",
      "end_date": "1945-12-31"
    },
    {
      "issuer": {
        "id": 2726,
        "name": "SOCIÉTÉ DU GAZ ET DE L'ELECTRICITÉ DE MARSEILLE"
      },
      "job": {
        "id": 10019,
        "name": "Commissaire des comptes"
      },
      "start_date": "1945-01-01",
      "end_date": "1945-12-31"
    }
  ],
  "name": "H. Blanc"
}