{
  "id": 58063,
  "names": [
    "A. Darracq"
  ],
  "functions": [
    {
      "issuer": {
        "id": 10067,
        "name": "Dœuillet Ltd"
      },
      "job": {
        "id": 219,
        "name": "Administrateur"
      },
      "start_date": "1912-01-01",
      "end_date": "1912-12-31"
    }
  ],
  "name": "A. Darracq"
}