{
  "id": 60204,
  "names": [
    "Ch. Schônborn-Buchheim"
  ],
  "functions": [
    {
      "issuer": {
        "id": 3364,
        "name": "BANQUE HONGROISE DES RENTES ET DU CRÉDIT AGRICOLE"
      },
      "job": {
        "id": 219,
        "name": "Administrateur"
      },
      "start_date": "1917-01-01",
      "end_date": "1917-12-31"
    }
  ],
  "name": "Ch. Schônborn-Buchheim"
}