{
  "id": 82656,
  "names": [
    "M. Blocq"
  ],
  "functions": [
    {
      "issuer": {
        "id": 2655,
        "name": "SOCIETE ANONYME OMNIA (CINÉMA MONTMARTRE ET EXTENSIONS)"
      },
      "job": {
        "id": 219,
        "name": "Administrateur"
      },
      "start_date": "1927-01-01",
      "end_date": "1927-12-31"
    },
    {
      "issuer": {
        "id": 10748,
        "name": "Explosifs Minélite"
      },
      "job": {
        "id": 219,
        "name": "Administrateur"
      },
      "start_date": "1933-01-01",
      "end_date": "1933-12-31"
    }
  ],
  "name": "M. Blocq"
}