{
  "id": 103822,
  "names": [
    "G. Deveaud"
  ],
  "functions": [
    {
      "issuer": {
        "id": 3720,
        "name": "SOCIETE DES HUILERIES VALABREGUE"
      },
      "job": {
        "id": 219,
        "name": "Administrateur"
      },
      "start_date": "1940-01-01",
      "end_date": "1948-12-31"
    }
  ],
  "name": "G. Deveaud"
}