{
  "id": 82738,
  "names": [
    "Stéphan"
  ],
  "functions": [
    {
      "issuer": {
        "id": 10402,
        "name": "ÉTABLISSEMENTS J. PRUDHON ET Cie"
      },
      "job": {
        "id": 219,
        "name": "Administrateur"
      },
      "start_date": "1927-01-01",
      "end_date": "1933-12-31"
    }
  ],
  "name": "Stéphan"
}