{
  "id": 52235,
  "names": [
    "Lesti-Woussen"
  ],
  "functions": [
    {
      "issuer": {
        "id": 2742,
        "name": "Ateliers et Chantiers de France"
      },
      "job": {
        "id": 10019,
        "name": "Commissaire des comptes"
      },
      "start_date": "1908-01-01",
      "end_date": "1908-12-31"
    }
  ],
  "name": "Lesti-Woussen"
}