{
  "id": 99351,
  "names": [
    "N. Palacios Costa"
  ],
  "functions": [
    {
      "issuer": {
        "id": 3244,
        "name": "STÉ DE CRÉDIT FONCIER DE SANTA-FÉ"
      },
      "job": {
        "id": 219,
        "name": "Administrateur"
      },
      "start_date": "1940-01-01",
      "end_date": "1940-12-31"
    },
    {
      "issuer": {
        "id": 3244,
        "name": "STÉ DE CRÉDIT FONCIER DE SANTA-FÉ"
      },
      "job": {
        "id": 16229,
        "name": "Administrateur Délégué à Buenos-Aires"
      },
      "start_date": "1945-01-01",
      "end_date": "1945-12-31"
    },
    {
      "issuer": {
        "id": 3244,
        "name": "STÉ DE CRÉDIT FONCIER DE SANTA-FÉ"
      },
      "job": {
        "id": 101,
        "name": "Administrateur Délégué",
        "short_name": "Ad. Dél."
      },
      "start_date": "1948-01-01",
      "end_date": "1948-12-31"
    },
    {
      "issuer": {
        "id": 3244,
        "name": "STÉ DE CRÉDIT FONCIER DE SANTA-FÉ"
      },
      "job": {
        "id": 16229,
        "name": "Administrateur Délégué à Buenos-Aires"
      },
      "start_date": "1953-01-01",
      "end_date": "1953-12-31"
    }
  ],
  "name": "N. Palacios Costa"
}