{
  "id": 63693,
  "names": [
    "J. Girardin"
  ],
  "functions": [
    {
      "issuer": {
        "id": 10433,
        "name": "COMPAGNIE DES CHARGEURS FRANÇAIS (PLISSON & CIE)"
      },
      "job": {
        "id": 10637,
        "name": "Membre du Comité de surveillance"
      },
      "start_date": "1917-01-01",
      "end_date": "1917-12-31"
    }
  ],
  "name": "J. Girardin"
}