{
  "id": 71333,
  "names": [
    "J. de Poorter"
  ],
  "functions": [
    {
      "issuer": {
        "id": 3463,
        "name": "SOCIÉTÉ FRANÇAISE DE MINES DE FER"
      },
      "job": {
        "id": 219,
        "name": "Administrateur"
      },
      "start_date": "1917-01-01",
      "end_date": "1927-12-31"
    }
  ],
  "name": "J. de Poorter"
}