{
  "id": 115802,
  "names": [
    "Benetto"
  ],
  "functions": [
    {
      "issuer": {
        "id": 2188,
        "name": "L'UNION ET LE PHÉNIX ESPAGNOL COMPAGNIE D'ASSURANCES RÉUNIES"
      },
      "job": {
        "id": 10019,
        "name": "Commissaire des comptes"
      },
      "start_date": "1953-01-01",
      "end_date": "1953-12-31"
    }
  ],
  "name": "Benetto"
}