{
  "id": 119626,
  "names": [
    "P. Delerin"
  ],
  "functions": [
    {
      "issuer": {
        "id": 4409,
        "name": "J. VISSEAUX S.A."
      },
      "job": {
        "id": 10019,
        "name": "Commissaire des comptes"
      },
      "start_date": "1953-01-01",
      "end_date": "1953-12-31"
    }
  ],
  "name": "P. Delerin"
}