{
  "id": 96812,
  "names": [
    "Sté Générale de Forces motrices et d’Eclairage de la Ville de Grenoble"
  ],
  "functions": [
    {
      "issuer": {
        "id": 2761,
        "name": "SOCIÉTÉ ÉTABLISSEMENTS KELLER ET LELEUX (Procédés Ch.-A. KELLER)"
      },
      "job": {
        "id": 219,
        "name": "Administrateur"
      },
      "start_date": "1940-01-01",
      "end_date": "1945-12-31"
    }
  ],
  "name": "Sté Générale de Forces motrices et d’Eclairage de la Ville de Grenoble"
}