{
  "id": 120562,
  "names": [
    "P. Dessombs"
  ],
  "functions": [
    {
      "issuer": {
        "id": 3875,
        "name": "COMPAGNIE GÉNÉRALE DES PLANTATIONS ET PALMERAIES DE L'OGOOUÉ"
      },
      "job": {
        "id": 189,
        "name": "Président directeur général",
        "short_name": "P.D.G."
      },
      "start_date": "1953-01-01",
      "end_date": "1953-12-31"
    },
    {
      "issuer": {
        "id": 4038,
        "name": "COMPAGNIE D'EXPLOITATIONS FORESTIERES AFRICAINES"
      },
      "job": {
        "id": 141,
        "name": "Directeur Général",
        "short_name": "D.G."
      },
      "start_date": "1953-01-01",
      "end_date": "1953-12-31"
    }
  ],
  "name": "P. Dessombs"
}