{
  "id": 113056,
  "names": [
    "A. Hubin"
  ],
  "functions": [
    {
      "issuer": {
        "id": 2095,
        "name": "Uclaf (Usines Chimiques des Laboratoires Français)"
      },
      "job": {
        "id": 219,
        "name": "Administrateur"
      },
      "start_date": "1948-01-01",
      "end_date": "1953-12-31"
    },
    {
      "issuer": {
        "id": 4181,
        "name": "ETABLISSEMENTS JOUAN"
      },
      "job": {
        "id": 219,
        "name": "Administrateur"
      },
      "start_date": "1953-01-01",
      "end_date": "1953-12-31"
    }
  ],
  "name": "A. Hubin"
}