{
  "id": 113314,
  "names": [
    "René Dubart"
  ],
  "functions": [
    {
      "issuer": {
        "id": 4730,
        "name": "ENERGIE-ECLAIRAGE"
      },
      "job": {
        "id": 219,
        "name": "Administrateur"
      },
      "start_date": "1945-01-01",
      "end_date": "1945-12-31"
    },
    {
      "issuer": {
        "id": 3091,
        "name": "SOCIÉTÉ D'APPLICATIONS INDUSTRIELLES (Cie d'Entreprises électriques)"
      },
      "job": {
        "id": 219,
        "name": "Administrateur"
      },
      "start_date": "1945-01-01",
      "end_date": "1945-12-31"
    },
    {
      "issuer": {
        "id": 11467,
        "name": "SOCIÉTÉ DE FORCES MOTRICES DU CENTRE"
      },
      "job": {
        "id": 219,
        "name": "Administrateur"
      },
      "start_date": "1945-01-01",
      "end_date": "1945-12-31"
    },
    {
      "issuer": {
        "id": 3091,
        "name": "SOCIÉTÉ D'APPLICATIONS INDUSTRIELLES (Cie d'Entreprises électriques)"
      },
      "job": {
        "id": 219,
        "name": "Administrateur"
      },
      "start_date": "1948-01-01",
      "end_date": "1948-12-31"
    },
    {
      "issuer": {
        "id": 3367,
        "name": "AIR COMPRIMÉ, FORCE MOTRICE ÉCLAIRAGE ÉLECTRIQUE"
      },
      "job": {
        "id": 219,
        "name": "Administrateur"
      },
      "start_date": "1953-01-01",
      "end_date": "1953-12-31"
    }
  ],
  "name": "René Dubart"
}