{
  "id": 76493,
  "names": [
    "Hammer"
  ],
  "functions": [
    {
      "issuer": {
        "id": 4410,
        "name": "COMPAGNIE GÉNÉRALE ELECTRIQUE"
      },
      "job": {
        "id": 219,
        "name": "Administrateur"
      },
      "start_date": "1923-01-01",
      "end_date": "1923-12-31"
    }
  ],
  "name": "Hammer"
}