{
  "id": 56948,
  "names": [
    "Ad. Vandewiele"
  ],
  "functions": [
    {
      "issuer": {
        "id": 3265,
        "name": "PÉTROLES DE GROSNYI"
      },
      "job": {
        "id": 219,
        "name": "Administrateur"
      },
      "start_date": "1912-01-01",
      "end_date": "1917-12-31"
    }
  ],
  "name": "Ad. Vandewiele"
}