{
  "id": 42114,
  "names": [
    "Henri"
  ],
  "functions": [
    {
      "issuer": {
        "id": 968,
        "name": "BANQUE DE L'ALGERIE"
      },
      "job": {
        "id": 219,
        "name": "Administrateur"
      },
      "start_date": "1880-01-01",
      "end_date": "1889-12-31"
    }
  ],
  "name": "Henri"
}