{
  "id": 53806,
  "names": [
    "P. Frotier"
  ],
  "functions": [
    {
      "issuer": {
        "id": 3008,
        "name": "STE FSE D'INCANDESCENCE PAR LE GAZ (Système Auer)"
      },
      "job": {
        "id": 219,
        "name": "Administrateur"
      },
      "start_date": "1908-01-01",
      "end_date": "1908-12-31"
    },
    {
      "issuer": {
        "id": 3008,
        "name": "STE FSE D'INCANDESCENCE PAR LE GAZ (Système Auer)"
      },
      "job": {
        "id": 219,
        "name": "Administrateur"
      },
      "start_date": "1912-01-01",
      "end_date": "1912-12-31"
    }
  ],
  "name": "P. Frotier"
}