{
  "id": 63810,
  "names": [
    "J. Jacques"
  ],
  "functions": [
    {
      "issuer": {
        "id": 2590,
        "name": "COMPAGNIE FRANÇAISE DES CHEMINS DE FER DE LA PROVINCE DE SANTA-FÉ"
      },
      "job": {
        "id": 219,
        "name": "Administrateur"
      },
      "start_date": "1917-01-01",
      "end_date": "1927-12-31"
    },
    {
      "issuer": {
        "id": 2590,
        "name": "COMPAGNIE FRANÇAISE DES CHEMINS DE FER DE LA PROVINCE DE SANTA-FÉ"
      },
      "job": {
        "id": 10264,
        "name": "Président à Madrid"
      },
      "start_date": "1933-01-01",
      "end_date": "1933-12-31"
    }
  ],
  "name": "J. Jacques"
}