{
  "id": 92655,
  "names": [
    "Nerson"
  ],
  "functions": [
    {
      "issuer": {
        "id": 10080,
        "name": "STÉ DES ÉTABLISSEMENTS NERSON AINÉ"
      },
      "job": {
        "id": 101,
        "name": "Administrateur Délégué",
        "short_name": "Ad. Dél."
      },
      "start_date": "1933-01-01",
      "end_date": "1933-12-31"
    }
  ],
  "name": "Nerson"
}