{
  "id": 79780,
  "names": [
    "A. Caplain Saint-André"
  ],
  "functions": [
    {
      "issuer": {
        "id": 4454,
        "name": "SOCIÉTÉ CAPLAIN SAINT-ANDRÉ"
      },
      "job": {
        "id": 219,
        "name": "Administrateur"
      },
      "start_date": "1927-01-01",
      "end_date": "1927-12-31"
    },
    {
      "issuer": {
        "id": 4454,
        "name": "SOCIÉTÉ CAPLAIN SAINT-ANDRÉ"
      },
      "job": {
        "id": 101,
        "name": "Administrateur Délégué",
        "short_name": "Ad. Dél."
      },
      "start_date": "1933-01-01",
      "end_date": "1933-12-31"
    },
    {
      "issuer": {
        "id": 4454,
        "name": "SOCIÉTÉ CAPLAIN SAINT-ANDRÉ"
      },
      "job": {
        "id": 117,
        "name": "Vice-Président",
        "short_name": "V.-Pr."
      },
      "start_date": "1933-01-01",
      "end_date": "1933-12-31"
    },
    {
      "issuer": {
        "id": 3931,
        "name": "SOCIETE ANONYME FRANÇAISE DU FERODO"
      },
      "job": {
        "id": 219,
        "name": "Administrateur"
      },
      "start_date": "1933-01-01",
      "end_date": "1933-12-31"
    },
    {
      "issuer": {
        "id": 4454,
        "name": "SOCIÉTÉ CAPLAIN SAINT-ANDRÉ"
      },
      "job": {
        "id": 156,
        "name": "President-Administrateur-Delegue"
      },
      "start_date": "1940-01-01",
      "end_date": "1940-12-31"
    },
    {
      "issuer": {
        "id": 3931,
        "name": "SOCIETE ANONYME FRANÇAISE DU FERODO"
      },
      "job": {
        "id": 219,
        "name": "Administrateur"
      },
      "start_date": "1940-01-01",
      "end_date": "1948-12-31"
    },
    {
      "issuer": {
        "id": 4454,
        "name": "SOCIÉTÉ CAPLAIN SAINT-ANDRÉ"
      },
      "job": {
        "id": 102,
        "name": "Président",
        "short_name": "P."
      },
      "start_date": "1945-01-01",
      "end_date": "1953-12-31"
    },
    {
      "issuer": {
        "id": 11542,
        "name": "ETABLISSEMENTS VAUGEOIS ET BINOT ET G. CORPET"
      },
      "job": {
        "id": 219,
        "name": "Administrateur"
      },
      "start_date": "1948-01-01",
      "end_date": "1948-12-31"
    },
    {
      "issuer": {
        "id": 3931,
        "name": "SOCIETE ANONYME FRANÇAISE DU FERODO"
      },
      "job": {
        "id": 117,
        "name": "Vice-Président",
        "short_name": "V.-Pr."
      },
      "start_date": "1953-01-01",
      "end_date": "1953-12-31"
    },
    {
      "issuer": {
        "id": 11542,
        "name": "ETABLISSEMENTS VAUGEOIS ET BINOT ET G. CORPET"
      },
      "job": {
        "id": 219,
        "name": "Administrateur"
      },
      "start_date": "1953-01-01",
      "end_date": "1953-12-31"
    }
  ],
  "name": "A. Caplain Saint-André"
}