{
  "id": 74226,
  "names": [
    "Ch. Vouland"
  ],
  "functions": [
    {
      "issuer": {
        "id": 10361,
        "name": "SOCIÉTÉ ANONYME DES USINES TOY-RIONT ET DE L'ALIMENTATION DU MIDI RÉUNIES"
      },
      "job": {
        "id": 219,
        "name": "Administrateur"
      },
      "start_date": "1923-01-01",
      "end_date": "1927-12-31"
    },
    {
      "issuer": {
        "id": 3782,
        "name": "SOCIÉTÉ D'ALIMENTATION DE PROVENCE"
      },
      "job": {
        "id": 219,
        "name": "Administrateur"
      },
      "start_date": "1933-01-01",
      "end_date": "1933-12-31"
    },
    {
      "issuer": {
        "id": 3782,
        "name": "SOCIÉTÉ D'ALIMENTATION DE PROVENCE"
      },
      "job": {
        "id": 219,
        "name": "Administrateur"
      },
      "start_date": "1940-01-01",
      "end_date": "1940-12-31"
    },
    {
      "issuer": {
        "id": 4342,
        "name": "INDUSTRIELLE ET COMMERCIALE DE L'EMYRNE"
      },
      "job": {
        "id": 219,
        "name": "Administrateur"
      },
      "start_date": "1940-01-01",
      "end_date": "1945-12-31"
    }
  ],
  "name": "Ch. Vouland"
}