{
  "id": 73041,
  "names": [
    "Gerlach Henkel de Donnersmarck"
  ],
  "functions": [
    {
      "issuer": {
        "id": 1325,
        "name": "SOCIETE DE MINES ET USINES A ZINC DE SILÉSIE"
      },
      "job": {
        "id": 219,
        "name": "Administrateur"
      },
      "start_date": "1923-01-01",
      "end_date": "1923-12-31"
    }
  ],
  "name": "Gerlach Henkel de Donnersmarck"
}