{
  "id": 63895,
  "names": [
    "G. Grinnell Milne"
  ],
  "functions": [
    {
      "issuer": {
        "id": 10281,
        "name": "THE URUGUAY EAST COAST RAILWAY COMPANY, LIMITED (Chemin de fer de la Côte orientale de l'Uruguay)"
      },
      "job": {
        "id": 219,
        "name": "Administrateur"
      },
      "start_date": "1912-01-01",
      "end_date": "1912-12-31"
    },
    {
      "issuer": {
        "id": 3176,
        "name": "Spies Petroleum Co, Ld"
      },
      "job": {
        "id": 219,
        "name": "Administrateur"
      },
      "start_date": "1912-01-01",
      "end_date": "1912-12-31"
    },
    {
      "issuer": {
        "id": 10348,
        "name": "THE MAIKOP SPIES COMPANY, LIMITED"
      },
      "job": {
        "id": 219,
        "name": "Administrateur"
      },
      "start_date": "1912-01-01",
      "end_date": "1912-12-31"
    },
    {
      "issuer": {
        "id": 3176,
        "name": "Spies Petroleum Co, Ld"
      },
      "job": {
        "id": 219,
        "name": "Administrateur"
      },
      "start_date": "1917-01-01",
      "end_date": "1917-12-31"
    },
    {
      "issuer": {
        "id": 10348,
        "name": "THE MAIKOP SPIES COMPANY, LIMITED"
      },
      "job": {
        "id": 219,
        "name": "Administrateur"
      },
      "start_date": "1917-01-01",
      "end_date": "1917-12-31"
    },
    {
      "issuer": {
        "id": 10281,
        "name": "THE URUGUAY EAST COAST RAILWAY COMPANY, LIMITED (Chemin de fer de la Côte orientale de l'Uruguay)"
      },
      "job": {
        "id": 219,
        "name": "Administrateur"
      },
      "start_date": "1917-01-01",
      "end_date": "1917-12-31"
    },
    {
      "issuer": {
        "id": 3176,
        "name": "Spies Petroleum Co, Ld"
      },
      "job": {
        "id": 219,
        "name": "Administrateur"
      },
      "start_date": "1923-01-01",
      "end_date": "1927-12-31"
    }
  ],
  "name": "G. Grinnell Milne"
}