{
  "id": 100909,
  "names": [
    "Pierre Lyautey"
  ],
  "functions": [
    {
      "issuer": {
        "id": 4549,
        "name": "Cie FRANÇAISE DES MINES D'OR DU PEK"
      },
      "job": {
        "id": 102,
        "name": "Président",
        "short_name": "P."
      },
      "start_date": "1940-01-01",
      "end_date": "1940-12-31"
    },
    {
      "issuer": {
        "id": 3870,
        "name": "COMPAGNIE GENERALE DU LEVANT"
      },
      "job": {
        "id": 10019,
        "name": "Commissaire des comptes"
      },
      "start_date": "1940-01-01",
      "end_date": "1940-12-31"
    },
    {
      "issuer": {
        "id": 2076,
        "name": "SOCIETE DES PORTS MAROCAINS DE MEHEDYA-PORT-LYAUTEY ET RABAT-SALÉ"
      },
      "job": {
        "id": 219,
        "name": "Administrateur"
      },
      "start_date": "1940-01-01",
      "end_date": "1945-12-31"
    },
    {
      "issuer": {
        "id": 3581,
        "name": "BANQUE COMMERCIALE DU MAROC"
      },
      "job": {
        "id": 219,
        "name": "Administrateur"
      },
      "start_date": "1945-01-01",
      "end_date": "1953-12-31"
    },
    {
      "issuer": {
        "id": 4341,
        "name": "COMPTOIR FRANÇAIS DU MAROC"
      },
      "job": {
        "id": 219,
        "name": "Administrateur"
      },
      "start_date": "1953-01-01",
      "end_date": "1953-12-31"
    },
    {
      "issuer": {
        "id": 3475,
        "name": "SOCIETE FONCIÈRE MAROCAINE"
      },
      "job": {
        "id": 16420,
        "name": "Conseil juridique"
      },
      "start_date": "1953-01-01",
      "end_date": "1953-12-31"
    }
  ],
  "name": "Pierre Lyautey"
}