{
  "id": 59153,
  "names": [
    "Gunther"
  ],
  "functions": [
    {
      "issuer": {
        "id": 1257,
        "name": "Société Générale Impériale Royale Privilégiée du Crédit foncier d'Autriche"
      },
      "job": {
        "id": 219,
        "name": "Administrateur"
      },
      "start_date": "1912-01-01",
      "end_date": "1912-12-31"
    },
    {
      "issuer": {
        "id": 1257,
        "name": "Société Générale Impériale Royale Privilégiée du Crédit foncier d'Autriche"
      },
      "job": {
        "id": 10624,
        "name": "Administrateur à Vienne"
      },
      "start_date": "1917-01-01",
      "end_date": "1917-12-31"
    },
    {
      "issuer": {
        "id": 1257,
        "name": "Société Générale Impériale Royale Privilégiée du Crédit foncier d'Autriche"
      },
      "job": {
        "id": 219,
        "name": "Administrateur"
      },
      "start_date": "1923-01-01",
      "end_date": "1923-12-31"
    },
    {
      "issuer": {
        "id": 4105,
        "name": "ATELIERS DE CONSTRUCTIONS MÉCANIQUES \"L'ASTER\" (Anciennement l'Aster)"
      },
      "job": {
        "id": 219,
        "name": "Administrateur"
      },
      "start_date": "1923-01-01",
      "end_date": "1923-12-31"
    }
  ],
  "name": "Gunther"
}