{
  "id": 88462,
  "names": [
    "Eugène Henri Bach"
  ],
  "functions": [
    {
      "issuer": {
        "id": 3573,
        "name": "Société GÉNÉRALE FONCIÈRE"
      },
      "job": {
        "id": 219,
        "name": "Administrateur"
      },
      "start_date": "1933-01-01",
      "end_date": "1933-12-31"
    }
  ],
  "name": "Eugène Henri Bach"
}