{
  "id": 108046,
  "names": [
    "A. Evain"
  ],
  "functions": [
    {
      "issuer": {
        "id": 5256,
        "name": "SOCIETE ELECTRIQUE DE LA SIDÉRURGIE LORRAINE"
      },
      "job": {
        "id": 10626,
        "name": "Membre de Comité de Direction"
      },
      "start_date": "1945-01-01",
      "end_date": "1948-12-31"
    }
  ],
  "name": "A. Evain"
}