{
  "id": 97846,
  "names": [
    "J. Cruss"
  ],
  "functions": [
    {
      "issuer": {
        "id": 2545,
        "name": "Compagnie Internationale des Wagons-lits et des grands Express européens"
      },
      "job": {
        "id": 219,
        "name": "Administrateur"
      },
      "start_date": "1940-01-01",
      "end_date": "1940-12-31"
    }
  ],
  "name": "J. Cruss"
}