{
  "id": 82076,
  "names": [
    "Cornut-Gentille"
  ],
  "functions": [
    {
      "issuer": {
        "id": 10599,
        "name": "SOCIÉTÉ NAVALE DE L'OUEST"
      },
      "job": {
        "id": 219,
        "name": "Administrateur"
      },
      "start_date": "1927-01-01",
      "end_date": "1927-12-31"
    }
  ],
  "name": "Cornut-Gentille"
}