{
  "id": 115673,
  "names": [
    "P. Cloes"
  ],
  "functions": [
    {
      "issuer": {
        "id": 3226,
        "name": "CHEMINS DE FER DU CONGO SUPÉRIEUR AUX GRANDS LACS AFRICAINS"
      },
      "job": {
        "id": 157,
        "name": "Delegue de la Colonie"
      },
      "start_date": "1953-01-01",
      "end_date": "1953-12-31"
    }
  ],
  "name": "P. Cloes"
}