{
  "id": 120669,
  "names": [
    "R. Ansquer"
  ],
  "functions": [
    {
      "issuer": {
        "id": 3180,
        "name": "SOCIÉTÉ FONCIERE DU SUD DE MADAGASCAR (Anciennement Messageries Françaises de Madagascar)"
      },
      "job": {
        "id": 10019,
        "name": "Commissaire des comptes"
      },
      "start_date": "1953-01-01",
      "end_date": "1953-12-31"
    }
  ],
  "name": "R. Ansquer"
}