{
  "id": 50684,
  "names": [
    "Cédié"
  ],
  "functions": [
    {
      "issuer": {
        "id": 3327,
        "name": "STÉ ANME DES CHAUSSURES \" INCROYABLE \""
      },
      "job": {
        "id": 219,
        "name": "Administrateur"
      },
      "start_date": "1903-01-01",
      "end_date": "1912-12-31"
    }
  ],
  "name": "Cédié"
}