{
  "id": 90538,
  "names": [
    "Compagnie Holophane Limited"
  ],
  "functions": [
    {
      "issuer": {
        "id": 4397,
        "name": "SOCIÉTÉ ANONYME HOLOPHANE"
      },
      "job": {
        "id": 219,
        "name": "Administrateur"
      },
      "start_date": "1933-01-01",
      "end_date": "1933-12-31"
    },
    {
      "issuer": {
        "id": 4397,
        "name": "SOCIÉTÉ ANONYME HOLOPHANE"
      },
      "job": {
        "id": 219,
        "name": "Administrateur"
      },
      "start_date": "1940-01-01",
      "end_date": "1940-12-31"
    },
    {
      "issuer": {
        "id": 4397,
        "name": "SOCIÉTÉ ANONYME HOLOPHANE"
      },
      "job": {
        "id": 219,
        "name": "Administrateur"
      },
      "start_date": "1948-01-01",
      "end_date": "1948-12-31"
    }
  ],
  "name": "Compagnie Holophane Limited"
}