{
  "id": 93370,
  "names": [
    "G. Marquet(fils)"
  ],
  "functions": [
    {
      "issuer": {
        "id": 11029,
        "name": "CLARIDGE'S HOTEL"
      },
      "job": {
        "id": 101,
        "name": "Administrateur Délégué",
        "short_name": "Ad. Dél."
      },
      "start_date": "1933-01-01",
      "end_date": "1933-12-31"
    }
  ],
  "name": "G. Marquet(fils)"
}