{
  "id": 63974,
  "names": [
    "Scoupievsky"
  ],
  "functions": [
    {
      "issuer": {
        "id": 3410,
        "name": "STE DU CHEMIN DE FER DE RIAZAN-OURALSK"
      },
      "job": {
        "id": 219,
        "name": "Administrateur"
      },
      "start_date": "1917-01-01",
      "end_date": "1933-12-31"
    }
  ],
  "name": "Scoupievsky"
}