{
  "id": 50126,
  "names": [
    "Louis Armez"
  ],
  "functions": [
    {
      "issuer": {
        "id": 2747,
        "name": "SOCIÉTÉ DES CHANTIER ET ATELIERS DE SAINT-NAZAIRE (PENHOET)"
      },
      "job": {
        "id": 219,
        "name": "Administrateur"
      },
      "start_date": "1903-01-01",
      "end_date": "1908-12-31"
    },
    {
      "issuer": {
        "id": 2747,
        "name": "SOCIÉTÉ DES CHANTIER ET ATELIERS DE SAINT-NAZAIRE (PENHOET)"
      },
      "job": {
        "id": 219,
        "name": "Administrateur"
      },
      "start_date": "1912-01-01",
      "end_date": "1912-12-31"
    }
  ],
  "name": "Louis Armez"
}