{
  "id": 89673,
  "names": [
    "P. Dalbouze"
  ],
  "functions": [
    {
      "issuer": {
        "id": 4446,
        "name": "UNION DE CONSOMMATEURS DE PRODUITS METALLURGIQUES ET INDUSTRIELS U.C.P.M.I."
      },
      "job": {
        "id": 219,
        "name": "Administrateur"
      },
      "start_date": "1933-01-01",
      "end_date": "1933-12-31"
    }
  ],
  "name": "P. Dalbouze"
}