{
  "id": 89705,
  "names": [
    "M. Le Gallais"
  ],
  "functions": [
    {
      "issuer": {
        "id": 4905,
        "name": "ACIÉRIES RÉUNIES DE BURBACH-EICH-DUDELANGE (ARBED)"
      },
      "job": {
        "id": 219,
        "name": "Administrateur"
      },
      "start_date": "1933-01-01",
      "end_date": "1933-12-31"
    }
  ],
  "name": "M. Le Gallais"
}