{
  "id": 80470,
  "names": [
    "Vanderstappen"
  ],
  "functions": [
    {
      "issuer": {
        "id": 4673,
        "name": "ETABLISSEMENTS GEORGET FILS"
      },
      "job": {
        "id": 219,
        "name": "Administrateur"
      },
      "start_date": "1927-01-01",
      "end_date": "1933-12-31"
    }
  ],
  "name": "Vanderstappen"
}