{
  "id": 70919,
  "names": [
    "Ch. P. Parsons"
  ],
  "functions": [
    {
      "issuer": {
        "id": 4177,
        "name": "ANCIENS ETABLISSEMENTS HOTCHKISS & Cie"
      },
      "job": {
        "id": 219,
        "name": "Administrateur"
      },
      "start_date": "1917-01-01",
      "end_date": "1927-12-31"
    }
  ],
  "name": "Ch. P. Parsons"
}