{
  "id": 59793,
  "names": [
    "H. Domenge"
  ],
  "functions": [
    {
      "issuer": {
        "id": 2396,
        "name": "Banque de Londres et de Mexico"
      },
      "job": {
        "id": 219,
        "name": "Administrateur"
      },
      "start_date": "1917-01-01",
      "end_date": "1923-12-31"
    }
  ],
  "name": "H. Domenge"
}