{
  "id": 56429,
  "names": [
    "Benqué et Galliard"
  ],
  "functions": [
    {
      "issuer": {
        "id": 2929,
        "name": "STÉ DES ÉTAINS ET WOLFRAM DE PORTUGAL"
      },
      "job": {
        "id": 219,
        "name": "Administrateur"
      },
      "start_date": "1912-01-01",
      "end_date": "1912-12-31"
    }
  ],
  "name": "Benqué et Galliard"
}