{
  "id": 102576,
  "names": [
    "J. de Stoop"
  ],
  "functions": [
    {
      "issuer": {
        "id": 3268,
        "name": "COMPAGNIES RÉUNIES GAZ ET ÉLECTRICITÉ (Gaz et Electricité de Lisbonne)"
      },
      "job": {
        "id": 219,
        "name": "Administrateur"
      },
      "start_date": "1940-01-01",
      "end_date": "1948-12-31"
    }
  ],
  "name": "J. de Stoop"
}