{
  "id": 114791,
  "names": [
    "J. Gagnat"
  ],
  "functions": [
    {
      "issuer": {
        "id": 2998,
        "name": "ETABLISSEMENTS OROSDI-BACK"
      },
      "job": {
        "id": 103,
        "name": "Commissaire"
      },
      "start_date": "1948-01-01",
      "end_date": "1948-12-31"
    }
  ],
  "name": "J. Gagnat"
}