{
  "id": 72947,
  "names": [
    "Gaston Drappier"
  ],
  "functions": [
    {
      "issuer": {
        "id": 4506,
        "name": "SOCIÉTÉ DE L'OUENZA"
      },
      "job": {
        "id": 219,
        "name": "Administrateur"
      },
      "start_date": "1923-01-01",
      "end_date": "1923-12-31"
    },
    {
      "issuer": {
        "id": 2264,
        "name": "COMPAGNIE D'AGUILAS"
      },
      "job": {
        "id": 219,
        "name": "Administrateur"
      },
      "start_date": "1923-01-01",
      "end_date": "1923-12-31"
    }
  ],
  "name": "Gaston Drappier"
}