{
  "id": 121028,
  "names": [
    "A. Gau"
  ],
  "functions": [
    {
      "issuer": {
        "id": 4790,
        "name": "LAINIERE DU BASCAUD"
      },
      "job": {
        "id": 219,
        "name": "Administrateur"
      },
      "start_date": "1953-01-01",
      "end_date": "1953-12-31"
    }
  ],
  "name": "A. Gau"
}