{
  "id": 98437,
  "names": [
    "R. Thiriez"
  ],
  "functions": [
    {
      "issuer": {
        "id": 3612,
        "name": "BANQUE SCALBERT DUPONT"
      },
      "job": {
        "id": 219,
        "name": "Administrateur"
      },
      "start_date": "1940-01-01",
      "end_date": "1953-12-31"
    },
    {
      "issuer": {
        "id": 4168,
        "name": "Etablissement Dujardin et Compagnie"
      },
      "job": {
        "id": 219,
        "name": "Administrateur"
      },
      "start_date": "1948-01-01",
      "end_date": "1953-12-31"
    }
  ],
  "name": "R. Thiriez"
}