{
  "id": 76559,
  "names": [
    "G. de Cadoudal"
  ],
  "functions": [
    {
      "issuer": {
        "id": 10560,
        "name": "Cie PARISIENNE DE GARAGES D'AUTOMOBILES"
      },
      "job": {
        "id": 219,
        "name": "Administrateur"
      },
      "start_date": "1923-01-01",
      "end_date": "1923-12-31"
    }
  ],
  "name": "G. de Cadoudal"
}