{
  "id": 96841,
  "names": [
    "A. Rouleau"
  ],
  "functions": [
    {
      "issuer": {
        "id": 2870,
        "name": "CIE DES MINES D'OUASTA ET DE MESLOULA"
      },
      "job": {
        "id": 10258,
        "name": "Suppléant"
      },
      "start_date": "1940-01-01",
      "end_date": "1940-12-31"
    },
    {
      "issuer": {
        "id": 4886,
        "name": "SOCIETE FRANÇAISE DU BAZINA"
      },
      "job": {
        "id": 10258,
        "name": "Suppléant"
      },
      "start_date": "1940-01-01",
      "end_date": "1945-12-31"
    },
    {
      "issuer": {
        "id": 2949,
        "name": "STé GLE DE TOUAGE ET DE REMORQUAGE"
      },
      "job": {
        "id": 10019,
        "name": "Commissaire des comptes"
      },
      "start_date": "1940-01-01",
      "end_date": "1953-12-31"
    },
    {
      "issuer": {
        "id": 2870,
        "name": "CIE DES MINES D'OUASTA ET DE MESLOULA"
      },
      "job": {
        "id": 104,
        "name": "Secrétaire"
      },
      "start_date": "1945-01-01",
      "end_date": "1945-12-31"
    },
    {
      "issuer": {
        "id": 4522,
        "name": "SOCIÉTÉ DES MINES DE DOUARIA"
      },
      "job": {
        "id": 10019,
        "name": "Commissaire des comptes"
      },
      "start_date": "1945-01-01",
      "end_date": "1953-12-31"
    },
    {
      "issuer": {
        "id": 4886,
        "name": "SOCIETE FRANÇAISE DU BAZINA"
      },
      "job": {
        "id": 10019,
        "name": "Commissaire des comptes"
      },
      "start_date": "1948-01-01",
      "end_date": "1948-12-31"
    },
    {
      "issuer": {
        "id": 2870,
        "name": "CIE DES MINES D'OUASTA ET DE MESLOULA"
      },
      "job": {
        "id": 10258,
        "name": "Suppléant"
      },
      "start_date": "1948-01-01",
      "end_date": "1953-12-31"
    }
  ],
  "name": "A. Rouleau"
}