{
  "id": 48116,
  "names": [
    "Ad. Benoit"
  ],
  "functions": [
    {
      "issuer": {
        "id": 3135,
        "name": "Hauts Fourneaux de la Chiers"
      },
      "job": {
        "id": 219,
        "name": "Administrateur"
      },
      "start_date": "1898-01-01",
      "end_date": "1898-12-31"
    },
    {
      "issuer": {
        "id": 3135,
        "name": "Hauts Fourneaux de la Chiers"
      },
      "job": {
        "id": 102,
        "name": "Président",
        "short_name": "P."
      },
      "start_date": "1903-01-01",
      "end_date": "1903-12-31"
    }
  ],
  "name": "Ad. Benoit"
}