{
  "id": 124209,
  "names": [
    "Emile Jacques Palotte"
  ],
  "functions": [
    {
      "issuer": {
        "id": 1384,
        "name": "Société Financière de Paris"
      },
      "job": {
        "id": 219,
        "name": "Administrateur"
      },
      "start_date": "1880-01-01",
      "end_date": "1880-12-31"
    },
    {
      "issuer": {
        "id": 2520,
        "name": "Société générale des Soufres"
      },
      "job": {
        "id": 219,
        "name": "Administrateur"
      },
      "start_date": "1880-01-01",
      "end_date": "1880-12-31"
    },
    {
      "issuer": {
        "id": 1729,
        "name": "Banque de prêts à l'Industrie"
      },
      "job": {
        "id": 102,
        "name": "Président",
        "short_name": "P."
      },
      "start_date": "1880-01-01",
      "end_date": "1880-12-31"
    },
    {
      "issuer": {
        "id": 2248,
        "name": "Société anonyme des Mines de la Basse-Loire"
      },
      "job": {
        "id": 219,
        "name": "Administrateur"
      },
      "start_date": "1880-01-01",
      "end_date": "1880-12-31"
    },
    {
      "issuer": {
        "id": 2490,
        "name": "Union Mobilière"
      },
      "job": {
        "id": 102,
        "name": "Président",
        "short_name": "P."
      },
      "start_date": "1881-01-01",
      "end_date": "1881-12-31"
    }
  ],
  "name": "Emile Jacques Palotte"
}