{
  "id": 108292,
  "names": [
    "E. Rouquet"
  ],
  "functions": [
    {
      "issuer": {
        "id": 4609,
        "name": "COMPAGNIE BORDELAISE DE PRODUITS CHIMIQUES"
      },
      "job": {
        "id": 219,
        "name": "Administrateur"
      },
      "start_date": "1945-01-01",
      "end_date": "1945-12-31"
    }
  ],
  "name": "E. Rouquet"
}