{
  "id": 42725,
  "names": [
    "baron de la Rochette"
  ],
  "functions": [
    {
      "issuer": {
        "id": 1330,
        "name": "Société de Commentry-Fourchambault"
      },
      "job": {
        "id": 102,
        "name": "Président",
        "short_name": "P."
      },
      "start_date": "1880-01-01",
      "end_date": "1889-12-31"
    }
  ],
  "name": "baron de la Rochette"
}