{
  "id": 55398,
  "names": [
    "de Alpoim"
  ],
  "functions": [
    {
      "issuer": {
        "id": 3268,
        "name": "COMPAGNIES RÉUNIES GAZ ET ÉLECTRICITÉ (Gaz et Electricité de Lisbonne)"
      },
      "job": {
        "id": 219,
        "name": "Administrateur"
      },
      "start_date": "1912-01-01",
      "end_date": "1912-12-31"
    }
  ],
  "name": "de Alpoim"
}