{
  "id": 79032,
  "names": [
    "W. J. Shaughnessy"
  ],
  "functions": [
    {
      "issuer": {
        "id": 3402,
        "name": "Central Pacific Railway Cy"
      },
      "job": {
        "id": 219,
        "name": "Administrateur"
      },
      "start_date": "1923-01-01",
      "end_date": "1923-12-31"
    },
    {
      "issuer": {
        "id": 3402,
        "name": "Central Pacific Railway Cy"
      },
      "job": {
        "id": 219,
        "name": "Administrateur"
      },
      "start_date": "1927-01-01",
      "end_date": "1933-12-31"
    }
  ],
  "name": "W. J. Shaughnessy"
}