{
  "id": 51316,
  "names": [
    "Charles Dupuy"
  ],
  "functions": [
    {
      "issuer": {
        "id": 2735,
        "name": "LA FOURMI IMMOBILIERE"
      },
      "job": {
        "id": 219,
        "name": "Administrateur"
      },
      "start_date": "1903-01-01",
      "end_date": "1908-12-31"
    },
    {
      "issuer": {
        "id": 2735,
        "name": "LA FOURMI IMMOBILIERE"
      },
      "job": {
        "id": 219,
        "name": "Administrateur"
      },
      "start_date": "1917-01-01",
      "end_date": "1917-12-31"
    },
    {
      "issuer": {
        "id": 2735,
        "name": "LA FOURMI IMMOBILIERE"
      },
      "job": {
        "id": 219,
        "name": "Administrateur"
      },
      "start_date": "1923-01-01",
      "end_date": "1923-12-31"
    },
    {
      "issuer": {
        "id": 2735,
        "name": "LA FOURMI IMMOBILIERE"
      },
      "job": {
        "id": 219,
        "name": "Administrateur"
      },
      "start_date": "1927-01-01",
      "end_date": "1927-12-31"
    }
  ],
  "name": "Charles Dupuy"
}