{
  "id": 120467,
  "names": [
    "R. Houzel"
  ],
  "functions": [
    {
      "issuer": {
        "id": 4672,
        "name": "LE FLY-TOX"
      },
      "job": {
        "id": 219,
        "name": "Administrateur"
      },
      "start_date": "1953-01-01",
      "end_date": "1953-12-31"
    }
  ],
  "name": "R. Houzel"
}