{
  "id": 114741,
  "names": [
    "Ed. Isorez"
  ],
  "functions": [
    {
      "issuer": {
        "id": 4891,
        "name": "AU PECHEUR ECOSSAIS"
      },
      "job": {
        "id": 189,
        "name": "Président directeur général",
        "short_name": "P.D.G."
      },
      "start_date": "1948-01-01",
      "end_date": "1953-12-31"
    }
  ],
  "name": "Ed. Isorez"
}