{
  "id": 120537,
  "names": [
    "A. Briandet"
  ],
  "functions": [
    {
      "issuer": {
        "id": 4340,
        "name": "COMPAGNIE COMMERCIALE SANGHA-OUBAN0UI"
      },
      "job": {
        "id": 219,
        "name": "Administrateur"
      },
      "start_date": "1953-01-01",
      "end_date": "1953-12-31"
    },
    {
      "issuer": {
        "id": 3865,
        "name": "PLANTATIONS DE LA TANOE"
      },
      "job": {
        "id": 219,
        "name": "Administrateur"
      },
      "start_date": "1953-01-01",
      "end_date": "1953-12-31"
    },
    {
      "issuer": {
        "id": 4270,
        "name": "LES ETABLISSEMENTS HABERMACHER ET CAILLIERET (Les Papeteries d'Auvergne)"
      },
      "job": {
        "id": 219,
        "name": "Administrateur"
      },
      "start_date": "1953-01-01",
      "end_date": "1953-12-31"
    }
  ],
  "name": "A. Briandet"
}