{
  "id": 55845,
  "names": [
    "de Cholet"
  ],
  "functions": [
    {
      "issuer": {
        "id": 10103,
        "name": "SOCIÉTÉ HONGROISE DE CUIVRES"
      },
      "job": {
        "id": 219,
        "name": "Administrateur"
      },
      "start_date": "1912-01-01",
      "end_date": "1912-12-31"
    }
  ],
  "name": "de Cholet"
}