{
  "id": 82747,
  "names": [
    "Hivert"
  ],
  "functions": [
    {
      "issuer": {
        "id": 5745,
        "name": "GRANDS MOULINS DE LA LOIRE"
      },
      "job": {
        "id": 219,
        "name": "Administrateur"
      },
      "start_date": "1927-01-01",
      "end_date": "1927-12-31"
    },
    {
      "issuer": {
        "id": 4162,
        "name": "ATELIERS DE CONSTRUCTION LAVALETTE"
      },
      "job": {
        "id": 219,
        "name": "Administrateur"
      },
      "start_date": "1953-01-01",
      "end_date": "1953-12-31"
    }
  ],
  "name": "Hivert"
}