{
  "id": 79252,
  "names": [
    "H. Poirré"
  ],
  "functions": [
    {
      "issuer": {
        "id": 1649,
        "name": "COMPAGNIE DES CHARBONNAGES DE VENDIN-LEZ-BÉTHUNE"
      },
      "job": {
        "id": 219,
        "name": "Administrateur"
      },
      "start_date": "1927-01-01",
      "end_date": "1927-12-31"
    },
    {
      "issuer": {
        "id": 1649,
        "name": "COMPAGNIE DES CHARBONNAGES DE VENDIN-LEZ-BÉTHUNE"
      },
      "job": {
        "id": 102,
        "name": "Président",
        "short_name": "P."
      },
      "start_date": "1933-01-01",
      "end_date": "1933-12-31"
    }
  ],
  "name": "H. Poirré"
}