{
  "id": 108828,
  "names": [
    "M. Bos"
  ],
  "functions": [
    {
      "issuer": {
        "id": 3862,
        "name": "LES PLANTATIONS INDOCHINOISES DE THE"
      },
      "job": {
        "id": 219,
        "name": "Administrateur"
      },
      "start_date": "1945-01-01",
      "end_date": "1945-12-31"
    }
  ],
  "name": "M. Bos"
}