{
  "id": 121173,
  "names": [
    "H. Jouhate"
  ],
  "functions": [
    {
      "issuer": {
        "id": 3212,
        "name": "STE GLE DES PAPETERIES DU LIMOUSIN"
      },
      "job": {
        "id": 219,
        "name": "Administrateur"
      },
      "start_date": "1953-01-01",
      "end_date": "1953-12-31"
    }
  ],
  "name": "H. Jouhate"
}