{
  "id": 55612,
  "names": [
    "Mondon"
  ],
  "functions": [
    {
      "issuer": {
        "id": 3466,
        "name": "CIE ÉLECTRIQUE DE LA LOIRE ET DU CENTRE"
      },
      "job": {
        "id": 219,
        "name": "Administrateur"
      },
      "start_date": "1912-01-01",
      "end_date": "1912-12-31"
    },
    {
      "issuer": {
        "id": 4802,
        "name": "SOCIETE NOUVELLE A. GODDE, BEDIN"
      },
      "job": {
        "id": 176,
        "name": "Membre du conseil de surveillance",
        "short_name": "M.C.S."
      },
      "start_date": "1940-01-01",
      "end_date": "1940-12-31"
    },
    {
      "issuer": {
        "id": 4802,
        "name": "SOCIETE NOUVELLE A. GODDE, BEDIN"
      },
      "job": {
        "id": 219,
        "name": "Administrateur"
      },
      "start_date": "1945-01-01",
      "end_date": "1953-12-31"
    }
  ],
  "name": "Mondon"
}