{
  "id": 114704,
  "names": [
    "M. Derxé"
  ],
  "functions": [
    {
      "issuer": {
        "id": 3740,
        "name": "SOCIÉTÉ DES RIZERIES INDOCHINOISES"
      },
      "job": {
        "id": 219,
        "name": "Administrateur"
      },
      "start_date": "1948-01-01",
      "end_date": "1948-12-31"
    }
  ],
  "name": "M. Derxé"
}