{
  "id": 58664,
  "names": [
    "S. Pollack"
  ],
  "functions": [
    {
      "issuer": {
        "id": 1536,
        "name": "BANQUE DE COMMERCE DE L'AZOFF-DON"
      },
      "job": {
        "id": 219,
        "name": "Administrateur"
      },
      "start_date": "1912-01-01",
      "end_date": "1927-12-31"
    }
  ],
  "name": "S. Pollack"
}