{
  "id": 115972,
  "names": [
    "Daniel Gibelin"
  ],
  "functions": [
    {
      "issuer": {
        "id": 3413,
        "name": "COMPAGNIE D'ASSURANCES GÉNÉRALES CONTRE LES ACCIDENTS ET LE VOL"
      },
      "job": {
        "id": 219,
        "name": "Administrateur"
      },
      "start_date": "1953-01-01",
      "end_date": "1953-12-31"
    }
  ],
  "name": "Daniel Gibelin"
}