{
  "id": 122149,
  "names": [
    "G. Delbaize"
  ],
  "functions": [
    {
      "issuer": {
        "id": 3780,
        "name": "SOCIETE D'ALIMENTATION D'ALSACE-LORRAINE (S.A.D.A.L.)"
      },
      "job": {
        "id": 219,
        "name": "Administrateur"
      },
      "start_date": "1953-01-01",
      "end_date": "1953-12-31"
    }
  ],
  "name": "G. Delbaize"
}