{
  "id": 98796,
  "names": [
    "André Nouailhetas"
  ],
  "functions": [
    {
      "issuer": {
        "id": 3704,
        "name": "UNION FINANCIERE D'EXTREME-ORIENT"
      },
      "job": {
        "id": 101,
        "name": "Administrateur Délégué",
        "short_name": "Ad. Dél."
      },
      "start_date": "1940-01-01",
      "end_date": "1948-12-31"
    },
    {
      "issuer": {
        "id": 4593,
        "name": "SOCIÉTÉ DES PLANTATIONS DE KRATIE"
      },
      "job": {
        "id": 219,
        "name": "Administrateur"
      },
      "start_date": "1940-01-01",
      "end_date": "1948-12-31"
    },
    {
      "issuer": {
        "id": 1198,
        "name": "CREDIT MOBILIER INDOCHINOIS (Société d'Exploitation des Monts-de-Piété de Cochinchine)"
      },
      "job": {
        "id": 101,
        "name": "Administrateur Délégué",
        "short_name": "Ad. Dél."
      },
      "start_date": "1940-01-01",
      "end_date": "1948-12-31"
    },
    {
      "issuer": {
        "id": 3648,
        "name": "SOCIETE FONCIERE SAIGONNAISE"
      },
      "job": {
        "id": 101,
        "name": "Administrateur Délégué",
        "short_name": "Ad. Dél."
      },
      "start_date": "1945-01-01",
      "end_date": "1948-12-31"
    }
  ],
  "name": "André Nouailhetas"
}