{
  "id": 77730,
  "names": [
    "Ch. Dufour"
  ],
  "functions": [
    {
      "issuer": {
        "id": 5248,
        "name": "SOCIÉTÉ FONCIÈRE DU NORD DE LA FRANCE"
      },
      "job": {
        "id": 219,
        "name": "Administrateur"
      },
      "start_date": "1923-01-01",
      "end_date": "1933-12-31"
    },
    {
      "issuer": {
        "id": 10796,
        "name": "ROYAL MONCEAU HOTEL"
      },
      "job": {
        "id": 219,
        "name": "Administrateur"
      },
      "start_date": "1927-01-01",
      "end_date": "1927-12-31"
    },
    {
      "issuer": {
        "id": 4130,
        "name": "USINES DU PIED-SELLE"
      },
      "job": {
        "id": 102,
        "name": "Président",
        "short_name": "P."
      },
      "start_date": "1933-01-01",
      "end_date": "1933-12-31"
    }
  ],
  "name": "Ch. Dufour"
}