{
  "id": 127996,
  "names": [
    "André Brun(1)"
  ],
  "functions": [
    {
      "issuer": {
        "id": 3015,
        "name": "SOCIETE DU JOURNAL \"LE TEMPS\""
      },
      "job": {
        "id": 10637,
        "name": "Membre du Comité de surveillance"
      },
      "start_date": "1917-01-01",
      "end_date": "1917-12-31"
    },
    {
      "issuer": {
        "id": 3015,
        "name": "SOCIETE DU JOURNAL \"LE TEMPS\""
      },
      "job": {
        "id": 219,
        "name": "Administrateur"
      },
      "start_date": "1923-01-01",
      "end_date": "1933-12-31"
    },
    {
      "issuer": {
        "id": 3015,
        "name": "SOCIETE DU JOURNAL \"LE TEMPS\""
      },
      "job": {
        "id": 219,
        "name": "Administrateur"
      },
      "start_date": "1940-01-01",
      "end_date": "1940-12-31"
    },
    {
      "issuer": {
        "id": 3015,
        "name": "SOCIETE DU JOURNAL \"LE TEMPS\""
      },
      "job": {
        "id": 102,
        "name": "Président",
        "short_name": "P."
      },
      "start_date": "1945-01-01",
      "end_date": "1948-12-31"
    }
  ],
  "name": "André Brun(1)"
}