{
  "id": 103314,
  "names": [
    "Comptour"
  ],
  "functions": [
    {
      "issuer": {
        "id": 3465,
        "name": "SOCIETE DES ÉTABLISSEMENTS DEBRAY"
      },
      "job": {
        "id": 103,
        "name": "Commissaire"
      },
      "start_date": "1940-01-01",
      "end_date": "1953-12-31"
    },
    {
      "issuer": {
        "id": 3915,
        "name": "SOCIETE DES PLANTATIONS D'ELIMA"
      },
      "job": {
        "id": 103,
        "name": "Commissaire"
      },
      "start_date": "1945-01-01",
      "end_date": "1948-12-31"
    },
    {
      "issuer": {
        "id": 3915,
        "name": "SOCIETE DES PLANTATIONS D'ELIMA"
      },
      "job": {
        "id": 10019,
        "name": "Commissaire des comptes"
      },
      "start_date": "1953-01-01",
      "end_date": "1953-12-31"
    }
  ],
  "name": "Comptour"
}