{
  "id": 114896,
  "names": [
    "M. Daniel"
  ],
  "functions": [
    {
      "issuer": {
        "id": 1715,
        "name": "STÉ GLE DES EAUX MINÉRALES DE VALS SAINT-JEAN"
      },
      "job": {
        "id": 219,
        "name": "Administrateur"
      },
      "start_date": "1948-01-01",
      "end_date": "1953-12-31"
    }
  ],
  "name": "M. Daniel"
}