{
  "id": 96147,
  "names": [
    "de Bennetot"
  ],
  "functions": [
    {
      "issuer": {
        "id": 4822,
        "name": "CHEMINS DE FER DU MAROC ORIENTAL (Cie des)"
      },
      "job": {
        "id": 219,
        "name": "Administrateur"
      },
      "start_date": "1940-01-01",
      "end_date": "1940-12-31"
    },
    {
      "issuer": {
        "id": 4822,
        "name": "CHEMINS DE FER DU MAROC ORIENTAL (Cie des)"
      },
      "job": {
        "id": 10019,
        "name": "Commissaire des comptes"
      },
      "start_date": "1945-01-01",
      "end_date": "1948-12-31"
    }
  ],
  "name": "de Bennetot"
}