{
  "id": 50456,
  "names": [
    "Charton"
  ],
  "functions": [
    {
      "issuer": {
        "id": 2789,
        "name": "SOCIETE DE LA TOUR EIFFEL"
      },
      "job": {
        "id": 219,
        "name": "Administrateur"
      },
      "start_date": "1917-01-01",
      "end_date": "1917-12-31"
    },
    {
      "issuer": {
        "id": 1596,
        "name": "LA CONFIANCE Compagnie d'Assurances sur la Vie"
      },
      "job": {
        "id": 219,
        "name": "Administrateur"
      },
      "start_date": "1927-01-01",
      "end_date": "1927-12-31"
    },
    {
      "issuer": {
        "id": 2789,
        "name": "SOCIETE DE LA TOUR EIFFEL"
      },
      "job": {
        "id": 219,
        "name": "Administrateur"
      },
      "start_date": "1927-01-01",
      "end_date": "1927-12-31"
    },
    {
      "issuer": {
        "id": 2789,
        "name": "SOCIETE DE LA TOUR EIFFEL"
      },
      "job": {
        "id": 219,
        "name": "Administrateur"
      },
      "start_date": "1933-01-01",
      "end_date": "1933-12-31"
    }
  ],
  "name": "Charton"
}