{
  "id": 108822,
  "names": [
    "J.-M. Haga"
  ],
  "functions": [
    {
      "issuer": {
        "id": 4850,
        "name": "SOCIETE INTERNATIONALE DE RÉGIE CO-INTÉRESSÉE DES TABACS AU MAROC"
      },
      "job": {
        "id": 219,
        "name": "Administrateur"
      },
      "start_date": "1945-01-01",
      "end_date": "1945-12-31"
    }
  ],
  "name": "J.-M. Haga"
}