{
  "id": 118209,
  "names": [
    "R. H. Radsch"
  ],
  "functions": [
    {
      "issuer": {
        "id": 5414,
        "name": "Cie CENTRALE DE PLACEMENTS ET DE PRÊTS FONCIERS (N. V. Algemeene Maatschappij voor Gronderediet)"
      },
      "job": {
        "id": 219,
        "name": "Administrateur"
      },
      "start_date": "1953-01-01",
      "end_date": "1953-12-31"
    }
  ],
  "name": "R. H. Radsch"
}