{
  "id": 51288,
  "names": [
    "marquis de Lauris"
  ],
  "functions": [
    {
      "issuer": {
        "id": 2694,
        "name": "Cie FRANÇAISE DES CABLES TÉLÉGRAPHIQUES"
      },
      "job": {
        "id": 219,
        "name": "Administrateur"
      },
      "start_date": "1898-01-01",
      "end_date": "1898-12-31"
    },
    {
      "issuer": {
        "id": 3045,
        "name": "Banque Francaise pour le Commerce et l'Industrie"
      },
      "job": {
        "id": 138,
        "name": "Censeur",
        "short_name": "Cens."
      },
      "start_date": "1903-01-01",
      "end_date": "1903-12-31"
    },
    {
      "issuer": {
        "id": 3045,
        "name": "Banque Francaise pour le Commerce et l'Industrie"
      },
      "job": {
        "id": 138,
        "name": "Censeur",
        "short_name": "Cens."
      },
      "start_date": "1908-01-01",
      "end_date": "1908-12-31"
    }
  ],
  "name": "marquis de Lauris"
}