{
  "id": 108812,
  "names": [
    "J. Brévié"
  ],
  "functions": [
    {
      "issuer": {
        "id": 4589,
        "name": "CAOUTCHOUCS DE L'INDOCHINE"
      },
      "job": {
        "id": 219,
        "name": "Administrateur"
      },
      "start_date": "1945-01-01",
      "end_date": "1945-12-31"
    }
  ],
  "name": "J. Brévié"
}