{
  "id": 124095,
  "names": [
    "Spycket"
  ],
  "functions": [
    {
      "issuer": {
        "id": 2083,
        "name": "La Réassurance, Compagnie française de Réassurances"
      },
      "job": {
        "id": 107,
        "name": "Directeur",
        "short_name": "Dir."
      },
      "start_date": "1880-01-01",
      "end_date": "1880-12-31"
    }
  ],
  "name": "Spycket"
}