{
  "id": 106565,
  "names": [
    "Jacques Ginisty"
  ],
  "functions": [
    {
      "issuer": {
        "id": 4078,
        "name": "CHARBONNAGES DU DONG-TRIEU (Tonkin)"
      },
      "job": {
        "id": 219,
        "name": "Administrateur"
      },
      "start_date": "1945-01-01",
      "end_date": "1953-12-31"
    }
  ],
  "name": "Jacques Ginisty"
}