{
  "id": 54660,
  "names": [
    "de Bourqueney"
  ],
  "functions": [
    {
      "issuer": {
        "id": 1272,
        "name": "CIE DES DOCKS ET ENTREPOTS DU HAVRE"
      },
      "job": {
        "id": 219,
        "name": "Administrateur"
      },
      "start_date": "1912-01-01",
      "end_date": "1912-12-31"
    }
  ],
  "name": "de Bourqueney"
}