{
  "id": 126339,
  "names": [
    "Amédée Gay"
  ],
  "functions": [
    {
      "issuer": {
        "id": 2437,
        "name": "Compagnie des Chemins de fer de l'OUEST"
      },
      "job": {
        "id": 219,
        "name": "Administrateur"
      },
      "start_date": "1923-01-01",
      "end_date": "1927-12-31"
    },
    {
      "issuer": {
        "id": 2437,
        "name": "Compagnie des Chemins de fer de l'OUEST"
      },
      "job": {
        "id": 219,
        "name": "Administrateur"
      },
      "start_date": "1933-01-01",
      "end_date": "1933-12-31"
    },
    {
      "issuer": {
        "id": 671,
        "name": "Société Générale de CREDIT INDUSTRIEL ET COMMERCIAL"
      },
      "job": {
        "id": 219,
        "name": "Administrateur"
      },
      "start_date": "1933-01-01",
      "end_date": "1933-12-31"
    },
    {
      "issuer": {
        "id": 2437,
        "name": "Compagnie des Chemins de fer de l'OUEST"
      },
      "job": {
        "id": 219,
        "name": "Administrateur"
      },
      "start_date": "1940-01-01",
      "end_date": "1940-12-31"
    },
    {
      "issuer": {
        "id": 671,
        "name": "Société Générale de CREDIT INDUSTRIEL ET COMMERCIAL"
      },
      "job": {
        "id": 219,
        "name": "Administrateur"
      },
      "start_date": "1940-01-01",
      "end_date": "1953-12-31"
    },
    {
      "issuer": {
        "id": 2437,
        "name": "Compagnie des Chemins de fer de l'OUEST"
      },
      "job": {
        "id": 10420,
        "name": "Liquidateur"
      },
      "start_date": "1945-01-01",
      "end_date": "1945-12-31"
    },
    {
      "issuer": {
        "id": 2437,
        "name": "Compagnie des Chemins de fer de l'OUEST"
      },
      "job": {
        "id": 102,
        "name": "Président",
        "short_name": "P."
      },
      "start_date": "1948-01-01",
      "end_date": "1948-12-31"
    },
    {
      "issuer": {
        "id": 2437,
        "name": "Compagnie des Chemins de fer de l'OUEST"
      },
      "job": {
        "id": 10420,
        "name": "Liquidateur"
      },
      "start_date": "1953-01-01",
      "end_date": "1953-12-31"
    }
  ],
  "name": "Amédée Gay"
}