{
  "id": 121219,
  "names": [
    "Daniel Vergé"
  ],
  "functions": [
    {
      "issuer": {
        "id": 2486,
        "name": "L'ANNUAIRE DU COMMERCE DIDOT-BOTTIN"
      },
      "job": {
        "id": 10269,
        "name": "Directeur Adjoint"
      },
      "start_date": "1953-01-01",
      "end_date": "1953-12-31"
    }
  ],
  "name": "Daniel Vergé"
}