{
  "id": 106781,
  "names": [
    "W. de Munen"
  ],
  "functions": [
    {
      "issuer": {
        "id": 472,
        "name": "SOCIETE GENERALE DE BELGIQUE"
      },
      "job": {
        "id": 116,
        "name": "Vice-Gouverneur"
      },
      "start_date": "1945-01-01",
      "end_date": "1945-12-31"
    }
  ],
  "name": "W. de Munen"
}