{
  "id": 71056,
  "names": [
    "Sloet de Oldruitenborgh"
  ],
  "functions": [
    {
      "issuer": {
        "id": 778,
        "name": "SOCIETE DES MINES ET FONDERIES DE ZINC DE LA VIEILLE-MONTAGNE"
      },
      "job": {
        "id": 219,
        "name": "Administrateur"
      },
      "start_date": "1917-01-01",
      "end_date": "1917-12-31"
    }
  ],
  "name": "Sloet de Oldruitenborgh"
}