{
  "id": 121342,
  "names": [
    "Société anonyme « Det Ostasiatiske Kompagni (Est-Asiatique Danois)"
  ],
  "functions": [
    {
      "issuer": {
        "id": 4972,
        "name": "EST-ASIATIQUE PLANTAGE"
      },
      "job": {
        "id": 127,
        "name": "Directeur-Gérant"
      },
      "start_date": "1953-01-01",
      "end_date": "1953-12-31"
    }
  ],
  "name": "Société anonyme « Det Ostasiatiske Kompagni (Est-Asiatique Danois)"
}