{
  "id": 74716,
  "names": [
    "M. Mollard"
  ],
  "functions": [
    {
      "issuer": {
        "id": 10466,
        "name": "CHAUX ET CIMENTS DE CHANAZ"
      },
      "job": {
        "id": 219,
        "name": "Administrateur"
      },
      "start_date": "1923-01-01",
      "end_date": "1923-12-31"
    },
    {
      "issuer": {
        "id": 10463,
        "name": "ETABLISSEMENTS H. CAROLL"
      },
      "job": {
        "id": 219,
        "name": "Administrateur"
      },
      "start_date": "1923-01-01",
      "end_date": "1923-12-31"
    }
  ],
  "name": "M. Mollard"
}