{
  "id": 115087,
  "names": [
    "Alais"
  ],
  "functions": [
    {
      "issuer": {
        "id": 4736,
        "name": "ENERGIE ELECTRIQUE DU MAROC"
      },
      "job": {
        "id": 219,
        "name": "Administrateur"
      },
      "start_date": "1948-01-01",
      "end_date": "1948-12-31"
    }
  ],
  "name": "Alais"
}