{
  "id": 63748,
  "names": [
    "Calligas"
  ],
  "functions": [
    {
      "issuer": {
        "id": 3249,
        "name": "Cie DES CHEMINS DE FER DE THESSALIE"
      },
      "job": {
        "id": 219,
        "name": "Administrateur"
      },
      "start_date": "1908-01-01",
      "end_date": "1908-12-31"
    },
    {
      "issuer": {
        "id": 3249,
        "name": "Cie DES CHEMINS DE FER DE THESSALIE"
      },
      "job": {
        "id": 219,
        "name": "Administrateur"
      },
      "start_date": "1912-01-01",
      "end_date": "1912-12-31"
    },
    {
      "issuer": {
        "id": 3249,
        "name": "Cie DES CHEMINS DE FER DE THESSALIE"
      },
      "job": {
        "id": 219,
        "name": "Administrateur"
      },
      "start_date": "1917-01-01",
      "end_date": "1917-12-31"
    }
  ],
  "name": "Calligas"
}