{
  "id": 114597,
  "names": [
    "R. J. Allwright Massie"
  ],
  "functions": [
    {
      "issuer": {
        "id": 4959,
        "name": "BRITISH-AMERICAN TOBACCO Cy Ltd"
      },
      "job": {
        "id": 219,
        "name": "Administrateur"
      },
      "start_date": "1948-01-01",
      "end_date": "1948-12-31"
    }
  ],
  "name": "R. J. Allwright Massie"
}