{
  "id": 122768,
  "names": [
    "Flouret"
  ],
  "functions": [
    {
      "issuer": {
        "id": 968,
        "name": "BANQUE DE L'ALGERIE"
      },
      "job": {
        "id": 106,
        "name": "Gouverneur",
        "short_name": "Gouv."
      },
      "start_date": "1953-01-01",
      "end_date": "1953-12-31"
    }
  ],
  "name": "Flouret"
}