{
  "id": 83919,
  "names": [
    "P. Rigot"
  ],
  "functions": [
    {
      "issuer": {
        "id": 5402,
        "name": "RAFFINERIE DE PETROLE DU NORD"
      },
      "job": {
        "id": 219,
        "name": "Administrateur"
      },
      "start_date": "1927-01-01",
      "end_date": "1933-12-31"
    }
  ],
  "name": "P. Rigot"
}