{
  "id": 76513,
  "names": [
    "Evaux"
  ],
  "functions": [
    {
      "issuer": {
        "id": 2690,
        "name": "CIE DES EAUX MINÉRALES DE LA BOURBOULE"
      },
      "job": {
        "id": 219,
        "name": "Administrateur"
      },
      "start_date": "1923-01-01",
      "end_date": "1923-12-31"
    }
  ],
  "name": "Evaux"
}