{
  "id": 112186,
  "names": [
    "E. Peigne"
  ],
  "functions": [
    {
      "issuer": {
        "id": 5341,
        "name": "SOCIÉTÉ FRANÇAISE DES ACIERIES DE BLANC-MISSERON"
      },
      "job": {
        "id": 219,
        "name": "Administrateur"
      },
      "start_date": "1948-01-01",
      "end_date": "1948-12-31"
    }
  ],
  "name": "E. Peigne"
}