{
  "id": 81959,
  "names": [
    "Octave Butin"
  ],
  "functions": [
    {
      "issuer": {
        "id": 4864,
        "name": "COMPAGNIE LINCRUSTA-WALTON FRANÇAISE ET LOREID RÉUNIS"
      },
      "job": {
        "id": 219,
        "name": "Administrateur"
      },
      "start_date": "1927-01-01",
      "end_date": "1927-12-31"
    }
  ],
  "name": "Octave Butin"
}