{
  "id": 81965,
  "names": [
    "J. Le Febvre"
  ],
  "functions": [
    {
      "issuer": {
        "id": 5168,
        "name": "Loonen (Etabl. Ch.)"
      },
      "job": {
        "id": 219,
        "name": "Administrateur"
      },
      "start_date": "1927-01-01",
      "end_date": "1927-12-31"
    }
  ],
  "name": "J. Le Febvre"
}