{
  "id": 50408,
  "names": [
    "Edouard Palmer"
  ],
  "functions": [
    {
      "issuer": {
        "id": 2432,
        "name": "SOCIETE GÉNÉRALE HONGROISE DE CHARBONNAGES"
      },
      "job": {
        "id": 219,
        "name": "Administrateur"
      },
      "start_date": "1903-01-01",
      "end_date": "1908-12-31"
    },
    {
      "issuer": {
        "id": 2433,
        "name": "Société des Charbonnages de Trifail"
      },
      "job": {
        "id": 117,
        "name": "Vice-Président",
        "short_name": "V.-Pr."
      },
      "start_date": "1908-01-01",
      "end_date": "1908-12-31"
    }
  ],
  "name": "Edouard Palmer"
}