{
  "id": 105522,
  "names": [
    "Anot de Maizière"
  ],
  "functions": [
    {
      "issuer": {
        "id": 4883,
        "name": "SOCIÉTÉ FINANCIERE ET INDUSTRIELLE DE CHEMINS DE FER"
      },
      "job": {
        "id": 219,
        "name": "Administrateur"
      },
      "start_date": "1945-01-01",
      "end_date": "1945-12-31"
    }
  ],
  "name": "Anot de Maizière"
}