{
  "id": 95339,
  "names": [
    "M. Dufour de la Thuillerie"
  ],
  "functions": [
    {
      "issuer": {
        "id": 4824,
        "name": "CHEMIN DE FER DE DAMAS-HAMAH ET PROLONGEMENTS (Anciennement SOCIÉTÉ OTTOMANE)"
      },
      "job": {
        "id": 10019,
        "name": "Commissaire des comptes"
      },
      "start_date": "1940-01-01",
      "end_date": "1940-12-31"
    },
    {
      "issuer": {
        "id": 3162,
        "name": "Société GÉNÉRALE DE MINES D'ALGÉRIE-TUNISIE (Omnium)"
      },
      "job": {
        "id": 10019,
        "name": "Commissaire des comptes"
      },
      "start_date": "1940-01-01",
      "end_date": "1945-12-31"
    },
    {
      "issuer": {
        "id": 4067,
        "name": "Cie DES PHOSPHATES DE CONSTANTINE"
      },
      "job": {
        "id": 10019,
        "name": "Commissaire des comptes"
      },
      "start_date": "1940-01-01",
      "end_date": "1945-12-31"
    }
  ],
  "name": "M. Dufour de la Thuillerie"
}