{
  "id": 124447,
  "names": [
    "Lebeaud"
  ],
  "functions": [
    {
      "issuer": {
        "id": 1738,
        "name": "Banque Francaise du Commerce"
      },
      "job": {
        "id": 219,
        "name": "Administrateur"
      },
      "start_date": "1880-01-01",
      "end_date": "1880-12-31"
    }
  ],
  "name": "Lebeaud"
}