{
  "id": 116953,
  "names": [
    "M. Cordo Boullosa"
  ],
  "functions": [
    {
      "issuer": {
        "id": 3659,
        "name": "OMNIUM FRANÇAIS DE PETROLES"
      },
      "job": {
        "id": 219,
        "name": "Administrateur"
      },
      "start_date": "1953-01-01",
      "end_date": "1953-12-31"
    }
  ],
  "name": "M. Cordo Boullosa"
}