{
  "id": 92014,
  "names": [
    "R. Ducas"
  ],
  "functions": [
    {
      "issuer": {
        "id": 2356,
        "name": "ÉTABLISSEMENTS HUTCHINSON (Compagnie Nationale du Caoutchouc)"
      },
      "job": {
        "id": 219,
        "name": "Administrateur"
      },
      "start_date": "1933-01-01",
      "end_date": "1933-12-31"
    },
    {
      "issuer": {
        "id": 2356,
        "name": "ÉTABLISSEMENTS HUTCHINSON (Compagnie Nationale du Caoutchouc)"
      },
      "job": {
        "id": 175,
        "name": "Membre"
      },
      "start_date": "1940-01-01",
      "end_date": "1940-12-31"
    },
    {
      "issuer": {
        "id": 2354,
        "name": "ETABLISSEMENTS BOGNIER ET BURNET"
      },
      "job": {
        "id": 219,
        "name": "Administrateur"
      },
      "start_date": "1940-01-01",
      "end_date": "1940-12-31"
    },
    {
      "issuer": {
        "id": 2356,
        "name": "ÉTABLISSEMENTS HUTCHINSON (Compagnie Nationale du Caoutchouc)"
      },
      "job": {
        "id": 219,
        "name": "Administrateur"
      },
      "start_date": "1945-01-01",
      "end_date": "1953-12-31"
    },
    {
      "issuer": {
        "id": 2354,
        "name": "ETABLISSEMENTS BOGNIER ET BURNET"
      },
      "job": {
        "id": 219,
        "name": "Administrateur"
      },
      "start_date": "1948-01-01",
      "end_date": "1953-12-31"
    }
  ],
  "name": "R. Ducas"
}