{
  "id": 95882,
  "names": [
    "E. W. Snell"
  ],
  "functions": [
    {
      "issuer": {
        "id": 2808,
        "name": "NEW KLEINFONTEIN COMPANY"
      },
      "job": {
        "id": 219,
        "name": "Administrateur"
      },
      "start_date": "1940-01-01",
      "end_date": "1953-12-31"
    }
  ],
  "name": "E. W. Snell"
}