{
  "id": 113699,
  "names": [
    "Ch. Messirel-Marquet"
  ],
  "functions": [
    {
      "issuer": {
        "id": 4712,
        "name": "Sté D'EXPLOITATION VERRIERE BEAUCE-BOURGOGNE"
      },
      "job": {
        "id": 219,
        "name": "Administrateur"
      },
      "start_date": "1948-01-01",
      "end_date": "1953-12-31"
    }
  ],
  "name": "Ch. Messirel-Marquet"
}