{
  "id": 53637,
  "names": [
    "P. Macedo"
  ],
  "functions": [
    {
      "issuer": {
        "id": 3223,
        "name": "EL BUEN TONO Compagnie manufacturière de cigarettes sans colle"
      },
      "job": {
        "id": 219,
        "name": "Administrateur"
      },
      "start_date": "1908-01-01",
      "end_date": "1908-12-31"
    },
    {
      "issuer": {
        "id": 1957,
        "name": "Banque Nationale du Mexique"
      },
      "job": {
        "id": 219,
        "name": "Administrateur"
      },
      "start_date": "1912-01-01",
      "end_date": "1912-12-31"
    },
    {
      "issuer": {
        "id": 3379,
        "name": "MEXICO TRAMWAYS COMPANY"
      },
      "job": {
        "id": 219,
        "name": "Administrateur"
      },
      "start_date": "1912-01-01",
      "end_date": "1912-12-31"
    },
    {
      "issuer": {
        "id": 3355,
        "name": "FERROCARRILES NACIONALES DE MEXICO (Chemins de fer Nationaux du Mexique)"
      },
      "job": {
        "id": 219,
        "name": "Administrateur"
      },
      "start_date": "1912-01-01",
      "end_date": "1912-12-31"
    },
    {
      "issuer": {
        "id": 3223,
        "name": "EL BUEN TONO Compagnie manufacturière de cigarettes sans colle"
      },
      "job": {
        "id": 219,
        "name": "Administrateur"
      },
      "start_date": "1912-01-01",
      "end_date": "1912-12-31"
    }
  ],
  "name": "P. Macedo"
}