{
  "id": 101807,
  "names": [
    "J. Yega Gonzalez"
  ],
  "functions": [
    {
      "issuer": {
        "id": 10023,
        "name": "Atlixco (Cie Industrielle d’)"
      },
      "job": {
        "id": 10019,
        "name": "Commissaire des comptes"
      },
      "start_date": "1940-01-01",
      "end_date": "1948-12-31"
    }
  ],
  "name": "J. Yega Gonzalez"
}