{
  "id": 106745,
  "names": [
    "Foudil"
  ],
  "functions": [
    {
      "issuer": {
        "id": 2516,
        "name": "CAISSE ALGÉRIENNE DE CREDIT AGRICOLE MUTUEL (Anciennement : Caisse de prêts de consolidation)"
      },
      "job": {
        "id": 219,
        "name": "Administrateur"
      },
      "start_date": "1945-01-01",
      "end_date": "1945-12-31"
    }
  ],
  "name": "Foudil"
}