{
  "id": 105095,
  "names": [
    "M. Quintanilla"
  ],
  "functions": [
    {
      "issuer": {
        "id": 11504,
        "name": "LE RÉSEAU NATIONAL DES CHEMINS DE FER ESPAGNOLS (RENFE)"
      },
      "job": {
        "id": 102,
        "name": "Président",
        "short_name": "P."
      },
      "start_date": "1945-01-01",
      "end_date": "1945-12-31"
    },
    {
      "issuer": {
        "id": 11504,
        "name": "LE RÉSEAU NATIONAL DES CHEMINS DE FER ESPAGNOLS (RENFE)"
      },
      "job": {
        "id": 10264,
        "name": "Président à Madrid"
      },
      "start_date": "1948-01-01",
      "end_date": "1948-12-31"
    },
    {
      "issuer": {
        "id": 11504,
        "name": "LE RÉSEAU NATIONAL DES CHEMINS DE FER ESPAGNOLS (RENFE)"
      },
      "job": {
        "id": 102,
        "name": "Président",
        "short_name": "P."
      },
      "start_date": "1953-01-01",
      "end_date": "1953-12-31"
    }
  ],
  "name": "M. Quintanilla"
}