{
  "id": 91976,
  "names": [
    "M. Bretignière"
  ],
  "functions": [
    {
      "issuer": {
        "id": 3915,
        "name": "SOCIETE DES PLANTATIONS D'ELIMA"
      },
      "job": {
        "id": 219,
        "name": "Administrateur"
      },
      "start_date": "1933-01-01",
      "end_date": "1933-12-31"
    },
    {
      "issuer": {
        "id": 3915,
        "name": "SOCIETE DES PLANTATIONS D'ELIMA"
      },
      "job": {
        "id": 102,
        "name": "Président",
        "short_name": "P."
      },
      "start_date": "1940-01-01",
      "end_date": "1940-12-31"
    }
  ],
  "name": "M. Bretignière"
}