{
  "id": 124331,
  "names": [
    "Ulveling"
  ],
  "functions": [
    {
      "issuer": {
        "id": 1511,
        "name": "Banque nationale du Grand-Duché de Luxembourg"
      },
      "job": {
        "id": 102,
        "name": "Président",
        "short_name": "P."
      },
      "start_date": "1880-01-01",
      "end_date": "1880-12-31"
    }
  ],
  "name": "Ulveling"
}