{
  "id": 108671,
  "names": [
    "P. Thorn"
  ],
  "functions": [
    {
      "issuer": {
        "id": 3465,
        "name": "SOCIETE DES ÉTABLISSEMENTS DEBRAY"
      },
      "job": {
        "id": 219,
        "name": "Administrateur"
      },
      "start_date": "1945-01-01",
      "end_date": "1953-12-31"
    }
  ],
  "name": "P. Thorn"
}