{
  "id": 92222,
  "names": [
    "S. d’Aigues-Vives"
  ],
  "functions": [
    {
      "issuer": {
        "id": 10664,
        "name": "SOCIÉTÉ ANONYME JETLAC (Anciens Établissements Noël et Cie)"
      },
      "job": {
        "id": 219,
        "name": "Administrateur"
      },
      "start_date": "1933-01-01",
      "end_date": "1933-12-31"
    }
  ],
  "name": "S. d’Aigues-Vives"
}