{
  "id": 92679,
  "names": [
    "Jacques Rouché"
  ],
  "functions": [
    {
      "issuer": {
        "id": 11014,
        "name": "PARFUMERIE L. T. PIVER"
      },
      "job": {
        "id": 102,
        "name": "Président",
        "short_name": "P."
      },
      "start_date": "1933-01-01",
      "end_date": "1933-12-31"
    },
    {
      "issuer": {
        "id": 11014,
        "name": "PARFUMERIE L. T. PIVER"
      },
      "job": {
        "id": 102,
        "name": "Président",
        "short_name": "P."
      },
      "start_date": "1940-01-01",
      "end_date": "1940-12-31"
    }
  ],
  "name": "Jacques Rouché"
}