{
  "id": 112940,
  "names": [
    "G. Chesnel"
  ],
  "functions": [
    {
      "issuer": {
        "id": 11534,
        "name": "LA PRECISION MECANIQUE"
      },
      "job": {
        "id": 219,
        "name": "Administrateur"
      },
      "start_date": "1948-01-01",
      "end_date": "1948-12-31"
    }
  ],
  "name": "G. Chesnel"
}