{
  "id": 100827,
  "names": [
    "J. Huré"
  ],
  "functions": [
    {
      "issuer": {
        "id": 4563,
        "name": "SOCIETE GENERALE DES HUILES DE PETROLE BP"
      },
      "job": {
        "id": 125,
        "name": "Administrateur Directeur",
        "short_name": "Ad. Dir."
      },
      "start_date": "1940-01-01",
      "end_date": "1940-12-31"
    },
    {
      "issuer": {
        "id": 4563,
        "name": "SOCIETE GENERALE DES HUILES DE PETROLE BP"
      },
      "job": {
        "id": 219,
        "name": "Administrateur"
      },
      "start_date": "1945-01-01",
      "end_date": "1945-12-31"
    },
    {
      "issuer": {
        "id": 4563,
        "name": "SOCIETE GENERALE DES HUILES DE PETROLE BP"
      },
      "job": {
        "id": 16226,
        "name": "Vice Président Directeur Général"
      },
      "start_date": "1948-01-01",
      "end_date": "1953-12-31"
    },
    {
      "issuer": {
        "id": 4372,
        "name": "LE MATERIEL TELEPHONIQUE"
      },
      "job": {
        "id": 219,
        "name": "Administrateur"
      },
      "start_date": "1953-01-01",
      "end_date": "1953-12-31"
    }
  ],
  "name": "J. Huré"
}