{
  "id": 98045,
  "names": [
    "Henri Armand"
  ],
  "functions": [
    {
      "issuer": {
        "id": 3762,
        "name": "DOMAINES DU KEROULIS"
      },
      "job": {
        "id": 10019,
        "name": "Commissaire des comptes"
      },
      "start_date": "1940-01-01",
      "end_date": "1940-12-31"
    },
    {
      "issuer": {
        "id": 3162,
        "name": "Société GÉNÉRALE DE MINES D'ALGÉRIE-TUNISIE (Omnium)"
      },
      "job": {
        "id": 10019,
        "name": "Commissaire des comptes"
      },
      "start_date": "1940-01-01",
      "end_date": "1945-12-31"
    },
    {
      "issuer": {
        "id": 3760,
        "name": "SOCIETE DU DOMAINE DU CHAPEAU DE GENDARME"
      },
      "job": {
        "id": 219,
        "name": "Administrateur"
      },
      "start_date": "1945-01-01",
      "end_date": "1948-12-31"
    },
    {
      "issuer": {
        "id": 3162,
        "name": "Société GÉNÉRALE DE MINES D'ALGÉRIE-TUNISIE (Omnium)"
      },
      "job": {
        "id": 10019,
        "name": "Commissaire des comptes"
      },
      "start_date": "1953-01-01",
      "end_date": "1953-12-31"
    },
    {
      "issuer": {
        "id": 3760,
        "name": "SOCIETE DU DOMAINE DU CHAPEAU DE GENDARME"
      },
      "job": {
        "id": 189,
        "name": "Président directeur général",
        "short_name": "P.D.G."
      },
      "start_date": "1953-01-01",
      "end_date": "1953-12-31"
    }
  ],
  "name": "Henri Armand"
}