{
  "id": 57645,
  "names": [
    "A. Evrard"
  ],
  "functions": [
    {
      "issuer": {
        "id": 3134,
        "name": "SOCIÉTÉ FRANCO-BELGE DE MATERIEL DE CHEMINS DE FER"
      },
      "job": {
        "id": 219,
        "name": "Administrateur"
      },
      "start_date": "1912-01-01",
      "end_date": "1923-12-31"
    },
    {
      "issuer": {
        "id": 10675,
        "name": "L'AUTODROME, PARC NATIONAL DES SPORTS"
      },
      "job": {
        "id": 219,
        "name": "Administrateur"
      },
      "start_date": "1927-01-01",
      "end_date": "1927-12-31"
    }
  ],
  "name": "A. Evrard"
}