{
  "id": 45661,
  "names": [
    "Alexandre Billotte"
  ],
  "functions": [
    {
      "issuer": {
        "id": 104,
        "name": "BANQUE DE FRANCE"
      },
      "job": {
        "id": 133,
        "name": "Secrétaire général"
      },
      "start_date": "1889-01-01",
      "end_date": "1898-12-31"
    }
  ],
  "name": "Alexandre Billotte"
}