{
  "id": 51411,
  "names": [
    "F. Flotard"
  ],
  "functions": [
    {
      "issuer": {
        "id": 615,
        "name": "Sté DES HOUILLÈRES DE MONTRAMBERT ET DE LA BERAUDIÈRE"
      },
      "job": {
        "id": 219,
        "name": "Administrateur"
      },
      "start_date": "1908-01-01",
      "end_date": "1908-12-31"
    }
  ],
  "name": "F. Flotard"
}