{
  "id": 92100,
  "names": [
    "P. Jacquy"
  ],
  "functions": [
    {
      "issuer": {
        "id": 3861,
        "name": "COMPAGNIE PASTORALE AFRICAINE"
      },
      "job": {
        "id": 102,
        "name": "Président",
        "short_name": "P."
      },
      "start_date": "1933-01-01",
      "end_date": "1933-12-31"
    }
  ],
  "name": "P. Jacquy"
}