{
  "id": 108938,
  "names": [
    "B. Bitz"
  ],
  "functions": [
    {
      "issuer": {
        "id": 5305,
        "name": "BRASSERIE ET MALTERIE DU FORT-CARRE"
      },
      "job": {
        "id": 219,
        "name": "Administrateur"
      },
      "start_date": "1945-01-01",
      "end_date": "1948-12-31"
    }
  ],
  "name": "B. Bitz"
}