{
  "id": 112907,
  "names": [
    "M. Brulant"
  ],
  "functions": [
    {
      "issuer": {
        "id": 4149,
        "name": "ATELIERS G. S. P. (Guillemin, Sergot et Pegard)"
      },
      "job": {
        "id": 219,
        "name": "Administrateur"
      },
      "start_date": "1948-01-01",
      "end_date": "1953-12-31"
    }
  ],
  "name": "M. Brulant"
}