{
  "id": 52049,
  "names": [
    "Ch. Kennerley-Hall"
  ],
  "functions": [
    {
      "issuer": {
        "id": 717,
        "name": "Compagnie du Parc de Bercy"
      },
      "job": {
        "id": 219,
        "name": "Administrateur"
      },
      "start_date": "1908-01-01",
      "end_date": "1908-12-31"
    },
    {
      "issuer": {
        "id": 717,
        "name": "Compagnie du Parc de Bercy"
      },
      "job": {
        "id": 219,
        "name": "Administrateur"
      },
      "start_date": "1917-01-01",
      "end_date": "1933-12-31"
    },
    {
      "issuer": {
        "id": 717,
        "name": "Compagnie du Parc de Bercy"
      },
      "job": {
        "id": 102,
        "name": "Président",
        "short_name": "P."
      },
      "start_date": "1940-01-01",
      "end_date": "1940-12-31"
    }
  ],
  "name": "Ch. Kennerley-Hall"
}