{
  "id": 96743,
  "names": [
    "Lebert"
  ],
  "functions": [
    {
      "issuer": {
        "id": 4158,
        "name": "ÉTABLISSETS CAREL, FOUCHÉ ET Cie"
      },
      "job": {
        "id": 10626,
        "name": "Membre de Comité de Direction"
      },
      "start_date": "1940-01-01",
      "end_date": "1940-12-31"
    }
  ],
  "name": "Lebert"
}