{
  "id": 103722,
  "names": [
    "H. de Palluel"
  ],
  "functions": [
    {
      "issuer": {
        "id": 4249,
        "name": "SOCIÉTÉ IMMOBILIÈRE ET HOTELIERE DE BAGNOLES-DE-L'ORNE"
      },
      "job": {
        "id": 219,
        "name": "Administrateur"
      },
      "start_date": "1940-01-01",
      "end_date": "1953-12-31"
    }
  ],
  "name": "H. de Palluel"
}