{
  "id": 51778,
  "names": [
    "G. Grioiet"
  ],
  "functions": [
    {
      "issuer": {
        "id": 493,
        "name": "Compagnie du Chemin de fer du NORD"
      },
      "job": {
        "id": 117,
        "name": "Vice-Président",
        "short_name": "V.-Pr."
      },
      "start_date": "1908-01-01",
      "end_date": "1908-12-31"
    }
  ],
  "name": "G. Grioiet"
}