{
  "id": 112472,
  "names": [
    "L. de Bernis"
  ],
  "functions": [
    {
      "issuer": {
        "id": 3582,
        "name": "SOCIETE POUR LE TRAVAIL ELECTRIQUE DES METAUX (T.E.M.)"
      },
      "job": {
        "id": 219,
        "name": "Administrateur"
      },
      "start_date": "1948-01-01",
      "end_date": "1953-12-31"
    }
  ],
  "name": "L. de Bernis"
}