{
  "id": 72708,
  "names": [
    "Cornez"
  ],
  "functions": [
    {
      "issuer": {
        "id": 2598,
        "name": "CIE GÉNÉRALE DES CHEMINS DE FER VICINAUX"
      },
      "job": {
        "id": 219,
        "name": "Administrateur"
      },
      "start_date": "1923-01-01",
      "end_date": "1923-12-31"
    },
    {
      "issuer": {
        "id": 2598,
        "name": "CIE GÉNÉRALE DES CHEMINS DE FER VICINAUX"
      },
      "job": {
        "id": 219,
        "name": "Administrateur"
      },
      "start_date": "1933-01-01",
      "end_date": "1933-12-31"
    }
  ],
  "name": "Cornez"
}