{
  "id": 63393,
  "names": [
    "H. P. Pulman"
  ],
  "functions": [
    {
      "issuer": {
        "id": 3409,
        "name": "Oriental Carpet Manufactures Ltd."
      },
      "job": {
        "id": 219,
        "name": "Administrateur"
      },
      "start_date": "1917-01-01",
      "end_date": "1923-12-31"
    }
  ],
  "name": "H. P. Pulman"
}