{
  "id": 46442,
  "names": [
    "Riboud"
  ],
  "functions": [
    {
      "issuer": {
        "id": 615,
        "name": "Sté DES HOUILLÈRES DE MONTRAMBERT ET DE LA BERAUDIÈRE"
      },
      "job": {
        "id": 219,
        "name": "Administrateur"
      },
      "start_date": "1893-01-01",
      "end_date": "1933-12-31"
    },
    {
      "issuer": {
        "id": 3058,
        "name": "SOCIÉTÉ FRANCO-RUSSE DES HOUILLERES DE BERESTOW-KRINKA"
      },
      "job": {
        "id": 219,
        "name": "Administrateur"
      },
      "start_date": "1912-01-01",
      "end_date": "1927-12-31"
    }
  ],
  "name": "Riboud"
}