{
  "id": 99580,
  "names": [
    "G. Binard"
  ],
  "functions": [
    {
      "issuer": {
        "id": 3227,
        "name": "CAISSE HYPOTHÉCAIRE D'EGYPTE"
      },
      "job": {
        "id": 10019,
        "name": "Commissaire des comptes"
      },
      "start_date": "1940-01-01",
      "end_date": "1953-12-31"
    }
  ],
  "name": "G. Binard"
}