{
  "id": 74736,
  "names": [
    "P. Solente"
  ],
  "functions": [
    {
      "issuer": {
        "id": 2330,
        "name": "SOCIÉTÉ DES CIMENTS FRANÇAIS et des Portland de Boulogne-sur-Mer et Cie des Portland de Desvres"
      },
      "job": {
        "id": 219,
        "name": "Administrateur"
      },
      "start_date": "1923-01-01",
      "end_date": "1933-12-31"
    },
    {
      "issuer": {
        "id": 2330,
        "name": "SOCIÉTÉ DES CIMENTS FRANÇAIS et des Portland de Boulogne-sur-Mer et Cie des Portland de Desvres"
      },
      "job": {
        "id": 219,
        "name": "Administrateur"
      },
      "start_date": "1940-01-01",
      "end_date": "1940-12-31"
    }
  ],
  "name": "P. Solente"
}