{
  "id": 90063,
  "names": [
    "P. Eliot"
  ],
  "functions": [
    {
      "issuer": {
        "id": 4939,
        "name": "ETABLISSEMENTS ZIEGLER"
      },
      "job": {
        "id": 219,
        "name": "Administrateur"
      },
      "start_date": "1933-01-01",
      "end_date": "1933-12-31"
    },
    {
      "issuer": {
        "id": 4939,
        "name": "ETABLISSEMENTS ZIEGLER"
      },
      "job": {
        "id": 219,
        "name": "Administrateur"
      },
      "start_date": "1940-01-01",
      "end_date": "1945-12-31"
    }
  ],
  "name": "P. Eliot"
}