{
  "id": 42962,
  "names": [
    "Casati-Brochier"
  ],
  "functions": [
    {
      "issuer": {
        "id": 1627,
        "name": "Compagnie des Bateaux-Omnibus"
      },
      "job": {
        "id": 219,
        "name": "Administrateur"
      },
      "start_date": "1880-01-01",
      "end_date": "1880-12-31"
    },
    {
      "issuer": {
        "id": 1627,
        "name": "Compagnie des Bateaux-Omnibus"
      },
      "job": {
        "id": 219,
        "name": "Administrateur"
      },
      "start_date": "1883-01-01",
      "end_date": "1883-12-31"
    },
    {
      "issuer": {
        "id": 2947,
        "name": "Compagnie générale des Bateaux Parisiens"
      },
      "job": {
        "id": 219,
        "name": "Administrateur"
      },
      "start_date": "1889-01-01",
      "end_date": "1889-12-31"
    }
  ],
  "name": "Casati-Brochier"
}