{
  "id": 50299,
  "names": [
    "P. Cabaud"
  ],
  "functions": [
    {
      "issuer": {
        "id": 3124,
        "name": "Compagnie des Fonderies et Forges d'Alais"
      },
      "job": {
        "id": 219,
        "name": "Administrateur"
      },
      "start_date": "1903-01-01",
      "end_date": "1903-12-31"
    },
    {
      "issuer": {
        "id": 4092,
        "name": "GENERALE DE TRAVAUX CINEMATOGRAPHIQUES"
      },
      "job": {
        "id": 219,
        "name": "Administrateur"
      },
      "start_date": "1953-01-01",
      "end_date": "1953-12-31"
    },
    {
      "issuer": {
        "id": 4097,
        "name": "PATHE-CONSORTIUM-CINÉMA"
      },
      "job": {
        "id": 219,
        "name": "Administrateur"
      },
      "start_date": "1953-01-01",
      "end_date": "1953-12-31"
    }
  ],
  "name": "P. Cabaud"
}