{
  "id": 79862,
  "names": [
    "Minotte"
  ],
  "functions": [
    {
      "issuer": {
        "id": 2507,
        "name": "Société anonyme des Aciéries de France"
      },
      "job": {
        "id": 219,
        "name": "Administrateur"
      },
      "start_date": "1927-01-01",
      "end_date": "1933-12-31"
    },
    {
      "issuer": {
        "id": 2923,
        "name": "Compagnie française des Métaux"
      },
      "job": {
        "id": 10019,
        "name": "Commissaire des comptes"
      },
      "start_date": "1953-01-01",
      "end_date": "1953-12-31"
    }
  ],
  "name": "Minotte"
}