{
  "id": 116241,
  "names": [
    "M. Thibault"
  ],
  "functions": [
    {
      "issuer": {
        "id": 3495,
        "name": "CHARBONNAGES DE FRANCE ET HOUILLERES DE BASSIN"
      },
      "job": {
        "id": 134,
        "name": "Sous Directeur Général"
      },
      "start_date": "1953-01-01",
      "end_date": "1953-12-31"
    }
  ],
  "name": "M. Thibault"
}