{
  "id": 99895,
  "names": [
    "Gaessler"
  ],
  "functions": [
    {
      "issuer": {
        "id": 5130,
        "name": "SOCIÉTÉ LORRAINE MINIÈRE ET METALLURGIQUE"
      },
      "job": {
        "id": 10019,
        "name": "Commissaire des comptes"
      },
      "start_date": "1940-01-01",
      "end_date": "1940-12-31"
    },
    {
      "issuer": {
        "id": 4308,
        "name": "AUX TROIS QUARTIERS"
      },
      "job": {
        "id": 10258,
        "name": "Suppléant"
      },
      "start_date": "1945-01-01",
      "end_date": "1948-12-31"
    },
    {
      "issuer": {
        "id": 4641,
        "name": "POTASSE ET ENGRAIS CHIMIQUES"
      },
      "job": {
        "id": 10019,
        "name": "Commissaire des comptes"
      },
      "start_date": "1945-01-01",
      "end_date": "1953-12-31"
    }
  ],
  "name": "Gaessler"
}