{
  "id": 107334,
  "names": [
    "D. Raty"
  ],
  "functions": [
    {
      "issuer": {
        "id": 5130,
        "name": "SOCIÉTÉ LORRAINE MINIÈRE ET METALLURGIQUE"
      },
      "job": {
        "id": 219,
        "name": "Administrateur"
      },
      "start_date": "1945-01-01",
      "end_date": "1945-12-31"
    },
    {
      "issuer": {
        "id": 2907,
        "name": "Société des Aciéries de Longwy"
      },
      "job": {
        "id": 219,
        "name": "Administrateur"
      },
      "start_date": "1948-01-01",
      "end_date": "1953-12-31"
    },
    {
      "issuer": {
        "id": 4475,
        "name": "LONGOMETAL-AFRIQUE"
      },
      "job": {
        "id": 219,
        "name": "Administrateur"
      },
      "start_date": "1953-01-01",
      "end_date": "1953-12-31"
    },
    {
      "issuer": {
        "id": 2760,
        "name": "SOCIETE DES HAUTS FOURNEAUX DE SAULNES (Jean Raty et Cie)"
      },
      "job": {
        "id": 10637,
        "name": "Membre du Comité de surveillance"
      },
      "start_date": "1953-01-01",
      "end_date": "1953-12-31"
    }
  ],
  "name": "D. Raty"
}