{
  "id": 74665,
  "names": [
    "O. Vinant"
  ],
  "functions": [
    {
      "issuer": {
        "id": 4631,
        "name": "PRODUITS DU \"LION NOIR\" (Établissements Fernand George)"
      },
      "job": {
        "id": 219,
        "name": "Administrateur"
      },
      "start_date": "1923-01-01",
      "end_date": "1923-12-31"
    }
  ],
  "name": "O. Vinant"
}