{
  "id": 80305,
  "names": [
    "Lenormand"
  ],
  "functions": [
    {
      "issuer": {
        "id": 2982,
        "name": "CARRIÈRES ET SCIERIES DE BOURGOGNE (FÈVRE et Cie)"
      },
      "job": {
        "id": 219,
        "name": "Administrateur"
      },
      "start_date": "1927-01-01",
      "end_date": "1933-12-31"
    }
  ],
  "name": "Lenormand"
}