{
  "id": 46444,
  "names": [
    "Lucien Souchon"
  ],
  "functions": [
    {
      "issuer": {
        "id": 613,
        "name": "SOCIÉTÉ DES HOUILLÈRES DE SAINT-ÉTIENNE"
      },
      "job": {
        "id": 219,
        "name": "Administrateur"
      },
      "start_date": "1893-01-01",
      "end_date": "1903-12-31"
    }
  ],
  "name": "Lucien Souchon"
}