{
  "id": 107395,
  "names": [
    "L. Salanson"
  ],
  "functions": [
    {
      "issuer": {
        "id": 4468,
        "name": "LORRAINE (Société Lorraine des Anciens Etablissements De DIÉTRICH et Cie"
      },
      "job": {
        "id": 117,
        "name": "Vice-Président",
        "short_name": "V.-Pr."
      },
      "start_date": "1945-01-01",
      "end_date": "1953-12-31"
    }
  ],
  "name": "L. Salanson"
}