{
  "id": 78313,
  "names": [
    "R. Desouches"
  ],
  "functions": [
    {
      "issuer": {
        "id": 10549,
        "name": "ÉTABLISSEMENTS DESOUCHES, DAVID ET CIE"
      },
      "job": {
        "id": 219,
        "name": "Administrateur"
      },
      "start_date": "1923-01-01",
      "end_date": "1933-12-31"
    },
    {
      "issuer": {
        "id": 4143,
        "name": "ETABLISSEMENTS CHARLES TESTUT"
      },
      "job": {
        "id": 219,
        "name": "Administrateur"
      },
      "start_date": "1927-01-01",
      "end_date": "1933-12-31"
    }
  ],
  "name": "R. Desouches"
}