{
  "id": 55410,
  "names": [
    "B. S. Guiness"
  ],
  "functions": [
    {
      "issuer": {
        "id": 3393,
        "name": "Philadelphia Company"
      },
      "job": {
        "id": 219,
        "name": "Administrateur"
      },
      "start_date": "1912-01-01",
      "end_date": "1912-12-31"
    }
  ],
  "name": "B. S. Guiness"
}