{
  "id": 84631,
  "names": [
    "Saint-Léon"
  ],
  "functions": [
    {
      "issuer": {
        "id": 10882,
        "name": "Etablissements Léon Volterra"
      },
      "job": {
        "id": 12422,
        "name": "Membre de la Commission de surveillance"
      },
      "start_date": "1933-01-01",
      "end_date": "1933-12-31"
    }
  ],
  "name": "Saint-Léon"
}