{
  "id": 107840,
  "names": [
    "Warnier de Wailly"
  ],
  "functions": [
    {
      "issuer": {
        "id": 3282,
        "name": "GROUPEMENT DE L'ELECTRICiTE"
      },
      "job": {
        "id": 219,
        "name": "Administrateur"
      },
      "start_date": "1945-01-01",
      "end_date": "1945-12-31"
    }
  ],
  "name": "Warnier de Wailly"
}