{
  "id": 56660,
  "names": [
    "A. Sèbe"
  ],
  "functions": [
    {
      "issuer": {
        "id": 2854,
        "name": "COMPAGNIE MINIERE DU DJENDLI"
      },
      "job": {
        "id": 219,
        "name": "Administrateur"
      },
      "start_date": "1912-01-01",
      "end_date": "1927-12-31"
    }
  ],
  "name": "A. Sèbe"
}