{
  "id": 51054,
  "names": [
    "Cornu"
  ],
  "functions": [
    {
      "issuer": {
        "id": 3074,
        "name": "Omnium Lyonnais de Chemins de fer et Tramways"
      },
      "job": {
        "id": 10019,
        "name": "Commissaire des comptes"
      },
      "start_date": "1903-01-01",
      "end_date": "1908-12-31"
    },
    {
      "issuer": {
        "id": 3421,
        "name": "L'ENERGIE INDUSTRIELLE"
      },
      "job": {
        "id": 10019,
        "name": "Commissaire des comptes"
      },
      "start_date": "1940-01-01",
      "end_date": "1940-12-31"
    }
  ],
  "name": "Cornu"
}