{
  "id": 50802,
  "names": [
    "Louis Chenut"
  ],
  "functions": [
    {
      "issuer": {
        "id": 3253,
        "name": "COMPAGNIE DU CHEMIN DE FER OTTOMAN JONCTION SALONIQUE-CONSTANTINOPLE"
      },
      "job": {
        "id": 12022,
        "name": "Administrateur à Constantinople"
      },
      "start_date": "1903-01-01",
      "end_date": "1903-12-31"
    }
  ],
  "name": "Louis Chenut"
}