{
  "id": 92840,
  "names": [
    "Pedro de Gusmao"
  ],
  "functions": [
    {
      "issuer": {
        "id": 4937,
        "name": "COMPANHIA PORTUGUESA DE TABACOS (Compagnie Portugaise de Tabacs)"
      },
      "job": {
        "id": 219,
        "name": "Administrateur"
      },
      "start_date": "1933-01-01",
      "end_date": "1933-12-31"
    }
  ],
  "name": "Pedro de Gusmao"
}