{
  "id": 92032,
  "names": [
    "A. Mathias"
  ],
  "functions": [
    {
      "issuer": {
        "id": 11022,
        "name": "COMPAGNIE NOUVELLE DU KOUANGO FRANÇAIS"
      },
      "job": {
        "id": 219,
        "name": "Administrateur"
      },
      "start_date": "1933-01-01",
      "end_date": "1933-12-31"
    }
  ],
  "name": "A. Mathias"
}