{
  "id": 111866,
  "names": [
    "Louis le Bourblanc"
  ],
  "functions": [
    {
      "issuer": {
        "id": 10216,
        "name": "COROCORO UNITED COPPER MINES LIMITED"
      },
      "job": {
        "id": 219,
        "name": "Administrateur"
      },
      "start_date": "1948-01-01",
      "end_date": "1948-12-31"
    }
  ],
  "name": "Louis le Bourblanc"
}