{
  "id": 44618,
  "names": [
    "Dumba"
  ],
  "functions": [
    {
      "issuer": {
        "id": 1804,
        "name": "BANQUE IMPÉRIALE ROYALE PRIVILÉGIÉE DES PAYS AUTRICHIENS"
      },
      "job": {
        "id": 219,
        "name": "Administrateur"
      },
      "start_date": "1889-01-01",
      "end_date": "1889-12-31"
    },
    {
      "issuer": {
        "id": 1804,
        "name": "BANQUE IMPÉRIALE ROYALE PRIVILÉGIÉE DES PAYS AUTRICHIENS"
      },
      "job": {
        "id": 219,
        "name": "Administrateur"
      },
      "start_date": "1893-01-01",
      "end_date": "1898-12-31"
    },
    {
      "issuer": {
        "id": 2392,
        "name": "Banque de Crédit foncier central d'Autriche"
      },
      "job": {
        "id": 219,
        "name": "Administrateur"
      },
      "start_date": "1903-01-01",
      "end_date": "1903-12-31"
    }
  ],
  "name": "Dumba"
}