{
  "id": 72472,
  "names": [
    "L. Gaboriaud"
  ],
  "functions": [
    {
      "issuer": {
        "id": 3767,
        "name": "COMPAGNIE FORESTIERE SANGHA-OUBANGUI"
      },
      "job": {
        "id": 219,
        "name": "Administrateur"
      },
      "start_date": "1923-01-01",
      "end_date": "1923-12-31"
    }
  ],
  "name": "L. Gaboriaud"
}