{
  "id": 70663,
  "names": [
    "G. Sela"
  ],
  "functions": [
    {
      "issuer": {
        "id": 2962,
        "name": "UNION ESPAGNOLE DES EXPLOSIFS"
      },
      "job": {
        "id": 219,
        "name": "Administrateur"
      },
      "start_date": "1917-01-01",
      "end_date": "1917-12-31"
    },
    {
      "issuer": {
        "id": 2962,
        "name": "UNION ESPAGNOLE DES EXPLOSIFS"
      },
      "job": {
        "id": 219,
        "name": "Administrateur"
      },
      "start_date": "1927-01-01",
      "end_date": "1927-12-31"
    },
    {
      "issuer": {
        "id": 2962,
        "name": "UNION ESPAGNOLE DES EXPLOSIFS"
      },
      "job": {
        "id": 219,
        "name": "Administrateur"
      },
      "start_date": "1933-01-01",
      "end_date": "1933-12-31"
    },
    {
      "issuer": {
        "id": 2962,
        "name": "UNION ESPAGNOLE DES EXPLOSIFS"
      },
      "job": {
        "id": 219,
        "name": "Administrateur"
      },
      "start_date": "1940-01-01",
      "end_date": "1945-12-31"
    }
  ],
  "name": "G. Sela"
}