{
  "id": 54444,
  "names": [
    "P. de la Ville Le Roux"
  ],
  "functions": [
    {
      "issuer": {
        "id": 2900,
        "name": "Compagnie du tramway à vapeur de Paris à Saint-Germain"
      },
      "job": {
        "id": 219,
        "name": "Administrateur"
      },
      "start_date": "1903-01-01",
      "end_date": "1908-12-31"
    },
    {
      "issuer": {
        "id": 10065,
        "name": "SOCIETE ANONYME DES MINES DE CZELADZ"
      },
      "job": {
        "id": 219,
        "name": "Administrateur"
      },
      "start_date": "1912-01-01",
      "end_date": "1912-12-31"
    },
    {
      "issuer": {
        "id": 2283,
        "name": "Le Nickel"
      },
      "job": {
        "id": 219,
        "name": "Administrateur"
      },
      "start_date": "1917-01-01",
      "end_date": "1927-12-31"
    },
    {
      "issuer": {
        "id": 10065,
        "name": "SOCIETE ANONYME DES MINES DE CZELADZ"
      },
      "job": {
        "id": 219,
        "name": "Administrateur"
      },
      "start_date": "1917-01-01",
      "end_date": "1933-12-31"
    },
    {
      "issuer": {
        "id": 2358,
        "name": "CIE FSE DES AUTOMOBILES DE PLACE"
      },
      "job": {
        "id": 219,
        "name": "Administrateur"
      },
      "start_date": "1917-01-01",
      "end_date": "1933-12-31"
    },
    {
      "issuer": {
        "id": 3149,
        "name": "LOUVROIL ET RECOUIGNIES Société française pour la fabrication des tubes et emboutis)"
      },
      "job": {
        "id": 219,
        "name": "Administrateur"
      },
      "start_date": "1923-01-01",
      "end_date": "1923-12-31"
    },
    {
      "issuer": {
        "id": 2695,
        "name": "Cie PARISIENNE DE DISTRIBUTION D'ÉLECTRICITÉ"
      },
      "job": {
        "id": 219,
        "name": "Administrateur"
      },
      "start_date": "1923-01-01",
      "end_date": "1933-12-31"
    },
    {
      "issuer": {
        "id": 3149,
        "name": "LOUVROIL ET RECOUIGNIES Société française pour la fabrication des tubes et emboutis)"
      },
      "job": {
        "id": 219,
        "name": "Administrateur"
      },
      "start_date": "1927-01-01",
      "end_date": "1927-12-31"
    },
    {
      "issuer": {
        "id": 637,
        "name": "Compagnie des Mines de la Grand'Combe"
      },
      "job": {
        "id": 219,
        "name": "Administrateur"
      },
      "start_date": "1927-01-01",
      "end_date": "1933-12-31"
    },
    {
      "issuer": {
        "id": 5087,
        "name": "DISTRIBUTION D'ELECTRICITE DE L'OUEST"
      },
      "job": {
        "id": 219,
        "name": "Administrateur"
      },
      "start_date": "1927-01-01",
      "end_date": "1933-12-31"
    },
    {
      "issuer": {
        "id": 10498,
        "name": "COMPAGNIE DES MINES DE HOUILLE DE MARLES"
      },
      "job": {
        "id": 219,
        "name": "Administrateur"
      },
      "start_date": "1927-01-01",
      "end_date": "1933-12-31"
    },
    {
      "issuer": {
        "id": 3149,
        "name": "LOUVROIL ET RECOUIGNIES Société française pour la fabrication des tubes et emboutis)"
      },
      "job": {
        "id": 117,
        "name": "Vice-Président",
        "short_name": "V.-Pr."
      },
      "start_date": "1933-01-01",
      "end_date": "1933-12-31"
    },
    {
      "issuer": {
        "id": 5194,
        "name": "LE CENTRE ELECTRIQUE"
      },
      "job": {
        "id": 219,
        "name": "Administrateur"
      },
      "start_date": "1933-01-01",
      "end_date": "1933-12-31"
    }
  ],
  "name": "P. de la Ville Le Roux"
}