{
  "id": 90523,
  "names": [
    "C. Ch. Paulogiorgis"
  ],
  "functions": [
    {
      "issuer": {
        "id": 2716,
        "name": "COMPAGNIE HELLÉNIQUE D'ÉLECTRICITÉ (Système Thomson-Houston)"
      },
      "job": {
        "id": 117,
        "name": "Vice-Président",
        "short_name": "V.-Pr."
      },
      "start_date": "1933-01-01",
      "end_date": "1933-12-31"
    }
  ],
  "name": "C. Ch. Paulogiorgis"
}