{
  "id": 99143,
  "names": [
    "M. Froissart"
  ],
  "functions": [
    {
      "issuer": {
        "id": 5436,
        "name": "SOCIÉTÉ DE CONSTRUCTION MÉCANIQUE DE VIERZON (Anciens Etablissements BROUHOT et Cie)"
      },
      "job": {
        "id": 219,
        "name": "Administrateur"
      },
      "start_date": "1940-01-01",
      "end_date": "1945-12-31"
    }
  ],
  "name": "M. Froissart"
}