{
  "id": 93178,
  "names": [
    "S. Tapon"
  ],
  "functions": [
    {
      "issuer": {
        "id": 3195,
        "name": "SOCIETE DES BISCUITS OLIBET"
      },
      "job": {
        "id": 102,
        "name": "Président",
        "short_name": "P."
      },
      "start_date": "1933-01-01",
      "end_date": "1933-12-31"
    }
  ],
  "name": "S. Tapon"
}