{
  "id": 48573,
  "names": [
    "A. de Kowanko"
  ],
  "functions": [
    {
      "issuer": {
        "id": 3183,
        "name": "Société franco-russe de Produits chimiques et d'explosifs (Etablissements de Kowanko-Barbier)"
      },
      "job": {
        "id": 219,
        "name": "Administrateur"
      },
      "start_date": "1898-01-01",
      "end_date": "1912-12-31"
    }
  ],
  "name": "A. de Kowanko"
}