{
  "id": 124686,
  "names": [
    "Th. Cave"
  ],
  "functions": [
    {
      "issuer": {
        "id": 2532,
        "name": "Compagnie nationale des canaux agricoles"
      },
      "job": {
        "id": 219,
        "name": "Administrateur"
      },
      "start_date": "1880-01-01",
      "end_date": "1880-12-31"
    }
  ],
  "name": "Th. Cave"
}