{
  "id": 57696,
  "names": [
    "Bouillat Kolb-Bernard"
  ],
  "functions": [
    {
      "issuer": {
        "id": 3139,
        "name": "SOCIÉTÉ GÉNÉRALE DE HAUTS FOURNEAUX, FORGES ET ACIÉRIES EN RUSSIE"
      },
      "job": {
        "id": 219,
        "name": "Administrateur"
      },
      "start_date": "1912-01-01",
      "end_date": "1912-12-31"
    }
  ],
  "name": "Bouillat Kolb-Bernard"
}