{
  "id": 77989,
  "names": [
    "P. Carapanos"
  ],
  "functions": [
    {
      "issuer": {
        "id": 2391,
        "name": "BANQUE D'ATHENES"
      },
      "job": {
        "id": 219,
        "name": "Administrateur"
      },
      "start_date": "1923-01-01",
      "end_date": "1927-12-31"
    }
  ],
  "name": "P. Carapanos"
}