{
  "id": 101957,
  "names": [
    "Emile Dollfus"
  ],
  "functions": [
    {
      "issuer": {
        "id": 4562,
        "name": "PECHELBRONN (Société anonyme d'Exploitations minières)"
      },
      "job": {
        "id": 219,
        "name": "Administrateur"
      },
      "start_date": "1927-01-01",
      "end_date": "1927-12-31"
    },
    {
      "issuer": {
        "id": 1412,
        "name": "BANQUE DE MULHOUSE"
      },
      "job": {
        "id": 10626,
        "name": "Membre de Comité de Direction"
      },
      "start_date": "1927-01-01",
      "end_date": "1927-12-31"
    },
    {
      "issuer": {
        "id": 4756,
        "name": "DOLLFUS-MIEG ET CIE"
      },
      "job": {
        "id": 219,
        "name": "Administrateur"
      },
      "start_date": "1927-01-01",
      "end_date": "1927-12-31"
    },
    {
      "issuer": {
        "id": 1296,
        "name": "HOUILLERES DE RONCHAMP"
      },
      "job": {
        "id": 219,
        "name": "Administrateur"
      },
      "start_date": "1933-01-01",
      "end_date": "1933-12-31"
    },
    {
      "issuer": {
        "id": 4756,
        "name": "DOLLFUS-MIEG ET CIE"
      },
      "job": {
        "id": 117,
        "name": "Vice-Président",
        "short_name": "V.-Pr."
      },
      "start_date": "1933-01-01",
      "end_date": "1933-12-31"
    },
    {
      "issuer": {
        "id": 4562,
        "name": "PECHELBRONN (Société anonyme d'Exploitations minières)"
      },
      "job": {
        "id": 109,
        "name": "Minister of the Interior"
      },
      "start_date": "1933-01-01",
      "end_date": "1933-12-31"
    },
    {
      "issuer": {
        "id": 1776,
        "name": "Société Générale Alsacienne de Banque"
      },
      "job": {
        "id": 219,
        "name": "Administrateur"
      },
      "start_date": "1933-01-01",
      "end_date": "1933-12-31"
    },
    {
      "issuer": {
        "id": 4101,
        "name": "SOCIÉTÉ ALSACIENNE DE CONSTRUCTIONS MECANIQUES"
      },
      "job": {
        "id": 102,
        "name": "Président",
        "short_name": "P."
      },
      "start_date": "1933-01-01",
      "end_date": "1933-12-31"
    },
    {
      "issuer": {
        "id": 4363,
        "name": "SOCIETE GENERALE DE CONSTRUCTIONS ELECTRIQUES ET MECANIQUES (ALSTHOM)"
      },
      "job": {
        "id": 219,
        "name": "Administrateur"
      },
      "start_date": "1940-01-01",
      "end_date": "1940-12-31"
    },
    {
      "issuer": {
        "id": 4101,
        "name": "SOCIÉTÉ ALSACIENNE DE CONSTRUCTIONS MECANIQUES"
      },
      "job": {
        "id": 102,
        "name": "Président",
        "short_name": "P."
      },
      "start_date": "1940-01-01",
      "end_date": "1940-12-31"
    },
    {
      "issuer": {
        "id": 11457,
        "name": "SOCIETE ALSACIENNE DES CARBURANTS"
      },
      "job": {
        "id": 219,
        "name": "Administrateur"
      },
      "start_date": "1940-01-01",
      "end_date": "1940-12-31"
    },
    {
      "issuer": {
        "id": 4562,
        "name": "PECHELBRONN (Société anonyme d'Exploitations minières)"
      },
      "job": {
        "id": 102,
        "name": "Président",
        "short_name": "P."
      },
      "start_date": "1940-01-01",
      "end_date": "1940-12-31"
    },
    {
      "issuer": {
        "id": 4756,
        "name": "DOLLFUS-MIEG ET CIE"
      },
      "job": {
        "id": 102,
        "name": "Président",
        "short_name": "P."
      },
      "start_date": "1940-01-01",
      "end_date": "1945-12-31"
    },
    {
      "issuer": {
        "id": 4805,
        "name": "ETABLISSEMENTS HERZOG"
      },
      "job": {
        "id": 117,
        "name": "Vice-Président",
        "short_name": "V.-Pr."
      },
      "start_date": "1940-01-01",
      "end_date": "1945-12-31"
    },
    {
      "issuer": {
        "id": 3559,
        "name": "CREDIT NATIONAL"
      },
      "job": {
        "id": 219,
        "name": "Administrateur"
      },
      "start_date": "1940-01-01",
      "end_date": "1945-12-31"
    },
    {
      "issuer": {
        "id": 1776,
        "name": "Société Générale Alsacienne de Banque"
      },
      "job": {
        "id": 219,
        "name": "Administrateur"
      },
      "start_date": "1940-01-01",
      "end_date": "1945-12-31"
    },
    {
      "issuer": {
        "id": 4101,
        "name": "SOCIÉTÉ ALSACIENNE DE CONSTRUCTIONS MECANIQUES"
      },
      "job": {
        "id": 162,
        "name": "Président honoraire"
      },
      "start_date": "1945-01-01",
      "end_date": "1945-12-31"
    },
    {
      "issuer": {
        "id": 957,
        "name": "BANQUE DE LA GUYANE"
      },
      "job": {
        "id": 219,
        "name": "Administrateur"
      },
      "start_date": "1945-01-01",
      "end_date": "1948-12-31"
    }
  ],
  "name": "Emile Dollfus"
}