{
  "id": 50468,
  "names": [
    "Bimsenstein"
  ],
  "functions": [
    {
      "issuer": {
        "id": 3200,
        "name": "SOCIÉTÉ GÉNÉRALE DES SUCRERIES ET DE LA RAFFINERIE D'EGYPTE"
      },
      "job": {
        "id": 138,
        "name": "Censeur",
        "short_name": "Cens."
      },
      "start_date": "1903-01-01",
      "end_date": "1903-12-31"
    }
  ],
  "name": "Bimsenstein"
}