{
  "id": 107042,
  "names": [
    "A. Dorey"
  ],
  "functions": [
    {
      "issuer": {
        "id": 2358,
        "name": "CIE FSE DES AUTOMOBILES DE PLACE"
      },
      "job": {
        "id": 10258,
        "name": "Suppléant"
      },
      "start_date": "1945-01-01",
      "end_date": "1945-12-31"
    }
  ],
  "name": "A. Dorey"
}