{
  "id": 59973,
  "names": [
    "J. Y. Blankenheim"
  ],
  "functions": [
    {
      "issuer": {
        "id": 3445,
        "name": "ROTTERDAMSCHE BANK N. V."
      },
      "job": {
        "id": 103,
        "name": "Commissaire"
      },
      "start_date": "1917-01-01",
      "end_date": "1917-12-31"
    }
  ],
  "name": "J. Y. Blankenheim"
}