{
  "id": 91174,
  "names": [
    "Guy Franck"
  ],
  "functions": [
    {
      "issuer": {
        "id": 4264,
        "name": "SOCIETE DES CARTONNERIES DE LA ROCHETTE"
      },
      "job": {
        "id": 219,
        "name": "Administrateur"
      },
      "start_date": "1933-01-01",
      "end_date": "1933-12-31"
    }
  ],
  "name": "Guy Franck"
}