{
  "id": 120066,
  "names": [
    "R. Geugnon"
  ],
  "functions": [
    {
      "issuer": {
        "id": 4085,
        "name": "SOCIETE DES CARRIERES MAROCAINES"
      },
      "job": {
        "id": 219,
        "name": "Administrateur"
      },
      "start_date": "1953-01-01",
      "end_date": "1953-12-31"
    }
  ],
  "name": "R. Geugnon"
}