{
  "id": 83318,
  "names": [
    "Heuet"
  ],
  "functions": [
    {
      "issuer": {
        "id": 10705,
        "name": "BANQUE HEUET ET Cie"
      },
      "job": {
        "id": 229,
        "name": "Gérant"
      },
      "start_date": "1927-01-01",
      "end_date": "1927-12-31"
    }
  ],
  "name": "Heuet"
}