{
  "id": 57072,
  "names": [
    "H. C. Dinet"
  ],
  "functions": [
    {
      "issuer": {
        "id": 5017,
        "name": "N. V. SIBOGA CAOUTCHOUC PLANTAGE (Plantation de caoutchouc de Siboga)"
      },
      "job": {
        "id": 219,
        "name": "Administrateur"
      },
      "start_date": "1912-01-01",
      "end_date": "1912-12-31"
    }
  ],
  "name": "H. C. Dinet"
}