{
  "id": 111046,
  "names": [
    "Edouard Catalogne"
  ],
  "functions": [
    {
      "issuer": {
        "id": 3460,
        "name": "Banque Franco-Japonaise"
      },
      "job": {
        "id": 219,
        "name": "Administrateur"
      },
      "start_date": "1948-01-01",
      "end_date": "1953-12-31"
    },
    {
      "issuer": {
        "id": 4093,
        "name": "INDOCHINE FILMS ET CINEMAS"
      },
      "job": {
        "id": 219,
        "name": "Administrateur"
      },
      "start_date": "1948-01-01",
      "end_date": "1953-12-31"
    },
    {
      "issuer": {
        "id": 11565,
        "name": "UNION METROPOLITAINE DE BANQUE"
      },
      "job": {
        "id": 219,
        "name": "Administrateur"
      },
      "start_date": "1953-01-01",
      "end_date": "1953-12-31"
    },
    {
      "issuer": {
        "id": 2883,
        "name": "Société de Constructions de Levallois-Perret"
      },
      "job": {
        "id": 219,
        "name": "Administrateur"
      },
      "start_date": "1953-01-01",
      "end_date": "1953-12-31"
    },
    {
      "issuer": {
        "id": 11572,
        "name": "SOCIETE D'EXPLOITATIONS MINIERES DE L'ININI"
      },
      "job": {
        "id": 219,
        "name": "Administrateur"
      },
      "start_date": "1953-01-01",
      "end_date": "1953-12-31"
    },
    {
      "issuer": {
        "id": 2996,
        "name": "STÉ FSE DES DISTILLERIES DE L'INDO-CHINE"
      },
      "job": {
        "id": 219,
        "name": "Administrateur"
      },
      "start_date": "1953-01-01",
      "end_date": "1953-12-31"
    },
    {
      "issuer": {
        "id": 4502,
        "name": "COMPAGNIE EQUATORIALE DE MINES"
      },
      "job": {
        "id": 219,
        "name": "Administrateur"
      },
      "start_date": "1953-01-01",
      "end_date": "1953-12-31"
    }
  ],
  "name": "Edouard Catalogne"
}