{
  "id": 98816,
  "names": [
    "L. Eliat"
  ],
  "functions": [
    {
      "issuer": {
        "id": 472,
        "name": "SOCIETE GENERALE DE BELGIQUE"
      },
      "job": {
        "id": 10019,
        "name": "Commissaire des comptes"
      },
      "start_date": "1940-01-01",
      "end_date": "1940-12-31"
    }
  ],
  "name": "L. Eliat"
}