{
  "id": 74804,
  "names": [
    "R. A. Blount"
  ],
  "functions": [
    {
      "issuer": {
        "id": 10465,
        "name": "CENTRAL SPÉCIALITÉS"
      },
      "job": {
        "id": 219,
        "name": "Administrateur"
      },
      "start_date": "1923-01-01",
      "end_date": "1923-12-31"
    }
  ],
  "name": "R. A. Blount"
}