{
  "id": 95069,
  "names": [
    "J. Chevrier"
  ],
  "functions": [
    {
      "issuer": {
        "id": 11043,
        "name": "COMPAGNIE ELECTRIQUE DE LA GROSNE"
      },
      "job": {
        "id": 219,
        "name": "Administrateur"
      },
      "start_date": "1940-01-01",
      "end_date": "1945-12-31"
    }
  ],
  "name": "J. Chevrier"
}