{
  "id": 49392,
  "names": [
    "Steen Bille"
  ],
  "functions": [
    {
      "issuer": {
        "id": 2718,
        "name": "Grande Compagnie des Télégraphes du Nord"
      },
      "job": {
        "id": 10019,
        "name": "Commissaire des comptes"
      },
      "start_date": "1903-01-01",
      "end_date": "1903-12-31"
    }
  ],
  "name": "Steen Bille"
}