{
  "id": 42992,
  "names": [
    "de Clamecy"
  ],
  "functions": [
    {
      "issuer": {
        "id": 2231,
        "name": "Compagnie Parisienne de Voitures l'Urbaine"
      },
      "job": {
        "id": 219,
        "name": "Administrateur"
      },
      "start_date": "1883-01-01",
      "end_date": "1889-12-31"
    }
  ],
  "name": "de Clamecy"
}