{
  "id": 85889,
  "names": [
    "Nunzi"
  ],
  "functions": [
    {
      "issuer": {
        "id": 623,
        "name": "Compagnie générale Transatlantique"
      },
      "job": {
        "id": 219,
        "name": "Administrateur"
      },
      "start_date": "1933-01-01",
      "end_date": "1933-12-31"
    },
    {
      "issuer": {
        "id": 1628,
        "name": "Sté GENERALE DE TRANSPORTS MARITIMES A VAPEUR"
      },
      "job": {
        "id": 219,
        "name": "Administrateur"
      },
      "start_date": "1933-01-01",
      "end_date": "1933-12-31"
    },
    {
      "issuer": {
        "id": 1628,
        "name": "Sté GENERALE DE TRANSPORTS MARITIMES A VAPEUR"
      },
      "job": {
        "id": 219,
        "name": "Administrateur"
      },
      "start_date": "1940-01-01",
      "end_date": "1940-12-31"
    }
  ],
  "name": "Nunzi"
}