{
  "id": 44092,
  "names": [
    "Colombel"
  ],
  "functions": [
    {
      "issuer": {
        "id": 783,
        "name": "LA CAPITALISATION SOCIÉTÉ ANONYME POUR FAVORISER L'ÉCONOMIE ET L'ÉPARGNE PAR LA CONSTITUTION DE CAPITAUX"
      },
      "job": {
        "id": 107,
        "name": "Directeur",
        "short_name": "Dir."
      },
      "start_date": "1889-01-01",
      "end_date": "1889-12-31"
    },
    {
      "issuer": {
        "id": 783,
        "name": "LA CAPITALISATION SOCIÉTÉ ANONYME POUR FAVORISER L'ÉCONOMIE ET L'ÉPARGNE PAR LA CONSTITUTION DE CAPITAUX"
      },
      "job": {
        "id": 219,
        "name": "Administrateur"
      },
      "start_date": "1889-01-01",
      "end_date": "1889-12-31"
    },
    {
      "issuer": {
        "id": 783,
        "name": "LA CAPITALISATION SOCIÉTÉ ANONYME POUR FAVORISER L'ÉCONOMIE ET L'ÉPARGNE PAR LA CONSTITUTION DE CAPITAUX"
      },
      "job": {
        "id": 219,
        "name": "Administrateur"
      },
      "start_date": "1893-01-01",
      "end_date": "1893-12-31"
    },
    {
      "issuer": {
        "id": 783,
        "name": "LA CAPITALISATION SOCIÉTÉ ANONYME POUR FAVORISER L'ÉCONOMIE ET L'ÉPARGNE PAR LA CONSTITUTION DE CAPITAUX"
      },
      "job": {
        "id": 107,
        "name": "Directeur",
        "short_name": "Dir."
      },
      "start_date": "1893-01-01",
      "end_date": "1893-12-31"
    }
  ],
  "name": "Colombel"
}