{
  "id": 82522,
  "names": [
    "E. Hérouart"
  ],
  "functions": [
    {
      "issuer": {
        "id": 10776,
        "name": "GRANDE BRASSERIE ORLÉANAISE SCHMETZ"
      },
      "job": {
        "id": 219,
        "name": "Administrateur"
      },
      "start_date": "1927-01-01",
      "end_date": "1927-12-31"
    }
  ],
  "name": "E. Hérouart"
}