{
  "id": 115321,
  "names": [
    "M. Bourbeau"
  ],
  "functions": [
    {
      "issuer": {
        "id": 11558,
        "name": "ANCIENS ETABLISSEMENTS BRAUNSTEIN FRERES"
      },
      "job": {
        "id": 10019,
        "name": "Commissaire des comptes"
      },
      "start_date": "1948-01-01",
      "end_date": "1953-12-31"
    },
    {
      "issuer": {
        "id": 4713,
        "name": "SOCIETE VERRIERE DE LA BRIE ET DU BUGEY"
      },
      "job": {
        "id": 10019,
        "name": "Commissaire des comptes"
      },
      "start_date": "1953-01-01",
      "end_date": "1953-12-31"
    },
    {
      "issuer": {
        "id": 3842,
        "name": "DE RICQLÈS"
      },
      "job": {
        "id": 10019,
        "name": "Commissaire des comptes"
      },
      "start_date": "1953-01-01",
      "end_date": "1953-12-31"
    }
  ],
  "name": "M. Bourbeau"
}