{
  "id": 81605,
  "names": [
    "Hippolyte Bal"
  ],
  "functions": [
    {
      "issuer": {
        "id": 10650,
        "name": "CHAMOISERIE-GANTERIE HIPPOLYTE BAL"
      },
      "job": {
        "id": 219,
        "name": "Administrateur"
      },
      "start_date": "1927-01-01",
      "end_date": "1927-12-31"
    }
  ],
  "name": "Hippolyte Bal"
}