{
  "id": 111635,
  "names": [
    "Société Afrique et Congo"
  ],
  "functions": [
    {
      "issuer": {
        "id": 4833,
        "name": "TRANSPORTS OUBANGHI-CAMEROUN"
      },
      "job": {
        "id": 219,
        "name": "Administrateur"
      },
      "start_date": "1948-01-01",
      "end_date": "1948-12-31"
    },
    {
      "issuer": {
        "id": 3297,
        "name": "COMPAGNIE GENERALE DES TRANSPORTS EN AFRIQUE"
      },
      "job": {
        "id": 219,
        "name": "Administrateur"
      },
      "start_date": "1948-01-01",
      "end_date": "1948-12-31"
    }
  ],
  "name": "Société Afrique et Congo"
}