{
  "id": 63964,
  "names": [
    "A. de Mattos"
  ],
  "functions": [
    {
      "issuer": {
        "id": 1224,
        "name": "Compagnie royale des Chemins de fer Portugais"
      },
      "job": {
        "id": 219,
        "name": "Administrateur"
      },
      "start_date": "1917-01-01",
      "end_date": "1917-12-31"
    }
  ],
  "name": "A. de Mattos"
}