{
  "id": 46068,
  "names": [
    "Ferdinand de Lavergne de Cerval"
  ],
  "functions": [
    {
      "issuer": {
        "id": 1764,
        "name": "SOCIÉTÉ NANCÉIENNE DE CRÉDIT INDUSTRIEL ET DE DEPOTS"
      },
      "job": {
        "id": 10019,
        "name": "Commissaire des comptes"
      },
      "start_date": "1940-01-01",
      "end_date": "1940-12-31"
    },
    {
      "issuer": {
        "id": 671,
        "name": "Société Générale de CREDIT INDUSTRIEL ET COMMERCIAL"
      },
      "job": {
        "id": 103,
        "name": "Commissaire"
      },
      "start_date": "1940-01-01",
      "end_date": "1945-12-31"
    },
    {
      "issuer": {
        "id": 2120,
        "name": "LA PROVIDENCE CIE D'ASSURANCES A PRIMES FIXES CONTRE LES ACCIDENTS"
      },
      "job": {
        "id": 10019,
        "name": "Commissaire des comptes"
      },
      "start_date": "1940-01-01",
      "end_date": "1953-12-31"
    },
    {
      "issuer": {
        "id": 365,
        "name": "La Providence, Compagnie d'assurances contre l'incendie"
      },
      "job": {
        "id": 10019,
        "name": "Commissaire des comptes"
      },
      "start_date": "1940-01-01",
      "end_date": "1953-12-31"
    },
    {
      "issuer": {
        "id": 1764,
        "name": "SOCIÉTÉ NANCÉIENNE DE CRÉDIT INDUSTRIEL ET DE DEPOTS"
      },
      "job": {
        "id": 10019,
        "name": "Commissaire des comptes"
      },
      "start_date": "1945-01-01",
      "end_date": "1945-12-31"
    },
    {
      "issuer": {
        "id": 671,
        "name": "Société Générale de CREDIT INDUSTRIEL ET COMMERCIAL"
      },
      "job": {
        "id": 10019,
        "name": "Commissaire des comptes"
      },
      "start_date": "1948-01-01",
      "end_date": "1953-12-31"
    },
    {
      "issuer": {
        "id": 1764,
        "name": "SOCIÉTÉ NANCÉIENNE DE CRÉDIT INDUSTRIEL ET DE DEPOTS"
      },
      "job": {
        "id": 10019,
        "name": "Commissaire des comptes"
      },
      "start_date": "1953-01-01",
      "end_date": "1953-12-31"
    }
  ],
  "name": "Ferdinand de Lavergne de Cerval"
}