{
  "id": 75836,
  "names": [
    "L. Lépine"
  ],
  "functions": [
    {
      "issuer": {
        "id": 1251,
        "name": "Compagnie universelle du Canal maritime de Suez"
      },
      "job": {
        "id": 219,
        "name": "Administrateur"
      },
      "start_date": "1923-01-01",
      "end_date": "1933-12-31"
    }
  ],
  "name": "L. Lépine"
}