{
  "id": 46138,
  "names": [
    "C. Loubéry"
  ],
  "functions": [
    {
      "issuer": {
        "id": 7014,
        "name": "COMPAGNIE NATIONALE D'ELECTRICITE SYSTÈME S.-Z. FERRANTI"
      },
      "job": {
        "id": 10002,
        "name": "Directeur Général Adjoint",
        "short_name": "D.G.Adj"
      },
      "start_date": "1893-01-01",
      "end_date": "1893-12-31"
    }
  ],
  "name": "C. Loubéry"
}