{
  "id": 46147,
  "names": [
    "Trapenard"
  ],
  "functions": [
    {
      "issuer": {
        "id": 2318,
        "name": "Société anonyme de la Grande distillerie E. Cusenier fils aîné et Cie"
      },
      "job": {
        "id": 104,
        "name": "Secrétaire"
      },
      "start_date": "1893-01-01",
      "end_date": "1898-12-31"
    },
    {
      "issuer": {
        "id": 2982,
        "name": "CARRIÈRES ET SCIERIES DE BOURGOGNE (FÈVRE et Cie)"
      },
      "job": {
        "id": 176,
        "name": "Membre du conseil de surveillance",
        "short_name": "M.C.S."
      },
      "start_date": "1898-01-01",
      "end_date": "1898-12-31"
    },
    {
      "issuer": {
        "id": 2982,
        "name": "CARRIÈRES ET SCIERIES DE BOURGOGNE (FÈVRE et Cie)"
      },
      "job": {
        "id": 178,
        "name": "President du conseil de surveillance",
        "short_name": "P.C.S."
      },
      "start_date": "1903-01-01",
      "end_date": "1908-12-31"
    },
    {
      "issuer": {
        "id": 735,
        "name": "Chemin de fer du Médoc"
      },
      "job": {
        "id": 102,
        "name": "Président",
        "short_name": "P."
      },
      "start_date": "1908-01-01",
      "end_date": "1908-12-31"
    },
    {
      "issuer": {
        "id": 735,
        "name": "Chemin de fer du Médoc"
      },
      "job": {
        "id": 219,
        "name": "Administrateur"
      },
      "start_date": "1912-01-01",
      "end_date": "1912-12-31"
    },
    {
      "issuer": {
        "id": 2982,
        "name": "CARRIÈRES ET SCIERIES DE BOURGOGNE (FÈVRE et Cie)"
      },
      "job": {
        "id": 176,
        "name": "Membre du conseil de surveillance",
        "short_name": "M.C.S."
      },
      "start_date": "1912-01-01",
      "end_date": "1912-12-31"
    }
  ],
  "name": "Trapenard"
}