{
  "id": 113670,
  "names": [
    "L. Doré"
  ],
  "functions": [
    {
      "issuer": {
        "id": 11476,
        "name": "SEP"
      },
      "job": {
        "id": 219,
        "name": "Administrateur"
      },
      "start_date": "1948-01-01",
      "end_date": "1953-12-31"
    }
  ],
  "name": "L. Doré"
}