{
  "id": 97874,
  "names": [
    "G. Brichant"
  ],
  "functions": [
    {
      "issuer": {
        "id": 4827,
        "name": "Compagnie Franco-Polonaise de Chemins de Fer"
      },
      "job": {
        "id": 139,
        "name": "Commissaire du Gouvernement"
      },
      "start_date": "1940-01-01",
      "end_date": "1940-12-31"
    },
    {
      "issuer": {
        "id": 4870,
        "name": "SOCIÉTÉ D'OUTILLAGE MÉCANIQUE ET D'USINAGE D'ARTILLERIE (S. O. M. U. A.) (Usines Bouhey Farcot et Champigneul)"
      },
      "job": {
        "id": 10019,
        "name": "Commissaire des comptes"
      },
      "start_date": "1940-01-01",
      "end_date": "1940-12-31"
    },
    {
      "issuer": {
        "id": 3576,
        "name": "UNION EUROPEENNE INDUSTRIELLE ET FINANCIERE"
      },
      "job": {
        "id": 10019,
        "name": "Commissaire des comptes"
      },
      "start_date": "1940-01-01",
      "end_date": "1940-12-31"
    },
    {
      "issuer": {
        "id": 3503,
        "name": "BANQUE DES PAYS DU NORD"
      },
      "job": {
        "id": 10019,
        "name": "Commissaire des comptes"
      },
      "start_date": "1940-01-01",
      "end_date": "1940-12-31"
    },
    {
      "issuer": {
        "id": 4827,
        "name": "Compagnie Franco-Polonaise de Chemins de Fer"
      },
      "job": {
        "id": 10019,
        "name": "Commissaire des comptes"
      },
      "start_date": "1945-01-01",
      "end_date": "1945-12-31"
    }
  ],
  "name": "G. Brichant"
}