{
  "id": 111445,
  "names": [
    "G. A. Walker"
  ],
  "functions": [
    {
      "issuer": {
        "id": 4915,
        "name": "CANADIAN PACIFIC RAILWAY COMPANY"
      },
      "job": {
        "id": 219,
        "name": "Administrateur"
      },
      "start_date": "1948-01-01",
      "end_date": "1953-12-31"
    }
  ],
  "name": "G. A. Walker"
}