{
  "id": 115898,
  "names": [
    "F. Pasquesoone"
  ],
  "functions": [
    {
      "issuer": {
        "id": 3432,
        "name": "LE NORD (Capitalisation)"
      },
      "job": {
        "id": 219,
        "name": "Administrateur"
      },
      "start_date": "1953-01-01",
      "end_date": "1953-12-31"
    },
    {
      "issuer": {
        "id": 2109,
        "name": "Le Nord, Compagnie d'assurances sur la vie et de prêts viagers"
      },
      "job": {
        "id": 219,
        "name": "Administrateur"
      },
      "start_date": "1953-01-01",
      "end_date": "1953-12-31"
    },
    {
      "issuer": {
        "id": 378,
        "name": "Cie D'ASSURANCES LE NORD (Anciennement Le Nord, Compagnie d'assurances contre l'incendie et contre le bris des glaces)"
      },
      "job": {
        "id": 219,
        "name": "Administrateur"
      },
      "start_date": "1953-01-01",
      "end_date": "1953-12-31"
    }
  ],
  "name": "F. Pasquesoone"
}