{
  "id": 112335,
  "names": [
    "J. Bradahaw"
  ],
  "functions": [
    {
      "issuer": {
        "id": 5018,
        "name": "SIMMER AND JACK MINES LIMITED"
      },
      "job": {
        "id": 14620,
        "name": "Membre du comité de Londres"
      },
      "start_date": "1948-01-01",
      "end_date": "1948-12-31"
    }
  ],
  "name": "J. Bradahaw"
}