{
  "id": 86993,
  "names": [
    "Th. Trébucy"
  ],
  "functions": [
    {
      "issuer": {
        "id": 4054,
        "name": "LE TERRAZZOLITH"
      },
      "job": {
        "id": 219,
        "name": "Administrateur"
      },
      "start_date": "1933-01-01",
      "end_date": "1933-12-31"
    }
  ],
  "name": "Th. Trébucy"
}