{
  "id": 101969,
  "names": [
    "R.-M. Mathelin"
  ],
  "functions": [
    {
      "issuer": {
        "id": 4807,
        "name": "ETABLISSEMENTS R. MATHELIN (Sté Lyonnaise de Teinture, Charges et Apprêts)"
      },
      "job": {
        "id": 102,
        "name": "Président",
        "short_name": "P."
      },
      "start_date": "1940-01-01",
      "end_date": "1940-12-31"
    }
  ],
  "name": "R.-M. Mathelin"
}