{
  "id": 42000,
  "names": [
    "Flouest"
  ],
  "functions": [
    {
      "issuer": {
        "id": 2103,
        "name": "LA FRANCE Compagnie d'assurances sur la vie"
      },
      "job": {
        "id": 107,
        "name": "Directeur",
        "short_name": "Dir."
      },
      "start_date": "1883-01-01",
      "end_date": "1889-12-31"
    }
  ],
  "name": "Flouest"
}