{
  "id": 127316,
  "names": [
    "P. Dansette"
  ],
  "functions": [
    {
      "issuer": {
        "id": 2223,
        "name": "SOCIÉTÉ DES CHEMINS DE FER DE MADRID A CACÉRÈS ET AU PORTUGAL"
      },
      "job": {
        "id": 219,
        "name": "Administrateur"
      },
      "start_date": "1923-01-01",
      "end_date": "1923-12-31"
    },
    {
      "issuer": {
        "id": 3834,
        "name": "Sté des BRASSERIES et MALTERIES MOTTE-CORDONNIER"
      },
      "job": {
        "id": 219,
        "name": "Administrateur"
      },
      "start_date": "1927-01-01",
      "end_date": "1927-12-31"
    },
    {
      "issuer": {
        "id": 2223,
        "name": "SOCIÉTÉ DES CHEMINS DE FER DE MADRID A CACÉRÈS ET AU PORTUGAL"
      },
      "job": {
        "id": 219,
        "name": "Administrateur"
      },
      "start_date": "1927-01-01",
      "end_date": "1927-12-31"
    },
    {
      "issuer": {
        "id": 2223,
        "name": "SOCIÉTÉ DES CHEMINS DE FER DE MADRID A CACÉRÈS ET AU PORTUGAL"
      },
      "job": {
        "id": 219,
        "name": "Administrateur"
      },
      "start_date": "1933-01-01",
      "end_date": "1933-12-31"
    }
  ],
  "name": "P. Dansette"
}