{
  "id": 44611,
  "names": [
    "Vallet"
  ],
  "functions": [
    {
      "issuer": {
        "id": 2293,
        "name": "La Rente Foncière"
      },
      "job": {
        "id": 219,
        "name": "Administrateur"
      },
      "start_date": "1889-01-01",
      "end_date": "1893-12-31"
    }
  ],
  "name": "Vallet"
}