{
  "id": 127468,
  "names": [
    "E. Labbé (Amsterdam)"
  ],
  "functions": [
    {
      "issuer": {
        "id": 4603,
        "name": "SOCIETE DES CAOUTCHOUCS DE PHUOC HOA"
      },
      "job": {
        "id": 219,
        "name": "Administrateur"
      },
      "start_date": "1953-01-01",
      "end_date": "1953-12-31"
    }
  ],
  "name": "E. Labbé (Amsterdam)"
}