{
  "id": 105659,
  "names": [
    "Edouard Houitte de la Chesnais"
  ],
  "functions": [
    {
      "issuer": {
        "id": 11013,
        "name": "SOCIÉTÉ AGRICOLE ET INDUSTRIELLE DE CAM-TIEM"
      },
      "job": {
        "id": 219,
        "name": "Administrateur"
      },
      "start_date": "1933-01-01",
      "end_date": "1933-12-31"
    },
    {
      "issuer": {
        "id": 637,
        "name": "Compagnie des Mines de la Grand'Combe"
      },
      "job": {
        "id": 219,
        "name": "Administrateur"
      },
      "start_date": "1933-01-01",
      "end_date": "1933-12-31"
    },
    {
      "issuer": {
        "id": 2291,
        "name": "Société IMMOBILIERE MARSEILLAISE"
      },
      "job": {
        "id": 219,
        "name": "Administrateur"
      },
      "start_date": "1940-01-01",
      "end_date": "1940-12-31"
    },
    {
      "issuer": {
        "id": 637,
        "name": "Compagnie des Mines de la Grand'Combe"
      },
      "job": {
        "id": 219,
        "name": "Administrateur"
      },
      "start_date": "1940-01-01",
      "end_date": "1940-12-31"
    },
    {
      "issuer": {
        "id": 4346,
        "name": "COMPAGNIE DE COMMERCE ET DE NAVIGATION D'EXTREME-ORIENT"
      },
      "job": {
        "id": 219,
        "name": "Administrateur"
      },
      "start_date": "1940-01-01",
      "end_date": "1953-12-31"
    },
    {
      "issuer": {
        "id": 4592,
        "name": "SOCIÉTÉ INDOCHINOISE DE PLANTATIONS D'HEVÉAS"
      },
      "job": {
        "id": 219,
        "name": "Administrateur"
      },
      "start_date": "1940-01-01",
      "end_date": "1953-12-31"
    },
    {
      "issuer": {
        "id": 2291,
        "name": "Société IMMOBILIERE MARSEILLAISE"
      },
      "job": {
        "id": 219,
        "name": "Administrateur"
      },
      "start_date": "1945-01-01",
      "end_date": "1945-12-31"
    },
    {
      "issuer": {
        "id": 2291,
        "name": "Société IMMOBILIERE MARSEILLAISE"
      },
      "job": {
        "id": 219,
        "name": "Administrateur"
      },
      "start_date": "1948-01-01",
      "end_date": "1948-12-31"
    },
    {
      "issuer": {
        "id": 2291,
        "name": "Société IMMOBILIERE MARSEILLAISE"
      },
      "job": {
        "id": 219,
        "name": "Administrateur"
      },
      "start_date": "1953-01-01",
      "end_date": "1953-12-31"
    }
  ],
  "name": "Edouard Houitte de la Chesnais"
}