{
  "id": 41398,
  "names": [
    "Caillux"
  ],
  "functions": [
    {
      "issuer": {
        "id": 653,
        "name": "Compagnie des Chemins de fer de PARIS A LYON ET A LA MÉDITERRANÉE"
      },
      "job": {
        "id": 117,
        "name": "Vice-Président",
        "short_name": "V.-Pr."
      },
      "start_date": "1883-01-01",
      "end_date": "1883-12-31"
    }
  ],
  "name": "Caillux"
}