{
  "id": 115963,
  "names": [
    "A. Deladerrière"
  ],
  "functions": [
    {
      "issuer": {
        "id": 2117,
        "name": "L'URBAINE ET LA SEINE CIE D'ASSURANCES A PRIMES FIXES CONTRE LES ACCIDENTS"
      },
      "job": {
        "id": 219,
        "name": "Administrateur"
      },
      "start_date": "1953-01-01",
      "end_date": "1953-12-31"
    }
  ],
  "name": "A. Deladerrière"
}