{
  "id": 111666,
  "names": [
    "Mermier"
  ],
  "functions": [
    {
      "issuer": {
        "id": 668,
        "name": "Cie DES DOCKS ET ENTREPOTS DE MARSEILLE"
      },
      "job": {
        "id": 219,
        "name": "Administrateur"
      },
      "start_date": "1948-01-01",
      "end_date": "1948-12-31"
    }
  ],
  "name": "Mermier"
}