{
  "id": 109029,
  "names": [
    "H. Levadoux"
  ],
  "functions": [
    {
      "issuer": {
        "id": 2691,
        "name": "SOCIÉTÉ DES EAUX MINÉRALES DE CHATEL-GUYON"
      },
      "job": {
        "id": 102,
        "name": "Président",
        "short_name": "P."
      },
      "start_date": "1945-01-01",
      "end_date": "1945-12-31"
    },
    {
      "issuer": {
        "id": 2691,
        "name": "SOCIÉTÉ DES EAUX MINÉRALES DE CHATEL-GUYON"
      },
      "job": {
        "id": 219,
        "name": "Administrateur"
      },
      "start_date": "1953-01-01",
      "end_date": "1953-12-31"
    }
  ],
  "name": "H. Levadoux"
}