{
  "id": 110697,
  "names": [
    "A. Arragon"
  ],
  "functions": [
    {
      "issuer": {
        "id": 3575,
        "name": "CREDIT MOBILIER INDUSTRIEL (Sovac)"
      },
      "job": {
        "id": 219,
        "name": "Administrateur"
      },
      "start_date": "1948-01-01",
      "end_date": "1953-12-31"
    }
  ],
  "name": "A. Arragon"
}