{
  "id": 75272,
  "names": [
    "Gutzeit"
  ],
  "functions": [
    {
      "issuer": {
        "id": 4893,
        "name": "Société nationale de Sauvetage et Remorquage"
      },
      "job": {
        "id": 219,
        "name": "Administrateur"
      },
      "start_date": "1923-01-01",
      "end_date": "1923-12-31"
    },
    {
      "issuer": {
        "id": 4109,
        "name": "ANCIENS ÉTABLISSETS BRISSONNEAU ET LOTZ"
      },
      "job": {
        "id": 219,
        "name": "Administrateur"
      },
      "start_date": "1923-01-01",
      "end_date": "1923-12-31"
    }
  ],
  "name": "Gutzeit"
}