{
  "id": 92659,
  "names": [
    "Dalché"
  ],
  "functions": [
    {
      "issuer": {
        "id": 4438,
        "name": "ETABLISSEMENTS NOZAL"
      },
      "job": {
        "id": 219,
        "name": "Administrateur"
      },
      "start_date": "1933-01-01",
      "end_date": "1933-12-31"
    }
  ],
  "name": "Dalché"
}