{
  "id": 122927,
  "names": [
    "M. Yves Malécot"
  ],
  "functions": [
    {
      "issuer": {
        "id": 3615,
        "name": "CAGEDA – CAISSE GENERALE DE DEPOTS ET D’AVANCES"
      },
      "job": {
        "id": 139,
        "name": "Commissaire du Gouvernement"
      },
      "start_date": "1953-01-01",
      "end_date": "1953-12-31"
    }
  ],
  "name": "M. Yves Malécot"
}