{
  "id": 41080,
  "names": [
    "Ramon"
  ],
  "functions": [
    {
      "issuer": {
        "id": 1957,
        "name": "Banque Nationale du Mexique"
      },
      "job": {
        "id": 10628,
        "name": "Administrateur à Mexico"
      },
      "start_date": "1883-01-01",
      "end_date": "1883-12-31"
    }
  ],
  "name": "Ramon"
}