{
  "id": 121742,
  "names": [
    "La Roche"
  ],
  "functions": [
    {
      "issuer": {
        "id": 3910,
        "name": "BRASSERIE ET MALTERIE \"LE PHENIX\""
      },
      "job": {
        "id": 219,
        "name": "Administrateur"
      },
      "start_date": "1953-01-01",
      "end_date": "1953-12-31"
    }
  ],
  "name": "La Roche"
}