{
  "id": 118605,
  "names": [
    "R. Hauvette"
  ],
  "functions": [
    {
      "issuer": {
        "id": 4193,
        "name": "ETABLISSEMENTS SAXBY"
      },
      "job": {
        "id": 10258,
        "name": "Suppléant"
      },
      "start_date": "1953-01-01",
      "end_date": "1953-12-31"
    }
  ],
  "name": "R. Hauvette"
}