{
  "id": 82691,
  "names": [
    "R. Houben"
  ],
  "functions": [
    {
      "issuer": {
        "id": 4250,
        "name": "SOCIÉTÉ IMMOBILIERE ET HOTELIERE DE NORMANDIE"
      },
      "job": {
        "id": 219,
        "name": "Administrateur"
      },
      "start_date": "1927-01-01",
      "end_date": "1927-12-31"
    }
  ],
  "name": "R. Houben"
}