{
  "id": 56958,
  "names": [
    "F. Dubief"
  ],
  "functions": [
    {
      "issuer": {
        "id": 10345,
        "name": "Société de Production de Naphte G. M. Lianosoff"
      },
      "job": {
        "id": 219,
        "name": "Administrateur"
      },
      "start_date": "1912-01-01",
      "end_date": "1927-12-31"
    }
  ],
  "name": "F. Dubief"
}