{
  "id": 75122,
  "names": [
    "J. de Souzy"
  ],
  "functions": [
    {
      "issuer": {
        "id": 10524,
        "name": "SOCIÉTÉ DES CARBURATEURS ET APPAREILS CLAUDEL"
      },
      "job": {
        "id": 219,
        "name": "Administrateur"
      },
      "start_date": "1923-01-01",
      "end_date": "1927-12-31"
    }
  ],
  "name": "J. de Souzy"
}