{
  "id": 110943,
  "names": [
    "H. Hentic"
  ],
  "functions": [
    {
      "issuer": {
        "id": 436,
        "name": "LE PHENIX COMPAGNIE FRANÇAISE D'ASSURANCES SUR LA VIE"
      },
      "job": {
        "id": 219,
        "name": "Administrateur"
      },
      "start_date": "1948-01-01",
      "end_date": "1948-12-31"
    }
  ],
  "name": "H. Hentic"
}