{
  "id": 96510,
  "names": [
    "R. Epiphani"
  ],
  "functions": [
    {
      "issuer": {
        "id": 4411,
        "name": "LES ISOLANTS FRANÇAIS"
      },
      "job": {
        "id": 10258,
        "name": "Suppléant"
      },
      "start_date": "1940-01-01",
      "end_date": "1940-12-31"
    }
  ],
  "name": "R. Epiphani"
}