{
  "id": 51797,
  "names": [
    "Réal del Sarte"
  ],
  "functions": [
    {
      "issuer": {
        "id": 2602,
        "name": "BARI A LOCOROTONDO (Société civile pour le recouvrement des annuités du Gouvernement italien)"
      },
      "job": {
        "id": 219,
        "name": "Administrateur"
      },
      "start_date": "1908-01-01",
      "end_date": "1908-12-31"
    },
    {
      "issuer": {
        "id": 2666,
        "name": "Cie DES DOCKS ET ENTREPOTS DE ROUEN"
      },
      "job": {
        "id": 10019,
        "name": "Commissaire des comptes"
      },
      "start_date": "1908-01-01",
      "end_date": "1908-12-31"
    }
  ],
  "name": "Réal del Sarte"
}