{
  "id": 41895,
  "names": [
    "Sanial du Fay"
  ],
  "functions": [
    {
      "issuer": {
        "id": 1732,
        "name": "Banque Hypothécaire de France"
      },
      "job": {
        "id": 219,
        "name": "Administrateur"
      },
      "start_date": "1880-01-01",
      "end_date": "1880-12-31"
    },
    {
      "issuer": {
        "id": 2179,
        "name": "L'Assurance financière. Société mutuelle de reconstitution des capitaux"
      },
      "job": {
        "id": 219,
        "name": "Administrateur"
      },
      "start_date": "1880-01-01",
      "end_date": "1880-12-31"
    },
    {
      "issuer": {
        "id": 2292,
        "name": "Société des IMMEUBLES DE FRANCE"
      },
      "job": {
        "id": 219,
        "name": "Administrateur"
      },
      "start_date": "1880-01-01",
      "end_date": "1889-12-31"
    }
  ],
  "name": "Sanial du Fay"
}