{
  "id": 118809,
  "names": [
    "P. T'Serstevens"
  ],
  "functions": [
    {
      "issuer": {
        "id": 2764,
        "name": "STÉ MÉTALLURGIQUE DE MONTBARD-AULNOYE"
      },
      "job": {
        "id": 10019,
        "name": "Commissaire des comptes"
      },
      "start_date": "1953-01-01",
      "end_date": "1953-12-31"
    }
  ],
  "name": "P. T'Serstevens"
}