{
  "id": 83299,
  "names": [
    "V. Frontini"
  ],
  "functions": [
    {
      "issuer": {
        "id": 3590,
        "name": "BANQUE FRANÇAISE ET ITALIENNE POUR L'AMERIQUE DU SUD"
      },
      "job": {
        "id": 219,
        "name": "Administrateur"
      },
      "start_date": "1927-01-01",
      "end_date": "1927-12-31"
    }
  ],
  "name": "V. Frontini"
}