{
  "id": 96809,
  "names": [
    "Michel Decazes"
  ],
  "functions": [
    {
      "issuer": {
        "id": 4606,
        "name": "COMPAGNIE UNIVERSELLE D'ACETYLÈNE ET D'ÉLECTRO-MÉTALLURGIE"
      },
      "job": {
        "id": 219,
        "name": "Administrateur"
      },
      "start_date": "1940-01-01",
      "end_date": "1940-12-31"
    },
    {
      "issuer": {
        "id": 671,
        "name": "Société Générale de CREDIT INDUSTRIEL ET COMMERCIAL"
      },
      "job": {
        "id": 103,
        "name": "Commissaire"
      },
      "start_date": "1940-01-01",
      "end_date": "1945-12-31"
    },
    {
      "issuer": {
        "id": 10396,
        "name": "SOCIETE DES MOTEURS GNOME ET RHONE"
      },
      "job": {
        "id": 10258,
        "name": "Suppléant"
      },
      "start_date": "1940-01-01",
      "end_date": "1945-12-31"
    },
    {
      "issuer": {
        "id": 4468,
        "name": "LORRAINE (Société Lorraine des Anciens Etablissements De DIÉTRICH et Cie"
      },
      "job": {
        "id": 10019,
        "name": "Commissaire des comptes"
      },
      "start_date": "1940-01-01",
      "end_date": "1953-12-31"
    },
    {
      "issuer": {
        "id": 10498,
        "name": "COMPAGNIE DES MINES DE HOUILLE DE MARLES"
      },
      "job": {
        "id": 10019,
        "name": "Commissaire des comptes"
      },
      "start_date": "1945-01-01",
      "end_date": "1945-12-31"
    },
    {
      "issuer": {
        "id": 4606,
        "name": "COMPAGNIE UNIVERSELLE D'ACETYLÈNE ET D'ÉLECTRO-MÉTALLURGIE"
      },
      "job": {
        "id": 10019,
        "name": "Commissaire des comptes"
      },
      "start_date": "1945-01-01",
      "end_date": "1948-12-31"
    },
    {
      "issuer": {
        "id": 2562,
        "name": "COMPAGNIE GENERALE DE REASSURANCES"
      },
      "job": {
        "id": 10019,
        "name": "Commissaire des comptes"
      },
      "start_date": "1945-01-01",
      "end_date": "1953-12-31"
    },
    {
      "issuer": {
        "id": 667,
        "name": "L'AIGLE-ACCIDENTS COMPAGNIE D'ASSURANCES ET DE RÉASSURANCES CONTRE LES ACCIDENTS ET TOUS RISQUES"
      },
      "job": {
        "id": 10019,
        "name": "Commissaire des comptes"
      },
      "start_date": "1945-01-01",
      "end_date": "1953-12-31"
    },
    {
      "issuer": {
        "id": 4120,
        "name": "ETABLISSEMENTS JAPY FRERES"
      },
      "job": {
        "id": 10019,
        "name": "Commissaire des comptes"
      },
      "start_date": "1945-01-01",
      "end_date": "1953-12-31"
    },
    {
      "issuer": {
        "id": 2111,
        "name": "LE SOLEIL - SÉCURITÉ GÉNÉRALE ET RESPONSABILITÉ CIVILE RÉUNIES"
      },
      "job": {
        "id": 10019,
        "name": "Commissaire des comptes"
      },
      "start_date": "1945-01-01",
      "end_date": "1953-12-31"
    },
    {
      "issuer": {
        "id": 424,
        "name": "L'Aigle, Compagnie d'assurances a primes contre l'incendie"
      },
      "job": {
        "id": 10019,
        "name": "Commissaire des comptes"
      },
      "start_date": "1945-01-01",
      "end_date": "1953-12-31"
    },
    {
      "issuer": {
        "id": 1594,
        "name": "Compagnie du Soleil, Société anonyme française d'assurances sur la vie"
      },
      "job": {
        "id": 10019,
        "name": "Commissaire des comptes"
      },
      "start_date": "1945-01-01",
      "end_date": "1953-12-31"
    },
    {
      "issuer": {
        "id": 671,
        "name": "Société Générale de CREDIT INDUSTRIEL ET COMMERCIAL"
      },
      "job": {
        "id": 10019,
        "name": "Commissaire des comptes"
      },
      "start_date": "1948-01-01",
      "end_date": "1953-12-31"
    },
    {
      "issuer": {
        "id": 4606,
        "name": "COMPAGNIE UNIVERSELLE D'ACETYLÈNE ET D'ÉLECTRO-MÉTALLURGIE"
      },
      "job": {
        "id": 10019,
        "name": "Commissaire des comptes"
      },
      "start_date": "1953-01-01",
      "end_date": "1953-12-31"
    },
    {
      "issuer": {
        "id": 245,
        "name": "LE SOLEIL SOCIÉTÉ D'ASSURANCES A PRIMES FIXES CONTRE L'INCENDIE"
      },
      "job": {
        "id": 10019,
        "name": "Commissaire des comptes"
      },
      "start_date": "1953-01-01",
      "end_date": "1953-12-31"
    },
    {
      "issuer": {
        "id": 2386,
        "name": "L'AIGLE-CAPITALISATION SOCIÉTÉ FRANÇAISE DE CAPITALISATION POUR FAVORISER L'ÉCONOMIE ET L'ÉPARGNE"
      },
      "job": {
        "id": 10019,
        "name": "Commissaire des comptes"
      },
      "start_date": "1953-01-01",
      "end_date": "1953-12-31"
    },
    {
      "issuer": {
        "id": 4886,
        "name": "SOCIETE FRANÇAISE DU BAZINA"
      },
      "job": {
        "id": 10019,
        "name": "Commissaire des comptes"
      },
      "start_date": "1953-01-01",
      "end_date": "1953-12-31"
    },
    {
      "issuer": {
        "id": 3581,
        "name": "BANQUE COMMERCIALE DU MAROC"
      },
      "job": {
        "id": 10019,
        "name": "Commissaire des comptes"
      },
      "start_date": "1953-01-01",
      "end_date": "1953-12-31"
    },
    {
      "issuer": {
        "id": 1752,
        "name": "SOCIETE BORDELAISE DE CREDIT INDUSTRIEL ET COMMERCIAL"
      },
      "job": {
        "id": 10019,
        "name": "Commissaire des comptes"
      },
      "start_date": "1953-01-01",
      "end_date": "1953-12-31"
    },
    {
      "issuer": {
        "id": 3240,
        "name": "FABRIQUE DE SOIE ARTIFICIELLE DE TUBIZE"
      },
      "job": {
        "id": 219,
        "name": "Administrateur"
      },
      "start_date": "1953-01-01",
      "end_date": "1953-12-31"
    },
    {
      "issuer": {
        "id": 2881,
        "name": "BANQUE DE TUNISIE"
      },
      "job": {
        "id": 10019,
        "name": "Commissaire des comptes"
      },
      "start_date": "1953-01-01",
      "end_date": "1953-12-31"
    }
  ],
  "name": "Michel Decazes"
}