{
  "id": 85724,
  "names": [
    "de Pougnadoresse"
  ],
  "functions": [
    {
      "issuer": {
        "id": 3089,
        "name": "SOCIETE OTTOMANE DU CHEMIN DE FER DE SMYRNE-CASSABA ET PROLONGEMENTS"
      },
      "job": {
        "id": 219,
        "name": "Administrateur"
      },
      "start_date": "1933-01-01",
      "end_date": "1933-12-31"
    }
  ],
  "name": "de Pougnadoresse"
}