{
  "id": 92053,
  "names": [
    "I. Babut"
  ],
  "functions": [
    {
      "issuer": {
        "id": 10761,
        "name": "SOCIÉTÉ CENTRALE MAROCAINE"
      },
      "job": {
        "id": 219,
        "name": "Administrateur"
      },
      "start_date": "1933-01-01",
      "end_date": "1933-12-31"
    }
  ],
  "name": "I. Babut"
}