{
  "id": 87978,
  "names": [
    "I. Kulp"
  ],
  "functions": [
    {
      "issuer": {
        "id": 3590,
        "name": "BANQUE FRANÇAISE ET ITALIENNE POUR L'AMERIQUE DU SUD"
      },
      "job": {
        "id": 162,
        "name": "Président honoraire"
      },
      "start_date": "1933-01-01",
      "end_date": "1933-12-31"
    }
  ],
  "name": "I. Kulp"
}