{
  "id": 111964,
  "names": [
    "Henri Rolloy"
  ],
  "functions": [
    {
      "issuer": {
        "id": 4525,
        "name": "Cie MINIERE DE L'OUBANGHI ORIENTAL (C. M. O. O.)"
      },
      "job": {
        "id": 219,
        "name": "Administrateur"
      },
      "start_date": "1948-01-01",
      "end_date": "1953-12-31"
    },
    {
      "issuer": {
        "id": 1380,
        "name": "BANQUE DE L'INDOCHINE"
      },
      "job": {
        "id": 10269,
        "name": "Directeur Adjoint"
      },
      "start_date": "1948-01-01",
      "end_date": "1953-12-31"
    },
    {
      "issuer": {
        "id": 4093,
        "name": "INDOCHINE FILMS ET CINEMAS"
      },
      "job": {
        "id": 219,
        "name": "Administrateur"
      },
      "start_date": "1948-01-01",
      "end_date": "1953-12-31"
    }
  ],
  "name": "Henri Rolloy"
}