{
  "id": 72619,
  "names": [
    "J. P. Cordova"
  ],
  "functions": [
    {
      "issuer": {
        "id": 3355,
        "name": "FERROCARRILES NACIONALES DE MEXICO (Chemins de fer Nationaux du Mexique)"
      },
      "job": {
        "id": 219,
        "name": "Administrateur"
      },
      "start_date": "1923-01-01",
      "end_date": "1933-12-31"
    }
  ],
  "name": "J. P. Cordova"
}