{
  "id": 128003,
  "names": [
    "R. Euler"
  ],
  "functions": [
    {
      "issuer": {
        "id": 2846,
        "name": "Société Auxiliaire des Mines"
      },
      "job": {
        "id": 219,
        "name": "Administrateur"
      },
      "start_date": "1905-01-01",
      "end_date": "1905-12-31"
    }
  ],
  "name": "R. Euler"
}