{
  "id": 114320,
  "names": [
    "U. Fischer"
  ],
  "functions": [
    {
      "issuer": {
        "id": 11045,
        "name": "UNION ELECTRIQUE DU RHIN (Uner)"
      },
      "job": {
        "id": 189,
        "name": "Président directeur général",
        "short_name": "P.D.G."
      },
      "start_date": "1948-01-01",
      "end_date": "1953-12-31"
    }
  ],
  "name": "U. Fischer"
}