{
  "id": 90033,
  "names": [
    "L. Gancel"
  ],
  "functions": [
    {
      "issuer": {
        "id": 5382,
        "name": "\"SAINT-DIDIER\" AUTOMOBILES"
      },
      "job": {
        "id": 219,
        "name": "Administrateur"
      },
      "start_date": "1933-01-01",
      "end_date": "1933-12-31"
    }
  ],
  "name": "L. Gancel"
}