{
  "id": 113277,
  "names": [
    "P. Blanohet"
  ],
  "functions": [
    {
      "issuer": {
        "id": 4406,
        "name": "LA TELEMECANIQUE ELECTRIQUE"
      },
      "job": {
        "id": 102,
        "name": "Président",
        "short_name": "P."
      },
      "start_date": "1948-01-01",
      "end_date": "1948-12-31"
    }
  ],
  "name": "P. Blanohet"
}