{
  "id": 115116,
  "names": [
    "Bent Suenson"
  ],
  "functions": [
    {
      "issuer": {
        "id": 4983,
        "name": "LA HOLDING COMPANY DE LA GRANDE COMPAGNIE DES TELEGRAPHES DU NORD"
      },
      "job": {
        "id": 219,
        "name": "Administrateur"
      },
      "start_date": "1948-01-01",
      "end_date": "1948-12-31"
    }
  ],
  "name": "Bent Suenson"
}