{
  "id": 55542,
  "names": [
    "U. Rouvière"
  ],
  "functions": [
    {
      "issuer": {
        "id": 3368,
        "name": "ELECTRICITE ET GAZ DU NORD"
      },
      "job": {
        "id": 219,
        "name": "Administrateur"
      },
      "start_date": "1923-01-01",
      "end_date": "1933-12-31"
    },
    {
      "issuer": {
        "id": 4368,
        "name": "FORGES ET ATELIERS DE CONSTRUCTIONS ELECTRIQUES DE JEUMONT"
      },
      "job": {
        "id": 219,
        "name": "Administrateur"
      },
      "start_date": "1933-01-01",
      "end_date": "1933-12-31"
    }
  ],
  "name": "U. Rouvière"
}