{
  "id": 115127,
  "names": [
    "P. van der Berg"
  ],
  "functions": [
    {
      "issuer": {
        "id": 4934,
        "name": "N. V. Gemeenschappelijk Bezit van Andeelen Philips Gloeilampenfabrieken (Société holding)"
      },
      "job": {
        "id": 219,
        "name": "Administrateur"
      },
      "start_date": "1948-01-01",
      "end_date": "1948-12-31"
    }
  ],
  "name": "P. van der Berg"
}