{
  "id": 54840,
  "names": [
    "L. Schüller"
  ],
  "functions": [
    {
      "issuer": {
        "id": 1162,
        "name": "Société autrichienne-hongroise privilégiée des chemins de fer de l'État"
      },
      "job": {
        "id": 219,
        "name": "Administrateur"
      },
      "start_date": "1917-01-01",
      "end_date": "1917-12-31"
    }
  ],
  "name": "L. Schüller"
}