{
  "id": 121549,
  "names": [
    "la Compagnie Marocaine"
  ],
  "functions": [
    {
      "issuer": {
        "id": 3923,
        "name": "LESIEUR-AFRIQUE (CASABLANCA)"
      },
      "job": {
        "id": 219,
        "name": "Administrateur"
      },
      "start_date": "1953-01-01",
      "end_date": "1953-12-31"
    }
  ],
  "name": "la Compagnie Marocaine"
}