{
  "id": 120363,
  "names": [
    "Daniel Olivier"
  ],
  "functions": [
    {
      "issuer": {
        "id": 4634,
        "name": "NOVACEL (Nouvelles Applications Chimiques et Cellulosiques)"
      },
      "job": {
        "id": 102,
        "name": "Président",
        "short_name": "P."
      },
      "start_date": "1953-01-01",
      "end_date": "1953-12-31"
    }
  ],
  "name": "Daniel Olivier"
}