{
  "id": 129119,
  "names": [
    "Bouruet-Aubertot"
  ],
  "functions": [
    {
      "issuer": {
        "id": 324,
        "name": "LA FRANCE Compagnie d'assurances contre l'incendie"
      },
      "job": {
        "id": 219,
        "name": "Administrateur"
      },
      "start_date": "1880-01-01",
      "end_date": "1880-12-31"
    }
  ],
  "name": "Bouruet-Aubertot"
}