{
  "id": 50576,
  "names": [
    "Charpy"
  ],
  "functions": [
    {
      "issuer": {
        "id": 3210,
        "name": "STÉ FSE DES NOUVELLES GALERIES RÉUNIES"
      },
      "job": {
        "id": 219,
        "name": "Administrateur"
      },
      "start_date": "1903-01-01",
      "end_date": "1903-12-31"
    }
  ],
  "name": "Charpy"
}