{
  "id": 104586,
  "names": [
    "M. Blenstein"
  ],
  "functions": [
    {
      "issuer": {
        "id": 10519,
        "name": "G. M. FILM (Travaux Industriels Cinématographiques)"
      },
      "job": {
        "id": 219,
        "name": "Administrateur"
      },
      "start_date": "1940-01-01",
      "end_date": "1940-12-31"
    },
    {
      "issuer": {
        "id": 4088,
        "name": "SOCIETE NOUVELLE DES ETABLISSEMENTS GAUMONT"
      },
      "job": {
        "id": 219,
        "name": "Administrateur"
      },
      "start_date": "1948-01-01",
      "end_date": "1948-12-31"
    }
  ],
  "name": "M. Blenstein"
}