{
  "id": 50876,
  "names": [
    "prince Corsini"
  ],
  "functions": [
    {
      "issuer": {
        "id": 1240,
        "name": "Société Italienne des Chemins de fer Méridionaux"
      },
      "job": {
        "id": 102,
        "name": "Président",
        "short_name": "P."
      },
      "start_date": "1903-01-01",
      "end_date": "1908-12-31"
    },
    {
      "issuer": {
        "id": 1240,
        "name": "Société Italienne des Chemins de fer Méridionaux"
      },
      "job": {
        "id": 219,
        "name": "Administrateur"
      },
      "start_date": "1917-01-01",
      "end_date": "1917-12-31"
    },
    {
      "issuer": {
        "id": 1240,
        "name": "Société Italienne des Chemins de fer Méridionaux"
      },
      "job": {
        "id": 219,
        "name": "Administrateur"
      },
      "start_date": "1923-01-01",
      "end_date": "1927-12-31"
    }
  ],
  "name": "prince Corsini"
}