{
  "id": 70685,
  "names": [
    "Nussard"
  ],
  "functions": [
    {
      "issuer": {
        "id": 7099,
        "name": "Société anonyme de Produits chimiques de Saint-Denis"
      },
      "job": {
        "id": 219,
        "name": "Administrateur"
      },
      "start_date": "1917-01-01",
      "end_date": "1917-12-31"
    }
  ],
  "name": "Nussard"
}