{
  "id": 41893,
  "names": [
    "Gabriel Benoit-Champy"
  ],
  "functions": [
    {
      "issuer": {
        "id": 2179,
        "name": "L'Assurance financière. Société mutuelle de reconstitution des capitaux"
      },
      "job": {
        "id": 219,
        "name": "Administrateur"
      },
      "start_date": "1880-01-01",
      "end_date": "1880-12-31"
    },
    {
      "issuer": {
        "id": 671,
        "name": "Société Générale de CREDIT INDUSTRIEL ET COMMERCIAL"
      },
      "job": {
        "id": 219,
        "name": "Administrateur"
      },
      "start_date": "1880-01-01",
      "end_date": "1889-12-31"
    }
  ],
  "name": "Gabriel Benoit-Champy"
}