{
  "id": 54979,
  "names": [
    "J. de Ver Warner"
  ],
  "functions": [
    {
      "issuer": {
        "id": 3356,
        "name": "THE NEW-YORK, NEW HAVEN AND HARTFORD RAILROAD COMPANY"
      },
      "job": {
        "id": 219,
        "name": "Administrateur"
      },
      "start_date": "1908-01-01",
      "end_date": "1908-12-31"
    },
    {
      "issuer": {
        "id": 3356,
        "name": "THE NEW-YORK, NEW HAVEN AND HARTFORD RAILROAD COMPANY"
      },
      "job": {
        "id": 219,
        "name": "Administrateur"
      },
      "start_date": "1917-01-01",
      "end_date": "1917-12-31"
    }
  ],
  "name": "J. de Ver Warner"
}