{
  "id": 58367,
  "names": [
    "P. de Herzog"
  ],
  "functions": [
    {
      "issuer": {
        "id": 3364,
        "name": "BANQUE HONGROISE DES RENTES ET DU CRÉDIT AGRICOLE"
      },
      "job": {
        "id": 219,
        "name": "Administrateur"
      },
      "start_date": "1912-01-01",
      "end_date": "1912-12-31"
    },
    {
      "issuer": {
        "id": 3364,
        "name": "BANQUE HONGROISE DES RENTES ET DU CRÉDIT AGRICOLE"
      },
      "job": {
        "id": 219,
        "name": "Administrateur"
      },
      "start_date": "1917-01-01",
      "end_date": "1917-12-31"
    },
    {
      "issuer": {
        "id": 10311,
        "name": "THE ORIENTAL TOBACCO TRADING C°, Ltd"
      },
      "job": {
        "id": 219,
        "name": "Administrateur"
      },
      "start_date": "1917-01-01",
      "end_date": "1917-12-31"
    }
  ],
  "name": "P. de Herzog"
}