{
  "id": 83191,
  "names": [
    "P. Vandenhoeek"
  ],
  "functions": [
    {
      "issuer": {
        "id": 5202,
        "name": "COMPAGNIE PHAROS"
      },
      "job": {
        "id": 219,
        "name": "Administrateur"
      },
      "start_date": "1927-01-01",
      "end_date": "1927-12-31"
    },
    {
      "issuer": {
        "id": 5202,
        "name": "COMPAGNIE PHAROS"
      },
      "job": {
        "id": 219,
        "name": "Administrateur"
      },
      "start_date": "1933-01-01",
      "end_date": "1933-12-31"
    }
  ],
  "name": "P. Vandenhoeek"
}