{
  "id": 53282,
  "names": [
    "Boudier"
  ],
  "functions": [
    {
      "issuer": {
        "id": 104,
        "name": "BANQUE DE FRANCE"
      },
      "job": {
        "id": 11226,
        "name": "Régent"
      },
      "start_date": "1908-01-01",
      "end_date": "1908-12-31"
    }
  ],
  "name": "Boudier"
}