{
  "id": 56874,
  "names": [
    "A. Frénais"
  ],
  "functions": [
    {
      "issuer": {
        "id": 3004,
        "name": "SOCIÉTÉ FERMIERE DE L'HOTEL CONTINENTAL"
      },
      "job": {
        "id": 219,
        "name": "Administrateur"
      },
      "start_date": "1912-01-01",
      "end_date": "1912-12-31"
    }
  ],
  "name": "A. Frénais"
}