{
  "id": 96797,
  "names": [
    "L. Sabattier"
  ],
  "functions": [
    {
      "issuer": {
        "id": 4214,
        "name": "ETABLISSEMENTS SEGUIN SOCIETE DES FONDERIES DE CUIVRE, LYON, MACON ET PARIS"
      },
      "job": {
        "id": 10019,
        "name": "Commissaire des comptes"
      },
      "start_date": "1940-01-01",
      "end_date": "1945-12-31"
    }
  ],
  "name": "L. Sabattier"
}