{
  "id": 110705,
  "names": [
    "H. Charbon"
  ],
  "functions": [
    {
      "issuer": {
        "id": 752,
        "name": "Lyonnaise Dépôts et Crédit Industriel"
      },
      "job": {
        "id": 10019,
        "name": "Commissaire des comptes"
      },
      "start_date": "1948-01-01",
      "end_date": "1953-12-31"
    }
  ],
  "name": "H. Charbon"
}