{
  "id": 117855,
  "names": [
    "A. Maitre"
  ],
  "functions": [
    {
      "issuer": {
        "id": 4897,
        "name": "USINES HYDRO-ELECTRIQUES DE CREUSE ET VIENNE"
      },
      "job": {
        "id": 219,
        "name": "Administrateur"
      },
      "start_date": "1953-01-01",
      "end_date": "1953-12-31"
    }
  ],
  "name": "A. Maitre"
}