{
  "id": 71189,
  "names": [
    "H.-C. Hoover"
  ],
  "functions": [
    {
      "issuer": {
        "id": 10236,
        "name": "CAMP BIRD LIMITED"
      },
      "job": {
        "id": 219,
        "name": "Administrateur"
      },
      "start_date": "1917-01-01",
      "end_date": "1917-12-31"
    }
  ],
  "name": "H.-C. Hoover"
}