{
  "id": 102167,
  "names": [
    "docteur ingénieur Edvard Outrata"
  ],
  "functions": [
    {
      "issuer": {
        "id": 5333,
        "name": "ANCIENS ETABLISSEMENTS SKODA A PLZEN (Tchécoslovaquie)"
      },
      "job": {
        "id": 219,
        "name": "Administrateur"
      },
      "start_date": "1940-01-01",
      "end_date": "1940-12-31"
    }
  ],
  "name": "docteur ingénieur Edvard Outrata"
}