{
  "id": 79085,
  "names": [
    "L. Bergé"
  ],
  "functions": [
    {
      "issuer": {
        "id": 3034,
        "name": "SOCIÉTÉ FRANCO-HELLENIQUE D'EXPLOITATION DU PORT DE SALONIQUE"
      },
      "job": {
        "id": 219,
        "name": "Administrateur"
      },
      "start_date": "1927-01-01",
      "end_date": "1933-12-31"
    },
    {
      "issuer": {
        "id": 2732,
        "name": "COMPAGNIE IMMOBILIERE ET DE RÉGIE DE TERRAINS A SALONIQUE"
      },
      "job": {
        "id": 219,
        "name": "Administrateur"
      },
      "start_date": "1933-01-01",
      "end_date": "1933-12-31"
    },
    {
      "issuer": {
        "id": 3034,
        "name": "SOCIÉTÉ FRANCO-HELLENIQUE D'EXPLOITATION DU PORT DE SALONIQUE"
      },
      "job": {
        "id": 101,
        "name": "Administrateur Délégué",
        "short_name": "Ad. Dél."
      },
      "start_date": "1940-01-01",
      "end_date": "1940-12-31"
    },
    {
      "issuer": {
        "id": 3034,
        "name": "SOCIÉTÉ FRANCO-HELLENIQUE D'EXPLOITATION DU PORT DE SALONIQUE"
      },
      "job": {
        "id": 102,
        "name": "Président",
        "short_name": "P."
      },
      "start_date": "1945-01-01",
      "end_date": "1948-12-31"
    },
    {
      "issuer": {
        "id": 3034,
        "name": "SOCIÉTÉ FRANCO-HELLENIQUE D'EXPLOITATION DU PORT DE SALONIQUE"
      },
      "job": {
        "id": 189,
        "name": "Président directeur général",
        "short_name": "P.D.G."
      },
      "start_date": "1953-01-01",
      "end_date": "1953-12-31"
    }
  ],
  "name": "L. Bergé"
}