{
  "id": 117809,
  "names": [
    "Etienne Delacroix"
  ],
  "functions": [
    {
      "issuer": {
        "id": 5039,
        "name": "Société d'Electricité"
      },
      "job": {
        "id": 219,
        "name": "Administrateur"
      },
      "start_date": "1953-01-01",
      "end_date": "1953-12-31"
    }
  ],
  "name": "Etienne Delacroix"
}