{
  "id": 111793,
  "names": [
    "L. de Mijolla"
  ],
  "functions": [
    {
      "issuer": {
        "id": 1330,
        "name": "Société de Commentry-Fourchambault"
      },
      "job": {
        "id": 219,
        "name": "Administrateur"
      },
      "start_date": "1948-01-01",
      "end_date": "1953-12-31"
    },
    {
      "issuer": {
        "id": 2764,
        "name": "STÉ MÉTALLURGIQUE DE MONTBARD-AULNOYE"
      },
      "job": {
        "id": 219,
        "name": "Administrateur"
      },
      "start_date": "1953-01-01",
      "end_date": "1953-12-31"
    }
  ],
  "name": "L. de Mijolla"
}