{
  "id": 97911,
  "names": [
    "A. Gruede"
  ],
  "functions": [
    {
      "issuer": {
        "id": 4920,
        "name": "CHEMINS DE FER DANUBE SAVE ADRIATIQUE"
      },
      "job": {
        "id": 219,
        "name": "Administrateur"
      },
      "start_date": "1940-01-01",
      "end_date": "1940-12-31"
    }
  ],
  "name": "A. Gruede"
}