{
  "id": 121563,
  "names": [
    "J. Casteja"
  ],
  "functions": [
    {
      "issuer": {
        "id": 11608,
        "name": "SOCIETE BEARNAISE D'IMPORTATION ET D'EXPORTATION"
      },
      "job": {
        "id": 219,
        "name": "Administrateur"
      },
      "start_date": "1953-01-01",
      "end_date": "1953-12-31"
    }
  ],
  "name": "J. Casteja"
}