{
  "id": 56505,
  "names": [
    "E. C. Creel"
  ],
  "functions": [
    {
      "issuer": {
        "id": 4571,
        "name": "THE BATOPILAS MINING. SMELTING AND REFINING COMPANY. LIMITED"
      },
      "job": {
        "id": 219,
        "name": "Administrateur"
      },
      "start_date": "1912-01-01",
      "end_date": "1912-12-31"
    }
  ],
  "name": "E. C. Creel"
}