{
  "id": 122200,
  "names": [
    "H. Maricourt"
  ],
  "functions": [
    {
      "issuer": {
        "id": 3820,
        "name": "SUCRERIES MILLET REUNIES"
      },
      "job": {
        "id": 219,
        "name": "Administrateur"
      },
      "start_date": "1953-01-01",
      "end_date": "1953-12-31"
    }
  ],
  "name": "H. Maricourt"
}