{
  "id": 51225,
  "names": [
    "Alexandre Schœller"
  ],
  "functions": [
    {
      "issuer": {
        "id": 2390,
        "name": "Banca Commerciale Italiana"
      },
      "job": {
        "id": 219,
        "name": "Administrateur"
      },
      "start_date": "1903-01-01",
      "end_date": "1903-12-31"
    },
    {
      "issuer": {
        "id": 2390,
        "name": "Banca Commerciale Italiana"
      },
      "job": {
        "id": 219,
        "name": "Administrateur"
      },
      "start_date": "1908-01-01",
      "end_date": "1908-12-31"
    },
    {
      "issuer": {
        "id": 2390,
        "name": "Banca Commerciale Italiana"
      },
      "job": {
        "id": 219,
        "name": "Administrateur"
      },
      "start_date": "1912-01-01",
      "end_date": "1912-12-31"
    },
    {
      "issuer": {
        "id": 3243,
        "name": "STE DES MINES DE GELSENKIRCHEN"
      },
      "job": {
        "id": 219,
        "name": "Administrateur"
      },
      "start_date": "1912-01-01",
      "end_date": "1923-12-31"
    }
  ],
  "name": "Alexandre Schœller"
}