{
  "id": 58486,
  "names": [
    "J. Soubies"
  ],
  "functions": [
    {
      "issuer": {
        "id": 2289,
        "name": "Société du Cirque d'Hiver, Ch. Franconi et Cie"
      },
      "job": {
        "id": 10637,
        "name": "Membre du Comité de surveillance"
      },
      "start_date": "1912-01-01",
      "end_date": "1912-12-31"
    },
    {
      "issuer": {
        "id": 2289,
        "name": "Société du Cirque d'Hiver, Ch. Franconi et Cie"
      },
      "job": {
        "id": 10637,
        "name": "Membre du Comité de surveillance"
      },
      "start_date": "1917-01-01",
      "end_date": "1923-12-31"
    },
    {
      "issuer": {
        "id": 2289,
        "name": "Société du Cirque d'Hiver, Ch. Franconi et Cie"
      },
      "job": {
        "id": 219,
        "name": "Administrateur"
      },
      "start_date": "1927-01-01",
      "end_date": "1933-12-31"
    },
    {
      "issuer": {
        "id": 2289,
        "name": "Société du Cirque d'Hiver, Ch. Franconi et Cie"
      },
      "job": {
        "id": 10637,
        "name": "Membre du Comité de surveillance"
      },
      "start_date": "1940-01-01",
      "end_date": "1940-12-31"
    }
  ],
  "name": "J. Soubies"
}