{
  "id": 45248,
  "names": [
    "Galland"
  ],
  "functions": [
    {
      "issuer": {
        "id": 2324,
        "name": "Société du Canal de Pierrelatte et extensions"
      },
      "job": {
        "id": 219,
        "name": "Administrateur"
      },
      "start_date": "1889-01-01",
      "end_date": "1893-12-31"
    },
    {
      "issuer": {
        "id": 2324,
        "name": "Société du Canal de Pierrelatte et extensions"
      },
      "job": {
        "id": 219,
        "name": "Administrateur"
      },
      "start_date": "1898-01-01",
      "end_date": "1898-12-31"
    }
  ],
  "name": "Galland"
}