{
  "id": 99506,
  "names": [
    "L. Andrieux"
  ],
  "functions": [
    {
      "issuer": {
        "id": 4631,
        "name": "PRODUITS DU \"LION NOIR\" (Établissements Fernand George)"
      },
      "job": {
        "id": 10019,
        "name": "Commissaire des comptes"
      },
      "start_date": "1940-01-01",
      "end_date": "1940-12-31"
    },
    {
      "issuer": {
        "id": 3165,
        "name": "SOCIÉTÉ FINANCIÈRE CUIVRE ET PYRITES POUR LE COMMERCE ET L'INDUSTRIE"
      },
      "job": {
        "id": 10019,
        "name": "Commissaire des comptes"
      },
      "start_date": "1940-01-01",
      "end_date": "1940-12-31"
    }
  ],
  "name": "L. Andrieux"
}