{
  "id": 51098,
  "names": [
    "Marcel Baeyens"
  ],
  "functions": [
    {
      "issuer": {
        "id": 3226,
        "name": "CHEMINS DE FER DU CONGO SUPÉRIEUR AUX GRANDS LACS AFRICAINS"
      },
      "job": {
        "id": 103,
        "name": "Commissaire"
      },
      "start_date": "1903-01-01",
      "end_date": "1908-12-31"
    },
    {
      "issuer": {
        "id": 3227,
        "name": "CAISSE HYPOTHÉCAIRE D'EGYPTE"
      },
      "job": {
        "id": 219,
        "name": "Administrateur"
      },
      "start_date": "1912-01-01",
      "end_date": "1917-12-31"
    },
    {
      "issuer": {
        "id": 3286,
        "name": "SOCIÉTÉ GÉNÉRALE DE SUCRERIES ET RAFFINERIES EN ROUMANIE"
      },
      "job": {
        "id": 219,
        "name": "Administrateur"
      },
      "start_date": "1912-01-01",
      "end_date": "1917-12-31"
    },
    {
      "issuer": {
        "id": 3145,
        "name": "SOCIETE MÉTALLURGIQUE DU PÉRIGORD"
      },
      "job": {
        "id": 219,
        "name": "Administrateur"
      },
      "start_date": "1912-01-01",
      "end_date": "1927-12-31"
    },
    {
      "issuer": {
        "id": 2545,
        "name": "Compagnie Internationale des Wagons-lits et des grands Express européens"
      },
      "job": {
        "id": 219,
        "name": "Administrateur"
      },
      "start_date": "1917-01-01",
      "end_date": "1917-12-31"
    },
    {
      "issuer": {
        "id": 10434,
        "name": "CIE AUXILIAIRE DE CHEMINS DE FER AU BRÉSIL"
      },
      "job": {
        "id": 219,
        "name": "Administrateur"
      },
      "start_date": "1917-01-01",
      "end_date": "1917-12-31"
    },
    {
      "issuer": {
        "id": 2453,
        "name": "Cie DE CHEMINS DE FER DÉPARTEMENTAUX"
      },
      "job": {
        "id": 219,
        "name": "Administrateur"
      },
      "start_date": "1917-01-01",
      "end_date": "1933-12-31"
    }
  ],
  "name": "Marcel Baeyens"
}