{
  "id": 99111,
  "names": [
    "Ottolini"
  ],
  "functions": [
    {
      "issuer": {
        "id": 4863,
        "name": "SOCIETE INDUSTRIELLE ET COMMERCIALE DES OUVRIERS LUNETIERS"
      },
      "job": {
        "id": 219,
        "name": "Administrateur"
      },
      "start_date": "1940-01-01",
      "end_date": "1945-12-31"
    },
    {
      "issuer": {
        "id": 4863,
        "name": "SOCIETE INDUSTRIELLE ET COMMERCIALE DES OUVRIERS LUNETIERS"
      },
      "job": {
        "id": 229,
        "name": "Gérant"
      },
      "start_date": "1948-01-01",
      "end_date": "1948-12-31"
    }
  ],
  "name": "Ottolini"
}