{
  "id": 56732,
  "names": [
    "C. Prévet"
  ],
  "functions": [
    {
      "issuer": {
        "id": 3013,
        "name": "SOCIÉTÉ ANONYME DU \"PETIT JOURNAL\""
      },
      "job": {
        "id": 219,
        "name": "Administrateur"
      },
      "start_date": "1912-01-01",
      "end_date": "1912-12-31"
    }
  ],
  "name": "C. Prévet"
}