{
  "id": 127400,
  "names": [
    "Gabriel Pelletier"
  ],
  "functions": [
    {
      "issuer": {
        "id": 4457,
        "name": "EMAILLERIES DE LA MARNE"
      },
      "job": {
        "id": 16022,
        "name": "Administrateur Directeur Général"
      },
      "start_date": "1945-01-01",
      "end_date": "1945-12-31"
    },
    {
      "issuer": {
        "id": 4457,
        "name": "EMAILLERIES DE LA MARNE"
      },
      "job": {
        "id": 10002,
        "name": "Directeur Général Adjoint",
        "short_name": "D.G.Adj"
      },
      "start_date": "1948-01-01",
      "end_date": "1948-12-31"
    }
  ],
  "name": "Gabriel Pelletier"
}