{
  "id": 119983,
  "names": [
    "L. Decoisy"
  ],
  "functions": [
    {
      "issuer": {
        "id": 4670,
        "name": "ETABLISSEMENTS FEVRIER, DECOISY, CHAMPION"
      },
      "job": {
        "id": 102,
        "name": "Président",
        "short_name": "P."
      },
      "start_date": "1953-01-01",
      "end_date": "1953-12-31"
    }
  ],
  "name": "L. Decoisy"
}