{
  "id": 58717,
  "names": [
    "Gonzalez Cosio"
  ],
  "functions": [
    {
      "issuer": {
        "id": 2396,
        "name": "Banque de Londres et de Mexico"
      },
      "job": {
        "id": 219,
        "name": "Administrateur"
      },
      "start_date": "1912-01-01",
      "end_date": "1912-12-31"
    },
    {
      "issuer": {
        "id": 2396,
        "name": "Banque de Londres et de Mexico"
      },
      "job": {
        "id": 219,
        "name": "Administrateur"
      },
      "start_date": "1917-01-01",
      "end_date": "1917-12-31"
    }
  ],
  "name": "Gonzalez Cosio"
}