{
  "id": 55094,
  "names": [
    "E. Penn Gaskell"
  ],
  "functions": [
    {
      "issuer": {
        "id": 10094,
        "name": "Great Northern Central Railway of Colombia Ltd (The)"
      },
      "job": {
        "id": 219,
        "name": "Administrateur"
      },
      "start_date": "1912-01-01",
      "end_date": "1912-12-31"
    }
  ],
  "name": "E. Penn Gaskell"
}