{
  "id": 92578,
  "names": [
    "J. Moutard"
  ],
  "functions": [
    {
      "issuer": {
        "id": 10966,
        "name": "ETABLISSEMENTS TISSIER (Les Lions de Faïence, Verreries de CREIL et QUIQUENGROGNE)"
      },
      "job": {
        "id": 219,
        "name": "Administrateur"
      },
      "start_date": "1933-01-01",
      "end_date": "1933-12-31"
    }
  ],
  "name": "J. Moutard"
}