{
  "id": 47871,
  "names": [
    "Emile Labiche"
  ],
  "functions": [
    {
      "issuer": {
        "id": 1743,
        "name": "Caisse centrale populaire (Banque du travail et de l'épargne)"
      },
      "job": {
        "id": 219,
        "name": "Administrateur"
      },
      "start_date": "1883-01-01",
      "end_date": "1883-12-31"
    },
    {
      "issuer": {
        "id": 378,
        "name": "Cie D'ASSURANCES LE NORD (Anciennement Le Nord, Compagnie d'assurances contre l'incendie et contre le bris des glaces)"
      },
      "job": {
        "id": 219,
        "name": "Administrateur"
      },
      "start_date": "1883-01-01",
      "end_date": "1893-12-31"
    },
    {
      "issuer": {
        "id": 378,
        "name": "Cie D'ASSURANCES LE NORD (Anciennement Le Nord, Compagnie d'assurances contre l'incendie et contre le bris des glaces)"
      },
      "job": {
        "id": 117,
        "name": "Vice-Président",
        "short_name": "V.-Pr."
      },
      "start_date": "1889-01-01",
      "end_date": "1889-12-31"
    },
    {
      "issuer": {
        "id": 378,
        "name": "Cie D'ASSURANCES LE NORD (Anciennement Le Nord, Compagnie d'assurances contre l'incendie et contre le bris des glaces)"
      },
      "job": {
        "id": 219,
        "name": "Administrateur"
      },
      "start_date": "1898-01-01",
      "end_date": "1898-12-31"
    },
    {
      "issuer": {
        "id": 2109,
        "name": "Le Nord, Compagnie d'assurances sur la vie et de prêts viagers"
      },
      "job": {
        "id": 102,
        "name": "Président",
        "short_name": "P."
      },
      "start_date": "1903-01-01",
      "end_date": "1908-12-31"
    },
    {
      "issuer": {
        "id": 378,
        "name": "Cie D'ASSURANCES LE NORD (Anciennement Le Nord, Compagnie d'assurances contre l'incendie et contre le bris des glaces)"
      },
      "job": {
        "id": 102,
        "name": "Président",
        "short_name": "P."
      },
      "start_date": "1903-01-01",
      "end_date": "1908-12-31"
    },
    {
      "issuer": {
        "id": 378,
        "name": "Cie D'ASSURANCES LE NORD (Anciennement Le Nord, Compagnie d'assurances contre l'incendie et contre le bris des glaces)"
      },
      "job": {
        "id": 219,
        "name": "Administrateur"
      },
      "start_date": "1912-01-01",
      "end_date": "1917-12-31"
    },
    {
      "issuer": {
        "id": 2109,
        "name": "Le Nord, Compagnie d'assurances sur la vie et de prêts viagers"
      },
      "job": {
        "id": 219,
        "name": "Administrateur"
      },
      "start_date": "1912-01-01",
      "end_date": "1923-12-31"
    }
  ],
  "name": "Emile Labiche"
}