{
  "id": 85220,
  "names": [
    "M. Balbuena"
  ],
  "functions": [
    {
      "issuer": {
        "id": 2877,
        "name": "CIE DES MINES DE CUIVRE DE SAN-PLATON"
      },
      "job": {
        "id": 219,
        "name": "Administrateur"
      },
      "start_date": "1933-01-01",
      "end_date": "1933-12-31"
    },
    {
      "issuer": {
        "id": 2877,
        "name": "CIE DES MINES DE CUIVRE DE SAN-PLATON"
      },
      "job": {
        "id": 10420,
        "name": "Liquidateur"
      },
      "start_date": "1940-01-01",
      "end_date": "1948-12-31"
    }
  ],
  "name": "M. Balbuena"
}