{
  "id": 63969,
  "names": [
    "D. O. Lespérance"
  ],
  "functions": [
    {
      "issuer": {
        "id": 10163,
        "name": "THE QUEBEC RAILWAY LIGHT HEAT AND POWER COMPANY, LIMITED"
      },
      "job": {
        "id": 219,
        "name": "Administrateur"
      },
      "start_date": "1917-01-01",
      "end_date": "1923-12-31"
    },
    {
      "issuer": {
        "id": 10163,
        "name": "THE QUEBEC RAILWAY LIGHT HEAT AND POWER COMPANY, LIMITED"
      },
      "job": {
        "id": 219,
        "name": "Administrateur"
      },
      "start_date": "1933-01-01",
      "end_date": "1933-12-31"
    }
  ],
  "name": "D. O. Lespérance"
}