{
  "id": 79336,
  "names": [
    "Emile Vincent"
  ],
  "functions": [
    {
      "issuer": {
        "id": 3368,
        "name": "ELECTRICITE ET GAZ DU NORD"
      },
      "job": {
        "id": 219,
        "name": "Administrateur"
      },
      "start_date": "1927-01-01",
      "end_date": "1933-12-31"
    },
    {
      "issuer": {
        "id": 3368,
        "name": "ELECTRICITE ET GAZ DU NORD"
      },
      "job": {
        "id": 219,
        "name": "Administrateur"
      },
      "start_date": "1940-01-01",
      "end_date": "1945-12-31"
    }
  ],
  "name": "Emile Vincent"
}