{
  "id": 106385,
  "names": [
    "E. Lesimple"
  ],
  "functions": [
    {
      "issuer": {
        "id": 4107,
        "name": "SOCIETE FRANÇAISE DES CONSTRUCTIONS BABCOCK ET WILCOX"
      },
      "job": {
        "id": 219,
        "name": "Administrateur"
      },
      "start_date": "1945-01-01",
      "end_date": "1953-12-31"
    }
  ],
  "name": "E. Lesimple"
}