{
  "id": 110595,
  "names": [
    "G. Relier"
  ],
  "functions": [
    {
      "issuer": {
        "id": 3044,
        "name": "BANQUE DE L'AFRIQUE OCCIDENTALE"
      },
      "job": {
        "id": 102,
        "name": "Président",
        "short_name": "P."
      },
      "start_date": "1948-01-01",
      "end_date": "1948-12-31"
    }
  ],
  "name": "G. Relier"
}