{
  "id": 84801,
  "names": [
    "L. Declève"
  ],
  "functions": [
    {
      "issuer": {
        "id": 10884,
        "name": "Société IMMOBILIERE ET DES BAINS DE MER DE JUAN-LES-PINS"
      },
      "job": {
        "id": 219,
        "name": "Administrateur"
      },
      "start_date": "1933-01-01",
      "end_date": "1933-12-31"
    }
  ],
  "name": "L. Declève"
}