{
  "id": 95092,
  "names": [
    "Ed. Bouchayer"
  ],
  "functions": [
    {
      "issuer": {
        "id": 2701,
        "name": "ENERGIE ELECTRIQUE DU LITTORAL MEDITERRANEEN"
      },
      "job": {
        "id": 219,
        "name": "Administrateur"
      },
      "start_date": "1940-01-01",
      "end_date": "1940-12-31"
    }
  ],
  "name": "Ed. Bouchayer"
}