{
  "id": 58388,
  "names": [
    "Deligny"
  ],
  "functions": [
    {
      "issuer": {
        "id": 7066,
        "name": "Tuileries du Berry"
      },
      "job": {
        "id": 219,
        "name": "Administrateur"
      },
      "start_date": "1917-01-01",
      "end_date": "1917-12-31"
    }
  ],
  "name": "Deligny"
}