{
  "id": 82649,
  "names": [
    "Touzeau"
  ],
  "functions": [
    {
      "issuer": {
        "id": 2983,
        "name": "SOCIETE ANONYME DES CASINOS DE ROYAN"
      },
      "job": {
        "id": 219,
        "name": "Administrateur"
      },
      "start_date": "1927-01-01",
      "end_date": "1927-12-31"
    }
  ],
  "name": "Touzeau"
}