{
  "id": 88227,
  "names": [
    "Emery"
  ],
  "functions": [
    {
      "issuer": {
        "id": 3646,
        "name": "Société IMMOBILIÈRE DE L'ETANG DE BERRE ET DE LA MÉDITERRANÉE"
      },
      "job": {
        "id": 219,
        "name": "Administrateur"
      },
      "start_date": "1933-01-01",
      "end_date": "1933-12-31"
    }
  ],
  "name": "Emery"
}