{
  "id": 84189,
  "names": [
    "J. Dorget"
  ],
  "functions": [
    {
      "issuer": {
        "id": 5260,
        "name": "SOCIÉTÉ ANONYME DES ETABLISSEMENTS CLAUDE GUILLEMAUD AINÉ"
      },
      "job": {
        "id": 219,
        "name": "Administrateur"
      },
      "start_date": "1927-01-01",
      "end_date": "1927-12-31"
    },
    {
      "issuer": {
        "id": 5260,
        "name": "SOCIÉTÉ ANONYME DES ETABLISSEMENTS CLAUDE GUILLEMAUD AINÉ"
      },
      "job": {
        "id": 102,
        "name": "Président",
        "short_name": "P."
      },
      "start_date": "1933-01-01",
      "end_date": "1933-12-31"
    },
    {
      "issuer": {
        "id": 5260,
        "name": "SOCIÉTÉ ANONYME DES ETABLISSEMENTS CLAUDE GUILLEMAUD AINÉ"
      },
      "job": {
        "id": 102,
        "name": "Président",
        "short_name": "P."
      },
      "start_date": "1940-01-01",
      "end_date": "1940-12-31"
    }
  ],
  "name": "J. Dorget"
}