{
  "id": 56924,
  "names": [
    "F. Lane"
  ],
  "functions": [
    {
      "issuer": {
        "id": 3447,
        "name": "ASTRA ROMANA"
      },
      "job": {
        "id": 219,
        "name": "Administrateur"
      },
      "start_date": "1912-01-01",
      "end_date": "1912-12-31"
    },
    {
      "issuer": {
        "id": 3448,
        "name": "ROYAL DUTCH Société Royale Néerlandaise pour l'Exploitation des Gisements de Pétrole"
      },
      "job": {
        "id": 219,
        "name": "Administrateur"
      },
      "start_date": "1923-01-01",
      "end_date": "1923-12-31"
    }
  ],
  "name": "F. Lane"
}