{
  "id": 115735,
  "names": [
    "Alexandre Palante"
  ],
  "functions": [
    {
      "issuer": {
        "id": 11429,
        "name": "TRAMWAYS ET ELECTRICITE DE DAMAS"
      },
      "job": {
        "id": 219,
        "name": "Administrateur"
      },
      "start_date": "1953-01-01",
      "end_date": "1953-12-31"
    }
  ],
  "name": "Alexandre Palante"
}