{
  "id": 105668,
  "names": [
    "M. de Tructas de Lys"
  ],
  "functions": [
    {
      "issuer": {
        "id": 3461,
        "name": "LA SÉQUANAISE FONCIERE ET IMMOBILIERE"
      },
      "job": {
        "id": 219,
        "name": "Administrateur"
      },
      "start_date": "1945-01-01",
      "end_date": "1945-12-31"
    }
  ],
  "name": "M. de Tructas de Lys"
}