{
  "id": 102500,
  "names": [
    "marquis R. de Marguerie"
  ],
  "functions": [
    {
      "issuer": {
        "id": 11467,
        "name": "SOCIÉTÉ DE FORCES MOTRICES DU CENTRE"
      },
      "job": {
        "id": 219,
        "name": "Administrateur"
      },
      "start_date": "1940-01-01",
      "end_date": "1945-12-31"
    }
  ],
  "name": "marquis R. de Marguerie"
}