{
  "id": 79765,
  "names": [
    "Ch. Magnin"
  ],
  "functions": [
    {
      "issuer": {
        "id": 1180,
        "name": "Compagnie des Forges et Aciéries de la Marine et des Chemins de fer"
      },
      "job": {
        "id": 219,
        "name": "Administrateur"
      },
      "start_date": "1917-01-01",
      "end_date": "1917-12-31"
    },
    {
      "issuer": {
        "id": 10725,
        "name": "ÉTABLISSEMENTS MÉTALLURGIQUES DE LA GIRONDE"
      },
      "job": {
        "id": 219,
        "name": "Administrateur"
      },
      "start_date": "1927-01-01",
      "end_date": "1933-12-31"
    }
  ],
  "name": "Ch. Magnin"
}