{
  "id": 58760,
  "names": [
    "Poliak"
  ],
  "functions": [
    {
      "issuer": {
        "id": 3756,
        "name": "BANQUE DE COMMERCE PRIVÉE DE SAINT-PÉTERSBOURG"
      },
      "job": {
        "id": 10637,
        "name": "Membre du Comité de surveillance"
      },
      "start_date": "1912-01-01",
      "end_date": "1917-12-31"
    },
    {
      "issuer": {
        "id": 3756,
        "name": "BANQUE DE COMMERCE PRIVÉE DE SAINT-PÉTERSBOURG"
      },
      "job": {
        "id": 10254,
        "name": "Conseiller de surveillance"
      },
      "start_date": "1923-01-01",
      "end_date": "1923-12-31"
    },
    {
      "issuer": {
        "id": 3756,
        "name": "BANQUE DE COMMERCE PRIVÉE DE SAINT-PÉTERSBOURG"
      },
      "job": {
        "id": 10263,
        "name": "Conseiller de surveillance"
      },
      "start_date": "1927-01-01",
      "end_date": "1927-12-31"
    }
  ],
  "name": "Poliak"
}