{
  "id": 112302,
  "names": [
    "Max Lonner"
  ],
  "functions": [
    {
      "issuer": {
        "id": 2878,
        "name": "ANGLO-FRENCH TICAPAMPA SILVER MINING CY"
      },
      "job": {
        "id": 219,
        "name": "Administrateur"
      },
      "start_date": "1948-01-01",
      "end_date": "1953-12-31"
    }
  ],
  "name": "Max Lonner"
}