{
  "id": 102649,
  "names": [
    "G. Grahame"
  ],
  "functions": [
    {
      "issuer": {
        "id": 5049,
        "name": "SOCIÉTÉ INTERNATIONALE D'ENERGIE HYDRO-ELECTRIQUE (SIDRO)"
      },
      "job": {
        "id": 219,
        "name": "Administrateur"
      },
      "start_date": "1940-01-01",
      "end_date": "1940-12-31"
    }
  ],
  "name": "G. Grahame"
}