{
  "id": 72291,
  "names": [
    "J. Blavier"
  ],
  "functions": [
    {
      "issuer": {
        "id": 10032,
        "name": "SOCIÉTÉ DES MINES DE LA BELLIERE"
      },
      "job": {
        "id": 219,
        "name": "Administrateur"
      },
      "start_date": "1923-01-01",
      "end_date": "1933-12-31"
    },
    {
      "issuer": {
        "id": 10032,
        "name": "SOCIÉTÉ DES MINES DE LA BELLIERE"
      },
      "job": {
        "id": 117,
        "name": "Vice-Président",
        "short_name": "V.-Pr."
      },
      "start_date": "1940-01-01",
      "end_date": "1953-12-31"
    },
    {
      "issuer": {
        "id": 4071,
        "name": "COMMISSION DES ARDOISIERES D'ANGERS"
      },
      "job": {
        "id": 219,
        "name": "Administrateur"
      },
      "start_date": "1945-01-01",
      "end_date": "1953-12-31"
    }
  ],
  "name": "J. Blavier"
}