{
  "id": 90710,
  "names": [
    "Deros"
  ],
  "functions": [
    {
      "issuer": {
        "id": 2871,
        "name": "COMPAGNIE DES PHOSPHATES DU DYR"
      },
      "job": {
        "id": 219,
        "name": "Administrateur"
      },
      "start_date": "1933-01-01",
      "end_date": "1933-12-31"
    }
  ],
  "name": "Deros"
}