{
  "id": 119413,
  "names": [
    "Nestor Meurisse"
  ],
  "functions": [
    {
      "issuer": {
        "id": 4478,
        "name": "BOULONNERIE ET FERRONNERIE DE THIANT"
      },
      "job": {
        "id": 10019,
        "name": "Commissaire des comptes"
      },
      "start_date": "1953-01-01",
      "end_date": "1953-12-31"
    }
  ],
  "name": "Nestor Meurisse"
}