{
  "id": 44557,
  "names": [
    "H. Bamberger"
  ],
  "functions": [
    {
      "issuer": {
        "id": 1387,
        "name": "BANQUE PARIBAS"
      },
      "job": {
        "id": 219,
        "name": "Administrateur"
      },
      "start_date": "1889-01-01",
      "end_date": "1908-12-31"
    },
    {
      "issuer": {
        "id": 1943,
        "name": "CRÉDIT FONCIER DU ROYAUME DE HONGRIE"
      },
      "job": {
        "id": 10254,
        "name": "Conseiller de surveillance"
      },
      "start_date": "1903-01-01",
      "end_date": "1903-12-31"
    }
  ],
  "name": "H. Bamberger"
}