{
  "id": 75904,
  "names": [
    "Tedeschi"
  ],
  "functions": [
    {
      "issuer": {
        "id": 2545,
        "name": "Compagnie Internationale des Wagons-lits et des grands Express européens"
      },
      "job": {
        "id": 219,
        "name": "Administrateur"
      },
      "start_date": "1923-01-01",
      "end_date": "1927-12-31"
    },
    {
      "issuer": {
        "id": 2750,
        "name": "Société générale des Forges et Ateliers de Saint-Denis"
      },
      "job": {
        "id": 219,
        "name": "Administrateur"
      },
      "start_date": "1927-01-01",
      "end_date": "1927-12-31"
    }
  ],
  "name": "Tedeschi"
}