{
  "id": 85974,
  "names": [
    "A. de Biedermann"
  ],
  "functions": [
    {
      "issuer": {
        "id": 4106,
        "name": "ATELIERS D'AVIATION LOUIS BREGUET"
      },
      "job": {
        "id": 219,
        "name": "Administrateur"
      },
      "start_date": "1933-01-01",
      "end_date": "1933-12-31"
    },
    {
      "issuer": {
        "id": 3441,
        "name": "COMPAGNIE DU PORT COMMERCIAL DE BAHIA-BLANCA (PUERTO-BELGRANO)"
      },
      "job": {
        "id": 219,
        "name": "Administrateur"
      },
      "start_date": "1933-01-01",
      "end_date": "1933-12-31"
    },
    {
      "issuer": {
        "id": 3441,
        "name": "COMPAGNIE DU PORT COMMERCIAL DE BAHIA-BLANCA (PUERTO-BELGRANO)"
      },
      "job": {
        "id": 102,
        "name": "Président",
        "short_name": "P."
      },
      "start_date": "1940-01-01",
      "end_date": "1940-12-31"
    },
    {
      "issuer": {
        "id": 4106,
        "name": "ATELIERS D'AVIATION LOUIS BREGUET"
      },
      "job": {
        "id": 117,
        "name": "Vice-Président",
        "short_name": "V.-Pr."
      },
      "start_date": "1940-01-01",
      "end_date": "1953-12-31"
    },
    {
      "issuer": {
        "id": 3441,
        "name": "COMPAGNIE DU PORT COMMERCIAL DE BAHIA-BLANCA (PUERTO-BELGRANO)"
      },
      "job": {
        "id": 219,
        "name": "Administrateur"
      },
      "start_date": "1945-01-01",
      "end_date": "1953-12-31"
    },
    {
      "issuer": {
        "id": 4824,
        "name": "CHEMIN DE FER DE DAMAS-HAMAH ET PROLONGEMENTS (Anciennement SOCIÉTÉ OTTOMANE)"
      },
      "job": {
        "id": 219,
        "name": "Administrateur"
      },
      "start_date": "1953-01-01",
      "end_date": "1953-12-31"
    }
  ],
  "name": "A. de Biedermann"
}