{
  "id": 118460,
  "names": [
    "P. Bois"
  ],
  "functions": [
    {
      "issuer": {
        "id": 3505,
        "name": "REGIE NATIONALE DES USINES RENAULT"
      },
      "job": {
        "id": 219,
        "name": "Administrateur"
      },
      "start_date": "1953-01-01",
      "end_date": "1953-12-31"
    }
  ],
  "name": "P. Bois"
}