{
  "id": 58443,
  "names": [
    "V. Bernot"
  ],
  "functions": [
    {
      "issuer": {
        "id": 3194,
        "name": "MAISON BERNOT FRERES (Ch. BERNOT ET Cie)"
      },
      "job": {
        "id": 10637,
        "name": "Membre du Comité de surveillance"
      },
      "start_date": "1912-01-01",
      "end_date": "1912-12-31"
    },
    {
      "issuer": {
        "id": 3194,
        "name": "MAISON BERNOT FRERES (Ch. BERNOT ET Cie)"
      },
      "job": {
        "id": 219,
        "name": "Administrateur"
      },
      "start_date": "1923-01-01",
      "end_date": "1923-12-31"
    },
    {
      "issuer": {
        "id": 3196,
        "name": "STÉ DE LA BLANCHISSERIE DE COURCELLES"
      },
      "job": {
        "id": 219,
        "name": "Administrateur"
      },
      "start_date": "1923-01-01",
      "end_date": "1923-12-31"
    },
    {
      "issuer": {
        "id": 10038,
        "name": "ÉTABLISSEMENTS P. BRETON ET CIE"
      },
      "job": {
        "id": 219,
        "name": "Administrateur"
      },
      "start_date": "1923-01-01",
      "end_date": "1923-12-31"
    }
  ],
  "name": "V. Bernot"
}