{
  "id": 55667,
  "names": [
    "Perret"
  ],
  "functions": [
    {
      "issuer": {
        "id": 1293,
        "name": "SOCIÉTÉ DES MINES DE HOUILLE DE BLANZY"
      },
      "job": {
        "id": 219,
        "name": "Administrateur"
      },
      "start_date": "1912-01-01",
      "end_date": "1912-12-31"
    },
    {
      "issuer": {
        "id": 1293,
        "name": "SOCIÉTÉ DES MINES DE HOUILLE DE BLANZY"
      },
      "job": {
        "id": 219,
        "name": "Administrateur"
      },
      "start_date": "1917-01-01",
      "end_date": "1917-12-31"
    },
    {
      "issuer": {
        "id": 1293,
        "name": "SOCIÉTÉ DES MINES DE HOUILLE DE BLANZY"
      },
      "job": {
        "id": 219,
        "name": "Administrateur"
      },
      "start_date": "1923-01-01",
      "end_date": "1923-12-31"
    },
    {
      "issuer": {
        "id": 1293,
        "name": "SOCIÉTÉ DES MINES DE HOUILLE DE BLANZY"
      },
      "job": {
        "id": 219,
        "name": "Administrateur"
      },
      "start_date": "1927-01-01",
      "end_date": "1927-12-31"
    }
  ],
  "name": "Perret"
}