{
  "id": 90308,
  "names": [
    "E. Hertzog"
  ],
  "functions": [
    {
      "issuer": {
        "id": 5122,
        "name": "FORCES MOTRICES DU HAUT-RHIN"
      },
      "job": {
        "id": 219,
        "name": "Administrateur"
      },
      "start_date": "1933-01-01",
      "end_date": "1933-12-31"
    }
  ],
  "name": "E. Hertzog"
}