{
  "id": 94903,
  "names": [
    "J. Pauzat"
  ],
  "functions": [
    {
      "issuer": {
        "id": 1180,
        "name": "Compagnie des Forges et Aciéries de la Marine et des Chemins de fer"
      },
      "job": {
        "id": 219,
        "name": "Administrateur"
      },
      "start_date": "1940-01-01",
      "end_date": "1940-12-31"
    },
    {
      "issuer": {
        "id": 11053,
        "name": "Sté D'ÉLECTRICITÉ DE LA RÉGION DE VALENCIENNES-ANZIN"
      },
      "job": {
        "id": 219,
        "name": "Administrateur"
      },
      "start_date": "1940-01-01",
      "end_date": "1940-12-31"
    }
  ],
  "name": "J. Pauzat"
}