{
  "id": 99694,
  "names": [
    "B. Davidovitch"
  ],
  "functions": [
    {
      "issuer": {
        "id": 4720,
        "name": "SOCIÉTÉ MINIERE ET INDUSTRIELLE FRANCO-BRÉSILIENNE"
      },
      "job": {
        "id": 101,
        "name": "Administrateur Délégué",
        "short_name": "Ad. Dél."
      },
      "start_date": "1940-01-01",
      "end_date": "1940-12-31"
    }
  ],
  "name": "B. Davidovitch"
}