{
  "id": 79561,
  "names": [
    "P. Anceaux"
  ],
  "functions": [
    {
      "issuer": {
        "id": 10643,
        "name": "ETABLISSEMENTS NANQUETTE"
      },
      "job": {
        "id": 219,
        "name": "Administrateur"
      },
      "start_date": "1927-01-01",
      "end_date": "1927-12-31"
    }
  ],
  "name": "P. Anceaux"
}