{
  "id": 48450,
  "names": [
    "Brot"
  ],
  "functions": [
    {
      "issuer": {
        "id": 2982,
        "name": "CARRIÈRES ET SCIERIES DE BOURGOGNE (FÈVRE et Cie)"
      },
      "job": {
        "id": 176,
        "name": "Membre du conseil de surveillance",
        "short_name": "M.C.S."
      },
      "start_date": "1898-01-01",
      "end_date": "1898-12-31"
    },
    {
      "issuer": {
        "id": 2982,
        "name": "CARRIÈRES ET SCIERIES DE BOURGOGNE (FÈVRE et Cie)"
      },
      "job": {
        "id": 10254,
        "name": "Conseiller de surveillance"
      },
      "start_date": "1903-01-01",
      "end_date": "1903-12-31"
    },
    {
      "issuer": {
        "id": 3397,
        "name": "GRANDS MAGASINS \" A LA VILLE DE SAINT-DENIS\""
      },
      "job": {
        "id": 219,
        "name": "Administrateur"
      },
      "start_date": "1917-01-01",
      "end_date": "1927-12-31"
    }
  ],
  "name": "Brot"
}