{
  "id": 98693,
  "names": [
    "Campion"
  ],
  "functions": [
    {
      "issuer": {
        "id": 957,
        "name": "BANQUE DE LA GUYANE"
      },
      "job": {
        "id": 11227,
        "name": "Membre du Conseil d'Escompte"
      },
      "start_date": "1940-01-01",
      "end_date": "1940-12-31"
    }
  ],
  "name": "Campion"
}