{
  "id": 86888,
  "names": [
    "Pierre Dubied"
  ],
  "functions": [
    {
      "issuer": {
        "id": 3300,
        "name": "CIMENTS DE MANTES"
      },
      "job": {
        "id": 219,
        "name": "Administrateur"
      },
      "start_date": "1933-01-01",
      "end_date": "1933-12-31"
    }
  ],
  "name": "Pierre Dubied"
}