{
  "id": 120864,
  "names": [
    "R. Constant"
  ],
  "functions": [
    {
      "issuer": {
        "id": 4022,
        "name": "SOCiETE D'ETUDES ET DE TRAVAUX (Ancienne Entreprise Médebielle)"
      },
      "job": {
        "id": 10019,
        "name": "Commissaire des comptes"
      },
      "start_date": "1953-01-01",
      "end_date": "1953-12-31"
    }
  ],
  "name": "R. Constant"
}