{
  "id": 49849,
  "names": [
    "Ed. Dugué de Mac-Carthy"
  ],
  "functions": [
    {
      "issuer": {
        "id": 2258,
        "name": "Société anonyme des Gisements d'or de Saint-Elie (Guyane française)"
      },
      "job": {
        "id": 219,
        "name": "Administrateur"
      },
      "start_date": "1903-01-01",
      "end_date": "1903-12-31"
    }
  ],
  "name": "Ed. Dugué de Mac-Carthy"
}