{
  "id": 103137,
  "names": [
    "Radiguet"
  ],
  "functions": [
    {
      "issuer": {
        "id": 10291,
        "name": "AFRIQUE ET CONGO"
      },
      "job": {
        "id": 103,
        "name": "Commissaire"
      },
      "start_date": "1940-01-01",
      "end_date": "1948-12-31"
    },
    {
      "issuer": {
        "id": 3781,
        "name": "L'ALIMENT ESSENTIEL (Procédés Charles Heudebert)"
      },
      "job": {
        "id": 10019,
        "name": "Commissaire des comptes"
      },
      "start_date": "1945-01-01",
      "end_date": "1948-12-31"
    },
    {
      "issuer": {
        "id": 10291,
        "name": "AFRIQUE ET CONGO"
      },
      "job": {
        "id": 10019,
        "name": "Commissaire des comptes"
      },
      "start_date": "1953-01-01",
      "end_date": "1953-12-31"
    }
  ],
  "name": "Radiguet"
}