{
  "id": 50237,
  "names": [
    "Lantrac"
  ],
  "functions": [
    {
      "issuer": {
        "id": 3148,
        "name": "TRÉFILERIES ET LAMINOIRS DU HAVRE (Anolens Établissements Lazare Welller, Société coopérative de Ruglea)"
      },
      "job": {
        "id": 219,
        "name": "Administrateur"
      },
      "start_date": "1903-01-01",
      "end_date": "1903-12-31"
    },
    {
      "issuer": {
        "id": 3148,
        "name": "TRÉFILERIES ET LAMINOIRS DU HAVRE (Anolens Établissements Lazare Welller, Société coopérative de Ruglea)"
      },
      "job": {
        "id": 102,
        "name": "Président",
        "short_name": "P."
      },
      "start_date": "1908-01-01",
      "end_date": "1908-12-31"
    }
  ],
  "name": "Lantrac"
}