{
  "id": 85877,
  "names": [
    "P. Mariage"
  ],
  "functions": [
    {
      "issuer": {
        "id": 621,
        "name": "Entreprise générale des Omnibus"
      },
      "job": {
        "id": 219,
        "name": "Administrateur"
      },
      "start_date": "1933-01-01",
      "end_date": "1933-12-31"
    },
    {
      "issuer": {
        "id": 5173,
        "name": "TRAITEMENT INDUSTRIEL DES RESIDUS URBAINS"
      },
      "job": {
        "id": 219,
        "name": "Administrateur"
      },
      "start_date": "1933-01-01",
      "end_date": "1933-12-31"
    },
    {
      "issuer": {
        "id": 4828,
        "name": "SOCIETE POUR L'INDUSTRIE DES TRANSPORTS (Anciennement Société des Transports en Commun de la Région Parisienne)"
      },
      "job": {
        "id": 15620,
        "name": "Administrateur de service"
      },
      "start_date": "1940-01-01",
      "end_date": "1940-12-31"
    },
    {
      "issuer": {
        "id": 3654,
        "name": "SOCIETE INDUSTRIELLE DE TRANSPORTS AUTOMOBILES (SITA)"
      },
      "job": {
        "id": 219,
        "name": "Administrateur"
      },
      "start_date": "1940-01-01",
      "end_date": "1945-12-31"
    },
    {
      "issuer": {
        "id": 5173,
        "name": "TRAITEMENT INDUSTRIEL DES RESIDUS URBAINS"
      },
      "job": {
        "id": 219,
        "name": "Administrateur"
      },
      "start_date": "1940-01-01",
      "end_date": "1945-12-31"
    },
    {
      "issuer": {
        "id": 621,
        "name": "Entreprise générale des Omnibus"
      },
      "job": {
        "id": 219,
        "name": "Administrateur"
      },
      "start_date": "1940-01-01",
      "end_date": "1948-12-31"
    },
    {
      "issuer": {
        "id": 4828,
        "name": "SOCIETE POUR L'INDUSTRIE DES TRANSPORTS (Anciennement Société des Transports en Commun de la Région Parisienne)"
      },
      "job": {
        "id": 219,
        "name": "Administrateur"
      },
      "start_date": "1945-01-01",
      "end_date": "1948-12-31"
    },
    {
      "issuer": {
        "id": 5233,
        "name": "SOCIETE DE CONSTRUCTION ET D'ENTRETIEN DE MATÉRIEL INDUSTRIEL ET AGRICOLE S C E M I A"
      },
      "job": {
        "id": 219,
        "name": "Administrateur"
      },
      "start_date": "1948-01-01",
      "end_date": "1948-12-31"
    },
    {
      "issuer": {
        "id": 4828,
        "name": "SOCIETE POUR L'INDUSTRIE DES TRANSPORTS (Anciennement Société des Transports en Commun de la Région Parisienne)"
      },
      "job": {
        "id": 117,
        "name": "Vice-Président",
        "short_name": "V.-Pr."
      },
      "start_date": "1953-01-01",
      "end_date": "1953-12-31"
    },
    {
      "issuer": {
        "id": 2632,
        "name": "Compagnie des Tramways de Nice et du Littoral"
      },
      "job": {
        "id": 219,
        "name": "Administrateur"
      },
      "start_date": "1953-01-01",
      "end_date": "1953-12-31"
    }
  ],
  "name": "P. Mariage"
}