{
  "id": 121724,
  "names": [
    "Société du Port de Rosario"
  ],
  "functions": [
    {
      "issuer": {
        "id": 3878,
        "name": "S.A. DES BRASSERIES DU CAMEROUN"
      },
      "job": {
        "id": 219,
        "name": "Administrateur"
      },
      "start_date": "1953-01-01",
      "end_date": "1953-12-31"
    }
  ],
  "name": "Société du Port de Rosario"
}