{
  "id": 120371,
  "names": [
    "H. Oudinot (madame)"
  ],
  "functions": [
    {
      "issuer": {
        "id": 4973,
        "name": "THE EXPLOSIVES AND CHEMICAL PRODUCTS LTD"
      },
      "job": {
        "id": 219,
        "name": "Administrateur"
      },
      "start_date": "1953-01-01",
      "end_date": "1953-12-31"
    }
  ],
  "name": "H. Oudinot (madame)"
}