{
  "id": 46145,
  "names": [
    "Henry May"
  ],
  "functions": [
    {
      "issuer": {
        "id": 2333,
        "name": "Société générale de fournitures militaires"
      },
      "job": {
        "id": 219,
        "name": "Administrateur"
      },
      "start_date": "1893-01-01",
      "end_date": "1893-12-31"
    },
    {
      "issuer": {
        "id": 3200,
        "name": "SOCIÉTÉ GÉNÉRALE DES SUCRERIES ET DE LA RAFFINERIE D'EGYPTE"
      },
      "job": {
        "id": 102,
        "name": "Président",
        "short_name": "P."
      },
      "start_date": "1898-01-01",
      "end_date": "1898-12-31"
    }
  ],
  "name": "Henry May"
}