{
  "id": 75794,
  "names": [
    "Palmiéri"
  ],
  "functions": [
    {
      "issuer": {
        "id": 10521,
        "name": "SOCIÉTÉ ANONYME DES CARGOS FRANÇAIS"
      },
      "job": {
        "id": 219,
        "name": "Administrateur"
      },
      "start_date": "1923-01-01",
      "end_date": "1923-12-31"
    }
  ],
  "name": "Palmiéri"
}