{
  "id": 105399,
  "names": [
    "Société Huiles, Goudrons"
  ],
  "functions": [
    {
      "issuer": {
        "id": 4057,
        "name": "SOCIETE NOUVELLE DES USINES DE LIBERCOURT"
      },
      "job": {
        "id": 219,
        "name": "Administrateur"
      },
      "start_date": "1945-01-01",
      "end_date": "1953-12-31"
    }
  ],
  "name": "Société Huiles, Goudrons"
}