{
  "id": 111783,
  "names": [
    "Ed. Schweitzer"
  ],
  "functions": [
    {
      "issuer": {
        "id": 4862,
        "name": "COMPTOIR DES COMBUSTIBLES D'ALSACE ET LORRAINE"
      },
      "job": {
        "id": 219,
        "name": "Administrateur"
      },
      "start_date": "1948-01-01",
      "end_date": "1953-12-31"
    }
  ],
  "name": "Ed. Schweitzer"
}