{
  "id": 90026,
  "names": [
    "J. Didier"
  ],
  "functions": [
    {
      "issuer": {
        "id": 10879,
        "name": "ETABLISSEMENTS RAVAT"
      },
      "job": {
        "id": 102,
        "name": "Président",
        "short_name": "P."
      },
      "start_date": "1933-01-01",
      "end_date": "1933-12-31"
    }
  ],
  "name": "J. Didier"
}