{
  "id": 62816,
  "names": [
    "Chênebenoit"
  ],
  "functions": [
    {
      "issuer": {
        "id": 3015,
        "name": "SOCIETE DU JOURNAL \"LE TEMPS\""
      },
      "job": {
        "id": 10637,
        "name": "Membre du Comité de surveillance"
      },
      "start_date": "1917-01-01",
      "end_date": "1917-12-31"
    },
    {
      "issuer": {
        "id": 3015,
        "name": "SOCIETE DU JOURNAL \"LE TEMPS\""
      },
      "job": {
        "id": 219,
        "name": "Administrateur"
      },
      "start_date": "1923-01-01",
      "end_date": "1927-12-31"
    }
  ],
  "name": "Chênebenoit"
}