{
  "id": 51916,
  "names": [
    "H. Peltzer"
  ],
  "functions": [
    {
      "issuer": {
        "id": 2457,
        "name": "Chemin de fer de l'EST de LYON"
      },
      "job": {
        "id": 219,
        "name": "Administrateur"
      },
      "start_date": "1908-01-01",
      "end_date": "1908-12-31"
    }
  ],
  "name": "H. Peltzer"
}