{
  "id": 89681,
  "names": [
    "P. Aumont"
  ],
  "functions": [
    {
      "issuer": {
        "id": 4105,
        "name": "ATELIERS DE CONSTRUCTIONS MÉCANIQUES \"L'ASTER\" (Anciennement l'Aster)"
      },
      "job": {
        "id": 219,
        "name": "Administrateur"
      },
      "start_date": "1933-01-01",
      "end_date": "1933-12-31"
    },
    {
      "issuer": {
        "id": 4105,
        "name": "ATELIERS DE CONSTRUCTIONS MÉCANIQUES \"L'ASTER\" (Anciennement l'Aster)"
      },
      "job": {
        "id": 219,
        "name": "Administrateur"
      },
      "start_date": "1940-01-01",
      "end_date": "1940-12-31"
    }
  ],
  "name": "P. Aumont"
}