{
  "id": 106659,
  "names": [
    "E. Bahach"
  ],
  "functions": [
    {
      "issuer": {
        "id": 1259,
        "name": "Banque impériale Ottomane"
      },
      "job": {
        "id": 219,
        "name": "Administrateur"
      },
      "start_date": "1945-01-01",
      "end_date": "1953-12-31"
    }
  ],
  "name": "E. Bahach"
}