{
  "id": 88411,
  "names": [
    "Lepage"
  ],
  "functions": [
    {
      "issuer": {
        "id": 3638,
        "name": "OFFICE PUBLIC D'HABITATIONS A BON MARCHE DE LA VILLE D'ALGER"
      },
      "job": {
        "id": 219,
        "name": "Administrateur"
      },
      "start_date": "1933-01-01",
      "end_date": "1933-12-31"
    },
    {
      "issuer": {
        "id": 3638,
        "name": "OFFICE PUBLIC D'HABITATIONS A BON MARCHE DE LA VILLE D'ALGER"
      },
      "job": {
        "id": 219,
        "name": "Administrateur"
      },
      "start_date": "1940-01-01",
      "end_date": "1940-12-31"
    }
  ],
  "name": "Lepage"
}