{
  "id": 59071,
  "names": [
    "P. Rodriguez"
  ],
  "functions": [
    {
      "issuer": {
        "id": 1829,
        "name": "BANQUE ESPAGNOLE DE L'ILE DE CUBA"
      },
      "job": {
        "id": 219,
        "name": "Administrateur"
      },
      "start_date": "1912-01-01",
      "end_date": "1912-12-31"
    }
  ],
  "name": "P. Rodriguez"
}