{
  "id": 86086,
  "names": [
    "Colson"
  ],
  "functions": [
    {
      "issuer": {
        "id": 2578,
        "name": "CHEMIN DE FER METROPOLITAIN DE PARIS"
      },
      "job": {
        "id": 219,
        "name": "Administrateur"
      },
      "start_date": "1933-01-01",
      "end_date": "1933-12-31"
    },
    {
      "issuer": {
        "id": 3931,
        "name": "SOCIETE ANONYME FRANÇAISE DU FERODO"
      },
      "job": {
        "id": 10019,
        "name": "Commissaire des comptes"
      },
      "start_date": "1940-01-01",
      "end_date": "1948-12-31"
    }
  ],
  "name": "Colson"
}