{
  "id": 112103,
  "names": [
    "Zentler"
  ],
  "functions": [
    {
      "issuer": {
        "id": 3447,
        "name": "ASTRA ROMANA"
      },
      "job": {
        "id": 138,
        "name": "Censeur",
        "short_name": "Cens."
      },
      "start_date": "1948-01-01",
      "end_date": "1953-12-31"
    }
  ],
  "name": "Zentler"
}