{
  "id": 90458,
  "names": [
    "P. R. Ruiz Senen"
  ],
  "functions": [
    {
      "issuer": {
        "id": 5049,
        "name": "SOCIÉTÉ INTERNATIONALE D'ENERGIE HYDRO-ELECTRIQUE (SIDRO)"
      },
      "job": {
        "id": 219,
        "name": "Administrateur"
      },
      "start_date": "1933-01-01",
      "end_date": "1933-12-31"
    }
  ],
  "name": "P. R. Ruiz Senen"
}