{
  "id": 56222,
  "names": [
    "Gustave Dubar"
  ],
  "functions": [
    {
      "issuer": {
        "id": 2865,
        "name": "MINES DE LA LUCETTE (STÉ NOUV. DES)"
      },
      "job": {
        "id": 219,
        "name": "Administrateur"
      },
      "start_date": "1912-01-01",
      "end_date": "1917-12-31"
    },
    {
      "issuer": {
        "id": 3196,
        "name": "STÉ DE LA BLANCHISSERIE DE COURCELLES"
      },
      "job": {
        "id": 219,
        "name": "Administrateur"
      },
      "start_date": "1923-01-01",
      "end_date": "1923-12-31"
    }
  ],
  "name": "Gustave Dubar"
}