{
  "id": 78962,
  "names": [
    "R. Avramovitch"
  ],
  "functions": [
    {
      "issuer": {
        "id": 4920,
        "name": "CHEMINS DE FER DANUBE SAVE ADRIATIQUE"
      },
      "job": {
        "id": 219,
        "name": "Administrateur"
      },
      "start_date": "1927-01-01",
      "end_date": "1927-12-31"
    },
    {
      "issuer": {
        "id": 4898,
        "name": "\"LA DALMATIENNE\" SOCIETE FRANÇAISE DES FORCES HYDRO-ELECTRIQUES DE LA DALMATIE"
      },
      "job": {
        "id": 219,
        "name": "Administrateur"
      },
      "start_date": "1940-01-01",
      "end_date": "1940-12-31"
    }
  ],
  "name": "R. Avramovitch"
}