{
  "id": 107080,
  "names": [
    "L. F. A. d’Erlanger"
  ],
  "functions": [
    {
      "issuer": {
        "id": 2409,
        "name": "THE BRITISH SOUTH AFRICA COMPANY (CHARTERED)"
      },
      "job": {
        "id": 219,
        "name": "Administrateur"
      },
      "start_date": "1945-01-01",
      "end_date": "1948-12-31"
    },
    {
      "issuer": {
        "id": 2409,
        "name": "THE BRITISH SOUTH AFRICA COMPANY (CHARTERED)"
      },
      "job": {
        "id": 219,
        "name": "Administrateur"
      },
      "start_date": "1953-01-01",
      "end_date": "1953-12-31"
    }
  ],
  "name": "L. F. A. d’Erlanger"
}