{
  "id": 114347,
  "names": [
    "J. L. de Lachomette"
  ],
  "functions": [
    {
      "issuer": {
        "id": 1159,
        "name": "Compagnie du Bourbonnais"
      },
      "job": {
        "id": 229,
        "name": "Gérant"
      },
      "start_date": "1948-01-01",
      "end_date": "1948-12-31"
    },
    {
      "issuer": {
        "id": 1159,
        "name": "Compagnie du Bourbonnais"
      },
      "job": {
        "id": 10420,
        "name": "Liquidateur"
      },
      "start_date": "1953-01-01",
      "end_date": "1953-12-31"
    }
  ],
  "name": "J. L. de Lachomette"
}