{
  "id": 56006,
  "names": [
    "R. Heymann"
  ],
  "functions": [
    {
      "issuer": {
        "id": 2795,
        "name": "GEDULD PROPRIETARY MINES, LIMITED"
      },
      "job": {
        "id": 219,
        "name": "Administrateur"
      },
      "start_date": "1912-01-01",
      "end_date": "1912-12-31"
    }
  ],
  "name": "R. Heymann"
}