{
  "id": 127185,
  "names": [
    "Rolland"
  ],
  "functions": [
    {
      "issuer": {
        "id": 10066,
        "name": "Distribution électrique de l’Oise (Cie Générale de)"
      },
      "job": {
        "id": 219,
        "name": "Administrateur"
      },
      "start_date": "1912-01-01",
      "end_date": "1912-12-31"
    },
    {
      "issuer": {
        "id": 10448,
        "name": "SOCIÉTÉ AUXILIAIRE DE MATÉRIELS D'USINES"
      },
      "job": {
        "id": 219,
        "name": "Administrateur"
      },
      "start_date": "1917-01-01",
      "end_date": "1927-12-31"
    },
    {
      "issuer": {
        "id": 5219,
        "name": "FORCES MOTRICES DE L'ARIÈGE"
      },
      "job": {
        "id": 219,
        "name": "Administrateur"
      },
      "start_date": "1927-01-01",
      "end_date": "1933-12-31"
    }
  ],
  "name": "Rolland"
}