{
  "id": 118580,
  "names": [
    "J. Redinger"
  ],
  "functions": [
    {
      "issuer": {
        "id": 4123,
        "name": "MANUFACTURE DE MACHINES DU HAUT-RHIN"
      },
      "job": {
        "id": 219,
        "name": "Administrateur"
      },
      "start_date": "1953-01-01",
      "end_date": "1953-12-31"
    }
  ],
  "name": "J. Redinger"
}