{
  "id": 97779,
  "names": [
    "Ch. Moser"
  ],
  "functions": [
    {
      "issuer": {
        "id": 2603,
        "name": "CHEMIN DE FER DES ALPES BERNOISES BERNE-LŒTSCHBERG-SIMPLON"
      },
      "job": {
        "id": 10258,
        "name": "Suppléant"
      },
      "start_date": "1940-01-01",
      "end_date": "1948-12-31"
    },
    {
      "issuer": {
        "id": 2603,
        "name": "CHEMIN DE FER DES ALPES BERNOISES BERNE-LŒTSCHBERG-SIMPLON"
      },
      "job": {
        "id": 11620,
        "name": "Membre de la commission de controle"
      },
      "start_date": "1953-01-01",
      "end_date": "1953-12-31"
    }
  ],
  "name": "Ch. Moser"
}