{
  "id": 63357,
  "names": [
    "Robert Barbier"
  ],
  "functions": [
    {
      "issuer": {
        "id": 2736,
        "name": "Compagnie du Littoral de la Méditerranée"
      },
      "job": {
        "id": 219,
        "name": "Administrateur"
      },
      "start_date": "1917-01-01",
      "end_date": "1917-12-31"
    },
    {
      "issuer": {
        "id": 4700,
        "name": "COMPAGNIE FRANÇAISE DE PRODUITS ORGANO-CHIMIQUES"
      },
      "job": {
        "id": 219,
        "name": "Administrateur"
      },
      "start_date": "1953-01-01",
      "end_date": "1953-12-31"
    }
  ],
  "name": "Robert Barbier"
}