{
  "id": 113669,
  "names": [
    "M. Latrive"
  ],
  "functions": [
    {
      "issuer": {
        "id": 5358,
        "name": "ÉTABLISSEMENTS COTELLE ET FOUCHER (Javel \" La Croix \")"
      },
      "job": {
        "id": 219,
        "name": "Administrateur"
      },
      "start_date": "1948-01-01",
      "end_date": "1953-12-31"
    }
  ],
  "name": "M. Latrive"
}