{
  "id": 44668,
  "names": [
    "Lat. Santo"
  ],
  "functions": [
    {
      "issuer": {
        "id": 1957,
        "name": "Banque Nationale du Mexique"
      },
      "job": {
        "id": 10258,
        "name": "Suppléant"
      },
      "start_date": "1889-01-01",
      "end_date": "1889-12-31"
    }
  ],
  "name": "Lat. Santo"
}