{
  "id": 104519,
  "names": [
    "comtesse de Obidos"
  ],
  "functions": [
    {
      "issuer": {
        "id": 2315,
        "name": "Société anonyme d'imprimerie et Librairie administratives et des chemins de fer"
      },
      "job": {
        "id": 219,
        "name": "Administrateur"
      },
      "start_date": "1940-01-01",
      "end_date": "1945-12-31"
    }
  ],
  "name": "comtesse de Obidos"
}