{
  "id": 97091,
  "names": [
    "Couteau"
  ],
  "functions": [
    {
      "issuer": {
        "id": 4086,
        "name": "STE DES CHARBONNAGES DE TUYEN-QUANG"
      },
      "job": {
        "id": 10258,
        "name": "Suppléant"
      },
      "start_date": "1940-01-01",
      "end_date": "1948-12-31"
    }
  ],
  "name": "Couteau"
}