{
  "id": 42798,
  "names": [
    "Petitjean"
  ],
  "functions": [
    {
      "issuer": {
        "id": 11020,
        "name": "SOCIÉTÉ DE CULTURES ET BANANERAIES DU KIN-SAN"
      },
      "job": {
        "id": 219,
        "name": "Administrateur"
      },
      "start_date": "1933-01-01",
      "end_date": "1933-12-31"
    },
    {
      "issuer": {
        "id": 11020,
        "name": "SOCIÉTÉ DE CULTURES ET BANANERAIES DU KIN-SAN"
      },
      "job": {
        "id": 219,
        "name": "Administrateur"
      },
      "start_date": "1940-01-01",
      "end_date": "1940-12-31"
    }
  ],
  "name": "Petitjean"
}