{
  "id": 48094,
  "names": [
    "marquis de Chaponay"
  ],
  "functions": [
    {
      "issuer": {
        "id": 3124,
        "name": "Compagnie des Fonderies et Forges d'Alais"
      },
      "job": {
        "id": 219,
        "name": "Administrateur"
      },
      "start_date": "1898-01-01",
      "end_date": "1898-12-31"
    }
  ],
  "name": "marquis de Chaponay"
}