{
  "id": 118726,
  "names": [
    "P. Torchet"
  ],
  "functions": [
    {
      "issuer": {
        "id": 4716,
        "name": "Les Abrasifs du Sud-Ouest (Anciennement \"Aluminium du Sud-Ouest\")"
      },
      "job": {
        "id": 16022,
        "name": "Administrateur Directeur Général"
      },
      "start_date": "1953-01-01",
      "end_date": "1953-12-31"
    }
  ],
  "name": "P. Torchet"
}