{
  "id": 124576,
  "names": [
    "Bande"
  ],
  "functions": [
    {
      "issuer": {
        "id": 2210,
        "name": "Chemin de fer de GRANDE CEINTURE DE PARIS"
      },
      "job": {
        "id": 219,
        "name": "Administrateur"
      },
      "start_date": "1880-01-01",
      "end_date": "1880-12-31"
    }
  ],
  "name": "Bande"
}