{
  "id": 86766,
  "names": [
    "H. -W. -C. Derinier"
  ],
  "functions": [
    {
      "issuer": {
        "id": 4964,
        "name": "Charterland and General"
      },
      "job": {
        "id": 219,
        "name": "Administrateur"
      },
      "start_date": "1933-01-01",
      "end_date": "1933-12-31"
    },
    {
      "issuer": {
        "id": 4964,
        "name": "Charterland and General"
      },
      "job": {
        "id": 219,
        "name": "Administrateur"
      },
      "start_date": "1940-01-01",
      "end_date": "1940-12-31"
    },
    {
      "issuer": {
        "id": 4964,
        "name": "Charterland and General"
      },
      "job": {
        "id": 219,
        "name": "Administrateur"
      },
      "start_date": "1945-01-01",
      "end_date": "1948-12-31"
    }
  ],
  "name": "H. -W. -C. Derinier"
}