{
  "id": 43326,
  "names": [
    "Degreteau"
  ],
  "functions": [
    {
      "issuer": {
        "id": 1141,
        "name": "Le Triton, Compagnie d'assurances maritimes"
      },
      "job": {
        "id": 10420,
        "name": "Liquidateur"
      },
      "start_date": "1883-01-01",
      "end_date": "1883-12-31"
    }
  ],
  "name": "Degreteau"
}