{
  "id": 106859,
  "names": [
    "Ch. Lacouture"
  ],
  "functions": [
    {
      "issuer": {
        "id": 11753,
        "name": "UNION MINIERE ET FINANCIERE COLONIALE"
      },
      "job": {
        "id": 219,
        "name": "Administrateur"
      },
      "start_date": "1927-01-01",
      "end_date": "1928-12-31"
    },
    {
      "issuer": {
        "id": 11009,
        "name": "COMPAGNIE AGRICOLE SUD-INDOCHINOISE"
      },
      "job": {
        "id": 219,
        "name": "Administrateur"
      },
      "start_date": "1933-01-01",
      "end_date": "1933-12-31"
    },
    {
      "issuer": {
        "id": 4801,
        "name": "SAVANA (Société anonyme de Filature et Tissage mécanique)"
      },
      "job": {
        "id": 219,
        "name": "Administrateur"
      },
      "start_date": "1945-01-01",
      "end_date": "1945-12-31"
    },
    {
      "issuer": {
        "id": 4510,
        "name": "SOCIETE FRANÇAISE DES MINES D'ETAIN DE TEKKAH"
      },
      "job": {
        "id": 219,
        "name": "Administrateur"
      },
      "start_date": "1945-01-01",
      "end_date": "1953-12-31"
    },
    {
      "issuer": {
        "id": 4801,
        "name": "SAVANA (Société anonyme de Filature et Tissage mécanique)"
      },
      "job": {
        "id": 219,
        "name": "Administrateur"
      },
      "start_date": "1948-01-01",
      "end_date": "1948-12-31"
    },
    {
      "issuer": {
        "id": 4801,
        "name": "SAVANA (Société anonyme de Filature et Tissage mécanique)"
      },
      "job": {
        "id": 219,
        "name": "Administrateur"
      },
      "start_date": "1953-01-01",
      "end_date": "1953-12-31"
    }
  ],
  "name": "Ch. Lacouture"
}