{
  "id": 91149,
  "names": [
    "Raphael A. Salem"
  ],
  "functions": [
    {
      "issuer": {
        "id": 3172,
        "name": "COLOMBIA (Société Franco-Roumaine de Pétrole)"
      },
      "job": {
        "id": 219,
        "name": "Administrateur"
      },
      "start_date": "1933-01-01",
      "end_date": "1933-12-31"
    },
    {
      "issuer": {
        "id": 10870,
        "name": "OMNIUM FRANÇAIS DES PETROLES (Cie Steaua française)"
      },
      "job": {
        "id": 219,
        "name": "Administrateur"
      },
      "start_date": "1933-01-01",
      "end_date": "1933-12-31"
    },
    {
      "issuer": {
        "id": 3177,
        "name": "\" STEAUA ROMANA \" ETOILE ROUMAINE Société Anonyme pour l'Industrie du Pétrole"
      },
      "job": {
        "id": 219,
        "name": "Administrateur"
      },
      "start_date": "1933-01-01",
      "end_date": "1933-12-31"
    },
    {
      "issuer": {
        "id": 3628,
        "name": "BANQUE FRANCO-CHINOISE Pour le Commerce et l'Industrie"
      },
      "job": {
        "id": 219,
        "name": "Administrateur"
      },
      "start_date": "1940-01-01",
      "end_date": "1940-12-31"
    },
    {
      "issuer": {
        "id": 10870,
        "name": "OMNIUM FRANÇAIS DES PETROLES (Cie Steaua française)"
      },
      "job": {
        "id": 219,
        "name": "Administrateur"
      },
      "start_date": "1940-01-01",
      "end_date": "1940-12-31"
    },
    {
      "issuer": {
        "id": 4570,
        "name": "COMPAGNIE FRANÇAISE DES PETROLES"
      },
      "job": {
        "id": 219,
        "name": "Administrateur"
      },
      "start_date": "1940-01-01",
      "end_date": "1940-12-31"
    },
    {
      "issuer": {
        "id": 3177,
        "name": "\" STEAUA ROMANA \" ETOILE ROUMAINE Société Anonyme pour l'Industrie du Pétrole"
      },
      "job": {
        "id": 219,
        "name": "Administrateur"
      },
      "start_date": "1940-01-01",
      "end_date": "1945-12-31"
    },
    {
      "issuer": {
        "id": 3172,
        "name": "COLOMBIA (Société Franco-Roumaine de Pétrole)"
      },
      "job": {
        "id": 219,
        "name": "Administrateur"
      },
      "start_date": "1940-01-01",
      "end_date": "1948-12-31"
    }
  ],
  "name": "Raphael A. Salem"
}