{
  "id": 127214,
  "names": [
    "Maurice VIncent"
  ],
  "functions": [
    {
      "issuer": {
        "id": 3767,
        "name": "COMPAGNIE FORESTIERE SANGHA-OUBANGUI"
      },
      "job": {
        "id": 219,
        "name": "Administrateur"
      },
      "start_date": "1933-01-01",
      "end_date": "1933-12-31"
    },
    {
      "issuer": {
        "id": 3767,
        "name": "COMPAGNIE FORESTIERE SANGHA-OUBANGUI"
      },
      "job": {
        "id": 219,
        "name": "Administrateur"
      },
      "start_date": "1940-01-01",
      "end_date": "1940-12-31"
    },
    {
      "issuer": {
        "id": 3767,
        "name": "COMPAGNIE FORESTIERE SANGHA-OUBANGUI"
      },
      "job": {
        "id": 219,
        "name": "Administrateur"
      },
      "start_date": "1945-01-01",
      "end_date": "1953-12-31"
    }
  ],
  "name": "Maurice VIncent"
}