{
  "id": 108373,
  "names": [
    "R. Bos"
  ],
  "functions": [
    {
      "issuer": {
        "id": 4607,
        "name": "PEINTURES ASTRAL CELLUCO (Ex Les Fils Lévy-Finger-Celluco)"
      },
      "job": {
        "id": 219,
        "name": "Administrateur"
      },
      "start_date": "1945-01-01",
      "end_date": "1948-12-31"
    },
    {
      "issuer": {
        "id": 4018,
        "name": "ENTREPRISES DESPLATS ET LEFEVRE"
      },
      "job": {
        "id": 219,
        "name": "Administrateur"
      },
      "start_date": "1948-01-01",
      "end_date": "1948-12-31"
    },
    {
      "issuer": {
        "id": 4607,
        "name": "PEINTURES ASTRAL CELLUCO (Ex Les Fils Lévy-Finger-Celluco)"
      },
      "job": {
        "id": 117,
        "name": "Vice-Président",
        "short_name": "V.-Pr."
      },
      "start_date": "1953-01-01",
      "end_date": "1953-12-31"
    }
  ],
  "name": "R. Bos"
}