{
  "id": 118780,
  "names": [
    "Maison Bréguet"
  ],
  "functions": [
    {
      "issuer": {
        "id": 2747,
        "name": "SOCIÉTÉ DES CHANTIER ET ATELIERS DE SAINT-NAZAIRE (PENHOET)"
      },
      "job": {
        "id": 219,
        "name": "Administrateur"
      },
      "start_date": "1953-01-01",
      "end_date": "1953-12-31"
    }
  ],
  "name": "Maison Bréguet"
}