{
  "id": 95205,
  "names": [
    "L. Savigny"
  ],
  "functions": [
    {
      "issuer": {
        "id": 3479,
        "name": "COMPAGNIE DES PRODUITS CHIMIQUES ET ÉLECTRO-MÉTALLURGIQUES ALAIS, FROGES ET CAMARGUE"
      },
      "job": {
        "id": 10019,
        "name": "Commissaire des comptes"
      },
      "start_date": "1940-01-01",
      "end_date": "1953-12-31"
    }
  ],
  "name": "L. Savigny"
}