{
  "id": 86112,
  "names": [
    "E. Sénéchal"
  ],
  "functions": [
    {
      "issuer": {
        "id": 10212,
        "name": "COMPAGNIE SECONDAIRE DES VOIES FERRÉES"
      },
      "job": {
        "id": 219,
        "name": "Administrateur"
      },
      "start_date": "1933-01-01",
      "end_date": "1933-12-31"
    }
  ],
  "name": "E. Sénéchal"
}