{
  "id": 56380,
  "names": [
    "A. Laugel"
  ],
  "functions": [
    {
      "issuer": {
        "id": 616,
        "name": "Société anonyme des Mines de la Loire"
      },
      "job": {
        "id": 219,
        "name": "Administrateur"
      },
      "start_date": "1912-01-01",
      "end_date": "1912-12-31"
    }
  ],
  "name": "A. Laugel"
}