{
  "id": 102331,
  "names": [
    "Etablissements Japy Frères (P. Pucheu)"
  ],
  "functions": [
    {
      "issuer": {
        "id": 4446,
        "name": "UNION DE CONSOMMATEURS DE PRODUITS METALLURGIQUES ET INDUSTRIELS U.C.P.M.I."
      },
      "job": {
        "id": 219,
        "name": "Administrateur"
      },
      "start_date": "1940-01-01",
      "end_date": "1940-12-31"
    }
  ],
  "name": "Etablissements Japy Frères (P. Pucheu)"
}