{
  "id": 108390,
  "names": [
    "H. Rousset-Bert"
  ],
  "functions": [
    {
      "issuer": {
        "id": 5134,
        "name": "SOCIÉTÉ DES SALINES DE DJIBOUTI ET DE MADAGASCAR"
      },
      "job": {
        "id": 102,
        "name": "Président",
        "short_name": "P."
      },
      "start_date": "1945-01-01",
      "end_date": "1948-12-31"
    },
    {
      "issuer": {
        "id": 1378,
        "name": "Compagnie des Salins du Midi"
      },
      "job": {
        "id": 219,
        "name": "Administrateur"
      },
      "start_date": "1953-01-01",
      "end_date": "1953-12-31"
    }
  ],
  "name": "H. Rousset-Bert"
}