{
  "id": 42711,
  "names": [
    "Considère"
  ],
  "functions": [
    {
      "issuer": {
        "id": 2261,
        "name": "Société des mines de fer de l'Anjou et des forges de Saint-Nazaire"
      },
      "job": {
        "id": 107,
        "name": "Directeur",
        "short_name": "Dir."
      },
      "start_date": "1883-01-01",
      "end_date": "1883-12-31"
    }
  ],
  "name": "Considère"
}