{
  "id": 79150,
  "names": [
    "J. Goldschmidt"
  ],
  "functions": [
    {
      "issuer": {
        "id": 3243,
        "name": "STE DES MINES DE GELSENKIRCHEN"
      },
      "job": {
        "id": 219,
        "name": "Administrateur"
      },
      "start_date": "1927-01-01",
      "end_date": "1933-12-31"
    },
    {
      "issuer": {
        "id": 5414,
        "name": "Cie CENTRALE DE PLACEMENTS ET DE PRÊTS FONCIERS (N. V. Algemeene Maatschappij voor Gronderediet)"
      },
      "job": {
        "id": 103,
        "name": "Commissaire"
      },
      "start_date": "1933-01-01",
      "end_date": "1933-12-31"
    }
  ],
  "name": "J. Goldschmidt"
}