{
  "id": 121640,
  "names": [
    "B. Frelin"
  ],
  "functions": [
    {
      "issuer": {
        "id": 3840,
        "name": "ETABLISSEMENTS L'HERITIER-GUYOT"
      },
      "job": {
        "id": 10019,
        "name": "Commissaire des comptes"
      },
      "start_date": "1953-01-01",
      "end_date": "1953-12-31"
    }
  ],
  "name": "B. Frelin"
}