{
  "id": 64000,
  "names": [
    "E. Rastoin"
  ],
  "functions": [
    {
      "issuer": {
        "id": 668,
        "name": "Cie DES DOCKS ET ENTREPOTS DE MARSEILLE"
      },
      "job": {
        "id": 219,
        "name": "Administrateur"
      },
      "start_date": "1917-01-01",
      "end_date": "1917-12-31"
    },
    {
      "issuer": {
        "id": 668,
        "name": "Cie DES DOCKS ET ENTREPOTS DE MARSEILLE"
      },
      "job": {
        "id": 219,
        "name": "Administrateur"
      },
      "start_date": "1933-01-01",
      "end_date": "1933-12-31"
    },
    {
      "issuer": {
        "id": 668,
        "name": "Cie DES DOCKS ET ENTREPOTS DE MARSEILLE"
      },
      "job": {
        "id": 219,
        "name": "Administrateur"
      },
      "start_date": "1940-01-01",
      "end_date": "1940-12-31"
    },
    {
      "issuer": {
        "id": 4479,
        "name": "ETABLISSEMENTS CODER"
      },
      "job": {
        "id": 219,
        "name": "Administrateur"
      },
      "start_date": "1940-01-01",
      "end_date": "1948-12-31"
    }
  ],
  "name": "E. Rastoin"
}