{
  "id": 51417,
  "names": [
    "Joseph Faure"
  ],
  "functions": [
    {
      "issuer": {
        "id": 3148,
        "name": "TRÉFILERIES ET LAMINOIRS DU HAVRE (Anolens Établissements Lazare Welller, Société coopérative de Ruglea)"
      },
      "job": {
        "id": 219,
        "name": "Administrateur"
      },
      "start_date": "1903-01-01",
      "end_date": "1927-12-31"
    },
    {
      "issuer": {
        "id": 1655,
        "name": "Compagnie des mines de Campagnac (concessions de Lavergne et du Mazel réunies)"
      },
      "job": {
        "id": 219,
        "name": "Administrateur"
      },
      "start_date": "1908-01-01",
      "end_date": "1908-12-31"
    },
    {
      "issuer": {
        "id": 3166,
        "name": "SOCIÉTÉ DES MINES DE ZINC DU GUERGOUR"
      },
      "job": {
        "id": 219,
        "name": "Administrateur"
      },
      "start_date": "1908-01-01",
      "end_date": "1908-12-31"
    },
    {
      "issuer": {
        "id": 2862,
        "name": "SOCIÉTÉ MINIERE DU KANGUET"
      },
      "job": {
        "id": 219,
        "name": "Administrateur"
      },
      "start_date": "1908-01-01",
      "end_date": "1908-12-31"
    },
    {
      "issuer": {
        "id": 10200,
        "name": "SOCIÉTÉ MINIERE ET MÉTALLURGIQUE DE VILLEMAGNE"
      },
      "job": {
        "id": 219,
        "name": "Administrateur"
      },
      "start_date": "1912-01-01",
      "end_date": "1912-12-31"
    },
    {
      "issuer": {
        "id": 3166,
        "name": "SOCIÉTÉ DES MINES DE ZINC DU GUERGOUR"
      },
      "job": {
        "id": 219,
        "name": "Administrateur"
      },
      "start_date": "1912-01-01",
      "end_date": "1927-12-31"
    },
    {
      "issuer": {
        "id": 2766,
        "name": "SOCIETÉ MÉTALLURGIQUE DE SENELLE-MAUBEUGE"
      },
      "job": {
        "id": 219,
        "name": "Administrateur"
      },
      "start_date": "1912-01-01",
      "end_date": "1927-12-31"
    },
    {
      "issuer": {
        "id": 2862,
        "name": "SOCIÉTÉ MINIERE DU KANGUET"
      },
      "job": {
        "id": 219,
        "name": "Administrateur"
      },
      "start_date": "1912-01-01",
      "end_date": "1927-12-31"
    },
    {
      "issuer": {
        "id": 2865,
        "name": "MINES DE LA LUCETTE (STÉ NOUV. DES)"
      },
      "job": {
        "id": 219,
        "name": "Administrateur"
      },
      "start_date": "1912-01-01",
      "end_date": "1933-12-31"
    },
    {
      "issuer": {
        "id": 10407,
        "name": "SOCIÉTÉ D'ÉCLAIRAGE ÉLECTRIQUE DE BORDEAUX ET DU MIDI"
      },
      "job": {
        "id": 219,
        "name": "Administrateur"
      },
      "start_date": "1923-01-01",
      "end_date": "1923-12-31"
    },
    {
      "issuer": {
        "id": 4368,
        "name": "FORGES ET ATELIERS DE CONSTRUCTIONS ELECTRIQUES DE JEUMONT"
      },
      "job": {
        "id": 219,
        "name": "Administrateur"
      },
      "start_date": "1923-01-01",
      "end_date": "1923-12-31"
    },
    {
      "issuer": {
        "id": 1749,
        "name": "BANQUE TRANSATLANTIQUE"
      },
      "job": {
        "id": 219,
        "name": "Administrateur"
      },
      "start_date": "1923-01-01",
      "end_date": "1927-12-31"
    },
    {
      "issuer": {
        "id": 4631,
        "name": "PRODUITS DU \"LION NOIR\" (Établissements Fernand George)"
      },
      "job": {
        "id": 219,
        "name": "Administrateur"
      },
      "start_date": "1923-01-01",
      "end_date": "1927-12-31"
    },
    {
      "issuer": {
        "id": 2713,
        "name": "CIE FRANÇAISE POUR L'EXPLOITATION DES PROCÉDÉS THOMSON-HOUSTON"
      },
      "job": {
        "id": 219,
        "name": "Administrateur"
      },
      "start_date": "1923-01-01",
      "end_date": "1933-12-31"
    },
    {
      "issuer": {
        "id": 10616,
        "name": "OMNIUM D'INSTALLATIONS ÉLECTRIQUES (Anciens Etablissements Devilaine et Rougé.)"
      },
      "job": {
        "id": 219,
        "name": "Administrateur"
      },
      "start_date": "1927-01-01",
      "end_date": "1927-12-31"
    },
    {
      "issuer": {
        "id": 3166,
        "name": "SOCIÉTÉ DES MINES DE ZINC DU GUERGOUR"
      },
      "job": {
        "id": 219,
        "name": "Administrateur"
      },
      "start_date": "1927-01-01",
      "end_date": "1927-12-31"
    },
    {
      "issuer": {
        "id": 11452,
        "name": "SOCIETE DES GRAPHITES DE LA SAHANAVO"
      },
      "job": {
        "id": 219,
        "name": "Administrateur"
      },
      "start_date": "1927-01-01",
      "end_date": "1927-12-31"
    },
    {
      "issuer": {
        "id": 5155,
        "name": "Fedj El Adoum (Mines de)"
      },
      "job": {
        "id": 219,
        "name": "Administrateur"
      },
      "start_date": "1927-01-01",
      "end_date": "1933-12-31"
    },
    {
      "issuer": {
        "id": 3861,
        "name": "COMPAGNIE PASTORALE AFRICAINE"
      },
      "job": {
        "id": 219,
        "name": "Administrateur"
      },
      "start_date": "1933-01-01",
      "end_date": "1933-12-31"
    },
    {
      "issuer": {
        "id": 2865,
        "name": "MINES DE LA LUCETTE (STÉ NOUV. DES)"
      },
      "job": {
        "id": 219,
        "name": "Administrateur"
      },
      "start_date": "1940-01-01",
      "end_date": "1940-12-31"
    },
    {
      "issuer": {
        "id": 3861,
        "name": "COMPAGNIE PASTORALE AFRICAINE"
      },
      "job": {
        "id": 219,
        "name": "Administrateur"
      },
      "start_date": "1940-01-01",
      "end_date": "1945-12-31"
    },
    {
      "issuer": {
        "id": 10316,
        "name": "HAUTS-FOURNEAUX, FORGES ET ACIÉRIES DU CHILI"
      },
      "job": {
        "id": 219,
        "name": "Administrateur"
      },
      "start_date": "1940-01-01",
      "end_date": "1953-12-31"
    },
    {
      "issuer": {
        "id": 2865,
        "name": "MINES DE LA LUCETTE (STÉ NOUV. DES)"
      },
      "job": {
        "id": 104,
        "name": "Secrétaire"
      },
      "start_date": "1945-01-01",
      "end_date": "1945-12-31"
    },
    {
      "issuer": {
        "id": 2865,
        "name": "MINES DE LA LUCETTE (STÉ NOUV. DES)"
      },
      "job": {
        "id": 219,
        "name": "Administrateur"
      },
      "start_date": "1948-01-01",
      "end_date": "1948-12-31"
    },
    {
      "issuer": {
        "id": 4631,
        "name": "PRODUITS DU \"LION NOIR\" (Établissements Fernand George)"
      },
      "job": {
        "id": 219,
        "name": "Administrateur"
      },
      "start_date": "1948-01-01",
      "end_date": "1953-12-31"
    },
    {
      "issuer": {
        "id": 4061,
        "name": "MINES DE BITUME ET D'ASPHALTE DU CENTRE"
      },
      "job": {
        "id": 219,
        "name": "Administrateur"
      },
      "start_date": "1953-01-01",
      "end_date": "1953-12-31"
    },
    {
      "issuer": {
        "id": 2865,
        "name": "MINES DE LA LUCETTE (STÉ NOUV. DES)"
      },
      "job": {
        "id": 117,
        "name": "Vice-Président",
        "short_name": "V.-Pr."
      },
      "start_date": "1953-01-01",
      "end_date": "1953-12-31"
    }
  ],
  "name": "Joseph Faure"
}