{
  "id": 104624,
  "names": [
    "U. Fabre"
  ],
  "functions": [
    {
      "issuer": {
        "id": 4293,
        "name": "LA GÉNÉRALE PUBLICITE"
      },
      "job": {
        "id": 219,
        "name": "Administrateur"
      },
      "start_date": "1940-01-01",
      "end_date": "1940-12-31"
    }
  ],
  "name": "U. Fabre"
}