{
  "id": 97135,
  "names": [
    "Ch. Bedel"
  ],
  "functions": [
    {
      "issuer": {
        "id": 4894,
        "name": "ETABLISSEMENTS ROBBE FRERES"
      },
      "job": {
        "id": 10019,
        "name": "Commissaire des comptes"
      },
      "start_date": "1940-01-01",
      "end_date": "1940-12-31"
    },
    {
      "issuer": {
        "id": 3625,
        "name": "UNION DE BANQUES A PARIS"
      },
      "job": {
        "id": 10019,
        "name": "Commissaire des comptes"
      },
      "start_date": "1940-01-01",
      "end_date": "1953-12-31"
    }
  ],
  "name": "Ch. Bedel"
}