{
  "id": 98788,
  "names": [
    "Rime"
  ],
  "functions": [
    {
      "issuer": {
        "id": 2516,
        "name": "CAISSE ALGÉRIENNE DE CREDIT AGRICOLE MUTUEL (Anciennement : Caisse de prêts de consolidation)"
      },
      "job": {
        "id": 10019,
        "name": "Commissaire des comptes"
      },
      "start_date": "1940-01-01",
      "end_date": "1940-12-31"
    },
    {
      "issuer": {
        "id": 4255,
        "name": "SOCIETE ANONYME POUR L'INDUSTRIE DES ARTS GRAPHIQUES (S.A.P.L.I.A.G.)"
      },
      "job": {
        "id": 219,
        "name": "Administrateur"
      },
      "start_date": "1945-01-01",
      "end_date": "1945-12-31"
    },
    {
      "issuer": {
        "id": 3638,
        "name": "OFFICE PUBLIC D'HABITATIONS A BON MARCHE DE LA VILLE D'ALGER"
      },
      "job": {
        "id": 219,
        "name": "Administrateur"
      },
      "start_date": "1945-01-01",
      "end_date": "1948-12-31"
    }
  ],
  "name": "Rime"
}