{
  "id": 51322,
  "names": [
    "Lesage"
  ],
  "functions": [
    {
      "issuer": {
        "id": 2292,
        "name": "Société des IMMEUBLES DE FRANCE"
      },
      "job": {
        "id": 219,
        "name": "Administrateur"
      },
      "start_date": "1903-01-01",
      "end_date": "1903-12-31"
    },
    {
      "issuer": {
        "id": 7099,
        "name": "Société anonyme de Produits chimiques de Saint-Denis"
      },
      "job": {
        "id": 219,
        "name": "Administrateur"
      },
      "start_date": "1917-01-01",
      "end_date": "1933-12-31"
    },
    {
      "issuer": {
        "id": 10222,
        "name": "COMPANIA MINERA NAZARENO Y ANEXAS, S. A."
      },
      "job": {
        "id": 219,
        "name": "Administrateur"
      },
      "start_date": "1927-01-01",
      "end_date": "1933-12-31"
    },
    {
      "issuer": {
        "id": 7099,
        "name": "Société anonyme de Produits chimiques de Saint-Denis"
      },
      "job": {
        "id": 219,
        "name": "Administrateur"
      },
      "start_date": "1940-01-01",
      "end_date": "1940-12-31"
    },
    {
      "issuer": {
        "id": 11482,
        "name": "SOCIETE GENERALE DE BRASSERIE ET MALTERIE"
      },
      "job": {
        "id": 10019,
        "name": "Commissaire des comptes"
      },
      "start_date": "1953-01-01",
      "end_date": "1953-12-31"
    }
  ],
  "name": "Lesage"
}