{
  "id": 58247,
  "names": [
    "L. Moïse"
  ],
  "functions": [
    {
      "issuer": {
        "id": 2988,
        "name": "STÉ GÉNÉRALE DES CHAUSSURES FRANÇAISES"
      },
      "job": {
        "id": 219,
        "name": "Administrateur"
      },
      "start_date": "1917-01-01",
      "end_date": "1927-12-31"
    }
  ],
  "name": "L. Moïse"
}