{
  "id": 121339,
  "names": [
    "O. Bjorling"
  ],
  "functions": [
    {
      "issuer": {
        "id": 4972,
        "name": "EST-ASIATIQUE PLANTAGE"
      },
      "job": {
        "id": 219,
        "name": "Administrateur"
      },
      "start_date": "1953-01-01",
      "end_date": "1953-12-31"
    }
  ],
  "name": "O. Bjorling"
}