{
  "id": 89649,
  "names": [
    "L. Cirilli"
  ],
  "functions": [
    {
      "issuer": {
        "id": 5398,
        "name": "Tosi-Dujardin"
      },
      "job": {
        "id": 101,
        "name": "Administrateur Délégué",
        "short_name": "Ad. Dél."
      },
      "start_date": "1933-01-01",
      "end_date": "1933-12-31"
    }
  ],
  "name": "L. Cirilli"
}