{
  "id": 107810,
  "names": [
    "P. Sarrut"
  ],
  "functions": [
    {
      "issuer": {
        "id": 4882,
        "name": "SOCIETE TOULOUSAINE DU BAZACLE"
      },
      "job": {
        "id": 117,
        "name": "Vice-Président",
        "short_name": "V.-Pr."
      },
      "start_date": "1945-01-01",
      "end_date": "1945-12-31"
    }
  ],
  "name": "P. Sarrut"
}