{
  "id": 103320,
  "names": [
    "Campiot"
  ],
  "functions": [
    {
      "issuer": {
        "id": 10721,
        "name": "SOCIETE D'ENTREPRISES AFRICAINES"
      },
      "job": {
        "id": 103,
        "name": "Commissaire"
      },
      "start_date": "1940-01-01",
      "end_date": "1953-12-31"
    },
    {
      "issuer": {
        "id": 3466,
        "name": "CIE ÉLECTRIQUE DE LA LOIRE ET DU CENTRE"
      },
      "job": {
        "id": 10019,
        "name": "Commissaire des comptes"
      },
      "start_date": "1945-01-01",
      "end_date": "1945-12-31"
    },
    {
      "issuer": {
        "id": 4190,
        "name": "QUINCAILLERIE CROISSANDEAU"
      },
      "job": {
        "id": 10258,
        "name": "Suppléant"
      },
      "start_date": "1948-01-01",
      "end_date": "1948-12-31"
    },
    {
      "issuer": {
        "id": 4190,
        "name": "QUINCAILLERIE CROISSANDEAU"
      },
      "job": {
        "id": 10019,
        "name": "Commissaire des comptes"
      },
      "start_date": "1953-01-01",
      "end_date": "1953-12-31"
    }
  ],
  "name": "Campiot"
}