{
  "id": 42907,
  "names": [
    "Emile Coronios"
  ],
  "functions": [
    {
      "issuer": {
        "id": 2256,
        "name": "CIE FRANÇAISE DES MINES DU LAURIUM"
      },
      "job": {
        "id": 219,
        "name": "Administrateur"
      },
      "start_date": "1883-01-01",
      "end_date": "1883-12-31"
    }
  ],
  "name": "Emile Coronios"
}