{
  "id": 82727,
  "names": [
    "F. Ferrouillat"
  ],
  "functions": [
    {
      "issuer": {
        "id": 11038,
        "name": "SOCIÉTÉ DES ÉTABLISSEMENTS PERNOD PÈRE ET FILS"
      },
      "job": {
        "id": 219,
        "name": "Administrateur"
      },
      "start_date": "1927-01-01",
      "end_date": "1927-12-31"
    }
  ],
  "name": "F. Ferrouillat"
}