{
  "id": 107332,
  "names": [
    "Société Financière de l’Artois"
  ],
  "functions": [
    {
      "issuer": {
        "id": 11052,
        "name": "SOCIETE ELECTRIQUE DU NORD-OUEST"
      },
      "job": {
        "id": 219,
        "name": "Administrateur"
      },
      "start_date": "1945-01-01",
      "end_date": "1945-12-31"
    },
    {
      "issuer": {
        "id": 3991,
        "name": "Sté DES MATERIAUX DE CONSTRUCTION DE LA LOISNE"
      },
      "job": {
        "id": 219,
        "name": "Administrateur"
      },
      "start_date": "1945-01-01",
      "end_date": "1948-12-31"
    },
    {
      "issuer": {
        "id": 3138,
        "name": "SOCIÉTÉ ANONYME DES HAUTS FOURNEAUX FORGES ET ACIÉRIES DE POMPEY"
      },
      "job": {
        "id": 219,
        "name": "Administrateur"
      },
      "start_date": "1945-01-01",
      "end_date": "1948-12-31"
    }
  ],
  "name": "Société Financière de l’Artois"
}