{
  "id": 88517,
  "names": [
    "A. Bommelaer"
  ],
  "functions": [
    {
      "issuer": {
        "id": 4363,
        "name": "SOCIETE GENERALE DE CONSTRUCTIONS ELECTRIQUES ET MECANIQUES (ALSTHOM)"
      },
      "job": {
        "id": 219,
        "name": "Administrateur"
      },
      "start_date": "1933-01-01",
      "end_date": "1933-12-31"
    },
    {
      "issuer": {
        "id": 3630,
        "name": "CAISSE FONCIERE DE CREDIT POUR L'AMELIORATION DU LOGEMENT DANS L'INDUSTRIE"
      },
      "job": {
        "id": 219,
        "name": "Administrateur"
      },
      "start_date": "1933-01-01",
      "end_date": "1933-12-31"
    },
    {
      "issuer": {
        "id": 4101,
        "name": "SOCIÉTÉ ALSACIENNE DE CONSTRUCTIONS MECANIQUES"
      },
      "job": {
        "id": 219,
        "name": "Administrateur"
      },
      "start_date": "1933-01-01",
      "end_date": "1933-12-31"
    },
    {
      "issuer": {
        "id": 4101,
        "name": "SOCIÉTÉ ALSACIENNE DE CONSTRUCTIONS MECANIQUES"
      },
      "job": {
        "id": 219,
        "name": "Administrateur"
      },
      "start_date": "1940-01-01",
      "end_date": "1940-12-31"
    },
    {
      "issuer": {
        "id": 3630,
        "name": "CAISSE FONCIERE DE CREDIT POUR L'AMELIORATION DU LOGEMENT DANS L'INDUSTRIE"
      },
      "job": {
        "id": 219,
        "name": "Administrateur"
      },
      "start_date": "1940-01-01",
      "end_date": "1940-12-31"
    },
    {
      "issuer": {
        "id": 4363,
        "name": "SOCIETE GENERALE DE CONSTRUCTIONS ELECTRIQUES ET MECANIQUES (ALSTHOM)"
      },
      "job": {
        "id": 219,
        "name": "Administrateur"
      },
      "start_date": "1940-01-01",
      "end_date": "1948-12-31"
    },
    {
      "issuer": {
        "id": 5125,
        "name": "ELECTRO-CABLE"
      },
      "job": {
        "id": 219,
        "name": "Administrateur"
      },
      "start_date": "1945-01-01",
      "end_date": "1948-12-31"
    },
    {
      "issuer": {
        "id": 4101,
        "name": "SOCIÉTÉ ALSACIENNE DE CONSTRUCTIONS MECANIQUES"
      },
      "job": {
        "id": 102,
        "name": "Président",
        "short_name": "P."
      },
      "start_date": "1945-01-01",
      "end_date": "1948-12-31"
    },
    {
      "issuer": {
        "id": 10547,
        "name": "CIE GÉNÉRALE DE CONSTRUCTION DE LOCOMOTIVES (BATIGNOLLES-CHATILLON)"
      },
      "job": {
        "id": 219,
        "name": "Administrateur"
      },
      "start_date": "1945-01-01",
      "end_date": "1948-12-31"
    },
    {
      "issuer": {
        "id": 4363,
        "name": "SOCIETE GENERALE DE CONSTRUCTIONS ELECTRIQUES ET MECANIQUES (ALSTHOM)"
      },
      "job": {
        "id": 117,
        "name": "Vice-Président",
        "short_name": "V.-Pr."
      },
      "start_date": "1953-01-01",
      "end_date": "1953-12-31"
    },
    {
      "issuer": {
        "id": 4101,
        "name": "SOCIÉTÉ ALSACIENNE DE CONSTRUCTIONS MECANIQUES"
      },
      "job": {
        "id": 189,
        "name": "Président directeur général",
        "short_name": "P.D.G."
      },
      "start_date": "1953-01-01",
      "end_date": "1953-12-31"
    }
  ],
  "name": "A. Bommelaer"
}