{
  "id": 100039,
  "names": [
    "J. Moulonguet"
  ],
  "functions": [
    {
      "issuer": {
        "id": 2884,
        "name": "FONDERIES ET LAMINOIRS DE PARIS, ROUELLES ET HARFLEUR (Anciens Etablissements Marcel Bassot)"
      },
      "job": {
        "id": 219,
        "name": "Administrateur"
      },
      "start_date": "1940-01-01",
      "end_date": "1940-12-31"
    },
    {
      "issuer": {
        "id": 2923,
        "name": "Compagnie française des Métaux"
      },
      "job": {
        "id": 10002,
        "name": "Directeur Général Adjoint",
        "short_name": "D.G.Adj"
      },
      "start_date": "1953-01-01",
      "end_date": "1953-12-31"
    }
  ],
  "name": "J. Moulonguet"
}