{
  "id": 107502,
  "names": [
    "A. Dawans"
  ],
  "functions": [
    {
      "issuer": {
        "id": 1337,
        "name": "Société Anonyme John Cockerill"
      },
      "job": {
        "id": 219,
        "name": "Administrateur"
      },
      "start_date": "1945-01-01",
      "end_date": "1948-12-31"
    }
  ],
  "name": "A. Dawans"
}