{
  "id": 63823,
  "names": [
    "de Monès"
  ],
  "functions": [
    {
      "issuer": {
        "id": 2238,
        "name": "Compagnie Havraise péninsulaire de navigation a vapeur"
      },
      "job": {
        "id": 219,
        "name": "Administrateur"
      },
      "start_date": "1917-01-01",
      "end_date": "1917-12-31"
    }
  ],
  "name": "de Monès"
}