{
  "id": 95264,
  "names": [
    "R. Marcassin"
  ],
  "functions": [
    {
      "issuer": {
        "id": 4629,
        "name": "SOCIETE CHIMIQUE DE LA GRANDE-PAROISSE (Azote et Produits chimiques)"
      },
      "job": {
        "id": 219,
        "name": "Administrateur"
      },
      "start_date": "1940-01-01",
      "end_date": "1940-12-31"
    },
    {
      "issuer": {
        "id": 4683,
        "name": "SOCIETE NORMANDE DE PRODUITS CHIMIQUES"
      },
      "job": {
        "id": 219,
        "name": "Administrateur"
      },
      "start_date": "1940-01-01",
      "end_date": "1940-12-31"
    },
    {
      "issuer": {
        "id": 4552,
        "name": "Cie DES PRODUITS CHIMIQUES ET RAFFINERIES DE BERRE"
      },
      "job": {
        "id": 219,
        "name": "Administrateur"
      },
      "start_date": "1940-01-01",
      "end_date": "1940-12-31"
    }
  ],
  "name": "R. Marcassin"
}