{
  "id": 112900,
  "names": [
    "M. Mareouly"
  ],
  "functions": [
    {
      "issuer": {
        "id": 11537,
        "name": "CONSTRUCTION DE MACHINES-OUTILS DE PRECISION \"SOMACO\""
      },
      "job": {
        "id": 10019,
        "name": "Commissaire des comptes"
      },
      "start_date": "1948-01-01",
      "end_date": "1948-12-31"
    }
  ],
  "name": "M. Mareouly"
}