{
  "id": 50620,
  "names": [
    "Riffard"
  ],
  "functions": [
    {
      "issuer": {
        "id": 2969,
        "name": "La soie, société pour la fabrication des soies crues et teintes"
      },
      "job": {
        "id": 219,
        "name": "Administrateur"
      },
      "start_date": "1903-01-01",
      "end_date": "1908-12-31"
    }
  ],
  "name": "Riffard"
}