{
  "id": 96105,
  "names": [
    "Kennevier"
  ],
  "functions": [
    {
      "issuer": {
        "id": 2458,
        "name": "CIE IMPÉRIALE DES CHEMINS DE FER ÉTHIOPIENS (En liquidation)"
      },
      "job": {
        "id": 219,
        "name": "Administrateur"
      },
      "start_date": "1940-01-01",
      "end_date": "1940-12-31"
    }
  ],
  "name": "Kennevier"
}