{
  "id": 96117,
  "names": [
    "B. Bobaglia"
  ],
  "functions": [
    {
      "issuer": {
        "id": 2598,
        "name": "CIE GÉNÉRALE DES CHEMINS DE FER VICINAUX"
      },
      "job": {
        "id": 102,
        "name": "Président",
        "short_name": "P."
      },
      "start_date": "1940-01-01",
      "end_date": "1940-12-31"
    }
  ],
  "name": "B. Bobaglia"
}