{
  "id": 51581,
  "names": [
    "Arnold de Ronseray"
  ],
  "functions": [
    {
      "issuer": {
        "id": 2099,
        "name": "L'AIGLE COMPAGNIE FRANÇAISE D'ASSURANCES SUR LA VIE"
      },
      "job": {
        "id": 10019,
        "name": "Commissaire des comptes"
      },
      "start_date": "1940-01-01",
      "end_date": "1940-12-31"
    }
  ],
  "name": "Arnold de Ronseray"
}