{
  "id": 120745,
  "names": [
    "Guy François Sigrand"
  ],
  "functions": [
    {
      "issuer": {
        "id": 4307,
        "name": "GRANDS MAGASINS SIGRAND ET Cie"
      },
      "job": {
        "id": 229,
        "name": "Gérant"
      },
      "start_date": "1953-01-01",
      "end_date": "1953-12-31"
    }
  ],
  "name": "Guy François Sigrand"
}