{
  "id": 91465,
  "names": [
    "J. Boussus"
  ],
  "functions": [
    {
      "issuer": {
        "id": 4758,
        "name": "FILATURES DE LAINES PEIGNEES DE LA RÉGION DE FOURMIES"
      },
      "job": {
        "id": 219,
        "name": "Administrateur"
      },
      "start_date": "1933-01-01",
      "end_date": "1933-12-31"
    },
    {
      "issuer": {
        "id": 4758,
        "name": "FILATURES DE LAINES PEIGNEES DE LA RÉGION DE FOURMIES"
      },
      "job": {
        "id": 117,
        "name": "Vice-Président",
        "short_name": "V.-Pr."
      },
      "start_date": "1940-01-01",
      "end_date": "1940-12-31"
    },
    {
      "issuer": {
        "id": 4758,
        "name": "FILATURES DE LAINES PEIGNEES DE LA RÉGION DE FOURMIES"
      },
      "job": {
        "id": 102,
        "name": "Président",
        "short_name": "P."
      },
      "start_date": "1945-01-01",
      "end_date": "1948-12-31"
    },
    {
      "issuer": {
        "id": 11545,
        "name": "BLANCHIMENT DES TEXTILES"
      },
      "job": {
        "id": 189,
        "name": "Président directeur général",
        "short_name": "P.D.G."
      },
      "start_date": "1948-01-01",
      "end_date": "1953-12-31"
    }
  ],
  "name": "J. Boussus"
}