{
  "id": 84346,
  "names": [
    "Ch. Diss"
  ],
  "functions": [
    {
      "issuer": {
        "id": 10866,
        "name": "MARCEL MORTAS ET Cie"
      },
      "job": {
        "id": 219,
        "name": "Administrateur"
      },
      "start_date": "1927-01-01",
      "end_date": "1927-12-31"
    }
  ],
  "name": "Ch. Diss"
}