{
  "id": 101955,
  "names": [
    "Société Fiduciaire d’Alsace et de Lorraine"
  ],
  "functions": [
    {
      "issuer": {
        "id": 4775,
        "name": "FILATURES ET TISSAGES DE WITTENHEIM"
      },
      "job": {
        "id": 10019,
        "name": "Commissaire des comptes"
      },
      "start_date": "1940-01-01",
      "end_date": "1940-12-31"
    },
    {
      "issuer": {
        "id": 3832,
        "name": "BRASSERIES ET MALTERIES FRANCHE-COMTE-ALSACE (Anciennement Sté des Malteries Franche-Comté-Haut-Rhin)"
      },
      "job": {
        "id": 10019,
        "name": "Commissaire des comptes"
      },
      "start_date": "1940-01-01",
      "end_date": "1940-12-31"
    },
    {
      "issuer": {
        "id": 4775,
        "name": "FILATURES ET TISSAGES DE WITTENHEIM"
      },
      "job": {
        "id": 10019,
        "name": "Commissaire des comptes"
      },
      "start_date": "1945-01-01",
      "end_date": "1945-12-31"
    },
    {
      "issuer": {
        "id": 5122,
        "name": "FORCES MOTRICES DU HAUT-RHIN"
      },
      "job": {
        "id": 10019,
        "name": "Commissaire des comptes"
      },
      "start_date": "1945-01-01",
      "end_date": "1945-12-31"
    }
  ],
  "name": "Société Fiduciaire d’Alsace et de Lorraine"
}