{
  "id": 48974,
  "names": [
    "baron de Satrustegui"
  ],
  "functions": [
    {
      "issuer": {
        "id": 1220,
        "name": "CHEMINS DE FER DU NORD DE L'ESPAGNE"
      },
      "job": {
        "id": 10645,
        "name": "Administrateur à Barcelone"
      },
      "start_date": "1898-01-01",
      "end_date": "1908-12-31"
    }
  ],
  "name": "baron de Satrustegui"
}