{
  "id": 103209,
  "names": [
    "E. Chollat"
  ],
  "functions": [
    {
      "issuer": {
        "id": 3851,
        "name": "COMPAGNIE COTONNIERE ÉQUATORIALE FRANÇAISE"
      },
      "job": {
        "id": 219,
        "name": "Administrateur"
      },
      "start_date": "1940-01-01",
      "end_date": "1953-12-31"
    }
  ],
  "name": "E. Chollat"
}