{
  "id": 52141,
  "names": [
    "Adenot"
  ],
  "functions": [
    {
      "issuer": {
        "id": 2759,
        "name": "Société des Hauts Fourneaux de Pauillac"
      },
      "job": {
        "id": 219,
        "name": "Administrateur"
      },
      "start_date": "1908-01-01",
      "end_date": "1908-12-31"
    },
    {
      "issuer": {
        "id": 3139,
        "name": "SOCIÉTÉ GÉNÉRALE DE HAUTS FOURNEAUX, FORGES ET ACIÉRIES EN RUSSIE"
      },
      "job": {
        "id": 219,
        "name": "Administrateur"
      },
      "start_date": "1912-01-01",
      "end_date": "1912-12-31"
    },
    {
      "issuer": {
        "id": 4791,
        "name": "SOCIETE LYONNAISE DE TEXTILES"
      },
      "job": {
        "id": 10019,
        "name": "Commissaire des comptes"
      },
      "start_date": "1940-01-01",
      "end_date": "1940-12-31"
    },
    {
      "issuer": {
        "id": 3963,
        "name": "ETABLISSEMENTS LYONNAIS ROCHET-SCHNEIDER"
      },
      "job": {
        "id": 10019,
        "name": "Commissaire des comptes"
      },
      "start_date": "1940-01-01",
      "end_date": "1948-12-31"
    },
    {
      "issuer": {
        "id": 3963,
        "name": "ETABLISSEMENTS LYONNAIS ROCHET-SCHNEIDER"
      },
      "job": {
        "id": 115,
        "name": "Proprietaire"
      },
      "start_date": "1953-01-01",
      "end_date": "1953-12-31"
    }
  ],
  "name": "Adenot"
}