{
  "id": 48460,
  "names": [
    "Guillemart"
  ],
  "functions": [
    {
      "issuer": {
        "id": 3327,
        "name": "STÉ ANME DES CHAUSSURES \" INCROYABLE \""
      },
      "job": {
        "id": 219,
        "name": "Administrateur"
      },
      "start_date": "1898-01-01",
      "end_date": "1898-12-31"
    },
    {
      "issuer": {
        "id": 3327,
        "name": "STÉ ANME DES CHAUSSURES \" INCROYABLE \""
      },
      "job": {
        "id": 219,
        "name": "Administrateur"
      },
      "start_date": "1903-01-01",
      "end_date": "1903-12-31"
    }
  ],
  "name": "Guillemart"
}