{
  "id": 103598,
  "names": [
    "H. Chavanne"
  ],
  "functions": [
    {
      "issuer": {
        "id": 4234,
        "name": "SOCIÉTÉ GÉNÉRALE DES EAUX MINÉRALES DE VITTEL"
      },
      "job": {
        "id": 219,
        "name": "Administrateur"
      },
      "start_date": "1940-01-01",
      "end_date": "1940-12-31"
    }
  ],
  "name": "H. Chavanne"
}