{
  "id": 109412,
  "names": [
    "A. Doré"
  ],
  "functions": [
    {
      "issuer": {
        "id": 3718,
        "name": "COOPÉRATIVE D'APPROVISIONNEMENT, DE TRANSPORT ET DE CRÉDIT"
      },
      "job": {
        "id": 219,
        "name": "Administrateur"
      },
      "start_date": "1945-01-01",
      "end_date": "1953-12-31"
    }
  ],
  "name": "A. Doré"
}