{
  "id": 41060,
  "names": [
    "comte Et. Eszterliazy"
  ],
  "functions": [
    {
      "issuer": {
        "id": 1944,
        "name": "Banque des pays hongrois"
      },
      "job": {
        "id": 219,
        "name": "Administrateur"
      },
      "start_date": "1883-01-01",
      "end_date": "1883-12-31"
    }
  ],
  "name": "comte Et. Eszterliazy"
}