{
  "id": 119083,
  "names": [
    "J. Carence"
  ],
  "functions": [
    {
      "issuer": {
        "id": 11567,
        "name": "L'ENTREPRISE FERROVIAIRE"
      },
      "job": {
        "id": 219,
        "name": "Administrateur"
      },
      "start_date": "1953-01-01",
      "end_date": "1953-12-31"
    }
  ],
  "name": "J. Carence"
}