{
  "id": 115848,
  "names": [
    "F. Naud"
  ],
  "functions": [
    {
      "issuer": {
        "id": 2100,
        "name": "LE PATRIMOINE COMPAGNIE ANONYME D'ASSURANCES SUR LA VIE"
      },
      "job": {
        "id": 117,
        "name": "Vice-Président",
        "short_name": "V.-Pr."
      },
      "start_date": "1953-01-01",
      "end_date": "1953-12-31"
    }
  ],
  "name": "F. Naud"
}