{
  "id": 98935,
  "names": [
    "J. Douhairie"
  ],
  "functions": [
    {
      "issuer": {
        "id": 5404,
        "name": "SOCIETE DES AUTOS-TAXIS MARSEILLAIS"
      },
      "job": {
        "id": 219,
        "name": "Administrateur"
      },
      "start_date": "1940-01-01",
      "end_date": "1940-12-31"
    }
  ],
  "name": "J. Douhairie"
}