{
  "id": 82723,
  "names": [
    "P. Baverey"
  ],
  "functions": [
    {
      "issuer": {
        "id": 10780,
        "name": "COMPAGNIE FRANÇAISE DES PÊCHERIES DU SUD-OUEST DE MADAGASCAR"
      },
      "job": {
        "id": 219,
        "name": "Administrateur"
      },
      "start_date": "1927-01-01",
      "end_date": "1927-12-31"
    }
  ],
  "name": "P. Baverey"
}