{
  "id": 119400,
  "names": [
    "M. Savarit"
  ],
  "functions": [
    {
      "issuer": {
        "id": 11513,
        "name": "MORANE SAULNIER"
      },
      "job": {
        "id": 219,
        "name": "Administrateur"
      },
      "start_date": "1953-01-01",
      "end_date": "1953-12-31"
    }
  ],
  "name": "M. Savarit"
}