{
  "id": 108872,
  "names": [
    "R. Dubuisson"
  ],
  "functions": [
    {
      "issuer": {
        "id": 10442,
        "name": "SOCIÉTÉ COMMERCIALE DU CAOUTCHOUC"
      },
      "job": {
        "id": 103,
        "name": "Commissaire"
      },
      "start_date": "1945-01-01",
      "end_date": "1948-12-31"
    }
  ],
  "name": "R. Dubuisson"
}