{
  "id": 122784,
  "names": [
    "Mohamed Tazi"
  ],
  "functions": [
    {
      "issuer": {
        "id": 2393,
        "name": "BANQUE D'ETAT DU MAROC"
      },
      "job": {
        "id": 219,
        "name": "Administrateur"
      },
      "start_date": "1953-01-01",
      "end_date": "1953-12-31"
    }
  ],
  "name": "Mohamed Tazi"
}