{
  "id": 90459,
  "names": [
    "M. Amira"
  ],
  "functions": [
    {
      "issuer": {
        "id": 3421,
        "name": "L'ENERGIE INDUSTRIELLE"
      },
      "job": {
        "id": 219,
        "name": "Administrateur"
      },
      "start_date": "1933-01-01",
      "end_date": "1933-12-31"
    }
  ],
  "name": "M. Amira"
}