{
  "id": 53366,
  "names": [
    "Miriel"
  ],
  "functions": [
    {
      "issuer": {
        "id": 1824,
        "name": "Société du Crédit Foncier Egyptien"
      },
      "job": {
        "id": 141,
        "name": "Directeur Général",
        "short_name": "D.G."
      },
      "start_date": "1908-01-01",
      "end_date": "1908-12-31"
    },
    {
      "issuer": {
        "id": 1824,
        "name": "Société du Crédit Foncier Egyptien"
      },
      "job": {
        "id": 219,
        "name": "Administrateur"
      },
      "start_date": "1912-01-01",
      "end_date": "1917-12-31"
    },
    {
      "issuer": {
        "id": 3388,
        "name": "SOCIÉTÉ FONCIERE DU DOMAINE DE CHEIKH-FADL"
      },
      "job": {
        "id": 219,
        "name": "Administrateur"
      },
      "start_date": "1912-01-01",
      "end_date": "1923-12-31"
    }
  ],
  "name": "Miriel"
}