{
  "id": 99439,
  "names": [
    "Jean Larmeroux"
  ],
  "functions": [
    {
      "issuer": {
        "id": 11435,
        "name": "Société IMMOBILIÈRE ET FONCIÈRE DE LA SEINE"
      },
      "job": {
        "id": 219,
        "name": "Administrateur"
      },
      "start_date": "1940-01-01",
      "end_date": "1948-12-31"
    }
  ],
  "name": "Jean Larmeroux"
}