{
  "id": 98684,
  "names": [
    "Kichenin Emmanuel"
  ],
  "functions": [
    {
      "issuer": {
        "id": 956,
        "name": "BANQUE DE LA REUNION"
      },
      "job": {
        "id": 14621,
        "name": "Contrôleur"
      },
      "start_date": "1940-01-01",
      "end_date": "1940-12-31"
    }
  ],
  "name": "Kichenin Emmanuel"
}