{
  "id": 109299,
  "names": [
    "F. Cruse"
  ],
  "functions": [
    {
      "issuer": {
        "id": 11495,
        "name": "SOCIETE DÈS HOTELS D'EVIAN"
      },
      "job": {
        "id": 219,
        "name": "Administrateur"
      },
      "start_date": "1945-01-01",
      "end_date": "1945-12-31"
    },
    {
      "issuer": {
        "id": 11495,
        "name": "SOCIETE DÈS HOTELS D'EVIAN"
      },
      "job": {
        "id": 189,
        "name": "Président directeur général",
        "short_name": "P.D.G."
      },
      "start_date": "1948-01-01",
      "end_date": "1948-12-31"
    },
    {
      "issuer": {
        "id": 3419,
        "name": "SOCIÉTÉ DES EAUX MINÉRALES D'ÉVIAN-LES-BAINS"
      },
      "job": {
        "id": 219,
        "name": "Administrateur"
      },
      "start_date": "1953-01-01",
      "end_date": "1953-12-31"
    },
    {
      "issuer": {
        "id": 3665,
        "name": "Société de Gestion Mobilière"
      },
      "job": {
        "id": 219,
        "name": "Administrateur"
      },
      "start_date": "1953-01-01",
      "end_date": "1953-12-31"
    }
  ],
  "name": "F. Cruse"
}