{
  "id": 116051,
  "names": [
    "Aribaud"
  ],
  "functions": [
    {
      "issuer": {
        "id": 237,
        "name": "L'UNION COMPAGNIE D'ASSURANCES SUR LA VIE HUMAiNE"
      },
      "job": {
        "id": 219,
        "name": "Administrateur"
      },
      "start_date": "1953-01-01",
      "end_date": "1953-12-31"
    }
  ],
  "name": "Aribaud"
}