{
  "id": 51659,
  "names": [
    "G. Odier"
  ],
  "functions": [
    {
      "issuer": {
        "id": 2590,
        "name": "COMPAGNIE FRANÇAISE DES CHEMINS DE FER DE LA PROVINCE DE SANTA-FÉ"
      },
      "job": {
        "id": 10019,
        "name": "Commissaire des comptes"
      },
      "start_date": "1908-01-01",
      "end_date": "1908-12-31"
    }
  ],
  "name": "G. Odier"
}