{
  "id": 102774,
  "names": [
    "P. Batardon"
  ],
  "functions": [
    {
      "issuer": {
        "id": 4646,
        "name": "LE RIPOLIN"
      },
      "job": {
        "id": 10019,
        "name": "Commissaire des comptes"
      },
      "start_date": "1940-01-01",
      "end_date": "1948-12-31"
    }
  ],
  "name": "P. Batardon"
}