{
  "id": 58218,
  "names": [
    "Bonnevie"
  ],
  "functions": [
    {
      "issuer": {
        "id": 10133,
        "name": "Minimax (Société)"
      },
      "job": {
        "id": 219,
        "name": "Administrateur"
      },
      "start_date": "1912-01-01",
      "end_date": "1912-12-31"
    }
  ],
  "name": "Bonnevie"
}