{
  "id": 84952,
  "names": [
    "E. Poidebard"
  ],
  "functions": [
    {
      "issuer": {
        "id": 3528,
        "name": "LES REASSURANCES"
      },
      "job": {
        "id": 219,
        "name": "Administrateur"
      },
      "start_date": "1933-01-01",
      "end_date": "1933-12-31"
    },
    {
      "issuer": {
        "id": 11433,
        "name": "SOCIÉTÉ GÉNÉRALE D'OPTIQUE (Anciens Etablissements Huet et Cie et Jumelles Flammarion)"
      },
      "job": {
        "id": 101,
        "name": "Administrateur Délégué",
        "short_name": "Ad. Dél."
      },
      "start_date": "1940-01-01",
      "end_date": "1940-12-31"
    },
    {
      "issuer": {
        "id": 4572,
        "name": "COMPAGNIE INDUSTRIELLE MARITIME (Charbon, Pétrole, Lignes de Navigation)"
      },
      "job": {
        "id": 219,
        "name": "Administrateur"
      },
      "start_date": "1940-01-01",
      "end_date": "1940-12-31"
    },
    {
      "issuer": {
        "id": 3528,
        "name": "LES REASSURANCES"
      },
      "job": {
        "id": 219,
        "name": "Administrateur"
      },
      "start_date": "1940-01-01",
      "end_date": "1940-12-31"
    },
    {
      "issuer": {
        "id": 11433,
        "name": "SOCIÉTÉ GÉNÉRALE D'OPTIQUE (Anciens Etablissements Huet et Cie et Jumelles Flammarion)"
      },
      "job": {
        "id": 102,
        "name": "Président",
        "short_name": "P."
      },
      "start_date": "1945-01-01",
      "end_date": "1948-12-31"
    },
    {
      "issuer": {
        "id": 3528,
        "name": "LES REASSURANCES"
      },
      "job": {
        "id": 102,
        "name": "Président",
        "short_name": "P."
      },
      "start_date": "1945-01-01",
      "end_date": "1948-12-31"
    },
    {
      "issuer": {
        "id": 11433,
        "name": "SOCIÉTÉ GÉNÉRALE D'OPTIQUE (Anciens Etablissements Huet et Cie et Jumelles Flammarion)"
      },
      "job": {
        "id": 224,
        "name": "Président d'honneur"
      },
      "start_date": "1953-01-01",
      "end_date": "1953-12-31"
    }
  ],
  "name": "E. Poidebard"
}