{
  "id": 86797,
  "names": [
    "A. J. Parkin"
  ],
  "functions": [
    {
      "issuer": {
        "id": 5018,
        "name": "SIMMER AND JACK MINES LIMITED"
      },
      "job": {
        "id": 10241,
        "name": "administrateur dans le Comité central à Londres"
      },
      "start_date": "1933-01-01",
      "end_date": "1933-12-31"
    },
    {
      "issuer": {
        "id": 5018,
        "name": "SIMMER AND JACK MINES LIMITED"
      },
      "job": {
        "id": 14620,
        "name": "Membre du comité de Londres"
      },
      "start_date": "1948-01-01",
      "end_date": "1948-12-31"
    },
    {
      "issuer": {
        "id": 5018,
        "name": "SIMMER AND JACK MINES LIMITED"
      },
      "job": {
        "id": 14620,
        "name": "Membre du comité de Londres"
      },
      "start_date": "1953-01-01",
      "end_date": "1953-12-31"
    }
  ],
  "name": "A. J. Parkin"
}