{
  "id": 74205,
  "names": [
    "J. Priester"
  ],
  "functions": [
    {
      "issuer": {
        "id": 10554,
        "name": "COMPAGNIE FRANCO-POLONAISE DES PÉTROLES"
      },
      "job": {
        "id": 219,
        "name": "Administrateur"
      },
      "start_date": "1923-01-01",
      "end_date": "1933-12-31"
    }
  ],
  "name": "J. Priester"
}