{
  "id": 82816,
  "names": [
    "A. Junot"
  ],
  "functions": [
    {
      "issuer": {
        "id": 10796,
        "name": "ROYAL MONCEAU HOTEL"
      },
      "job": {
        "id": 219,
        "name": "Administrateur"
      },
      "start_date": "1927-01-01",
      "end_date": "1933-12-31"
    },
    {
      "issuer": {
        "id": 11030,
        "name": "SOCIÉTÉ IMMOBILIÈRE ET HÔTELIÈRE DE BIARRITZ"
      },
      "job": {
        "id": 219,
        "name": "Administrateur"
      },
      "start_date": "1933-01-01",
      "end_date": "1933-12-31"
    }
  ],
  "name": "A. Junot"
}