{
  "id": 44138,
  "names": [
    "comte Anatole Lemercier"
  ],
  "functions": [
    {
      "issuer": {
        "id": 969,
        "name": "Comptoir Central de Crédit (E. Naud et Cie)"
      },
      "job": {
        "id": 10021,
        "name": "Président du conseil de surveillance"
      },
      "start_date": "1880-01-01",
      "end_date": "1880-12-31"
    },
    {
      "issuer": {
        "id": 671,
        "name": "Société Générale de CREDIT INDUSTRIEL ET COMMERCIAL"
      },
      "job": {
        "id": 219,
        "name": "Administrateur"
      },
      "start_date": "1880-01-01",
      "end_date": "1883-12-31"
    },
    {
      "issuer": {
        "id": 1260,
        "name": "Compagnie de Touage et Transports de la Seine (de Conflans à la mer)"
      },
      "job": {
        "id": 102,
        "name": "Président",
        "short_name": "P."
      },
      "start_date": "1880-01-01",
      "end_date": "1883-12-31"
    },
    {
      "issuer": {
        "id": 969,
        "name": "Comptoir Central de Crédit (E. Naud et Cie)"
      },
      "job": {
        "id": 102,
        "name": "Président",
        "short_name": "P."
      },
      "start_date": "1883-01-01",
      "end_date": "1889-12-31"
    },
    {
      "issuer": {
        "id": 671,
        "name": "Société Générale de CREDIT INDUSTRIEL ET COMMERCIAL"
      },
      "job": {
        "id": 219,
        "name": "Administrateur"
      },
      "start_date": "1889-01-01",
      "end_date": "1889-12-31"
    },
    {
      "issuer": {
        "id": 2100,
        "name": "LE PATRIMOINE COMPAGNIE ANONYME D'ASSURANCES SUR LA VIE"
      },
      "job": {
        "id": 102,
        "name": "Président",
        "short_name": "P."
      },
      "start_date": "1889-01-01",
      "end_date": "1889-12-31"
    },
    {
      "issuer": {
        "id": 2100,
        "name": "LE PATRIMOINE COMPAGNIE ANONYME D'ASSURANCES SUR LA VIE"
      },
      "job": {
        "id": 102,
        "name": "Président",
        "short_name": "P."
      },
      "start_date": "1893-01-01",
      "end_date": "1893-12-31"
    },
    {
      "issuer": {
        "id": 969,
        "name": "Comptoir Central de Crédit (E. Naud et Cie)"
      },
      "job": {
        "id": 178,
        "name": "President du conseil de surveillance",
        "short_name": "P.C.S."
      },
      "start_date": "1893-01-01",
      "end_date": "1893-12-31"
    }
  ],
  "name": "comte Anatole Lemercier"
}