{
  "id": 122806,
  "names": [
    "Raymond de Ponfilly"
  ],
  "functions": [
    {
      "issuer": {
        "id": 3584,
        "name": "BANQUE DE MADAGASCAR"
      },
      "job": {
        "id": 107,
        "name": "Directeur",
        "short_name": "Dir."
      },
      "start_date": "1953-01-01",
      "end_date": "1953-12-31"
    }
  ],
  "name": "Raymond de Ponfilly"
}