{
  "id": 62430,
  "names": [
    "Von Schroder"
  ],
  "functions": [
    {
      "issuer": {
        "id": 3393,
        "name": "Philadelphia Company"
      },
      "job": {
        "id": 219,
        "name": "Administrateur"
      },
      "start_date": "1917-01-01",
      "end_date": "1917-12-31"
    }
  ],
  "name": "Von Schroder"
}