{
  "id": 112656,
  "names": [
    "L. Carron"
  ],
  "functions": [
    {
      "issuer": {
        "id": 3955,
        "name": "SOCIÉTÉ DES MOTEURS SALMSON Système CANTON-UNNÉ)"
      },
      "job": {
        "id": 219,
        "name": "Administrateur"
      },
      "start_date": "1948-01-01",
      "end_date": "1948-12-31"
    }
  ],
  "name": "L. Carron"
}