{
  "id": 70793,
  "names": [
    "J. Losseff"
  ],
  "functions": [
    {
      "issuer": {
        "id": 10413,
        "name": "STÉ DU DISTRICT MINIER DE NICOLAE-PAVDA (Société de l'arrondissement des Mines de Nicolae-Pavdinskoé)"
      },
      "job": {
        "id": 219,
        "name": "Administrateur"
      },
      "start_date": "1917-01-01",
      "end_date": "1923-12-31"
    }
  ],
  "name": "J. Losseff"
}