{
  "id": 51008,
  "names": [
    "Thenon"
  ],
  "functions": [
    {
      "issuer": {
        "id": 2590,
        "name": "COMPAGNIE FRANÇAISE DES CHEMINS DE FER DE LA PROVINCE DE SANTA-FÉ"
      },
      "job": {
        "id": 219,
        "name": "Administrateur"
      },
      "start_date": "1903-01-01",
      "end_date": "1908-12-31"
    }
  ],
  "name": "Thenon"
}