{
  "id": 84653,
  "names": [
    "A. Sayet"
  ],
  "functions": [
    {
      "issuer": {
        "id": 11438,
        "name": "IMMOBILIERE ET FINANCIERE POUR L'INDUSTRIE AUTOMOBILE (Anciennement Automobiles Bellanger Frères)"
      },
      "job": {
        "id": 219,
        "name": "Administrateur"
      },
      "start_date": "1933-01-01",
      "end_date": "1933-12-31"
    },
    {
      "issuer": {
        "id": 10341,
        "name": "A LA PLACE CLICHY (Grands Magasins de la place Clichy)"
      },
      "job": {
        "id": 219,
        "name": "Administrateur"
      },
      "start_date": "1933-01-01",
      "end_date": "1933-12-31"
    },
    {
      "issuer": {
        "id": 4846,
        "name": "TANNERIES DE FRANCE"
      },
      "job": {
        "id": 219,
        "name": "Administrateur"
      },
      "start_date": "1933-01-01",
      "end_date": "1933-12-31"
    },
    {
      "issuer": {
        "id": 4846,
        "name": "TANNERIES DE FRANCE"
      },
      "job": {
        "id": 10010,
        "name": "President du Conseil Consultatif",
        "short_name": "P.C.C."
      },
      "start_date": "1948-01-01",
      "end_date": "1948-12-31"
    },
    {
      "issuer": {
        "id": 4846,
        "name": "TANNERIES DE FRANCE"
      },
      "job": {
        "id": 189,
        "name": "Président directeur général",
        "short_name": "P.D.G."
      },
      "start_date": "1953-01-01",
      "end_date": "1953-12-31"
    }
  ],
  "name": "A. Sayet"
}