{
  "id": 121674,
  "names": [
    "J.-M. Bouvier O'Cott"
  ],
  "functions": [
    {
      "issuer": {
        "id": 10542,
        "name": "STE ANONYME DES ÉTABLISSEMENTS RASPAIL"
      },
      "job": {
        "id": 219,
        "name": "Administrateur"
      },
      "start_date": "1953-01-01",
      "end_date": "1953-12-31"
    }
  ],
  "name": "J.-M. Bouvier O'Cott"
}