{
  "id": 43156,
  "names": [
    "marquis de Ginety"
  ],
  "functions": [
    {
      "issuer": {
        "id": 670,
        "name": "Compagnie du Jardin Zoologique d'Acclimatation"
      },
      "job": {
        "id": 219,
        "name": "Administrateur"
      },
      "start_date": "1883-01-01",
      "end_date": "1883-12-31"
    }
  ],
  "name": "marquis de Ginety"
}