{
  "id": 75911,
  "names": [
    "Weisweiler"
  ],
  "functions": [
    {
      "issuer": {
        "id": 2666,
        "name": "Cie DES DOCKS ET ENTREPOTS DE ROUEN"
      },
      "job": {
        "id": 219,
        "name": "Administrateur"
      },
      "start_date": "1923-01-01",
      "end_date": "1933-12-31"
    }
  ],
  "name": "Weisweiler"
}