{
  "id": 45051,
  "names": [
    "Guillet"
  ],
  "functions": [
    {
      "issuer": {
        "id": 2949,
        "name": "STé GLE DE TOUAGE ET DE REMORQUAGE"
      },
      "job": {
        "id": 219,
        "name": "Administrateur"
      },
      "start_date": "1917-01-01",
      "end_date": "1933-12-31"
    },
    {
      "issuer": {
        "id": 4893,
        "name": "Société nationale de Sauvetage et Remorquage"
      },
      "job": {
        "id": 219,
        "name": "Administrateur"
      },
      "start_date": "1923-01-01",
      "end_date": "1923-12-31"
    },
    {
      "issuer": {
        "id": 3978,
        "name": "SOCIETE ANONYME DES CIMENTS VICAT"
      },
      "job": {
        "id": 10019,
        "name": "Commissaire des comptes"
      },
      "start_date": "1948-01-01",
      "end_date": "1953-12-31"
    }
  ],
  "name": "Guillet"
}