{
  "id": 118985,
  "names": [
    "Jean Le Guellec"
  ],
  "functions": [
    {
      "issuer": {
        "id": 3490,
        "name": "GAZ DE FRANCE (G.D.F.) SERVICE NATIONAL"
      },
      "job": {
        "id": 107,
        "name": "Directeur",
        "short_name": "Dir."
      },
      "start_date": "1953-01-01",
      "end_date": "1953-12-31"
    }
  ],
  "name": "Jean Le Guellec"
}