{
  "id": 58581,
  "names": [
    "A. Argles"
  ],
  "functions": [
    {
      "issuer": {
        "id": 10357,
        "name": "Savonneries et produits Prima , Ltd"
      },
      "job": {
        "id": 219,
        "name": "Administrateur"
      },
      "start_date": "1912-01-01",
      "end_date": "1912-12-31"
    }
  ],
  "name": "A. Argles"
}