{
  "id": 45583,
  "names": [
    "colonel Martner"
  ],
  "functions": [
    {
      "issuer": {
        "id": 2569,
        "name": "Compagnie française du Télégraphe de Paris à New-York"
      },
      "job": {
        "id": 219,
        "name": "Administrateur"
      },
      "start_date": "1889-01-01",
      "end_date": "1889-12-31"
    }
  ],
  "name": "colonel Martner"
}