{
  "id": 74764,
  "names": [
    "L. Duclos"
  ],
  "functions": [
    {
      "issuer": {
        "id": 10422,
        "name": "COMPAGNIE FRANÇAISE DES HUILERIES ET SAVONNERIES DE TUNISIE"
      },
      "job": {
        "id": 219,
        "name": "Administrateur"
      },
      "start_date": "1923-01-01",
      "end_date": "1923-12-31"
    }
  ],
  "name": "L. Duclos"
}