{
  "id": 89734,
  "names": [
    "P. Chaudoir"
  ],
  "functions": [
    {
      "issuer": {
        "id": 4422,
        "name": "SOCIETE ESCAUT ET MEUSE"
      },
      "job": {
        "id": 219,
        "name": "Administrateur"
      },
      "start_date": "1933-01-01",
      "end_date": "1933-12-31"
    }
  ],
  "name": "P. Chaudoir"
}