{
  "id": 75801,
  "names": [
    "H. Gylsen"
  ],
  "functions": [
    {
      "issuer": {
        "id": 2242,
        "name": "CHARGEURS D'EXTREME-ORIENT"
      },
      "job": {
        "id": 219,
        "name": "Administrateur"
      },
      "start_date": "1923-01-01",
      "end_date": "1927-12-31"
    }
  ],
  "name": "H. Gylsen"
}