{
  "id": 85654,
  "names": [
    "W. M. Tillet"
  ],
  "functions": [
    {
      "issuer": {
        "id": 4915,
        "name": "CANADIAN PACIFIC RAILWAY COMPANY"
      },
      "job": {
        "id": 219,
        "name": "Administrateur"
      },
      "start_date": "1933-01-01",
      "end_date": "1933-12-31"
    }
  ],
  "name": "W. M. Tillet"
}