{
  "id": 76473,
  "names": [
    "P. Schlumberger"
  ],
  "functions": [
    {
      "issuer": {
        "id": 5122,
        "name": "FORCES MOTRICES DU HAUT-RHIN"
      },
      "job": {
        "id": 219,
        "name": "Administrateur"
      },
      "start_date": "1923-01-01",
      "end_date": "1927-12-31"
    },
    {
      "issuer": {
        "id": 1412,
        "name": "BANQUE DE MULHOUSE"
      },
      "job": {
        "id": 10626,
        "name": "Membre de Comité de Direction"
      },
      "start_date": "1927-01-01",
      "end_date": "1927-12-31"
    },
    {
      "issuer": {
        "id": 4101,
        "name": "SOCIÉTÉ ALSACIENNE DE CONSTRUCTIONS MECANIQUES"
      },
      "job": {
        "id": 219,
        "name": "Administrateur"
      },
      "start_date": "1927-01-01",
      "end_date": "1933-12-31"
    },
    {
      "issuer": {
        "id": 3564,
        "name": "Banque Nationale Française du Commerce Extérieure"
      },
      "job": {
        "id": 219,
        "name": "Administrateur"
      },
      "start_date": "1933-01-01",
      "end_date": "1933-12-31"
    },
    {
      "issuer": {
        "id": 2075,
        "name": "COMPAGNIE DE CULTURE COTONNIERE DU NIGER"
      },
      "job": {
        "id": 219,
        "name": "Administrateur"
      },
      "start_date": "1933-01-01",
      "end_date": "1933-12-31"
    },
    {
      "issuer": {
        "id": 5339,
        "name": "ENERGIE ELECTRIQUE DU RHIN (Usine de Kembs)"
      },
      "job": {
        "id": 219,
        "name": "Administrateur"
      },
      "start_date": "1933-01-01",
      "end_date": "1933-12-31"
    },
    {
      "issuer": {
        "id": 1296,
        "name": "HOUILLERES DE RONCHAMP"
      },
      "job": {
        "id": 219,
        "name": "Administrateur"
      },
      "start_date": "1933-01-01",
      "end_date": "1933-12-31"
    },
    {
      "issuer": {
        "id": 5122,
        "name": "FORCES MOTRICES DU HAUT-RHIN"
      },
      "job": {
        "id": 117,
        "name": "Vice-Président",
        "short_name": "V.-Pr."
      },
      "start_date": "1933-01-01",
      "end_date": "1933-12-31"
    },
    {
      "issuer": {
        "id": 1296,
        "name": "HOUILLERES DE RONCHAMP"
      },
      "job": {
        "id": 219,
        "name": "Administrateur"
      },
      "start_date": "1940-01-01",
      "end_date": "1945-12-31"
    },
    {
      "issuer": {
        "id": 5339,
        "name": "ENERGIE ELECTRIQUE DU RHIN (Usine de Kembs)"
      },
      "job": {
        "id": 219,
        "name": "Administrateur"
      },
      "start_date": "1940-01-01",
      "end_date": "1945-12-31"
    },
    {
      "issuer": {
        "id": 4101,
        "name": "SOCIÉTÉ ALSACIENNE DE CONSTRUCTIONS MECANIQUES"
      },
      "job": {
        "id": 219,
        "name": "Administrateur"
      },
      "start_date": "1940-01-01",
      "end_date": "1945-12-31"
    },
    {
      "issuer": {
        "id": 1777,
        "name": "CREDIT FONCIER ET COMMUNAL D'ALSACE ET DE LORRAINE"
      },
      "job": {
        "id": 10637,
        "name": "Membre du Comité de surveillance"
      },
      "start_date": "1940-01-01",
      "end_date": "1945-12-31"
    },
    {
      "issuer": {
        "id": 5122,
        "name": "FORCES MOTRICES DU HAUT-RHIN"
      },
      "job": {
        "id": 117,
        "name": "Vice-Président",
        "short_name": "V.-Pr."
      },
      "start_date": "1940-01-01",
      "end_date": "1945-12-31"
    },
    {
      "issuer": {
        "id": 2075,
        "name": "COMPAGNIE DE CULTURE COTONNIERE DU NIGER"
      },
      "job": {
        "id": 219,
        "name": "Administrateur"
      },
      "start_date": "1940-01-01",
      "end_date": "1948-12-31"
    },
    {
      "issuer": {
        "id": 3564,
        "name": "Banque Nationale Française du Commerce Extérieure"
      },
      "job": {
        "id": 219,
        "name": "Administrateur"
      },
      "start_date": "1940-01-01",
      "end_date": "1948-12-31"
    },
    {
      "issuer": {
        "id": 1777,
        "name": "CREDIT FONCIER ET COMMUNAL D'ALSACE ET DE LORRAINE"
      },
      "job": {
        "id": 219,
        "name": "Administrateur"
      },
      "start_date": "1948-01-01",
      "end_date": "1948-12-31"
    }
  ],
  "name": "P. Schlumberger"
}