{
  "id": 41178,
  "names": [
    "A. de Hegedus"
  ],
  "functions": [
    {
      "issuer": {
        "id": 1943,
        "name": "CRÉDIT FONCIER DU ROYAUME DE HONGRIE"
      },
      "job": {
        "id": 219,
        "name": "Administrateur"
      },
      "start_date": "1883-01-01",
      "end_date": "1898-12-31"
    },
    {
      "issuer": {
        "id": 1162,
        "name": "Société autrichienne-hongroise privilégiée des chemins de fer de l'État"
      },
      "job": {
        "id": 219,
        "name": "Administrateur"
      },
      "start_date": "1883-01-01",
      "end_date": "1898-12-31"
    },
    {
      "issuer": {
        "id": 1060,
        "name": "BANQUE COMMERCIALE HONGROISE DE PEST"
      },
      "job": {
        "id": 219,
        "name": "Administrateur"
      },
      "start_date": "1917-01-01",
      "end_date": "1917-12-31"
    }
  ],
  "name": "A. de Hegedus"
}