{
  "id": 90678,
  "names": [
    "Paul Dreyfus de Gunzburg"
  ],
  "functions": [
    {
      "issuer": {
        "id": 3114,
        "name": "SOCIÉTÉ SUD ELECTRIQUE"
      },
      "job": {
        "id": 219,
        "name": "Administrateur"
      },
      "start_date": "1933-01-01",
      "end_date": "1933-12-31"
    },
    {
      "issuer": {
        "id": 3114,
        "name": "SOCIÉTÉ SUD ELECTRIQUE"
      },
      "job": {
        "id": 219,
        "name": "Administrateur"
      },
      "start_date": "1940-01-01",
      "end_date": "1940-12-31"
    }
  ],
  "name": "Paul Dreyfus de Gunzburg"
}