{
  "id": 100892,
  "names": [
    "Henri de Bussière"
  ],
  "functions": [
    {
      "issuer": {
        "id": 4502,
        "name": "COMPAGNIE EQUATORIALE DE MINES"
      },
      "job": {
        "id": 125,
        "name": "Administrateur Directeur",
        "short_name": "Ad. Dir."
      },
      "start_date": "1940-01-01",
      "end_date": "1940-12-31"
    },
    {
      "issuer": {
        "id": 4502,
        "name": "COMPAGNIE EQUATORIALE DE MINES"
      },
      "job": {
        "id": 189,
        "name": "Président directeur général",
        "short_name": "P.D.G."
      },
      "start_date": "1945-01-01",
      "end_date": "1948-12-31"
    },
    {
      "issuer": {
        "id": 11572,
        "name": "SOCIETE D'EXPLOITATIONS MINIERES DE L'ININI"
      },
      "job": {
        "id": 219,
        "name": "Administrateur"
      },
      "start_date": "1953-01-01",
      "end_date": "1953-12-31"
    },
    {
      "issuer": {
        "id": 4535,
        "name": "SOCIETE MINIÈRE DES GUNDAFA"
      },
      "job": {
        "id": 219,
        "name": "Administrateur"
      },
      "start_date": "1953-01-01",
      "end_date": "1953-12-31"
    },
    {
      "issuer": {
        "id": 4502,
        "name": "COMPAGNIE EQUATORIALE DE MINES"
      },
      "job": {
        "id": 162,
        "name": "Président honoraire"
      },
      "start_date": "1953-01-01",
      "end_date": "1953-12-31"
    },
    {
      "issuer": {
        "id": 4536,
        "name": "SOCIETE MINIERE INTERCOLONIALE"
      },
      "job": {
        "id": 219,
        "name": "Administrateur"
      },
      "start_date": "1953-01-01",
      "end_date": "1953-12-31"
    }
  ],
  "name": "Henri de Bussière"
}