{
  "id": 108068,
  "names": [
    "Riocheux"
  ],
  "functions": [
    {
      "issuer": {
        "id": 4072,
        "name": "COMPAGNIE INDUSTRIELLE ET MINIERE DU NORD ET DES ALPES"
      },
      "job": {
        "id": 10019,
        "name": "Commissaire des comptes"
      },
      "start_date": "1945-01-01",
      "end_date": "1945-12-31"
    }
  ],
  "name": "Riocheux"
}