{
  "id": 54414,
  "names": [
    "J. Javal"
  ],
  "functions": [
    {
      "issuer": {
        "id": 3248,
        "name": "THE RIO-DE-JANEIRO TRAMWAY LIGHT AND POWER COMPANY, LIMITED"
      },
      "job": {
        "id": 219,
        "name": "Administrateur"
      },
      "start_date": "1912-01-01",
      "end_date": "1912-12-31"
    },
    {
      "issuer": {
        "id": 3220,
        "name": "SOCIÉTÉ GÉNÉRALE DES COMPTEURS DE VOITURES (TAXIMETRES)"
      },
      "job": {
        "id": 219,
        "name": "Administrateur"
      },
      "start_date": "1912-01-01",
      "end_date": "1912-12-31"
    }
  ],
  "name": "J. Javal"
}