{
  "id": 113038,
  "names": [
    "R. Gallon"
  ],
  "functions": [
    {
      "issuer": {
        "id": 2871,
        "name": "COMPAGNIE DES PHOSPHATES DU DYR"
      },
      "job": {
        "id": 219,
        "name": "Administrateur"
      },
      "start_date": "1948-01-01",
      "end_date": "1948-12-31"
    }
  ],
  "name": "R. Gallon"
}