{
  "id": 99430,
  "names": [
    "André Grisoni"
  ],
  "functions": [
    {
      "issuer": {
        "id": 3646,
        "name": "Société IMMOBILIÈRE DE L'ETANG DE BERRE ET DE LA MÉDITERRANÉE"
      },
      "job": {
        "id": 219,
        "name": "Administrateur"
      },
      "start_date": "1940-01-01",
      "end_date": "1940-12-31"
    }
  ],
  "name": "André Grisoni"
}