{
  "id": 72663,
  "names": [
    "J. S. de Léon e Igual"
  ],
  "functions": [
    {
      "issuer": {
        "id": 1220,
        "name": "CHEMINS DE FER DU NORD DE L'ESPAGNE"
      },
      "job": {
        "id": 10645,
        "name": "Administrateur à Barcelone"
      },
      "start_date": "1923-01-01",
      "end_date": "1927-12-31"
    },
    {
      "issuer": {
        "id": 1220,
        "name": "CHEMINS DE FER DU NORD DE L'ESPAGNE"
      },
      "job": {
        "id": 219,
        "name": "Administrateur"
      },
      "start_date": "1933-01-01",
      "end_date": "1933-12-31"
    }
  ],
  "name": "J. S. de Léon e Igual"
}