{
  "id": 48663,
  "names": [
    "marquis da Praixa e Monforte"
  ],
  "functions": [
    {
      "issuer": {
        "id": 2893,
        "name": "Compagnie des Tabacs de Portugal"
      },
      "job": {
        "id": 219,
        "name": "Administrateur"
      },
      "start_date": "1898-01-01",
      "end_date": "1908-12-31"
    }
  ],
  "name": "marquis da Praixa e Monforte"
}