{
  "id": 108605,
  "names": [
    "G. de Eaporta"
  ],
  "functions": [
    {
      "issuer": {
        "id": 11011,
        "name": "La Bienhoa industrielle et forestière"
      },
      "job": {
        "id": 219,
        "name": "Administrateur"
      },
      "start_date": "1945-01-01",
      "end_date": "1945-12-31"
    }
  ],
  "name": "G. de Eaporta"
}