{
  "id": 119583,
  "names": [
    "Cie de Produits Chimiques et Electrométallurgiques"
  ],
  "functions": [
    {
      "issuer": {
        "id": 4736,
        "name": "ENERGIE ELECTRIQUE DU MAROC"
      },
      "job": {
        "id": 219,
        "name": "Administrateur"
      },
      "start_date": "1953-01-01",
      "end_date": "1953-12-31"
    }
  ],
  "name": "Cie de Produits Chimiques et Electrométallurgiques"
}