{
  "id": 88319,
  "names": [
    "Jean Boyer(2)"
  ],
  "functions": [
    {
      "issuer": {
        "id": 4828,
        "name": "SOCIETE POUR L'INDUSTRIE DES TRANSPORTS (Anciennement Société des Transports en Commun de la Région Parisienne)"
      },
      "job": {
        "id": 10019,
        "name": "Commissaire des comptes"
      },
      "start_date": "1940-01-01",
      "end_date": "1940-12-31"
    },
    {
      "issuer": {
        "id": 2103,
        "name": "LA FRANCE Compagnie d'assurances sur la vie"
      },
      "job": {
        "id": 10019,
        "name": "Commissaire des comptes"
      },
      "start_date": "1940-01-01",
      "end_date": "1945-12-31"
    },
    {
      "issuer": {
        "id": 11041,
        "name": "LA FRANCE-RÉASSURANCES ET RISQUES DIVERS"
      },
      "job": {
        "id": 10019,
        "name": "Commissaire des comptes"
      },
      "start_date": "1940-01-01",
      "end_date": "1948-12-31"
    },
    {
      "issuer": {
        "id": 324,
        "name": "LA FRANCE Compagnie d'assurances contre l'incendie"
      },
      "job": {
        "id": 10019,
        "name": "Commissaire des comptes"
      },
      "start_date": "1940-01-01",
      "end_date": "1953-12-31"
    },
    {
      "issuer": {
        "id": 4828,
        "name": "SOCIETE POUR L'INDUSTRIE DES TRANSPORTS (Anciennement Société des Transports en Commun de la Région Parisienne)"
      },
      "job": {
        "id": 219,
        "name": "Administrateur"
      },
      "start_date": "1945-01-01",
      "end_date": "1945-12-31"
    },
    {
      "issuer": {
        "id": 4652,
        "name": "Compagnies Régionales Réunies de Fabriques d'Engrais et de Produits Chimiques"
      },
      "job": {
        "id": 10019,
        "name": "Commissaire des comptes"
      },
      "start_date": "1945-01-01",
      "end_date": "1953-12-31"
    },
    {
      "issuer": {
        "id": 2103,
        "name": "LA FRANCE Compagnie d'assurances sur la vie"
      },
      "job": {
        "id": 10258,
        "name": "Suppléant"
      },
      "start_date": "1948-01-01",
      "end_date": "1948-12-31"
    },
    {
      "issuer": {
        "id": 2103,
        "name": "LA FRANCE Compagnie d'assurances sur la vie"
      },
      "job": {
        "id": 10019,
        "name": "Commissaire des comptes"
      },
      "start_date": "1953-01-01",
      "end_date": "1953-12-31"
    },
    {
      "issuer": {
        "id": 5025,
        "name": "PLANTATIONS DE CAOUTCHOUC DE TAPANOELIE"
      },
      "job": {
        "id": 103,
        "name": "Commissaire"
      },
      "start_date": "1953-01-01",
      "end_date": "1953-12-31"
    },
    {
      "issuer": {
        "id": 5023,
        "name": "PLANTATIONS DE CAOUTCHOUC DE SUMATRA"
      },
      "job": {
        "id": 103,
        "name": "Commissaire"
      },
      "start_date": "1953-01-01",
      "end_date": "1953-12-31"
    },
    {
      "issuer": {
        "id": 5017,
        "name": "N. V. SIBOGA CAOUTCHOUC PLANTAGE (Plantation de caoutchouc de Siboga)"
      },
      "job": {
        "id": 103,
        "name": "Commissaire"
      },
      "start_date": "1953-01-01",
      "end_date": "1953-12-31"
    },
    {
      "issuer": {
        "id": 4988,
        "name": "SOCIETÉ DES PLANTATIONS DE CAOUTCHOUC DE KALITENGAH"
      },
      "job": {
        "id": 103,
        "name": "Commissaire"
      },
      "start_date": "1953-01-01",
      "end_date": "1953-12-31"
    },
    {
      "issuer": {
        "id": 10298,
        "name": "SOCIÉTÉ DE CULTURE DE PACOUDA"
      },
      "job": {
        "id": 103,
        "name": "Commissaire"
      },
      "start_date": "1953-01-01",
      "end_date": "1953-12-31"
    }
  ],
  "name": "Jean Boyer(2)"
}