{
  "id": 58126,
  "names": [
    "G. Servajeau"
  ],
  "functions": [
    {
      "issuer": {
        "id": 3216,
        "name": "SUCRERIE CENTRALE \"COLOSO\" DE PORTO-RICO"
      },
      "job": {
        "id": 219,
        "name": "Administrateur"
      },
      "start_date": "1912-01-01",
      "end_date": "1917-12-31"
    }
  ],
  "name": "G. Servajeau"
}