{
  "id": 78295,
  "names": [
    "F. Charlet"
  ],
  "functions": [
    {
      "issuer": {
        "id": 10548,
        "name": "CONSTRUCTIONS MÉCANIQUES & FONDERIES DE LA COURNEUVE ET DE CONFLANS-Ste-HONORINE"
      },
      "job": {
        "id": 219,
        "name": "Administrateur"
      },
      "start_date": "1923-01-01",
      "end_date": "1923-12-31"
    }
  ],
  "name": "F. Charlet"
}