{
  "id": 114560,
  "names": [
    "P. Ricalens"
  ],
  "functions": [
    {
      "issuer": {
        "id": 11462,
        "name": "ETABLISSEMENTS RICALENS"
      },
      "job": {
        "id": 219,
        "name": "Administrateur"
      },
      "start_date": "1948-01-01",
      "end_date": "1953-12-31"
    }
  ],
  "name": "P. Ricalens"
}