{
  "id": 112591,
  "names": [
    "R. Sautereau"
  ],
  "functions": [
    {
      "issuer": {
        "id": 3505,
        "name": "REGIE NATIONALE DES USINES RENAULT"
      },
      "job": {
        "id": 219,
        "name": "Administrateur"
      },
      "start_date": "1948-01-01",
      "end_date": "1948-12-31"
    }
  ],
  "name": "R. Sautereau"
}