{
  "id": 89787,
  "names": [
    "H. Baclet"
  ],
  "functions": [
    {
      "issuer": {
        "id": 4431,
        "name": "FORGES DE LEVAL-AULNOYE"
      },
      "job": {
        "id": 219,
        "name": "Administrateur"
      },
      "start_date": "1933-01-01",
      "end_date": "1933-12-31"
    },
    {
      "issuer": {
        "id": 4431,
        "name": "FORGES DE LEVAL-AULNOYE"
      },
      "job": {
        "id": 219,
        "name": "Administrateur"
      },
      "start_date": "1940-01-01",
      "end_date": "1948-12-31"
    },
    {
      "issuer": {
        "id": 4431,
        "name": "FORGES DE LEVAL-AULNOYE"
      },
      "job": {
        "id": 10019,
        "name": "Commissaire des comptes"
      },
      "start_date": "1953-01-01",
      "end_date": "1953-12-31"
    }
  ],
  "name": "H. Baclet"
}