{
  "id": 116577,
  "names": [
    "M. J. Petin"
  ],
  "functions": [
    {
      "issuer": {
        "id": 4544,
        "name": "SOCIETE NANTAISE DES MINERAIS DE L'OUEST"
      },
      "job": {
        "id": 189,
        "name": "Président directeur général",
        "short_name": "P.D.G."
      },
      "start_date": "1953-01-01",
      "end_date": "1953-12-31"
    }
  ],
  "name": "M. J. Petin"
}