{
  "id": 52186,
  "names": [
    "Emile Boire"
  ],
  "functions": [
    {
      "issuer": {
        "id": 2747,
        "name": "SOCIÉTÉ DES CHANTIER ET ATELIERS DE SAINT-NAZAIRE (PENHOET)"
      },
      "job": {
        "id": 219,
        "name": "Administrateur"
      },
      "start_date": "1908-01-01",
      "end_date": "1908-12-31"
    }
  ],
  "name": "Emile Boire"
}