{
  "id": 103469,
  "names": [
    "Lanvin"
  ],
  "functions": [
    {
      "issuer": {
        "id": 1176,
        "name": "SOCIETE ANONYME DES SUCRERIE ET RAFFINERIE DE BRESLES"
      },
      "job": {
        "id": 101,
        "name": "Administrateur Délégué",
        "short_name": "Ad. Dél."
      },
      "start_date": "1940-01-01",
      "end_date": "1940-12-31"
    }
  ],
  "name": "Lanvin"
}