{
  "id": 89873,
  "names": [
    "Ch. Gravier"
  ],
  "functions": [
    {
      "issuer": {
        "id": 5159,
        "name": "Horme et Buire"
      },
      "job": {
        "id": 219,
        "name": "Administrateur"
      },
      "start_date": "1933-01-01",
      "end_date": "1933-12-31"
    }
  ],
  "name": "Ch. Gravier"
}