{
  "id": 116594,
  "names": [
    "H. Pegezy"
  ],
  "functions": [
    {
      "issuer": {
        "id": 4520,
        "name": "Mines d'Aouli"
      },
      "job": {
        "id": 102,
        "name": "Président",
        "short_name": "P."
      },
      "start_date": "1953-01-01",
      "end_date": "1953-12-31"
    }
  ],
  "name": "H. Pegezy"
}