{
  "id": 105187,
  "names": [
    "C. Gabriel Thomas"
  ],
  "functions": [
    {
      "issuer": {
        "id": 4853,
        "name": "VOIES FERRÉES DES LANDES"
      },
      "job": {
        "id": 219,
        "name": "Administrateur"
      },
      "start_date": "1940-01-01",
      "end_date": "1940-12-31"
    },
    {
      "issuer": {
        "id": 4853,
        "name": "VOIES FERRÉES DES LANDES"
      },
      "job": {
        "id": 219,
        "name": "Administrateur"
      },
      "start_date": "1945-01-01",
      "end_date": "1945-12-31"
    }
  ],
  "name": "C. Gabriel Thomas"
}