{
  "id": 121325,
  "names": [
    "P. Hertel"
  ],
  "functions": [
    {
      "issuer": {
        "id": 3725,
        "name": "COMPAGNIE FRANCO-INDOCHINOISE"
      },
      "job": {
        "id": 141,
        "name": "Directeur Général",
        "short_name": "D.G."
      },
      "start_date": "1953-01-01",
      "end_date": "1953-12-31"
    }
  ],
  "name": "P. Hertel"
}