{
  "id": 41412,
  "names": [
    "baron Gustave Samuel James de Rothschild"
  ],
  "functions": [
    {
      "issuer": {
        "id": 979,
        "name": "Compagnie des Chemins de fer du Sud de l'Autriche"
      },
      "job": {
        "id": 12823,
        "name": "Administrateur à Paris"
      },
      "start_date": "1880-01-01",
      "end_date": "1880-12-31"
    },
    {
      "issuer": {
        "id": 959,
        "name": "Compagnie des chemins de fer de Madrid à Saragosse et à Alicante"
      },
      "job": {
        "id": 10634,
        "name": "Membre du comité de Paris"
      },
      "start_date": "1880-01-01",
      "end_date": "1880-12-31"
    },
    {
      "issuer": {
        "id": 653,
        "name": "Compagnie des Chemins de fer de PARIS A LYON ET A LA MÉDITERRANÉE"
      },
      "job": {
        "id": 219,
        "name": "Administrateur"
      },
      "start_date": "1880-01-01",
      "end_date": "1908-12-31"
    },
    {
      "issuer": {
        "id": 151,
        "name": "LA NATIONALE Cie D'ASSURANCES CONTRE L'INCENDIE ET LES EXPLOSIONS"
      },
      "job": {
        "id": 219,
        "name": "Administrateur"
      },
      "start_date": "1880-01-01",
      "end_date": "1908-12-31"
    },
    {
      "issuer": {
        "id": 153,
        "name": "La Nationale, Compagnie anonyme d'assurances sur la vie"
      },
      "job": {
        "id": 219,
        "name": "Administrateur"
      },
      "start_date": "1880-01-01",
      "end_date": "1908-12-31"
    },
    {
      "issuer": {
        "id": 959,
        "name": "Compagnie des chemins de fer de Madrid à Saragosse et à Alicante"
      },
      "job": {
        "id": 219,
        "name": "Administrateur"
      },
      "start_date": "1883-01-01",
      "end_date": "1893-12-31"
    },
    {
      "issuer": {
        "id": 979,
        "name": "Compagnie des Chemins de fer du Sud de l'Autriche"
      },
      "job": {
        "id": 10634,
        "name": "Membre du comité de Paris"
      },
      "start_date": "1883-01-01",
      "end_date": "1908-12-31"
    },
    {
      "issuer": {
        "id": 493,
        "name": "Compagnie du Chemin de fer du NORD"
      },
      "job": {
        "id": 219,
        "name": "Administrateur"
      },
      "start_date": "1883-01-01",
      "end_date": "1908-12-31"
    },
    {
      "issuer": {
        "id": 979,
        "name": "Compagnie des Chemins de fer du Sud de l'Autriche"
      },
      "job": {
        "id": 219,
        "name": "Administrateur"
      },
      "start_date": "1898-01-01",
      "end_date": "1898-12-31"
    },
    {
      "issuer": {
        "id": 959,
        "name": "Compagnie des chemins de fer de Madrid à Saragosse et à Alicante"
      },
      "job": {
        "id": 219,
        "name": "Administrateur"
      },
      "start_date": "1898-01-01",
      "end_date": "1903-12-31"
    },
    {
      "issuer": {
        "id": 959,
        "name": "Compagnie des chemins de fer de Madrid à Saragosse et à Alicante"
      },
      "job": {
        "id": 102,
        "name": "Président",
        "short_name": "P."
      },
      "start_date": "1908-01-01",
      "end_date": "1908-12-31"
    }
  ],
  "name": "baron Gustave Samuel James de Rothschild"
}