{
  "id": 59847,
  "names": [
    "D. Ponce"
  ],
  "functions": [
    {
      "issuer": {
        "id": 10308,
        "name": "BANQUE PÉNINSULAIRE MEXICAINE (Anciennement Banque de Yucatan)"
      },
      "job": {
        "id": 219,
        "name": "Administrateur"
      },
      "start_date": "1917-01-01",
      "end_date": "1917-12-31"
    }
  ],
  "name": "D. Ponce"
}