{
  "id": 74889,
  "names": [
    "A. Leclerc"
  ],
  "functions": [
    {
      "issuer": {
        "id": 10530,
        "name": "Société pour la conservation du poisson par la congélation"
      },
      "job": {
        "id": 219,
        "name": "Administrateur"
      },
      "start_date": "1923-01-01",
      "end_date": "1923-12-31"
    }
  ],
  "name": "A. Leclerc"
}