{
  "id": 63460,
  "names": [
    "H. Brulé"
  ],
  "functions": [
    {
      "issuer": {
        "id": 3196,
        "name": "STÉ DE LA BLANCHISSERIE DE COURCELLES"
      },
      "job": {
        "id": 219,
        "name": "Administrateur"
      },
      "start_date": "1917-01-01",
      "end_date": "1917-12-31"
    },
    {
      "issuer": {
        "id": 3945,
        "name": "GRAPPIN-ANNAT (Anciens Ets Grappin et David, Annaf et Schlick réunis)"
      },
      "job": {
        "id": 219,
        "name": "Administrateur"
      },
      "start_date": "1945-01-01",
      "end_date": "1953-12-31"
    }
  ],
  "name": "H. Brulé"
}