{
  "id": 124432,
  "names": [
    "Rosenthal"
  ],
  "functions": [
    {
      "issuer": {
        "id": 1530,
        "name": "Banque Centrale du Crédit Foncier de Russie"
      },
      "job": {
        "id": 107,
        "name": "Directeur",
        "short_name": "Dir."
      },
      "start_date": "1880-01-01",
      "end_date": "1880-12-31"
    }
  ],
  "name": "Rosenthal"
}