{
  "id": 119604,
  "names": [
    "M. Mamy"
  ],
  "functions": [
    {
      "issuer": {
        "id": 4366,
        "name": "SOCIETE DE L'ACCUMULATEUR FULMEN"
      },
      "job": {
        "id": 219,
        "name": "Administrateur"
      },
      "start_date": "1953-01-01",
      "end_date": "1953-12-31"
    },
    {
      "issuer": {
        "id": 3367,
        "name": "AIR COMPRIMÉ, FORCE MOTRICE ÉCLAIRAGE ÉLECTRIQUE"
      },
      "job": {
        "id": 219,
        "name": "Administrateur"
      },
      "start_date": "1953-01-01",
      "end_date": "1953-12-31"
    }
  ],
  "name": "M. Mamy"
}