{
  "id": 79161,
  "names": [
    "Von Schinkel"
  ],
  "functions": [
    {
      "issuer": {
        "id": 3243,
        "name": "STE DES MINES DE GELSENKIRCHEN"
      },
      "job": {
        "id": 219,
        "name": "Administrateur"
      },
      "start_date": "1927-01-01",
      "end_date": "1927-12-31"
    },
    {
      "issuer": {
        "id": 3243,
        "name": "STE DES MINES DE GELSENKIRCHEN"
      },
      "job": {
        "id": 219,
        "name": "Administrateur"
      },
      "start_date": "1933-01-01",
      "end_date": "1933-12-31"
    }
  ],
  "name": "Von Schinkel"
}