{
  "id": 122828,
  "names": [
    "J. Lacheteau"
  ],
  "functions": [
    {
      "issuer": {
        "id": 956,
        "name": "BANQUE DE LA REUNION"
      },
      "job": {
        "id": 10019,
        "name": "Commissaire des comptes"
      },
      "start_date": "1953-01-01",
      "end_date": "1953-12-31"
    }
  ],
  "name": "J. Lacheteau"
}