{
  "id": 126305,
  "names": [
    "marquis François des Roys"
  ],
  "functions": [
    {
      "issuer": {
        "id": 1681,
        "name": "COMPAGNIE DE FIVES-LILLE"
      },
      "job": {
        "id": 219,
        "name": "Administrateur"
      },
      "start_date": "1912-01-01",
      "end_date": "1933-12-31"
    },
    {
      "issuer": {
        "id": 1681,
        "name": "COMPAGNIE DE FIVES-LILLE"
      },
      "job": {
        "id": 219,
        "name": "Administrateur"
      },
      "start_date": "1940-01-01",
      "end_date": "1945-12-31"
    }
  ],
  "name": "marquis François des Roys"
}