{
  "id": 76495,
  "names": [
    "Berveiller"
  ],
  "functions": [
    {
      "issuer": {
        "id": 4410,
        "name": "COMPAGNIE GÉNÉRALE ELECTRIQUE"
      },
      "job": {
        "id": 219,
        "name": "Administrateur"
      },
      "start_date": "1923-01-01",
      "end_date": "1923-12-31"
    },
    {
      "issuer": {
        "id": 4052,
        "name": "OMNIUM D'ENTREPRISES (Groupement pour travaux publics)"
      },
      "job": {
        "id": 219,
        "name": "Administrateur"
      },
      "start_date": "1927-01-01",
      "end_date": "1927-12-31"
    }
  ],
  "name": "Berveiller"
}