{
  "id": 45106,
  "names": [
    "Jean Georges Achille Monchicourt"
  ],
  "functions": [
    {
      "issuer": {
        "id": 1719,
        "name": "Compagnie générale des Allumettes chimiques"
      },
      "job": {
        "id": 219,
        "name": "Administrateur"
      },
      "start_date": "1880-01-01",
      "end_date": "1880-12-31"
    },
    {
      "issuer": {
        "id": 2256,
        "name": "CIE FRANÇAISE DES MINES DU LAURIUM"
      },
      "job": {
        "id": 102,
        "name": "Président",
        "short_name": "P."
      },
      "start_date": "1883-01-01",
      "end_date": "1883-12-31"
    },
    {
      "issuer": {
        "id": 1384,
        "name": "Société Financière de Paris"
      },
      "job": {
        "id": 10420,
        "name": "Liquidateur"
      },
      "start_date": "1883-01-01",
      "end_date": "1883-12-31"
    },
    {
      "issuer": {
        "id": 2256,
        "name": "CIE FRANÇAISE DES MINES DU LAURIUM"
      },
      "job": {
        "id": 102,
        "name": "Président",
        "short_name": "P."
      },
      "start_date": "1889-01-01",
      "end_date": "1889-12-31"
    },
    {
      "issuer": {
        "id": 2515,
        "name": "Compagnie de construction et d exploitation des chemins de fer de l'État serbe"
      },
      "job": {
        "id": 219,
        "name": "Administrateur"
      },
      "start_date": "1889-01-01",
      "end_date": "1889-12-31"
    },
    {
      "issuer": {
        "id": 2102,
        "name": "Le Temps, Compagnie d'assurances à primes fixes"
      },
      "job": {
        "id": 10420,
        "name": "Liquidateur"
      },
      "start_date": "1889-01-01",
      "end_date": "1889-12-31"
    },
    {
      "issuer": {
        "id": 2261,
        "name": "Société des mines de fer de l'Anjou et des forges de Saint-Nazaire"
      },
      "job": {
        "id": 10420,
        "name": "Liquidateur"
      },
      "start_date": "1889-01-01",
      "end_date": "1889-12-31"
    },
    {
      "issuer": {
        "id": 1719,
        "name": "Compagnie générale des Allumettes chimiques"
      },
      "job": {
        "id": 101,
        "name": "Administrateur Délégué",
        "short_name": "Ad. Dél."
      },
      "start_date": "1889-01-01",
      "end_date": "1889-12-31"
    },
    {
      "issuer": {
        "id": 1727,
        "name": "Banque Parisienne"
      },
      "job": {
        "id": 102,
        "name": "Président",
        "short_name": "P."
      },
      "start_date": "1893-01-01",
      "end_date": "1893-12-31"
    },
    {
      "issuer": {
        "id": 1804,
        "name": "BANQUE IMPÉRIALE ROYALE PRIVILÉGIÉE DES PAYS AUTRICHIENS"
      },
      "job": {
        "id": 219,
        "name": "Administrateur"
      },
      "start_date": "1893-01-01",
      "end_date": "1893-12-31"
    },
    {
      "issuer": {
        "id": 2256,
        "name": "CIE FRANÇAISE DES MINES DU LAURIUM"
      },
      "job": {
        "id": 102,
        "name": "Président",
        "short_name": "P."
      },
      "start_date": "1893-01-01",
      "end_date": "1893-12-31"
    },
    {
      "issuer": {
        "id": 2563,
        "name": "CIE universelle du Canal interocéanique de Panama"
      },
      "job": {
        "id": 10420,
        "name": "Liquidateur"
      },
      "start_date": "1893-01-01",
      "end_date": "1893-12-31"
    }
  ],
  "name": "Jean Georges Achille Monchicourt"
}