{
  "id": 63821,
  "names": [
    "G. Schau"
  ],
  "functions": [
    {
      "issuer": {
        "id": 3387,
        "name": "COMPAGNIE EST-ASIATIQUE DANOIS (Det Ostasiatiske Kompagni)"
      },
      "job": {
        "id": 219,
        "name": "Administrateur"
      },
      "start_date": "1917-01-01",
      "end_date": "1917-12-31"
    }
  ],
  "name": "G. Schau"
}