{
  "id": 114029,
  "names": [
    "Ed. Nicolle"
  ],
  "functions": [
    {
      "issuer": {
        "id": 3707,
        "name": "SOCIETE FRANÇAISE DE PARTICIPATIONS INDUSTRIELLES ET COMMERCIALES (ex-Cie Industrielle des Ciments)"
      },
      "job": {
        "id": 219,
        "name": "Administrateur"
      },
      "start_date": "1948-01-01",
      "end_date": "1948-12-31"
    },
    {
      "issuer": {
        "id": 3707,
        "name": "SOCIETE FRANÇAISE DE PARTICIPATIONS INDUSTRIELLES ET COMMERCIALES (ex-Cie Industrielle des Ciments)"
      },
      "job": {
        "id": 219,
        "name": "Administrateur"
      },
      "start_date": "1953-01-01",
      "end_date": "1953-12-31"
    },
    {
      "issuer": {
        "id": 3811,
        "name": "MIELLE - CAILLOUX"
      },
      "job": {
        "id": 219,
        "name": "Administrateur"
      },
      "start_date": "1953-01-01",
      "end_date": "1953-12-31"
    }
  ],
  "name": "Ed. Nicolle"
}