{
  "id": 83012,
  "names": [
    "J. da Cunha Rolla Pereira"
  ],
  "functions": [
    {
      "issuer": {
        "id": 1523,
        "name": "BANCO NACIONAL ULTRAMARINO (Banque Nationale d'Outremer ou Coloniale)"
      },
      "job": {
        "id": 223,
        "name": "Sous-gouverneur"
      },
      "start_date": "1927-01-01",
      "end_date": "1933-12-31"
    }
  ],
  "name": "J. da Cunha Rolla Pereira"
}