{
  "id": 90607,
  "names": [
    "Société Effella"
  ],
  "functions": [
    {
      "issuer": {
        "id": 2698,
        "name": "FORCE ET DISTRIBUTION"
      },
      "job": {
        "id": 219,
        "name": "Administrateur"
      },
      "start_date": "1933-01-01",
      "end_date": "1933-12-31"
    }
  ],
  "name": "Société Effella"
}