{
  "id": 124042,
  "names": [
    "A. de Gourcy"
  ],
  "functions": [
    {
      "issuer": {
        "id": 1137,
        "name": "Compagnie d'Assurances générales Maritimes"
      },
      "job": {
        "id": 219,
        "name": "Administrateur"
      },
      "start_date": "1880-01-01",
      "end_date": "1880-12-31"
    },
    {
      "issuer": {
        "id": 146,
        "name": "COMPAGNIE D'ASSURANCES GÉNÉRALES CONTRE L'INCENDIE"
      },
      "job": {
        "id": 219,
        "name": "Administrateur"
      },
      "start_date": "1880-01-01",
      "end_date": "1880-12-31"
    }
  ],
  "name": "A. de Gourcy"
}