{
  "id": 47665,
  "names": [
    "prince de Starhemberg"
  ],
  "functions": [
    {
      "issuer": {
        "id": 1257,
        "name": "Société Générale Impériale Royale Privilégiée du Crédit foncier d'Autriche"
      },
      "job": {
        "id": 161,
        "name": "Administrateur President"
      },
      "start_date": "1898-01-01",
      "end_date": "1898-12-31"
    }
  ],
  "name": "prince de Starhemberg"
}