{
  "id": 112606,
  "names": [
    "Diligeon"
  ],
  "functions": [
    {
      "issuer": {
        "id": 10557,
        "name": "SOCIETE DES AUTOMOBILES DELAHAYE"
      },
      "job": {
        "id": 10019,
        "name": "Commissaire des comptes"
      },
      "start_date": "1948-01-01",
      "end_date": "1953-12-31"
    }
  ],
  "name": "Diligeon"
}