{
  "id": 127196,
  "names": [
    "Jacques Simon"
  ],
  "functions": [
    {
      "issuer": {
        "id": 324,
        "name": "LA FRANCE Compagnie d'assurances contre l'incendie"
      },
      "job": {
        "id": 219,
        "name": "Administrateur"
      },
      "start_date": "1948-01-01",
      "end_date": "1948-12-31"
    },
    {
      "issuer": {
        "id": 4167,
        "name": "ETABLISSEMENTS DUC-LAMOTHE-LEDRU ET Cie"
      },
      "job": {
        "id": 219,
        "name": "Administrateur"
      },
      "start_date": "1953-01-01",
      "end_date": "1953-12-31"
    },
    {
      "issuer": {
        "id": 2103,
        "name": "LA FRANCE Compagnie d'assurances sur la vie"
      },
      "job": {
        "id": 219,
        "name": "Administrateur"
      },
      "start_date": "1953-01-01",
      "end_date": "1953-12-31"
    },
    {
      "issuer": {
        "id": 324,
        "name": "LA FRANCE Compagnie d'assurances contre l'incendie"
      },
      "job": {
        "id": 219,
        "name": "Administrateur"
      },
      "start_date": "1953-01-01",
      "end_date": "1953-12-31"
    }
  ],
  "name": "Jacques Simon"
}