{
  "id": 75053,
  "names": [
    "P. Houet"
  ],
  "functions": [
    {
      "issuer": {
        "id": 4563,
        "name": "SOCIETE GENERALE DES HUILES DE PETROLE BP"
      },
      "job": {
        "id": 219,
        "name": "Administrateur"
      },
      "start_date": "1923-01-01",
      "end_date": "1933-12-31"
    }
  ],
  "name": "P. Houet"
}