{
  "id": 52387,
  "names": [
    "Alfred Saint-Marc Girardin"
  ],
  "functions": [
    {
      "issuer": {
        "id": 2957,
        "name": "ANCIENNES MAISONS TERNOIS ET GUINON (Vidanges, Engrais et Équarissage)"
      },
      "job": {
        "id": 10019,
        "name": "Commissaire des comptes"
      },
      "start_date": "1908-01-01",
      "end_date": "1908-12-31"
    }
  ],
  "name": "Alfred Saint-Marc Girardin"
}