{
  "id": 110632,
  "names": [
    "Pierre Chevrier"
  ],
  "functions": [
    {
      "issuer": {
        "id": 2737,
        "name": "Société des NOUVEAUX QUARTIERS DE PARIS"
      },
      "job": {
        "id": 219,
        "name": "Administrateur"
      },
      "start_date": "1923-01-01",
      "end_date": "1933-12-31"
    },
    {
      "issuer": {
        "id": 703,
        "name": "Compagnie des Forges de Châtillon et Commentry"
      },
      "job": {
        "id": 219,
        "name": "Administrateur"
      },
      "start_date": "1933-01-01",
      "end_date": "1933-12-31"
    },
    {
      "issuer": {
        "id": 2737,
        "name": "Société des NOUVEAUX QUARTIERS DE PARIS"
      },
      "job": {
        "id": 219,
        "name": "Administrateur"
      },
      "start_date": "1940-01-01",
      "end_date": "1940-12-31"
    },
    {
      "issuer": {
        "id": 1040,
        "name": "Banque Nationale pour le commerce et l'Industrie"
      },
      "job": {
        "id": 107,
        "name": "Directeur",
        "short_name": "Dir."
      },
      "start_date": "1948-01-01",
      "end_date": "1948-12-31"
    },
    {
      "issuer": {
        "id": 1040,
        "name": "Banque Nationale pour le commerce et l'Industrie"
      },
      "job": {
        "id": 10002,
        "name": "Directeur Général Adjoint",
        "short_name": "D.G.Adj"
      },
      "start_date": "1953-01-01",
      "end_date": "1953-12-31"
    }
  ],
  "name": "Pierre Chevrier"
}