{
  "id": 107782,
  "names": [
    "J. Zimmermann"
  ],
  "functions": [
    {
      "issuer": {
        "id": 5294,
        "name": "ELECTRICITE DE LA SEINE"
      },
      "job": {
        "id": 10019,
        "name": "Commissaire des comptes"
      },
      "start_date": "1945-01-01",
      "end_date": "1945-12-31"
    }
  ],
  "name": "J. Zimmermann"
}