{
  "id": 62596,
  "names": [
    "J. Dalemont"
  ],
  "functions": [
    {
      "issuer": {
        "id": 3111,
        "name": "SOCIÉTÉ D'ÉLECTRICITÉ NILMELIOR (Anciens Etablissements Bassée et Michel)"
      },
      "job": {
        "id": 219,
        "name": "Administrateur"
      },
      "start_date": "1923-01-01",
      "end_date": "1923-12-31"
    }
  ],
  "name": "J. Dalemont"
}