{
  "id": 111779,
  "names": [
    "Alfred Richet"
  ],
  "functions": [
    {
      "issuer": {
        "id": 1713,
        "name": "SOCIETE GENERALE DE HOUILLES ET AGGLOMERES"
      },
      "job": {
        "id": 219,
        "name": "Administrateur"
      },
      "start_date": "1948-01-01",
      "end_date": "1953-12-31"
    },
    {
      "issuer": {
        "id": 588,
        "name": "Raffinerie et Huilerie Bordelaises"
      },
      "job": {
        "id": 219,
        "name": "Administrateur"
      },
      "start_date": "1953-01-01",
      "end_date": "1953-12-31"
    }
  ],
  "name": "Alfred Richet"
}