{
  "id": 115441,
  "names": [
    "Ch. Genvrain"
  ],
  "functions": [
    {
      "issuer": {
        "id": 3801,
        "name": "Genvrain"
      },
      "job": {
        "id": 189,
        "name": "Président directeur général",
        "short_name": "P.D.G."
      },
      "start_date": "1948-01-01",
      "end_date": "1948-12-31"
    }
  ],
  "name": "Ch. Genvrain"
}