{
  "id": 95924,
  "names": [
    "Mortehan"
  ],
  "functions": [
    {
      "issuer": {
        "id": 5050,
        "name": "MINES D'OR DE KILO MOTO"
      },
      "job": {
        "id": 10019,
        "name": "Commissaire des comptes"
      },
      "start_date": "1940-01-01",
      "end_date": "1953-12-31"
    }
  ],
  "name": "Mortehan"
}