{
  "id": 41511,
  "names": [
    "Mantion"
  ],
  "functions": [
    {
      "issuer": {
        "id": 493,
        "name": "Compagnie du Chemin de fer du NORD"
      },
      "job": {
        "id": 10267,
        "name": "Président du Comité de Surveillance"
      },
      "start_date": "1880-01-01",
      "end_date": "1880-12-31"
    },
    {
      "issuer": {
        "id": 303,
        "name": "Cie DU CHEMIN DE FER DE PARIS A ORLEANS"
      },
      "job": {
        "id": 107,
        "name": "Directeur",
        "short_name": "Dir."
      },
      "start_date": "1883-01-01",
      "end_date": "1883-12-31"
    },
    {
      "issuer": {
        "id": 303,
        "name": "Cie DU CHEMIN DE FER DE PARIS A ORLEANS"
      },
      "job": {
        "id": 10635,
        "name": "Délégué Général du conseil d'administration"
      },
      "start_date": "1889-01-01",
      "end_date": "1893-12-31"
    }
  ],
  "name": "Mantion"
}