{
  "id": 92581,
  "names": [
    "E. Eiflel"
  ],
  "functions": [
    {
      "issuer": {
        "id": 2789,
        "name": "SOCIETE DE LA TOUR EIFFEL"
      },
      "job": {
        "id": 219,
        "name": "Administrateur"
      },
      "start_date": "1933-01-01",
      "end_date": "1933-12-31"
    }
  ],
  "name": "E. Eiflel"
}