{
  "id": 42881,
  "names": [
    "G. Dommartin"
  ],
  "functions": [
    {
      "issuer": {
        "id": 2259,
        "name": "Société des gisements d'or de Dieu-Merci (Guyane française)"
      },
      "job": {
        "id": 117,
        "name": "Vice-Président",
        "short_name": "V.-Pr."
      },
      "start_date": "1883-01-01",
      "end_date": "1883-12-31"
    }
  ],
  "name": "G. Dommartin"
}