{
  "id": 63658,
  "names": [
    "B. Fontaine"
  ],
  "functions": [
    {
      "issuer": {
        "id": 10429,
        "name": "TRAMWAYS ET ÉLECTRICITÉ"
      },
      "job": {
        "id": 219,
        "name": "Administrateur"
      },
      "start_date": "1917-01-01",
      "end_date": "1917-12-31"
    }
  ],
  "name": "B. Fontaine"
}