{
  "id": 71132,
  "names": [
    "W.P. Robertson"
  ],
  "functions": [
    {
      "issuer": {
        "id": 2896,
        "name": "The Lautaro Nitrate Company, limited"
      },
      "job": {
        "id": 219,
        "name": "Administrateur"
      },
      "start_date": "1917-01-01",
      "end_date": "1917-12-31"
    }
  ],
  "name": "W.P. Robertson"
}