{
  "id": 75248,
  "names": [
    "E. Rasson"
  ],
  "functions": [
    {
      "issuer": {
        "id": 4769,
        "name": "MANUFACTURE FRANÇAISE DE TAPIS ET COUVERTURES (Précédemment Ed. Laine et Cie)"
      },
      "job": {
        "id": 219,
        "name": "Administrateur"
      },
      "start_date": "1923-01-01",
      "end_date": "1933-12-31"
    },
    {
      "issuer": {
        "id": 10827,
        "name": "SOCIÉTÉ DES PÉTROLES DE GRABOWNICA"
      },
      "job": {
        "id": 219,
        "name": "Administrateur"
      },
      "start_date": "1933-01-01",
      "end_date": "1933-12-31"
    },
    {
      "issuer": {
        "id": 10949,
        "name": "Société Française d'Edition, d'impression et de Papeterie \"PARIS-SPORT\""
      },
      "job": {
        "id": 219,
        "name": "Administrateur"
      },
      "start_date": "1933-01-01",
      "end_date": "1933-12-31"
    },
    {
      "issuer": {
        "id": 4560,
        "name": "STE DE LILLE, BONNIERES ET COLOMBES"
      },
      "job": {
        "id": 219,
        "name": "Administrateur"
      },
      "start_date": "1933-01-01",
      "end_date": "1933-12-31"
    },
    {
      "issuer": {
        "id": 4560,
        "name": "STE DE LILLE, BONNIERES ET COLOMBES"
      },
      "job": {
        "id": 219,
        "name": "Administrateur"
      },
      "start_date": "1940-01-01",
      "end_date": "1940-12-31"
    },
    {
      "issuer": {
        "id": 10949,
        "name": "Société Française d'Edition, d'impression et de Papeterie \"PARIS-SPORT\""
      },
      "job": {
        "id": 219,
        "name": "Administrateur"
      },
      "start_date": "1940-01-01",
      "end_date": "1945-12-31"
    },
    {
      "issuer": {
        "id": 3577,
        "name": "UNION INDUSTRIELLE DE CREDIT POUR LA RECONSTITUTION"
      },
      "job": {
        "id": 219,
        "name": "Administrateur"
      },
      "start_date": "1945-01-01",
      "end_date": "1945-12-31"
    },
    {
      "issuer": {
        "id": 4769,
        "name": "MANUFACTURE FRANÇAISE DE TAPIS ET COUVERTURES (Précédemment Ed. Laine et Cie)"
      },
      "job": {
        "id": 219,
        "name": "Administrateur"
      },
      "start_date": "1945-01-01",
      "end_date": "1948-12-31"
    },
    {
      "issuer": {
        "id": 4560,
        "name": "STE DE LILLE, BONNIERES ET COLOMBES"
      },
      "job": {
        "id": 102,
        "name": "Président",
        "short_name": "P."
      },
      "start_date": "1945-01-01",
      "end_date": "1953-12-31"
    }
  ],
  "name": "E. Rasson"
}