{
  "id": 117729,
  "names": [
    "J. Cholat"
  ],
  "functions": [
    {
      "issuer": {
        "id": 1683,
        "name": "COMPAGNIE DES HAUTS-FOURNEAUX DE CHASSE (ISERE)"
      },
      "job": {
        "id": 219,
        "name": "Administrateur"
      },
      "start_date": "1953-01-01",
      "end_date": "1953-12-31"
    }
  ],
  "name": "J. Cholat"
}