{
  "id": 79357,
  "names": [
    "R. de Chabaud-Latour"
  ],
  "functions": [
    {
      "issuer": {
        "id": 10628,
        "name": "COMPAGNIE ELECTRIQUE DU NORD"
      },
      "job": {
        "id": 219,
        "name": "Administrateur"
      },
      "start_date": "1927-01-01",
      "end_date": "1927-12-31"
    }
  ],
  "name": "R. de Chabaud-Latour"
}