{
  "id": 85946,
  "names": [
    "G. Bory"
  ],
  "functions": [
    {
      "issuer": {
        "id": 3090,
        "name": "COMPAGNIE DES EAUX ET D'ÉLECTRICITE DE L'INDOCHINE"
      },
      "job": {
        "id": 219,
        "name": "Administrateur"
      },
      "start_date": "1933-01-01",
      "end_date": "1933-12-31"
    }
  ],
  "name": "G. Bory"
}