{
  "id": 81554,
  "names": [
    "L. Back"
  ],
  "functions": [
    {
      "issuer": {
        "id": 2998,
        "name": "ETABLISSEMENTS OROSDI-BACK"
      },
      "job": {
        "id": 219,
        "name": "Administrateur"
      },
      "start_date": "1927-01-01",
      "end_date": "1933-12-31"
    }
  ],
  "name": "L. Back"
}