{
  "id": 98450,
  "names": [
    "L. Larivière"
  ],
  "functions": [
    {
      "issuer": {
        "id": 2370,
        "name": "BANQUE DE L'UNION PARISIENNE"
      },
      "job": {
        "id": 219,
        "name": "Administrateur"
      },
      "start_date": "1940-01-01",
      "end_date": "1953-12-31"
    },
    {
      "issuer": {
        "id": 3047,
        "name": "BANQUE HYPOTHECAIRE FRANCO-ARGENTINE"
      },
      "job": {
        "id": 219,
        "name": "Administrateur"
      },
      "start_date": "1940-01-01",
      "end_date": "1953-12-31"
    },
    {
      "issuer": {
        "id": 3770,
        "name": "ENTREPRISES QUILMES"
      },
      "job": {
        "id": 102,
        "name": "Président",
        "short_name": "P."
      },
      "start_date": "1953-01-01",
      "end_date": "1953-12-31"
    },
    {
      "issuer": {
        "id": 2400,
        "name": "Banque Française du Rio de la Plata"
      },
      "job": {
        "id": 219,
        "name": "Administrateur"
      },
      "start_date": "1953-01-01",
      "end_date": "1953-12-31"
    }
  ],
  "name": "L. Larivière"
}