{
  "id": 71358,
  "names": [
    "H. Moir"
  ],
  "functions": [
    {
      "issuer": {
        "id": 5001,
        "name": "NARAGUTA TIN MINES, LIMITED"
      },
      "job": {
        "id": 219,
        "name": "Administrateur"
      },
      "start_date": "1917-01-01",
      "end_date": "1917-12-31"
    }
  ],
  "name": "H. Moir"
}