{
  "id": 105948,
  "names": [
    "J.-M. Labée"
  ],
  "functions": [
    {
      "issuer": {
        "id": 10572,
        "name": "SOCIETE DES MAGNETOS R. B."
      },
      "job": {
        "id": 10258,
        "name": "Suppléant"
      },
      "start_date": "1945-01-01",
      "end_date": "1945-12-31"
    },
    {
      "issuer": {
        "id": 10572,
        "name": "SOCIETE DES MAGNETOS R. B."
      },
      "job": {
        "id": 10019,
        "name": "Commissaire des comptes"
      },
      "start_date": "1948-01-01",
      "end_date": "1948-12-31"
    }
  ],
  "name": "J.-M. Labée"
}