{
  "id": 105477,
  "names": [
    "C. Rey-Millet"
  ],
  "functions": [
    {
      "issuer": {
        "id": 10146,
        "name": "SOCIÉTÉ HOUILLÈRE DU NORD D'ALAIS"
      },
      "job": {
        "id": 219,
        "name": "Administrateur"
      },
      "start_date": "1945-01-01",
      "end_date": "1945-12-31"
    }
  ],
  "name": "C. Rey-Millet"
}