{
  "id": 82829,
  "names": [
    "Hammond"
  ],
  "functions": [
    {
      "issuer": {
        "id": 10794,
        "name": "SUCRERIE ET DISTILLERIES RETHÉLOISES"
      },
      "job": {
        "id": 219,
        "name": "Administrateur"
      },
      "start_date": "1927-01-01",
      "end_date": "1927-12-31"
    }
  ],
  "name": "Hammond"
}