{
  "id": 103099,
  "names": [
    "E. de Bonardi"
  ],
  "functions": [
    {
      "issuer": {
        "id": 5142,
        "name": "SOCIÉTÉ ANONYME DES CHAUX ET CIMENTS DE LAFARGE ET DU TEIL"
      },
      "job": {
        "id": 219,
        "name": "Administrateur"
      },
      "start_date": "1940-01-01",
      "end_date": "1953-12-31"
    }
  ],
  "name": "E. de Bonardi"
}