{
  "id": 116187,
  "names": [
    "I. Lalieu"
  ],
  "functions": [
    {
      "issuer": {
        "id": 4082,
        "name": "Charbonnages Nord-Africains"
      },
      "job": {
        "id": 153,
        "name": "President-Commissaire"
      },
      "start_date": "1953-01-01",
      "end_date": "1953-12-31"
    }
  ],
  "name": "I. Lalieu"
}