{
  "id": 41839,
  "names": [
    "Couturier"
  ],
  "functions": [
    {
      "issuer": {
        "id": 11499,
        "name": "SOCIETE DES ETABLISSEMENTS G. COUTURIER"
      },
      "job": {
        "id": 101,
        "name": "Administrateur Délégué",
        "short_name": "Ad. Dél."
      },
      "start_date": "1940-01-01",
      "end_date": "1940-12-31"
    }
  ],
  "name": "Couturier"
}