{
  "id": 62771,
  "names": [
    "J Pereyre"
  ],
  "functions": [
    {
      "issuer": {
        "id": 10074,
        "name": "STÉ D'ÉDITIONS LITTÉRAIRES & ARTISTIQUES"
      },
      "job": {
        "id": 219,
        "name": "Administrateur"
      },
      "start_date": "1917-01-01",
      "end_date": "1923-12-31"
    },
    {
      "issuer": {
        "id": 10074,
        "name": "STÉ D'ÉDITIONS LITTÉRAIRES & ARTISTIQUES"
      },
      "job": {
        "id": 219,
        "name": "Administrateur"
      },
      "start_date": "1933-01-01",
      "end_date": "1933-12-31"
    }
  ],
  "name": "J Pereyre"
}