{
  "id": 54389,
  "names": [
    "S. Lovell"
  ],
  "functions": [
    {
      "issuer": {
        "id": 3379,
        "name": "MEXICO TRAMWAYS COMPANY"
      },
      "job": {
        "id": 219,
        "name": "Administrateur"
      },
      "start_date": "1917-01-01",
      "end_date": "1917-12-31"
    }
  ],
  "name": "S. Lovell"
}