{
  "id": 118696,
  "names": [
    "Etablissements Liore et Olivier"
  ],
  "functions": [
    {
      "issuer": {
        "id": 11534,
        "name": "LA PRECISION MECANIQUE"
      },
      "job": {
        "id": 219,
        "name": "Administrateur"
      },
      "start_date": "1953-01-01",
      "end_date": "1953-12-31"
    }
  ],
  "name": "Etablissements Liore et Olivier"
}