{
  "id": 82938,
  "names": [
    "Edgard Labansat"
  ],
  "functions": [
    {
      "issuer": {
        "id": 10785,
        "name": "SOCIÉTÉ ANONYME PATHÉ-ORIENT ”"
      },
      "job": {
        "id": 219,
        "name": "Administrateur"
      },
      "start_date": "1927-01-01",
      "end_date": "1927-12-31"
    }
  ],
  "name": "Edgard Labansat"
}