{
  "id": 80813,
  "names": [
    "Paul Truc"
  ],
  "functions": [
    {
      "issuer": {
        "id": 10715,
        "name": "COMPAGNIE FRANÇAISE DU CAOUTCHOUC"
      },
      "job": {
        "id": 219,
        "name": "Administrateur"
      },
      "start_date": "1927-01-01",
      "end_date": "1927-12-31"
    }
  ],
  "name": "Paul Truc"
}