{
  "id": 49673,
  "names": [
    "Gautron"
  ],
  "functions": [
    {
      "issuer": {
        "id": 2563,
        "name": "CIE universelle du Canal interocéanique de Panama"
      },
      "job": {
        "id": 10420,
        "name": "Liquidateur"
      },
      "start_date": "1898-01-01",
      "end_date": "1903-12-31"
    }
  ],
  "name": "Gautron"
}