{
  "id": 111269,
  "names": [
    "M. Duron"
  ],
  "functions": [
    {
      "issuer": {
        "id": 2291,
        "name": "Société IMMOBILIERE MARSEILLAISE"
      },
      "job": {
        "id": 10019,
        "name": "Commissaire des comptes"
      },
      "start_date": "1948-01-01",
      "end_date": "1953-12-31"
    }
  ],
  "name": "M. Duron"
}