{
  "id": 41033,
  "names": [
    "Garijo"
  ],
  "functions": [
    {
      "issuer": {
        "id": 1493,
        "name": "Banque Hypothécaire d'Espagne"
      },
      "job": {
        "id": 138,
        "name": "Censeur",
        "short_name": "Cens."
      },
      "start_date": "1883-01-01",
      "end_date": "1883-12-31"
    },
    {
      "issuer": {
        "id": 1493,
        "name": "Banque Hypothécaire d'Espagne"
      },
      "job": {
        "id": 10266,
        "name": "administrateur à Madrid"
      },
      "start_date": "1903-01-01",
      "end_date": "1903-12-31"
    },
    {
      "issuer": {
        "id": 1493,
        "name": "Banque Hypothécaire d'Espagne"
      },
      "job": {
        "id": 10234,
        "name": "Administrateurs résidant à Madrid"
      },
      "start_date": "1908-01-01",
      "end_date": "1908-12-31"
    },
    {
      "issuer": {
        "id": 1493,
        "name": "Banque Hypothécaire d'Espagne"
      },
      "job": {
        "id": 219,
        "name": "Administrateur"
      },
      "start_date": "1912-01-01",
      "end_date": "1912-12-31"
    }
  ],
  "name": "Garijo"
}