{
  "id": 115058,
  "names": [
    "A. Battegay"
  ],
  "functions": [
    {
      "issuer": {
        "id": 4885,
        "name": "LE GAZ INDUSTRIEL (Société Alsacienne des Anneaux Raschig, le Gaz Industriel Société Uettwiller et Cie réunis)"
      },
      "job": {
        "id": 219,
        "name": "Administrateur"
      },
      "start_date": "1948-01-01",
      "end_date": "1953-12-31"
    }
  ],
  "name": "A. Battegay"
}