{
  "id": 116498,
  "names": [
    "W.-P. Rutherford"
  ],
  "functions": [
    {
      "issuer": {
        "id": 10158,
        "name": "Petroleum Revenues Cy Ltd"
      },
      "job": {
        "id": 219,
        "name": "Administrateur"
      },
      "start_date": "1917-01-01",
      "end_date": "1927-12-31"
    },
    {
      "issuer": {
        "id": 2946,
        "name": "THARSIS SULPHUR AND COPPER Co Ltd"
      },
      "job": {
        "id": 219,
        "name": "Administrateur"
      },
      "start_date": "1923-01-01",
      "end_date": "1927-12-31"
    },
    {
      "issuer": {
        "id": 2946,
        "name": "THARSIS SULPHUR AND COPPER Co Ltd"
      },
      "job": {
        "id": 102,
        "name": "Président",
        "short_name": "P."
      },
      "start_date": "1933-01-01",
      "end_date": "1933-12-31"
    },
    {
      "issuer": {
        "id": 2946,
        "name": "THARSIS SULPHUR AND COPPER Co Ltd"
      },
      "job": {
        "id": 102,
        "name": "Président",
        "short_name": "P."
      },
      "start_date": "1940-01-01",
      "end_date": "1940-12-31"
    },
    {
      "issuer": {
        "id": 2946,
        "name": "THARSIS SULPHUR AND COPPER Co Ltd"
      },
      "job": {
        "id": 219,
        "name": "Administrateur"
      },
      "start_date": "1945-01-01",
      "end_date": "1945-12-31"
    },
    {
      "issuer": {
        "id": 2946,
        "name": "THARSIS SULPHUR AND COPPER Co Ltd"
      },
      "job": {
        "id": 102,
        "name": "Président",
        "short_name": "P."
      },
      "start_date": "1948-01-01",
      "end_date": "1948-12-31"
    },
    {
      "issuer": {
        "id": 2946,
        "name": "THARSIS SULPHUR AND COPPER Co Ltd"
      },
      "job": {
        "id": 102,
        "name": "Président",
        "short_name": "P."
      },
      "start_date": "1953-01-01",
      "end_date": "1953-12-31"
    }
  ],
  "name": "W.-P. Rutherford"
}