{
  "id": 88324,
  "names": [
    "R. Schumann"
  ],
  "functions": [
    {
      "issuer": {
        "id": 5324,
        "name": "Société PARISIENNE DE BANQUE"
      },
      "job": {
        "id": 117,
        "name": "Vice-Président",
        "short_name": "V.-Pr."
      },
      "start_date": "1933-01-01",
      "end_date": "1933-12-31"
    }
  ],
  "name": "R. Schumann"
}