{
  "id": 55807,
  "names": [
    "G. de Morsier"
  ],
  "functions": [
    {
      "issuer": {
        "id": 2861,
        "name": "SOCIÉTÉ MINIÈRE FRANCO-AFRICAINE"
      },
      "job": {
        "id": 219,
        "name": "Administrateur"
      },
      "start_date": "1912-01-01",
      "end_date": "1912-12-31"
    }
  ],
  "name": "G. de Morsier"
}