{
  "id": 72409,
  "names": [
    "L. Siddatt"
  ],
  "functions": [
    {
      "issuer": {
        "id": 2819,
        "name": "Rose Deep, Ld"
      },
      "job": {
        "id": 219,
        "name": "Administrateur"
      },
      "start_date": "1923-01-01",
      "end_date": "1923-12-31"
    }
  ],
  "name": "L. Siddatt"
}