{
  "id": 112754,
  "names": [
    "G. Vansittart"
  ],
  "functions": [
    {
      "issuer": {
        "id": 11464,
        "name": "SOCIÉTÉ ANONYME D'OUGRÉE-MARIHAYE"
      },
      "job": {
        "id": 219,
        "name": "Administrateur"
      },
      "start_date": "1948-01-01",
      "end_date": "1953-12-31"
    }
  ],
  "name": "G. Vansittart"
}