{
  "id": 55632,
  "names": [
    "Lévi"
  ],
  "functions": [
    {
      "issuer": {
        "id": 3105,
        "name": "ENERGIE ELECTRIQUE DU NORD DE LA FRANCE"
      },
      "job": {
        "id": 219,
        "name": "Administrateur"
      },
      "start_date": "1923-01-01",
      "end_date": "1923-12-31"
    }
  ],
  "name": "Lévi"
}