{
  "id": 117678,
  "names": [
    "P.-J. Oppenheimer"
  ],
  "functions": [
    {
      "issuer": {
        "id": 2839,
        "name": "PREMIER (TRANSVAAL) DIAMOND MINING COMPANY LTd"
      },
      "job": {
        "id": 219,
        "name": "Administrateur"
      },
      "start_date": "1953-01-01",
      "end_date": "1953-12-31"
    }
  ],
  "name": "P.-J. Oppenheimer"
}