{
  "id": 63563,
  "names": [
    "H. Lenglin"
  ],
  "functions": [
    {
      "issuer": {
        "id": 3853,
        "name": "SOCIETE DES FERMES FRANÇAISES DE TUNISIE"
      },
      "job": {
        "id": 219,
        "name": "Administrateur"
      },
      "start_date": "1917-01-01",
      "end_date": "1933-12-31"
    },
    {
      "issuer": {
        "id": 1351,
        "name": "COMPAGNIE DU GAZ D'AMIENS"
      },
      "job": {
        "id": 219,
        "name": "Administrateur"
      },
      "start_date": "1940-01-01",
      "end_date": "1940-12-31"
    },
    {
      "issuer": {
        "id": 11468,
        "name": "SOCIETE ARTESIENNE DE FORCE ET LUMIERE"
      },
      "job": {
        "id": 219,
        "name": "Administrateur"
      },
      "start_date": "1940-01-01",
      "end_date": "1945-12-31"
    },
    {
      "issuer": {
        "id": 3853,
        "name": "SOCIETE DES FERMES FRANÇAISES DE TUNISIE"
      },
      "job": {
        "id": 219,
        "name": "Administrateur"
      },
      "start_date": "1940-01-01",
      "end_date": "1953-12-31"
    },
    {
      "issuer": {
        "id": 4402,
        "name": "CH. MILDE FILS ET Cie"
      },
      "job": {
        "id": 219,
        "name": "Administrateur"
      },
      "start_date": "1948-01-01",
      "end_date": "1948-12-31"
    }
  ],
  "name": "H. Lenglin"
}