{
  "id": 56848,
  "names": [
    "Dubreucq Perus"
  ],
  "functions": [
    {
      "issuer": {
        "id": 10310,
        "name": "SOCIEDADE EDITORA DO BRASIL"
      },
      "job": {
        "id": 219,
        "name": "Administrateur"
      },
      "start_date": "1912-01-01",
      "end_date": "1912-12-31"
    }
  ],
  "name": "Dubreucq Perus"
}