{
  "id": 41802,
  "names": [
    "Lavalard"
  ],
  "functions": [
    {
      "issuer": {
        "id": 621,
        "name": "Entreprise générale des Omnibus"
      },
      "job": {
        "id": 219,
        "name": "Administrateur"
      },
      "start_date": "1883-01-01",
      "end_date": "1908-12-31"
    },
    {
      "issuer": {
        "id": 3030,
        "name": "COMPAGNIE GÉNÉRALE DES VOITURES POUR LE SERVICE DES CHEMINS DE FER Omnibus, Voitures spéciales, Factages et Messageries du Chemin de fer"
      },
      "job": {
        "id": 102,
        "name": "Président",
        "short_name": "P."
      },
      "start_date": "1898-01-01",
      "end_date": "1908-12-31"
    },
    {
      "issuer": {
        "id": 3030,
        "name": "COMPAGNIE GÉNÉRALE DES VOITURES POUR LE SERVICE DES CHEMINS DE FER Omnibus, Voitures spéciales, Factages et Messageries du Chemin de fer"
      },
      "job": {
        "id": 219,
        "name": "Administrateur"
      },
      "start_date": "1912-01-01",
      "end_date": "1912-12-31"
    }
  ],
  "name": "Lavalard"
}