{
  "id": 121026,
  "names": [
    "J. Petitbon"
  ],
  "functions": [
    {
      "issuer": {
        "id": 4790,
        "name": "LAINIERE DU BASCAUD"
      },
      "job": {
        "id": 102,
        "name": "Président",
        "short_name": "P."
      },
      "start_date": "1953-01-01",
      "end_date": "1953-12-31"
    }
  ],
  "name": "J. Petitbon"
}