{
  "id": 106853,
  "names": [
    "R. Dupendant"
  ],
  "functions": [
    {
      "issuer": {
        "id": 4529,
        "name": "SOCIETE DES MINES DE BORRALHA"
      },
      "job": {
        "id": 189,
        "name": "Président directeur général",
        "short_name": "P.D.G."
      },
      "start_date": "1945-01-01",
      "end_date": "1945-12-31"
    },
    {
      "issuer": {
        "id": 4529,
        "name": "SOCIETE DES MINES DE BORRALHA"
      },
      "job": {
        "id": 219,
        "name": "Administrateur"
      },
      "start_date": "1948-01-01",
      "end_date": "1948-12-31"
    }
  ],
  "name": "R. Dupendant"
}