{
  "id": 46187,
  "names": [
    "G. Thuillier"
  ],
  "functions": [
    {
      "issuer": {
        "id": 2936,
        "name": "Phosphates de France"
      },
      "job": {
        "id": 219,
        "name": "Administrateur"
      },
      "start_date": "1893-01-01",
      "end_date": "1893-12-31"
    }
  ],
  "name": "G. Thuillier"
}