{
  "id": 118532,
  "names": [
    "A. Oliron"
  ],
  "functions": [
    {
      "issuer": {
        "id": 4103,
        "name": "COMPAGNIE D'APPLICATIONS MECANIQUES"
      },
      "job": {
        "id": 141,
        "name": "Directeur Général",
        "short_name": "D.G."
      },
      "start_date": "1953-01-01",
      "end_date": "1953-12-31"
    }
  ],
  "name": "A. Oliron"
}