{
  "id": 45450,
  "names": [
    "W. Puget"
  ],
  "functions": [
    {
      "issuer": {
        "id": 2236,
        "name": "Compagnie nationale de navigation"
      },
      "job": {
        "id": 10626,
        "name": "Membre de Comité de Direction"
      },
      "start_date": "1889-01-01",
      "end_date": "1893-12-31"
    }
  ],
  "name": "W. Puget"
}