{
  "id": 85800,
  "names": [
    "baron Jean Cassel"
  ],
  "functions": [
    {
      "issuer": {
        "id": 3275,
        "name": "CIE GLE DE TRAMWAYS DE BUENOS-AYRES"
      },
      "job": {
        "id": 219,
        "name": "Administrateur"
      },
      "start_date": "1933-01-01",
      "end_date": "1933-12-31"
    },
    {
      "issuer": {
        "id": 5049,
        "name": "SOCIÉTÉ INTERNATIONALE D'ENERGIE HYDRO-ELECTRIQUE (SIDRO)"
      },
      "job": {
        "id": 219,
        "name": "Administrateur"
      },
      "start_date": "1940-01-01",
      "end_date": "1945-12-31"
    },
    {
      "issuer": {
        "id": 3275,
        "name": "CIE GLE DE TRAMWAYS DE BUENOS-AYRES"
      },
      "job": {
        "id": 219,
        "name": "Administrateur"
      },
      "start_date": "1940-01-01",
      "end_date": "1945-12-31"
    }
  ],
  "name": "baron Jean Cassel"
}