{
  "id": 44590,
  "names": [
    "Gide"
  ],
  "functions": [
    {
      "issuer": {
        "id": 739,
        "name": "SOCIETE GENERALE pour favoriser le développement du Commerce et de l'Industrie en France"
      },
      "job": {
        "id": 219,
        "name": "Administrateur"
      },
      "start_date": "1889-01-01",
      "end_date": "1889-12-31"
    }
  ],
  "name": "Gide"
}