{
  "id": 106991,
  "names": [
    "M. Costadau"
  ],
  "functions": [
    {
      "issuer": {
        "id": 2947,
        "name": "Compagnie générale des Bateaux Parisiens"
      },
      "job": {
        "id": 219,
        "name": "Administrateur"
      },
      "start_date": "1945-01-01",
      "end_date": "1953-12-31"
    },
    {
      "issuer": {
        "id": 4862,
        "name": "COMPTOIR DES COMBUSTIBLES D'ALSACE ET LORRAINE"
      },
      "job": {
        "id": 102,
        "name": "Président",
        "short_name": "P."
      },
      "start_date": "1948-01-01",
      "end_date": "1953-12-31"
    }
  ],
  "name": "M. Costadau"
}