{
  "id": 121443,
  "names": [
    "Pierre Roucoules"
  ],
  "functions": [
    {
      "issuer": {
        "id": 2984,
        "name": "SOCIÉTÉ ANONYME DES CAVES ET DES PRODUCTEURS RÉUNIS DE ROQUEFORT"
      },
      "job": {
        "id": 102,
        "name": "Président",
        "short_name": "P."
      },
      "start_date": "1953-01-01",
      "end_date": "1953-12-31"
    }
  ],
  "name": "Pierre Roucoules"
}