{
  "id": 118465,
  "names": [
    "Société Civile Berliet"
  ],
  "functions": [
    {
      "issuer": {
        "id": 3960,
        "name": "AUTOMOBILES M. BERLIET"
      },
      "job": {
        "id": 219,
        "name": "Administrateur"
      },
      "start_date": "1953-01-01",
      "end_date": "1953-12-31"
    }
  ],
  "name": "Société Civile Berliet"
}