{
  "id": 50780,
  "names": [
    "Germain Petit"
  ],
  "functions": [
    {
      "issuer": {
        "id": 1929,
        "name": "CIE DES CHEMINS DE FER D'INTÉRÊT LOCAL DU DÉPARTEMENT DE L'HÉRAULT"
      },
      "job": {
        "id": 102,
        "name": "Président",
        "short_name": "P."
      },
      "start_date": "1903-01-01",
      "end_date": "1908-12-31"
    },
    {
      "issuer": {
        "id": 1929,
        "name": "CIE DES CHEMINS DE FER D'INTÉRÊT LOCAL DU DÉPARTEMENT DE L'HÉRAULT"
      },
      "job": {
        "id": 219,
        "name": "Administrateur"
      },
      "start_date": "1917-01-01",
      "end_date": "1927-12-31"
    }
  ],
  "name": "Germain Petit"
}