{
  "id": 54922,
  "names": [
    "J. Guillén Sol"
  ],
  "functions": [
    {
      "issuer": {
        "id": 2223,
        "name": "SOCIÉTÉ DES CHEMINS DE FER DE MADRID A CACÉRÈS ET AU PORTUGAL"
      },
      "job": {
        "id": 219,
        "name": "Administrateur"
      },
      "start_date": "1912-01-01",
      "end_date": "1912-12-31"
    }
  ],
  "name": "J. Guillén Sol"
}