{
  "id": 108381,
  "names": [
    "G. Vagogne"
  ],
  "functions": [
    {
      "issuer": {
        "id": 202,
        "name": "Sté DES ANCIENNES SALINES DOMANIALES DE L'EST"
      },
      "job": {
        "id": 219,
        "name": "Administrateur"
      },
      "start_date": "1945-01-01",
      "end_date": "1945-12-31"
    },
    {
      "issuer": {
        "id": 2578,
        "name": "CHEMIN DE FER METROPOLITAIN DE PARIS"
      },
      "job": {
        "id": 219,
        "name": "Administrateur"
      },
      "start_date": "1948-01-01",
      "end_date": "1953-12-31"
    },
    {
      "issuer": {
        "id": 3003,
        "name": "SOCIETE DES GRANDS TRAVAUX DE MARSEILLE"
      },
      "job": {
        "id": 219,
        "name": "Administrateur"
      },
      "start_date": "1953-01-01",
      "end_date": "1953-12-31"
    }
  ],
  "name": "G. Vagogne"
}