{
  "id": 107123,
  "names": [
    "A.-W. Christie"
  ],
  "functions": [
    {
      "issuer": {
        "id": 4987,
        "name": "JOHANNESBURG CONSOLIDATED INVESTMENT"
      },
      "job": {
        "id": 219,
        "name": "Administrateur"
      },
      "start_date": "1945-01-01",
      "end_date": "1953-12-31"
    }
  ],
  "name": "A.-W. Christie"
}