{
  "id": 117492,
  "names": [
    "Goldby"
  ],
  "functions": [
    {
      "issuer": {
        "id": 5009,
        "name": "RAND SELECTION CORPORATION LIMITED"
      },
      "job": {
        "id": 10019,
        "name": "Commissaire des comptes"
      },
      "start_date": "1953-01-01",
      "end_date": "1953-12-31"
    }
  ],
  "name": "Goldby"
}