{
  "id": 53199,
  "names": [
    "Tornquist"
  ],
  "functions": [
    {
      "issuer": {
        "id": 2382,
        "name": "CRÉDIT FONCIER ARGENTIN"
      },
      "job": {
        "id": 12822,
        "name": "Administrateur à Buenos-Aires"
      },
      "start_date": "1908-01-01",
      "end_date": "1908-12-31"
    }
  ],
  "name": "Tornquist"
}