{
  "id": 50302,
  "names": [
    "Léon Lévy"
  ],
  "functions": [
    {
      "issuer": {
        "id": 703,
        "name": "Compagnie des Forges de Châtillon et Commentry"
      },
      "job": {
        "id": 107,
        "name": "Directeur",
        "short_name": "Dir."
      },
      "start_date": "1903-01-01",
      "end_date": "1908-12-31"
    },
    {
      "issuer": {
        "id": 4430,
        "name": "SOCIETE METALLURGIQUE DE KNUTANGE"
      },
      "job": {
        "id": 219,
        "name": "Administrateur"
      },
      "start_date": "1923-01-01",
      "end_date": "1923-12-31"
    },
    {
      "issuer": {
        "id": 10547,
        "name": "CIE GÉNÉRALE DE CONSTRUCTION DE LOCOMOTIVES (BATIGNOLLES-CHATILLON)"
      },
      "job": {
        "id": 219,
        "name": "Administrateur"
      },
      "start_date": "1923-01-01",
      "end_date": "1923-12-31"
    },
    {
      "issuer": {
        "id": 4466,
        "name": "SOCIETE DES HAUTS-FOURNEAUX DE ROUEN"
      },
      "job": {
        "id": 219,
        "name": "Administrateur"
      },
      "start_date": "1927-01-01",
      "end_date": "1927-12-31"
    }
  ],
  "name": "Léon Lévy"
}