{
  "id": 110916,
  "names": [
    "S. Meyer"
  ],
  "functions": [
    {
      "issuer": {
        "id": 2204,
        "name": "LA NATIONALE (Compagnie de réassurances de toute nature)"
      },
      "job": {
        "id": 219,
        "name": "Administrateur"
      },
      "start_date": "1948-01-01",
      "end_date": "1948-12-31"
    }
  ],
  "name": "S. Meyer"
}