{
  "id": 57045,
  "names": [
    "R. Lamothe"
  ],
  "functions": [
    {
      "issuer": {
        "id": 2658,
        "name": "L'ALIMAIENNE"
      },
      "job": {
        "id": 219,
        "name": "Administrateur"
      },
      "start_date": "1912-01-01",
      "end_date": "1912-12-31"
    }
  ],
  "name": "R. Lamothe"
}