{
  "id": 60142,
  "names": [
    "F. François-Marsal"
  ],
  "functions": [
    {
      "issuer": {
        "id": 3417,
        "name": "CRÉDIT FONCIER PÉRUVIEN"
      },
      "job": {
        "id": 219,
        "name": "Administrateur"
      },
      "start_date": "1917-01-01",
      "end_date": "1917-12-31"
    },
    {
      "issuer": {
        "id": 2370,
        "name": "BANQUE DE L'UNION PARISIENNE"
      },
      "job": {
        "id": 219,
        "name": "Administrateur"
      },
      "start_date": "1923-01-01",
      "end_date": "1927-12-31"
    },
    {
      "issuer": {
        "id": 2344,
        "name": "BANQUE GÉNÉRALE DU NORD (Ancienne Banque VERLEY DECROIX)"
      },
      "job": {
        "id": 219,
        "name": "Administrateur"
      },
      "start_date": "1923-01-01",
      "end_date": "1927-12-31"
    },
    {
      "issuer": {
        "id": 4317,
        "name": "SOCIETE COMMERCIALE DE L'OUEST AFRICAIN"
      },
      "job": {
        "id": 219,
        "name": "Administrateur"
      },
      "start_date": "1923-01-01",
      "end_date": "1927-12-31"
    },
    {
      "issuer": {
        "id": 5125,
        "name": "ELECTRO-CABLE"
      },
      "job": {
        "id": 219,
        "name": "Administrateur"
      },
      "start_date": "1923-01-01",
      "end_date": "1933-12-31"
    },
    {
      "issuer": {
        "id": 5202,
        "name": "COMPAGNIE PHAROS"
      },
      "job": {
        "id": 219,
        "name": "Administrateur"
      },
      "start_date": "1927-01-01",
      "end_date": "1933-12-31"
    },
    {
      "issuer": {
        "id": 3768,
        "name": "COMPAGNIE DES VIGNOBLES DE LA MEDITERRANEE"
      },
      "job": {
        "id": 219,
        "name": "Administrateur"
      },
      "start_date": "1927-01-01",
      "end_date": "1933-12-31"
    },
    {
      "issuer": {
        "id": 5258,
        "name": "SOCIÉTÉ D'ÉQUIPEMENT DES VOIES FERRÉES ET DES GRANDS RÉSEAUX ÉLECTRIQUES"
      },
      "job": {
        "id": 219,
        "name": "Administrateur"
      },
      "start_date": "1933-01-01",
      "end_date": "1933-12-31"
    }
  ],
  "name": "F. François-Marsal"
}