{
  "id": 113617,
  "names": [
    "Carlos Rodriguez San Pedro"
  ],
  "functions": [
    {
      "issuer": {
        "id": 2962,
        "name": "UNION ESPAGNOLE DES EXPLOSIFS"
      },
      "job": {
        "id": 219,
        "name": "Administrateur"
      },
      "start_date": "1948-01-01",
      "end_date": "1953-12-31"
    }
  ],
  "name": "Carlos Rodriguez San Pedro"
}