{
  "id": 119070,
  "names": [
    "Ch. Boyaux"
  ],
  "functions": [
    {
      "issuer": {
        "id": 3385,
        "name": "Société Française de Transports et Entrepots Frigorifiques"
      },
      "job": {
        "id": 102,
        "name": "Président",
        "short_name": "P."
      },
      "start_date": "1953-01-01",
      "end_date": "1953-12-31"
    }
  ],
  "name": "Ch. Boyaux"
}