{
  "id": 63847,
  "names": [
    "A. Trittau"
  ],
  "functions": [
    {
      "issuer": {
        "id": 3390,
        "name": "CIE PÉRUVIENNE DE NAVIGATION A VAPEUR ET DU DOCK FLOTTANT DU CALLAO"
      },
      "job": {
        "id": 219,
        "name": "Administrateur"
      },
      "start_date": "1917-01-01",
      "end_date": "1917-12-31"
    }
  ],
  "name": "A. Trittau"
}