{
  "id": 124431,
  "names": [
    "H. Wild"
  ],
  "functions": [
    {
      "issuer": {
        "id": 1824,
        "name": "Société du Crédit Foncier Egyptien"
      },
      "job": {
        "id": 219,
        "name": "Administrateur"
      },
      "start_date": "1880-01-01",
      "end_date": "1880-12-31"
    }
  ],
  "name": "H. Wild"
}