{
  "id": 99140,
  "names": [
    "M. Augis"
  ],
  "functions": [
    {
      "issuer": {
        "id": 4203,
        "name": "ETABLISSEMENTS BAJAC"
      },
      "job": {
        "id": 10258,
        "name": "Suppléant"
      },
      "start_date": "1940-01-01",
      "end_date": "1940-12-31"
    },
    {
      "issuer": {
        "id": 3017,
        "name": "SOCIETE FRANÇAISE DE MATÉRIEL AGRICOLE ET INDUSTRIEL"
      },
      "job": {
        "id": 10258,
        "name": "Suppléant"
      },
      "start_date": "1940-01-01",
      "end_date": "1945-12-31"
    },
    {
      "issuer": {
        "id": 4037,
        "name": "ETABLISSEMENTS SUSSET"
      },
      "job": {
        "id": 10019,
        "name": "Commissaire des comptes"
      },
      "start_date": "1940-01-01",
      "end_date": "1948-12-31"
    },
    {
      "issuer": {
        "id": 4103,
        "name": "COMPAGNIE D'APPLICATIONS MECANIQUES"
      },
      "job": {
        "id": 10019,
        "name": "Commissaire des comptes"
      },
      "start_date": "1940-01-01",
      "end_date": "1948-12-31"
    },
    {
      "issuer": {
        "id": 4203,
        "name": "ETABLISSEMENTS BAJAC"
      },
      "job": {
        "id": 10019,
        "name": "Commissaire des comptes"
      },
      "start_date": "1945-01-01",
      "end_date": "1948-12-31"
    },
    {
      "issuer": {
        "id": 11507,
        "name": "SOCIETE FONCIERE ET FINANCIERE PEUGEOT"
      },
      "job": {
        "id": 10019,
        "name": "Commissaire des comptes"
      },
      "start_date": "1945-01-01",
      "end_date": "1948-12-31"
    },
    {
      "issuer": {
        "id": 3017,
        "name": "SOCIETE FRANÇAISE DE MATÉRIEL AGRICOLE ET INDUSTRIEL"
      },
      "job": {
        "id": 10019,
        "name": "Commissaire des comptes"
      },
      "start_date": "1948-01-01",
      "end_date": "1948-12-31"
    }
  ],
  "name": "M. Augis"
}