{
  "id": 113680,
  "names": [
    "A. Rouy"
  ],
  "functions": [
    {
      "issuer": {
        "id": 11548,
        "name": "CONSORTIUM DE PRODUITS CHIMIQUES ET D'ENTRETIEN"
      },
      "job": {
        "id": 219,
        "name": "Administrateur"
      },
      "start_date": "1948-01-01",
      "end_date": "1948-12-31"
    }
  ],
  "name": "A. Rouy"
}