{
  "id": 106603,
  "names": [
    "comte F. de Talhouët"
  ],
  "functions": [
    {
      "issuer": {
        "id": 3640,
        "name": "CAISSE GENERALE DE PRÊTS FONCIERS ET INDUSTRIELS"
      },
      "job": {
        "id": 219,
        "name": "Administrateur"
      },
      "start_date": "1933-01-01",
      "end_date": "1933-12-31"
    },
    {
      "issuer": {
        "id": 10065,
        "name": "SOCIETE ANONYME DES MINES DE CZELADZ"
      },
      "job": {
        "id": 219,
        "name": "Administrateur"
      },
      "start_date": "1940-01-01",
      "end_date": "1940-12-31"
    },
    {
      "issuer": {
        "id": 3640,
        "name": "CAISSE GENERALE DE PRÊTS FONCIERS ET INDUSTRIELS"
      },
      "job": {
        "id": 219,
        "name": "Administrateur"
      },
      "start_date": "1940-01-01",
      "end_date": "1940-12-31"
    },
    {
      "issuer": {
        "id": 10065,
        "name": "SOCIETE ANONYME DES MINES DE CZELADZ"
      },
      "job": {
        "id": 219,
        "name": "Administrateur"
      },
      "start_date": "1945-01-01",
      "end_date": "1948-12-31"
    },
    {
      "issuer": {
        "id": 3640,
        "name": "CAISSE GENERALE DE PRÊTS FONCIERS ET INDUSTRIELS"
      },
      "job": {
        "id": 219,
        "name": "Administrateur"
      },
      "start_date": "1945-01-01",
      "end_date": "1953-12-31"
    },
    {
      "issuer": {
        "id": 10065,
        "name": "SOCIETE ANONYME DES MINES DE CZELADZ"
      },
      "job": {
        "id": 219,
        "name": "Administrateur"
      },
      "start_date": "1953-01-01",
      "end_date": "1953-12-31"
    }
  ],
  "name": "comte F. de Talhouët"
}