{
  "id": 119917,
  "names": [
    "M. Duconseil"
  ],
  "functions": [
    {
      "issuer": {
        "id": 4608,
        "name": "Sté DE PRODUITS CHIMIQUES ET D'ENGRAIS D'AUBY"
      },
      "job": {
        "id": 117,
        "name": "Vice-Président",
        "short_name": "V.-Pr."
      },
      "start_date": "1953-01-01",
      "end_date": "1953-12-31"
    }
  ],
  "name": "M. Duconseil"
}