{
  "id": 114544,
  "names": [
    "Ed. Rogez"
  ],
  "functions": [
    {
      "issuer": {
        "id": 4757,
        "name": "FILATURES ET FILTERIES DE FRANCE"
      },
      "job": {
        "id": 189,
        "name": "Président directeur général",
        "short_name": "P.D.G."
      },
      "start_date": "1948-01-01",
      "end_date": "1953-12-31"
    }
  ],
  "name": "Ed. Rogez"
}