{
  "id": 99868,
  "names": [
    "F. Debergue"
  ],
  "functions": [
    {
      "issuer": {
        "id": 10862,
        "name": "EXPLOITATIONS MINIERES EN TUNISIE"
      },
      "job": {
        "id": 10019,
        "name": "Commissaire des comptes"
      },
      "start_date": "1940-01-01",
      "end_date": "1945-12-31"
    },
    {
      "issuer": {
        "id": 10862,
        "name": "EXPLOITATIONS MINIERES EN TUNISIE"
      },
      "job": {
        "id": 10258,
        "name": "Suppléant"
      },
      "start_date": "1948-01-01",
      "end_date": "1948-12-31"
    }
  ],
  "name": "F. Debergue"
}