{
  "id": 109727,
  "names": [
    "E. Faguet"
  ],
  "functions": [
    {
      "issuer": {
        "id": 5410,
        "name": "L'INDUSTRIE MODERNE (Anciennement L'Industrie Musicale)"
      },
      "job": {
        "id": 219,
        "name": "Administrateur"
      },
      "start_date": "1945-01-01",
      "end_date": "1945-12-31"
    }
  ],
  "name": "E. Faguet"
}