{
  "id": 97104,
  "names": [
    "G. Savourat"
  ],
  "functions": [
    {
      "issuer": {
        "id": 4057,
        "name": "SOCIETE NOUVELLE DES USINES DE LIBERCOURT"
      },
      "job": {
        "id": 101,
        "name": "Administrateur Délégué",
        "short_name": "Ad. Dél."
      },
      "start_date": "1940-01-01",
      "end_date": "1940-12-31"
    },
    {
      "issuer": {
        "id": 4057,
        "name": "SOCIETE NOUVELLE DES USINES DE LIBERCOURT"
      },
      "job": {
        "id": 219,
        "name": "Administrateur"
      },
      "start_date": "1945-01-01",
      "end_date": "1945-12-31"
    }
  ],
  "name": "G. Savourat"
}