{
  "id": 49426,
  "names": [
    "comte de Kergoriay"
  ],
  "functions": [
    {
      "issuer": {
        "id": 2070,
        "name": "LA FONCIÈRE COMPAGNIE D'ASSURANCES CONTRE LES RISQUES DE TRANSPORTS ET LEs ACCIDENTS DE TOUTE NATURE"
      },
      "job": {
        "id": 219,
        "name": "Administrateur"
      },
      "start_date": "1883-01-01",
      "end_date": "1883-12-31"
    },
    {
      "issuer": {
        "id": 1589,
        "name": "LA FONCIÈRE COMPAGNIE D'ASSURANCES CONTRE L'INCENDIE"
      },
      "job": {
        "id": 219,
        "name": "Administrateur"
      },
      "start_date": "1883-01-01",
      "end_date": "1889-12-31"
    },
    {
      "issuer": {
        "id": 717,
        "name": "Compagnie du Parc de Bercy"
      },
      "job": {
        "id": 219,
        "name": "Administrateur"
      },
      "start_date": "1883-01-01",
      "end_date": "1893-12-31"
    },
    {
      "issuer": {
        "id": 2292,
        "name": "Société des IMMEUBLES DE FRANCE"
      },
      "job": {
        "id": 219,
        "name": "Administrateur"
      },
      "start_date": "1883-01-01",
      "end_date": "1893-12-31"
    },
    {
      "issuer": {
        "id": 2104,
        "name": "La Foncière, compagnie anonyme d'assurances sur la vie à primes fixes"
      },
      "job": {
        "id": 219,
        "name": "Administrateur"
      },
      "start_date": "1883-01-01",
      "end_date": "1893-12-31"
    },
    {
      "issuer": {
        "id": 2070,
        "name": "LA FONCIÈRE COMPAGNIE D'ASSURANCES CONTRE LES RISQUES DE TRANSPORTS ET LEs ACCIDENTS DE TOUTE NATURE"
      },
      "job": {
        "id": 219,
        "name": "Administrateur"
      },
      "start_date": "1889-01-01",
      "end_date": "1889-12-31"
    },
    {
      "issuer": {
        "id": 2455,
        "name": "STÉ GLE DES CHEMINS DE FER ÉCONOMIQUES"
      },
      "job": {
        "id": 219,
        "name": "Administrateur"
      },
      "start_date": "1889-01-01",
      "end_date": "1889-12-31"
    },
    {
      "issuer": {
        "id": 979,
        "name": "Compagnie des Chemins de fer du Sud de l'Autriche"
      },
      "job": {
        "id": 10634,
        "name": "Membre du comité de Paris"
      },
      "start_date": "1889-01-01",
      "end_date": "1893-12-31"
    },
    {
      "issuer": {
        "id": 2070,
        "name": "LA FONCIÈRE COMPAGNIE D'ASSURANCES CONTRE LES RISQUES DE TRANSPORTS ET LEs ACCIDENTS DE TOUTE NATURE"
      },
      "job": {
        "id": 219,
        "name": "Administrateur"
      },
      "start_date": "1893-01-01",
      "end_date": "1893-12-31"
    },
    {
      "issuer": {
        "id": 1589,
        "name": "LA FONCIÈRE COMPAGNIE D'ASSURANCES CONTRE L'INCENDIE"
      },
      "job": {
        "id": 219,
        "name": "Administrateur"
      },
      "start_date": "1893-01-01",
      "end_date": "1893-12-31"
    },
    {
      "issuer": {
        "id": 153,
        "name": "La Nationale, Compagnie anonyme d'assurances sur la vie"
      },
      "job": {
        "id": 219,
        "name": "Administrateur"
      },
      "start_date": "1893-01-01",
      "end_date": "1908-12-31"
    },
    {
      "issuer": {
        "id": 151,
        "name": "LA NATIONALE Cie D'ASSURANCES CONTRE L'INCENDIE ET LES EXPLOSIONS"
      },
      "job": {
        "id": 219,
        "name": "Administrateur"
      },
      "start_date": "1893-01-01",
      "end_date": "1908-12-31"
    },
    {
      "issuer": {
        "id": 2455,
        "name": "STÉ GLE DES CHEMINS DE FER ÉCONOMIQUES"
      },
      "job": {
        "id": 219,
        "name": "Administrateur"
      },
      "start_date": "1893-01-01",
      "end_date": "1908-12-31"
    },
    {
      "issuer": {
        "id": 2455,
        "name": "STÉ GLE DES CHEMINS DE FER ÉCONOMIQUES"
      },
      "job": {
        "id": 219,
        "name": "Administrateur"
      },
      "start_date": "1898-01-01",
      "end_date": "1898-12-31"
    },
    {
      "issuer": {
        "id": 979,
        "name": "Compagnie des Chemins de fer du Sud de l'Autriche"
      },
      "job": {
        "id": 219,
        "name": "Administrateur"
      },
      "start_date": "1898-01-01",
      "end_date": "1898-12-31"
    },
    {
      "issuer": {
        "id": 762,
        "name": "COMPAGNIE GÉNÉRALE DES VOITURES A PARIS"
      },
      "job": {
        "id": 219,
        "name": "Administrateur"
      },
      "start_date": "1898-01-01",
      "end_date": "1903-12-31"
    },
    {
      "issuer": {
        "id": 979,
        "name": "Compagnie des Chemins de fer du Sud de l'Autriche"
      },
      "job": {
        "id": 10634,
        "name": "Membre du comité de Paris"
      },
      "start_date": "1903-01-01",
      "end_date": "1908-12-31"
    },
    {
      "issuer": {
        "id": 151,
        "name": "LA NATIONALE Cie D'ASSURANCES CONTRE L'INCENDIE ET LES EXPLOSIONS"
      },
      "job": {
        "id": 219,
        "name": "Administrateur"
      },
      "start_date": "1912-01-01",
      "end_date": "1912-12-31"
    },
    {
      "issuer": {
        "id": 153,
        "name": "La Nationale, Compagnie anonyme d'assurances sur la vie"
      },
      "job": {
        "id": 219,
        "name": "Administrateur"
      },
      "start_date": "1912-01-01",
      "end_date": "1912-12-31"
    }
  ],
  "name": "comte de Kergoriay"
}