{
  "id": 45899,
  "names": [
    "Lamarle"
  ],
  "functions": [
    {
      "issuer": {
        "id": 2690,
        "name": "CIE DES EAUX MINÉRALES DE LA BOURBOULE"
      },
      "job": {
        "id": 107,
        "name": "Directeur",
        "short_name": "Dir."
      },
      "start_date": "1893-01-01",
      "end_date": "1898-12-31"
    }
  ],
  "name": "Lamarle"
}