{
  "id": 48203,
  "names": [
    "Gabriel Chabert"
  ],
  "functions": [
    {
      "issuer": {
        "id": 2947,
        "name": "Compagnie générale des Bateaux Parisiens"
      },
      "job": {
        "id": 219,
        "name": "Administrateur"
      },
      "start_date": "1889-01-01",
      "end_date": "1889-12-31"
    },
    {
      "issuer": {
        "id": 2569,
        "name": "Compagnie française du Télégraphe de Paris à New-York"
      },
      "job": {
        "id": 219,
        "name": "Administrateur"
      },
      "start_date": "1889-01-01",
      "end_date": "1889-12-31"
    },
    {
      "issuer": {
        "id": 782,
        "name": "Compagnie des Lits Militaires"
      },
      "job": {
        "id": 219,
        "name": "Administrateur"
      },
      "start_date": "1889-01-01",
      "end_date": "1903-12-31"
    },
    {
      "issuer": {
        "id": 2256,
        "name": "CIE FRANÇAISE DES MINES DU LAURIUM"
      },
      "job": {
        "id": 219,
        "name": "Administrateur"
      },
      "start_date": "1898-01-01",
      "end_date": "1908-12-31"
    },
    {
      "issuer": {
        "id": 782,
        "name": "Compagnie des Lits Militaires"
      },
      "job": {
        "id": 10420,
        "name": "Liquidateur"
      },
      "start_date": "1908-01-01",
      "end_date": "1908-12-31"
    },
    {
      "issuer": {
        "id": 2849,
        "name": "SOCIÉTÉ DES MINES DU BOU-THALEB"
      },
      "job": {
        "id": 219,
        "name": "Administrateur"
      },
      "start_date": "1908-01-01",
      "end_date": "1908-12-31"
    },
    {
      "issuer": {
        "id": 782,
        "name": "Compagnie des Lits Militaires"
      },
      "job": {
        "id": 10420,
        "name": "Liquidateur"
      },
      "start_date": "1912-01-01",
      "end_date": "1912-12-31"
    },
    {
      "issuer": {
        "id": 2256,
        "name": "CIE FRANÇAISE DES MINES DU LAURIUM"
      },
      "job": {
        "id": 219,
        "name": "Administrateur"
      },
      "start_date": "1912-01-01",
      "end_date": "1927-12-31"
    }
  ],
  "name": "Gabriel Chabert"
}