{
  "id": 102916,
  "names": [
    "Malroux"
  ],
  "functions": [
    {
      "issuer": {
        "id": 4632,
        "name": "UNION PHOTOGRAPHIQUE INDUSTRIELLE (Établissements Lumière et Jougla réunis)"
      },
      "job": {
        "id": 10019,
        "name": "Commissaire des comptes"
      },
      "start_date": "1940-01-01",
      "end_date": "1940-12-31"
    },
    {
      "issuer": {
        "id": 4632,
        "name": "UNION PHOTOGRAPHIQUE INDUSTRIELLE (Établissements Lumière et Jougla réunis)"
      },
      "job": {
        "id": 103,
        "name": "Commissaire"
      },
      "start_date": "1945-01-01",
      "end_date": "1945-12-31"
    },
    {
      "issuer": {
        "id": 4632,
        "name": "UNION PHOTOGRAPHIQUE INDUSTRIELLE (Établissements Lumière et Jougla réunis)"
      },
      "job": {
        "id": 10019,
        "name": "Commissaire des comptes"
      },
      "start_date": "1948-01-01",
      "end_date": "1953-12-31"
    }
  ],
  "name": "Malroux"
}