{
  "id": 72257,
  "names": [
    "Desclos"
  ],
  "functions": [
    {
      "issuer": {
        "id": 10509,
        "name": "SOCIÉTÉ MAROCAINE DE JACMA (EN LIQUIDATION)"
      },
      "job": {
        "id": 219,
        "name": "Administrateur"
      },
      "start_date": "1923-01-01",
      "end_date": "1923-12-31"
    }
  ],
  "name": "Desclos"
}