{
  "id": 106835,
  "names": [
    "Louis Rakotomalala"
  ],
  "functions": [
    {
      "issuer": {
        "id": 11452,
        "name": "SOCIETE DES GRAPHITES DE LA SAHANAVO"
      },
      "job": {
        "id": 10019,
        "name": "Commissaire des comptes"
      },
      "start_date": "1945-01-01",
      "end_date": "1953-12-31"
    },
    {
      "issuer": {
        "id": 3869,
        "name": "SOCIÉTÉ ROCHEFORTAISE DE PRODUITS ALIMENTAIRES"
      },
      "job": {
        "id": 10019,
        "name": "Commissaire des comptes"
      },
      "start_date": "1948-01-01",
      "end_date": "1953-12-31"
    },
    {
      "issuer": {
        "id": 3584,
        "name": "BANQUE DE MADAGASCAR"
      },
      "job": {
        "id": 219,
        "name": "Administrateur"
      },
      "start_date": "1953-01-01",
      "end_date": "1953-12-31"
    }
  ],
  "name": "Louis Rakotomalala"
}