{
  "id": 124476,
  "names": [
    "Jacques Letourneur"
  ],
  "functions": [
    {
      "issuer": {
        "id": 545,
        "name": "CAISSE PATERNELLE CIE D'ASSURANCES GÉNÉRALES SUR LA VIE HUMAINE"
      },
      "job": {
        "id": 219,
        "name": "Administrateur"
      },
      "start_date": "1880-01-01",
      "end_date": "1880-12-31"
    },
    {
      "issuer": {
        "id": 1245,
        "name": "Crédit Lyonnais"
      },
      "job": {
        "id": 107,
        "name": "Directeur",
        "short_name": "Dir."
      },
      "start_date": "1880-01-01",
      "end_date": "1880-12-31"
    },
    {
      "issuer": {
        "id": 427,
        "name": "LA PATERNELLE CIE D'ASSURANCES CONTRE L'INCENDIE, L'EXPLOSION DU GAZ ET LES RISQUES DE TOUTE NATURE"
      },
      "job": {
        "id": 219,
        "name": "Administrateur"
      },
      "start_date": "1883-01-01",
      "end_date": "1883-12-31"
    },
    {
      "issuer": {
        "id": 1245,
        "name": "Crédit Lyonnais"
      },
      "job": {
        "id": 219,
        "name": "Administrateur"
      },
      "start_date": "1883-01-01",
      "end_date": "1883-12-31"
    }
  ],
  "name": "Jacques Letourneur"
}