{
  "id": 109632,
  "names": [
    "J. Duthoo"
  ],
  "functions": [
    {
      "issuer": {
        "id": 3210,
        "name": "STÉ FSE DES NOUVELLES GALERIES RÉUNIES"
      },
      "job": {
        "id": 219,
        "name": "Administrateur"
      },
      "start_date": "1945-01-01",
      "end_date": "1953-12-31"
    }
  ],
  "name": "J. Duthoo"
}