{
  "id": 124075,
  "names": [
    "de Cosmadeuc"
  ],
  "functions": [
    {
      "issuer": {
        "id": 562,
        "name": "Le Pilote: Assurances contre les Risques de Navigation Maritime et Interieure"
      },
      "job": {
        "id": 219,
        "name": "Administrateur"
      },
      "start_date": "1880-01-01",
      "end_date": "1880-12-31"
    }
  ],
  "name": "de Cosmadeuc"
}