{
  "id": 45500,
  "names": [
    "Deschiens"
  ],
  "functions": [
    {
      "issuer": {
        "id": 2517,
        "name": "Société générale des Cirages français"
      },
      "job": {
        "id": 219,
        "name": "Administrateur"
      },
      "start_date": "1889-01-01",
      "end_date": "1898-12-31"
    }
  ],
  "name": "Deschiens"
}