{
  "id": 88522,
  "names": [
    "P. Aubey"
  ],
  "functions": [
    {
      "issuer": {
        "id": 3549,
        "name": "CGIB BANQUE POUR LA CONSTRUCTION ET L'EQUIPEMENT"
      },
      "job": {
        "id": 219,
        "name": "Administrateur"
      },
      "start_date": "1933-01-01",
      "end_date": "1933-12-31"
    },
    {
      "issuer": {
        "id": 3549,
        "name": "CGIB BANQUE POUR LA CONSTRUCTION ET L'EQUIPEMENT"
      },
      "job": {
        "id": 219,
        "name": "Administrateur"
      },
      "start_date": "1940-01-01",
      "end_date": "1940-12-31"
    }
  ],
  "name": "P. Aubey"
}