{
  "id": 43183,
  "names": [
    "Aimé Pellorce"
  ],
  "functions": [
    {
      "issuer": {
        "id": 2521,
        "name": "Compagnie des Marbres d'Arni et des Usines de Belvoye"
      },
      "job": {
        "id": 219,
        "name": "Administrateur"
      },
      "start_date": "1880-01-01",
      "end_date": "1883-12-31"
    },
    {
      "issuer": {
        "id": 2682,
        "name": "Banque Centrale de Crédit"
      },
      "job": {
        "id": 10420,
        "name": "Liquidateur"
      },
      "start_date": "1883-01-01",
      "end_date": "1893-12-31"
    }
  ],
  "name": "Aimé Pellorce"
}