{
  "id": 93227,
  "names": [
    "P. Dudoy"
  ],
  "functions": [
    {
      "issuer": {
        "id": 3753,
        "name": "SOCIETE VERMANDOISE DE SUCRERIES (Usines sinistrées de Sfe-Emilie, Hervilly et Cartigny)"
      },
      "job": {
        "id": 219,
        "name": "Administrateur"
      },
      "start_date": "1933-01-01",
      "end_date": "1933-12-31"
    },
    {
      "issuer": {
        "id": 3753,
        "name": "SOCIETE VERMANDOISE DE SUCRERIES (Usines sinistrées de Sfe-Emilie, Hervilly et Cartigny)"
      },
      "job": {
        "id": 219,
        "name": "Administrateur"
      },
      "start_date": "1940-01-01",
      "end_date": "1940-12-31"
    }
  ],
  "name": "P. Dudoy"
}