{
  "id": 82916,
  "names": [
    "L. de Berthier"
  ],
  "functions": [
    {
      "issuer": {
        "id": 10764,
        "name": "CINÉMATOGRAPHE MONOPOLE (Région du Sud-Est)"
      },
      "job": {
        "id": 219,
        "name": "Administrateur"
      },
      "start_date": "1927-01-01",
      "end_date": "1927-12-31"
    }
  ],
  "name": "L. de Berthier"
}