{
  "id": 87988,
  "names": [
    "N. de Grunzburg"
  ],
  "functions": [
    {
      "issuer": {
        "id": 3460,
        "name": "Banque Franco-Japonaise"
      },
      "job": {
        "id": 219,
        "name": "Administrateur"
      },
      "start_date": "1933-01-01",
      "end_date": "1933-12-31"
    }
  ],
  "name": "N. de Grunzburg"
}