{
  "id": 80707,
  "names": [
    "R. de Montgolfier"
  ],
  "functions": [
    {
      "issuer": {
        "id": 4963,
        "name": "SOCIÉTÉ FINANCIERE DES CAOUTCHOUCS"
      },
      "job": {
        "id": 219,
        "name": "Administrateur"
      },
      "start_date": "1927-01-01",
      "end_date": "1927-12-31"
    },
    {
      "issuer": {
        "id": 10646,
        "name": "Société Anonyme des Cartonneries Mécaniques du Nord (Anciens Etablissements Haemers et Fils)"
      },
      "job": {
        "id": 219,
        "name": "Administrateur"
      },
      "start_date": "1927-01-01",
      "end_date": "1927-12-31"
    },
    {
      "issuer": {
        "id": 4596,
        "name": "PLANTATIONS DES TERRES ROUGES"
      },
      "job": {
        "id": 219,
        "name": "Administrateur"
      },
      "start_date": "1927-01-01",
      "end_date": "1933-12-31"
    },
    {
      "issuer": {
        "id": 4963,
        "name": "SOCIÉTÉ FINANCIERE DES CAOUTCHOUCS"
      },
      "job": {
        "id": 219,
        "name": "Administrateur"
      },
      "start_date": "1933-01-01",
      "end_date": "1933-12-31"
    }
  ],
  "name": "R. de Montgolfier"
}