{
  "id": 91062,
  "names": [
    "O. Iedels"
  ],
  "functions": [
    {
      "issuer": {
        "id": 3243,
        "name": "STE DES MINES DE GELSENKIRCHEN"
      },
      "job": {
        "id": 219,
        "name": "Administrateur"
      },
      "start_date": "1933-01-01",
      "end_date": "1933-12-31"
    }
  ],
  "name": "O. Iedels"
}