{
  "id": 127382,
  "names": [
    "Roger Lebon"
  ],
  "functions": [
    {
      "issuer": {
        "id": 3794,
        "name": "ECONOMATS DU CENTRE"
      },
      "job": {
        "id": 219,
        "name": "Administrateur"
      },
      "start_date": "1953-01-01",
      "end_date": "1953-12-31"
    }
  ],
  "name": "Roger Lebon"
}