{
  "id": 58635,
  "names": [
    "L. Ostertag"
  ],
  "functions": [
    {
      "issuer": {
        "id": 4759,
        "name": "SOCIÉTÉ ANONYME DES ÉTABLISSEMENTS FOURNIER OSTERTAG ET LE BOULENGER"
      },
      "job": {
        "id": 219,
        "name": "Administrateur"
      },
      "start_date": "1917-01-01",
      "end_date": "1917-12-31"
    },
    {
      "issuer": {
        "id": 4759,
        "name": "SOCIÉTÉ ANONYME DES ÉTABLISSEMENTS FOURNIER OSTERTAG ET LE BOULENGER"
      },
      "job": {
        "id": 219,
        "name": "Administrateur"
      },
      "start_date": "1927-01-01",
      "end_date": "1927-12-31"
    },
    {
      "issuer": {
        "id": 4759,
        "name": "SOCIÉTÉ ANONYME DES ÉTABLISSEMENTS FOURNIER OSTERTAG ET LE BOULENGER"
      },
      "job": {
        "id": 219,
        "name": "Administrateur"
      },
      "start_date": "1933-01-01",
      "end_date": "1933-12-31"
    }
  ],
  "name": "L. Ostertag"
}