{
  "id": 49292,
  "names": [
    "Alfred Barbou"
  ],
  "functions": [
    {
      "issuer": {
        "id": 2708,
        "name": "SOCIETE GRAMME"
      },
      "job": {
        "id": 12220,
        "name": "Administrateur sous-directeur"
      },
      "start_date": "1903-01-01",
      "end_date": "1903-12-31"
    },
    {
      "issuer": {
        "id": 2708,
        "name": "SOCIETE GRAMME"
      },
      "job": {
        "id": 125,
        "name": "Administrateur Directeur",
        "short_name": "Ad. Dir."
      },
      "start_date": "1908-01-01",
      "end_date": "1908-12-31"
    }
  ],
  "name": "Alfred Barbou"
}