{
  "id": 70666,
  "names": [
    "A. Barroso"
  ],
  "functions": [
    {
      "issuer": {
        "id": 10503,
        "name": "UNION ESPAGNOLE DE FABRIQUES D'ENGRAIS DE PRODUITS CHIMIQUES ET DE SUPERPHOSPHATES"
      },
      "job": {
        "id": 219,
        "name": "Administrateur"
      },
      "start_date": "1917-01-01",
      "end_date": "1917-12-31"
    }
  ],
  "name": "A. Barroso"
}