{
  "id": 77636,
  "names": [
    "A. Gavois"
  ],
  "functions": [
    {
      "issuer": {
        "id": 1596,
        "name": "LA CONFIANCE Compagnie d'Assurances sur la Vie"
      },
      "job": {
        "id": 219,
        "name": "Administrateur"
      },
      "start_date": "1923-01-01",
      "end_date": "1933-12-31"
    }
  ],
  "name": "A. Gavois"
}