{
  "id": 74831,
  "names": [
    "J. Perdreau"
  ],
  "functions": [
    {
      "issuer": {
        "id": 4126,
        "name": "MARINONI (MACHINES ET MATÉRIEL POUR L'IMPRIMERIE ET LES INDUSTRIES ANNEXES)"
      },
      "job": {
        "id": 219,
        "name": "Administrateur"
      },
      "start_date": "1923-01-01",
      "end_date": "1923-12-31"
    }
  ],
  "name": "J. Perdreau"
}