{
  "id": 82954,
  "names": [
    "J. Lykkedal-Moeller"
  ],
  "functions": [
    {
      "issuer": {
        "id": 10806,
        "name": "Société immobilière du domaine de Rotschild"
      },
      "job": {
        "id": 219,
        "name": "Administrateur"
      },
      "start_date": "1927-01-01",
      "end_date": "1927-12-31"
    },
    {
      "issuer": {
        "id": 10814,
        "name": "STATION CLIMATIQUE ET IMMOBILIÈRE DE THORENC"
      },
      "job": {
        "id": 219,
        "name": "Administrateur"
      },
      "start_date": "1927-01-01",
      "end_date": "1927-12-31"
    }
  ],
  "name": "J. Lykkedal-Moeller"
}