{
  "id": 74781,
  "names": [
    "P. Bellard"
  ],
  "functions": [
    {
      "issuer": {
        "id": 10492,
        "name": "Etablissements Lemoine"
      },
      "job": {
        "id": 219,
        "name": "Administrateur"
      },
      "start_date": "1923-01-01",
      "end_date": "1927-12-31"
    },
    {
      "issuer": {
        "id": 4103,
        "name": "COMPAGNIE D'APPLICATIONS MECANIQUES"
      },
      "job": {
        "id": 219,
        "name": "Administrateur"
      },
      "start_date": "1923-01-01",
      "end_date": "1927-12-31"
    }
  ],
  "name": "P. Bellard"
}