{
  "id": 120664,
  "names": [
    "H. Gallenca"
  ],
  "functions": [
    {
      "issuer": {
        "id": 11021,
        "name": "COMPAGNIE DE CULTURES TROPICALES EN AFRIOUE"
      },
      "job": {
        "id": 219,
        "name": "Administrateur"
      },
      "start_date": "1953-01-01",
      "end_date": "1953-12-31"
    }
  ],
  "name": "H. Gallenca"
}