{
  "id": 115035,
  "names": [
    "L. Rigault (madame)"
  ],
  "functions": [
    {
      "issuer": {
        "id": 3734,
        "name": "SOCIETE NORMANDE D'ALIMENTATION"
      },
      "job": {
        "id": 219,
        "name": "Administrateur"
      },
      "start_date": "1948-01-01",
      "end_date": "1953-12-31"
    }
  ],
  "name": "L. Rigault (madame)"
}