{
  "id": 120814,
  "names": [
    "François Balsan"
  ],
  "functions": [
    {
      "issuer": {
        "id": 2275,
        "name": "CIE GÉNÉRALE DE CONSTRUCTION DE LOCOMOTIVES (BATIGNOLLES-CHATILLON)"
      },
      "job": {
        "id": 219,
        "name": "Administrateur"
      },
      "start_date": "1953-01-01",
      "end_date": "1953-12-31"
    }
  ],
  "name": "François Balsan"
}