{
  "id": 110755,
  "names": [
    "Jean-Jacques Heilmann"
  ],
  "functions": [
    {
      "issuer": {
        "id": 3625,
        "name": "UNION DE BANQUES A PARIS"
      },
      "job": {
        "id": 219,
        "name": "Administrateur"
      },
      "start_date": "1948-01-01",
      "end_date": "1948-12-31"
    },
    {
      "issuer": {
        "id": 3625,
        "name": "UNION DE BANQUES A PARIS"
      },
      "job": {
        "id": 132,
        "name": "Administrateur Directeur General",
        "short_name": "Ad.-Dir. G."
      },
      "start_date": "1953-01-01",
      "end_date": "1953-12-31"
    },
    {
      "issuer": {
        "id": 3980,
        "name": "L'ELECTRO-ENTREPRISE"
      },
      "job": {
        "id": 219,
        "name": "Administrateur"
      },
      "start_date": "1953-01-01",
      "end_date": "1953-12-31"
    }
  ],
  "name": "Jean-Jacques Heilmann"
}