{
  "id": 57876,
  "names": [
    "Sadovaïa"
  ],
  "functions": [
    {
      "issuer": {
        "id": 10184,
        "name": "USINE MÉCANIQUE V. G. STOLL & Cie"
      },
      "job": {
        "id": 219,
        "name": "Administrateur"
      },
      "start_date": "1912-01-01",
      "end_date": "1912-12-31"
    }
  ],
  "name": "Sadovaïa"
}