{
  "id": 124238,
  "names": [
    "Bezinge"
  ],
  "functions": [
    {
      "issuer": {
        "id": 2029,
        "name": "CIE ANONYME DES ÉTABLISSEMENTS DUVAl"
      },
      "job": {
        "id": 232,
        "name": "Commissaire de surveillance"
      },
      "start_date": "1880-01-01",
      "end_date": "1880-12-31"
    }
  ],
  "name": "Bezinge"
}