{
  "id": 109470,
  "names": [
    "M. Bataille"
  ],
  "functions": [
    {
      "issuer": {
        "id": 10583,
        "name": "Maison Rey"
      },
      "job": {
        "id": 219,
        "name": "Administrateur"
      },
      "start_date": "1945-01-01",
      "end_date": "1953-12-31"
    },
    {
      "issuer": {
        "id": 11557,
        "name": "NOVEMBAL"
      },
      "job": {
        "id": 219,
        "name": "Administrateur"
      },
      "start_date": "1953-01-01",
      "end_date": "1953-12-31"
    }
  ],
  "name": "M. Bataille"
}