{
  "id": 80750,
  "names": [
    "de Chevert"
  ],
  "functions": [
    {
      "issuer": {
        "id": 10727,
        "name": "LES HÉVÉAS DE COCHINCHINE"
      },
      "job": {
        "id": 219,
        "name": "Administrateur"
      },
      "start_date": "1927-01-01",
      "end_date": "1927-12-31"
    }
  ],
  "name": "de Chevert"
}