{
  "id": 52423,
  "names": [
    "Chandora"
  ],
  "functions": [
    {
      "issuer": {
        "id": 2949,
        "name": "STé GLE DE TOUAGE ET DE REMORQUAGE"
      },
      "job": {
        "id": 219,
        "name": "Administrateur"
      },
      "start_date": "1908-01-01",
      "end_date": "1908-12-31"
    }
  ],
  "name": "Chandora"
}