{
  "id": 50782,
  "names": [
    "Humbert-Lavalley"
  ],
  "functions": [
    {
      "issuer": {
        "id": 1739,
        "name": "Banque de Consignations"
      },
      "job": {
        "id": 219,
        "name": "Administrateur"
      },
      "start_date": "1903-01-01",
      "end_date": "1903-12-31"
    },
    {
      "issuer": {
        "id": 1739,
        "name": "Banque de Consignations"
      },
      "job": {
        "id": 10420,
        "name": "Liquidateur"
      },
      "start_date": "1908-01-01",
      "end_date": "1908-12-31"
    },
    {
      "issuer": {
        "id": 1596,
        "name": "LA CONFIANCE Compagnie d'Assurances sur la Vie"
      },
      "job": {
        "id": 219,
        "name": "Administrateur"
      },
      "start_date": "1908-01-01",
      "end_date": "1923-12-31"
    },
    {
      "issuer": {
        "id": 3864,
        "name": "SOCIÉTÉ INDUSTRIELLE ET AGRICOLE DE LA POINTE-A-PITRE (Etablissements Darboussier)"
      },
      "job": {
        "id": 219,
        "name": "Administrateur"
      },
      "start_date": "1912-01-01",
      "end_date": "1933-12-31"
    },
    {
      "issuer": {
        "id": 1929,
        "name": "CIE DES CHEMINS DE FER D'INTÉRÊT LOCAL DU DÉPARTEMENT DE L'HÉRAULT"
      },
      "job": {
        "id": 219,
        "name": "Administrateur"
      },
      "start_date": "1917-01-01",
      "end_date": "1927-12-31"
    },
    {
      "issuer": {
        "id": 2211,
        "name": "ANNUITÉS LÉROUVILLE A SEDAN (Société civile pour le recouvrement de la subvention allouée pour la construction du chemin de fer de Lérouville à la ligne des Ardennes)"
      },
      "job": {
        "id": 219,
        "name": "Administrateur"
      },
      "start_date": "1917-01-01",
      "end_date": "1933-12-31"
    }
  ],
  "name": "Humbert-Lavalley"
}