{
  "id": 74843,
  "names": [
    "Van Lidth de Jeude"
  ],
  "functions": [
    {
      "issuer": {
        "id": 10453,
        "name": "SOCIÉTÉ D'ENTREPRISES DU MAROC OCCIDENTAL"
      },
      "job": {
        "id": 219,
        "name": "Administrateur"
      },
      "start_date": "1923-01-01",
      "end_date": "1923-12-31"
    }
  ],
  "name": "Van Lidth de Jeude"
}