{
  "id": 117845,
  "names": [
    "A. Foucart"
  ],
  "functions": [
    {
      "issuer": {
        "id": 4410,
        "name": "COMPAGNIE GÉNÉRALE ELECTRIQUE"
      },
      "job": {
        "id": 219,
        "name": "Administrateur"
      },
      "start_date": "1953-01-01",
      "end_date": "1953-12-31"
    }
  ],
  "name": "A. Foucart"
}