{
  "id": 48175,
  "names": [
    "marquis de Beaumont-Beynac"
  ],
  "functions": [
    {
      "issuer": {
        "id": 680,
        "name": "Société des Mines de Carmaux"
      },
      "job": {
        "id": 219,
        "name": "Administrateur"
      },
      "start_date": "1898-01-01",
      "end_date": "1908-12-31"
    },
    {
      "issuer": {
        "id": 680,
        "name": "Société des Mines de Carmaux"
      },
      "job": {
        "id": 219,
        "name": "Administrateur"
      },
      "start_date": "1912-01-01",
      "end_date": "1927-12-31"
    },
    {
      "issuer": {
        "id": 3543,
        "name": "COMPAGNIE GENERALE INDUSTRIELLE"
      },
      "job": {
        "id": 219,
        "name": "Administrateur"
      },
      "start_date": "1923-01-01",
      "end_date": "1933-12-31"
    },
    {
      "issuer": {
        "id": 4041,
        "name": "SOCIETE DES CHAUX ET CIMENTS DU LANGUEDOC"
      },
      "job": {
        "id": 219,
        "name": "Administrateur"
      },
      "start_date": "1933-01-01",
      "end_date": "1933-12-31"
    },
    {
      "issuer": {
        "id": 680,
        "name": "Société des Mines de Carmaux"
      },
      "job": {
        "id": 117,
        "name": "Vice-Président",
        "short_name": "V.-Pr."
      },
      "start_date": "1933-01-01",
      "end_date": "1933-12-31"
    },
    {
      "issuer": {
        "id": 680,
        "name": "Société des Mines de Carmaux"
      },
      "job": {
        "id": 117,
        "name": "Vice-Président",
        "short_name": "V.-Pr."
      },
      "start_date": "1940-01-01",
      "end_date": "1940-12-31"
    },
    {
      "issuer": {
        "id": 3543,
        "name": "COMPAGNIE GENERALE INDUSTRIELLE"
      },
      "job": {
        "id": 219,
        "name": "Administrateur"
      },
      "start_date": "1940-01-01",
      "end_date": "1940-12-31"
    }
  ],
  "name": "marquis de Beaumont-Beynac"
}