{
  "id": 49233,
  "names": [
    "Regley"
  ],
  "functions": [
    {
      "issuer": {
        "id": 7015,
        "name": "Cie Urbaine d'Eau et d'Electricité"
      },
      "job": {
        "id": 10019,
        "name": "Commissaire des comptes"
      },
      "start_date": "1903-01-01",
      "end_date": "1903-12-31"
    }
  ],
  "name": "Regley"
}