{
  "id": 103650,
  "names": [
    "Ch. Wendling"
  ],
  "functions": [
    {
      "issuer": {
        "id": 3891,
        "name": "FABRIQUE ALSACIENNE DE LEVURE ET ALCOOLS (F.A.L.A.)"
      },
      "job": {
        "id": 191,
        "name": "Comte"
      },
      "start_date": "1940-01-01",
      "end_date": "1940-12-31"
    },
    {
      "issuer": {
        "id": 3891,
        "name": "FABRIQUE ALSACIENNE DE LEVURE ET ALCOOLS (F.A.L.A.)"
      },
      "job": {
        "id": 219,
        "name": "Administrateur"
      },
      "start_date": "1945-01-01",
      "end_date": "1945-12-31"
    }
  ],
  "name": "Ch. Wendling"
}