{
  "id": 111219,
  "names": [
    "A. Beztchinsky"
  ],
  "functions": [
    {
      "issuer": {
        "id": 3656,
        "name": "FONCIÈRE DES CHAMPS-ELYSÉES"
      },
      "job": {
        "id": 219,
        "name": "Administrateur"
      },
      "start_date": "1948-01-01",
      "end_date": "1948-12-31"
    }
  ],
  "name": "A. Beztchinsky"
}