{
  "id": 120938,
  "names": [
    "M. Droulers"
  ],
  "functions": [
    {
      "issuer": {
        "id": 4747,
        "name": "ÉTABLISSEMENTS AGACHE FILS (Société anonyme de Pérenchies)"
      },
      "job": {
        "id": 219,
        "name": "Administrateur"
      },
      "start_date": "1953-01-01",
      "end_date": "1953-12-31"
    }
  ],
  "name": "M. Droulers"
}