{
  "id": 92766,
  "names": [
    "comte Ph. de Ségur"
  ],
  "functions": [
    {
      "issuer": {
        "id": 4032,
        "name": "ETABLISSEMENTS QUILLERY"
      },
      "job": {
        "id": 219,
        "name": "Administrateur"
      },
      "start_date": "1933-01-01",
      "end_date": "1933-12-31"
    }
  ],
  "name": "comte Ph. de Ségur"
}