{
  "id": 116252,
  "names": [
    "Sauty"
  ],
  "functions": [
    {
      "issuer": {
        "id": 3495,
        "name": "CHARBONNAGES DE FRANCE ET HOUILLERES DE BASSIN"
      },
      "job": {
        "id": 219,
        "name": "Administrateur"
      },
      "start_date": "1953-01-01",
      "end_date": "1953-12-31"
    }
  ],
  "name": "Sauty"
}