{
  "id": 59078,
  "names": [
    "Cocagne"
  ],
  "functions": [
    {
      "issuer": {
        "id": 1493,
        "name": "Banque Hypothécaire d'Espagne"
      },
      "job": {
        "id": 219,
        "name": "Administrateur"
      },
      "start_date": "1912-01-01",
      "end_date": "1927-12-31"
    }
  ],
  "name": "Cocagne"
}