{
  "id": 84704,
  "names": [
    "E. Gasse"
  ],
  "functions": [
    {
      "issuer": {
        "id": 4760,
        "name": "ANCIENS ÉTABLISSEMENTS GASSE FRERES"
      },
      "job": {
        "id": 219,
        "name": "Administrateur"
      },
      "start_date": "1933-01-01",
      "end_date": "1933-12-31"
    },
    {
      "issuer": {
        "id": 4760,
        "name": "ANCIENS ÉTABLISSEMENTS GASSE FRERES"
      },
      "job": {
        "id": 219,
        "name": "Administrateur"
      },
      "start_date": "1940-01-01",
      "end_date": "1953-12-31"
    }
  ],
  "name": "E. Gasse"
}