{
  "id": 90195,
  "names": [
    "Omnium Lyonnais"
  ],
  "functions": [
    {
      "issuer": {
        "id": 5256,
        "name": "SOCIETE ELECTRIQUE DE LA SIDÉRURGIE LORRAINE"
      },
      "job": {
        "id": 219,
        "name": "Administrateur"
      },
      "start_date": "1933-01-01",
      "end_date": "1933-12-31"
    },
    {
      "issuer": {
        "id": 5256,
        "name": "SOCIETE ELECTRIQUE DE LA SIDÉRURGIE LORRAINE"
      },
      "job": {
        "id": 219,
        "name": "Administrateur"
      },
      "start_date": "1940-01-01",
      "end_date": "1940-12-31"
    }
  ],
  "name": "Omnium Lyonnais"
}