{
  "id": 47778,
  "names": [
    "Alfred Obermayer"
  ],
  "functions": [
    {
      "issuer": {
        "id": 1386,
        "name": "Société de Crédit Mobilier"
      },
      "job": {
        "id": 101,
        "name": "Administrateur Délégué",
        "short_name": "Ad. Dél."
      },
      "start_date": "1880-01-01",
      "end_date": "1880-12-31"
    },
    {
      "issuer": {
        "id": 2299,
        "name": "Nouvelle Compagnie immobilière"
      },
      "job": {
        "id": 219,
        "name": "Administrateur"
      },
      "start_date": "1889-01-01",
      "end_date": "1889-12-31"
    },
    {
      "issuer": {
        "id": 1620,
        "name": "Compagnie des Tramways du Département du Nord"
      },
      "job": {
        "id": 219,
        "name": "Administrateur"
      },
      "start_date": "1889-01-01",
      "end_date": "1889-12-31"
    },
    {
      "issuer": {
        "id": 2291,
        "name": "Société IMMOBILIERE MARSEILLAISE"
      },
      "job": {
        "id": 219,
        "name": "Administrateur"
      },
      "start_date": "1893-01-01",
      "end_date": "1898-12-31"
    },
    {
      "issuer": {
        "id": 2380,
        "name": "CRÉDIT ALGERIEN pour favoriser le développement agricole, commercial et industriel de l'Algérie"
      },
      "job": {
        "id": 10019,
        "name": "Commissaire des comptes"
      },
      "start_date": "1903-01-01",
      "end_date": "1908-12-31"
    }
  ],
  "name": "Alfred Obermayer"
}