{
  "id": 117611,
  "names": [
    "M. C. W. H. L. Lawrence"
  ],
  "functions": [
    {
      "issuer": {
        "id": 5014,
        "name": "Saint-Helena Gold Mines Ltd"
      },
      "job": {
        "id": 219,
        "name": "Administrateur"
      },
      "start_date": "1953-01-01",
      "end_date": "1953-12-31"
    }
  ],
  "name": "M. C. W. H. L. Lawrence"
}