{
  "id": 54227,
  "names": [
    "P. Broch"
  ],
  "functions": [
    {
      "issuer": {
        "id": 3246,
        "name": "Impériale royale privilégiée Société d'assurances Pœnix autrichien à Vienne"
      },
      "job": {
        "id": 219,
        "name": "Administrateur"
      },
      "start_date": "1912-01-01",
      "end_date": "1912-12-31"
    },
    {
      "issuer": {
        "id": 3246,
        "name": "Impériale royale privilégiée Société d'assurances Pœnix autrichien à Vienne"
      },
      "job": {
        "id": 219,
        "name": "Administrateur"
      },
      "start_date": "1917-01-01",
      "end_date": "1917-12-31"
    }
  ],
  "name": "P. Broch"
}