{
  "id": 103626,
  "names": [
    "R. La Roche"
  ],
  "functions": [
    {
      "issuer": {
        "id": 3910,
        "name": "BRASSERIE ET MALTERIE \"LE PHENIX\""
      },
      "job": {
        "id": 102,
        "name": "Président",
        "short_name": "P."
      },
      "start_date": "1940-01-01",
      "end_date": "1940-12-31"
    },
    {
      "issuer": {
        "id": 3910,
        "name": "BRASSERIE ET MALTERIE \"LE PHENIX\""
      },
      "job": {
        "id": 162,
        "name": "Président honoraire"
      },
      "start_date": "1953-01-01",
      "end_date": "1953-12-31"
    }
  ],
  "name": "R. La Roche"
}