{
  "id": 99085,
  "names": [
    "Ch. Dagot"
  ],
  "functions": [
    {
      "issuer": {
        "id": 10976,
        "name": "SPIROS (Société Pierre-J. Marchaut et CIE)"
      },
      "job": {
        "id": 219,
        "name": "Administrateur"
      },
      "start_date": "1940-01-01",
      "end_date": "1940-12-31"
    }
  ],
  "name": "Ch. Dagot"
}