{
  "id": 46123,
  "names": [
    "Alphonse Dumas"
  ],
  "functions": [
    {
      "issuer": {
        "id": 2289,
        "name": "Société du Cirque d'Hiver, Ch. Franconi et Cie"
      },
      "job": {
        "id": 10637,
        "name": "Membre du Comité de surveillance"
      },
      "start_date": "1883-01-01",
      "end_date": "1889-12-31"
    },
    {
      "issuer": {
        "id": 2289,
        "name": "Société du Cirque d'Hiver, Ch. Franconi et Cie"
      },
      "job": {
        "id": 219,
        "name": "Administrateur"
      },
      "start_date": "1893-01-01",
      "end_date": "1893-12-31"
    },
    {
      "issuer": {
        "id": 2289,
        "name": "Société du Cirque d'Hiver, Ch. Franconi et Cie"
      },
      "job": {
        "id": 176,
        "name": "Membre du conseil de surveillance",
        "short_name": "M.C.S."
      },
      "start_date": "1898-01-01",
      "end_date": "1898-12-31"
    },
    {
      "issuer": {
        "id": 2289,
        "name": "Société du Cirque d'Hiver, Ch. Franconi et Cie"
      },
      "job": {
        "id": 176,
        "name": "Membre du conseil de surveillance",
        "short_name": "M.C.S."
      },
      "start_date": "1903-01-01",
      "end_date": "1903-12-31"
    },
    {
      "issuer": {
        "id": 2289,
        "name": "Société du Cirque d'Hiver, Ch. Franconi et Cie"
      },
      "job": {
        "id": 10637,
        "name": "Membre du Comité de surveillance"
      },
      "start_date": "1912-01-01",
      "end_date": "1912-12-31"
    }
  ],
  "name": "Alphonse Dumas"
}