{
  "id": 56272,
  "names": [
    "J. Strap"
  ],
  "functions": [
    {
      "issuer": {
        "id": 10032,
        "name": "SOCIÉTÉ DES MINES DE LA BELLIERE"
      },
      "job": {
        "id": 219,
        "name": "Administrateur"
      },
      "start_date": "1912-01-01",
      "end_date": "1917-12-31"
    },
    {
      "issuer": {
        "id": 10044,
        "name": "MINES DE CUIVRE DE CAMPANARIO"
      },
      "job": {
        "id": 219,
        "name": "Administrateur"
      },
      "start_date": "1912-01-01",
      "end_date": "1917-12-31"
    }
  ],
  "name": "J. Strap"
}