{
  "id": 51877,
  "names": [
    "Maraini"
  ],
  "functions": [
    {
      "issuer": {
        "id": 2603,
        "name": "CHEMIN DE FER DES ALPES BERNOISES BERNE-LŒTSCHBERG-SIMPLON"
      },
      "job": {
        "id": 219,
        "name": "Administrateur"
      },
      "start_date": "1917-01-01",
      "end_date": "1917-12-31"
    }
  ],
  "name": "Maraini"
}