{
  "id": 111453,
  "names": [
    "Alain Kergall"
  ],
  "functions": [
    {
      "issuer": {
        "id": 1224,
        "name": "Compagnie royale des Chemins de fer Portugais"
      },
      "job": {
        "id": 219,
        "name": "Administrateur"
      },
      "start_date": "1948-01-01",
      "end_date": "1948-12-31"
    }
  ],
  "name": "Alain Kergall"
}