{
  "id": 121515,
  "names": [
    "J.-C. Corthésy"
  ],
  "functions": [
    {
      "issuer": {
        "id": 4946,
        "name": "UNILAC INC"
      },
      "job": {
        "id": 219,
        "name": "Administrateur"
      },
      "start_date": "1953-01-01",
      "end_date": "1953-12-31"
    },
    {
      "issuer": {
        "id": 5464,
        "name": "Nestlé and Anglo-Swiss Condensed Milk Cy"
      },
      "job": {
        "id": 101,
        "name": "Administrateur Délégué",
        "short_name": "Ad. Dél."
      },
      "start_date": "1953-01-01",
      "end_date": "1953-12-31"
    }
  ],
  "name": "J.-C. Corthésy"
}