{
  "id": 107503,
  "names": [
    "baron R. d’Huart"
  ],
  "functions": [
    {
      "issuer": {
        "id": 1337,
        "name": "Société Anonyme John Cockerill"
      },
      "job": {
        "id": 219,
        "name": "Administrateur"
      },
      "start_date": "1945-01-01",
      "end_date": "1953-12-31"
    }
  ],
  "name": "baron R. d’Huart"
}