{
  "id": 99057,
  "names": [
    "Barbarin"
  ],
  "functions": [
    {
      "issuer": {
        "id": 2626,
        "name": "Cie DES TRAMWAYS DEPARTEMENTAUX DES DEUX-SÈVRES"
      },
      "job": {
        "id": 10019,
        "name": "Commissaire des comptes"
      },
      "start_date": "1940-01-01",
      "end_date": "1940-12-31"
    },
    {
      "issuer": {
        "id": 4242,
        "name": "SOCIETE DES HOTELS ET CASINOS DE DEAUVILLE"
      },
      "job": {
        "id": 10019,
        "name": "Commissaire des comptes"
      },
      "start_date": "1940-01-01",
      "end_date": "1940-12-31"
    },
    {
      "issuer": {
        "id": 4237,
        "name": "SOCIÉTÉ FERMIERE DU CASINO MUNICIPAL DE CANNES"
      },
      "job": {
        "id": 10019,
        "name": "Commissaire des comptes"
      },
      "start_date": "1940-01-01",
      "end_date": "1940-12-31"
    },
    {
      "issuer": {
        "id": 2986,
        "name": "Société des Chalets de Nécessité"
      },
      "job": {
        "id": 10019,
        "name": "Commissaire des comptes"
      },
      "start_date": "1940-01-01",
      "end_date": "1953-12-31"
    },
    {
      "issuer": {
        "id": 4242,
        "name": "SOCIETE DES HOTELS ET CASINOS DE DEAUVILLE"
      },
      "job": {
        "id": 103,
        "name": "Commissaire"
      },
      "start_date": "1945-01-01",
      "end_date": "1945-12-31"
    },
    {
      "issuer": {
        "id": 4237,
        "name": "SOCIÉTÉ FERMIERE DU CASINO MUNICIPAL DE CANNES"
      },
      "job": {
        "id": 10019,
        "name": "Commissaire des comptes"
      },
      "start_date": "1945-01-01",
      "end_date": "1953-12-31"
    },
    {
      "issuer": {
        "id": 4242,
        "name": "SOCIETE DES HOTELS ET CASINOS DE DEAUVILLE"
      },
      "job": {
        "id": 10019,
        "name": "Commissaire des comptes"
      },
      "start_date": "1948-01-01",
      "end_date": "1953-12-31"
    },
    {
      "issuer": {
        "id": 2626,
        "name": "Cie DES TRAMWAYS DEPARTEMENTAUX DES DEUX-SÈVRES"
      },
      "job": {
        "id": 10019,
        "name": "Commissaire des comptes"
      },
      "start_date": "1953-01-01",
      "end_date": "1953-12-31"
    }
  ],
  "name": "Barbarin"
}