{
  "id": 42533,
  "names": [
    "de Rothiacob"
  ],
  "functions": [
    {
      "issuer": {
        "id": 2666,
        "name": "Cie DES DOCKS ET ENTREPOTS DE ROUEN"
      },
      "job": {
        "id": 219,
        "name": "Administrateur"
      },
      "start_date": "1883-01-01",
      "end_date": "1883-12-31"
    }
  ],
  "name": "de Rothiacob"
}