{
  "id": 117040,
  "names": [
    "J. Astort"
  ],
  "functions": [
    {
      "issuer": {
        "id": 11571,
        "name": "SOCIETE DE RECHERCHES ET FORAGES DES PETROLES DU ZERHOUN"
      },
      "job": {
        "id": 219,
        "name": "Administrateur"
      },
      "start_date": "1953-01-01",
      "end_date": "1953-12-31"
    }
  ],
  "name": "J. Astort"
}