{
  "id": 51858,
  "names": [
    "Scheller"
  ],
  "functions": [
    {
      "issuer": {
        "id": 735,
        "name": "Chemin de fer du Médoc"
      },
      "job": {
        "id": 219,
        "name": "Administrateur"
      },
      "start_date": "1908-01-01",
      "end_date": "1908-12-31"
    },
    {
      "issuer": {
        "id": 1605,
        "name": "CHEMINS DE FER DE L'OUEST-ALGERIEN"
      },
      "job": {
        "id": 219,
        "name": "Administrateur"
      },
      "start_date": "1908-01-01",
      "end_date": "1908-12-31"
    }
  ],
  "name": "Scheller"
}