{
  "id": 76567,
  "names": [
    "H. Le Roy-Lewis"
  ],
  "functions": [
    {
      "issuer": {
        "id": 946,
        "name": "Société de l'Union des gaz"
      },
      "job": {
        "id": 219,
        "name": "Administrateur"
      },
      "start_date": "1912-01-01",
      "end_date": "1912-12-31"
    },
    {
      "issuer": {
        "id": 946,
        "name": "Société de l'Union des gaz"
      },
      "job": {
        "id": 219,
        "name": "Administrateur"
      },
      "start_date": "1923-01-01",
      "end_date": "1923-12-31"
    },
    {
      "issuer": {
        "id": 5071,
        "name": "Continentale du Gaz (Cie)"
      },
      "job": {
        "id": 219,
        "name": "Administrateur"
      },
      "start_date": "1923-01-01",
      "end_date": "1933-12-31"
    },
    {
      "issuer": {
        "id": 946,
        "name": "Société de l'Union des gaz"
      },
      "job": {
        "id": 219,
        "name": "Administrateur"
      },
      "start_date": "1927-01-01",
      "end_date": "1927-12-31"
    },
    {
      "issuer": {
        "id": 946,
        "name": "Société de l'Union des gaz"
      },
      "job": {
        "id": 219,
        "name": "Administrateur"
      },
      "start_date": "1929-01-01",
      "end_date": "1929-12-31"
    }
  ],
  "name": "H. Le Roy-Lewis"
}