{
  "id": 41607,
  "names": [
    "F. Sepulveda"
  ],
  "functions": [
    {
      "issuer": {
        "id": 1220,
        "name": "CHEMINS DE FER DU NORD DE L'ESPAGNE"
      },
      "job": {
        "id": 10266,
        "name": "administrateur à Madrid"
      },
      "start_date": "1880-01-01",
      "end_date": "1893-12-31"
    },
    {
      "issuer": {
        "id": 2332,
        "name": "Cie Gle DES TABACS DES PHILIPPINES"
      },
      "job": {
        "id": 10017,
        "name": "Vice-Président Délégué",
        "short_name": "V.-P. Dél."
      },
      "start_date": "1883-01-01",
      "end_date": "1883-12-31"
    },
    {
      "issuer": {
        "id": 2222,
        "name": "Compagnie des chemins de fer des Asturies, Galice et Léon"
      },
      "job": {
        "id": 10266,
        "name": "administrateur à Madrid"
      },
      "start_date": "1883-01-01",
      "end_date": "1883-12-31"
    },
    {
      "issuer": {
        "id": 2332,
        "name": "Cie Gle DES TABACS DES PHILIPPINES"
      },
      "job": {
        "id": 10266,
        "name": "administrateur à Madrid"
      },
      "start_date": "1883-01-01",
      "end_date": "1893-12-31"
    },
    {
      "issuer": {
        "id": 2332,
        "name": "Cie Gle DES TABACS DES PHILIPPINES"
      },
      "job": {
        "id": 11623,
        "name": "Membre du Comité de Madrid"
      },
      "start_date": "1889-01-01",
      "end_date": "1889-12-31"
    },
    {
      "issuer": {
        "id": 2332,
        "name": "Cie Gle DES TABACS DES PHILIPPINES"
      },
      "job": {
        "id": 10630,
        "name": "Vice-Président à Madrid"
      },
      "start_date": "1889-01-01",
      "end_date": "1893-12-31"
    }
  ],
  "name": "F. Sepulveda"
}