{
  "id": 127402,
  "names": [
    "Henri Tassart"
  ],
  "functions": [
    {
      "issuer": {
        "id": 11588,
        "name": "LE BETON S.A."
      },
      "job": {
        "id": 219,
        "name": "Administrateur"
      },
      "start_date": "1953-01-01",
      "end_date": "1953-12-31"
    }
  ],
  "name": "Henri Tassart"
}