{
  "id": 77907,
  "names": [
    "L. Mascart"
  ],
  "functions": [
    {
      "issuer": {
        "id": 3476,
        "name": "UNION PROVINCIALE IMMOBILIERE"
      },
      "job": {
        "id": 219,
        "name": "Administrateur"
      },
      "start_date": "1923-01-01",
      "end_date": "1933-12-31"
    },
    {
      "issuer": {
        "id": 10748,
        "name": "Explosifs Minélite"
      },
      "job": {
        "id": 219,
        "name": "Administrateur"
      },
      "start_date": "1933-01-01",
      "end_date": "1933-12-31"
    }
  ],
  "name": "L. Mascart"
}