{
  "id": 124102,
  "names": [
    "Laurent Descours"
  ],
  "functions": [
    {
      "issuer": {
        "id": 1731,
        "name": "Banque d'escompte de Paris"
      },
      "job": {
        "id": 219,
        "name": "Administrateur"
      },
      "start_date": "1880-01-01",
      "end_date": "1880-12-31"
    },
    {
      "issuer": {
        "id": 1594,
        "name": "Compagnie du Soleil, Société anonyme française d'assurances sur la vie"
      },
      "job": {
        "id": 138,
        "name": "Censeur",
        "short_name": "Cens."
      },
      "start_date": "1880-01-01",
      "end_date": "1880-12-31"
    },
    {
      "issuer": {
        "id": 2122,
        "name": "Compagnie du Soleil, Société anonyme d'assurances contre la grêle"
      },
      "job": {
        "id": 219,
        "name": "Administrateur"
      },
      "start_date": "1880-01-01",
      "end_date": "1880-12-31"
    },
    {
      "issuer": {
        "id": 1732,
        "name": "Banque Hypothécaire de France"
      },
      "job": {
        "id": 219,
        "name": "Administrateur"
      },
      "start_date": "1880-01-01",
      "end_date": "1880-12-31"
    }
  ],
  "name": "Laurent Descours"
}