{
  "id": 46463,
  "names": [
    "F. Sabatier"
  ],
  "functions": [
    {
      "issuer": {
        "id": 730,
        "name": "COMPAGNIE DE QUATRE MINES RÉUNIES DE GRAISSESSAC"
      },
      "job": {
        "id": 102,
        "name": "Président",
        "short_name": "P."
      },
      "start_date": "1893-01-01",
      "end_date": "1893-12-31"
    },
    {
      "issuer": {
        "id": 10969,
        "name": "ETABLISSEMENTS MONTREUIL"
      },
      "job": {
        "id": 219,
        "name": "Administrateur"
      },
      "start_date": "1933-01-01",
      "end_date": "1933-12-31"
    }
  ],
  "name": "F. Sabatier"
}