{
  "id": 47811,
  "names": [
    "Yayson"
  ],
  "functions": [
    {
      "issuer": {
        "id": 1146,
        "name": "L'ABEILLE COMPAGNIE D'ASSURANCES A PRIMES FIXES CONTRE L'INCENDIE"
      },
      "job": {
        "id": 102,
        "name": "Président",
        "short_name": "P."
      },
      "start_date": "1898-01-01",
      "end_date": "1898-12-31"
    }
  ],
  "name": "Yayson"
}