{
  "id": 120624,
  "names": [
    "R. Viards"
  ],
  "functions": [
    {
      "issuer": {
        "id": 11486,
        "name": "ETABLISSEMENTS BISE"
      },
      "job": {
        "id": 219,
        "name": "Administrateur"
      },
      "start_date": "1953-01-01",
      "end_date": "1953-12-31"
    }
  ],
  "name": "R. Viards"
}