{
  "id": 55515,
  "names": [
    "H. Laporte"
  ],
  "functions": [
    {
      "issuer": {
        "id": 2507,
        "name": "Société anonyme des Aciéries de France"
      },
      "job": {
        "id": 219,
        "name": "Administrateur"
      },
      "start_date": "1912-01-01",
      "end_date": "1927-12-31"
    },
    {
      "issuer": {
        "id": 3193,
        "name": "STÉ DU BEC AUER POUR L'EUROPE DU NORD (en liquidation)"
      },
      "job": {
        "id": 219,
        "name": "Administrateur"
      },
      "start_date": "1923-01-01",
      "end_date": "1927-12-31"
    },
    {
      "issuer": {
        "id": 5125,
        "name": "ELECTRO-CABLE"
      },
      "job": {
        "id": 219,
        "name": "Administrateur"
      },
      "start_date": "1923-01-01",
      "end_date": "1933-12-31"
    },
    {
      "issuer": {
        "id": 5202,
        "name": "COMPAGNIE PHAROS"
      },
      "job": {
        "id": 219,
        "name": "Administrateur"
      },
      "start_date": "1927-01-01",
      "end_date": "1933-12-31"
    },
    {
      "issuer": {
        "id": 10892,
        "name": "TRÉFILERIES, LAMINOIRS ET FONDERIES DE CHAUNY"
      },
      "job": {
        "id": 219,
        "name": "Administrateur"
      },
      "start_date": "1933-01-01",
      "end_date": "1933-12-31"
    },
    {
      "issuer": {
        "id": 5137,
        "name": "Banque des pays de l'Europe centrale"
      },
      "job": {
        "id": 219,
        "name": "Administrateur"
      },
      "start_date": "1933-01-01",
      "end_date": "1933-12-31"
    }
  ],
  "name": "H. Laporte"
}