{
  "id": 100007,
  "names": [
    "P. Chadefaux"
  ],
  "functions": [
    {
      "issuer": {
        "id": 10605,
        "name": "LA MANESTAMP (STE ARDENNAISE DE FORGE)"
      },
      "job": {
        "id": 219,
        "name": "Administrateur"
      },
      "start_date": "1940-01-01",
      "end_date": "1940-12-31"
    }
  ],
  "name": "P. Chadefaux"
}