{
  "id": 63426,
  "names": [
    "J. Kinsbourg"
  ],
  "functions": [
    {
      "issuer": {
        "id": 4289,
        "name": "AFFICHES GAILLARD"
      },
      "job": {
        "id": 219,
        "name": "Administrateur"
      },
      "start_date": "1917-01-01",
      "end_date": "1923-12-31"
    },
    {
      "issuer": {
        "id": 10947,
        "name": "SOCIÉTÉ NOUVELLE \"AFFICHES GAILLARD\""
      },
      "job": {
        "id": 219,
        "name": "Administrateur"
      },
      "start_date": "1933-01-01",
      "end_date": "1933-12-31"
    }
  ],
  "name": "J. Kinsbourg"
}