{
  "id": 55044,
  "names": [
    "D. Nivard"
  ],
  "functions": [
    {
      "issuer": {
        "id": 3071,
        "name": "COMPAGNIE DU CHEMIN DE FER DE ROSARIO A PUERTO-BELGRANO"
      },
      "job": {
        "id": 219,
        "name": "Administrateur"
      },
      "start_date": "1912-01-01",
      "end_date": "1912-12-31"
    }
  ],
  "name": "D. Nivard"
}