{
  "id": 103311,
  "names": [
    "M. Montmain"
  ],
  "functions": [
    {
      "issuer": {
        "id": 10598,
        "name": "AU PLANTEUR DE CAIFFA (Société anonyme des Etablissements)"
      },
      "job": {
        "id": 103,
        "name": "Commissaire"
      },
      "start_date": "1940-01-01",
      "end_date": "1940-12-31"
    },
    {
      "issuer": {
        "id": 4868,
        "name": "STOP-FIRE"
      },
      "job": {
        "id": 10019,
        "name": "Commissaire des comptes"
      },
      "start_date": "1945-01-01",
      "end_date": "1953-12-31"
    },
    {
      "issuer": {
        "id": 4205,
        "name": "Etablissements Mécaniques \"Monopole Poissy\""
      },
      "job": {
        "id": 10019,
        "name": "Commissaire des comptes"
      },
      "start_date": "1953-01-01",
      "end_date": "1953-12-31"
    },
    {
      "issuer": {
        "id": 4204,
        "name": "COMPAGNIE DES MEULES NORTON"
      },
      "job": {
        "id": 10019,
        "name": "Commissaire des comptes"
      },
      "start_date": "1953-01-01",
      "end_date": "1953-12-31"
    },
    {
      "issuer": {
        "id": 588,
        "name": "Raffinerie et Huilerie Bordelaises"
      },
      "job": {
        "id": 10019,
        "name": "Commissaire des comptes"
      },
      "start_date": "1953-01-01",
      "end_date": "1953-12-31"
    },
    {
      "issuer": {
        "id": 10598,
        "name": "AU PLANTEUR DE CAIFFA (Société anonyme des Etablissements)"
      },
      "job": {
        "id": 103,
        "name": "Commissaire"
      },
      "start_date": "1953-01-01",
      "end_date": "1953-12-31"
    }
  ],
  "name": "M. Montmain"
}