{
  "id": 62749,
  "names": [
    "H. Kurz"
  ],
  "functions": [
    {
      "issuer": {
        "id": 3177,
        "name": "\" STEAUA ROMANA \" ETOILE ROUMAINE Société Anonyme pour l'Industrie du Pétrole"
      },
      "job": {
        "id": 219,
        "name": "Administrateur"
      },
      "start_date": "1917-01-01",
      "end_date": "1917-12-31"
    }
  ],
  "name": "H. Kurz"
}