{
  "id": 102698,
  "names": [
    "José M. de Basterra y Ortiz"
  ],
  "functions": [
    {
      "issuer": {
        "id": 11473,
        "name": "COMPANIA HISPANO-AMERICANA DE ELECTRICIDAD (C. H. A. D. E.)"
      },
      "job": {
        "id": 219,
        "name": "Administrateur"
      },
      "start_date": "1940-01-01",
      "end_date": "1953-12-31"
    }
  ],
  "name": "José M. de Basterra y Ortiz"
}