{
  "id": 53801,
  "names": [
    "Lucien Billet"
  ],
  "functions": [
    {
      "issuer": {
        "id": 2315,
        "name": "Société anonyme d'imprimerie et Librairie administratives et des chemins de fer"
      },
      "job": {
        "id": 107,
        "name": "Directeur",
        "short_name": "Dir."
      },
      "start_date": "1908-01-01",
      "end_date": "1908-12-31"
    }
  ],
  "name": "Lucien Billet"
}