{
  "id": 111412,
  "names": [
    "D. Wansink"
  ],
  "functions": [
    {
      "issuer": {
        "id": 2545,
        "name": "Compagnie Internationale des Wagons-lits et des grands Express européens"
      },
      "job": {
        "id": 219,
        "name": "Administrateur"
      },
      "start_date": "1948-01-01",
      "end_date": "1953-12-31"
    }
  ],
  "name": "D. Wansink"
}