{
  "id": 107304,
  "names": [
    "J. Couderc de Saint-Chamant"
  ],
  "functions": [
    {
      "issuer": {
        "id": 194,
        "name": "CIE DES FORGES D'AUDINCOURT ET DÉPENDANCES"
      },
      "job": {
        "id": 219,
        "name": "Administrateur"
      },
      "start_date": "1927-01-01",
      "end_date": "1933-12-31"
    },
    {
      "issuer": {
        "id": 194,
        "name": "CIE DES FORGES D'AUDINCOURT ET DÉPENDANCES"
      },
      "job": {
        "id": 219,
        "name": "Administrateur"
      },
      "start_date": "1940-01-01",
      "end_date": "1940-12-31"
    },
    {
      "issuer": {
        "id": 194,
        "name": "CIE DES FORGES D'AUDINCOURT ET DÉPENDANCES"
      },
      "job": {
        "id": 219,
        "name": "Administrateur"
      },
      "start_date": "1945-01-01",
      "end_date": "1945-12-31"
    }
  ],
  "name": "J. Couderc de Saint-Chamant"
}