{
  "id": 55150,
  "names": [
    "J. Lalieux"
  ],
  "functions": [
    {
      "issuer": {
        "id": 3229,
        "name": "Chemin de fer Nord-Est de l'Espagne"
      },
      "job": {
        "id": 219,
        "name": "Administrateur"
      },
      "start_date": "1917-01-01",
      "end_date": "1917-12-31"
    }
  ],
  "name": "J. Lalieux"
}