{
  "id": 54695,
  "names": [
    "J. H. Coleman"
  ],
  "functions": [
    {
      "issuer": {
        "id": 10226,
        "name": "SOCIETE FRANCO-SUISSE DE CHEMINS DE FER ET DE TRAVAUX PUBLICS"
      },
      "job": {
        "id": 219,
        "name": "Administrateur"
      },
      "start_date": "1917-01-01",
      "end_date": "1923-12-31"
    }
  ],
  "name": "J. H. Coleman"
}