{
  "id": 88537,
  "names": [
    "Etienne Monnier"
  ],
  "functions": [
    {
      "issuer": {
        "id": 2376,
        "name": "STÉ CENTRALE DES BANQUES DE PROVINCE"
      },
      "job": {
        "id": 219,
        "name": "Administrateur"
      },
      "start_date": "1933-01-01",
      "end_date": "1933-12-31"
    }
  ],
  "name": "Etienne Monnier"
}