{
  "id": 45581,
  "names": [
    "G. Belleville"
  ],
  "functions": [
    {
      "issuer": {
        "id": 2569,
        "name": "Compagnie française du Télégraphe de Paris à New-York"
      },
      "job": {
        "id": 101,
        "name": "Administrateur Délégué",
        "short_name": "Ad. Dél."
      },
      "start_date": "1889-01-01",
      "end_date": "1889-12-31"
    },
    {
      "issuer": {
        "id": 4644,
        "name": "AUTOMOBILES DELAUNAY-BELLEVILLE"
      },
      "job": {
        "id": 219,
        "name": "Administrateur"
      },
      "start_date": "1923-01-01",
      "end_date": "1927-12-31"
    }
  ],
  "name": "G. Belleville"
}