{
  "id": 95503,
  "names": [
    "F. Decazes"
  ],
  "functions": [
    {
      "issuer": {
        "id": 2386,
        "name": "L'AIGLE-CAPITALISATION SOCIÉTÉ FRANÇAISE DE CAPITALISATION POUR FAVORISER L'ÉCONOMIE ET L'ÉPARGNE"
      },
      "job": {
        "id": 10019,
        "name": "Commissaire des comptes"
      },
      "start_date": "1940-01-01",
      "end_date": "1945-12-31"
    }
  ],
  "name": "F. Decazes"
}