{
  "id": 53650,
  "names": [
    "Eugène Roux"
  ],
  "functions": [
    {
      "issuer": {
        "id": 3031,
        "name": "FABRIQUES DE PAPIER SAN RAFAEL Y ANEXAS"
      },
      "job": {
        "id": 219,
        "name": "Administrateur"
      },
      "start_date": "1908-01-01",
      "end_date": "1908-12-31"
    },
    {
      "issuer": {
        "id": 3031,
        "name": "FABRIQUES DE PAPIER SAN RAFAEL Y ANEXAS"
      },
      "job": {
        "id": 219,
        "name": "Administrateur"
      },
      "start_date": "1912-01-01",
      "end_date": "1912-12-31"
    },
    {
      "issuer": {
        "id": 4056,
        "name": "SOCIETE GENERALE DES TUILERIES DE MARSEILLE"
      },
      "job": {
        "id": 102,
        "name": "Président",
        "short_name": "P."
      },
      "start_date": "1940-01-01",
      "end_date": "1940-12-31"
    },
    {
      "issuer": {
        "id": 4056,
        "name": "SOCIETE GENERALE DES TUILERIES DE MARSEILLE"
      },
      "job": {
        "id": 219,
        "name": "Administrateur"
      },
      "start_date": "1945-01-01",
      "end_date": "1948-12-31"
    },
    {
      "issuer": {
        "id": 4056,
        "name": "SOCIETE GENERALE DES TUILERIES DE MARSEILLE"
      },
      "job": {
        "id": 162,
        "name": "Président honoraire"
      },
      "start_date": "1953-01-01",
      "end_date": "1953-12-31"
    }
  ],
  "name": "Eugène Roux"
}