{
  "id": 101840,
  "names": [
    "G. Bemy"
  ],
  "functions": [
    {
      "issuer": {
        "id": 4796,
        "name": "SOCIETE TEXTILE ARDENNAISE (Anciens Etablissements Emile Henrion)"
      },
      "job": {
        "id": 10019,
        "name": "Commissaire des comptes"
      },
      "start_date": "1940-01-01",
      "end_date": "1940-12-31"
    }
  ],
  "name": "G. Bemy"
}