{
  "id": 56741,
  "names": [
    "Emmanuel Roux"
  ],
  "functions": [
    {
      "issuer": {
        "id": 5291,
        "name": "SOCIETE DU GRAND DORON"
      },
      "job": {
        "id": 219,
        "name": "Administrateur"
      },
      "start_date": "1933-01-01",
      "end_date": "1933-12-31"
    },
    {
      "issuer": {
        "id": 4429,
        "name": "FORGES DE GUEUGNON (Etablissements CAMPIONNET)"
      },
      "job": {
        "id": 219,
        "name": "Administrateur"
      },
      "start_date": "1933-01-01",
      "end_date": "1933-12-31"
    },
    {
      "issuer": {
        "id": 4464,
        "name": "FORGES, TREFILERIES ET POINTERIES DE CREIL"
      },
      "job": {
        "id": 219,
        "name": "Administrateur"
      },
      "start_date": "1953-01-01",
      "end_date": "1953-12-31"
    }
  ],
  "name": "Emmanuel Roux"
}