{
  "id": 57648,
  "names": [
    "Henin"
  ],
  "functions": [
    {
      "issuer": {
        "id": 3277,
        "name": "PROVIDENCE RUSSE A MARIOUPOL"
      },
      "job": {
        "id": 219,
        "name": "Administrateur"
      },
      "start_date": "1912-01-01",
      "end_date": "1927-12-31"
    }
  ],
  "name": "Henin"
}