{
  "id": 99610,
  "names": [
    "E. Trutt"
  ],
  "functions": [
    {
      "issuer": {
        "id": 10908,
        "name": "LA FRANCE FONCIERE"
      },
      "job": {
        "id": 10258,
        "name": "Suppléant"
      },
      "start_date": "1940-01-01",
      "end_date": "1940-12-31"
    }
  ],
  "name": "E. Trutt"
}