{
  "id": 89753,
  "names": [
    "P. Lubin"
  ],
  "functions": [
    {
      "issuer": {
        "id": 10911,
        "name": "SISMA HOLDING DE BREVETS"
      },
      "job": {
        "id": 219,
        "name": "Administrateur"
      },
      "start_date": "1933-01-01",
      "end_date": "1933-12-31"
    }
  ],
  "name": "P. Lubin"
}