{
  "id": 98403,
  "names": [
    "E.-L. Wirz"
  ],
  "functions": [
    {
      "issuer": {
        "id": 11186,
        "name": "Banque italo-française de crédit"
      },
      "job": {
        "id": 219,
        "name": "Administrateur"
      },
      "start_date": "1940-01-01",
      "end_date": "1945-12-31"
    }
  ],
  "name": "E.-L. Wirz"
}