{
  "id": 103447,
  "names": [
    "Ph. Deros"
  ],
  "functions": [
    {
      "issuer": {
        "id": 3876,
        "name": "SOCIETE ANONYME DU DOMAINE DE POTINVILLE"
      },
      "job": {
        "id": 219,
        "name": "Administrateur"
      },
      "start_date": "1940-01-01",
      "end_date": "1953-12-31"
    }
  ],
  "name": "Ph. Deros"
}