{
  "id": 113349,
  "names": [
    "X. Meniole d'Hautlhuille"
  ],
  "functions": [
    {
      "issuer": {
        "id": 4391,
        "name": "SOCIETE DES LAMPES FOTOS"
      },
      "job": {
        "id": 219,
        "name": "Administrateur"
      },
      "start_date": "1948-01-01",
      "end_date": "1953-12-31"
    }
  ],
  "name": "X. Meniole d'Hautlhuille"
}