{
  "id": 101077,
  "names": [
    "comte D. de Martel"
  ],
  "functions": [
    {
      "issuer": {
        "id": 4587,
        "name": "SOCIETE INDUSTRIELLE DES ASPHALTES ET PÉTROLES DE LATTAQUIÉ (SYRIE)"
      },
      "job": {
        "id": 117,
        "name": "Vice-Président",
        "short_name": "V.-Pr."
      },
      "start_date": "1940-01-01",
      "end_date": "1940-12-31"
    }
  ],
  "name": "comte D. de Martel"
}