{
  "id": 120033,
  "names": [
    "Gabriel Jullien de Pommerol"
  ],
  "functions": [
    {
      "issuer": {
        "id": 4040,
        "name": "CHAUX ET CiMENTS PORTLAND DU HAUT-RHIN"
      },
      "job": {
        "id": 219,
        "name": "Administrateur"
      },
      "start_date": "1953-01-01",
      "end_date": "1953-12-31"
    }
  ],
  "name": "Gabriel Jullien de Pommerol"
}