{
  "id": 48834,
  "names": [
    "Henri Marchal"
  ],
  "functions": [
    {
      "issuer": {
        "id": 3368,
        "name": "ELECTRICITE ET GAZ DU NORD"
      },
      "job": {
        "id": 219,
        "name": "Administrateur"
      },
      "start_date": "1933-01-01",
      "end_date": "1933-12-31"
    },
    {
      "issuer": {
        "id": 5139,
        "name": "SOCIÉTÉ NANTAISE D'ECLAIRAGE ET DE FORCE PAR L'ELECTRICITÉ"
      },
      "job": {
        "id": 219,
        "name": "Administrateur"
      },
      "start_date": "1933-01-01",
      "end_date": "1933-12-31"
    },
    {
      "issuer": {
        "id": 2586,
        "name": "Société PARISIENNE POUR L'INDUSTRIE DES CHEMINS DE FER ET DES TRAMWAYS ÉLECTRIQUES"
      },
      "job": {
        "id": 219,
        "name": "Administrateur"
      },
      "start_date": "1933-01-01",
      "end_date": "1933-12-31"
    },
    {
      "issuer": {
        "id": 2586,
        "name": "Société PARISIENNE POUR L'INDUSTRIE DES CHEMINS DE FER ET DES TRAMWAYS ÉLECTRIQUES"
      },
      "job": {
        "id": 219,
        "name": "Administrateur"
      },
      "start_date": "1940-01-01",
      "end_date": "1940-12-31"
    },
    {
      "issuer": {
        "id": 5139,
        "name": "SOCIÉTÉ NANTAISE D'ECLAIRAGE ET DE FORCE PAR L'ELECTRICITÉ"
      },
      "job": {
        "id": 219,
        "name": "Administrateur"
      },
      "start_date": "1940-01-01",
      "end_date": "1945-12-31"
    },
    {
      "issuer": {
        "id": 4410,
        "name": "COMPAGNIE GÉNÉRALE ELECTRIQUE"
      },
      "job": {
        "id": 10019,
        "name": "Commissaire des comptes"
      },
      "start_date": "1940-01-01",
      "end_date": "1945-12-31"
    },
    {
      "issuer": {
        "id": 3368,
        "name": "ELECTRICITE ET GAZ DU NORD"
      },
      "job": {
        "id": 219,
        "name": "Administrateur"
      },
      "start_date": "1940-01-01",
      "end_date": "1945-12-31"
    },
    {
      "issuer": {
        "id": 3103,
        "name": "SOCIETE D'ÉLECTRICITÉ DE PARIS"
      },
      "job": {
        "id": 219,
        "name": "Administrateur"
      },
      "start_date": "1945-01-01",
      "end_date": "1945-12-31"
    },
    {
      "issuer": {
        "id": 4998,
        "name": "COMPAGNIE MINIERE DES GRANDS LACS AFRICAINS"
      },
      "job": {
        "id": 219,
        "name": "Administrateur"
      },
      "start_date": "1945-01-01",
      "end_date": "1945-12-31"
    },
    {
      "issuer": {
        "id": 3956,
        "name": "ATELIERS DE LA MOTOBECANE"
      },
      "job": {
        "id": 219,
        "name": "Administrateur"
      },
      "start_date": "1953-01-01",
      "end_date": "1953-12-31"
    },
    {
      "issuer": {
        "id": 3536,
        "name": "Société Générale de courtage d'Assurances"
      },
      "job": {
        "id": 10019,
        "name": "Commissaire des comptes"
      },
      "start_date": "1953-01-01",
      "end_date": "1953-12-31"
    }
  ],
  "name": "Henri Marchal"
}