{
  "id": 79773,
  "names": [
    "M. Brissonneau"
  ],
  "functions": [
    {
      "issuer": {
        "id": 4109,
        "name": "ANCIENS ÉTABLISSETS BRISSONNEAU ET LOTZ"
      },
      "job": {
        "id": 219,
        "name": "Administrateur"
      },
      "start_date": "1927-01-01",
      "end_date": "1933-12-31"
    },
    {
      "issuer": {
        "id": 4109,
        "name": "ANCIENS ÉTABLISSETS BRISSONNEAU ET LOTZ"
      },
      "job": {
        "id": 219,
        "name": "Administrateur"
      },
      "start_date": "1940-01-01",
      "end_date": "1940-12-31"
    },
    {
      "issuer": {
        "id": 4109,
        "name": "ANCIENS ÉTABLISSETS BRISSONNEAU ET LOTZ"
      },
      "job": {
        "id": 102,
        "name": "Président",
        "short_name": "P."
      },
      "start_date": "1945-01-01",
      "end_date": "1948-12-31"
    },
    {
      "issuer": {
        "id": 4109,
        "name": "ANCIENS ÉTABLISSETS BRISSONNEAU ET LOTZ"
      },
      "job": {
        "id": 189,
        "name": "Président directeur général",
        "short_name": "P.D.G."
      },
      "start_date": "1953-01-01",
      "end_date": "1953-12-31"
    }
  ],
  "name": "M. Brissonneau"
}