{
  "id": 121619,
  "names": [
    "G. Leven"
  ],
  "functions": [
    {
      "issuer": {
        "id": 4232,
        "name": "SOURCE PERRIER"
      },
      "job": {
        "id": 189,
        "name": "Président directeur général",
        "short_name": "P.D.G."
      },
      "start_date": "1953-01-01",
      "end_date": "1953-12-31"
    }
  ],
  "name": "G. Leven"
}