{
  "id": 119101,
  "names": [
    "G. Guicheteau"
  ],
  "functions": [
    {
      "issuer": {
        "id": 10956,
        "name": "POMPES FUNÈBRES REUNIES (Maison Lamy-Trouvain)"
      },
      "job": {
        "id": 219,
        "name": "Administrateur"
      },
      "start_date": "1953-01-01",
      "end_date": "1953-12-31"
    }
  ],
  "name": "G. Guicheteau"
}