{
  "id": 111305,
  "names": [
    "Mustapha Tamzali"
  ],
  "functions": [
    {
      "issuer": {
        "id": 2439,
        "name": "CHEMINS DE FER SUR ROUTES D'ALGERIE"
      },
      "job": {
        "id": 219,
        "name": "Administrateur"
      },
      "start_date": "1948-01-01",
      "end_date": "1953-12-31"
    },
    {
      "issuer": {
        "id": 3583,
        "name": "BANQUE INDUSTRIELLE DE L'AFRIQUE DU NORD"
      },
      "job": {
        "id": 219,
        "name": "Administrateur"
      },
      "start_date": "1953-01-01",
      "end_date": "1953-12-31"
    },
    {
      "issuer": {
        "id": 968,
        "name": "BANQUE DE L'ALGERIE"
      },
      "job": {
        "id": 219,
        "name": "Administrateur"
      },
      "start_date": "1953-01-01",
      "end_date": "1953-12-31"
    }
  ],
  "name": "Mustapha Tamzali"
}