{
  "id": 59905,
  "names": [
    "G. Tartary"
  ],
  "functions": [
    {
      "issuer": {
        "id": 2733,
        "name": "CIE FONCIÈRE DU CHATEAU-D'EAU DE PARIS"
      },
      "job": {
        "id": 219,
        "name": "Administrateur"
      },
      "start_date": "1917-01-01",
      "end_date": "1917-12-31"
    },
    {
      "issuer": {
        "id": 2733,
        "name": "CIE FONCIÈRE DU CHATEAU-D'EAU DE PARIS"
      },
      "job": {
        "id": 219,
        "name": "Administrateur"
      },
      "start_date": "1923-01-01",
      "end_date": "1923-12-31"
    },
    {
      "issuer": {
        "id": 2733,
        "name": "CIE FONCIÈRE DU CHATEAU-D'EAU DE PARIS"
      },
      "job": {
        "id": 219,
        "name": "Administrateur"
      },
      "start_date": "1927-01-01",
      "end_date": "1927-12-31"
    },
    {
      "issuer": {
        "id": 2733,
        "name": "CIE FONCIÈRE DU CHATEAU-D'EAU DE PARIS"
      },
      "job": {
        "id": 102,
        "name": "Président",
        "short_name": "P."
      },
      "start_date": "1933-01-01",
      "end_date": "1933-12-31"
    }
  ],
  "name": "G. Tartary"
}