{
  "id": 112253,
  "names": [
    "Cl. Bailaguy"
  ],
  "functions": [
    {
      "issuer": {
        "id": 1683,
        "name": "COMPAGNIE DES HAUTS-FOURNEAUX DE CHASSE (ISERE)"
      },
      "job": {
        "id": 10019,
        "name": "Commissaire des comptes"
      },
      "start_date": "1948-01-01",
      "end_date": "1948-12-31"
    }
  ],
  "name": "Cl. Bailaguy"
}