{
  "id": 102318,
  "names": [
    "Arliguy"
  ],
  "functions": [
    {
      "issuer": {
        "id": 4419,
        "name": "COMPAGNIE COMMERCIALE ET INDUSTRIELLE DU MIDI"
      },
      "job": {
        "id": 125,
        "name": "Administrateur Directeur",
        "short_name": "Ad. Dir."
      },
      "start_date": "1940-01-01",
      "end_date": "1940-12-31"
    }
  ],
  "name": "Arliguy"
}