{
  "id": 49898,
  "names": [
    "Michel Berger"
  ],
  "functions": [
    {
      "issuer": {
        "id": 1629,
        "name": "Chargeurs réunis, Compagnie française de navigation à vapeur"
      },
      "job": {
        "id": 10019,
        "name": "Commissaire des comptes"
      },
      "start_date": "1903-01-01",
      "end_date": "1903-12-31"
    },
    {
      "issuer": {
        "id": 2847,
        "name": "COMPAGNIE DU BOLEO"
      },
      "job": {
        "id": 10019,
        "name": "Commissaire des comptes"
      },
      "start_date": "1903-01-01",
      "end_date": "1908-12-31"
    }
  ],
  "name": "Michel Berger"
}