{
  "id": 98031,
  "names": [
    "Luis T. A. Pereira"
  ],
  "functions": [
    {
      "issuer": {
        "id": 2617,
        "name": "COMPAGNIE DU CHEMIN DE FER DE SAO PAULO ET RIO GRANDE"
      },
      "job": {
        "id": 219,
        "name": "Administrateur"
      },
      "start_date": "1940-01-01",
      "end_date": "1953-12-31"
    }
  ],
  "name": "Luis T. A. Pereira"
}