{
  "id": 93262,
  "names": [
    "M. Gatté"
  ],
  "functions": [
    {
      "issuer": {
        "id": 11030,
        "name": "SOCIÉTÉ IMMOBILIÈRE ET HÔTELIÈRE DE BIARRITZ"
      },
      "job": {
        "id": 10420,
        "name": "Liquidateur"
      },
      "start_date": "1933-01-01",
      "end_date": "1933-12-31"
    }
  ],
  "name": "M. Gatté"
}