{
  "id": 47879,
  "names": [
    "Charles de Lacombe"
  ],
  "functions": [
    {
      "issuer": {
        "id": 2089,
        "name": "La Clémentine, compagnie d'assurances et de réassurances à primes fixes, contre l'incendie, le chômage, l'explosion du gaz, des appareils à vapeur, des effets de la foudre et toutes autres opérations d'assurances"
      },
      "job": {
        "id": 141,
        "name": "Directeur Général",
        "short_name": "D.G."
      },
      "start_date": "1889-01-01",
      "end_date": "1898-12-31"
    },
    {
      "issuer": {
        "id": 2100,
        "name": "LE PATRIMOINE COMPAGNIE ANONYME D'ASSURANCES SUR LA VIE"
      },
      "job": {
        "id": 219,
        "name": "Administrateur"
      },
      "start_date": "1893-01-01",
      "end_date": "1893-12-31"
    },
    {
      "issuer": {
        "id": 2100,
        "name": "LE PATRIMOINE COMPAGNIE ANONYME D'ASSURANCES SUR LA VIE"
      },
      "job": {
        "id": 219,
        "name": "Administrateur"
      },
      "start_date": "1898-01-01",
      "end_date": "1898-12-31"
    },
    {
      "issuer": {
        "id": 2100,
        "name": "LE PATRIMOINE COMPAGNIE ANONYME D'ASSURANCES SUR LA VIE"
      },
      "job": {
        "id": 219,
        "name": "Administrateur"
      },
      "start_date": "1903-01-01",
      "end_date": "1903-12-31"
    }
  ],
  "name": "Charles de Lacombe"
}