{
  "id": 110782,
  "names": [
    "A. Racinet"
  ],
  "functions": [
    {
      "issuer": {
        "id": 151,
        "name": "LA NATIONALE Cie D'ASSURANCES CONTRE L'INCENDIE ET LES EXPLOSIONS"
      },
      "job": {
        "id": 219,
        "name": "Administrateur"
      },
      "start_date": "1948-01-01",
      "end_date": "1953-12-31"
    }
  ],
  "name": "A. Racinet"
}