{
  "id": 71064,
  "names": [
    "W. S. Wilson"
  ],
  "functions": [
    {
      "issuer": {
        "id": 10201,
        "name": "THE WHIM WELL COPPER MINES LIMITED"
      },
      "job": {
        "id": 219,
        "name": "Administrateur"
      },
      "start_date": "1917-01-01",
      "end_date": "1917-12-31"
    }
  ],
  "name": "W. S. Wilson"
}