{
  "id": 99283,
  "names": [
    "J. Montmartin"
  ],
  "functions": [
    {
      "issuer": {
        "id": 11007,
        "name": "MAISON TH. PILIER"
      },
      "job": {
        "id": 219,
        "name": "Administrateur"
      },
      "start_date": "1940-01-01",
      "end_date": "1948-12-31"
    }
  ],
  "name": "J. Montmartin"
}