{
  "id": 72189,
  "names": [
    "D. Uberti"
  ],
  "functions": [
    {
      "issuer": {
        "id": 2960,
        "name": "DINAMITE NOBEL"
      },
      "job": {
        "id": 219,
        "name": "Administrateur"
      },
      "start_date": "1923-01-01",
      "end_date": "1933-12-31"
    }
  ],
  "name": "D. Uberti"
}