{
  "id": 120392,
  "names": [
    "A. Nussbaumer"
  ],
  "functions": [
    {
      "issuer": {
        "id": 3174,
        "name": "MONTECATINI (Société Générale pour l'Industrie Minière et Agricole)"
      },
      "job": {
        "id": 219,
        "name": "Administrateur"
      },
      "start_date": "1953-01-01",
      "end_date": "1953-12-31"
    }
  ],
  "name": "A. Nussbaumer"
}