{
  "id": 81766,
  "names": [
    "Escabas (fils)"
  ],
  "functions": [
    {
      "issuer": {
        "id": 10496,
        "name": "Etablissements A. Guillaumet"
      },
      "job": {
        "id": 219,
        "name": "Administrateur"
      },
      "start_date": "1927-01-01",
      "end_date": "1927-12-31"
    }
  ],
  "name": "Escabas (fils)"
}