{
  "id": 45268,
  "names": [
    "P. Guth"
  ],
  "functions": [
    {
      "issuer": {
        "id": 1689,
        "name": "Compagnie générale des Marchés"
      },
      "job": {
        "id": 219,
        "name": "Administrateur"
      },
      "start_date": "1889-01-01",
      "end_date": "1893-12-31"
    }
  ],
  "name": "P. Guth"
}