{
  "id": 115415,
  "names": [
    "William J. Gunther"
  ],
  "functions": [
    {
      "issuer": {
        "id": 4929,
        "name": "LIEBIG'S EXTRACT OF MEAT COMPANY LIMITED"
      },
      "job": {
        "id": 219,
        "name": "Administrateur"
      },
      "start_date": "1948-01-01",
      "end_date": "1953-12-31"
    }
  ],
  "name": "William J. Gunther"
}