{
  "id": 78426,
  "names": [
    "J. Schweitzer"
  ],
  "functions": [
    {
      "issuer": {
        "id": 10472,
        "name": "SOCIÉTÉ DES ÉTABLISSEMENTS AGRICULTURAL"
      },
      "job": {
        "id": 219,
        "name": "Administrateur"
      },
      "start_date": "1923-01-01",
      "end_date": "1923-12-31"
    }
  ],
  "name": "J. Schweitzer"
}