{
  "id": 118896,
  "names": [
    "de Canisy"
  ],
  "functions": [
    {
      "issuer": {
        "id": 1350,
        "name": "COMPAGNIE CENTRALE D'ECLAIRAGE PAR LE GAZ (LEBON ET Cie)"
      },
      "job": {
        "id": 10637,
        "name": "Membre du Comité de surveillance"
      },
      "start_date": "1953-01-01",
      "end_date": "1953-12-31"
    }
  ],
  "name": "de Canisy"
}