{
  "id": 50113,
  "names": [
    "L. Simon"
  ],
  "functions": [
    {
      "issuer": {
        "id": 3123,
        "name": "ACIÉRIES DE MICHEVILLE"
      },
      "job": {
        "id": 219,
        "name": "Administrateur"
      },
      "start_date": "1903-01-01",
      "end_date": "1903-12-31"
    },
    {
      "issuer": {
        "id": 11408,
        "name": "Société Nouvelle DE CONSTRUCTIONS TELEPHONIQUES"
      },
      "job": {
        "id": 10019,
        "name": "Commissaire des comptes"
      },
      "start_date": "1945-01-01",
      "end_date": "1948-12-31"
    }
  ],
  "name": "L. Simon"
}