{
  "id": 102783,
  "names": [
    "C. Dessenon"
  ],
  "functions": [
    {
      "issuer": {
        "id": 1378,
        "name": "Compagnie des Salins du Midi"
      },
      "job": {
        "id": 219,
        "name": "Administrateur"
      },
      "start_date": "1940-01-01",
      "end_date": "1940-12-31"
    }
  ],
  "name": "C. Dessenon"
}