{
  "id": 82099,
  "names": [
    "L. Lewandowsky"
  ],
  "functions": [
    {
      "issuer": {
        "id": 3275,
        "name": "CIE GLE DE TRAMWAYS DE BUENOS-AYRES"
      },
      "job": {
        "id": 219,
        "name": "Administrateur"
      },
      "start_date": "1927-01-01",
      "end_date": "1927-12-31"
    }
  ],
  "name": "L. Lewandowsky"
}