{
  "id": 80664,
  "names": [
    "Froutet"
  ],
  "functions": [
    {
      "issuer": {
        "id": 10721,
        "name": "SOCIETE D'ENTREPRISES AFRICAINES"
      },
      "job": {
        "id": 219,
        "name": "Administrateur"
      },
      "start_date": "1927-01-01",
      "end_date": "1927-12-31"
    }
  ],
  "name": "Froutet"
}