{
  "id": 40946,
  "names": [
    "de Molinari"
  ],
  "functions": [
    {
      "issuer": {
        "id": 2293,
        "name": "La Rente Foncière"
      },
      "job": {
        "id": 219,
        "name": "Administrateur"
      },
      "start_date": "1880-01-01",
      "end_date": "1883-12-31"
    },
    {
      "issuer": {
        "id": 1935,
        "name": "CRÉDIT FONCIER FRANCO-CANADIEN"
      },
      "job": {
        "id": 10245,
        "name": "administrateurs résidents en étrangers"
      },
      "start_date": "1883-01-01",
      "end_date": "1883-12-31"
    },
    {
      "issuer": {
        "id": 1935,
        "name": "CRÉDIT FONCIER FRANCO-CANADIEN"
      },
      "job": {
        "id": 219,
        "name": "Administrateur"
      },
      "start_date": "1889-01-01",
      "end_date": "1912-12-31"
    }
  ],
  "name": "de Molinari"
}