{
  "id": 52081,
  "names": [
    "Planté"
  ],
  "functions": [
    {
      "issuer": {
        "id": 5478,
        "name": "SOCIÉTÉ INDO-CHINOISE D'ÉLECTRICITÉ"
      },
      "job": {
        "id": 219,
        "name": "Administrateur"
      },
      "start_date": "1923-01-01",
      "end_date": "1923-12-31"
    }
  ],
  "name": "Planté"
}