{
  "id": 124658,
  "names": [
    "Lassuchelte"
  ],
  "functions": [
    {
      "issuer": {
        "id": 1627,
        "name": "Compagnie des Bateaux-Omnibus"
      },
      "job": {
        "id": 219,
        "name": "Administrateur"
      },
      "start_date": "1880-01-01",
      "end_date": "1880-12-31"
    }
  ],
  "name": "Lassuchelte"
}