{
  "id": 97875,
  "names": [
    "J. Pilecki"
  ],
  "functions": [
    {
      "issuer": {
        "id": 4827,
        "name": "Compagnie Franco-Polonaise de Chemins de Fer"
      },
      "job": {
        "id": 10019,
        "name": "Commissaire des comptes"
      },
      "start_date": "1940-01-01",
      "end_date": "1948-12-31"
    }
  ],
  "name": "J. Pilecki"
}