{
  "id": 111701,
  "names": [
    "P. Rivière"
  ],
  "functions": [
    {
      "issuer": {
        "id": 10730,
        "name": "Cie FRANÇAISE DE TRAMWAYS ET D'ÉCLAIRAGE ÉLECTRIQUES DE SHANGHAI"
      },
      "job": {
        "id": 102,
        "name": "Président",
        "short_name": "P."
      },
      "start_date": "1948-01-01",
      "end_date": "1948-12-31"
    }
  ],
  "name": "P. Rivière"
}