{
  "id": 89801,
  "names": [
    "V. Prevel"
  ],
  "functions": [
    {
      "issuer": {
        "id": 5130,
        "name": "SOCIÉTÉ LORRAINE MINIÈRE ET METALLURGIQUE"
      },
      "job": {
        "id": 219,
        "name": "Administrateur"
      },
      "start_date": "1933-01-01",
      "end_date": "1933-12-31"
    }
  ],
  "name": "V. Prevel"
}