{
  "id": 120273,
  "names": [
    "A. Pemerle"
  ],
  "functions": [
    {
      "issuer": {
        "id": 4188,
        "name": "PHILLIPS ET PAIN"
      },
      "job": {
        "id": 219,
        "name": "Administrateur"
      },
      "start_date": "1953-01-01",
      "end_date": "1953-12-31"
    }
  ],
  "name": "A. Pemerle"
}