{
  "id": 45806,
  "names": [
    "J. I. Tsatsos Théos"
  ],
  "functions": [
    {
      "issuer": {
        "id": 1939,
        "name": "Banque hellénique de crédit général"
      },
      "job": {
        "id": 219,
        "name": "Administrateur"
      },
      "start_date": "1893-01-01",
      "end_date": "1893-12-31"
    }
  ],
  "name": "J. I. Tsatsos Théos"
}