{
  "id": 126587,
  "names": [
    "Max Duval"
  ],
  "functions": [
    {
      "issuer": {
        "id": 4424,
        "name": "FONDERIE DE PRECISION"
      },
      "job": {
        "id": 219,
        "name": "Administrateur"
      },
      "start_date": "1948-01-01",
      "end_date": "1953-12-31"
    },
    {
      "issuer": {
        "id": 4716,
        "name": "Les Abrasifs du Sud-Ouest (Anciennement \"Aluminium du Sud-Ouest\")"
      },
      "job": {
        "id": 219,
        "name": "Administrateur"
      },
      "start_date": "1953-01-01",
      "end_date": "1953-12-31"
    }
  ],
  "name": "Max Duval"
}