{
  "id": 47890,
  "names": [
    "Calvet-Besson"
  ],
  "functions": [
    {
      "issuer": {
        "id": 3524,
        "name": "LA PRÉSERVATRICE Cie D'ASSURANCES A PRIMES FIXES CONTRE LES ACCIDENTS"
      },
      "job": {
        "id": 219,
        "name": "Administrateur"
      },
      "start_date": "1898-01-01",
      "end_date": "1898-12-31"
    }
  ],
  "name": "Calvet-Besson"
}