{
  "id": 42581,
  "names": [
    "Feray"
  ],
  "functions": [
    {
      "issuer": {
        "id": 882,
        "name": "Comptoir de l'Industrie linière"
      },
      "job": {
        "id": 219,
        "name": "Administrateur"
      },
      "start_date": "1880-01-01",
      "end_date": "1889-12-31"
    }
  ],
  "name": "Feray"
}