{
  "id": 72648,
  "names": [
    "A C. Macdonald"
  ],
  "functions": [
    {
      "issuer": {
        "id": 2894,
        "name": "The Nitrate Railways Company limited"
      },
      "job": {
        "id": 219,
        "name": "Administrateur"
      },
      "start_date": "1923-01-01",
      "end_date": "1927-12-31"
    }
  ],
  "name": "A C. Macdonald"
}