{
  "id": 48142,
  "names": [
    "Bureau"
  ],
  "functions": [
    {
      "issuer": {
        "id": 1631,
        "name": "Compagnie des Mines de Houille d'Annezin"
      },
      "job": {
        "id": 219,
        "name": "Administrateur"
      },
      "start_date": "1898-01-01",
      "end_date": "1898-12-31"
    }
  ],
  "name": "Bureau"
}