{
  "id": 79041,
  "names": [
    "J.-C. Cini"
  ],
  "functions": [
    {
      "issuer": {
        "id": 1240,
        "name": "Société Italienne des Chemins de fer Méridionaux"
      },
      "job": {
        "id": 219,
        "name": "Administrateur"
      },
      "start_date": "1927-01-01",
      "end_date": "1927-12-31"
    }
  ],
  "name": "J.-C. Cini"
}