{
  "id": 124715,
  "names": [
    "Copin"
  ],
  "functions": [
    {
      "issuer": {
        "id": 2027,
        "name": "Crédit Rural de France"
      },
      "job": {
        "id": 10421,
        "name": "Syndic"
      },
      "start_date": "1880-01-01",
      "end_date": "1880-12-31"
    }
  ],
  "name": "Copin"
}