{
  "id": 52299,
  "names": [
    "F. Hamoir"
  ],
  "functions": [
    {
      "issuer": {
        "id": 2766,
        "name": "SOCIETÉ MÉTALLURGIQUE DE SENELLE-MAUBEUGE"
      },
      "job": {
        "id": 219,
        "name": "Administrateur"
      },
      "start_date": "1908-01-01",
      "end_date": "1912-12-31"
    }
  ],
  "name": "F. Hamoir"
}