{
  "id": 92206,
  "names": [
    "E. Chanon"
  ],
  "functions": [
    {
      "issuer": {
        "id": 10644,
        "name": "SOCIÉTÉ DE CARBONISATION ET DE DISTILLATION DES COMBUSTIBLES"
      },
      "job": {
        "id": 219,
        "name": "Administrateur"
      },
      "start_date": "1933-01-01",
      "end_date": "1933-12-31"
    }
  ],
  "name": "E. Chanon"
}