{
  "id": 70936,
  "names": [
    "A. Crépin"
  ],
  "functions": [
    {
      "issuer": {
        "id": 1656,
        "name": "SOCIÉTÉ HOUILLERE DE LIEVIN"
      },
      "job": {
        "id": 219,
        "name": "Administrateur"
      },
      "start_date": "1917-01-01",
      "end_date": "1917-12-31"
    }
  ],
  "name": "A. Crépin"
}