{
  "id": 70717,
  "names": [
    "F. J. Dormer"
  ],
  "functions": [
    {
      "issuer": {
        "id": 2824,
        "name": "VILLAGE DEEP, LIMITED"
      },
      "job": {
        "id": 10236,
        "name": "administrateur à Londres"
      },
      "start_date": "1917-01-01",
      "end_date": "1917-12-31"
    },
    {
      "issuer": {
        "id": 2825,
        "name": "THE VILLAGE MAIN REEF GOLD MINING C° LIMITED"
      },
      "job": {
        "id": 219,
        "name": "Administrateur"
      },
      "start_date": "1917-01-01",
      "end_date": "1917-12-31"
    },
    {
      "issuer": {
        "id": 2824,
        "name": "VILLAGE DEEP, LIMITED"
      },
      "job": {
        "id": 10241,
        "name": "administrateur dans le Comité central à Londres"
      },
      "start_date": "1923-01-01",
      "end_date": "1923-12-31"
    },
    {
      "issuer": {
        "id": 2824,
        "name": "VILLAGE DEEP, LIMITED"
      },
      "job": {
        "id": 10236,
        "name": "administrateur à Londres"
      },
      "start_date": "1927-01-01",
      "end_date": "1927-12-31"
    }
  ],
  "name": "F. J. Dormer"
}