{
  "id": 126012,
  "names": [
    "John Martin"
  ],
  "functions": [
    {
      "issuer": {
        "id": 2771,
        "name": "CITY DEEP LIMITED"
      },
      "job": {
        "id": 219,
        "name": "Administrateur"
      },
      "start_date": "1933-01-01",
      "end_date": "1933-12-31"
    },
    {
      "issuer": {
        "id": 3352,
        "name": "THE CENTRAL MINING AND INVESTMENT CORPORATION LTD"
      },
      "job": {
        "id": 219,
        "name": "Administrateur"
      },
      "start_date": "1933-01-01",
      "end_date": "1933-12-31"
    },
    {
      "issuer": {
        "id": 2814,
        "name": "Rand Mines, ld"
      },
      "job": {
        "id": 219,
        "name": "Administrateur"
      },
      "start_date": "1933-01-01",
      "end_date": "1933-12-31"
    },
    {
      "issuer": {
        "id": 4999,
        "name": "MODDERFONTEIN B. GOLD MINES LTD"
      },
      "job": {
        "id": 219,
        "name": "Administrateur"
      },
      "start_date": "1933-01-01",
      "end_date": "1933-12-31"
    },
    {
      "issuer": {
        "id": 2772,
        "name": "CONSOLIDATED MAIN REEF MINES AND ESTATE, LIMITED"
      },
      "job": {
        "id": 219,
        "name": "Administrateur"
      },
      "start_date": "1933-01-01",
      "end_date": "1933-12-31"
    },
    {
      "issuer": {
        "id": 2796,
        "name": "GELDENHUIS DEEP"
      },
      "job": {
        "id": 219,
        "name": "Administrateur"
      },
      "start_date": "1933-01-01",
      "end_date": "1933-12-31"
    },
    {
      "issuer": {
        "id": 2791,
        "name": "EAST RAND PROPRIETARY MINES, LIMITED"
      },
      "job": {
        "id": 219,
        "name": "Administrateur"
      },
      "start_date": "1933-01-01",
      "end_date": "1933-12-31"
    },
    {
      "issuer": {
        "id": 2824,
        "name": "VILLAGE DEEP, LIMITED"
      },
      "job": {
        "id": 219,
        "name": "Administrateur"
      },
      "start_date": "1933-01-01",
      "end_date": "1933-12-31"
    },
    {
      "issuer": {
        "id": 2840,
        "name": "TRANSVAAL CONSOLIDATED LAND AND EXPLORATION COMPANY, LIMITED"
      },
      "job": {
        "id": 219,
        "name": "Administrateur"
      },
      "start_date": "1933-01-01",
      "end_date": "1933-12-31"
    },
    {
      "issuer": {
        "id": 2773,
        "name": "CROWN MINES, LIMITED"
      },
      "job": {
        "id": 219,
        "name": "Administrateur"
      },
      "start_date": "1933-01-01",
      "end_date": "1933-12-31"
    },
    {
      "issuer": {
        "id": 3352,
        "name": "THE CENTRAL MINING AND INVESTMENT CORPORATION LTD"
      },
      "job": {
        "id": 219,
        "name": "Administrateur"
      },
      "start_date": "1940-01-01",
      "end_date": "1940-12-31"
    },
    {
      "issuer": {
        "id": 2771,
        "name": "CITY DEEP LIMITED"
      },
      "job": {
        "id": 219,
        "name": "Administrateur"
      },
      "start_date": "1940-01-01",
      "end_date": "1945-12-31"
    },
    {
      "issuer": {
        "id": 2840,
        "name": "TRANSVAAL CONSOLIDATED LAND AND EXPLORATION COMPANY, LIMITED"
      },
      "job": {
        "id": 219,
        "name": "Administrateur"
      },
      "start_date": "1940-01-01",
      "end_date": "1945-12-31"
    },
    {
      "issuer": {
        "id": 2796,
        "name": "GELDENHUIS DEEP"
      },
      "job": {
        "id": 219,
        "name": "Administrateur"
      },
      "start_date": "1940-01-01",
      "end_date": "1948-12-31"
    },
    {
      "issuer": {
        "id": 2814,
        "name": "Rand Mines, ld"
      },
      "job": {
        "id": 102,
        "name": "Président",
        "short_name": "P."
      },
      "start_date": "1940-01-01",
      "end_date": "1948-12-31"
    },
    {
      "issuer": {
        "id": 2773,
        "name": "CROWN MINES, LIMITED"
      },
      "job": {
        "id": 102,
        "name": "Président",
        "short_name": "P."
      },
      "start_date": "1940-01-01",
      "end_date": "1948-12-31"
    },
    {
      "issuer": {
        "id": 4999,
        "name": "MODDERFONTEIN B. GOLD MINES LTD"
      },
      "job": {
        "id": 219,
        "name": "Administrateur"
      },
      "start_date": "1940-01-01",
      "end_date": "1948-12-31"
    },
    {
      "issuer": {
        "id": 2791,
        "name": "EAST RAND PROPRIETARY MINES, LIMITED"
      },
      "job": {
        "id": 219,
        "name": "Administrateur"
      },
      "start_date": "1940-01-01",
      "end_date": "1948-12-31"
    },
    {
      "issuer": {
        "id": 3352,
        "name": "THE CENTRAL MINING AND INVESTMENT CORPORATION LTD"
      },
      "job": {
        "id": 10242,
        "name": "sous-censseur"
      },
      "start_date": "1945-01-01",
      "end_date": "1945-12-31"
    },
    {
      "issuer": {
        "id": 2819,
        "name": "Rose Deep, Ld"
      },
      "job": {
        "id": 219,
        "name": "Administrateur"
      },
      "start_date": "1945-01-01",
      "end_date": "1948-12-31"
    }
  ],
  "name": "John Martin"
}