{
  "id": 104275,
  "names": [
    "E. Bennink"
  ],
  "functions": [
    {
      "issuer": {
        "id": 4924,
        "name": "HANDELSVEREENIGING AMSTERDAM (H.V.A.)"
      },
      "job": {
        "id": 11223,
        "name": "Membre du Conseil de Direction"
      },
      "start_date": "1940-01-01",
      "end_date": "1940-12-31"
    },
    {
      "issuer": {
        "id": 4924,
        "name": "HANDELSVEREENIGING AMSTERDAM (H.V.A.)"
      },
      "job": {
        "id": 219,
        "name": "Administrateur"
      },
      "start_date": "1945-01-01",
      "end_date": "1948-12-31"
    }
  ],
  "name": "E. Bennink"
}