{
  "id": 95322,
  "names": [
    "G. Laureau"
  ],
  "functions": [
    {
      "issuer": {
        "id": 5483,
        "name": "Cie DES MINES DE POTASSE DE BLODELSHEIM (ALSACE)"
      },
      "job": {
        "id": 219,
        "name": "Administrateur"
      },
      "start_date": "1940-01-01",
      "end_date": "1940-12-31"
    }
  ],
  "name": "G. Laureau"
}