{
  "id": 49313,
  "names": [
    "E. Chaudoir"
  ],
  "functions": [
    {
      "issuer": {
        "id": 1716,
        "name": "Compagnie des Eaux de la Banlieue de Paris"
      },
      "job": {
        "id": 125,
        "name": "Administrateur Directeur",
        "short_name": "Ad. Dir."
      },
      "start_date": "1903-01-01",
      "end_date": "1908-12-31"
    },
    {
      "issuer": {
        "id": 1716,
        "name": "Compagnie des Eaux de la Banlieue de Paris"
      },
      "job": {
        "id": 219,
        "name": "Administrateur"
      },
      "start_date": "1912-01-01",
      "end_date": "1912-12-31"
    }
  ],
  "name": "E. Chaudoir"
}