{
  "id": 120561,
  "names": [
    "L. Sellier"
  ],
  "functions": [
    {
      "issuer": {
        "id": 4029,
        "name": "MULTIPLEX (Compagnie Industrielle des Bois Contreplaqués)"
      },
      "job": {
        "id": 219,
        "name": "Administrateur"
      },
      "start_date": "1953-01-01",
      "end_date": "1953-12-31"
    },
    {
      "issuer": {
        "id": 4359,
        "name": "Compagnie d'Exploitations Commerciales Africaines"
      },
      "job": {
        "id": 219,
        "name": "Administrateur"
      },
      "start_date": "1953-01-01",
      "end_date": "1953-12-31"
    },
    {
      "issuer": {
        "id": 3875,
        "name": "COMPAGNIE GÉNÉRALE DES PLANTATIONS ET PALMERAIES DE L'OGOOUÉ"
      },
      "job": {
        "id": 102,
        "name": "Président",
        "short_name": "P."
      },
      "start_date": "1953-01-01",
      "end_date": "1953-12-31"
    },
    {
      "issuer": {
        "id": 3859,
        "name": "COMPAGNIE FORESTIÈRE DE L'INDÉNIE"
      },
      "job": {
        "id": 219,
        "name": "Administrateur"
      },
      "start_date": "1953-01-01",
      "end_date": "1953-12-31"
    }
  ],
  "name": "L. Sellier"
}