{
  "id": 103185,
  "names": [
    "J. Aymé"
  ],
  "functions": [
    {
      "issuer": {
        "id": 3845,
        "name": "SOCIETE AFRICAINE FORESTIÈRE ET AGRICOLE (S. A. F. A.)"
      },
      "job": {
        "id": 219,
        "name": "Administrateur"
      },
      "start_date": "1940-01-01",
      "end_date": "1953-12-31"
    }
  ],
  "name": "J. Aymé"
}