{
  "id": 106943,
  "names": [
    "Robinson"
  ],
  "functions": [
    {
      "issuer": {
        "id": 717,
        "name": "Compagnie du Parc de Bercy"
      },
      "job": {
        "id": 219,
        "name": "Administrateur"
      },
      "start_date": "1945-01-01",
      "end_date": "1948-12-31"
    }
  ],
  "name": "Robinson"
}