{
  "id": 53654,
  "names": [
    "Moukbine"
  ],
  "functions": [
    {
      "issuer": {
        "id": 2938,
        "name": "SOCIETE DU NAPHTE DE BAKOU"
      },
      "job": {
        "id": 219,
        "name": "Administrateur"
      },
      "start_date": "1908-01-01",
      "end_date": "1908-12-31"
    }
  ],
  "name": "Moukbine"
}