{
  "id": 74885,
  "names": [
    "Borzynski"
  ],
  "functions": [
    {
      "issuer": {
        "id": 10036,
        "name": "ÉTABLISSEMENTS L. BLÉRIOT"
      },
      "job": {
        "id": 219,
        "name": "Administrateur"
      },
      "start_date": "1923-01-01",
      "end_date": "1923-12-31"
    },
    {
      "issuer": {
        "id": 3397,
        "name": "GRANDS MAGASINS \" A LA VILLE DE SAINT-DENIS\""
      },
      "job": {
        "id": 219,
        "name": "Administrateur"
      },
      "start_date": "1923-01-01",
      "end_date": "1927-12-31"
    }
  ],
  "name": "Borzynski"
}