{
  "id": 52095,
  "names": [
    "Ad. May"
  ],
  "functions": [
    {
      "issuer": {
        "id": 1236,
        "name": "CIE GÉNÉRALE BELGE POUR L'ÉCLAIRAGE ET LE CHAUFFAGE PAR LE GAZ"
      },
      "job": {
        "id": 232,
        "name": "Commissaire de surveillance"
      },
      "start_date": "1903-01-01",
      "end_date": "1903-12-31"
    },
    {
      "issuer": {
        "id": 1236,
        "name": "CIE GÉNÉRALE BELGE POUR L'ÉCLAIRAGE ET LE CHAUFFAGE PAR LE GAZ"
      },
      "job": {
        "id": 232,
        "name": "Commissaire de surveillance"
      },
      "start_date": "1908-01-01",
      "end_date": "1908-12-31"
    },
    {
      "issuer": {
        "id": 2699,
        "name": "Compagnie d'Electricité de Varsovie"
      },
      "job": {
        "id": 219,
        "name": "Administrateur"
      },
      "start_date": "1908-01-01",
      "end_date": "1912-12-31"
    }
  ],
  "name": "Ad. May"
}