{
  "id": 55754,
  "names": [
    "E. Sénéchal de la Grange"
  ],
  "functions": [
    {
      "issuer": {
        "id": 2932,
        "name": "Compania Huanchaca de Bolivia"
      },
      "job": {
        "id": 219,
        "name": "Administrateur"
      },
      "start_date": "1912-01-01",
      "end_date": "1912-12-31"
    }
  ],
  "name": "E. Sénéchal de la Grange"
}