{
  "id": 114676,
  "names": [
    "P. Degonde"
  ],
  "functions": [
    {
      "issuer": {
        "id": 4854,
        "name": "S.A.F.I.C. (S.A. Française pour l'Importation du Caoutchouc) (Alcan et Cie)"
      },
      "job": {
        "id": 219,
        "name": "Administrateur"
      },
      "start_date": "1948-01-01",
      "end_date": "1953-12-31"
    }
  ],
  "name": "P. Degonde"
}