{
  "id": 41879,
  "names": [
    "Chauffard"
  ],
  "functions": [
    {
      "issuer": {
        "id": 2099,
        "name": "L'AIGLE COMPAGNIE FRANÇAISE D'ASSURANCES SUR LA VIE"
      },
      "job": {
        "id": 219,
        "name": "Administrateur"
      },
      "start_date": "1883-01-01",
      "end_date": "1883-12-31"
    }
  ],
  "name": "Chauffard"
}