{
  "id": 50912,
  "names": [
    "A. Mortier"
  ],
  "functions": [
    {
      "issuer": {
        "id": 2964,
        "name": "SOCIÉTÉ COTONNIERE RUSSO-FRANÇAISE"
      },
      "job": {
        "id": 219,
        "name": "Administrateur"
      },
      "start_date": "1917-01-01",
      "end_date": "1923-12-31"
    },
    {
      "issuer": {
        "id": 497,
        "name": "Compagnie des Chemins de fer de l'Est"
      },
      "job": {
        "id": 219,
        "name": "Administrateur"
      },
      "start_date": "1917-01-01",
      "end_date": "1933-12-31"
    },
    {
      "issuer": {
        "id": 2964,
        "name": "SOCIÉTÉ COTONNIERE RUSSO-FRANÇAISE"
      },
      "job": {
        "id": 219,
        "name": "Administrateur"
      },
      "start_date": "1927-01-01",
      "end_date": "1927-12-31"
    },
    {
      "issuer": {
        "id": 3464,
        "name": "SOCIÉTÉ DE SUCRERIES BRÉSILIENNES Sucreries de Villa-Raffard, Piracicaba, Cupim, Porto-Feliz et Lorena réunies"
      },
      "job": {
        "id": 219,
        "name": "Administrateur"
      },
      "start_date": "1933-01-01",
      "end_date": "1933-12-31"
    },
    {
      "issuer": {
        "id": 2714,
        "name": "CIE GLE DE TRAVAUX D'ÉCLAIRAGE ET DE FORCE (Anciens Etablissements Clemançon)"
      },
      "job": {
        "id": 224,
        "name": "Président d'honneur"
      },
      "start_date": "1940-01-01",
      "end_date": "1940-12-31"
    },
    {
      "issuer": {
        "id": 4305,
        "name": "LA GRANDE MAISON DE BLANC"
      },
      "job": {
        "id": 219,
        "name": "Administrateur"
      },
      "start_date": "1948-01-01",
      "end_date": "1948-12-31"
    }
  ],
  "name": "A. Mortier"
}