{
  "id": 108865,
  "names": [
    "R. Jevelot"
  ],
  "functions": [
    {
      "issuer": {
        "id": 4873,
        "name": "CAOUTCHOUC MANUFACTURÉ \"DYNAMIC\" (Compagnie de)"
      },
      "job": {
        "id": 219,
        "name": "Administrateur"
      },
      "start_date": "1945-01-01",
      "end_date": "1945-12-31"
    },
    {
      "issuer": {
        "id": 4873,
        "name": "CAOUTCHOUC MANUFACTURÉ \"DYNAMIC\" (Compagnie de)"
      },
      "job": {
        "id": 219,
        "name": "Administrateur"
      },
      "start_date": "1953-01-01",
      "end_date": "1953-12-31"
    }
  ],
  "name": "R. Jevelot"
}