{
  "id": 74116,
  "names": [
    "R. Noter"
  ],
  "functions": [
    {
      "issuer": {
        "id": 10571,
        "name": "SOCIÉTÉ DES NAPHTES DU RHARB CENTRAL"
      },
      "job": {
        "id": 219,
        "name": "Administrateur"
      },
      "start_date": "1923-01-01",
      "end_date": "1927-12-31"
    }
  ],
  "name": "R. Noter"
}