{
  "id": 87887,
  "names": [
    "Pierre Barthélémy"
  ],
  "functions": [
    {
      "issuer": {
        "id": 957,
        "name": "BANQUE DE LA GUYANE"
      },
      "job": {
        "id": 107,
        "name": "Directeur",
        "short_name": "Dir."
      },
      "start_date": "1933-01-01",
      "end_date": "1933-12-31"
    },
    {
      "issuer": {
        "id": 11006,
        "name": "PELLETERIES REYNIER (Établissements André Reynier)"
      },
      "job": {
        "id": 219,
        "name": "Administrateur"
      },
      "start_date": "1933-01-01",
      "end_date": "1933-12-31"
    },
    {
      "issuer": {
        "id": 3952,
        "name": "MILLION-GUIET-TUBAUTO"
      },
      "job": {
        "id": 219,
        "name": "Administrateur"
      },
      "start_date": "1945-01-01",
      "end_date": "1945-12-31"
    },
    {
      "issuer": {
        "id": 4183,
        "name": "LE METAL DÉPLOYÉ"
      },
      "job": {
        "id": 219,
        "name": "Administrateur"
      },
      "start_date": "1945-01-01",
      "end_date": "1953-12-31"
    },
    {
      "issuer": {
        "id": 3952,
        "name": "MILLION-GUIET-TUBAUTO"
      },
      "job": {
        "id": 14621,
        "name": "Contrôleur"
      },
      "start_date": "1948-01-01",
      "end_date": "1948-12-31"
    }
  ],
  "name": "Pierre Barthélémy"
}