{
  "id": 103680,
  "names": [
    "Jean Vilgrain"
  ],
  "functions": [
    {
      "issuer": {
        "id": 3895,
        "name": "GRANDS MOULINS VILGRAIN"
      },
      "job": {
        "id": 101,
        "name": "Administrateur Délégué",
        "short_name": "Ad. Dél."
      },
      "start_date": "1940-01-01",
      "end_date": "1940-12-31"
    },
    {
      "issuer": {
        "id": 3895,
        "name": "GRANDS MOULINS VILGRAIN"
      },
      "job": {
        "id": 219,
        "name": "Administrateur"
      },
      "start_date": "1945-01-01",
      "end_date": "1953-12-31"
    }
  ],
  "name": "Jean Vilgrain"
}