{
  "id": 119875,
  "names": [
    "R. Vieux"
  ],
  "functions": [
    {
      "issuer": {
        "id": 2872,
        "name": "COMPAGNIE DES PHOSPHATES ET DU CHEMIN DE FER DE GAFSA"
      },
      "job": {
        "id": 141,
        "name": "Directeur Général",
        "short_name": "D.G."
      },
      "start_date": "1953-01-01",
      "end_date": "1953-12-31"
    }
  ],
  "name": "R. Vieux"
}