{
  "id": 103156,
  "names": [
    "J. Fraissmet"
  ],
  "functions": [
    {
      "issuer": {
        "id": 4322,
        "name": "SOCIÉTÉ COMMERCIALE ET INDUSTRIELLE DE LA COTE D'AFRIQUE"
      },
      "job": {
        "id": 102,
        "name": "Président",
        "short_name": "P."
      },
      "start_date": "1940-01-01",
      "end_date": "1940-12-31"
    }
  ],
  "name": "J. Fraissmet"
}