{
  "id": 90170,
  "names": [
    "Colombo"
  ],
  "functions": [
    {
      "issuer": {
        "id": 10619,
        "name": "ÉLECTRICITÉ ET GAZ DE ROME (Société anglo-romaine pour l'éclairage de Rome par le gaz et autres systèmes)"
      },
      "job": {
        "id": 219,
        "name": "Administrateur"
      },
      "start_date": "1933-01-01",
      "end_date": "1933-12-31"
    }
  ],
  "name": "Colombo"
}