{
  "id": 109507,
  "names": [
    "L. Desfossé"
  ],
  "functions": [
    {
      "issuer": {
        "id": 3885,
        "name": "BISCUITS RAMEY ET LANGLES REUNIS"
      },
      "job": {
        "id": 219,
        "name": "Administrateur"
      },
      "start_date": "1945-01-01",
      "end_date": "1945-12-31"
    }
  ],
  "name": "L. Desfossé"
}