{
  "id": 71221,
  "names": [
    "F.-W. Lunau"
  ],
  "functions": [
    {
      "issuer": {
        "id": 5485,
        "name": "GENERAL MINING AND FINANCE CORPORATION"
      },
      "job": {
        "id": 219,
        "name": "Administrateur"
      },
      "start_date": "1917-01-01",
      "end_date": "1917-12-31"
    }
  ],
  "name": "F.-W. Lunau"
}