{
  "id": 55012,
  "names": [
    "E. Bleyfus"
  ],
  "functions": [
    {
      "issuer": {
        "id": 2583,
        "name": "CIE DES CHEMINS DE FER NOGENTAIS"
      },
      "job": {
        "id": 219,
        "name": "Administrateur"
      },
      "start_date": "1917-01-01",
      "end_date": "1917-12-31"
    }
  ],
  "name": "E. Bleyfus"
}