{
  "id": 47805,
  "names": [
    "Glériot"
  ],
  "functions": [
    {
      "issuer": {
        "id": 1157,
        "name": "L'Abeille, Compagnie d'assurances à primes fixes contre la grêle"
      },
      "job": {
        "id": 219,
        "name": "Administrateur"
      },
      "start_date": "1898-01-01",
      "end_date": "1898-12-31"
    }
  ],
  "name": "Glériot"
}