{
  "id": 50439,
  "names": [
    "Deltour"
  ],
  "functions": [
    {
      "issuer": {
        "id": 3119,
        "name": "Compagnie française d'Eclairage et de Chauffage par le gaz"
      },
      "job": {
        "id": 10019,
        "name": "Commissaire des comptes"
      },
      "start_date": "1903-01-01",
      "end_date": "1908-12-31"
    }
  ],
  "name": "Deltour"
}