{
  "id": 120096,
  "names": [
    "P. Fontant"
  ],
  "functions": [
    {
      "issuer": {
        "id": 4081,
        "name": "UNION DE MINES ET INDUSTRIES ANNEXES"
      },
      "job": {
        "id": 219,
        "name": "Administrateur"
      },
      "start_date": "1953-01-01",
      "end_date": "1953-12-31"
    }
  ],
  "name": "P. Fontant"
}