{
  "id": 74150,
  "names": [
    "E. Liagre"
  ],
  "functions": [
    {
      "issuer": {
        "id": 10574,
        "name": "SOCIETE DES PÉTROLES DE WANKOWA"
      },
      "job": {
        "id": 219,
        "name": "Administrateur"
      },
      "start_date": "1923-01-01",
      "end_date": "1927-12-31"
    }
  ],
  "name": "E. Liagre"
}