{
  "id": 46113,
  "names": [
    "L. de Warenghien"
  ],
  "functions": [
    {
      "issuer": {
        "id": 2994,
        "name": "Cie NOUVELLE DES CIMENTS PORTLAND DU BOULONNAIS"
      },
      "job": {
        "id": 219,
        "name": "Administrateur"
      },
      "start_date": "1893-01-01",
      "end_date": "1908-12-31"
    },
    {
      "issuer": {
        "id": 3066,
        "name": "CIE DES MINES DE VICOIGNE, NŒUX ET DROCOURT"
      },
      "job": {
        "id": 117,
        "name": "Vice-Président",
        "short_name": "V.-Pr."
      },
      "start_date": "1903-01-01",
      "end_date": "1903-12-31"
    },
    {
      "issuer": {
        "id": 3066,
        "name": "CIE DES MINES DE VICOIGNE, NŒUX ET DROCOURT"
      },
      "job": {
        "id": 102,
        "name": "Président",
        "short_name": "P."
      },
      "start_date": "1908-01-01",
      "end_date": "1908-12-31"
    }
  ],
  "name": "L. de Warenghien"
}