{
  "id": 75202,
  "names": [
    "R. Wolff"
  ],
  "functions": [
    {
      "issuer": {
        "id": 5066,
        "name": "BOKA-NOUVEAUTES (Ane. Ets Bokanowsky et Cie)"
      },
      "job": {
        "id": 219,
        "name": "Administrateur"
      },
      "start_date": "1923-01-01",
      "end_date": "1927-12-31"
    },
    {
      "issuer": {
        "id": 4548,
        "name": "Mines et Graphite du Maroc"
      },
      "job": {
        "id": 219,
        "name": "Administrateur"
      },
      "start_date": "1953-01-01",
      "end_date": "1953-12-31"
    }
  ],
  "name": "R. Wolff"
}