{
  "id": 62722,
  "names": [
    "A. W. Kerly"
  ],
  "functions": [
    {
      "issuer": {
        "id": 5051,
        "name": "THE NORTH CAUCASIAN OIL FIELDS, LIMITED"
      },
      "job": {
        "id": 219,
        "name": "Administrateur"
      },
      "start_date": "1917-01-01",
      "end_date": "1927-12-31"
    }
  ],
  "name": "A. W. Kerly"
}