{
  "id": 9998,
  "name": "Paris OTC (Coulisse)",
  "children": [
    {
      "id": 661,
      "name": "Valeurs en banque (cote à terme)"
    },
    {
      "id": 660,
      "name": "Valeurs en banque (au comptant)",
      "children": [
        {
          "id": 663,
          "name": "Fonds d'Etats et de Villes (Fonds d'Etats de Départements et des Villes)"
        },
        {
          "id": 664,
          "name": "Chemins de fer et Transports Divers (Chemins de Fer Transports Divers et Canaux)"
        },
        {
          "id": 669,
          "name": "Mines (Mines, Houillères, Forges et Charbonnages)"
        },
        {
          "id": 667,
          "name": "Valeurs diverses"
        }
      ]
    }
  ],
  "date": "1912-05-15",
  "stock_exchange": {
    "id": 2,
    "name": "Paris OTC (Coulisse)"
  }
}