{
  "id": 9998,
  "name": "Paris OTC (Coulisse)",
  "children": [
    {
      "id": 661,
      "name": "Valeurs en banque (cote à terme)",
      "notations": [
        {
          "id": 205364,
          "name": "Espagne 4%, Extérieure (négoc., ch.fixe, 1f.)",
          "security_id": 2758
        },
        {
          "id": 205321,
          "name": "Phenix esp. juil. 85 ex-c. 11",
          "security_id": 3916
        },
        {
          "id": 205355,
          "name": "Téléphones(société Générale des) a 500 fr., t.p n17301 a 50000, 450fr .p",
          "security_id": 2677
        },
        {
          "id": 204485,
          "name": "Banq. Ottomane, act. Nouv. 500f., 150f.p.",
          "security_id": 1711
        },
        {
          "id": 204504,
          "name": "Turcs (Ch. Ottom.), J. Oct. 75.",
          "security_id": 104175
        },
        {
          "id": 205334,
          "name": "Alpines, j. juin",
          "security_id": 104915
        }
      ]
    },
    {
      "id": 660,
      "name": "Valeurs en banque (au comptant)",
      "children": [
        {
          "id": 662,
          "name": "Valeurs à l'émission (Emissions nouvelles)",
          "notations": [
            {
              "id": 205961,
              "name": "Obl. Credit Foncier Egyptien 4%",
              "security_id": 105235,
              "spot_prices": [
                455,
                452.5
              ]
            },
            {
              "id": 205943,
              "name": "Russie Consolidé 4%, 3e série",
              "security_id": 3833,
              "day_before_spot_price": 99.25
            }
          ]
        },
        {
          "id": 663,
          "name": "Fonds d'Etats et de Villes (Fonds d'Etats de Départements et des Villes)",
          "notations": [
            {
              "id": 205897,
              "name": "Dom Miguel (obl.) ex-c. 3",
              "security_id": 411,
              "spot_prices": [
                80
              ]
            },
            {
              "id": 204500,
              "name": "Obl d'Autriche, 1854. j. oct.",
              "security_id": 104171,
              "spot_prices": [
                700
              ]
            },
            {
              "id": 204512,
              "name": "Obl. Bari",
              "security_id": 104184,
              "spot_prices": [
                65
              ]
            },
            {
              "id": 204605,
              "name": "Obl. Haiti, 500 fr. 8%. j jr",
              "security_id": 104267,
              "spot_prices": [
                175
              ]
            },
            {
              "id": 205594,
              "name": "Obl. Serbes 3%",
              "security_id": 105035,
              "spot_prices": [
                83
              ]
            },
            {
              "id": 205864,
              "name": "Lots Croix Rouge Autrichieune",
              "security_id": 105186
            },
            {
              "id": 204502,
              "name": "Obl. d'Autriche Loze 1858",
              "security_id": 104173,
              "spot_prices": [
                388
              ]
            },
            {
              "id": 204663,
              "name": "Ville Neufchatel",
              "security_id": 104298,
              "spot_prices": [
                22
              ]
            },
            {
              "id": 205849,
              "name": "Obl. Ville de Gand 1868, j. janv. 90",
              "security_id": 105171,
              "day_before_spot_price": 105
            },
            {
              "id": 205851,
              "name": "Obl. Ville de Gand 1883, j. avril 90",
              "security_id": 105173,
              "day_before_spot_price": 95
            },
            {
              "id": 205865,
              "name": "Lots Croix Rouge Hongroise",
              "security_id": 105187
            },
            {
              "id": 205880,
              "name": "Mexicaine (certif. petits bleus",
              "security_id": 105202,
              "day_before_spot_price": 7
            },
            {
              "id": 205338,
              "name": "Dep. du Nord ",
              "security_id": 40531,
              "spot_prices": [
                107
              ]
            },
            {
              "id": 204499,
              "name": "Obl. Russes, 1866. j.sept. 75",
              "security_id": 104170,
              "spot_prices": [
                655
              ]
            },
            {
              "id": 205609,
              "name": "Obl. de Fribourg 1878",
              "security_id": 105038,
              "spot_prices": [
                12
              ]
            },
            {
              "id": 205866,
              "name": "Lots Croix Rouge Italienne",
              "security_id": 105188,
              "day_before_spot_price": 27.5
            },
            {
              "id": 204498,
              "name": "Obl. Russes, 1864.j.juill. 75",
              "security_id": 104169,
              "spot_prices": [
                715
              ]
            },
            {
              "id": 204509,
              "name": "Obl. de Milan 1866",
              "security_id": 104181,
              "spot_prices": [
                12.5
              ]
            },
            {
              "id": 205264,
              "name": "Rente Napolitaine 5%",
              "security_id": 104858,
              "day_before_spot_price": 84.5
            },
            {
              "id": 205615,
              "name": "Ville Bruxelles, 1886, lib",
              "security_id": 105042,
              "spot_prices": [
                99.5
              ]
            },
            {
              "id": 205850,
              "name": "Obl. Ville de Gand 1880, j. 15 juil. 89",
              "security_id": 105172,
              "day_before_spot_price": 97.5
            },
            {
              "id": 205883,
              "name": "Obl. Liege, 1879, j. nov 1890",
              "security_id": 105205,
              "day_before_spot_price": 98
            },
            {
              "id": 204482,
              "name": "Obl. Liege, 1868.j. avril 75",
              "security_id": 1555,
              "spot_prices": [
                103
              ]
            },
            {
              "id": 205806,
              "name": "Obl. Madagascar 6%, 500 fr. p.",
              "security_id": 4169,
              "spot_prices": [
                518.75,
                515
              ]
            },
            {
              "id": 205813,
              "name": "Turcs (Ch. Ottom.), J. Oct. 75.",
              "security_id": 104175,
              "spot_prices": [
                70,
                75.25
              ]
            },
            {
              "id": 204506,
              "name": "Obl. Madrid. j. janvier 71",
              "security_id": 104178,
              "spot_prices": [
                49
              ]
            },
            {
              "id": 204510,
              "name": "Obl. de Venise",
              "security_id": 104182,
              "spot_prices": [
                26
              ]
            },
            {
              "id": 204511,
              "name": "Obl. Barletta",
              "security_id": 104183,
              "spot_prices": [
                43,
                45
              ]
            },
            {
              "id": 205339,
              "name": "Obl. Haiti, Bons de coup. juil. 81",
              "security_id": 104916,
              "spot_prices": [
                33.5
              ]
            },
            {
              "id": 204503,
              "name": "Obl. de Fribourg",
              "security_id": 104174,
              "spot_prices": [
                26
              ]
            },
            {
              "id": 204507,
              "name": "Obl. de Bucharest",
              "security_id": 104179,
              "spot_prices": [
                65
              ]
            },
            {
              "id": 204508,
              "name": "Obl. de Milan 1861",
              "security_id": 104180,
              "spot_prices": [
                41.25
              ]
            },
            {
              "id": 205592,
              "name": "Obl. Liege, 1874, Juil. 84",
              "security_id": 105033,
              "day_before_spot_price": 98.75
            },
            {
              "id": 205764,
              "name": "Obl. Ville Anvers, 1887",
              "security_id": 105112,
              "spot_prices": [
                97.5
              ]
            },
            {
              "id": 205863,
              "name": "Lots Croix Blanche Hollandaise",
              "security_id": 105185,
              "day_before_spot_price": 13
            },
            {
              "id": 205881,
              "name": "Mexicaine (obl.), j. avril 1866",
              "security_id": 105203
            },
            {
              "id": 204501,
              "name": "Obl. d'Autriche 1864",
              "security_id": 104172,
              "spot_prices": [
                383
              ]
            },
            {
              "id": 205263,
              "name": "Rente Florentine 3%",
              "security_id": 104857,
              "day_before_spot_price": 57.5
            },
            {
              "id": 205878,
              "name": "Lots Egyptiens 3%, j. mai 1890",
              "security_id": 105200,
              "spot_prices": [
                242.5
              ]
            },
            {
              "id": 205882,
              "name": "Obl. Liege, 1853, j. mai 1890",
              "security_id": 105204,
              "day_before_spot_price": 94
            }
          ]
        },
        {
          "id": 664,
          "name": "Chemins de fer et Transports Divers (Chemins de Fer Transports Divers et Canaux)",
          "notations": [
            {
              "id": 205804,
              "name": "Obl. Koursk-Charkow-Azow 4%",
              "security_id": 3874,
              "spot_prices": [
                581.25,
                580
              ]
            },
            {
              "id": 204673,
              "name": "Obl. Tramways de Roubaix, oct. 78",
              "security_id": 104308,
              "day_before_spot_price": 90
            },
            {
              "id": 205825,
              "name": "Obl. Russo Nicolas 4% j. aout89",
              "security_id": 105146,
              "day_before_spot_price": 94.25
            },
            {
              "id": 205633,
              "name": "Jouiss Lombard, c. 1 attache",
              "security_id": 6657,
              "day_before_spot_price": 25
            },
            {
              "id": 204579,
              "name": "Obl. Livourne-Fl., j. jt. 75",
              "security_id": 104210,
              "day_before_spot_price": 295
            },
            {
              "id": 205276,
              "name": "Obl. Gros Camionnage ne 83",
              "security_id": 104869,
              "day_before_spot_price": 130
            },
            {
              "id": 205676,
              "name": "Obl. Valence à Liria, j. juillet",
              "security_id": 105063,
              "day_before_spot_price": 75
            },
            {
              "id": 205824,
              "name": "Obl. Guyaquil 6%, j. juillet 89",
              "security_id": 105145,
              "spot_prices": [
                471.25
              ]
            },
            {
              "id": 205861,
              "name": "Koslow-Voronege, j. oct. 1890",
              "security_id": 105183,
              "spot_prices": [
                580,
                578.75
              ]
            },
            {
              "id": 205952,
              "name": "Cabotage du Senegal (part fondateur)",
              "security_id": 105226,
              "spot_prices": [
                70
              ]
            },
            {
              "id": 205715,
              "name": "Obl. Porto-Rico, lib.",
              "security_id": 40505,
              "spot_prices": [
                277.5
              ]
            },
            {
              "id": 204882,
              "name": "Obl. Simplon vert ex-c. 4",
              "security_id": 104483,
              "day_before_spot_price": 2.75
            },
            {
              "id": 205862,
              "name": "Linares a Almeria, j. oct. 90",
              "security_id": 105184,
              "spot_prices": [
                247.5
              ]
            },
            {
              "id": 205983,
              "name": "Obl. Russo Nicolas 4% 1890, j. janv.91",
              "security_id": 105257,
              "day_before_spot_price": 94.5
            },
            {
              "id": 205328,
              "name": "Obl. Romains, 3% juill. 82",
              "security_id": 1122,
              "spot_prices": [
                295
              ]
            },
            {
              "id": 204549,
              "name": "Russes (Grande Société des chemins de fer), act.500fr., t.p.",
              "security_id": 1146,
              "spot_prices": [
                670
              ]
            },
            {
              "id": 205908,
              "name": "Obl. Orel-Griasi. J. avril 1890",
              "security_id": 3933,
              "day_before_spot_price": 582.5
            },
            {
              "id": 205891,
              "name": "Bateaux-Parisiens (Parts) ex-c.1",
              "security_id": 40402,
              "day_before_spot_price": 30
            },
            {
              "id": 205595,
              "name": "Obl. Xeres (rose), juillet. 85",
              "security_id": 104200,
              "spot_prices": [
                250
              ]
            },
            {
              "id": 204665,
              "name": "Hirondelles parisien., nov. 78",
              "security_id": 104300,
              "spot_prices": [
                122.5
              ]
            },
            {
              "id": 204893,
              "name": "Ce Ge Gros Camionn ex-c. 4",
              "security_id": 104493,
              "day_before_spot_price": 6.5
            },
            {
              "id": 205294,
              "name": "Porteurs Meuse, ex-c. 2",
              "security_id": 104886
            },
            {
              "id": 205872,
              "name": "Cie Maritime du Pacifique",
              "security_id": 105194,
              "day_before_spot_price": 310
            },
            {
              "id": 205982,
              "name": "Obl. Porto-Rico, (Ste Humacao), j. oct.90",
              "security_id": 105256,
              "day_before_spot_price": 267.5
            },
            {
              "id": 204564,
              "name": "Bons Méridionaux 6%, r. 500f., remb. en 30 ans, tout payé",
              "security_id": 2289,
              "spot_prices": [
                310
              ]
            },
            {
              "id": 205324,
              "name": "L'Urbaine (Cie parisienne des Voitures) act.500f.t.p.(n°s 1à24000)",
              "security_id": 3047,
              "spot_prices": [
                120
              ]
            },
            {
              "id": 205612,
              "name": "Ch. de fer Russes, act. de jouissance",
              "security_id": 3413,
              "day_before_spot_price": 165
            },
            {
              "id": 205895,
              "name": "Chargeurs-Reunis (parts de fond)",
              "security_id": 4972,
              "spot_prices": [
                165,
                167.5
              ]
            },
            {
              "id": 204666,
              "name": "Transports parisiens",
              "security_id": 104301
            },
            {
              "id": 205299,
              "name": "Obl. Omnib Gare Ouest juil 84",
              "security_id": 104890,
              "day_before_spot_price": 340
            },
            {
              "id": 205747,
              "name": "Obl. Bahia e Minas libérées",
              "security_id": 105095,
              "spot_prices": [
                370
              ]
            },
            {
              "id": 205827,
              "name": "Obl. Saragosse-Mediterr. 1% lib.",
              "security_id": 105148,
              "spot_prices": [
                88.75
              ]
            },
            {
              "id": 205874,
              "name": "Ch. De fer secondaires, (Cie Fsedes) t.p",
              "security_id": 105196,
              "day_before_spot_price": 250
            },
            {
              "id": 205978,
              "name": "Koursk-Kharkow, act. De div",
              "security_id": 105252,
              "day_before_spot_price": 135
            },
            {
              "id": 204551,
              "name": "Obl.Guill.-Lux. 3%, id",
              "security_id": 1267,
              "day_before_spot_price": 430
            },
            {
              "id": 204554,
              "name": "Obl. Savone a Turin, j. jt. 75",
              "security_id": 1472,
              "day_before_spot_price": 300
            },
            {
              "id": 204635,
              "name": "Obl. Simplon. Blanc",
              "security_id": 104211,
              "day_before_spot_price": 1.5
            },
            {
              "id": 204589,
              "name": "Obl. Séville-Xérès (grise)",
              "security_id": 104236,
              "spot_prices": [
                240
              ]
            },
            {
              "id": 204664,
              "name": "Arles à St-Louis, juin 78",
              "security_id": 104299,
              "day_before_spot_price": 50
            },
            {
              "id": 205795,
              "name": "Cie Lyonnaise de Tramways 125fp",
              "security_id": 4983,
              "day_before_spot_price": 300
            },
            {
              "id": 205678,
              "name": "Obl. Zafra a Huelva, j. janv. 87",
              "security_id": 105065
            },
            {
              "id": 205858,
              "name": "Obl. Puerta-Santa-Maria",
              "security_id": 105180,
              "spot_prices": [
                430
              ]
            },
            {
              "id": 205951,
              "name": "Cabotage du Senegal",
              "security_id": 105225,
              "day_before_spot_price": 200
            },
            {
              "id": 206032,
              "name": "Porto-Rico, ex-c. 3, j. oct. 1890",
              "security_id": 105300
            },
            {
              "id": 205918,
              "name": "Transports a vap. Francais, ex-c. 3",
              "security_id": 2994,
              "spot_prices": [
                155
              ]
            },
            {
              "id": 204640,
              "name": "Obl. Seville-Xéres (jaune) j. juin",
              "security_id": 104275,
              "spot_prices": [
                240
              ]
            },
            {
              "id": 204679,
              "name": "Obl. Hirondelles parisiennes, jt 78",
              "security_id": 104311,
              "day_before_spot_price": 53
            },
            {
              "id": 205674,
              "name": "Obl. Arles a St-Louis, j. avril",
              "security_id": 105061,
              "day_before_spot_price": 285
            },
            {
              "id": 205826,
              "name": "Obl. Saragosse- titres prov.",
              "security_id": 105147,
              "day_before_spot_price": 90
            }
          ]
        },
        {
          "id": 665,
          "name": "Journaux et Librairies (Journaux, Librairies et Imprimeries)",
          "notations": [
            {
              "id": 205654,
              "name": "Obl. Petit Journal (Le)",
              "security_id": 40465,
              "day_before_spot_price": 513.75
            },
            {
              "id": 205687,
              "name": "Le Petit Lyonnais, juillet 78",
              "security_id": 104316,
              "day_before_spot_price": 4
            },
            {
              "id": 205655,
              "name": "Petite republique francaise",
              "security_id": 104391,
              "day_before_spot_price": 20
            },
            {
              "id": 205688,
              "name": "XIXe Siècle",
              "security_id": 104870,
              "day_before_spot_price": 100
            },
            {
              "id": 205761,
              "name": "Obl. Petit Parisien, j. avril 1888",
              "security_id": 105109,
              "day_before_spot_price": 500
            },
            {
              "id": 205700,
              "name": "Le Petit Parisien (parts)",
              "security_id": 106421,
              "day_before_spot_price": 570
            },
            {
              "id": 205636,
              "name": "Le Petit Marseillais 25 aout 79",
              "security_id": 104354,
              "day_before_spot_price": 1050
            },
            {
              "id": 205621,
              "name": "Bonnard Bidault ex-c. 5",
              "security_id": 104892,
              "day_before_spot_price": 130
            },
            {
              "id": 205842,
              "name": "France (La), ex-c. 3",
              "security_id": 105164,
              "day_before_spot_price": 55
            },
            {
              "id": 205634,
              "name": "Act. La Lanterne, 10 aout 78",
              "security_id": 40186,
              "spot_prices": [
                340,
                380
              ]
            },
            {
              "id": 205828,
              "name": "Parts Petite Presse",
              "security_id": 105149,
              "spot_prices": [
                22.25
              ]
            },
            {
              "id": 205986,
              "name": "Paris (parts) nom.",
              "security_id": 105260,
              "day_before_spot_price": 77.5
            },
            {
              "id": 205637,
              "name": "Petit Parisien",
              "security_id": 4065,
              "day_before_spot_price": 800
            },
            {
              "id": 205701,
              "name": "Le Temps, ex-c. 6, j.avril 87",
              "security_id": 6897,
              "day_before_spot_price": 1500
            },
            {
              "id": 205616,
              "name": "Gil Blas, 20 sept. 84 ex-c. 8",
              "security_id": 40188,
              "spot_prices": [
                140
              ]
            },
            {
              "id": 205672,
              "name": "Act. Messager (act. De jouiss.), ex-c. 2",
              "security_id": 105059,
              "day_before_spot_price": 47.5
            },
            {
              "id": 205641,
              "name": "Messager Paris juin 84 ex-8",
              "security_id": 104283,
              "day_before_spot_price": 400
            },
            {
              "id": 205742,
              "name": "Le Petit Meridional, ex-c. 23",
              "security_id": 105090,
              "day_before_spot_price": 120
            },
            {
              "id": 205777,
              "name": "Obl. Illustration j. oct. 87",
              "security_id": 105125,
              "day_before_spot_price": 490
            },
            {
              "id": 205639,
              "name": "Le Temps (jouiss.), ex-c. 5",
              "security_id": 6898,
              "day_before_spot_price": 1100
            },
            {
              "id": 205675,
              "name": "Obl. La Lanterne, J. nov, 86",
              "security_id": 105062,
              "day_before_spot_price": 300
            },
            {
              "id": 205728,
              "name": "Act. Bonhomme Normand (Le).",
              "security_id": 105076,
              "day_before_spot_price": 975
            }
          ]
        },
        {
          "id": 666,
          "name": "Obligations du Crédit Foncier",
          "notations": [
            {
              "id": 205568,
              "name": "Communales 4 % 1/5 81",
              "security_id": 105013,
              "day_before_spot_price": 97
            },
            {
              "id": 205793,
              "name": "Bons de I'Exposition",
              "security_id": 6879,
              "spot_prices": [
                6.25
              ]
            },
            {
              "id": 205541,
              "name": "Obligations communales 4% 81 avril 82",
              "security_id": 3726,
              "spot_prices": [
                495,
                497.5
              ]
            },
            {
              "id": 205550,
              "name": "B. Hypother 4 % 79 jouis. nov.",
              "security_id": 105000,
              "day_before_spot_price": 497.5
            },
            {
              "id": 205555,
              "name": "Foncieres 4% 1882",
              "security_id": 105003,
              "spot_prices": [
                500,
                501.25
              ]
            }
          ]
        },
        {
          "id": 669,
          "name": "Mines (Mines, Houillères, Forges et Charbonnages)",
          "notations": [
            {
              "id": 205608,
              "name": "Alpines, j. juin",
              "security_id": 104915,
              "spot_prices": [
                209,
                211.25
              ]
            },
            {
              "id": 205975,
              "name": "Jeres-Lanteira",
              "security_id": 105249,
              "spot_prices": [
                250
              ]
            },
            {
              "id": 205981,
              "name": "Obl. Dadou, liberee",
              "security_id": 105255,
              "spot_prices": [
                336
              ]
            },
            {
              "id": 205995,
              "name": "Usines de Briansk",
              "security_id": 105269,
              "day_before_spot_price": 380
            },
            {
              "id": 205932,
              "name": "Kebao (Charbonn. De), liberee",
              "security_id": 4051,
              "day_before_spot_price": 950
            },
            {
              "id": 205670,
              "name": "La Mana (Parts)",
              "security_id": 105057,
              "day_before_spot_price": 400
            },
            {
              "id": 205679,
              "name": "Pas Trop Tot",
              "security_id": 105066
            },
            {
              "id": 205727,
              "name": " El Callao (8000), J. 5 dec. 1887",
              "security_id": 105075,
              "spot_prices": [
                21.5,
                23
              ]
            },
            {
              "id": 205737,
              "name": "De Beers (Diamants)",
              "security_id": 105085,
              "spot_prices": [
                370
              ]
            },
            {
              "id": 205844,
              "name": "Hispano-Neerlandaise, act. 25 fr",
              "security_id": 105166,
              "day_before_spot_price": 10
            },
            {
              "id": 205845,
              "name": "Obl. Sterling Montana",
              "security_id": 105167
            },
            {
              "id": 205558,
              "name": "Rio-Tinto (act.)",
              "security_id": 3927,
              "spot_prices": [
                543.75,
                545,
                537.5
              ]
            },
            {
              "id": 205892,
              "name": "Boleo",
              "security_id": 4250,
              "day_before_spot_price": 300
            },
            {
              "id": 205702,
              "name": "Obl. Met. Ariege. J. aout 1887",
              "security_id": 40492,
              "spot_prices": [
                210
              ]
            },
            {
              "id": 156760,
              "name": "Cape Copper, ex-c.8, j. juillet 1890",
              "security_id": 50837,
              "spot_prices": [
                85
              ]
            },
            {
              "id": 204570,
              "name": "Stolberg (p ivileg.), j.oct. 75",
              "security_id": 104197,
              "day_before_spot_price": 425
            },
            {
              "id": 205312,
              "name": "Tharsis, mai 1884",
              "security_id": 104902,
              "spot_prices": [
                150,
                148
              ]
            },
            {
              "id": 205671,
              "name": "La Monnaie",
              "security_id": 105058
            },
            {
              "id": 205846,
              "name": "Placer Haute-Italie (Parts nom.)",
              "security_id": 105168,
              "spot_prices": [
                110,
                120,
                140,
                135
              ]
            },
            {
              "id": 205848,
              "name": "Transvalia (au porteur)",
              "security_id": 105170,
              "day_before_spot_price": 6
            },
            {
              "id": 205869,
              "name": "Ariege (Soc. Metail.) ex-c. 8",
              "security_id": 105191,
              "day_before_spot_price": 150
            },
            {
              "id": 205977,
              "name": "Kebao (Charbonn. De), non liberee",
              "security_id": 105251,
              "day_before_spot_price": 980
            },
            {
              "id": 205607,
              "name": "Mines Lexington, juillet 85",
              "security_id": 40284,
              "spot_prices": [
                80
              ]
            },
            {
              "id": 204600,
              "name": "Silesie (anc.), j. nov. 75",
              "security_id": 104262,
              "day_before_spot_price": 550
            },
            {
              "id": 205371,
              "name": "Obl. Rio-Tinto 5% j. oct.",
              "security_id": 104927,
              "day_before_spot_price": 522.5
            },
            {
              "id": 205575,
              "name": "Obl. Rio-Tinto nouv.",
              "security_id": 105020,
              "day_before_spot_price": 505
            },
            {
              "id": 205814,
              "name": "Galicia (mines d'etain)",
              "security_id": 105135,
              "day_before_spot_price": 4.5
            },
            {
              "id": 205933,
              "name": "Kebao (Charbonn. De), parts",
              "security_id": 4052,
              "day_before_spot_price": 600
            },
            {
              "id": 204601,
              "name": "Silesie (privileg.), j. nov. 75",
              "security_id": 104263,
              "day_before_spot_price": 545
            },
            {
              "id": 205652,
              "name": "Part Saint-Elie, ex-c.",
              "security_id": 104885,
              "day_before_spot_price": 30
            },
            {
              "id": 205681,
              "name": "Placer Enfin act. Nouv",
              "security_id": 105068,
              "day_before_spot_price": 30
            },
            {
              "id": 205731,
              "name": "Aurifere Argentine (act. de 25 f)",
              "security_id": 105079,
              "day_before_spot_price": 15
            },
            {
              "id": 205738,
              "name": "Obl. Dombrowa (houil. De), ex-c. 2",
              "security_id": 105086,
              "spot_prices": [
                655,
                650
              ]
            },
            {
              "id": 205741,
              "name": "Kinta (part benefic)",
              "security_id": 105089
            },
            {
              "id": 204547,
              "name": "Zinc V. Montagne, j. 10 nov.",
              "security_id": 325,
              "spot_prices": [
                500
              ]
            },
            {
              "id": 204889,
              "name": "Obl. Soc. Met.Perigord oct 84",
              "security_id": 104490
            },
            {
              "id": 205667,
              "name": "Golden-River",
              "security_id": 105054,
              "day_before_spot_price": 130
            },
            {
              "id": 205774,
              "name": "Est-Oregon (mine d or) au port.",
              "security_id": 105490,
              "day_before_spot_price": 4
            },
            {
              "id": 204550,
              "name": "Stolberg (anc.), j. jt. 75",
              "security_id": 1234,
              "day_before_spot_price": 200
            },
            {
              "id": 204767,
              "name": "Pontgibaud",
              "security_id": 6182,
              "spot_prices": [
                365,
                370
              ]
            },
            {
              "id": 205269,
              "name": "Uruguay (Mines d'or de L')",
              "security_id": 104862,
              "spot_prices": [
                22,
                23
              ]
            },
            {
              "id": 205586,
              "name": "Mines Lexington, parts de fondateurs",
              "security_id": 105030,
              "day_before_spot_price": 2.5
            },
            {
              "id": 205682,
              "name": "Trifail, j. juillet 1886",
              "security_id": 105069,
              "day_before_spot_price": 347.5
            },
            {
              "id": 205818,
              "name": "Carisa (mines d'or de)",
              "security_id": 105139,
              "day_before_spot_price": 5
            },
            {
              "id": 205834,
              "name": "Sud Africaine (au porteur)",
              "security_id": 105155,
              "spot_prices": [
                7.5
              ]
            },
            {
              "id": 205853,
              "name": "Saint-Antoine (Mine d'or de) au port",
              "security_id": 105175,
              "spot_prices": [
                52.5,
                50
              ]
            },
            {
              "id": 205877,
              "name": "Kinta (mines d'etain) ex-c. 1",
              "security_id": 105199
            },
            {
              "id": 205974,
              "name": "Hafna (limited)",
              "security_id": 105248,
              "spot_prices": [
                140
              ]
            },
            {
              "id": 205988,
              "name": "Podiafra gold mine",
              "security_id": 105262,
              "day_before_spot_price": 22.5
            },
            {
              "id": 205997,
              "name": "Washington Diamond Mining Cy",
              "security_id": 105271,
              "day_before_spot_price": 27
            },
            {
              "id": 205627,
              "name": "Dieu-Merci, ex-c. 3",
              "security_id": 2838
            },
            {
              "id": 205352,
              "name": "Lexington (Mines de) (parts)",
              "security_id": 40285
            },
            {
              "id": 205270,
              "name": "Uruguay act. de jouiss",
              "security_id": 104863,
              "day_before_spot_price": 11.25
            },
            {
              "id": 205602,
              "name": "Placer Enfin ex-coup. 7",
              "security_id": 105036,
              "spot_prices": [
                42.5
              ]
            },
            {
              "id": 205668,
              "name": "Golden-River (Parts)",
              "security_id": 105055,
              "day_before_spot_price": 30
            },
            {
              "id": 205669,
              "name": "La Mana",
              "security_id": 105056,
              "day_before_spot_price": 900
            },
            {
              "id": 205831,
              "name": "Robinson Gold Mining (nomin.)",
              "security_id": 105152,
              "spot_prices": [
                62
              ]
            },
            {
              "id": 205985,
              "name": "Orba (part fond.) au port",
              "security_id": 105259,
              "spot_prices": [
                135
              ]
            }
          ]
        },
        {
          "id": 667,
          "name": "Valeurs diverses",
          "children": [
            {
              "id": 672,
              "name": "Actions (Valeurs diverses)",
              "notations": [
                {
                  "id": 204752,
                  "name": "Eaux de Vals",
                  "security_id": 4904
                },
                {
                  "id": 205931,
                  "name": "Fusion des Gaz, ex-c. 16, j. oct. 90",
                  "security_id": 6799,
                  "day_before_spot_price": 207.5
                },
                {
                  "id": 205894,
                  "name": "Chalets de Nécessite (jouiss), ex-c. 7",
                  "security_id": 22141,
                  "day_before_spot_price": 1075
                },
                {
                  "id": 205896,
                  "name": "Comptoir des Fonds Nationaux t.p.",
                  "security_id": 40152,
                  "spot_prices": [
                    600
                  ]
                },
                {
                  "id": 205698,
                  "name": "Eaux de Bussang",
                  "security_id": 40163,
                  "day_before_spot_price": 55
                },
                {
                  "id": 204915,
                  "name": "Panorama Detaille-Neuville",
                  "security_id": 104513,
                  "day_before_spot_price": 12
                },
                {
                  "id": 205817,
                  "name": "Cafes-Restaurants (Cie Cie des)",
                  "security_id": 105138,
                  "spot_prices": [
                    50
                  ]
                },
                {
                  "id": 205944,
                  "name": "Tabacs Portugais, act. 500, 250 fr. P",
                  "security_id": 3914,
                  "day_before_spot_price": 553.75
                },
                {
                  "id": 205720,
                  "name": "Platrières de Paris, ex.-c 3",
                  "security_id": 104875,
                  "spot_prices": [
                    27,
                    26
                  ]
                },
                {
                  "id": 205314,
                  "name": "Dist. Croisset-Rouen, ex-c. 2",
                  "security_id": 104903,
                  "day_before_spot_price": 50
                },
                {
                  "id": 205768,
                  "name": "Comptoir Industriel Belge (act. nouv.)",
                  "security_id": 105116,
                  "day_before_spot_price": 4.5
                },
                {
                  "id": 205956,
                  "name": "Charbons artificiels, ex-c. 1",
                  "security_id": 105230,
                  "day_before_spot_price": 500
                },
                {
                  "id": 205925,
                  "name": "Auxiliaire ch. de fer, ex-c.2",
                  "security_id": 104441
                },
                {
                  "id": 205730,
                  "name": "Alcools purs (Soc. Fse des), 250 f.p. parts",
                  "security_id": 105078,
                  "day_before_spot_price": 22.5
                },
                {
                  "id": 205762,
                  "name": "Rente Fonciere (parts)",
                  "security_id": 105110
                },
                {
                  "id": 205954,
                  "name": "Chalets de Nécessite, (act. nouv)",
                  "security_id": 105228,
                  "day_before_spot_price": 1200
                },
                {
                  "id": 205965,
                  "name": "Eaux et Thermes de Sail (parts nom.)",
                  "security_id": 105239,
                  "day_before_spot_price": 67.5
                },
                {
                  "id": 205354,
                  "name": "Banque Parisienne, 20e de parts de fondateurs",
                  "security_id": 40276,
                  "day_before_spot_price": 25
                },
                {
                  "id": 205797,
                  "name": "Cliff(Usines)j. 31 mars88, ex-c. 3",
                  "security_id": 104884,
                  "spot_prices": [
                    480,
                    470
                  ]
                },
                {
                  "id": 205303,
                  "name": "Dynamite Fusion ex-c. 8",
                  "security_id": 104894,
                  "day_before_spot_price": 275
                },
                {
                  "id": 205966,
                  "name": "Explosifs Fortis",
                  "security_id": 105240,
                  "spot_prices": [
                    26
                  ]
                },
                {
                  "id": 204852,
                  "name": "Le Printemps, Jules Jaluzot et Cie, act.500f., 250f.payés (n°s 18085 à 80000) (nominatives)",
                  "security_id": 3054
                },
                {
                  "id": 205601,
                  "name": "Phenix esp. juil. 85 ex-c. 11",
                  "security_id": 3916,
                  "spot_prices": [
                    620
                  ]
                },
                {
                  "id": 205623,
                  "name": "Chalets de Nécessite, ex-c. 9",
                  "security_id": 6870,
                  "spot_prices": [
                    1500
                  ]
                },
                {
                  "id": 205587,
                  "name": "Musee Grevin, ex-c. 1",
                  "security_id": 6891,
                  "day_before_spot_price": 680
                },
                {
                  "id": 205934,
                  "name": "Musee Grevin, parts, ex-c. 6",
                  "security_id": 6892,
                  "day_before_spot_price": 275
                },
                {
                  "id": 204751,
                  "name": "Gaz de Maubeuge, juillet 78",
                  "security_id": 104284
                },
                {
                  "id": 204838,
                  "name": "Eaux de Pougues ex-c",
                  "security_id": 104444,
                  "spot_prices": [
                    410
                  ]
                },
                {
                  "id": 205739,
                  "name": "Eaux de Calais (jouissance) ex-c. 8",
                  "security_id": 105087,
                  "day_before_spot_price": 120
                },
                {
                  "id": 205852,
                  "name": "Texand Land",
                  "security_id": 105174,
                  "day_before_spot_price": 40
                },
                {
                  "id": 205917,
                  "name": "Tabacs Ottomans, act. De 200 fr",
                  "security_id": 3935,
                  "spot_prices": [
                    330
                  ]
                },
                {
                  "id": 205899,
                  "name": "Eaux de la Bourboule, ex-c. 7",
                  "security_id": 6776,
                  "day_before_spot_price": 350
                },
                {
                  "id": 204692,
                  "name": "Eaux de Calais",
                  "security_id": 104324,
                  "day_before_spot_price": 230
                },
                {
                  "id": 205304,
                  "name": "Dynamite Espagn. ex-c. 18",
                  "security_id": 104895,
                  "spot_prices": [
                    700
                  ]
                },
                {
                  "id": 205664,
                  "name": "Eaux Gazeuses, ex-coup. 11",
                  "security_id": 105051,
                  "day_before_spot_price": 250
                },
                {
                  "id": 205772,
                  "name": "Eaux de Royat, ex-c. 11",
                  "security_id": 105120,
                  "day_before_spot_price": 290
                },
                {
                  "id": 205773,
                  "name": "Eaux du Midi",
                  "security_id": 105121,
                  "day_before_spot_price": 50
                },
                {
                  "id": 205847,
                  "name": "Pont-sur-la-Manche (parts)",
                  "security_id": 105169,
                  "spot_prices": [
                    100
                  ]
                },
                {
                  "id": 205949,
                  "name": "Auxiliaire des ch. de fer (act. nouv.) ex-c. 3",
                  "security_id": 105223,
                  "spot_prices": [
                    160
                  ]
                },
                {
                  "id": 205945,
                  "name": "Telegraphes Sous-Marins",
                  "security_id": 3952,
                  "day_before_spot_price": 520
                },
                {
                  "id": 205927,
                  "name": "Chalets de Commodite (cie nouv. des)",
                  "security_id": 6869,
                  "spot_prices": [
                    600,
                    602.5
                  ]
                },
                {
                  "id": 205302,
                  "name": "Co Intle Teleph. Belge ex-c.2",
                  "security_id": 104893
                },
                {
                  "id": 205305,
                  "name": "Dynamite Francaise",
                  "security_id": 104896,
                  "day_before_spot_price": 715
                },
                {
                  "id": 205767,
                  "name": "Comptoir Industriel Belge",
                  "security_id": 105115,
                  "day_before_spot_price": 4.25
                },
                {
                  "id": 205780,
                  "name": "Soc. Fse des Alcools purs, lib. 125",
                  "security_id": 105128,
                  "day_before_spot_price": 125
                },
                {
                  "id": 205876,
                  "name": "Cred. Fonc. De Tunisie, 250 fr. P",
                  "security_id": 105198,
                  "day_before_spot_price": 385
                },
                {
                  "id": 205996,
                  "name": "Vidanges et Engrais (Cie Nou.) ex-c. 2",
                  "security_id": 105270,
                  "day_before_spot_price": 513.75
                },
                {
                  "id": 204754,
                  "name": "Hippodr. de Paris, 15 nov. 78",
                  "security_id": 40180,
                  "spot_prices": [
                    350
                  ]
                },
                {
                  "id": 205280,
                  "name": "Eden-Theatre",
                  "security_id": 104873,
                  "day_before_spot_price": 15
                },
                {
                  "id": 205665,
                  "name": "Gaz de Madrid (jouiss.), ex-c. 3.",
                  "security_id": 105052,
                  "day_before_spot_price": 35
                },
                {
                  "id": 205854,
                  "name": "Soc. Colon. Commerc. Et Indust",
                  "security_id": 105176
                },
                {
                  "id": 205855,
                  "name": "Soc. Intern.d'impor et d'export",
                  "security_id": 105177,
                  "day_before_spot_price": 505
                },
                {
                  "id": 205867,
                  "name": "Cie Tunisienne Fonciere (parts)",
                  "security_id": 105189,
                  "spot_prices": [
                    2
                  ]
                },
                {
                  "id": 205871,
                  "name": "Cercle de Monaco j mai 1890",
                  "security_id": 105193,
                  "spot_prices": [
                    1675,
                    1670
                  ]
                },
                {
                  "id": 205962,
                  "name": "Distribut. Automat. pr. Voitures Publiques",
                  "security_id": 105236,
                  "day_before_spot_price": 422.5
                },
                {
                  "id": 205991,
                  "name": "Rest. Brebant et Bouillons Paris, t.p.",
                  "security_id": 105265,
                  "spot_prices": [
                    500
                  ]
                }
              ]
            },
            {
              "id": 673,
              "name": "Obligations (Valeurs diverses)",
              "notations": [
                {
                  "id": 205660,
                  "name": "Cred. Fonc. Mutuel Russie 4 1/2",
                  "security_id": 105047,
                  "spot_prices": [
                    398.75,
                    401.25
                  ]
                },
                {
                  "id": 205771,
                  "name": "Eaux de Royat (Obligation)",
                  "security_id": 105119,
                  "day_before_spot_price": 500
                },
                {
                  "id": 205957,
                  "name": "Charbons artificiels, j. avril 91",
                  "security_id": 105231,
                  "day_before_spot_price": 465
                },
                {
                  "id": 205926,
                  "name": "Obl. Ce Aux. ch. de fer, nov. 82",
                  "security_id": 104504
                },
                {
                  "id": 205740,
                  "name": "Eden-Theatre, j. nov. 1886",
                  "security_id": 105088
                },
                {
                  "id": 205585,
                  "name": "Matériel Agricole et Industriel 5%, remb. à 300 fr.",
                  "security_id": 3281,
                  "day_before_spot_price": 200
                },
                {
                  "id": 204755,
                  "name": "Eaux de Nimes",
                  "security_id": 104227,
                  "day_before_spot_price": 8
                },
                {
                  "id": 204725,
                  "name": "Eaux de Bussang juillet 79",
                  "security_id": 104357,
                  "spot_prices": [
                    435
                  ]
                },
                {
                  "id": 205267,
                  "name": "Casino de Nice, oct. 82",
                  "security_id": 104860
                },
                {
                  "id": 205870,
                  "name": "Bouillons Parisiens (Grands)",
                  "security_id": 105192,
                  "day_before_spot_price": 40
                },
                {
                  "id": 205699,
                  "name": "Eaux de la Bourboule (Obligation)",
                  "security_id": 6777,
                  "day_before_spot_price": 507.5
                },
                {
                  "id": 204702,
                  "name": "Eaux d'Oran",
                  "security_id": 104334,
                  "day_before_spot_price": 10
                },
                {
                  "id": 205281,
                  "name": "Gaz de Maubeuge, sept 82",
                  "security_id": 104874
                },
                {
                  "id": 205821,
                  "name": "Monts de Piété d'Angleterre de 125f",
                  "security_id": 105142,
                  "day_before_spot_price": 45
                },
                {
                  "id": 205873,
                  "name": "Cie Nat. d'Electr. (Ferranti) j. oct. 90",
                  "security_id": 105195,
                  "day_before_spot_price": 125
                },
                {
                  "id": 204880,
                  "name": "Gdes Tuil. du Berry",
                  "security_id": 40224,
                  "day_before_spot_price": 105
                },
                {
                  "id": 205775,
                  "name": "Javel (Manufact. De) j janv. 88",
                  "security_id": 105123,
                  "spot_prices": [
                    100
                  ]
                },
                {
                  "id": 205820,
                  "name": "Gaz de Lisbonne 5%. J. sep.",
                  "security_id": 105141,
                  "spot_prices": [
                    250
                  ]
                },
                {
                  "id": 205839,
                  "name": "Alcools et Liq. purs (Soc.Univ.) j.oc. 90",
                  "security_id": 105161,
                  "day_before_spot_price": 265
                },
                {
                  "id": 205950,
                  "name": "Bouillons Parisiens (2e categorie)",
                  "security_id": 105224,
                  "day_before_spot_price": 18.75
                },
                {
                  "id": 205693,
                  "name": "Cie Fonc. Russe, 4e et 5e serie, j. jv. 87",
                  "security_id": 1721,
                  "spot_prices": [
                    459.5,
                    460
                  ]
                },
                {
                  "id": 205645,
                  "name": "Obl. Ch. et Docks S. Ouen, s. 78",
                  "security_id": 104312,
                  "day_before_spot_price": 320
                },
                {
                  "id": 205624,
                  "name": "Cie Fonc. Russe, 4e serie, j. jv. 87",
                  "security_id": 1719,
                  "spot_prices": [
                    468.75,
                    470
                  ]
                },
                {
                  "id": 205900,
                  "name": "Eaux Vals 4% j. 31 dec. 1889",
                  "security_id": 40275
                },
                {
                  "id": 204701,
                  "name": "Eaux de Brest",
                  "security_id": 104333,
                  "day_before_spot_price": 115
                },
                {
                  "id": 205657,
                  "name": "Be Hyp. Nat. de Grece, j. janv. 87",
                  "security_id": 105044,
                  "spot_prices": [
                    427.5
                  ]
                },
                {
                  "id": 205948,
                  "name": "Ardoisieres de la Foret j. mai 91",
                  "security_id": 105222,
                  "spot_prices": [
                    250
                  ]
                }
              ]
            }
          ]
        }
      ]
    },
    {
      "id": 674,
      "name": "Assurances",
      "notations": [
        {
          "id": 205484,
          "name": "La Paternelle (inc.), 400f.p.(nom.)(Cessionnaires soumis à l'agrément di Conseil d'Administration)",
          "security_id": 553,
          "spot_prices": [
            3600,
            3700
          ]
        },
        {
          "id": 205437,
          "name": "Aigle (Incendie)",
          "security_id": 1735,
          "spot_prices": [
            4600,
            4700
          ]
        },
        {
          "id": 205446,
          "name": "Caisse générale des Familles, a.500f.100f.p.(nominatives)(Cessionnaires soumis à l'agrément di Conseil d'Administration)",
          "security_id": 1809,
          "spot_prices": [
            10,
            15
          ]
        },
        {
          "id": 205456,
          "name": "La Clémentine, a. 500 f., 187f50 p. (nom.). Cessionnaires soumis à l'agrément du conseil d'Administration",
          "security_id": 2934,
          "spot_prices": [
            20
          ]
        },
        {
          "id": 205465,
          "name": "La France (vie), a.1000f.250f.p.(nom.)(Cessionnaires soumis à l'agrément di Conseil d'Administration)",
          "security_id": 2935,
          "spot_prices": [
            290,
            295
          ]
        },
        {
          "id": 205507,
          "name": "L'Urbaine et la Seine (accidents), act, 500f., 125f.p. (nominatives)",
          "security_id": 3030,
          "spot_prices": [
            245,
            250
          ]
        },
        {
          "id": 205449,
          "name": "La Centrale (vie), act. 1000f., 250f.p. (nominatives)(Cessionnaires soumis à l'agrément di Conseil d'Administration)",
          "security_id": 3060,
          "spot_prices": [
            10
          ]
        },
        {
          "id": 205485,
          "name": "Le Patrimoine (vie), actions 1000fr., 250fr.payés (nominatives)(Cessionnaires soumis à l'agrément du Conseil d'Administration)",
          "security_id": 3198,
          "spot_prices": [
            45,
            50
          ]
        },
        {
          "id": 205443,
          "name": "Austro-hongroise (Incendie)",
          "security_id": 104945,
          "spot_prices": [
            180
          ]
        },
        {
          "id": 205912,
          "name": "Reunion Maritimes",
          "security_id": 1588,
          "spot_prices": [
            550
          ]
        },
        {
          "id": 205487,
          "name": "Le Phénix (vie) 1000f.p. (nominat.)(Cessionnaires soumis à l'agrément du Conseil d'Administration)",
          "security_id": 1723,
          "spot_prices": [
            27000
          ]
        },
        {
          "id": 205494,
          "name": "La Providence (inc.), 250f.p.nom.(Cessionnaires soumis à l'agrément di Conseil d'Administration)",
          "security_id": 1724,
          "spot_prices": [
            8200,
            8400
          ]
        },
        {
          "id": 205432,
          "name": "Abeille (Vie)",
          "security_id": 5514,
          "spot_prices": [
            390,
            395
          ]
        },
        {
          "id": 205614,
          "name": "Preservatrice (Diverses) Accidents",
          "security_id": 6286,
          "spot_prices": [
            850,
            900
          ]
        },
        {
          "id": 205498,
          "name": "Secours (Diverses) Accidents",
          "security_id": 6717,
          "spot_prices": [
            35
          ]
        },
        {
          "id": 205448,
          "name": "Caisse des familles (Diverses) Bons",
          "security_id": 104947
        },
        {
          "id": 205458,
          "name": "Conservateur (Vie)",
          "security_id": 104953
        },
        {
          "id": 205628,
          "name": "Fonciere (Incendie)",
          "security_id": 105025,
          "spot_prices": [
            215,
            225
          ]
        },
        {
          "id": 205506,
          "name": "L'Urbaine (inc.), a.1000f, 250f.p.nom.(Cessionnaires soumis à l'agrément di Conseil d'Administration)",
          "security_id": 1605,
          "spot_prices": [
            4400,
            4500
          ]
        },
        {
          "id": 205505,
          "name": "L'Urbaine (vie), a.1000f, 200f.p.nom.(Cessionnaires soumis à l'agrément di Conseil d'Administration)",
          "security_id": 1606,
          "spot_prices": [
            900,
            925
          ]
        },
        {
          "id": 205476,
          "name": "Le Monde (vie), act.500f., 125f.payés (nominatives)(Cessionnaires soumis à l'agrément di Conseil d'Administration)",
          "security_id": 2939,
          "spot_prices": [
            240,
            250
          ]
        },
        {
          "id": 205930,
          "name": "Franco-Hongroise (Soc.anon.d'assur.) a.200fl.ou 500f., t.p. (coup.4 attaché)",
          "security_id": 3412
        },
        {
          "id": 205481,
          "name": "Le Nord (vie), a.1000f., 250f.p., nom.(Cessionnaires soumis à l'agrément di Conseil d'Administration)",
          "security_id": 7221
        },
        {
          "id": 205451,
          "name": "Centrale (Diverses) Accidents",
          "security_id": 104949
        },
        {
          "id": 205457,
          "name": "Commerciale (Incendie)",
          "security_id": 104952,
          "spot_prices": [
            45,
            50
          ]
        },
        {
          "id": 205462,
          "name": "Fonciere (Vie)",
          "security_id": 104955,
          "spot_prices": [
            160,
            170
          ]
        },
        {
          "id": 205473,
          "name": "Metropole (Vie)",
          "security_id": 104962,
          "spot_prices": [
            35
          ]
        },
        {
          "id": 205557,
          "name": "Metropole (Incendie)",
          "security_id": 105005,
          "spot_prices": [
            55,
            60
          ]
        },
        {
          "id": 205441,
          "name": "Assurances generales (Diverses) Maritimes",
          "security_id": 715,
          "spot_prices": [
            8750
          ]
        },
        {
          "id": 205444,
          "name": "Assurances agric.et inc. (Csse génle act.500f.,125f.p., nominatives",
          "security_id": 1822,
          "spot_prices": [
            25
          ]
        },
        {
          "id": 205483,
          "name": "Caisse Paternelle (vie), a.500f.125f.p. nominatives(Cessionnaires soumis à l'agrément di Conseil d'Administration)",
          "security_id": 2739,
          "spot_prices": [
            105,
            110
          ]
        },
        {
          "id": 205477,
          "name": "Le Monde (incendie), act.500f., 200f.payés (nominatives)",
          "security_id": 2937,
          "spot_prices": [
            325,
            330
          ]
        },
        {
          "id": 205433,
          "name": "Abeille (Incendie)",
          "security_id": 4953,
          "spot_prices": [
            1300,
            1360
          ]
        },
        {
          "id": 205486,
          "name": "Patrimoine (Diverses) Accidents",
          "security_id": 5366,
          "spot_prices": [
            50,
            55
          ]
        },
        {
          "id": 205440,
          "name": "Assurances générales (inc.), t.p. (nom.)(Cessionnaires soumis à l'agrément di Conseil d'Administration)",
          "security_id": 6848,
          "spot_prices": [
            33500,
            34000
          ]
        },
        {
          "id": 205455,
          "name": "Confiance (Diverses) Grêle",
          "security_id": 104951,
          "spot_prices": [
            15
          ]
        },
        {
          "id": 205533,
          "name": "Midi (Vie)",
          "security_id": 104990
        },
        {
          "id": 205453,
          "name": "La Confiance (incendie), act. 500f., 200f.p. (nominatives)(Cessionnaires soumis à l'agrément di Conseil d'Administration)",
          "security_id": 2788,
          "spot_prices": [
            305,
            320
          ]
        },
        {
          "id": 205479,
          "name": "La Nationale (vie) (nominatives)(Cessionnaires soumis à l'agrément di Conseil d'Administration)",
          "security_id": 2790,
          "spot_prices": [
            26000
          ]
        },
        {
          "id": 205436,
          "name": "L'Aigle (Vie), a.500f., 125p. (nom.)(Cessionnaires soumis à l'agrément di Conseil d'Administration)",
          "security_id": 3000,
          "spot_prices": [
            250,
            245
          ]
        },
        {
          "id": 205482,
          "name": "Le Nord (inc.), a.1000f., 250f.p., nom.(Cessionnaires soumis à l'agrément di Conseil d'Administration)",
          "security_id": 3004,
          "spot_prices": [
            1625,
            1675
          ]
        },
        {
          "id": 205935,
          "name": "Nation (Incendie)",
          "security_id": 104983
        },
        {
          "id": 205570,
          "name": "Fonciere (Diverses) Transport",
          "security_id": 105015,
          "spot_prices": [
            230,
            250
          ]
        },
        {
          "id": 205480,
          "name": "La Nationale (incendie), act. 5000 fr., 1250 fr. payés (nominatives)",
          "security_id": 87,
          "spot_prices": [
            27000
          ]
        },
        {
          "id": 205439,
          "name": "Assurances générales (vie), t.p. (nominatives)(Cessionnaires soumis à l'agrément di Conseil d'Administration)",
          "security_id": 1587,
          "spot_prices": [
            52000,
            53000
          ]
        },
        {
          "id": 205499,
          "name": "Le Soleil (vie), 250f.p. (nominat.)(Cessionnaires soumis à l'agrément di Conseil d'Administration)",
          "security_id": 1798,
          "spot_prices": [
            275,
            285
          ]
        },
        {
          "id": 205478,
          "name": "Le Monde (accidents), act.500f., 125f.payés (nominatives)",
          "security_id": 2936,
          "spot_prices": [
            10
          ]
        },
        {
          "id": 205510,
          "name": "Providence (Diverses) Accidents",
          "security_id": 3001,
          "spot_prices": [
            160,
            175
          ]
        },
        {
          "id": 205501,
          "name": "Soleil (Diverses) Accidents",
          "security_id": 7480,
          "spot_prices": [
            250,
            260
          ]
        },
        {
          "id": 205450,
          "name": "Centrale (Incendie)",
          "security_id": 104948,
          "spot_prices": [
            20,
            25
          ]
        },
        {
          "id": 205488,
          "name": "Phénix (Incendie)",
          "security_id": 85,
          "spot_prices": [
            7400,
            7500
          ]
        },
        {
          "id": 205466,
          "name": "La France (incendie), 100f.p.(nom.)(Cessionnaires soumis à l'agrément di Conseil d'Administration)",
          "security_id": 1593,
          "spot_prices": [
            9600,
            9750
          ]
        },
        {
          "id": 205434,
          "name": "Abeille (Diverses) Grêle",
          "security_id": 4952,
          "spot_prices": [
            285
          ]
        },
        {
          "id": 205452,
          "name": "Confiance (Vie)",
          "security_id": 5199,
          "spot_prices": [
            300,
            290
          ]
        },
        {
          "id": 205463,
          "name": "Fondiaria (Vie)",
          "security_id": 104956,
          "spot_prices": [
            215,
            225
          ]
        },
        {
          "id": 205474,
          "name": "Midi (Incendie)",
          "security_id": 104963,
          "spot_prices": [
            55,
            60
          ]
        },
        {
          "id": 205491,
          "name": "Progrès national (Vie)",
          "security_id": 104966,
          "spot_prices": [
            1,
            2
          ]
        },
        {
          "id": 205493,
          "name": "Providence (Vie)",
          "security_id": 104967,
          "spot_prices": [
            145,
            150
          ]
        },
        {
          "id": 205840,
          "name": "Baloise (Incendie)",
          "security_id": 105162,
          "spot_prices": [
            2800
          ]
        },
        {
          "id": 205508,
          "name": "L'Union (vie), (nominatives)(Cessionnaires soumis à l'agrément di Conseil d'Administration)",
          "security_id": 588,
          "spot_prices": [
            4400,
            4450
          ]
        },
        {
          "id": 205509,
          "name": "L'Union (incendie), 1250f.p.(nom.)(Cessionnaires soumis à l'agrément di Conseil d'Administration)",
          "security_id": 1491,
          "spot_prices": [
            14000,
            14500
          ]
        },
        {
          "id": 205500,
          "name": "Le Soleil (incendie), actions 500f., tout payé (nominatives)(Cessionnaires soumis à l'agrément di Conseil d'Administration)",
          "security_id": 1604,
          "spot_prices": [
            3650,
            3700
          ]
        },
        {
          "id": 205435,
          "name": "Abeille (Diverses) Accidents",
          "security_id": 5512,
          "spot_prices": [
            135
          ]
        },
        {
          "id": 205464,
          "name": "Fondiaria (Incendie)",
          "security_id": 104305,
          "spot_prices": [
            65,
            70
          ]
        },
        {
          "id": 205559,
          "name": "Paternelle (Diverses) Accidents",
          "security_id": 105006,
          "spot_prices": [
            15,
            25
          ]
        },
        {
          "id": 205841,
          "name": "Baloise (Vie)",
          "security_id": 105163,
          "spot_prices": [
            500,
            550
          ]
        },
        {
          "id": 205856,
          "name": "Rhin-et-Moselle (Incendie)",
          "security_id": 105178,
          "spot_prices": [
            410
          ]
        }
      ]
    }
  ],
  "date": "1891-05-15",
  "stock_exchange": {
    "id": 2,
    "name": "Paris OTC (Coulisse)"
  }
}