{
  "id": 9998,
  "name": "Paris OTC (Coulisse)",
  "children": [
    {
      "id": 661,
      "name": "Valeurs en banque (cote à terme)",
      "notations": [
        {
          "id": 204476,
          "name": "Espagne, 3%, Extérieure, (négociations, change fixe 5f40)",
          "security_id": 991
        },
        {
          "id": 204620,
          "name": "Autriche 76-77-78-79-80 4% (or), nég.ch.fixe 2.50 Obl. 200 flor",
          "security_id": 2315
        },
        {
          "id": 205333,
          "name": "Hongrie 4% 1881 (or).nég.ch.fixe 2f50, Obl. 500flor., tout payé",
          "security_id": 2748
        },
        {
          "id": 205364,
          "name": "Espagne 4%, Extérieure (négoc., ch.fixe, 1f.)",
          "security_id": 2758
        },
        {
          "id": 204504,
          "name": "Obl. Ch. Ottomans, j. oct. 74",
          "security_id": 104175
        },
        {
          "id": 204908,
          "name": "Obl. Ch de fer Egyptiens",
          "security_id": 104506
        },
        {
          "id": 204479,
          "name": "Dette Turque, 5%, 1865-73-74 coup. De 125f",
          "security_id": 1465
        },
        {
          "id": 205342,
          "name": "Canal maritime de Corinthe (Ce Internatle du) act.500f., 125f.payés (nominatives)",
          "security_id": 2630
        },
        {
          "id": 204643,
          "name": "Obl. Egypte 6% unifiée nouv",
          "security_id": 104278
        },
        {
          "id": 204897,
          "name": "Dette gen. tunisienne",
          "security_id": 1915
        },
        {
          "id": 204493,
          "name": "Obl. Ottom. 1873 j. oct. 1874",
          "security_id": 2060
        },
        {
          "id": 204621,
          "name": "Dette d'Egypte unifiée nouv.Obl. Privilégiées hyp. Sur chems. De fer Egyptiens et Port d'Alexandrie, r. à 500f",
          "security_id": 2324
        },
        {
          "id": 204625,
          "name": "Hongrie.-Emp.1875-76-77-78-79 6% or(nég.ch.fixe 2f50) obl.100flor. Tout payé",
          "security_id": 2648
        },
        {
          "id": 204642,
          "name": "Pagarés Rio-Tinto, 5%",
          "security_id": 104277
        },
        {
          "id": 205285,
          "name": "Parts Credit Agricole de France",
          "security_id": 104877
        },
        {
          "id": 205322,
          "name": "Canal Interocéanique (Cie universelle du), act.de 500f., 375f.p.",
          "security_id": 2587
        },
        {
          "id": 204627,
          "name": "Espagne 6%, 1878, obl.du Trésor garanties par revenus des Douanes de l'Ile de Cuba, remb.à 500 fr.",
          "security_id": 2662
        },
        {
          "id": 204485,
          "name": "Banq. Ottomane, act. Nouv. 500f., 150f.p.",
          "security_id": 1711
        },
        {
          "id": 204624,
          "name": "Russie, 5% 1877",
          "security_id": 2642
        },
        {
          "id": 204474,
          "name": "3% Esp. interieur j. jr 73",
          "security_id": 401
        },
        {
          "id": 204891,
          "name": "Perou 6%",
          "security_id": 1853
        },
        {
          "id": 205344,
          "name": "Obl. ch. de f. Transcaucasien",
          "security_id": 3467
        },
        {
          "id": 205334,
          "name": "Ste Miniere des Alpes Autrich. (Alpines)",
          "security_id": 104915
        },
        {
          "id": 204727,
          "name": "Oriental 3% serie",
          "security_id": 104359
        },
        {
          "id": 205284,
          "name": "Credit Agricole de France",
          "security_id": 104876
        }
      ]
    },
    {
      "id": 660,
      "name": "Valeurs en banque (au comptant)",
      "children": [
        {
          "id": 663,
          "name": "Fonds d'Etats et de Villes (Fonds d'Etats de Départements et des Villes)",
          "notations": [
            {
              "id": 204500,
              "name": "Obl d'Autriche, 1854. j. oct.",
              "security_id": 104171,
              "spot_prices": [
                640,
                645
              ]
            },
            {
              "id": 204512,
              "name": "Obl. Bari",
              "security_id": 104184,
              "spot_prices": [
                52.5
              ]
            },
            {
              "id": 204605,
              "name": "Obl. Haiti, 500 fr. 8%. j jr",
              "security_id": 104267,
              "spot_prices": [
                100,
                96.25
              ]
            },
            {
              "id": 204756,
              "name": "Départ.de Constantine 5%, 1879",
              "security_id": 2979,
              "spot_prices": [
                1015
              ]
            },
            {
              "id": 204502,
              "name": "Obl. d'Autriche Loze 1858",
              "security_id": 104173,
              "spot_prices": [
                355,
                357.5
              ]
            },
            {
              "id": 204505,
              "name": "Obl. Naples, j. nov. 75",
              "security_id": 104177,
              "spot_prices": [
                127.5
              ]
            },
            {
              "id": 204660,
              "name": "Ville Bruxelles, 1874, mai 78",
              "security_id": 104295,
              "spot_prices": [
                108.25,
                108
              ]
            },
            {
              "id": 204663,
              "name": "Ville Neufchatel",
              "security_id": 104298,
              "spot_prices": [
                14.5
              ]
            },
            {
              "id": 204495,
              "name": "Obl. Florence, j. oct. 75",
              "security_id": 2258,
              "spot_prices": [
                145
              ]
            },
            {
              "id": 205338,
              "name": "Dep. du Nord ",
              "security_id": 40531,
              "spot_prices": [
                101
              ]
            },
            {
              "id": 204499,
              "name": "Obl. Russes, 1866. j.sept. 75",
              "security_id": 104170,
              "spot_prices": [
                503.75,
                505
              ]
            },
            {
              "id": 204721,
              "name": "Ville Bruxelles, 1879, 15jn. 79",
              "security_id": 104353,
              "spot_prices": [
                101.75,
                102.5
              ]
            },
            {
              "id": 204498,
              "name": "Obl. Russes, 1864.j.juill. 75",
              "security_id": 104169,
              "spot_prices": [
                530
              ]
            },
            {
              "id": 204509,
              "name": "Obl. de Milan 1866",
              "security_id": 104181,
              "spot_prices": [
                11.25
              ]
            },
            {
              "id": 204659,
              "name": "Ville Anvers, 1874, nov. 78",
              "security_id": 104294,
              "spot_prices": [
                99.25,
                100
              ]
            },
            {
              "id": 204661,
              "name": "Ville Ancone",
              "security_id": 104296,
              "spot_prices": [
                425
              ]
            },
            {
              "id": 205264,
              "name": "Rente Napolitaine 5%",
              "security_id": 104858,
              "spot_prices": [
                83,
                83.25
              ]
            },
            {
              "id": 204480,
              "name": "Obl Ville Anvers 1867, j. mars 75",
              "security_id": 1549,
              "spot_prices": [
                101
              ]
            },
            {
              "id": 204482,
              "name": "Obl. Liege, 1868.j. avril 75",
              "security_id": 1555,
              "spot_prices": [
                95.5
              ]
            },
            {
              "id": 204506,
              "name": "Obl. Madrid. j. janvier 71",
              "security_id": 104178,
              "spot_prices": [
                45.5
              ]
            },
            {
              "id": 204510,
              "name": "Obl. de Venise",
              "security_id": 104182,
              "spot_prices": [
                21.25
              ]
            },
            {
              "id": 204511,
              "name": "Obl. Barletta",
              "security_id": 104183,
              "spot_prices": [
                28,
                28.5
              ]
            },
            {
              "id": 205339,
              "name": "Obl. Haiti, Bons de coup. juil. 81",
              "security_id": 104916,
              "spot_prices": [
                20.4,
                20
              ]
            },
            {
              "id": 204481,
              "name": "Obl. Bruxelles, 1867.j. jr 75",
              "security_id": 1554,
              "spot_prices": [
                103
              ]
            },
            {
              "id": 204503,
              "name": "Obl. de Fribourg",
              "security_id": 104174,
              "spot_prices": [
                21.5
              ]
            },
            {
              "id": 204507,
              "name": "Obl. de Bucharest",
              "security_id": 104179,
              "spot_prices": [
                32
              ]
            },
            {
              "id": 204508,
              "name": "Obl. de Milan 1861",
              "security_id": 104180,
              "spot_prices": [
                33.5
              ]
            },
            {
              "id": 204720,
              "name": "Ville d'Anvers 1859 aout 78",
              "security_id": 104352,
              "spot_prices": [
                116.25
              ]
            },
            {
              "id": 204501,
              "name": "Obl. d'Autriche 1864",
              "security_id": 104172,
              "spot_prices": [
                357.5
              ]
            },
            {
              "id": 204662,
              "name": "Ville Naples, 1877, juillet 78",
              "security_id": 104297,
              "spot_prices": [
                380
              ]
            },
            {
              "id": 205263,
              "name": "Rente Florentine 3%",
              "security_id": 104857,
              "spot_prices": [
                57.25,
                57.5
              ]
            }
          ]
        },
        {
          "id": 666,
          "name": "Obligations du Crédit Foncier",
          "notations": [
            {
              "id": 204646,
              "name": "Obl. Court t. 1886",
              "security_id": 104281,
              "spot_prices": [
                510
              ]
            },
            {
              "id": 205347,
              "name": "Communales, Court terme 1884, juil. 79",
              "security_id": 104920,
              "spot_prices": [
                505
              ]
            },
            {
              "id": 205553,
              "name": "Foncieres 4.5 500 fr 15 jl 83",
              "security_id": 105002,
              "spot_prices": [
                498.75,
                500
              ]
            },
            {
              "id": 205541,
              "name": "Obligations communales 4% 81 avril 82",
              "security_id": 3726,
              "spot_prices": [
                445,
                446.25
              ]
            },
            {
              "id": 205345,
              "name": "Communales, Court terme 1885, juil. 78",
              "security_id": 104918,
              "spot_prices": [
                507.5,
                510
              ]
            },
            {
              "id": 205550,
              "name": "B. Hypother 4 % 79 jouis. nov.",
              "security_id": 105000,
              "spot_prices": [
                410,
                415
              ]
            },
            {
              "id": 205555,
              "name": "Foncieres 4% 1882",
              "security_id": 105003,
              "spot_prices": [
                456.25,
                450
              ]
            }
          ]
        },
        {
          "id": 671,
          "name": "Bons",
          "notations": [
            {
              "id": 205370,
              "name": "Bons Trav. publ. 6% 2 s. oc. 79",
              "security_id": 104926,
              "spot_prices": [
                3.25
              ]
            },
            {
              "id": 204864,
              "name": "Dock Entr. G de France",
              "security_id": 104466,
              "spot_prices": [
                11.25,
                12.5
              ]
            },
            {
              "id": 205369,
              "name": "Bons Trav. publ. 6% 1 s. oc. 79",
              "security_id": 104925,
              "spot_prices": [
                5.5
              ]
            },
            {
              "id": 204773,
              "name": "Bons Liverdun, 15 juill. 78",
              "security_id": 2236,
              "spot_prices": [
                15
              ]
            },
            {
              "id": 204854,
              "name": "Bons Marchés Naples, ex-c. 1",
              "security_id": 104206
            },
            {
              "id": 204822,
              "name": "Bons Ste des Pyrenees, jn 79",
              "security_id": 104428,
              "spot_prices": [
                2
              ]
            }
          ]
        },
        {
          "id": 664,
          "name": "Chemins de fer et Transports Divers (Chemins de Fer Transports Divers et Canaux)",
          "notations": [
            {
              "id": 204618,
              "name": "Obl. Lille a Valenciennes 5%",
              "security_id": 2211,
              "spot_prices": [
                275
              ]
            },
            {
              "id": 204574,
              "name": "Ch. Seville-Xeres, j. jr. 65",
              "security_id": 104202,
              "spot_prices": [
                2
              ]
            },
            {
              "id": 204575,
              "name": "Obl. Lerida a Reuss.j. oct. 64",
              "security_id": 104204,
              "spot_prices": [
                150
              ]
            },
            {
              "id": 204673,
              "name": "Obl. Tramways de Roubaix, oct. 78",
              "security_id": 104308,
              "spot_prices": [
                66.25
              ]
            },
            {
              "id": 204680,
              "name": "Obl. Ch. et Docks S. Ouen, s. 78",
              "security_id": 104312,
              "spot_prices": [
                330
              ]
            },
            {
              "id": 204871,
              "name": "Obl. Treport, juillet 1878",
              "security_id": 104473,
              "spot_prices": [
                285
              ]
            },
            {
              "id": 204611,
              "name": "Pampelune, juillet 65 (act.)",
              "security_id": 1521,
              "spot_prices": [
                1.5
              ]
            },
            {
              "id": 204614,
              "name": "Obl. Vendée, 3% octob. 77",
              "security_id": 1633,
              "spot_prices": [
                197.5
              ]
            },
            {
              "id": 205351,
              "name": "Obl. Frevent-Gamaches jt 77",
              "security_id": 2131
            },
            {
              "id": 204633,
              "name": "Obl. Lille a Valenciennes 3%",
              "security_id": 3346,
              "spot_prices": [
                170
              ]
            },
            {
              "id": 204579,
              "name": "Obl. Livourne-Fl., j. jt. 75",
              "security_id": 104210,
              "spot_prices": [
                275
              ]
            },
            {
              "id": 204672,
              "name": "Obl. Tramways de I'Eure, oct. 78",
              "security_id": 104307,
              "spot_prices": [
                7
              ]
            },
            {
              "id": 204834,
              "name": "Ce Aux. des ch. de fer anc",
              "security_id": 104440
            },
            {
              "id": 205276,
              "name": "Obl. Gros Camionnage ne 83",
              "security_id": 104869
            },
            {
              "id": 204609,
              "name": "Obl. Pampelune, oct. 75",
              "security_id": 1222,
              "spot_prices": [
                305
              ]
            },
            {
              "id": 204634,
              "name": "Omnibus de Londres, sept. 78",
              "security_id": 104201,
              "spot_prices": [
                170,
                175
              ]
            },
            {
              "id": 204599,
              "name": "Ch. Seville act. échangées",
              "security_id": 104261,
              "spot_prices": [
                235
              ]
            },
            {
              "id": 204667,
              "name": "Saint-Louis du Rhone",
              "security_id": 104302,
              "spot_prices": [
                9,
                10
              ]
            },
            {
              "id": 204826,
              "name": "Voitures Nouvelles de Paris",
              "security_id": 104432,
              "spot_prices": [
                5
              ]
            },
            {
              "id": 204827,
              "name": "Tramways d'Anzin",
              "security_id": 104433,
              "spot_prices": [
                125
              ]
            },
            {
              "id": 204835,
              "name": "Ce Aux. des ch. nouv",
              "security_id": 104441,
              "spot_prices": [
                58.75
              ]
            },
            {
              "id": 204882,
              "name": "Obl. Simplon vert ex-c. 4",
              "security_id": 104483,
              "spot_prices": [
                9
              ]
            },
            {
              "id": 205341,
              "name": "Suisse occ, juin 76 ex-c.5",
              "security_id": 104917,
              "spot_prices": [
                90
              ]
            },
            {
              "id": 205548,
              "name": "Ch de fer st la Manche (av P)",
              "security_id": 104998
            },
            {
              "id": 205328,
              "name": "Obl. Romains, 3% juill. 82",
              "security_id": 1122,
              "spot_prices": [
                271.25
              ]
            },
            {
              "id": 204549,
              "name": "Russes (Grande Société des chemins de fer), act.500fr., t.p.",
              "security_id": 1146
            },
            {
              "id": 204556,
              "name": "Obl.Guill.-Lux. 5%.j.nov75",
              "security_id": 1516,
              "spot_prices": [
                590,
                587.5
              ]
            },
            {
              "id": 204615,
              "name": "Obl. Orléans a Rouen (sud) jt 76",
              "security_id": 1742,
              "spot_prices": [
                101.25
              ]
            },
            {
              "id": 204665,
              "name": "Hirondelles parisien., nov. 78",
              "security_id": 104300,
              "spot_prices": [
                407.5
              ]
            },
            {
              "id": 204774,
              "name": "Obl. Barcelone Badalone",
              "security_id": 104386
            },
            {
              "id": 204893,
              "name": "Ce Ge Gros Camionn ex-c. 4",
              "security_id": 104493,
              "spot_prices": [
                112.5,
                110
              ]
            },
            {
              "id": 205256,
              "name": "Lérida a Reuss oct. 64",
              "security_id": 104853,
              "spot_prices": [
                60
              ]
            },
            {
              "id": 204553,
              "name": "Canalisation de I'Ebre",
              "security_id": 1436,
              "spot_prices": [
                25
              ]
            },
            {
              "id": 204564,
              "name": "Bons Méridionaux 6%, r. 500f., remb. en 30 ans, tout payé",
              "security_id": 2289,
              "spot_prices": [
                275
              ]
            },
            {
              "id": 205324,
              "name": "L'Urbaine (Cie parisienne des Voitures) act.500f.t.p.(n°s 1à24000)",
              "security_id": 3047,
              "spot_prices": [
                35
              ]
            },
            {
              "id": 204666,
              "name": "Transports parisiens",
              "security_id": 104301,
              "spot_prices": [
                50
              ]
            },
            {
              "id": 204668,
              "name": "Obl. St-Nazaire au Croizic. jt 77",
              "security_id": 104303,
              "spot_prices": [
                250
              ]
            },
            {
              "id": 204883,
              "name": "Obl. Montblanch-Reuss oct. 64",
              "security_id": 104484,
              "spot_prices": [
                145,
                140
              ]
            },
            {
              "id": 204551,
              "name": "Obl.Guill.-Lux. 3%, id",
              "security_id": 1267,
              "spot_prices": [
                370,
                380
              ]
            },
            {
              "id": 204554,
              "name": "Obl. Savone a Turin, j. jt. 75",
              "security_id": 1472,
              "spot_prices": [
                275
              ]
            },
            {
              "id": 204769,
              "name": "Obl. Perpignan a Prades Jt 72",
              "security_id": 1622,
              "spot_prices": [
                140
              ]
            },
            {
              "id": 204770,
              "name": "Obl. Perpignan avec bon Jt 77",
              "security_id": 2417,
              "spot_prices": [
                145
              ]
            },
            {
              "id": 204635,
              "name": "Obl. Simplon. Blanc",
              "security_id": 104211,
              "spot_prices": [
                10.5
              ]
            },
            {
              "id": 204589,
              "name": "Obl. Séville-Xérès (grise)",
              "security_id": 104236,
              "spot_prices": [
                188.75
              ]
            },
            {
              "id": 204664,
              "name": "Arles à St-Louis, juin 78",
              "security_id": 104299,
              "spot_prices": [
                175,
                133.35
              ]
            },
            {
              "id": 204729,
              "name": "Cie Gle des Ch. de fer s. routes",
              "security_id": 104361
            },
            {
              "id": 205331,
              "name": "Obl. Voitures Urbaine, oct. 82",
              "security_id": 104913,
              "spot_prices": [
                132.5
              ]
            },
            {
              "id": 205327,
              "name": "Part Panama 1/10",
              "security_id": 3177,
              "spot_prices": [
                4150,
                4275
              ]
            },
            {
              "id": 204584,
              "name": "Obl. N.-O. Espag., juin 66",
              "security_id": 104226,
              "spot_prices": [
                10
              ]
            },
            {
              "id": 204669,
              "name": "Obl. Hal. A vapeur de 300 jt. 81",
              "security_id": 104304
            },
            {
              "id": 204892,
              "name": "Voitures d'Angers, ex-c. 3",
              "security_id": 104492
            },
            {
              "id": 205329,
              "name": "Obl. Hal. A vapeur de 600 jt 81",
              "security_id": 104911,
              "spot_prices": [
                20
              ]
            },
            {
              "id": 205330,
              "name": "Obl. Omnib. Marseille 15 oct 81",
              "security_id": 104912,
              "spot_prices": [
                30.5,
                31.25
              ]
            },
            {
              "id": 204640,
              "name": "Obl. Seville-Xéres (jaune) j. juin",
              "security_id": 104275,
              "spot_prices": [
                187.5
              ]
            },
            {
              "id": 204678,
              "name": "Obl. Tramways catalans, janv. 78",
              "security_id": 104310,
              "spot_prices": [
                20
              ]
            },
            {
              "id": 204679,
              "name": "Obl. Hirondelles parisiennes, jt 78",
              "security_id": 104311,
              "spot_prices": [
                75
              ]
            },
            {
              "id": 204829,
              "name": "Ch. de fer Vesuve, ex-coup. 3",
              "security_id": 104435,
              "spot_prices": [
                150,
                140
              ]
            },
            {
              "id": 205265,
              "name": "Obl. Ce Aux. ch. de fer, nov. 82",
              "security_id": 104504,
              "spot_prices": [
                115,
                114.5
              ]
            }
          ]
        },
        {
          "id": 667,
          "name": "Valeurs diverses",
          "children": [
            {
              "id": 672,
              "name": "Actions (Valeurs diverses)",
              "notations": [
                {
                  "id": 204674,
                  "name": "Banque de Constantinople",
                  "security_id": 738,
                  "spot_prices": [
                    285
                  ]
                },
                {
                  "id": 204752,
                  "name": "Eaux de Vals",
                  "security_id": 4904,
                  "spot_prices": [
                    900
                  ]
                },
                {
                  "id": 204736,
                  "name": "La Ligneenne",
                  "security_id": 104368,
                  "spot_prices": [
                    0.75
                  ]
                },
                {
                  "id": 204778,
                  "name": "Part Triboulet illust ex c 1",
                  "security_id": 104390
                },
                {
                  "id": 204779,
                  "name": "Petite republique francaise",
                  "security_id": 104391,
                  "spot_prices": [
                    150
                  ]
                },
                {
                  "id": 204791,
                  "name": "Ce Pe Pates Alimentaires",
                  "security_id": 104403,
                  "spot_prices": [
                    8.5
                  ]
                },
                {
                  "id": 204815,
                  "name": "Constr, de la Villette ex-c. 6",
                  "security_id": 104423,
                  "spot_prices": [
                    1.25
                  ]
                },
                {
                  "id": 204837,
                  "name": "Horloges pneumatiques",
                  "security_id": 104443,
                  "spot_prices": [
                    75
                  ]
                },
                {
                  "id": 204849,
                  "name": "Journal des Expediteurs",
                  "security_id": 104455
                },
                {
                  "id": 204855,
                  "name": "Banq. Indust. et agric. ex-c. 1",
                  "security_id": 104457
                },
                {
                  "id": 204858,
                  "name": "Banque agricole",
                  "security_id": 104460
                },
                {
                  "id": 205340,
                  "name": "Banque Europeenne liberee",
                  "security_id": 104498,
                  "spot_prices": [
                    32.5,
                    35
                  ]
                },
                {
                  "id": 204914,
                  "name": "Arts liberaux ex-coupon, 5",
                  "security_id": 104512
                },
                {
                  "id": 204915,
                  "name": "Panorama Detaille-Neuville",
                  "security_id": 104513,
                  "spot_prices": [
                    60
                  ]
                },
                {
                  "id": 205275,
                  "name": "Avertisseur elect. autom. Lib",
                  "security_id": 104868,
                  "spot_prices": [
                    555,
                    550
                  ]
                },
                {
                  "id": 204688,
                  "name": "Cie Française de I'Ind. du Gaz, jt 78",
                  "security_id": 104320,
                  "spot_prices": [
                    20
                  ]
                },
                {
                  "id": 204787,
                  "name": "Verreries francaises",
                  "security_id": 104399,
                  "spot_prices": [
                    5
                  ]
                },
                {
                  "id": 204841,
                  "name": "Huitrières Marennes",
                  "security_id": 104447,
                  "spot_prices": [
                    10
                  ]
                },
                {
                  "id": 204894,
                  "name": "Bains publics de paris",
                  "security_id": 104494
                },
                {
                  "id": 204911,
                  "name": "Comp. Franc. de I'Epargne",
                  "security_id": 104509,
                  "spot_prices": [
                    560
                  ]
                },
                {
                  "id": 204912,
                  "name": "La Reparatrice 100 t. p",
                  "security_id": 104510
                },
                {
                  "id": 205279,
                  "name": "Part Ateliers Saint-Denis",
                  "security_id": 104872
                },
                {
                  "id": 204750,
                  "name": "Le Temps",
                  "security_id": 6897,
                  "spot_prices": [
                    880
                  ]
                },
                {
                  "id": 204685,
                  "name": "Le Siècle",
                  "security_id": 104317,
                  "spot_prices": [
                    500
                  ]
                },
                {
                  "id": 204691,
                  "name": "Eaux de Brest",
                  "security_id": 104323,
                  "spot_prices": [
                    95
                  ]
                },
                {
                  "id": 204693,
                  "name": "Pecheries Francaises, dec. 78",
                  "security_id": 104325,
                  "spot_prices": [
                    5,
                    4
                  ]
                },
                {
                  "id": 204698,
                  "name": "Folies-Bergeres",
                  "security_id": 104330,
                  "spot_prices": [
                    280,
                    285
                  ]
                },
                {
                  "id": 204824,
                  "name": "Ste des Pier.mat.et prod. lith",
                  "security_id": 104430
                },
                {
                  "id": 204843,
                  "name": "Ste Fse Peign. et filat. laine",
                  "security_id": 104449
                },
                {
                  "id": 204913,
                  "name": "Le Progres de la Somme",
                  "security_id": 104511,
                  "spot_prices": [
                    597.5
                  ]
                },
                {
                  "id": 205277,
                  "name": "XIXe Siècle",
                  "security_id": 104870
                },
                {
                  "id": 205354,
                  "name": "Banque Parisienne, 20e de parts de fondateurs",
                  "security_id": 40276
                },
                {
                  "id": 205261,
                  "name": "Tabacs d'Italie juillet 81",
                  "security_id": 104190,
                  "spot_prices": [
                    575
                  ]
                },
                {
                  "id": 204724,
                  "name": "St-Sauveur-les-Arras nov 79",
                  "security_id": 104356,
                  "spot_prices": [
                    300
                  ]
                },
                {
                  "id": 204790,
                  "name": "Minoteries francaises, ex-c. 2",
                  "security_id": 104402
                },
                {
                  "id": 204860,
                  "name": "L'Epargne Fonciere, t. p",
                  "security_id": 104462
                },
                {
                  "id": 205286,
                  "name": "Part Ste Exp. Bts app. tele",
                  "security_id": 104878,
                  "spot_prices": [
                    2600
                  ]
                },
                {
                  "id": 204852,
                  "name": "Le Printemps, Jules Jaluzot et Cie, act.500f., 250f.payés (n°s 18085 à 80000) (nominatives)",
                  "security_id": 3054
                },
                {
                  "id": 204751,
                  "name": "Gaz de Maubeuge, juillet 78",
                  "security_id": 104284,
                  "spot_prices": [
                    80
                  ]
                },
                {
                  "id": 204681,
                  "name": "Banque gén. de credit, jt. 78",
                  "security_id": 104313,
                  "spot_prices": [
                    5.5
                  ]
                },
                {
                  "id": 204684,
                  "name": "Le Petit Lyonnais, juillet 78",
                  "security_id": 104316,
                  "spot_prices": [
                    17.5
                  ]
                },
                {
                  "id": 204697,
                  "name": "Hotels de Nice (actions), juillet 78",
                  "security_id": 104329,
                  "spot_prices": [
                    1
                  ]
                },
                {
                  "id": 204785,
                  "name": "Adm. Affichage et Publicite",
                  "security_id": 104397
                },
                {
                  "id": 204813,
                  "name": "Banque de Capitalisation",
                  "security_id": 104421
                },
                {
                  "id": 204818,
                  "name": "Lesage et Cie (anc. Cie Richer) j. 78",
                  "security_id": 104424,
                  "spot_prices": [
                    680,
                    670
                  ]
                },
                {
                  "id": 204838,
                  "name": "Eaux de Pougues ex-c",
                  "security_id": 104444
                },
                {
                  "id": 204857,
                  "name": "Banque Mobiliere j. jt 80 t. p",
                  "security_id": 104459
                },
                {
                  "id": 204862,
                  "name": "Comptoir Central",
                  "security_id": 104464
                },
                {
                  "id": 204909,
                  "name": "Banq. Des Cantons de France",
                  "security_id": 104507,
                  "spot_prices": [
                    525
                  ]
                },
                {
                  "id": 204910,
                  "name": "Comptoir des Coupons",
                  "security_id": 104508
                },
                {
                  "id": 205258,
                  "name": "Banq. Credit Francais",
                  "security_id": 104854
                },
                {
                  "id": 205259,
                  "name": "Banq. Parts Fondateurs",
                  "security_id": 104855
                },
                {
                  "id": 205278,
                  "name": "Entrepots libres (Ce Gle des)",
                  "security_id": 104871
                },
                {
                  "id": 204686,
                  "name": "Imprimerie Dubuission",
                  "security_id": 104318,
                  "spot_prices": [
                    375
                  ]
                },
                {
                  "id": 205257,
                  "name": "Imprimerie Libr. cat. Palme ex-c 1",
                  "security_id": 104319
                },
                {
                  "id": 204692,
                  "name": "Eaux de Calais",
                  "security_id": 104324,
                  "spot_prices": [
                    110,
                    111.25
                  ]
                },
                {
                  "id": 204722,
                  "name": "Le Petit Marseillais 25 aout 79",
                  "security_id": 104354,
                  "spot_prices": [
                    585
                  ]
                },
                {
                  "id": 204735,
                  "name": "Bourse parisienne ex-c. 3",
                  "security_id": 104367,
                  "spot_prices": [
                    290
                  ]
                },
                {
                  "id": 204812,
                  "name": "Banq English French 10£",
                  "security_id": 104420,
                  "spot_prices": [
                    1.5
                  ]
                },
                {
                  "id": 204847,
                  "name": "Raffin. Etien Cezard ex-c 1",
                  "security_id": 104453,
                  "spot_prices": [
                    13.75
                  ]
                },
                {
                  "id": 205287,
                  "name": "Forg. et fond. de France e-c. 1",
                  "security_id": 104879
                },
                {
                  "id": 205288,
                  "name": "Ste Controle des Transports",
                  "security_id": 104880
                },
                {
                  "id": 205353,
                  "name": "Credit de France 250 p",
                  "security_id": 2828
                },
                {
                  "id": 204851,
                  "name": "Gdes Tuileries du Berry",
                  "security_id": 40223,
                  "spot_prices": [
                    45
                  ]
                },
                {
                  "id": 205343,
                  "name": "Banq. des Fonds Publics et des Valeurs industrielles, action 500 fr. 125 p., nominatives",
                  "security_id": 40509
                },
                {
                  "id": 204918,
                  "name": "Alliance estampillée",
                  "security_id": 104187,
                  "spot_prices": [
                    2.975,
                    3.025
                  ]
                },
                {
                  "id": 204694,
                  "name": "Corderies du Maine, dec. 78",
                  "security_id": 104326,
                  "spot_prices": [
                    4
                  ]
                },
                {
                  "id": 204731,
                  "name": "Banq de Paris et de Bretagne",
                  "security_id": 104363,
                  "spot_prices": [
                    2.5
                  ]
                },
                {
                  "id": 204788,
                  "name": "Ste anonyme du Nord",
                  "security_id": 104400
                },
                {
                  "id": 204870,
                  "name": "L'Assemblee Generale ex-c. 1",
                  "security_id": 104472,
                  "spot_prices": [
                    10
                  ]
                },
                {
                  "id": 204895,
                  "name": "Bains Part de fondateurs",
                  "security_id": 104495
                },
                {
                  "id": 204753,
                  "name": "Jardin d'acclimatation",
                  "security_id": 1585,
                  "spot_prices": [
                    180
                  ]
                },
                {
                  "id": 204754,
                  "name": "Hippodr. de Paris, 15 nov. 78",
                  "security_id": 40180,
                  "spot_prices": [
                    225,
                    227.5
                  ]
                },
                {
                  "id": 204675,
                  "name": "La Lanterne, 10 aout 78",
                  "security_id": 40186,
                  "spot_prices": [
                    205,
                    210
                  ]
                },
                {
                  "id": 204757,
                  "name": "Le Petit Journal. nov. 78",
                  "security_id": 104381,
                  "spot_prices": [
                    722.5,
                    725
                  ]
                },
                {
                  "id": 204839,
                  "name": "Eaux d'Hyeres",
                  "security_id": 104445,
                  "spot_prices": [
                    10
                  ]
                },
                {
                  "id": 204840,
                  "name": "Ce Urbaine Vidanges",
                  "security_id": 104446
                },
                {
                  "id": 204846,
                  "name": "Forges et acieries Nationales",
                  "security_id": 104452
                },
                {
                  "id": 204848,
                  "name": "Triboulet illustré",
                  "security_id": 104454,
                  "spot_prices": [
                    70
                  ]
                },
                {
                  "id": 204859,
                  "name": "St. Epargne nationale ex-c 2",
                  "security_id": 104461,
                  "spot_prices": [
                    10
                  ]
                },
                {
                  "id": 204916,
                  "name": "Panorama Dotailie-Nenville act. de jouis",
                  "security_id": 104514,
                  "spot_prices": [
                    30
                  ]
                },
                {
                  "id": 204917,
                  "name": "Panorama St-Honore",
                  "security_id": 104515,
                  "spot_prices": [
                    12.5
                  ]
                },
                {
                  "id": 205274,
                  "name": "Cie Gen. Banq. Depart. ex-c 5",
                  "security_id": 104867,
                  "spot_prices": [
                    2.5
                  ]
                },
                {
                  "id": 205280,
                  "name": "Eden-Theatre",
                  "security_id": 104873
                },
                {
                  "id": 205332,
                  "name": "Taillerie mec. Diamants",
                  "security_id": 104914
                },
                {
                  "id": 205348,
                  "name": "Banq. Romaine Parts fondr",
                  "security_id": 104921
                }
              ]
            },
            {
              "id": 673,
              "name": "Obligations (Valeurs diverses)",
              "notations": [
                {
                  "id": 204760,
                  "name": "Tabacs d'Italie, juillet 78",
                  "security_id": 1545,
                  "spot_prices": [
                    507.5
                  ]
                },
                {
                  "id": 204874,
                  "name": "Rente indust. de 125 f. dec. 83",
                  "security_id": 104476
                },
                {
                  "id": 204875,
                  "name": "Rente indust. de 375 f. dec. 83",
                  "security_id": 104477
                },
                {
                  "id": 204878,
                  "name": "Taill. mec. Diamants oct. 81",
                  "security_id": 104480
                },
                {
                  "id": 204907,
                  "name": "Entrepots P. L. M. nov. 81",
                  "security_id": 104505,
                  "spot_prices": [
                    38.75,
                    40
                  ]
                },
                {
                  "id": 205545,
                  "name": "Foncier Argentin 6%",
                  "security_id": 104995
                },
                {
                  "id": 204763,
                  "name": "Usine de Saint-Quentin. oct. 78",
                  "security_id": 104287,
                  "spot_prices": [
                    110
                  ]
                },
                {
                  "id": 204755,
                  "name": "Eaux de Nimes",
                  "security_id": 104227,
                  "spot_prices": [
                    4.75
                  ]
                },
                {
                  "id": 204725,
                  "name": "Eaux de Bussang juillet 79",
                  "security_id": 104357,
                  "spot_prices": [
                    380
                  ]
                },
                {
                  "id": 204762,
                  "name": "Figaro nouvelle (obl), 15 sept. 78",
                  "security_id": 104383,
                  "spot_prices": [
                    507.5,
                    510
                  ]
                },
                {
                  "id": 204798,
                  "name": "Vidanges de l'Ouest",
                  "security_id": 104410,
                  "spot_prices": [
                    75
                  ]
                },
                {
                  "id": 204830,
                  "name": "Fonciere Basse-Egypte jt 80",
                  "security_id": 104436
                },
                {
                  "id": 204873,
                  "name": "Rente Industrielle de 300 fr",
                  "security_id": 104475,
                  "spot_prices": [
                    92.5,
                    96.25
                  ]
                },
                {
                  "id": 204898,
                  "name": "Soc. franc. ind., 15 juill. 81",
                  "security_id": 104496,
                  "spot_prices": [
                    30
                  ]
                },
                {
                  "id": 205267,
                  "name": "Casino de Nice, oct. 82",
                  "security_id": 104860,
                  "spot_prices": [
                    100
                  ]
                },
                {
                  "id": 204761,
                  "name": "Ateliers de Passy juillet 78",
                  "security_id": 104289,
                  "spot_prices": [
                    45
                  ]
                },
                {
                  "id": 204700,
                  "name": "Cie Franc. de I'Ind. du Gaz",
                  "security_id": 104332,
                  "spot_prices": [
                    140
                  ]
                },
                {
                  "id": 204702,
                  "name": "Eaux d'Oran",
                  "security_id": 104334,
                  "spot_prices": [
                    17
                  ]
                },
                {
                  "id": 204703,
                  "name": "Hotels de Nice (oblig.), juillet 78",
                  "security_id": 104335,
                  "spot_prices": [
                    32.5,
                    31.25
                  ]
                },
                {
                  "id": 204707,
                  "name": "Usine met. de la Vienne, sept. 78",
                  "security_id": 104339,
                  "spot_prices": [
                    260
                  ]
                },
                {
                  "id": 204901,
                  "name": "S Bacalan-Bordeaux 15 jt 81",
                  "security_id": 104499
                },
                {
                  "id": 205266,
                  "name": "Imp. Et Lib. Univer. Oct. 82",
                  "security_id": 104859
                },
                {
                  "id": 205281,
                  "name": "Gaz de Maubeuge, sept 82",
                  "security_id": 104874,
                  "spot_prices": [
                    237.5,
                    240
                  ]
                },
                {
                  "id": 204880,
                  "name": "Gdes Tuil. du Berry",
                  "security_id": 40224,
                  "spot_prices": [
                    145,
                    147.5
                  ]
                },
                {
                  "id": 204872,
                  "name": "Rente Industrielle de 100 fr",
                  "security_id": 104474,
                  "spot_prices": [
                    31.25,
                    32.5
                  ]
                },
                {
                  "id": 205268,
                  "name": "Huitr. Marennes, 15 aout 82",
                  "security_id": 104861,
                  "spot_prices": [
                    15
                  ]
                },
                {
                  "id": 205289,
                  "name": "Balaruc, decembre 82",
                  "security_id": 104881,
                  "spot_prices": [
                    35
                  ]
                },
                {
                  "id": 204764,
                  "name": "Constr. de la Villette, oct. 78",
                  "security_id": 104288,
                  "spot_prices": [
                    46.5,
                    47.5
                  ]
                },
                {
                  "id": 204705,
                  "name": "Chantiers de la Seine, jt 78",
                  "security_id": 104337,
                  "spot_prices": [
                    15
                  ]
                },
                {
                  "id": 204879,
                  "name": "Briqueteries de Garches",
                  "security_id": 104481
                },
                {
                  "id": 204701,
                  "name": "Eaux de Brest",
                  "security_id": 104333,
                  "spot_prices": [
                    90,
                    91.25
                  ]
                },
                {
                  "id": 204706,
                  "name": "Usine met. d'Auteuil, nov. 78",
                  "security_id": 104338,
                  "spot_prices": [
                    13.75,
                    15
                  ]
                },
                {
                  "id": 204825,
                  "name": "Se des Pier. Mat. Et prod. lith",
                  "security_id": 104431
                },
                {
                  "id": 204877,
                  "name": "Verreries de Vierzon jt 81",
                  "security_id": 104479,
                  "spot_prices": [
                    72.5
                  ]
                },
                {
                  "id": 204881,
                  "name": "Imm. d'Houlgate r a 250",
                  "security_id": 104482,
                  "spot_prices": [
                    10
                  ]
                }
              ]
            }
          ]
        },
        {
          "id": 670,
          "name": "Charbonnages",
          "notations": [
            {
              "id": 204715,
              "name": "Auzits, oct. 77",
              "security_id": 104347
            },
            {
              "id": 204719,
              "name": "Obl. Communay, nov. 78",
              "security_id": 104351,
              "spot_prices": [
                8.75
              ]
            },
            {
              "id": 205272,
              "name": "Haute-Rhoen coup. 1 att",
              "security_id": 104865
            },
            {
              "id": 204592,
              "name": "Houill. Var remb. à 100 f. (Int. 6 fr.)",
              "security_id": 104239,
              "spot_prices": [
                1
              ]
            },
            {
              "id": 204582,
              "name": "Obl. Charbonn. Nord, j.nov",
              "security_id": 104216,
              "spot_prices": [
                40,
                45
              ]
            },
            {
              "id": 204641,
              "name": "Obl. Compagnie Francaise de Pienza",
              "security_id": 104276,
              "spot_prices": [
                3
              ]
            },
            {
              "id": 204748,
              "name": "Obl. Styro-Croate (Autr.-Hong)",
              "security_id": 104380
            },
            {
              "id": 204716,
              "name": "Obl. Auzits, juillet 78",
              "security_id": 104348,
              "spot_prices": [
                3
              ]
            },
            {
              "id": 204578,
              "name": "Obl. Mondragon. j. jt. 75",
              "security_id": 104207,
              "spot_prices": [
                8.75
              ]
            },
            {
              "id": 204583,
              "name": "Obl. Charbonn. Rhin, j. oct",
              "security_id": 104217,
              "spot_prices": [
                100,
                105
              ]
            },
            {
              "id": 204747,
              "name": "Baelen 15 oct. 1879",
              "security_id": 104379
            }
          ]
        },
        {
          "id": 669,
          "name": "Mines",
          "notations": [
            {
              "id": 204746,
              "name": "Obl. Italienne soufre, aout 79",
              "security_id": 104378,
              "spot_prices": [
                9
              ]
            },
            {
              "id": 204831,
              "name": "Carr franc et Belges c. 1 est",
              "security_id": 104437
            },
            {
              "id": 204726,
              "name": "Parts Fondateur Bingham",
              "security_id": 104358,
              "spot_prices": [
                10
              ]
            },
            {
              "id": 204833,
              "name": "Obl. Petroles d'Italie oct. 80",
              "security_id": 104439,
              "spot_prices": [
                3
              ]
            },
            {
              "id": 205558,
              "name": "Rio-Tinto (act.)",
              "security_id": 3927,
              "spot_prices": [
                485,
                477.5
              ]
            },
            {
              "id": 204570,
              "name": "Stolberg (p ivileg.), j.oct. 75",
              "security_id": 104197,
              "spot_prices": [
                320
              ]
            },
            {
              "id": 204712,
              "name": "Collo (ex-c 3)",
              "security_id": 104344,
              "spot_prices": [
                3
              ]
            },
            {
              "id": 204713,
              "name": "Obl. Mines de la Correze, ja. 77",
              "security_id": 104345,
              "spot_prices": [
                10
              ]
            },
            {
              "id": 204743,
              "name": "Omnium soufres nov 79 ex-c. 2",
              "security_id": 104375
            },
            {
              "id": 204744,
              "name": "Carrieres et cons. 15 mai 79",
              "security_id": 104376
            },
            {
              "id": 204832,
              "name": "Carrieres de marbres ex-c 2",
              "security_id": 104438
            },
            {
              "id": 204865,
              "name": "Ardoisières et Mines d'Argut",
              "security_id": 104467
            },
            {
              "id": 204866,
              "name": "Salins Mediterranée ex-c. 2",
              "security_id": 104468,
              "spot_prices": [
                7
              ]
            },
            {
              "id": 205271,
              "name": "Obl. Carr, Pas-d.-Calais. At 82",
              "security_id": 104864,
              "spot_prices": [
                75,
                76.25
              ]
            },
            {
              "id": 205290,
              "name": "Magnesies naturelles",
              "security_id": 104882
            },
            {
              "id": 205291,
              "name": "Obl. Bitumes, decembre 82",
              "security_id": 104883,
              "spot_prices": [
                26.25
              ]
            },
            {
              "id": 205371,
              "name": "Obl. Rio-Tinto",
              "security_id": 104927,
              "spot_prices": [
                513.75
              ]
            },
            {
              "id": 204600,
              "name": "Silesie (anc.), j. nov. 75",
              "security_id": 104262,
              "spot_prices": [
                385
              ]
            },
            {
              "id": 204714,
              "name": "Obl. Mines de Carnoules. jt",
              "security_id": 104346,
              "spot_prices": [
                4.5
              ]
            },
            {
              "id": 204890,
              "name": "Obl. Mines Villaguttierrez jt 79",
              "security_id": 104491,
              "spot_prices": [
                2.5
              ]
            },
            {
              "id": 204601,
              "name": "Silesie (privileg.), j. nov. 75",
              "security_id": 104263,
              "spot_prices": [
                395
              ]
            },
            {
              "id": 204704,
              "name": "Dielette",
              "security_id": 104336,
              "spot_prices": [
                75
              ]
            },
            {
              "id": 204745,
              "name": "Obl. Carrieres et cons, 15 oc 79",
              "security_id": 104377,
              "spot_prices": [
                12.5
              ]
            },
            {
              "id": 204887,
              "name": "Chaux de Beffes",
              "security_id": 104488,
              "spot_prices": [
                30
              ]
            },
            {
              "id": 204547,
              "name": "Zinc V. Montagne, j. 10 nov.",
              "security_id": 325,
              "spot_prices": [
                220
              ]
            },
            {
              "id": 204869,
              "name": "Ste Ne Expt. de Mines 250 f. p",
              "security_id": 104471,
              "spot_prices": [
                6.5
              ]
            },
            {
              "id": 204886,
              "name": "Ardois. de la Riviere ex-c. 1",
              "security_id": 104487,
              "spot_prices": [
                8
              ]
            },
            {
              "id": 204889,
              "name": "Obl. Soc. Met.Perigord oct 84",
              "security_id": 104490,
              "spot_prices": [
                81.25,
                82.5
              ]
            },
            {
              "id": 205273,
              "name": "Carr. De Lacroix a Feluy priv",
              "security_id": 104866
            },
            {
              "id": 204550,
              "name": "Stolberg (anc.), j. jt. 75",
              "security_id": 1234,
              "spot_prices": [
                90,
                92.5
              ]
            },
            {
              "id": 204767,
              "name": "Pontgibaud",
              "security_id": 6182,
              "spot_prices": [
                200
              ]
            },
            {
              "id": 205260,
              "name": "Parts Commun nov 80 ex-c. 6",
              "security_id": 104856,
              "spot_prices": [
                1.25
              ]
            },
            {
              "id": 205269,
              "name": "Uruguay (Mines d'or de L')",
              "security_id": 104862,
              "spot_prices": [
                12.5
              ]
            },
            {
              "id": 205282,
              "name": "Platrières de Paris, ex.-c 3",
              "security_id": 104875
            },
            {
              "id": 205352,
              "name": "Lexington (Mines de) (parts)",
              "security_id": 40285
            },
            {
              "id": 204867,
              "name": "Carrieres St-Victor la Coste, Gard",
              "security_id": 104469
            },
            {
              "id": 205270,
              "name": "Uruguay act. de jouiss",
              "security_id": 104863,
              "spot_prices": [
                5
              ]
            }
          ]
        }
      ]
    },
    {
      "id": 674,
      "name": "Assurances",
      "notations": [
        {
          "id": 205484,
          "name": "La Paternelle (inc.), 400f.p.(nom.)(Cessionnaires soumis à l'agrément di Conseil d'Administration)",
          "security_id": 553,
          "spot_prices": [
            1740,
            1760
          ]
        },
        {
          "id": 205437,
          "name": "Aigle (Incendie)",
          "security_id": 1735,
          "spot_prices": [
            2000,
            2050
          ]
        },
        {
          "id": 205446,
          "name": "Caisse générale des Familles, a.500f.100f.p.(nominatives)(Cessionnaires soumis à l'agrément di Conseil d'Administration)",
          "security_id": 1809,
          "spot_prices": [
            280,
            300
          ]
        },
        {
          "id": 205456,
          "name": "La Clémentine, a.500f.125f.p. (nom.)",
          "security_id": 2934,
          "spot_prices": [
            25,
            30
          ]
        },
        {
          "id": 205465,
          "name": "La France (vie), a.1000f.250f.p.(nom.)(Cessionnaires soumis à l'agrément di Conseil d'Administration)",
          "security_id": 2935,
          "spot_prices": [
            300,
            315
          ]
        },
        {
          "id": 205507,
          "name": "L'Urbaine et la Seine (accidents), act, 500f., 125f.p. (nominatives)",
          "security_id": 3030,
          "spot_prices": [
            30,
            55
          ]
        },
        {
          "id": 205449,
          "name": "La Centrale (vie), act. 1000f., 250f.p. (nominatives)(Cessionnaires soumis à l'agrément di Conseil d'Administration)",
          "security_id": 3060,
          "spot_prices": [
            80,
            90
          ]
        },
        {
          "id": 205485,
          "name": "Patrimoine (Vie)",
          "security_id": 3198,
          "spot_prices": [
            35,
            45
          ]
        },
        {
          "id": 205443,
          "name": "Austro-hongroise (Incendie)",
          "security_id": 104945,
          "spot_prices": [
            135,
            140
          ]
        },
        {
          "id": 205487,
          "name": "Le Phénix (vie) 1000f.p. (nominat.)(Cessionnaires soumis à l'agrément du Conseil d'Administration)",
          "security_id": 1723,
          "spot_prices": [
            16000,
            16500
          ]
        },
        {
          "id": 205494,
          "name": "La Providence (inc.), 250f.p.nom.(Cessionnaires soumis à l'agrément di Conseil d'Administration)",
          "security_id": 1724,
          "spot_prices": [
            6000,
            6200
          ]
        },
        {
          "id": 205468,
          "name": "Franco-hongroise (Incendie)",
          "security_id": 3412
        },
        {
          "id": 205432,
          "name": "Abeille (Vie)",
          "security_id": 5514,
          "spot_prices": [
            340,
            350
          ]
        },
        {
          "id": 205498,
          "name": "Secours (Diverses) Accidents",
          "security_id": 6717,
          "spot_prices": [
            30
          ]
        },
        {
          "id": 205447,
          "name": "Caisse des familles (Diverses) Accidents",
          "security_id": 104946,
          "spot_prices": [
            65
          ]
        },
        {
          "id": 205448,
          "name": "Caisse des familles (Diverses) Bons",
          "security_id": 104947,
          "spot_prices": [
            490
          ]
        },
        {
          "id": 205458,
          "name": "Conservateur (Vie)",
          "security_id": 104953,
          "spot_prices": [
            1400,
            1300
          ]
        },
        {
          "id": 205475,
          "name": "Midi (Diverses) Grêle",
          "security_id": 104964
        },
        {
          "id": 205490,
          "name": "Preservatrice (Incendie)",
          "security_id": 104965
        },
        {
          "id": 205445,
          "name": "Caisse agricole (Diverses) Bons",
          "security_id": 104971
        },
        {
          "id": 205480,
          "name": "La Nationale (incendie)(nominat.)(Cessionnaires soumis à l'agrément di Conseil d'Administration)",
          "security_id": 87,
          "spot_prices": [
            15000,
            16000
          ]
        },
        {
          "id": 205506,
          "name": "L'Urbaine (inc.), a.1000f, 250f.p.nom.(Cessionnaires soumis à l'agrément di Conseil d'Administration)",
          "security_id": 1605,
          "spot_prices": [
            1400,
            1500
          ]
        },
        {
          "id": 205505,
          "name": "L'Urbaine (vie), a.1000f, 200f.p.nom.(Cessionnaires soumis à l'agrément di Conseil d'Administration)",
          "security_id": 1606,
          "spot_prices": [
            925,
            950
          ]
        },
        {
          "id": 205502,
          "name": "Le Soleil (grêle), a.500f, 125f.p.nom.(Cessionnaires soumis à l'agrément di Conseil d'Administration)",
          "security_id": 2856,
          "spot_prices": [
            65
          ]
        },
        {
          "id": 205476,
          "name": "Le Monde (vie), act.500f., 125f.payés (nominatives)(Cessionnaires soumis à l'agrément di Conseil d'Administration)",
          "security_id": 2939,
          "spot_prices": [
            80,
            90
          ]
        },
        {
          "id": 205481,
          "name": "Le Nord (vie), a.1000f., 250f.p., nom.(Cessionnaires soumis à l'agrément di Conseil d'Administration)",
          "security_id": 7221,
          "spot_prices": [
            100,
            100
          ]
        },
        {
          "id": 205451,
          "name": "Centrale (Diverses) Accidents",
          "security_id": 104949,
          "spot_prices": [
            35,
            40
          ]
        },
        {
          "id": 205457,
          "name": "Commerciale (Incendie)",
          "security_id": 104952,
          "spot_prices": [
            135,
            145
          ]
        },
        {
          "id": 205462,
          "name": "Fonciere (Vie)",
          "security_id": 104955,
          "spot_prices": [
            95,
            100
          ]
        },
        {
          "id": 205471,
          "name": "Lion (Vie)",
          "security_id": 104960,
          "spot_prices": [
            20,
            22
          ]
        },
        {
          "id": 205473,
          "name": "Metropole (Vie)",
          "security_id": 104962,
          "spot_prices": [
            15
          ]
        },
        {
          "id": 205557,
          "name": "Metropole (Incendie)",
          "security_id": 105005,
          "spot_prices": [
            10
          ]
        },
        {
          "id": 205441,
          "name": "Assurances generales (Diverses) Maritimes",
          "security_id": 715,
          "spot_prices": [
            5000
          ]
        },
        {
          "id": 205444,
          "name": "Assurances agric.et inc. (Csse génle act.500f.,125f.p., nominatives",
          "security_id": 1822,
          "spot_prices": [
            80,
            85
          ]
        },
        {
          "id": 205483,
          "name": "Caisse Paternelle (vie), a.500f.125f.p. nominatives(Cessionnaires soumis à l'agrément di Conseil d'Administration)",
          "security_id": 2739,
          "spot_prices": [
            85,
            75
          ]
        },
        {
          "id": 205477,
          "name": "Le Monde (incendie), act.500f., 200f.payés (nominatives)",
          "security_id": 2937,
          "spot_prices": [
            80,
            85
          ]
        },
        {
          "id": 205433,
          "name": "Abeille (Incendie)",
          "security_id": 4953,
          "spot_prices": [
            250,
            260
          ]
        },
        {
          "id": 205486,
          "name": "Patrimoine (Diverses) Accidents",
          "security_id": 5366,
          "spot_prices": [
            35,
            40
          ]
        },
        {
          "id": 205440,
          "name": "Assurances générales (inc.), t.p. (nom.)(Cessionnaires soumis à l'agrément di Conseil d'Administration)",
          "security_id": 6848,
          "spot_prices": [
            21500,
            22000
          ]
        },
        {
          "id": 205455,
          "name": "Confiance (Diverses) Grêle",
          "security_id": 104951,
          "spot_prices": [
            36
          ]
        },
        {
          "id": 205533,
          "name": "Midi (Vie)",
          "security_id": 104990
        },
        {
          "id": 205453,
          "name": "La Confiance (incendie), act. 500f., 200f.p. (nominatives)(Cessionnaires soumis à l'agrément di Conseil d'Administration)",
          "security_id": 2788,
          "spot_prices": [
            200,
            205
          ]
        },
        {
          "id": 205479,
          "name": "La Nationale (vie) (nominatives)(Cessionnaires soumis à l'agrément di Conseil d'Administration)",
          "security_id": 2790,
          "spot_prices": [
            13000,
            13250
          ]
        },
        {
          "id": 205503,
          "name": "Le Temps (vie), a.1000f.250f.p.nom.(Cessionnaires soumis à l'agrément di Conseil d'Administration)",
          "security_id": 2817,
          "spot_prices": [
            100,
            105
          ]
        },
        {
          "id": 205436,
          "name": "L'Aigle (Vie), a.500f., 125p. (nom.)(Cessionnaires soumis à l'agrément di Conseil d'Administration)",
          "security_id": 3000,
          "spot_prices": [
            115,
            125
          ]
        },
        {
          "id": 205482,
          "name": "Le Nord (inc.), a.1000f., 250f.p., nom.(Cessionnaires soumis à l'agrément di Conseil d'Administration)",
          "security_id": 3004,
          "spot_prices": [
            1050,
            1100
          ]
        },
        {
          "id": 205438,
          "name": "Armement (Diverses)",
          "security_id": 104943
        },
        {
          "id": 205467,
          "name": "France industrielle (Diverses)",
          "security_id": 104957,
          "spot_prices": [
            10,
            20
          ]
        },
        {
          "id": 205469,
          "name": "Garantie generale (Vie)",
          "security_id": 104958
        },
        {
          "id": 205472,
          "name": "Lion (Incendie)",
          "security_id": 104961,
          "spot_prices": [
            9,
            11
          ]
        },
        {
          "id": 205522,
          "name": "Ville de Lyon à l'émis (Incendie)",
          "security_id": 104982,
          "spot_prices": [
            175
          ]
        },
        {
          "id": 205560,
          "name": "Assurances Judiciare (Diverses)",
          "security_id": 105007
        },
        {
          "id": 205561,
          "name": "Austro-hongroise (Diverses) Bons",
          "security_id": 105008,
          "spot_prices": [
            95
          ]
        },
        {
          "id": 205439,
          "name": "Assurances générales (vie), t.p. (nominatives)(Cessionnaires soumis à l'agrément di Conseil d'Administration)",
          "security_id": 1587,
          "spot_prices": [
            29500,
            30000
          ]
        },
        {
          "id": 205499,
          "name": "Le Soleil (vie), 250f.p. (nominat.)(Cessionnaires soumis à l'agrément di Conseil d'Administration)",
          "security_id": 1798,
          "spot_prices": [
            395,
            405
          ]
        },
        {
          "id": 205478,
          "name": "Le Monde (accidents), act.500f., 125f.payés (nominatives)",
          "security_id": 2936,
          "spot_prices": [
            40,
            50
          ]
        },
        {
          "id": 205492,
          "name": "Le Progrès National (inc.), act.500f, 125f.payés (nominat.)",
          "security_id": 2941
        },
        {
          "id": 205510,
          "name": "Providence (Diverses) Accidents",
          "security_id": 3001,
          "spot_prices": [
            45,
            55
          ]
        },
        {
          "id": 205501,
          "name": "Soleil (Diverses) Accidents",
          "security_id": 7480,
          "spot_prices": [
            165
          ]
        },
        {
          "id": 205450,
          "name": "Centrale (Incendie)",
          "security_id": 104948,
          "spot_prices": [
            5
          ]
        },
        {
          "id": 205454,
          "name": "Confiance (Diverses) Accidents",
          "security_id": 104950,
          "spot_prices": [
            140,
            155
          ]
        },
        {
          "id": 205470,
          "name": "Generale accidents (Diverses)",
          "security_id": 104959,
          "spot_prices": [
            25,
            30
          ]
        },
        {
          "id": 205488,
          "name": "Phénix (Incendie)",
          "security_id": 85,
          "spot_prices": [
            4500,
            4700
          ]
        },
        {
          "id": 205466,
          "name": "La France (incendie), 100f.p.(nom.)(Cessionnaires soumis à l'agrément di Conseil d'Administration)",
          "security_id": 1593,
          "spot_prices": [
            4000,
            4100
          ]
        },
        {
          "id": 205460,
          "name": "Le Crédit Viager, a.500f.125f.p.nom.(Cessionnaires soumis à l'agrément di Conseil d'Administration)",
          "security_id": 2907,
          "spot_prices": [
            50,
            70
          ]
        },
        {
          "id": 205434,
          "name": "Abeille (Diverses) Grêle",
          "security_id": 4952,
          "spot_prices": [
            250
          ]
        },
        {
          "id": 205452,
          "name": "Confiance (Vie)",
          "security_id": 5199,
          "spot_prices": [
            250,
            260
          ]
        },
        {
          "id": 205459,
          "name": "Continentale (Incendie)",
          "security_id": 104910,
          "spot_prices": [
            5
          ]
        },
        {
          "id": 205442,
          "name": "Assurances francaises (Diverses) Accidents",
          "security_id": 104944
        },
        {
          "id": 205461,
          "name": "Epargne viagère (Vie)",
          "security_id": 104954
        },
        {
          "id": 205463,
          "name": "Fondiaria (Vie)",
          "security_id": 104956,
          "spot_prices": [
            75
          ]
        },
        {
          "id": 205474,
          "name": "Midi (Incendie)",
          "security_id": 104963,
          "spot_prices": [
            80,
            85
          ]
        },
        {
          "id": 205491,
          "name": "Progrès national (Vie)",
          "security_id": 104966,
          "spot_prices": [
            40
          ]
        },
        {
          "id": 205493,
          "name": "Providence (Vie)",
          "security_id": 104967,
          "spot_prices": [
            245,
            250
          ]
        },
        {
          "id": 205521,
          "name": "République (Incendie)",
          "security_id": 104981
        },
        {
          "id": 205508,
          "name": "L'Union (vie), (nominatives)(Cessionnaires soumis à l'agrément di Conseil d'Administration)",
          "security_id": 588,
          "spot_prices": [
            5300,
            5500
          ]
        },
        {
          "id": 205509,
          "name": "L'Union (incendie), 1250f.p.(nom.)(Cessionnaires soumis à l'agrément di Conseil d'Administration)",
          "security_id": 1491,
          "spot_prices": [
            7500,
            7250
          ]
        },
        {
          "id": 205500,
          "name": "Le Soleil (incendie), actions 500f., tout payé (nominatives)(Cessionnaires soumis à l'agrément di Conseil d'Administration)",
          "security_id": 1604,
          "spot_prices": [
            1800,
            1820
          ]
        },
        {
          "id": 205435,
          "name": "Abeille (Diverses) Accidents",
          "security_id": 5512,
          "spot_prices": [
            75
          ]
        },
        {
          "id": 205464,
          "name": "Fondiaria (Incendie)",
          "security_id": 104305,
          "spot_prices": [
            60,
            65
          ]
        },
        {
          "id": 205496,
          "name": "Renaissance (Incendie)",
          "security_id": 104968,
          "spot_prices": [
            2.5
          ]
        }
      ]
    }
  ],
  "date": "1883-11-15",
  "stock_exchange": {
    "id": 2,
    "name": "Paris OTC (Coulisse)"
  }
}