{
  "id": 9998,
  "name": "Paris OTC (Coulisse)",
  "children": [
    {
      "id": 660,
      "name": "Valeurs en banque (au comptant)"
    }
  ],
  "date": "1834-04-15",
  "stock_exchange": {
    "id": 2,
    "name": "Paris OTC (Coulisse)"
  }
}