{
  "id": 9998,
  "name": "Paris OTC (Coulisse)",
  "children": [
    {
      "id": 661,
      "name": "Valeurs en banque (cote à terme)",
      "notations": [
        {
          "id": 204476,
          "name": "Espagne, 3%, Extérieure, (négociations, change fixe 5f40)",
          "security_id": 991
        },
        {
          "id": 204620,
          "name": "Autriche 76-77-78-79-80 4% (or), nég.ch.fixe 2.50 Obl. 200 flor",
          "security_id": 2315
        },
        {
          "id": 205322,
          "name": "Can. Panama Act",
          "security_id": 2587
        },
        {
          "id": 204504,
          "name": "Obl. Ch. Ottomans, j. oct. 74",
          "security_id": 104175
        },
        {
          "id": 204899,
          "name": "Banque Europeenne",
          "security_id": 104497
        },
        {
          "id": 204479,
          "name": "Dette Turque, 5%, 1865-73-74 coup. De 125f",
          "security_id": 1465
        },
        {
          "id": 204604,
          "name": "Espagne Billets hypothecaires ext.",
          "security_id": 104266
        },
        {
          "id": 204643,
          "name": "Obl. Egypte 6% unifiée nouv",
          "security_id": 104278
        },
        {
          "id": 204493,
          "name": "Obl. Ottom. 1873 j. oct. 1874",
          "security_id": 2060
        },
        {
          "id": 204621,
          "name": "Dette d'Egypte unifiée nouv.Obl. Privilégiées hyp. Sur chems. De fer Egyptiens et Port d'Alexandrie, r. à 500f",
          "security_id": 2324
        },
        {
          "id": 204623,
          "name": "Banque hypothécaire de France, a.500f., 250f.p.",
          "security_id": 2511
        },
        {
          "id": 204625,
          "name": "Hongrie.-Emp.1875-76-77-78-79 6% or(nég.ch.fixe 2f50) obl.100flor. Tout payé",
          "security_id": 2648
        },
        {
          "id": 204642,
          "name": "Pagarés Rio-Tinto, 5%",
          "security_id": 104277
        },
        {
          "id": 204627,
          "name": "Espagne 6%, 1878, obl.du Trésor garanties par revenus des Douanes de l'Ile de Cuba, remb.à 500 fr.",
          "security_id": 2662
        },
        {
          "id": 205321,
          "name": "Phenix espagnol",
          "security_id": 3916
        },
        {
          "id": 204485,
          "name": "Banq. Ottomane, act. Nouv. 500f., 150f.p.",
          "security_id": 1711
        },
        {
          "id": 204624,
          "name": "Russie, 5% 1877",
          "security_id": 2642
        },
        {
          "id": 204626,
          "name": "Egypte (oblig. Domaniales hypothéc.d') 5%, 1878._ tout payé",
          "security_id": 2660
        },
        {
          "id": 204631,
          "name": "Espagne Extérieure, 2%, créée en représentation de Bons de c. Arriérés.",
          "security_id": 3092
        },
        {
          "id": 204670,
          "name": "La Fondiaria 100 f. p",
          "security_id": 104305
        },
        {
          "id": 204820,
          "name": "Anglo univ Bank",
          "security_id": 104426
        },
        {
          "id": 204900,
          "name": "Banque Europeenne liberee",
          "security_id": 104498
        },
        {
          "id": 204474,
          "name": "3% Esp. interieur j. jr 73",
          "security_id": 401
        },
        {
          "id": 204891,
          "name": "Perou 6%",
          "security_id": 1853
        },
        {
          "id": 205349,
          "name": "Banque I.R.P.des Pays-Autrichiennes, act.500f., 250f.p.",
          "security_id": 3580
        },
        {
          "id": 205323,
          "name": "Can. Panama Parts de fond",
          "security_id": 3177
        },
        {
          "id": 204727,
          "name": "Oriental 3% serie",
          "security_id": 104359
        }
      ]
    },
    {
      "id": 660,
      "name": "Valeurs en banque (au comptant)",
      "children": [
        {
          "id": 663,
          "name": "Fonds d'Etats et de Villes (Fonds d'Etats de Départements et des Villes)",
          "notations": [
            {
              "id": 204500,
              "name": "Obl d'Autriche, 1854. j. oct.",
              "security_id": 104171,
              "spot_prices": [
                662.5
              ]
            },
            {
              "id": 204512,
              "name": "Obl. Bari",
              "security_id": 104184,
              "spot_prices": [
                58,
                58.5
              ]
            },
            {
              "id": 204605,
              "name": "Obl. Haiti, 500 fr. 8%. j jr",
              "security_id": 104267,
              "spot_prices": [
                165,
                160
              ]
            },
            {
              "id": 204756,
              "name": "Dep. De Constantine n. lib",
              "security_id": 2979,
              "spot_prices": [
                1030,
                1032.5
              ]
            },
            {
              "id": 204502,
              "name": "Obl. d'Autriche Loze 1858",
              "security_id": 104173,
              "spot_prices": [
                385
              ]
            },
            {
              "id": 204505,
              "name": "Obl. Naples, j. nov. 75",
              "security_id": 104177,
              "spot_prices": [
                108.25,
                108.75
              ]
            },
            {
              "id": 204660,
              "name": "Ville Bruxelles, 1874, mai 78",
              "security_id": 104295,
              "spot_prices": [
                102.75
              ]
            },
            {
              "id": 204663,
              "name": "Ville Neufchatel",
              "security_id": 104298,
              "spot_prices": [
                15.25,
                15.5
              ]
            },
            {
              "id": 204728,
              "name": "Ville Genes 1869",
              "security_id": 104360
            },
            {
              "id": 204495,
              "name": "Obl. Florence, j. oct. 75",
              "security_id": 2258,
              "spot_prices": [
                137,
                137.5
              ]
            },
            {
              "id": 204499,
              "name": "Obl. Russes, 1866. j.sept. 75",
              "security_id": 104170,
              "spot_prices": [
                605
              ]
            },
            {
              "id": 204658,
              "name": "Dep. d'Alger",
              "security_id": 104293,
              "spot_prices": [
                1022.5,
                1026.25
              ]
            },
            {
              "id": 204721,
              "name": "Ville Bruxelles, 1879, 15jn. 79",
              "security_id": 104353,
              "spot_prices": [
                97
              ]
            },
            {
              "id": 204489,
              "name": "Etats-Unis, Consolidés 5% (nég.ch.fixe 5f.)",
              "security_id": 1879,
              "spot_prices": [
                106.5
              ]
            },
            {
              "id": 204498,
              "name": "Obl. Russes, 1864.j.juill. 75",
              "security_id": 104169,
              "spot_prices": [
                595
              ]
            },
            {
              "id": 204509,
              "name": "Obl. de Milan 1866",
              "security_id": 104181,
              "spot_prices": [
                12,
                12.25
              ]
            },
            {
              "id": 204659,
              "name": "Ville Anvers, 1874, nov. 78",
              "security_id": 104294,
              "spot_prices": [
                100
              ]
            },
            {
              "id": 204661,
              "name": "Ville Ancone",
              "security_id": 104296,
              "spot_prices": [
                802.5,
                805
              ]
            },
            {
              "id": 204480,
              "name": "Obl Ville Anvers 1867, j. mars 75",
              "security_id": 1549,
              "spot_prices": [
                98.5,
                98
              ]
            },
            {
              "id": 204482,
              "name": "Obl. Liege, 1868.j. avril 75",
              "security_id": 1555,
              "spot_prices": [
                91.25
              ]
            },
            {
              "id": 204506,
              "name": "Obl. Madrid. j. janvier 71",
              "security_id": 104178,
              "spot_prices": [
                69.25
              ]
            },
            {
              "id": 204510,
              "name": "Obl. de Venise",
              "security_id": 104182,
              "spot_prices": [
                22,
                22.5
              ]
            },
            {
              "id": 204511,
              "name": "Obl. Barletta",
              "security_id": 104183,
              "spot_prices": [
                27.75,
                28.25
              ]
            },
            {
              "id": 204481,
              "name": "Obl. Bruxelles, 1867.j. jr 75",
              "security_id": 1554,
              "spot_prices": [
                97.75
              ]
            },
            {
              "id": 204473,
              "name": "5% Autrich. conv.j. nill.75",
              "security_id": 2029,
              "spot_prices": [
                1.58
              ]
            },
            {
              "id": 204503,
              "name": "Obl. de Fribourg",
              "security_id": 104174,
              "spot_prices": [
                21.5,
                21.25
              ]
            },
            {
              "id": 204507,
              "name": "Obl. de Bucharest",
              "security_id": 104179,
              "spot_prices": [
                27.5,
                27.75
              ]
            },
            {
              "id": 204508,
              "name": "Obl. de Milan 1861",
              "security_id": 104180,
              "spot_prices": [
                36.5,
                37.25
              ]
            },
            {
              "id": 204720,
              "name": "Ville d'Anvers 1859 aout 78",
              "security_id": 104352,
              "spot_prices": [
                115.5
              ]
            },
            {
              "id": 204501,
              "name": "Obl. d'Autriche 1864",
              "security_id": 104172,
              "spot_prices": [
                372.5
              ]
            },
            {
              "id": 204662,
              "name": "Ville Naples, 1877, juillet 78",
              "security_id": 104297,
              "spot_prices": [
                275,
                277.5
              ]
            }
          ]
        },
        {
          "id": 666,
          "name": "Obligations du Crédit Foncier",
          "notations": [
            {
              "id": 204646,
              "name": "Obl. Court t. 1886",
              "security_id": 104281,
              "spot_prices": [
                517.5,
                518.75
              ]
            },
            {
              "id": 205347,
              "name": "Communales, Court terme 1884, juil. 79",
              "security_id": 104920,
              "spot_prices": [
                505
              ]
            },
            {
              "id": 204518,
              "name": "Bons Agric 5%. j. oct 75",
              "security_id": 104196,
              "spot_prices": [
                507.5
              ]
            },
            {
              "id": 204514,
              "name": "Obl. Communales 5%.j.nov 75",
              "security_id": 104192
            },
            {
              "id": 205345,
              "name": "Communales, Court terme 1885, juil. 78",
              "security_id": 104918,
              "spot_prices": [
                520
              ]
            },
            {
              "id": 205346,
              "name": "Communales, Court terme 1883, juil. 79",
              "security_id": 104919,
              "spot_prices": [
                500
              ]
            }
          ]
        },
        {
          "id": 664,
          "name": "Chemins de fer et Transports Divers (Chemins de Fer Transports Divers et Canaux)",
          "notations": [
            {
              "id": 204618,
              "name": "Obl. Lille a Valenciennes 5%",
              "security_id": 2211,
              "spot_prices": [
                280
              ]
            },
            {
              "id": 204574,
              "name": "Ch. Seville-Xeres, j. jr. 65",
              "security_id": 104202,
              "spot_prices": [
                16
              ]
            },
            {
              "id": 204575,
              "name": "Obl. Lerida a Reuss.j. oct. 64",
              "security_id": 104204,
              "spot_prices": [
                237.5,
                230
              ]
            },
            {
              "id": 204673,
              "name": "Obl. Tramways de Roubaix, oct. 78",
              "security_id": 104308,
              "spot_prices": [
                150
              ]
            },
            {
              "id": 204680,
              "name": "Obl. Ch. et Docks S. Ouen, s. 78",
              "security_id": 104312,
              "spot_prices": [
                345,
                342.5
              ]
            },
            {
              "id": 204828,
              "name": "Camionnage Cotté ex-c. 2",
              "security_id": 104434,
              "spot_prices": [
                520
              ]
            },
            {
              "id": 204610,
              "name": "Armements marit. mars 8",
              "security_id": 1499,
              "spot_prices": [
                34
              ]
            },
            {
              "id": 204611,
              "name": "Pampelune, juillet 65 (act.)",
              "security_id": 1521,
              "spot_prices": [
                170
              ]
            },
            {
              "id": 204614,
              "name": "Obl. Vendée, 3% octob. 77",
              "security_id": 1633,
              "spot_prices": [
                195
              ]
            },
            {
              "id": 204633,
              "name": "Obl. Lille a Valenciennes 3%",
              "security_id": 3346,
              "spot_prices": [
                170
              ]
            },
            {
              "id": 204579,
              "name": "Obl. Livourne-Fl., j. jt. 75",
              "security_id": 104210,
              "spot_prices": [
                240
              ]
            },
            {
              "id": 204672,
              "name": "Obl. Tramways de I'Eure, oct. 78",
              "security_id": 104307,
              "spot_prices": [
                77.5
              ]
            },
            {
              "id": 204730,
              "name": "Ce Régie des Tram. du Midi",
              "security_id": 104362
            },
            {
              "id": 204609,
              "name": "Obl. Pampelune, oct. 75",
              "security_id": 1222,
              "spot_prices": [
                310,
                312.5
              ]
            },
            {
              "id": 204634,
              "name": "Omnibus de Londres, sept. 78",
              "security_id": 104201,
              "spot_prices": [
                200,
                205
              ]
            },
            {
              "id": 204599,
              "name": "Ch. Seville act. échangées",
              "security_id": 104261,
              "spot_prices": [
                240
              ]
            },
            {
              "id": 204816,
              "name": "Messageries Parisiennes",
              "security_id": 104283
            },
            {
              "id": 204667,
              "name": "Saint-Louis du Rhone",
              "security_id": 104302,
              "spot_prices": [
                10
              ]
            },
            {
              "id": 204669,
              "name": "Obl. Halage à vapeur",
              "security_id": 104304,
              "spot_prices": [
                155
              ]
            },
            {
              "id": 204826,
              "name": "Voitures Nouvelles de Paris",
              "security_id": 104432
            },
            {
              "id": 204827,
              "name": "Tramways d'Anzin",
              "security_id": 104433,
              "spot_prices": [
                118.75,
                121.25
              ]
            },
            {
              "id": 204556,
              "name": "Obl.Guill.-Lux. 5%.j.nov75",
              "security_id": 1516,
              "spot_prices": [
                615
              ]
            },
            {
              "id": 204615,
              "name": "Obl. Orléans a Rouen (sud) jt 76",
              "security_id": 1742,
              "spot_prices": [
                92,
                91
              ]
            },
            {
              "id": 204676,
              "name": "Obl. Ports de Cadix, 16 oct. 72",
              "security_id": 104274,
              "spot_prices": [
                5.5
              ]
            },
            {
              "id": 204665,
              "name": "Hirondelles parisien., nov. 78",
              "security_id": 104300,
              "spot_prices": [
                95
              ]
            },
            {
              "id": 204774,
              "name": "Obl. Barcelone Badalone",
              "security_id": 104386
            },
            {
              "id": 204553,
              "name": "Canalisation de I'Ebre",
              "security_id": 1436,
              "spot_prices": [
                61,
                60
              ]
            },
            {
              "id": 204564,
              "name": "Bons Méridionaux 6%, r. 500f., remb. en 30 ans, tout payé",
              "security_id": 2289,
              "spot_prices": [
                268.75
              ]
            },
            {
              "id": 204571,
              "name": "Obl. Seve Xeres (ance), j.jr.65",
              "security_id": 104199
            },
            {
              "id": 204666,
              "name": "Transports parisiens",
              "security_id": 104301,
              "spot_prices": [
                115,
                110
              ]
            },
            {
              "id": 204668,
              "name": "Obl. St-Nazaire au Croizic. jt 77",
              "security_id": 104303,
              "spot_prices": [
                265
              ]
            },
            {
              "id": 204549,
              "name": "Ch. de fer Russes, j. 13 jt. 75",
              "security_id": 1146,
              "spot_prices": [
                705
              ]
            },
            {
              "id": 204551,
              "name": "Obl.Guill.-Lux. 3%, id",
              "security_id": 1267,
              "spot_prices": [
                397.5
              ]
            },
            {
              "id": 204554,
              "name": "Obl. Savone a Turin, j. jt. 75",
              "security_id": 1472,
              "spot_prices": [
                270
              ]
            },
            {
              "id": 204769,
              "name": "Obl. Perpignan a Prades Jt 72",
              "security_id": 1622,
              "spot_prices": [
                163.75
              ]
            },
            {
              "id": 204770,
              "name": "Obl. Perpignan avec bon Jt 77",
              "security_id": 2417,
              "spot_prices": [
                172.5
              ]
            },
            {
              "id": 204635,
              "name": "Obl. Simplon. Blanc",
              "security_id": 104211,
              "spot_prices": [
                22,
                21.75
              ]
            },
            {
              "id": 204589,
              "name": "Obl. Séville-Xérès (grise)",
              "security_id": 104236,
              "spot_prices": [
                192.5
              ]
            },
            {
              "id": 204664,
              "name": "Arles à St-Louis, juin 78",
              "security_id": 104299,
              "spot_prices": [
                150
              ]
            },
            {
              "id": 204677,
              "name": "Obl. Tramways de Madrid, aout 78",
              "security_id": 104309
            },
            {
              "id": 204729,
              "name": "Cie Gle des Ch. de fer s. routes",
              "security_id": 104361,
              "spot_prices": [
                500
              ]
            },
            {
              "id": 205324,
              "name": "Voitures Urbaine",
              "security_id": 3047
            },
            {
              "id": 204584,
              "name": "Obl. N.-O. Espag., juin 66",
              "security_id": 104226,
              "spot_prices": [
                38.75,
                40
              ]
            },
            {
              "id": 204671,
              "name": "Arles Parts de terrains",
              "security_id": 104306
            },
            {
              "id": 205429,
              "name": "Voitures Camille ex-c 2",
              "security_id": 104941,
              "spot_prices": [
                505,
                510
              ]
            },
            {
              "id": 204566,
              "name": "Part de Fondateur Suez",
              "security_id": 2588,
              "spot_prices": [
                31000
              ]
            },
            {
              "id": 204640,
              "name": "Obl. Seville-Xéres (jaune) j. juin",
              "security_id": 104275,
              "spot_prices": [
                190,
                191.25
              ]
            },
            {
              "id": 204678,
              "name": "Obl. Tramways catalans, janv. 78",
              "security_id": 104310,
              "spot_prices": [
                80
              ]
            },
            {
              "id": 204679,
              "name": "Obl. Hirondelles parisiennes, jt 78",
              "security_id": 104311,
              "spot_prices": [
                307.5,
                395
              ]
            },
            {
              "id": 204829,
              "name": "Ch. de fer Vesuve, ex-coup. 3",
              "security_id": 104435,
              "spot_prices": [
                600
              ]
            }
          ]
        },
        {
          "id": 667,
          "name": "Valeurs diverses",
          "children": [
            {
              "id": 672,
              "name": "Actions (Valeurs diverses)",
              "notations": [
                {
                  "id": 204674,
                  "name": "Banque de Constantinople",
                  "security_id": 738,
                  "spot_prices": [
                    200,
                    195
                  ]
                },
                {
                  "id": 204752,
                  "name": "Eaux de Vals",
                  "security_id": 4904,
                  "spot_prices": [
                    600
                  ]
                },
                {
                  "id": 204766,
                  "name": "Tabacs d'Italie, juillet 78",
                  "security_id": 104190
                },
                {
                  "id": 204734,
                  "name": "Carrieres Franç. et Belges",
                  "security_id": 104366,
                  "spot_prices": [
                    515
                  ]
                },
                {
                  "id": 204736,
                  "name": "La Ligneenne",
                  "security_id": 104368,
                  "spot_prices": [
                    16
                  ]
                },
                {
                  "id": 204778,
                  "name": "Part Triboulet illust ex c 1",
                  "security_id": 104390
                },
                {
                  "id": 204779,
                  "name": "Petite republique francaise",
                  "security_id": 104391
                },
                {
                  "id": 204791,
                  "name": "Ce Pe Pates Alimentaires",
                  "security_id": 104403
                },
                {
                  "id": 204814,
                  "name": "Banque Industr et Mobilière",
                  "security_id": 104422,
                  "spot_prices": [
                    542.5
                  ]
                },
                {
                  "id": 204815,
                  "name": "Constr, de la Villette ex-c. 6",
                  "security_id": 104423,
                  "spot_prices": [
                    240,
                    242.5
                  ]
                },
                {
                  "id": 204855,
                  "name": "Banq. Indust. et agric. ex-c. 1",
                  "security_id": 104457
                },
                {
                  "id": 204858,
                  "name": "Banque agricole",
                  "security_id": 104460,
                  "spot_prices": [
                    855
                  ]
                },
                {
                  "id": 205326,
                  "name": "La Continentale (Incendie)",
                  "security_id": 104910
                },
                {
                  "id": 204688,
                  "name": "Cie Française de I'Ind. du Gaz, jt 78",
                  "security_id": 104320,
                  "spot_prices": [
                    145
                  ]
                },
                {
                  "id": 204695,
                  "name": "Glacières de la Seine",
                  "security_id": 104327
                },
                {
                  "id": 204777,
                  "name": "St. gener, d'assur. 125 fr. p",
                  "security_id": 104389
                },
                {
                  "id": 204786,
                  "name": "Cie Pe Entretien Nettoyage",
                  "security_id": 104398
                },
                {
                  "id": 204787,
                  "name": "Verreries francaises",
                  "security_id": 104399,
                  "spot_prices": [
                    550
                  ]
                },
                {
                  "id": 204794,
                  "name": "Confiserie gener. du Midi",
                  "security_id": 104406,
                  "spot_prices": [
                    530
                  ]
                },
                {
                  "id": 204750,
                  "name": "Le Temps",
                  "security_id": 6897,
                  "spot_prices": [
                    1600
                  ]
                },
                {
                  "id": 204685,
                  "name": "Le Siècle",
                  "security_id": 104317,
                  "spot_prices": [
                    660
                  ]
                },
                {
                  "id": 204691,
                  "name": "Eaux de Brest",
                  "security_id": 104323,
                  "spot_prices": [
                    100
                  ]
                },
                {
                  "id": 204693,
                  "name": "Pecheries Francaises, dec. 78",
                  "security_id": 104325,
                  "spot_prices": [
                    200
                  ]
                },
                {
                  "id": 204698,
                  "name": "Folies-Bergeres",
                  "security_id": 104330
                },
                {
                  "id": 204738,
                  "name": "Tr. Hyd. Et Vidanges jn 79",
                  "security_id": 104370
                },
                {
                  "id": 204776,
                  "name": "L'Union Universelle",
                  "security_id": 104388
                },
                {
                  "id": 205325,
                  "name": "Le Secours, Ce ass.",
                  "security_id": 6717,
                  "spot_prices": [
                    675,
                    670
                  ]
                },
                {
                  "id": 204689,
                  "name": "Cie Industrielle du Gaz, jt 78",
                  "security_id": 104321
                },
                {
                  "id": 204724,
                  "name": "St-Sauveur-les-Arras nov 79",
                  "security_id": 104356
                },
                {
                  "id": 204732,
                  "name": "Imprimerie du Centre",
                  "security_id": 104364
                },
                {
                  "id": 204733,
                  "name": "Ste F. Belge de Dynamite",
                  "security_id": 104365
                },
                {
                  "id": 204790,
                  "name": "Minoteries francaises, ex-c. 2",
                  "security_id": 104402,
                  "spot_prices": [
                    815,
                    820
                  ]
                },
                {
                  "id": 204796,
                  "name": "Cie Francaise Canalisation",
                  "security_id": 104408
                },
                {
                  "id": 204809,
                  "name": "Comptoir agricole ex-coup. 3",
                  "security_id": 104417,
                  "spot_prices": [
                    555,
                    558.75
                  ]
                },
                {
                  "id": 204810,
                  "name": "La Rente Mobiliere",
                  "security_id": 104418
                },
                {
                  "id": 204860,
                  "name": "L'Epargne Fonciere, t. p",
                  "security_id": 104462,
                  "spot_prices": [
                    511.25,
                    512.5
                  ]
                },
                {
                  "id": 205428,
                  "name": "Raffinerie de Douai, avril 80",
                  "security_id": 104940,
                  "spot_prices": [
                    520
                  ]
                },
                {
                  "id": 204751,
                  "name": "Gaz de Maubeuge, juillet 78",
                  "security_id": 104284,
                  "spot_prices": [
                    530,
                    532.5
                  ]
                },
                {
                  "id": 204681,
                  "name": "Banque gén. de credit, jt. 78",
                  "security_id": 104313,
                  "spot_prices": [
                    205,
                    207.5
                  ]
                },
                {
                  "id": 204684,
                  "name": "Le Petit Lyonnais, juillet 78",
                  "security_id": 104316,
                  "spot_prices": [
                    345
                  ]
                },
                {
                  "id": 204690,
                  "name": "Société générale d'électricité (Jablockoff)",
                  "security_id": 104322,
                  "spot_prices": [
                    450
                  ]
                },
                {
                  "id": 204697,
                  "name": "Hotels de Nice (actions), juillet 78",
                  "security_id": 104329,
                  "spot_prices": [
                    250,
                    240
                  ]
                },
                {
                  "id": 204737,
                  "name": "Ste Gle des Machines Agric",
                  "security_id": 104369
                },
                {
                  "id": 204775,
                  "name": "La Provinciale",
                  "security_id": 104387
                },
                {
                  "id": 204783,
                  "name": "Ordre et Peuple Francais",
                  "security_id": 104395
                },
                {
                  "id": 204784,
                  "name": "Journal du Soir",
                  "security_id": 104396,
                  "spot_prices": [
                    267.5,
                    272.5
                  ]
                },
                {
                  "id": 204785,
                  "name": "Adm. Affichage et Publicite",
                  "security_id": 104397
                },
                {
                  "id": 204795,
                  "name": "Tables annonces",
                  "security_id": 104407,
                  "spot_prices": [
                    520
                  ]
                },
                {
                  "id": 204811,
                  "name": "St. Gen. Banq. Depart. ex-c. 4",
                  "security_id": 104419
                },
                {
                  "id": 204813,
                  "name": "Banque de Capitalisation",
                  "security_id": 104421
                },
                {
                  "id": 204818,
                  "name": "Lesage et Cie (anc. Cie Richer) j. 78",
                  "security_id": 104424,
                  "spot_prices": [
                    815,
                    800
                  ]
                },
                {
                  "id": 204857,
                  "name": "Banque Mobiliere j. jt 80 t. p",
                  "security_id": 104459
                },
                {
                  "id": 204862,
                  "name": "Comptoir Central",
                  "security_id": 104464
                },
                {
                  "id": 204863,
                  "name": "Veilleur financier 250 p",
                  "security_id": 104465
                },
                {
                  "id": 204683,
                  "name": "La Liberté",
                  "security_id": 104315
                },
                {
                  "id": 204686,
                  "name": "Imprimerie Dubuission",
                  "security_id": 104318,
                  "spot_prices": [
                    470
                  ]
                },
                {
                  "id": 205257,
                  "name": "Imprimerie Libr. cat. Palme ex-c 1",
                  "security_id": 104319,
                  "spot_prices": [
                    480
                  ]
                },
                {
                  "id": 204692,
                  "name": "Eaux de Calais",
                  "security_id": 104324,
                  "spot_prices": [
                    128.75
                  ]
                },
                {
                  "id": 204699,
                  "name": "Palais-Royal",
                  "security_id": 104331
                },
                {
                  "id": 204722,
                  "name": "Le Petit Marseillais 25 aout 79",
                  "security_id": 104354,
                  "spot_prices": [
                    590
                  ]
                },
                {
                  "id": 204735,
                  "name": "Bourse parisienne ex-c. 3",
                  "security_id": 104367
                },
                {
                  "id": 204812,
                  "name": "Banq English French 10£",
                  "security_id": 104420
                },
                {
                  "id": 204918,
                  "name": "Alliance estampillée",
                  "security_id": 104187,
                  "spot_prices": [
                    3.5
                  ]
                },
                {
                  "id": 204694,
                  "name": "Corderies du Maine, dec. 78",
                  "security_id": 104326
                },
                {
                  "id": 204696,
                  "name": "Mag. du Coin de Rue. 25 av. 78",
                  "security_id": 104328
                },
                {
                  "id": 204731,
                  "name": "Banq de Paris et de Bretagne",
                  "security_id": 104363
                },
                {
                  "id": 204780,
                  "name": "Conserves aliment. c. 1 att",
                  "security_id": 104392
                },
                {
                  "id": 204782,
                  "name": "Pates et papiers de l'Ain",
                  "security_id": 104394
                },
                {
                  "id": 204788,
                  "name": "Ste anonyme du Nord",
                  "security_id": 104400
                },
                {
                  "id": 204856,
                  "name": "Banque Fonciere 950 f. p",
                  "security_id": 104458,
                  "spot_prices": [
                    522.5
                  ]
                },
                {
                  "id": 204753,
                  "name": "Jardin d'acclimatation",
                  "security_id": 1585,
                  "spot_prices": [
                    180
                  ]
                },
                {
                  "id": 204754,
                  "name": "Hippodr. de Paris, 15 nov. 78",
                  "security_id": 40180,
                  "spot_prices": [
                    270,
                    275
                  ]
                },
                {
                  "id": 204675,
                  "name": "La Lanterne, 10 aout 78",
                  "security_id": 40186,
                  "spot_prices": [
                    830,
                    835
                  ]
                },
                {
                  "id": 205262,
                  "name": "La Fondiaria 100 f. p",
                  "security_id": 104305,
                  "spot_prices": [
                    610,
                    612.5
                  ]
                },
                {
                  "id": 204757,
                  "name": "Le Petit Journal. nov. 78",
                  "security_id": 104381,
                  "spot_prices": [
                    2980,
                    2990
                  ]
                },
                {
                  "id": 204792,
                  "name": "Huiles d'olives (Nice et lt)",
                  "security_id": 104404
                },
                {
                  "id": 204793,
                  "name": "Tuileries de Boissières",
                  "security_id": 104405,
                  "spot_prices": [
                    510,
                    515
                  ]
                },
                {
                  "id": 204859,
                  "name": "St. Epargne nationale ex-c 2",
                  "security_id": 104461
                },
                {
                  "id": 204861,
                  "name": "Credit Parisien oct. 80",
                  "security_id": 104463
                }
              ]
            },
            {
              "id": 673,
              "name": "Obligations (Valeurs diverses)",
              "notations": [
                {
                  "id": 204740,
                  "name": "Mobilieres 6% juillet 79",
                  "security_id": 104372
                },
                {
                  "id": 204760,
                  "name": "Tabacs d'Italie, juillet 78",
                  "security_id": 1545,
                  "spot_prices": [
                    525,
                    530
                  ]
                },
                {
                  "id": 204723,
                  "name": "Librairie cathol. Palme aout 79",
                  "security_id": 104355,
                  "spot_prices": [
                    500,
                    505
                  ]
                },
                {
                  "id": 204765,
                  "name": "Etabliss. Duval, 15 oct. 79",
                  "security_id": 104384,
                  "spot_prices": [
                    560
                  ]
                },
                {
                  "id": 204763,
                  "name": "Usine de Saint-Quentin. oct. 78",
                  "security_id": 104287,
                  "spot_prices": [
                    180
                  ]
                },
                {
                  "id": 204797,
                  "name": "La Rente Mutuelle j. oct 80",
                  "security_id": 104409
                },
                {
                  "id": 204799,
                  "name": "Horloges pneumatiques",
                  "security_id": 104411
                },
                {
                  "id": 204755,
                  "name": "Eaux de Nimes",
                  "security_id": 104227,
                  "spot_prices": [
                    12.5
                  ]
                },
                {
                  "id": 204725,
                  "name": "Eaux de Bussang juillet 79",
                  "security_id": 104357,
                  "spot_prices": [
                    460
                  ]
                },
                {
                  "id": 204741,
                  "name": "Eaux thermales de Luchon",
                  "security_id": 104373
                },
                {
                  "id": 204758,
                  "name": "Figaro ancienne (obl), 15 sept. 78",
                  "security_id": 104382
                },
                {
                  "id": 204762,
                  "name": "Figaro nouvelle (obl), 15 sept. 78",
                  "security_id": 104383,
                  "spot_prices": [
                    517.5
                  ]
                },
                {
                  "id": 204771,
                  "name": "Gaz de l'Ouest",
                  "security_id": 104385
                },
                {
                  "id": 204798,
                  "name": "Vidanges de l'Ouest",
                  "security_id": 104410
                },
                {
                  "id": 204830,
                  "name": "Fonciere Basse-Egypte jt 80",
                  "security_id": 104436
                },
                {
                  "id": 204761,
                  "name": "Ateliers de Passy juillet 78",
                  "security_id": 104289,
                  "spot_prices": [
                    265,
                    267.5
                  ]
                },
                {
                  "id": 204700,
                  "name": "Cie Franc. de I'Ind. du Gaz",
                  "security_id": 104332,
                  "spot_prices": [
                    165,
                    162.5
                  ]
                },
                {
                  "id": 204702,
                  "name": "Eaux d'Oran",
                  "security_id": 104334,
                  "spot_prices": [
                    140,
                    137.5
                  ]
                },
                {
                  "id": 204703,
                  "name": "Hotels de Nice (oblig.), juillet 78",
                  "security_id": 104335,
                  "spot_prices": [
                    147.5,
                    146.25
                  ]
                },
                {
                  "id": 204707,
                  "name": "Usine met. de la Vienne, sept. 78",
                  "security_id": 104339,
                  "spot_prices": [
                    235,
                    240
                  ]
                },
                {
                  "id": 204739,
                  "name": "Tr. Hyd. Et Vid. aout. 79",
                  "security_id": 104371
                },
                {
                  "id": 204710,
                  "name": "Tonnellerie mécanique, ja. 78",
                  "security_id": 104342,
                  "spot_prices": [
                    40
                  ]
                },
                {
                  "id": 204781,
                  "name": "Conserves aliment 1 dec. 80",
                  "security_id": 104393
                },
                {
                  "id": 204764,
                  "name": "Constr. de la Villette, oct. 78",
                  "security_id": 104288,
                  "spot_prices": [
                    275
                  ]
                },
                {
                  "id": 204705,
                  "name": "Chantiers de la Seine, jt 78",
                  "security_id": 104337,
                  "spot_prices": [
                    197.5
                  ]
                },
                {
                  "id": 204742,
                  "name": "Pates et papiers de I'Ain",
                  "security_id": 104374,
                  "spot_prices": [
                    260
                  ]
                },
                {
                  "id": 204701,
                  "name": "Eaux de Brest",
                  "security_id": 104333,
                  "spot_prices": [
                    90,
                    85
                  ]
                },
                {
                  "id": 204706,
                  "name": "Usine met. d'Auteuil, nov. 78",
                  "security_id": 104338,
                  "spot_prices": [
                    190,
                    193.75
                  ]
                },
                {
                  "id": 204789,
                  "name": "Ste anonyme du Nord",
                  "security_id": 104401
                }
              ]
            }
          ]
        },
        {
          "id": 671,
          "name": "Bons",
          "notations": [
            {
              "id": 205370,
              "name": "Bons Trav. publ. 6% 2 s. oc. 79",
              "security_id": 104926,
              "spot_prices": [
                95,
                94
              ]
            },
            {
              "id": 204772,
              "name": "Assurance financière",
              "security_id": 2901,
              "spot_prices": [
                425,
                420
              ]
            },
            {
              "id": 204864,
              "name": "Dock Entr. G de France",
              "security_id": 104466,
              "spot_prices": [
                96.5
              ]
            },
            {
              "id": 205369,
              "name": "Bons Trav. publ. 6% 1 s. oc. 79",
              "security_id": 104925,
              "spot_prices": [
                100
              ]
            },
            {
              "id": 204773,
              "name": "Bons Liverdun, 15 juill. 78",
              "security_id": 2236
            },
            {
              "id": 205419,
              "name": "Bons Sté Const. et de travaux",
              "security_id": 104932
            },
            {
              "id": 204854,
              "name": "Bons Marchés Naples, ex-c. 1",
              "security_id": 104206,
              "spot_prices": [
                13.75
              ]
            },
            {
              "id": 204822,
              "name": "Bons Ste des Pyrenees, jn 79",
              "security_id": 104428,
              "spot_prices": [
                60
              ]
            }
          ]
        },
        {
          "id": 670,
          "name": "Charbonnages",
          "notations": [
            {
              "id": 204606,
              "name": "Obl. Sud-Est Bully-Fragny",
              "security_id": 104268
            },
            {
              "id": 204715,
              "name": "Auzits, oct. 77",
              "security_id": 104347
            },
            {
              "id": 204719,
              "name": "Obl. Communay, nov. 78",
              "security_id": 104351
            },
            {
              "id": 204592,
              "name": "Houill. Var remb. à 100 f. (Int. 6 fr.)",
              "security_id": 104239,
              "spot_prices": [
                10
              ]
            },
            {
              "id": 204582,
              "name": "Obl. Charbonn. Nord, j.nov",
              "security_id": 104216,
              "spot_prices": [
                20
              ]
            },
            {
              "id": 204602,
              "name": "Marly-lez-Valenciennes",
              "security_id": 104264,
              "spot_prices": [
                281.25
              ]
            },
            {
              "id": 204641,
              "name": "Obl. Compagnie Francaise de Pienza",
              "security_id": 104276
            },
            {
              "id": 204717,
              "name": "Lucerne, oct. 76",
              "security_id": 104349
            },
            {
              "id": 204718,
              "name": "Obl. De Lucerne, juillet 78",
              "security_id": 104350
            },
            {
              "id": 204748,
              "name": "Obl. Styro-Croate (Autr.-Hong)",
              "security_id": 104380
            },
            {
              "id": 204716,
              "name": "Obl. Auzits, juillet 78",
              "security_id": 104348,
              "spot_prices": [
                150
              ]
            },
            {
              "id": 204578,
              "name": "Obl. Mondragon. j. jt. 75",
              "security_id": 104207,
              "spot_prices": [
                67.5
              ]
            },
            {
              "id": 204819,
              "name": "Mondragon",
              "security_id": 104425
            },
            {
              "id": 204583,
              "name": "Obl. Charbonn. Rhin, j. oct",
              "security_id": 104217,
              "spot_prices": [
                62.5
              ]
            },
            {
              "id": 204657,
              "name": "Bassin de Huy (Charbonnages)",
              "security_id": 104292
            },
            {
              "id": 204747,
              "name": "Baelen 15 oct. 1879",
              "security_id": 104379
            }
          ]
        },
        {
          "id": 669,
          "name": "Mines",
          "notations": [
            {
              "id": 204746,
              "name": "Obl. Italienne soufre, aout 79",
              "security_id": 104378,
              "spot_prices": [
                250,
                252.5
              ]
            },
            {
              "id": 204831,
              "name": "Carr franc et Belges c. 1 est",
              "security_id": 104437
            },
            {
              "id": 204726,
              "name": "Parts Fondateur Bingham",
              "security_id": 104358,
              "spot_prices": [
                13.5
              ]
            },
            {
              "id": 204833,
              "name": "Obl. Petroles d'Italie oct. 80",
              "security_id": 104439
            },
            {
              "id": 204570,
              "name": "Stolberg (p ivileg.), j.oct. 75",
              "security_id": 104197,
              "spot_prices": [
                335
              ]
            },
            {
              "id": 204712,
              "name": "Collo (ex-c 3)",
              "security_id": 104344,
              "spot_prices": [
                60
              ]
            },
            {
              "id": 204713,
              "name": "Obl. Mines de la Correze, ja. 77",
              "security_id": 104345,
              "spot_prices": [
                80
              ]
            },
            {
              "id": 204743,
              "name": "Omnium soufres nov 79 ex-c. 2",
              "security_id": 104375,
              "spot_prices": [
                107.5,
                102.5
              ]
            },
            {
              "id": 204744,
              "name": "Carrieres et cons. 15 mai 79",
              "security_id": 104376,
              "spot_prices": [
                240
              ]
            },
            {
              "id": 204832,
              "name": "Carrieres de marbres ex-c 2",
              "security_id": 104438
            },
            {
              "id": 204865,
              "name": "Ardoisières et Mines d'Argut",
              "security_id": 104467,
              "spot_prices": [
                515
              ]
            },
            {
              "id": 204866,
              "name": "Salins Mediterranée ex-c. 2",
              "security_id": 104468
            },
            {
              "id": 204561,
              "name": "Huelva jouissance, j. oct. 75",
              "security_id": 1772
            },
            {
              "id": 204600,
              "name": "Silesie (anc.), j. nov. 75",
              "security_id": 104262,
              "spot_prices": [
                380
              ]
            },
            {
              "id": 204714,
              "name": "Obl. Mines de Carnoules. jt",
              "security_id": 104346,
              "spot_prices": [
                190
              ]
            },
            {
              "id": 204580,
              "name": "Obl. Union metallurgique",
              "security_id": 104213,
              "spot_prices": [
                5
              ]
            },
            {
              "id": 204601,
              "name": "Silesie (privileg.), j. nov. 75",
              "security_id": 104263,
              "spot_prices": [
                395
              ]
            },
            {
              "id": 204704,
              "name": "Dielette",
              "security_id": 104336,
              "spot_prices": [
                180
              ]
            },
            {
              "id": 204745,
              "name": "Obl. Carrieres et cons, 15 oc 79",
              "security_id": 104377,
              "spot_prices": [
                160,
                165
              ]
            },
            {
              "id": 204547,
              "name": "Zinc V. Montagne, j. 10 nov.",
              "security_id": 325,
              "spot_prices": [
                292.5,
                291.25
              ]
            },
            {
              "id": 204869,
              "name": "Ste Ne Expt. de Mines 250 f. p",
              "security_id": 104471,
              "spot_prices": [
                640
              ]
            },
            {
              "id": 204550,
              "name": "Stolberg (anc.), j. jt. 75",
              "security_id": 1234,
              "spot_prices": [
                125,
                127.5
              ]
            },
            {
              "id": 204767,
              "name": "Pontgibaud",
              "security_id": 6182,
              "spot_prices": [
                495
              ]
            },
            {
              "id": 204868,
              "name": "Argiles Petit-Ivry ex-c. 1",
              "security_id": 104470
            },
            {
              "id": 205260,
              "name": "Parts Commun nov 80 ex-c. 6",
              "security_id": 104856,
              "spot_prices": [
                295,
                297.5
              ]
            },
            {
              "id": 204656,
              "name": "Obligations Rio-Tinto, 7%",
              "security_id": 104291,
              "spot_prices": [
                595
              ]
            },
            {
              "id": 204823,
              "name": "Obl. Carrieres lithog., oct. 78",
              "security_id": 104429,
              "spot_prices": [
                67.5
              ]
            },
            {
              "id": 204867,
              "name": "Carrieres St-Victor la Coste, Gard",
              "security_id": 104469
            }
          ]
        }
      ]
    }
  ],
  "date": "1880-07-15",
  "stock_exchange": {
    "id": 2,
    "name": "Paris OTC (Coulisse)"
  }
}