{
  "id": 9998,
  "name": "Paris OTC (Coulisse)",
  "children": [
    {
      "id": 661,
      "name": "Valeurs en banque (cote à terme)",
      "notations": [
        {
          "id": 205364,
          "name": "Espagne 4%, Extérieure (négoc., ch.fixe, 1f.)",
          "security_id": 2758
        },
        {
          "id": 204504,
          "name": "Turcs (Ch. Ottom.), J. Oct. 75.",
          "security_id": 104175
        },
        {
          "id": 205334,
          "name": "Alpines, j. juin",
          "security_id": 104915
        }
      ]
    },
    {
      "id": 660,
      "name": "Valeurs en banque (au comptant)",
      "children": [
        {
          "id": 662,
          "name": "Valeurs à l'émission (Emissions nouvelles)"
        },
        {
          "id": 663,
          "name": "Fonds d'Etats et de Villes (Fonds d'Etats de Départements et des Villes)",
          "notations": [
            {
              "id": 204500,
              "name": "Obl d'Autriche, 1854. j. oct.",
              "security_id": 104171,
              "day_before_spot_price": 790
            },
            {
              "id": 204512,
              "name": "Obl. Bari",
              "security_id": 104184,
              "day_before_spot_price": 43
            },
            {
              "id": 206316,
              "name": "Venezuela 5% interieur, j. juillet 1896",
              "security_id": 105476,
              "day_before_spot_price": 37.5
            },
            {
              "id": 205594,
              "name": "Obl. Serbes 3%",
              "security_id": 105035,
              "spot_prices": [
                74,
                72
              ]
            },
            {
              "id": 205864,
              "name": "Lots Croix Rouge Autrichieune",
              "security_id": 105186,
              "day_before_spot_price": 21.5
            },
            {
              "id": 204502,
              "name": "Obl. d'Autriche Loze 1858",
              "security_id": 104173,
              "day_before_spot_price": 422
            },
            {
              "id": 204663,
              "name": "Ville Neufchatel",
              "security_id": 104298,
              "day_before_spot_price": 24
            },
            {
              "id": 205865,
              "name": "Lots Croix Rouge Hongroise",
              "security_id": 105187,
              "day_before_spot_price": 22
            },
            {
              "id": 204499,
              "name": "Obl. Russes, 1866. j.sept. 75",
              "security_id": 104170,
              "day_before_spot_price": 668.75
            },
            {
              "id": 205609,
              "name": "Obl. de Fribourg 1878",
              "security_id": 105038,
              "day_before_spot_price": 16.25
            },
            {
              "id": 205866,
              "name": "Lots Croix Rouge Italienne",
              "security_id": 105188,
              "day_before_spot_price": 22
            },
            {
              "id": 207227,
              "name": "Obli. Ville Christiania, 500 fr. 3%.j.oct. 97",
              "security_id": 106368,
              "day_before_spot_price": 475
            },
            {
              "id": 206341,
              "name": "Norvège 3,5% 1895 Titres de 400 couronnes (Nég. ch. fixe 1fr.40)",
              "security_id": 4516,
              "day_before_spot_price": 93
            },
            {
              "id": 204498,
              "name": "Obl. Russes, 1864.j.juill. 75",
              "security_id": 104169,
              "day_before_spot_price": 765
            },
            {
              "id": 204509,
              "name": "Obl. de Milan 1866",
              "security_id": 104181,
              "day_before_spot_price": 8.5
            },
            {
              "id": 205264,
              "name": "Rente Napolitaine 5%",
              "security_id": 104858,
              "day_before_spot_price": 87
            },
            {
              "id": 205615,
              "name": "Ville Bruxelles, 1886, lib",
              "security_id": 105042,
              "spot_prices": [
                105,
                105.5
              ]
            },
            {
              "id": 206348,
              "name": "Norvegien 3% 1896, j. aout 96",
              "security_id": 4450
            },
            {
              "id": 205338,
              "name": "Département du Nord 3% 1870",
              "security_id": 40531
            },
            {
              "id": 205813,
              "name": "Turcs (Ch. Ottom.), J. Oct. 75.",
              "security_id": 104175,
              "spot_prices": [
                106,
                107
              ]
            },
            {
              "id": 204506,
              "name": "Obl. Madrid. j. janvier 71",
              "security_id": 104178,
              "day_before_spot_price": 34.5
            },
            {
              "id": 204510,
              "name": "Obl. de Venise",
              "security_id": 104182,
              "day_before_spot_price": 21
            },
            {
              "id": 204511,
              "name": "Obl. Barletta",
              "security_id": 104183,
              "day_before_spot_price": 17
            },
            {
              "id": 205339,
              "name": "Obl. Haiti, Bons de coup. juil. 81",
              "security_id": 104916,
              "spot_prices": [
                40
              ]
            },
            {
              "id": 206300,
              "name": "St-Domingue, Reel franco-amer. 4% j. mars 96",
              "security_id": 105466,
              "day_before_spot_price": 90
            },
            {
              "id": 206343,
              "name": "Minas Geraes 5%, 38 f.p. j. 15 janv. 97",
              "security_id": 4551,
              "spot_prices": [
                338,
                339
              ]
            },
            {
              "id": 204503,
              "name": "Obl. de Fribourg",
              "security_id": 104174,
              "day_before_spot_price": 27
            },
            {
              "id": 204508,
              "name": "Obl. de Milan 1861",
              "security_id": 104180,
              "day_before_spot_price": 41
            },
            {
              "id": 205764,
              "name": "Obl. Ville Anvers, 1887",
              "security_id": 105112,
              "spot_prices": [
                107,
                108
              ]
            },
            {
              "id": 205863,
              "name": "Lots Croix Blanche Hollandaise",
              "security_id": 105185,
              "day_before_spot_price": 16.5
            },
            {
              "id": 204501,
              "name": "Obl. d'Autriche 1864",
              "security_id": 104172,
              "day_before_spot_price": 485
            },
            {
              "id": 205263,
              "name": "Rente Florentine 3%",
              "security_id": 104857,
              "day_before_spot_price": 57
            },
            {
              "id": 205878,
              "name": "Lots Egyptiens 3%, j. mai 1890",
              "security_id": 105200,
              "spot_prices": [
                270,
                272
              ]
            }
          ]
        },
        {
          "id": 664,
          "name": "Chemins de fer et Transports Divers (Chemins de Fer Transports Divers et Canaux)",
          "notations": [
            {
              "id": 205891,
              "name": "Bateaux Parisiens (parts bénéficiaires)",
              "security_id": 40402,
              "day_before_spot_price": 140
            },
            {
              "id": 205825,
              "name": "Obl. Russo Nicolas 4% j. aout89",
              "security_id": 105146,
              "day_before_spot_price": 103.75
            },
            {
              "id": 205861,
              "name": "Koslow-Voronege, j. oct. 1890",
              "security_id": 105183,
              "day_before_spot_price": 619
            },
            {
              "id": 206423,
              "name": "Obl. Salonique-Monastir, j. juillet 1897",
              "security_id": 105561,
              "day_before_spot_price": 299
            },
            {
              "id": 206347,
              "name": "Toulouse a Boulogne-s-Gesse",
              "security_id": 4487,
              "day_before_spot_price": 492
            },
            {
              "id": 204589,
              "name": "Oblig. Xérès (grise) non est",
              "security_id": 104236
            },
            {
              "id": 205983,
              "name": "Obl. Russo Nicolas 4% 1890, j. janv.91",
              "security_id": 105257,
              "day_before_spot_price": 100.5
            },
            {
              "id": 206366,
              "name": "Obl. Rjoesan-Ouralsk 4% 1894. J. sent. 96",
              "security_id": 105504,
              "day_before_spot_price": 512.5
            },
            {
              "id": 206866,
              "name": "Tramways de Tours, act. de 100 fr",
              "security_id": 106007,
              "spot_prices": [
                110
              ]
            },
            {
              "id": 205328,
              "name": "Obl. Romains, 3% juill. 82",
              "security_id": 1122,
              "day_before_spot_price": 297.5
            },
            {
              "id": 205982,
              "name": "Obl. Porto-Rico, (Ste Humacao), j. oct.90",
              "security_id": 105256,
              "spot_prices": [
                75,
                76
              ]
            },
            {
              "id": 206367,
              "name": "Obl. Vladicaucase 4%. J. oct. 96",
              "security_id": 105505,
              "day_before_spot_price": 103.5
            },
            {
              "id": 205747,
              "name": "Obl. Bahia e Minas libérées",
              "security_id": 105095,
              "day_before_spot_price": 90
            },
            {
              "id": 204551,
              "name": "Obl.Guill.-Lux. 3%, id",
              "security_id": 1267,
              "day_before_spot_price": 471
            },
            {
              "id": 207677,
              "name": "Séville-Xérès (grise) estampillée",
              "security_id": 106634,
              "spot_prices": [
                150,
                152
              ]
            },
            {
              "id": 204640,
              "name": "Oblig. Xérès (jaune) non est",
              "security_id": 104275
            },
            {
              "id": 206032,
              "name": "Porto-Rico, ex-c. 3, j. oct. 1890",
              "security_id": 105300
            },
            {
              "id": 206102,
              "name": "Tramw. a vap. Paris-St-Germain, j. av. 94",
              "security_id": 105364,
              "day_before_spot_price": 395
            },
            {
              "id": 204564,
              "name": "Méridionaux français (en liquidation), obligations",
              "security_id": 2289,
              "spot_prices": [
                305,
                306
              ]
            },
            {
              "id": 205895,
              "name": "Chargeurs Réunis (parts de fondateurs)",
              "security_id": 4972,
              "day_before_spot_price": 279
            },
            {
              "id": 207676,
              "name": "Séville-Xérès (rose) estampillée",
              "security_id": 106633,
              "day_before_spot_price": 182.5
            },
            {
              "id": 207678,
              "name": "Séville-Xérès (jaune) estampillée",
              "security_id": 106635,
              "day_before_spot_price": 150
            }
          ]
        },
        {
          "id": 665,
          "name": "Journaux et Librairies (Journaux, Librairies et Imprimeries)",
          "notations": [
            {
              "id": 205639,
              "name": "Le Temps, actions de jouissance",
              "security_id": 6898,
              "day_before_spot_price": 700
            },
            {
              "id": 206191,
              "name": "Publications scientifiques (Echo des Mines), ex-c. 9",
              "security_id": 105370
            },
            {
              "id": 205621,
              "name": "Bonnard Bidault ex-c. 5",
              "security_id": 104892,
              "spot_prices": [
                95,
                100
              ]
            },
            {
              "id": 206869,
              "name": "Petit Méridional, ex-c.44, j. 31 déc 1898, ex-c. de 9,40",
              "security_id": 106010
            },
            {
              "id": 206190,
              "name": "Cote de la Bourse et de la Banque (parts), ex-c. 4",
              "security_id": 105369,
              "day_before_spot_price": 200
            },
            {
              "id": 206828,
              "name": "Imp. Camis (nom. avec droit de préemption) ex-c.5",
              "security_id": 105969,
              "day_before_spot_price": 675
            },
            {
              "id": 206897,
              "name": "Grands Annuaires (Société des)",
              "security_id": 106038,
              "day_before_spot_price": 555
            },
            {
              "id": 207226,
              "name": "Volga-Vichera lib",
              "security_id": 106367,
              "spot_prices": [
                500
              ]
            },
            {
              "id": 207275,
              "name": "Wemmer, j. aout 1898",
              "security_id": 106041
            },
            {
              "id": 205672,
              "name": "Act. Messager (act. De jouiss.), ex-c. 2",
              "security_id": 105059,
              "day_before_spot_price": 80
            },
            {
              "id": 207232,
              "name": "Wemmer, j. aout 1898",
              "security_id": 106041,
              "spot_prices": [
                275
              ]
            },
            {
              "id": 205701,
              "name": "Le temps, act. 500 fr., t. p.",
              "security_id": 6897,
              "day_before_spot_price": 1090
            },
            {
              "id": 205641,
              "name": "Messager Paris juin 84 ex-8",
              "security_id": 104283,
              "day_before_spot_price": 490
            },
            {
              "id": 205742,
              "name": "Le Petit Meridional, ex-c. 23",
              "security_id": 105090,
              "day_before_spot_price": 180
            }
          ]
        },
        {
          "id": 669,
          "name": "Mines (Mines, Houillères, Forges et Charbonnages)",
          "notations": [
            {
              "id": 207225,
              "name": "Rykovski (charbonn.de)",
              "security_id": 5024,
              "day_before_spot_price": 557.5
            },
            {
              "id": 157876,
              "name": "Urikany (charbonnage)",
              "security_id": 51953,
              "spot_prices": [
                123
              ]
            },
            {
              "id": 205608,
              "name": "Alpines, j. juin",
              "security_id": 104915,
              "day_before_spot_price": 372.5
            },
            {
              "id": 205995,
              "name": "Usines de Briansk",
              "security_id": 105269,
              "spot_prices": [
                1270
              ]
            },
            {
              "id": 206022,
              "name": "Huanchaca j. septembre 1892 ex-c.2",
              "security_id": 105290,
              "day_before_spot_price": 45
            },
            {
              "id": 206085,
              "name": "Huta-Bankowa, ex-c. 20, j. juin 1894",
              "security_id": 105347,
              "spot_prices": [
                4540,
                4573.75
              ]
            },
            {
              "id": 206205,
              "name": "Etablissem. Franc. En Uruguay parts de fondat.",
              "security_id": 105382,
              "day_before_spot_price": 13.51
            },
            {
              "id": 206376,
              "name": "Dniéprovienne (Soc Métallurgique)",
              "security_id": 105514,
              "spot_prices": [
                8900
              ]
            },
            {
              "id": 206377,
              "name": "Doubowaia-Balka, j. janvier 1897",
              "security_id": 105515,
              "spot_prices": [
                1588.75,
                1576.25
              ]
            },
            {
              "id": 206414,
              "name": "Princess Estate",
              "security_id": 105552,
              "day_before_spot_price": 42
            },
            {
              "id": 206874,
              "name": "Hafna (Soc.française des mines de), act.100f",
              "security_id": 106015,
              "spot_prices": [
                195,
                200
              ]
            },
            {
              "id": 206876,
              "name": "Haut-Volga (Soc. matériel de ch. de fer du)",
              "security_id": 106017,
              "spot_prices": [
                630
              ]
            },
            {
              "id": 205652,
              "name": "St-Elie (Mines de) (parts), ex-c. 3,j.10 janv.97",
              "security_id": 104885
            },
            {
              "id": 205727,
              "name": " El Callao (8000), J. 5 dec. 1887",
              "security_id": 105075
            },
            {
              "id": 205737,
              "name": "De Beers (Diamants)",
              "security_id": 105085,
              "spot_prices": [
                637,
                643
              ]
            },
            {
              "id": 206087,
              "name": "Marguerite (Mine d'or de la)",
              "security_id": 105349
            },
            {
              "id": 206088,
              "name": "Monte-Rosa Gold min. Cy (act. 125 f. portr)",
              "security_id": 105350,
              "day_before_spot_price": 10.5
            },
            {
              "id": 206198,
              "name": "Buffelsdoorn et Estate G.M. Cy",
              "security_id": 105377,
              "spot_prices": [
                13.75,
                14.5
              ]
            },
            {
              "id": 206390,
              "name": "London-Paris",
              "security_id": 105528,
              "spot_prices": [
                11,
                12
              ]
            },
            {
              "id": 206877,
              "name": "Lancaster, c. 1 att",
              "security_id": 106018,
              "spot_prices": [
                71,
                71.5
              ]
            },
            {
              "id": 207224,
              "name": "Obl. Rykovski (charb. De) 4,5 %, j. juill 18",
              "security_id": 5035,
              "spot_prices": [
                475,
                476
              ]
            },
            {
              "id": 205702,
              "name": "Obl. Met. Ariege. J. aout 1887",
              "security_id": 40492,
              "day_before_spot_price": 153
            },
            {
              "id": 156760,
              "name": "Cape Copper, ex-c.8, j. juillet 1890",
              "security_id": 50837,
              "spot_prices": [
                134,
                135
              ]
            },
            {
              "id": 205312,
              "name": "Tharsis, mai 1884",
              "security_id": 104902,
              "spot_prices": [
                189.5,
                190
              ]
            },
            {
              "id": 206078,
              "name": "De Lamar Mining Company limited",
              "security_id": 105340,
              "spot_prices": [
                6.75,
                7
              ]
            },
            {
              "id": 206289,
              "name": "Randfontein Estates Gold mining Cy (unites)",
              "security_id": 105456,
              "spot_prices": [
                57,
                58.25
              ]
            },
            {
              "id": 206318,
              "name": "Tkwibouly (gisements de houille de)",
              "security_id": 105478,
              "day_before_spot_price": 95
            },
            {
              "id": 206370,
              "name": "Robinson Randfontein Gold mining Cy",
              "security_id": 105508,
              "spot_prices": [
                26
              ]
            },
            {
              "id": 206387,
              "name": "Omnium russe 500 fr. 4 %, lib",
              "security_id": 105525,
              "spot_prices": [
                484,
                486
              ]
            },
            {
              "id": 206410,
              "name": "Charterland Goldfields",
              "security_id": 105548,
              "day_before_spot_price": 12
            },
            {
              "id": 206833,
              "name": "Gallia (Société métall. La) (pards de fond.) ex-c.2",
              "security_id": 105974
            },
            {
              "id": 206895,
              "name": "Obl. Donetz 4,5% (Forges et Acier.), j. 13 at 98",
              "security_id": 106036
            },
            {
              "id": 206200,
              "name": "Durban Roodepoort deep",
              "security_id": 17419,
              "spot_prices": [
                98,
                100
              ]
            },
            {
              "id": 207325,
              "name": "St-Elie (Mines de) (parts), ex-c. 3,j.10 janv.97",
              "security_id": 104885,
              "day_before_spot_price": 50
            },
            {
              "id": 206208,
              "name": "French South African develop",
              "security_id": 105385,
              "day_before_spot_price": 11
            },
            {
              "id": 206218,
              "name": "Marie-Louise",
              "security_id": 105395,
              "day_before_spot_price": 2.5
            },
            {
              "id": 206282,
              "name": "Ferreira gold mining, ex-c. 2",
              "security_id": 105449,
              "spot_prices": [
                605,
                610
              ]
            },
            {
              "id": 206385,
              "name": "Ateliers Franco-Russes, c. 1 attache",
              "security_id": 105523,
              "spot_prices": [
                112
              ]
            },
            {
              "id": 206402,
              "name": "South Mount Lyell (Mines de Cuivre)",
              "security_id": 105540,
              "day_before_spot_price": 14
            },
            {
              "id": 206420,
              "name": "Obl. Charb. Prokhorow (Donetz) 4 1/2 %, j. sep. 97",
              "security_id": 105558,
              "spot_prices": [
                505,
                506
              ]
            },
            {
              "id": 206829,
              "name": "Altaï du Sud (Mines de Zyrianowsk)",
              "security_id": 105970,
              "day_before_spot_price": 525
            },
            {
              "id": 206837,
              "name": "Obl. Istia (Usines d') 5 %",
              "security_id": 105978,
              "day_before_spot_price": 501
            },
            {
              "id": 206875,
              "name": "Hafna (Soc.française des mines de), (parts fondat.)",
              "security_id": 106016,
              "spot_prices": [
                6.95,
                7.8
              ]
            },
            {
              "id": 206202,
              "name": "East-Rand Proprietary",
              "security_id": 17566,
              "spot_prices": [
                150,
                152
              ]
            },
            {
              "id": 157761,
              "name": "Robinson Gold Mining (unites)",
              "security_id": 51838,
              "spot_prices": [
                225,
                227
              ]
            },
            {
              "id": 205681,
              "name": "Placer Enfin act. Nouv",
              "security_id": 105068,
              "day_before_spot_price": 45
            },
            {
              "id": 205741,
              "name": "Kinta (part benefic)",
              "security_id": 105089,
              "spot_prices": [
                230
              ]
            },
            {
              "id": 206097,
              "name": "Randfontein Estates Gold mining Cy",
              "security_id": 105359,
              "spot_prices": [
                57,
                58.25
              ]
            },
            {
              "id": 206206,
              "name": "Fraser River (British Columbia)",
              "security_id": 105383,
              "day_before_spot_price": 11
            },
            {
              "id": 206207,
              "name": "French Rand",
              "security_id": 105384,
              "spot_prices": [
                45
              ]
            },
            {
              "id": 207601,
              "name": "Simmer et Jack (nouvelle)",
              "security_id": 105412
            },
            {
              "id": 206244,
              "name": "Watana (mines d'or de) parts de fondat",
              "security_id": 105421,
              "spot_prices": [
                22,
                23,
                21
              ]
            },
            {
              "id": 206373,
              "name": "Tharsis, (unites)",
              "security_id": 105511,
              "spot_prices": [
                191,
                192
              ]
            },
            {
              "id": 206389,
              "name": "Obl. Ateliers Franco-Russes, j. janvier 97.",
              "security_id": 105527,
              "day_before_spot_price": 506
            },
            {
              "id": 206832,
              "name": "Gallia (Société métall. La), ex-c.4",
              "security_id": 105973,
              "day_before_spot_price": 525
            },
            {
              "id": 206838,
              "name": "Obl. Nord-Est du Donetz (Kamenka) charb/",
              "security_id": 105979,
              "spot_prices": [
                507.5
              ]
            },
            {
              "id": 206883,
              "name": "Usines Franco-Russes, ex-c. 1 ",
              "security_id": 106024,
              "spot_prices": [
                390,
                392
              ]
            },
            {
              "id": 207228,
              "name": "Banque spec. des Valeurs industrielles",
              "security_id": 106369,
              "spot_prices": [
                224,
                225
              ]
            },
            {
              "id": 204547,
              "name": "Zinc V. Montagne, j. 10 nov.",
              "security_id": 325,
              "spot_prices": [
                727.5,
                735
              ]
            },
            {
              "id": 206342,
              "name": "Makewka (Soc. Houill. Et metal. De) c. 1 est.",
              "security_id": 5481,
              "day_before_spot_price": 715
            },
            {
              "id": 204767,
              "name": "Pontgibaud (Mines et Fonderies de), n°s 1 à 12600 et 13001 à 13500",
              "security_id": 6182,
              "day_before_spot_price": 415
            },
            {
              "id": 157067,
              "name": "Compagnie de Mossamedes, au port",
              "security_id": 51144,
              "spot_prices": [
                8
              ]
            },
            {
              "id": 204889,
              "name": "Obl. Soc. Met.Perigord oct 84",
              "security_id": 104490,
              "day_before_spot_price": 157
            },
            {
              "id": 205955,
              "name": "Champ d'Or",
              "security_id": 105229,
              "spot_prices": [
                42,
                44
              ]
            },
            {
              "id": 206199,
              "name": "Consolidated Goldfield (ordinaire) ex-c. 2",
              "security_id": 105378,
              "spot_prices": [
                122,
                125
              ]
            },
            {
              "id": 206231,
              "name": "Rebecca gold mining Cy lim. (certificat)",
              "security_id": 105408,
              "spot_prices": [
                4.75,
                4
              ]
            },
            {
              "id": 206242,
              "name": "Victor Gold mining Cy, ex-c. 32",
              "security_id": 105419,
              "spot_prices": [
                38,
                37.5,
                38
              ]
            },
            {
              "id": 206360,
              "name": "Omnium Russe, privil. Lib.",
              "security_id": 105498,
              "spot_prices": [
                639,
                641
              ]
            },
            {
              "id": 206371,
              "name": "Huta-Bankowa, (juissance), j. dec. 96",
              "security_id": 105509,
              "day_before_spot_price": 4130
            },
            {
              "id": 206872,
              "name": "Ekaterinovka (charbon d'), act. 500 fr. t. p.",
              "security_id": 106013,
              "day_before_spot_price": 805
            },
            {
              "id": 206326,
              "name": "Obl. Makewka 4% obl. de 125 roub. J. nov. 96",
              "security_id": 5715,
              "day_before_spot_price": 490
            },
            {
              "id": 160227,
              "name": "Robinson Gold Mining (port 6 oct 93\r)",
              "security_id": 54304,
              "spot_prices": [
                225,
                227
              ]
            },
            {
              "id": 205834,
              "name": "Sud Africaine (au porteur)",
              "security_id": 105155,
              "day_before_spot_price": 8
            },
            {
              "id": 205877,
              "name": "Kinta (mines d'etain) ex-c. 1",
              "security_id": 105199,
              "day_before_spot_price": 230
            },
            {
              "id": 206079,
              "name": "Donetz (Forges et acieries du)",
              "security_id": 105341,
              "spot_prices": [
                1075,
                1080
              ]
            },
            {
              "id": 206080,
              "name": "Donetz (Forges et acieries du) (nouv.) nomin",
              "security_id": 105342,
              "day_before_spot_price": 510
            },
            {
              "id": 206232,
              "name": "Rip Gold mining Cy (limited)",
              "security_id": 105409,
              "day_before_spot_price": 19
            },
            {
              "id": 206234,
              "name": "Sheba",
              "security_id": 105411,
              "spot_prices": [
                37.5,
                38
              ]
            },
            {
              "id": 206279,
              "name": "New Emeralds (au porteur)",
              "security_id": 105447,
              "spot_prices": [
                47.25,
                47.75
              ]
            },
            {
              "id": 206369,
              "name": "John Cockerill",
              "security_id": 105507,
              "spot_prices": [
                2295
              ]
            },
            {
              "id": 206411,
              "name": "Obl. Jonction City (Placers hydrauliques de)",
              "security_id": 105549,
              "day_before_spot_price": 486
            },
            {
              "id": 206835,
              "name": "Pinkafo (Comp. charbonnière de) act.de 1 £",
              "security_id": 105976,
              "spot_prices": [
                29,
                29.5
              ]
            },
            {
              "id": 206880,
              "name": "Rand Mines",
              "security_id": 106021,
              "spot_prices": [
                820,
                830
              ]
            },
            {
              "id": 157528,
              "name": "Langlaagte Estate Gold Mining Cy",
              "security_id": 51605,
              "spot_prices": [
                76,
                79
              ]
            },
            {
              "id": 206204,
              "name": "Etablissem. Franc. En Uruguay act. 100 f.t.p.",
              "security_id": 105381,
              "day_before_spot_price": 67
            },
            {
              "id": 206245,
              "name": "West Rand Mines",
              "security_id": 105422,
              "spot_prices": [
                20,
                20.75
              ]
            },
            {
              "id": 206372,
              "name": "Laurium Grec, ex-c.46 j. 13 fev. 97",
              "security_id": 105510,
              "day_before_spot_price": 76.5
            },
            {
              "id": 206419,
              "name": "Bouhey (usines) act. De 100 f. ex-c. 15",
              "security_id": 105557,
              "spot_prices": [
                156
              ]
            },
            {
              "id": 206836,
              "name": "Volga-Vichera (non lib.)",
              "security_id": 105977,
              "spot_prices": [
                500,
                485
              ]
            },
            {
              "id": 206865,
              "name": "Atel. de constr. Madeleine-lez-Lille, ex-c.1",
              "security_id": 106006,
              "day_before_spot_price": 136
            },
            {
              "id": 206873,
              "name": "Geldenhuis estate, ex-c. 13, j. octobre 98",
              "security_id": 106014,
              "spot_prices": [
                198,
                200
              ]
            },
            {
              "id": 206881,
              "name": "Sarrebruck (Forges de) ex-c. 6, nov. 1898",
              "security_id": 106022,
              "spot_prices": [
                10200
              ]
            }
          ]
        },
        {
          "id": 667,
          "name": "Valeurs diverses",
          "notations": [
            {
              "id": 206352,
              "name": "Produits chim.de St-Denis(Soc.anon.) ex-c.16",
              "security_id": 6855,
              "day_before_spot_price": 365
            },
            {
              "id": 206133,
              "name": "Bons de I'Exposition (talon)",
              "security_id": 6879
            },
            {
              "id": 206167,
              "name": "Be Hyp. Nat. de Grece, j. janv. 87",
              "security_id": 105044,
              "day_before_spot_price": 464
            },
            {
              "id": 206166,
              "name": "Cred. Fonc. Mutuel Russie 4 1/2",
              "security_id": 105047,
              "spot_prices": [
                405.5,
                465
              ]
            },
            {
              "id": 206153,
              "name": "Cie Nat. d'Electr. (Ferranti) j. oct. 90",
              "security_id": 105195,
              "day_before_spot_price": 184
            },
            {
              "id": 206134,
              "name": "Gaz Constantinople-Scutari j. jll t 92",
              "security_id": 105287,
              "day_before_spot_price": 266
            },
            {
              "id": 206120,
              "name": "Assur.agric.(Sco.gen.des)act.n.port.ex-c.4",
              "security_id": 105328
            },
            {
              "id": 206255,
              "name": "Casse et Fils (limited) act. De preference",
              "security_id": 105431,
              "day_before_spot_price": 17.5
            },
            {
              "id": 206284,
              "name": "Obl. Dynamite du Transvaal, 500 fr. 5%",
              "security_id": 105451,
              "spot_prices": [
                505,
                504
              ]
            },
            {
              "id": 206313,
              "name": "Bons de I'Exposition (talons)",
              "security_id": 105474,
              "day_before_spot_price": 8
            },
            {
              "id": 206323,
              "name": "Electricite de Limoges, 500 f. t. p. (privil.)",
              "security_id": 105483,
              "day_before_spot_price": 550
            },
            {
              "id": 206375,
              "name": "Eaux et Services Municip., act priv. 300 f.j. janv. 97",
              "security_id": 105513,
              "day_before_spot_price": 25
            },
            {
              "id": 206381,
              "name": "Petroles de Grosnyi (action privilegiee)",
              "security_id": 105519,
              "day_before_spot_price": 687.5
            },
            {
              "id": 206384,
              "name": "Gaz et Electricite de Valence, j.janv.97",
              "security_id": 105522,
              "day_before_spot_price": 300
            },
            {
              "id": 206388,
              "name": "Granits et Porphyres des Vesges (act. 100 f.)",
              "security_id": 105526,
              "day_before_spot_price": 130
            },
            {
              "id": 206392,
              "name": "Automobiles (Societe continental d')",
              "security_id": 105530,
              "spot_prices": [
                105,
                110
              ]
            },
            {
              "id": 206398,
              "name": "Conservation des liquides (Cie gen. pr la) priv.",
              "security_id": 105536,
              "day_before_spot_price": 75
            },
            {
              "id": 206407,
              "name": "Plaques Lumiere, 400 fr. Remb., ex-c. 5",
              "security_id": 105545,
              "spot_prices": [
                1440
              ]
            },
            {
              "id": 206855,
              "name": "Oblig. Brasserie Renaissance - E. Gaeng Cie- ",
              "security_id": 105996,
              "day_before_spot_price": 237.5
            },
            {
              "id": 206856,
              "name": "Oblig. Cie Nationale Immob. (hypoth. 4%)",
              "security_id": 105997,
              "day_before_spot_price": 470
            },
            {
              "id": 206886,
              "name": "Automobiles Decauville",
              "security_id": 106027,
              "day_before_spot_price": 108.75
            },
            {
              "id": 206887,
              "name": "Chalets de nécessité (Soc. département. de)",
              "security_id": 106028
            },
            {
              "id": 207229,
              "name": "Constructions mecan (Societe francaise de)",
              "security_id": 106370
            },
            {
              "id": 206315,
              "name": "Mozambique (Cie de) c. 1 att.",
              "security_id": 17428,
              "spot_prices": [
                56,
                57.75
              ]
            },
            {
              "id": 206351,
              "name": "Cie Commerciale (Export. Et import.) 125 f. p",
              "security_id": 40143,
              "day_before_spot_price": 530
            },
            {
              "id": 206353,
              "name": "Caisse gen. d'Epargne et de Credit, ex.c. 15, j.mai 97",
              "security_id": 40292,
              "day_before_spot_price": 810
            },
            {
              "id": 206182,
              "name": "Gaz de Maubeuge, juillet 78",
              "security_id": 104284,
              "day_before_spot_price": 125
            },
            {
              "id": 206183,
              "name": "Eaux de Bussang juillet 79",
              "security_id": 104357
            },
            {
              "id": 206159,
              "name": "Cliff(Usines)j. 31 mars88, ex-c. 3",
              "security_id": 104884,
              "day_before_spot_price": 1470
            },
            {
              "id": 206160,
              "name": "Eaux de Royat, ex-c. 11",
              "security_id": 105120,
              "day_before_spot_price": 92.5
            },
            {
              "id": 206135,
              "name": "Canal de Toulouse",
              "security_id": 105285,
              "day_before_spot_price": 30
            },
            {
              "id": 206362,
              "name": "Stereoscope Pelliculaire (act. De 100 fr.)",
              "security_id": 105500,
              "day_before_spot_price": 55
            },
            {
              "id": 206382,
              "name": "Petroles de Grosnyi (action ordinaire)",
              "security_id": 105520,
              "day_before_spot_price": 269
            },
            {
              "id": 206403,
              "name": "Grand Hotel Plage St-Gabriel, ex-c. 1",
              "security_id": 105541,
              "day_before_spot_price": 472.5
            },
            {
              "id": 206404,
              "name": "Innovatrice (L') (Cie d'assur. Incendie)",
              "security_id": 105542,
              "day_before_spot_price": 102.5
            },
            {
              "id": 206421,
              "name": "Sud-Russe (soude)",
              "security_id": 105559,
              "day_before_spot_price": 960
            },
            {
              "id": 206422,
              "name": "Tubes a Louvroil (Comp. franc. Des) ex-c. 7",
              "security_id": 105560,
              "day_before_spot_price": 1740
            },
            {
              "id": 206424,
              "name": "Constructs act. Nouv., 125 fr payes",
              "security_id": 105562,
              "day_before_spot_price": 865
            },
            {
              "id": 206357,
              "name": "Edison (part fondateur) ex-c. 18 j. janv. 97",
              "security_id": 4970,
              "day_before_spot_price": 174
            },
            {
              "id": 206340,
              "name": "Credit foncier de Santa-Fe",
              "security_id": 6135,
              "spot_prices": [
                46
              ]
            },
            {
              "id": 206164,
              "name": "Eaux de Bourboule, obligations",
              "security_id": 6777,
              "day_before_spot_price": 508
            },
            {
              "id": 206147,
              "name": "Châlets de Commodité (Comp. nouvelle des)",
              "security_id": 6869,
              "day_before_spot_price": 60
            },
            {
              "id": 206146,
              "name": "Comptoir national d'Escompte de Paris (parts)",
              "security_id": 7227,
              "day_before_spot_price": 38
            },
            {
              "id": 206277,
              "name": "Transvaal Consol. Land, c. 1 att",
              "security_id": 17603,
              "spot_prices": [
                32,
                33
              ]
            },
            {
              "id": 206354,
              "name": "Eaux de Contrexeville (Source Mongeot)",
              "security_id": 40165,
              "day_before_spot_price": 105
            },
            {
              "id": 206346,
              "name": "Constructs mecaniques du Midi de la Russie",
              "security_id": 40493,
              "day_before_spot_price": 911.25
            },
            {
              "id": 206186,
              "name": "Palais de Glace",
              "security_id": 51714,
              "day_before_spot_price": 253
            },
            {
              "id": 206175,
              "name": "Dynamite Fusion ex-c. 8",
              "security_id": 104894,
              "day_before_spot_price": 112
            },
            {
              "id": 206143,
              "name": "Eaux et Services Municipaux, t. p.",
              "security_id": 105238
            },
            {
              "id": 206141,
              "name": "Gaz Franco-Belge, ex-c. 16",
              "security_id": 105243
            },
            {
              "id": 206258,
              "name": "Chartered (British south African)",
              "security_id": 105433,
              "spot_prices": [
                73.5,
                75
              ]
            },
            {
              "id": 206378,
              "name": "Appareil controleur (parts benef.)",
              "security_id": 105516,
              "day_before_spot_price": 100
            },
            {
              "id": 206394,
              "name": "Lanzi Exploration Company, Limited",
              "security_id": 105532
            },
            {
              "id": 206397,
              "name": "Procedes Dugardin (Phot.des couleurs) (parts)",
              "security_id": 105535,
              "day_before_spot_price": 95
            },
            {
              "id": 206843,
              "name": "Banque d'émission à Bruxelles (parts)",
              "security_id": 105984,
              "spot_prices": [
                575,
                577
              ]
            },
            {
              "id": 206848,
              "name": "Eclairage du Centre, act. 50 fr. (privil.)",
              "security_id": 105989,
              "spot_prices": [
                315
              ]
            },
            {
              "id": 206850,
              "name": "Huileries et savonneries de Mozambique",
              "security_id": 105991,
              "spot_prices": [
                130,
                132.5,
                135
              ]
            },
            {
              "id": 206852,
              "name": "Leather Shod Wheel",
              "security_id": 105993,
              "day_before_spot_price": 32
            },
            {
              "id": 206853,
              "name": "Modes Françaises (Soc. gén. des)",
              "security_id": 105994,
              "spot_prices": [
                130,
                130.5
              ]
            },
            {
              "id": 206857,
              "name": "Oblig. Cie Nationale Immob. 300 fr. 4% (net) nouv",
              "security_id": 105998,
              "day_before_spot_price": 274
            },
            {
              "id": 206860,
              "name": "Oblig. Eclairage du Centre 3,60%, j. sept. 98",
              "security_id": 106001,
              "day_before_spot_price": 480
            },
            {
              "id": 206893,
              "name": "Oblig. Crédit fonc. mutuel de Russie 3,80%",
              "security_id": 106034
            },
            {
              "id": 206344,
              "name": "Oblig. Digeon et Cie (titres verts)",
              "security_id": 3294
            },
            {
              "id": 206136,
              "name": "Grand-Hotel, 250 p. ex-c. 18",
              "security_id": 4891
            },
            {
              "id": 206169,
              "name": "Chalets de Nécessité, act. de 300 fr. t. p.",
              "security_id": 6870,
              "day_before_spot_price": 1580
            },
            {
              "id": 206345,
              "name": "Chaussures Incroyable",
              "security_id": 6872,
              "spot_prices": [
                216.5,
                217.5
              ]
            },
            {
              "id": 206137,
              "name": "Eaux de Bayonne, 4%, jouis, oct. 1892",
              "security_id": 40161,
              "day_before_spot_price": 240
            },
            {
              "id": 206128,
              "name": "Chalets de Commod. (Cie nouv.) 70 f.p.",
              "security_id": 105315,
              "day_before_spot_price": 272.5
            },
            {
              "id": 206286,
              "name": "Corps creux (Soc. Franc. De Fabrication des)",
              "security_id": 105453,
              "spot_prices": [
                44.5,
                45
              ]
            },
            {
              "id": 206319,
              "name": "Obl. Eaux (Cie francaise des) 3 % j. av. 96.",
              "security_id": 105479
            },
            {
              "id": 206363,
              "name": "Stereoscope Pelliculaire (parts de fondat.)",
              "security_id": 105501,
              "day_before_spot_price": 10
            },
            {
              "id": 206415,
              "name": "Caisse comm. Et indust, de Paris, 1.250 f. p.",
              "security_id": 105553
            },
            {
              "id": 206416,
              "name": "Chateau-d'Eau de Paris (Cie Fonc. Du), ex-c 8",
              "security_id": 105554,
              "day_before_spot_price": 410
            },
            {
              "id": 206418,
              "name": "Tavernes Pousset et Royale reunies,ex-c. 1.",
              "security_id": 105556,
              "spot_prices": [
                165
              ]
            },
            {
              "id": 206888,
              "name": "Biscuits Olibet (Société des), ex-c. 2 j. 26 déc. 98",
              "security_id": 106029,
              "spot_prices": [
                141,
                141.25
              ]
            },
            {
              "id": 206152,
              "name": "Châlets de Nécessité jouissance",
              "security_id": 22141
            },
            {
              "id": 206311,
              "name": "Bons de I'Exposition 1900",
              "security_id": 40264,
              "day_before_spot_price": 16.5
            },
            {
              "id": 206149,
              "name": "Auxiliaire ch. de fer, ex-c.2",
              "security_id": 104441,
              "day_before_spot_price": 35
            },
            {
              "id": 206148,
              "name": "Obl. Ce Aux. ch. de fer, nov. 82",
              "security_id": 104504,
              "spot_prices": [
                107
              ]
            },
            {
              "id": 206173,
              "name": "Dynamite Francaise",
              "security_id": 104896,
              "day_before_spot_price": 480
            },
            {
              "id": 206161,
              "name": "Eaux de Royat (Obligation)",
              "security_id": 105119,
              "day_before_spot_price": 495
            },
            {
              "id": 206139,
              "name": "Vidanges et Engrais (Cie Nou.) ex-c. 2",
              "security_id": 105270,
              "day_before_spot_price": 32.5
            },
            {
              "id": 206303,
              "name": "Obl. Glace pure (Soc.fr.) 5%. Ex.-c. 14,j.fv.96",
              "security_id": 105469,
              "day_before_spot_price": 305
            },
            {
              "id": 206412,
              "name": "Bernot freres. Act. De 500 f. ex-c. 13",
              "security_id": 105550,
              "day_before_spot_price": 1570
            },
            {
              "id": 206417,
              "name": "Obl. Biskra et Oued Rich (Bons hyp. 5%)",
              "security_id": 105555
            },
            {
              "id": 206841,
              "name": "Automobiles (Soc. Européenne d'), act. 100f",
              "security_id": 105982,
              "day_before_spot_price": 125
            },
            {
              "id": 206845,
              "name": "Caudresienne (La) c. 1 att",
              "security_id": 105986,
              "spot_prices": [
                965,
                970
              ]
            },
            {
              "id": 206863,
              "name": "Oblig. Pétrole (Comp. Austro-Belge de) 5%",
              "security_id": 106004,
              "day_before_spot_price": 499.25
            },
            {
              "id": 206891,
              "name": "Oblig. Banque nat. de Grèce (à lots), j. juill. 98",
              "security_id": 106032
            },
            {
              "id": 206892,
              "name": "Oblig. Cercle de Monaco 4%, j. juillet 1898",
              "security_id": 106033,
              "spot_prices": [
                307.5,
                308
              ]
            },
            {
              "id": 206894,
              "name": "Oblig. Gaz de Lisbonne 4%, j. novembre 1898",
              "security_id": 106035
            },
            {
              "id": 206356,
              "name": "Prod. chimiq et explosifs (Soc. Franco-russe)",
              "security_id": 4745,
              "day_before_spot_price": 116
            },
            {
              "id": 206151,
              "name": "Eaux de la Bourboule",
              "security_id": 6776,
              "day_before_spot_price": 275
            },
            {
              "id": 206170,
              "name": "Musée Grévin, act. 500 fr., t. p. ",
              "security_id": 6891,
              "day_before_spot_price": 1260
            },
            {
              "id": 206177,
              "name": "Gdes Tuil. du Berry",
              "security_id": 40224,
              "day_before_spot_price": 220
            },
            {
              "id": 206185,
              "name": "Eaux de Calais",
              "security_id": 104324,
              "day_before_spot_price": 350
            },
            {
              "id": 206163,
              "name": "Platrières de Paris, ex.-c 3",
              "security_id": 104875,
              "spot_prices": [
                26,
                26.5
              ]
            },
            {
              "id": 206174,
              "name": "Dynamite Espagn. ex-c. 18",
              "security_id": 104895
            },
            {
              "id": 206154,
              "name": "Cercle de Monaco j mai 1890",
              "security_id": 105193,
              "spot_prices": [
                4475,
                4470
              ]
            },
            {
              "id": 206105,
              "name": "Soc. Gen. int, d'ecl. Pr le gaz et l'elect",
              "security_id": 105363
            },
            {
              "id": 206253,
              "name": "Bechuanaland (Exploration Cy), ex-c. 3",
              "security_id": 105429,
              "day_before_spot_price": 22
            },
            {
              "id": 206256,
              "name": "Casse et Fils (limited) act. Act. Ordinaire",
              "security_id": 105432,
              "day_before_spot_price": 12
            },
            {
              "id": 206261,
              "name": "Eaux de Bayonne",
              "security_id": 105435,
              "day_before_spot_price": 60
            },
            {
              "id": 206283,
              "name": "Assainissement (Comp. gen. fr.), act. De 100 f",
              "security_id": 105450,
              "day_before_spot_price": 128
            },
            {
              "id": 206391,
              "name": "Radiotint (action de)",
              "security_id": 105529,
              "day_before_spot_price": 19.5
            },
            {
              "id": 206409,
              "name": "Ardoisieres angevines (Cie des)",
              "security_id": 105547,
              "day_before_spot_price": 149.5
            },
            {
              "id": 206842,
              "name": "Automobiles et moteurs Henriod. act. 100fr",
              "security_id": 105983
            },
            {
              "id": 206898,
              "name": "Novo Pavlovka (Cie houill.et met) ac. 100 f.t.p",
              "security_id": 106040,
              "spot_prices": [
                101
              ]
            },
            {
              "id": 206181,
              "name": "Eaux de Vals",
              "security_id": 4904,
              "day_before_spot_price": 1135
            },
            {
              "id": 206349,
              "name": "Jumelles de Theatre, ex-c. 5",
              "security_id": 40464,
              "day_before_spot_price": 70
            },
            {
              "id": 206144,
              "name": "Eaux et Services Municipaux",
              "security_id": 105237
            },
            {
              "id": 206399,
              "name": "Cleveland machine Screw",
              "security_id": 105537,
              "day_before_spot_price": 415
            },
            {
              "id": 206401,
              "name": "Oblig. Compagnie generale fonciere 4%",
              "security_id": 105539,
              "day_before_spot_price": 465
            },
            {
              "id": 206406,
              "name": "Petroles (Compagnie europeenn des) Ld",
              "security_id": 105544,
              "day_before_spot_price": 22
            },
            {
              "id": 206840,
              "name": "Assurances quotidiennes (Cie gén. des)",
              "security_id": 105981,
              "day_before_spot_price": 90
            },
            {
              "id": 206862,
              "name": "Oblig. Gaz du Loanda 5%, j. nov 1898",
              "security_id": 106003,
              "spot_prices": [
                415
              ]
            },
            {
              "id": 207230,
              "name": "Obl. Electricite de Limoges. 500 fr.j.mars98",
              "security_id": 106371,
              "day_before_spot_price": 465
            },
            {
              "id": 206172,
              "name": "Banque Parisienne, 20e de parts de fondateurs",
              "security_id": 40276,
              "day_before_spot_price": 15
            },
            {
              "id": 206122,
              "name": "Dynamite du Transvaal, act. de 25 fr.",
              "security_id": 50757,
              "spot_prices": [
                72.5,
                73
              ]
            },
            {
              "id": 206179,
              "name": "Eaux de Pougues ex-c",
              "security_id": 104444,
              "day_before_spot_price": 610
            },
            {
              "id": 206140,
              "name": "Gaz Franco-Belge, j. dec. 1891",
              "security_id": 105244,
              "day_before_spot_price": 502.5
            },
            {
              "id": 206250,
              "name": "Bec Auer Belge, act. De 1/34.000",
              "security_id": 105426,
              "day_before_spot_price": 40
            },
            {
              "id": 206251,
              "name": "bec Auer Russe, act. De 100 fr",
              "security_id": 105427,
              "spot_prices": [
                73,
                74
              ]
            },
            {
              "id": 206262,
              "name": "Eerste Fabrieken Distillery (au porteur)",
              "security_id": 105436,
              "day_before_spot_price": 25
            },
            {
              "id": 206408,
              "name": "Turbie-sur-Mer (Cie du Littoral). C. 1 att",
              "security_id": 105546
            },
            {
              "id": 206413,
              "name": "Obl. Bernotfreres, 100 f. 5% 1896j. 16mars 97",
              "security_id": 105551,
              "spot_prices": [
                102.5
              ]
            },
            {
              "id": 206425,
              "name": "Gaz Franco-Belge, j. 5% dec. 1896",
              "security_id": 105563,
              "day_before_spot_price": 427.5
            },
            {
              "id": 206426,
              "name": "Banque nat. du Mexique (parts), ex-c. 12",
              "security_id": 105564,
              "day_before_spot_price": 250
            },
            {
              "id": 206847,
              "name": "Compagnie Nation. Immobil. (act. de 100 fr.)",
              "security_id": 105988,
              "spot_prices": [
                113
              ]
            },
            {
              "id": 206854,
              "name": "Scieries de St-Jean-de-Losne, act. de 100f",
              "security_id": 105995,
              "day_before_spot_price": 105.5
            },
            {
              "id": 206858,
              "name": "Oblig. Compagnie gén. d'immeubles 4%",
              "security_id": 105999
            },
            {
              "id": 206859,
              "name": "Oblig. Eclairage du Centre 4%, j. nov. 1898",
              "security_id": 106000,
              "day_before_spot_price": 490
            },
            {
              "id": 206861,
              "name": "Oblig. Gaz et Elect. (Cie hongroise) 4% j. août 98",
              "security_id": 106002,
              "day_before_spot_price": 488
            },
            {
              "id": 206890,
              "name": "Plaques Lumière, 1/5 act. de jouiss., ex-c. 1",
              "security_id": 106031
            }
          ]
        }
      ]
    }
  ],
  "date": "1898-10-31",
  "stock_exchange": {
    "id": 2,
    "name": "Paris OTC (Coulisse)"
  }
}