{
  "id": 9998,
  "name": "Paris OTC (Coulisse)",
  "children": [
    {
      "id": 661,
      "name": "Valeurs en banque (cote à terme)",
      "notations": [
        {
          "id": 205364,
          "name": "Espagne 4%, Extérieure (négoc., ch.fixe, 1f.)",
          "security_id": 2758
        },
        {
          "id": 205321,
          "name": "L'Union et le Phénix Espagnol, act. 200 fr., tout payé",
          "security_id": 3916
        },
        {
          "id": 204485,
          "name": "Banq. Ottomane, act. Nouv. 500f., 150f.p.",
          "security_id": 1711
        },
        {
          "id": 204504,
          "name": "Turcs (Ch. Ottom.), J. Oct. 75.",
          "security_id": 104175
        },
        {
          "id": 205334,
          "name": "Alpines, j. juin",
          "security_id": 104915
        }
      ]
    },
    {
      "id": 660,
      "name": "Valeurs en banque (au comptant)",
      "children": [
        {
          "id": 662,
          "name": "Valeurs à l'émission (Emissions nouvelles)"
        },
        {
          "id": 663,
          "name": "Fonds d'Etats et de Villes (Fonds d'Etats de Départements et des Villes)",
          "notations": [
            {
              "id": 205897,
              "name": "Dom Miguel (obl.) ex-c. 3",
              "security_id": 411
            },
            {
              "id": 204500,
              "name": "Obl d'Autriche, 1854. j. oct.",
              "security_id": 104171
            },
            {
              "id": 204512,
              "name": "Obl. Bari",
              "security_id": 104184
            },
            {
              "id": 160291,
              "name": "Obl. Genolhacet du Chassezac (mines)",
              "security_id": 54368
            },
            {
              "id": 205594,
              "name": "Obl. Serbes 3%",
              "security_id": 105035
            },
            {
              "id": 205864,
              "name": "Lots Croix Rouge Autrichieune",
              "security_id": 105186
            },
            {
              "id": 204502,
              "name": "Obl. d'Autriche Loze 1858",
              "security_id": 104173
            },
            {
              "id": 204663,
              "name": "Ville Neufchatel",
              "security_id": 104298
            },
            {
              "id": 205849,
              "name": "Obl. Ville de Gand 1868, j. janv. 90",
              "security_id": 105171
            },
            {
              "id": 205851,
              "name": "Obl. Ville de Gand 1883, j. avril 90",
              "security_id": 105173
            },
            {
              "id": 205865,
              "name": "Lots Croix Rouge Hongroise",
              "security_id": 105187
            },
            {
              "id": 205880,
              "name": "Mexicaine (certif. petits bleus",
              "security_id": 105202
            },
            {
              "id": 204499,
              "name": "Obl. Russes, 1866. j.sept. 75",
              "security_id": 104170
            },
            {
              "id": 205609,
              "name": "Obl. de Fribourg 1878",
              "security_id": 105038
            },
            {
              "id": 205866,
              "name": "Lots Croix Rouge Italienne",
              "security_id": 105188
            },
            {
              "id": 204498,
              "name": "Obl. Russes, 1864.j.juill. 75",
              "security_id": 104169
            },
            {
              "id": 204509,
              "name": "Obl. de Milan 1866",
              "security_id": 104181
            },
            {
              "id": 205264,
              "name": "Rente Napolitaine 5%",
              "security_id": 104858
            },
            {
              "id": 205615,
              "name": "Ville Bruxelles, 1886, lib",
              "security_id": 105042
            },
            {
              "id": 205850,
              "name": "Obl. Ville de Gand 1880, j. 15 juil. 89",
              "security_id": 105172
            },
            {
              "id": 205883,
              "name": "Obl. Liege, 1879, j. nov 1890",
              "security_id": 105205
            },
            {
              "id": 204482,
              "name": "Obl. Liege, 1868.j. avril 75",
              "security_id": 1555
            },
            {
              "id": 205338,
              "name": "Département du Nord 3% 1870",
              "security_id": 40531
            },
            {
              "id": 205813,
              "name": "Turcs (Ch. Ottom.), J. Oct. 75.",
              "security_id": 104175
            },
            {
              "id": 204506,
              "name": "Obl. Madrid. j. janvier 71",
              "security_id": 104178
            },
            {
              "id": 204510,
              "name": "Obl. de Venise",
              "security_id": 104182
            },
            {
              "id": 204511,
              "name": "Obl. Barletta",
              "security_id": 104183
            },
            {
              "id": 205339,
              "name": "Obl. Haiti, Bons de coup. juil. 81",
              "security_id": 104916
            },
            {
              "id": 204503,
              "name": "Obl. de Fribourg",
              "security_id": 104174
            },
            {
              "id": 204508,
              "name": "Obl. de Milan 1861",
              "security_id": 104180
            },
            {
              "id": 205592,
              "name": "Obl. Liege, 1874, Juil. 84",
              "security_id": 105033
            },
            {
              "id": 205764,
              "name": "Obl. Ville Anvers, 1887",
              "security_id": 105112
            },
            {
              "id": 205863,
              "name": "Lots Croix Blanche Hollandaise",
              "security_id": 105185
            },
            {
              "id": 205881,
              "name": "Mexicaine (obl.), j. avril 1866",
              "security_id": 105203
            },
            {
              "id": 204501,
              "name": "Obl. d'Autriche 1864",
              "security_id": 104172
            },
            {
              "id": 205263,
              "name": "Rente Florentine 3%",
              "security_id": 104857
            },
            {
              "id": 205878,
              "name": "Lots Egyptiens 3%, j. mai 1890",
              "security_id": 105200
            },
            {
              "id": 205882,
              "name": "Obl. Liege, 1853, j. mai 1890",
              "security_id": 105204
            }
          ]
        },
        {
          "id": 664,
          "name": "Chemins de fer et Transports Divers (Chemins de Fer Transports Divers et Canaux)",
          "notations": [
            {
              "id": 205324,
              "name": "L'Urbaine (Cie Parisienne de Voitures) act. 600 fr., t. p. (nos 1 à 18000)",
              "security_id": 3047
            },
            {
              "id": 205891,
              "name": "Bateaux Parisiens (parts bénéficiaires)",
              "security_id": 40402
            },
            {
              "id": 205825,
              "name": "Obl. Russo Nicolas 4% j. aout89",
              "security_id": 105146
            },
            {
              "id": 206028,
              "name": "Obl. Nortfolk et Western, 5% j. jv. 92 (100dol.)",
              "security_id": 105296
            },
            {
              "id": 206060,
              "name": "Soc. Nicoise de Transports maritimes",
              "security_id": 105324
            },
            {
              "id": 204579,
              "name": "Obl. Livourne-Fl., j. jt. 75",
              "security_id": 104210
            },
            {
              "id": 205276,
              "name": "Obl. Gros Camionnage ne 83",
              "security_id": 104869
            },
            {
              "id": 205824,
              "name": "Obl. Guyaquil 6%, j. juillet 89",
              "security_id": 105145
            },
            {
              "id": 205861,
              "name": "Koslow-Voronege, j. oct. 1890",
              "security_id": 105183
            },
            {
              "id": 158322,
              "name": "Obl. Equateur (Ch. de fer nal de l'), j. jv. 93",
              "security_id": 52399
            },
            {
              "id": 205983,
              "name": "Obl. Russo Nicolas 4% 1890, j. janv.91",
              "security_id": 105257
            },
            {
              "id": 205328,
              "name": "Obl. Romains, 3% juill. 82",
              "security_id": 1122
            },
            {
              "id": 204549,
              "name": "Russes (Grande Société des chemins de fer), act.500fr., t.p.",
              "security_id": 1146
            },
            {
              "id": 205633,
              "name": "Lombards Sud-Autriche, actions de jouissance",
              "security_id": 6657
            },
            {
              "id": 205595,
              "name": "Obl. Xeres (rose), juillet. 85",
              "security_id": 104200
            },
            {
              "id": 204665,
              "name": "Hirondelles parisien., nov. 78",
              "security_id": 104300
            },
            {
              "id": 205872,
              "name": "Cie Maritime du Pacifique",
              "security_id": 105194
            },
            {
              "id": 205982,
              "name": "Obl. Porto-Rico, (Ste Humacao), j. oct.90",
              "security_id": 105256
            },
            {
              "id": 205612,
              "name": "Ch. de fer Russes, act. de jouissance",
              "security_id": 3413
            },
            {
              "id": 204666,
              "name": "Transports parisiens",
              "security_id": 104301
            },
            {
              "id": 205299,
              "name": "Obl. Omnib Gare Ouest juil 84",
              "security_id": 104890
            },
            {
              "id": 205747,
              "name": "Obl. Bahia e Minas libérées",
              "security_id": 105095
            },
            {
              "id": 205827,
              "name": "Obl. Saragosse-Mediterr. 1% lib.",
              "security_id": 105148
            },
            {
              "id": 205978,
              "name": "Koursk-Kharkow, act. De div",
              "security_id": 105252
            },
            {
              "id": 206055,
              "name": "Obl. Valence et Nord-Est de l'Espagne 5%",
              "security_id": 105319
            },
            {
              "id": 204551,
              "name": "Obl.Guill.-Lux. 3%, id",
              "security_id": 1267
            },
            {
              "id": 204554,
              "name": "Obl. Savone a Turin, j. jt. 75",
              "security_id": 1472
            },
            {
              "id": 206008,
              "name": "Jaffa à Jérusalem et prolongements, oblig. 5%",
              "security_id": 40182
            },
            {
              "id": 204589,
              "name": "Obl. Séville-Xérès (grise)",
              "security_id": 104236
            },
            {
              "id": 204664,
              "name": "Arles à St-Louis, juin 78",
              "security_id": 104299
            },
            {
              "id": 206062,
              "name": "Tramways du Jura, c. 1 att.",
              "security_id": 105326
            },
            {
              "id": 205795,
              "name": "Cie Lyonnaise de Tramways 125fp",
              "security_id": 4983
            },
            {
              "id": 205678,
              "name": "Obl. Zafra a Huelva, j. janv. 87",
              "security_id": 105065
            },
            {
              "id": 206029,
              "name": "Obl. Rock-Island (Peoria a St-Louis) j. jt93",
              "security_id": 105297
            },
            {
              "id": 206032,
              "name": "Porto-Rico, ex-c. 3, j. oct. 1890",
              "security_id": 105300
            },
            {
              "id": 204564,
              "name": "Méridionaux français (en liquidation), obligations",
              "security_id": 2289
            },
            {
              "id": 205918,
              "name": "Transports a vap. Francais, ex-c. 3",
              "security_id": 2994
            },
            {
              "id": 205895,
              "name": "Chargeurs Réunis (parts de fondateurs)",
              "security_id": 4972
            },
            {
              "id": 204640,
              "name": "Obl. Seville-Xéres (jaune) j. juin",
              "security_id": 104275
            },
            {
              "id": 205674,
              "name": "Obl. Arles a St-Louis, j. avril",
              "security_id": 105061
            },
            {
              "id": 205826,
              "name": "Obl. Saragosse- titres prov.",
              "security_id": 105147
            }
          ]
        },
        {
          "id": 665,
          "name": "Journaux et Librairies (Journaux, Librairies et Imprimeries)",
          "notations": [
            {
              "id": 205639,
              "name": "Le Temps, actions de jouissance",
              "security_id": 6898
            },
            {
              "id": 205654,
              "name": "Obl. Petit Journal (Le)",
              "security_id": 40465
            },
            {
              "id": 205761,
              "name": "Obl. Petit Parisien, j. avril 1888",
              "security_id": 105109
            },
            {
              "id": 205634,
              "name": "La Lanterne, act.",
              "security_id": 40186
            },
            {
              "id": 205636,
              "name": "Le Petit Marseillais 25 aout 79",
              "security_id": 104354
            },
            {
              "id": 205621,
              "name": "Bonnard Bidault ex-c. 5",
              "security_id": 104892
            },
            {
              "id": 205842,
              "name": "France (La), ex-c. 3",
              "security_id": 105164
            },
            {
              "id": 206034,
              "name": "Publicite permanente 100 fr. t.p",
              "security_id": 105302
            },
            {
              "id": 205986,
              "name": "Paris (parts) nom.",
              "security_id": 105260
            },
            {
              "id": 205979,
              "name": "Librairie Classique Lecene, Oudin et Cie",
              "security_id": 105253
            },
            {
              "id": 205616,
              "name": "Gil Blas, 20 sept. 84 ex-c. 8",
              "security_id": 40188
            },
            {
              "id": 205672,
              "name": "Act. Messager (act. De jouiss.), ex-c. 2",
              "security_id": 105059
            },
            {
              "id": 205701,
              "name": "Le temps, act. 500 fr., t. p.",
              "security_id": 6897
            },
            {
              "id": 205641,
              "name": "Messager Paris juin 84 ex-8",
              "security_id": 104283
            },
            {
              "id": 205742,
              "name": "Le Petit Meridional, ex-c. 23",
              "security_id": 105090
            },
            {
              "id": 205777,
              "name": "Obl. Illustration j. oct. 87",
              "security_id": 105125
            },
            {
              "id": 206044,
              "name": "Agence nationale (Dalziel) parts",
              "security_id": 105308
            },
            {
              "id": 205675,
              "name": "Obl. La Lanterne, J. nov, 86",
              "security_id": 105062
            },
            {
              "id": 205728,
              "name": "Act. Bonhomme Normand (Le).",
              "security_id": 105076
            }
          ]
        },
        {
          "id": 669,
          "name": "Mines (Mines, Houillères, Forges et Charbonnages)",
          "notations": [
            {
              "id": 205607,
              "name": "Lexington (Mines de) (actions)",
              "security_id": 40284
            },
            {
              "id": 157876,
              "name": "Urikany (charbonnage)",
              "security_id": 51953
            },
            {
              "id": 205608,
              "name": "Alpines, j. juin",
              "security_id": 104915
            },
            {
              "id": 205975,
              "name": "Jeres-Lanteira",
              "security_id": 105249
            },
            {
              "id": 205981,
              "name": "Obl. Dadou, liberee",
              "security_id": 105255
            },
            {
              "id": 205995,
              "name": "Usines de Briansk",
              "security_id": 105269
            },
            {
              "id": 206015,
              "name": "Obl. Aubigny 5% r300.j mars 1892",
              "security_id": 105283
            },
            {
              "id": 206022,
              "name": "Huanchaca j. septembre 1892 ex-c.2",
              "security_id": 105290
            },
            {
              "id": 206025,
              "name": "Obl. Expl. et Trait Minerais 5%j.oc92",
              "security_id": 105293
            },
            {
              "id": 206045,
              "name": "Aigle d'or (Mine de l')",
              "security_id": 105309
            },
            {
              "id": 206071,
              "name": "Carrieres de Vireux",
              "security_id": 105333
            },
            {
              "id": 205670,
              "name": "La Mana (Parts)",
              "security_id": 105057
            },
            {
              "id": 205727,
              "name": " El Callao (8000), J. 5 dec. 1887",
              "security_id": 105075
            },
            {
              "id": 205737,
              "name": "De Beers (Diamants)",
              "security_id": 105085
            },
            {
              "id": 206014,
              "name": "Aubigny (Cinquieme)",
              "security_id": 105282
            },
            {
              "id": 205558,
              "name": "Rio-Tinto (act.)",
              "security_id": 3927
            },
            {
              "id": 205892,
              "name": "Boleo",
              "security_id": 4250
            },
            {
              "id": 205702,
              "name": "Obl. Met. Ariege. J. aout 1887",
              "security_id": 40492
            },
            {
              "id": 156760,
              "name": "Cape Copper, ex-c.8, j. juillet 1890",
              "security_id": 50837
            },
            {
              "id": 204570,
              "name": "Stolberg (p ivileg.), j.oct. 75",
              "security_id": 104197
            },
            {
              "id": 205312,
              "name": "Tharsis, mai 1884",
              "security_id": 104902
            },
            {
              "id": 205846,
              "name": "Placer Haute-Italie (Parts nom.)",
              "security_id": 105168
            },
            {
              "id": 205848,
              "name": "Transvalia (au porteur)",
              "security_id": 105170
            },
            {
              "id": 205869,
              "name": "Ariege (Soc. Metail.) ex-c. 8",
              "security_id": 105191
            },
            {
              "id": 205980,
              "name": "Morena (La)",
              "security_id": 105254
            },
            {
              "id": 206013,
              "name": "Souffres Romains (parts Soc. Civile)",
              "security_id": 40211
            },
            {
              "id": 205371,
              "name": "Obl. Rio-Tinto 5% j. oct.",
              "security_id": 104927
            },
            {
              "id": 205575,
              "name": "Obl. Rio-Tinto nouv.",
              "security_id": 105020
            },
            {
              "id": 205814,
              "name": "Galicia (mines d'etain)",
              "security_id": 105135
            },
            {
              "id": 205976,
              "name": "Jeres-Lanteira (parts)",
              "security_id": 105250
            },
            {
              "id": 206018,
              "name": "Galicia (mines d'etain) (privil)",
              "security_id": 105286
            },
            {
              "id": 206031,
              "name": "Plata Mountain (la) (colorado) act.priv",
              "security_id": 105299
            },
            {
              "id": 206033,
              "name": "Progreso, 25 fr. t. p",
              "security_id": 105301
            },
            {
              "id": 206035,
              "name": "Salines de Cayo-Romano",
              "security_id": 105303
            },
            {
              "id": 157761,
              "name": "Robinson Gold Mining (unites)",
              "security_id": 51838
            },
            {
              "id": 205652,
              "name": "Part Saint-Elie, ex-c.",
              "security_id": 104885
            },
            {
              "id": 205681,
              "name": "Placer Enfin act. Nouv",
              "security_id": 105068
            },
            {
              "id": 205741,
              "name": "Kinta (part benefic)",
              "security_id": 105089
            },
            {
              "id": 206023,
              "name": "Montecatini j. nov. 1892",
              "security_id": 105291
            },
            {
              "id": 206072,
              "name": "Obl. Carrieres de Vireux",
              "security_id": 105334
            },
            {
              "id": 206097,
              "name": "Randfontein Estates Gold mining Cy",
              "security_id": 105359
            },
            {
              "id": 204547,
              "name": "Zinc V. Montagne, j. 10 nov.",
              "security_id": 325
            },
            {
              "id": 204767,
              "name": "Pontgibaud (Mines et Fonderies de), n°s 1 à 12600 et 13001 à 13500",
              "security_id": 6182
            },
            {
              "id": 204889,
              "name": "Obl. Soc. Met.Perigord oct 84",
              "security_id": 104490
            },
            {
              "id": 205667,
              "name": "Golden-River",
              "security_id": 105054
            },
            {
              "id": 205955,
              "name": "Champ d'Or",
              "security_id": 105229
            },
            {
              "id": 206021,
              "name": "Genolhacet du Chassezac (mines)",
              "security_id": 105289
            },
            {
              "id": 204550,
              "name": "Stolberg (anc.), j. jt. 75",
              "security_id": 1234
            },
            {
              "id": 160227,
              "name": "Robinson Gold Mining (port 6 oct 93\r)",
              "security_id": 54304
            },
            {
              "id": 205269,
              "name": "Uruguay (Mines d'or de L')",
              "security_id": 104862
            },
            {
              "id": 205586,
              "name": "Mines Lexington, parts de fondateurs",
              "security_id": 105030
            },
            {
              "id": 205682,
              "name": "Trifail, j. juillet 1886",
              "security_id": 105069
            },
            {
              "id": 205834,
              "name": "Sud Africaine (au porteur)",
              "security_id": 105155
            },
            {
              "id": 205877,
              "name": "Kinta (mines d'etain) ex-c. 1",
              "security_id": 105199
            },
            {
              "id": 205974,
              "name": "Hafna (limited)",
              "security_id": 105248
            },
            {
              "id": 205352,
              "name": "Lexington (Mines de) (parts)",
              "security_id": 40285
            },
            {
              "id": 205270,
              "name": "Uruguay act. de jouiss",
              "security_id": 104863
            },
            {
              "id": 205602,
              "name": "Placer Enfin ex-coup. 7",
              "security_id": 105036
            },
            {
              "id": 205668,
              "name": "Golden-River (Parts)",
              "security_id": 105055
            },
            {
              "id": 205669,
              "name": "La Mana",
              "security_id": 105056
            },
            {
              "id": 205831,
              "name": "Robinson Gold Mining (nomin.)",
              "security_id": 105152
            },
            {
              "id": 205987,
              "name": "Pignerol (Cie intern. des Cuivres de)",
              "security_id": 105261
            }
          ]
        },
        {
          "id": 667,
          "name": "Valeurs diverses",
          "children": [
            {
              "id": 672,
              "name": "Actions (Valeurs diverses)",
              "notations": [
                {
                  "id": 204752,
                  "name": "Eaux de Vals",
                  "security_id": 4904
                },
                {
                  "id": 205899,
                  "name": "Eaux de la Bourboule",
                  "security_id": 6776
                },
                {
                  "id": 206009,
                  "name": "Moulins de Corbeil (parts)",
                  "security_id": 6882
                },
                {
                  "id": 205894,
                  "name": "Châlets de Nécessité jouissance",
                  "security_id": 22141
                },
                {
                  "id": 205698,
                  "name": "Eaux de Bussang",
                  "security_id": 40163
                },
                {
                  "id": 205817,
                  "name": "Cafes-Restaurants (Cie Cie des)",
                  "security_id": 105138
                },
                {
                  "id": 206057,
                  "name": "Soc des Entrepreneurs, j. avril 1893",
                  "security_id": 105321
                },
                {
                  "id": 206096,
                  "name": "Petroles Zipperlen, ex-c. 3",
                  "security_id": 105358
                },
                {
                  "id": 205940,
                  "name": "Phosphates de France (Cie des)",
                  "security_id": 4521
                },
                {
                  "id": 157637,
                  "name": "Palais de Glace",
                  "security_id": 51714
                },
                {
                  "id": 205720,
                  "name": "Platrières de Paris, ex.-c 3",
                  "security_id": 104875
                },
                {
                  "id": 206050,
                  "name": "Cales de Radoub et Corderie Parisiennes",
                  "security_id": 105314
                },
                {
                  "id": 206076,
                  "name": "Compagnie generale des Cycles",
                  "security_id": 105338
                },
                {
                  "id": 205601,
                  "name": "L'Union et le Phénix Espagnol, act. 200 fr., tout payé",
                  "security_id": 3916
                },
                {
                  "id": 205927,
                  "name": "Châlets de Commodité (Comp. nouvelle des)",
                  "security_id": 6869
                },
                {
                  "id": 205623,
                  "name": "Chalets de Nécessité, act. de 300 fr. t. p.",
                  "security_id": 6870
                },
                {
                  "id": 206041,
                  "name": "Jumelles de Theatre, ex-c. 5",
                  "security_id": 40464
                },
                {
                  "id": 205925,
                  "name": "Auxiliaire ch. de fer, ex-c.2",
                  "security_id": 104441
                },
                {
                  "id": 205964,
                  "name": "Eaux et Services Municipaux, t. p.",
                  "security_id": 105238
                },
                {
                  "id": 205965,
                  "name": "Eaux et Thermes de Sail (parts nom.)",
                  "security_id": 105239
                },
                {
                  "id": 206048,
                  "name": "Caledonie (la) Soc. Agric. 500 f. t.p",
                  "security_id": 105312
                },
                {
                  "id": 205354,
                  "name": "Banque Parisienne, 20e de parts de fondateurs",
                  "security_id": 40276
                },
                {
                  "id": 205797,
                  "name": "Cliff(Usines)j. 31 mars88, ex-c. 3",
                  "security_id": 104884
                },
                {
                  "id": 205303,
                  "name": "Dynamite Fusion ex-c. 8",
                  "security_id": 104894
                },
                {
                  "id": 205966,
                  "name": "Explosifs Fortis",
                  "security_id": 105240
                },
                {
                  "id": 205969,
                  "name": "Gaz Franco-Belge, ex-c. 16",
                  "security_id": 105243
                },
                {
                  "id": 206056,
                  "name": "Palais de glace (part de fond.)",
                  "security_id": 105320
                },
                {
                  "id": 204852,
                  "name": "Le Printemps, Jules Jaluzot et Cie, act.500f., 250f.payés (n°s 18085 à 80000) (nominatives)",
                  "security_id": 3054
                },
                {
                  "id": 205934,
                  "name": "Musée Grévin, Parts bénéficiaires",
                  "security_id": 6892
                },
                {
                  "id": 205928,
                  "name": "Comptoir national d'Escompte de Paris (parts)",
                  "security_id": 7227
                },
                {
                  "id": 204751,
                  "name": "Gaz de Maubeuge, juillet 78",
                  "security_id": 104284
                },
                {
                  "id": 204838,
                  "name": "Eaux de Pougues ex-c",
                  "security_id": 104444
                },
                {
                  "id": 205739,
                  "name": "Eaux de Calais (jouissance) ex-c. 8",
                  "security_id": 105087
                },
                {
                  "id": 205852,
                  "name": "Texand Land",
                  "security_id": 105174
                },
                {
                  "id": 206065,
                  "name": "Argus (porteur) ex-c. 1, j. janvier 94",
                  "security_id": 105327
                },
                {
                  "id": 205917,
                  "name": "Tabacs Ottomans, act. De 200 fr",
                  "security_id": 3935
                },
                {
                  "id": 206012,
                  "name": "Grand-Hotel, 250 p. ex-c. 18",
                  "security_id": 4891
                },
                {
                  "id": 204692,
                  "name": "Eaux de Calais",
                  "security_id": 104324
                },
                {
                  "id": 205304,
                  "name": "Dynamite Espagn. ex-c. 18",
                  "security_id": 104895
                },
                {
                  "id": 205772,
                  "name": "Eaux de Royat, ex-c. 11",
                  "security_id": 105120
                },
                {
                  "id": 205847,
                  "name": "Pont-sur-la-Manche (parts)",
                  "security_id": 105169
                },
                {
                  "id": 205949,
                  "name": "Auxiliaire des ch. de fer (act. nouv.) ex-c. 3",
                  "security_id": 105223
                },
                {
                  "id": 206053,
                  "name": "Forage (Le)",
                  "security_id": 105317
                },
                {
                  "id": 205587,
                  "name": "Musée Grévin, act. 500 fr., t. p. ",
                  "security_id": 6891
                },
                {
                  "id": 205305,
                  "name": "Dynamite Francaise",
                  "security_id": 104896
                },
                {
                  "id": 205876,
                  "name": "Cred. Fonc. De Tunisie, 250 fr. P",
                  "security_id": 105198
                },
                {
                  "id": 205996,
                  "name": "Vidanges et Engrais (Cie Nou.) ex-c. 2",
                  "security_id": 105270
                },
                {
                  "id": 206098,
                  "name": "Saccharine (Soc. Genle d'Alimentation)",
                  "security_id": 105360
                },
                {
                  "id": 205665,
                  "name": "Gaz de Madrid (jouiss.), ex-c. 3.",
                  "security_id": 105052
                },
                {
                  "id": 205871,
                  "name": "Cercle de Monaco j mai 1890",
                  "security_id": 105193
                },
                {
                  "id": 206017,
                  "name": "Canal de Toulouse",
                  "security_id": 105285
                },
                {
                  "id": 206058,
                  "name": "Soc. Ariegeoise d'electricite c, 1 att",
                  "security_id": 105322
                }
              ]
            },
            {
              "id": 673,
              "name": "Obligations (Valeurs diverses)",
              "notations": [
                {
                  "id": 206039,
                  "name": "Bons de I'Exposition (talon)",
                  "security_id": 6879
                },
                {
                  "id": 205660,
                  "name": "Cred. Fonc. Mutuel Russie 4 1/2",
                  "security_id": 105047
                },
                {
                  "id": 205771,
                  "name": "Eaux de Royat (Obligation)",
                  "security_id": 105119
                },
                {
                  "id": 205968,
                  "name": "Fuente-Piedra (Cie) 5% j. juillet 91",
                  "security_id": 105242
                },
                {
                  "id": 206054,
                  "name": "Grands Etablissem. de Seine-et-Oise",
                  "security_id": 105318
                },
                {
                  "id": 206059,
                  "name": "Obl. Export. Des Prod. Franc. (Soc.d')",
                  "security_id": 105323
                },
                {
                  "id": 206011,
                  "name": "Eaux de Bayonne, 4%, jouis, oct. 1892",
                  "security_id": 40161
                },
                {
                  "id": 206040,
                  "name": "Grands Moulins St-Pierre (St-Denis) 5% j. nov. 91",
                  "security_id": 40179
                },
                {
                  "id": 205926,
                  "name": "Obl. Ce Aux. ch. de fer, nov. 82",
                  "security_id": 104504
                },
                {
                  "id": 206049,
                  "name": "Cales de Radoub et Corderie paris, jav 93",
                  "security_id": 105313
                },
                {
                  "id": 205585,
                  "name": "Matériel Agricole et Industriel 5%, remb. à 300 fr.",
                  "security_id": 3281
                },
                {
                  "id": 205645,
                  "name": "Docks de Saint-Ouen, obligations",
                  "security_id": 104312
                },
                {
                  "id": 206046,
                  "name": "Banque de Santa-Fe 5% j, avril 93",
                  "security_id": 105310
                },
                {
                  "id": 205699,
                  "name": "Eaux de Bourboule, obligations",
                  "security_id": 6777
                },
                {
                  "id": 204755,
                  "name": "Eaux de Nimes",
                  "security_id": 104227
                },
                {
                  "id": 204725,
                  "name": "Eaux de Bussang juillet 79",
                  "security_id": 104357
                },
                {
                  "id": 205900,
                  "name": "Eaux de Vals, obligations 4%",
                  "security_id": 40275
                },
                {
                  "id": 205281,
                  "name": "Gaz de Maubeuge, sept 82",
                  "security_id": 104874
                },
                {
                  "id": 205873,
                  "name": "Cie Nat. d'Electr. (Ferranti) j. oct. 90",
                  "security_id": 105195
                },
                {
                  "id": 205963,
                  "name": "Eaux et Services Municipaux",
                  "security_id": 105237
                },
                {
                  "id": 205970,
                  "name": "Gaz Franco-Belge, j. dec. 1891",
                  "security_id": 105244
                },
                {
                  "id": 206047,
                  "name": "Banque de Santa-Fe 6% j, avril 93",
                  "security_id": 105311
                },
                {
                  "id": 206051,
                  "name": "Chalets de Commod. (Cie nouv.) 70 f.p.",
                  "security_id": 105315
                },
                {
                  "id": 204880,
                  "name": "Gdes Tuil. du Berry",
                  "security_id": 40224
                },
                {
                  "id": 205820,
                  "name": "Gaz de Lisbonne 5%. J. sep.",
                  "security_id": 105141
                },
                {
                  "id": 205839,
                  "name": "Alcools et Liq. purs (Soc.Univ.) j.oc. 90",
                  "security_id": 105161
                },
                {
                  "id": 206052,
                  "name": "Ecl. Et Voies fer. (soc. Serbe franc. J. jv 93",
                  "security_id": 105316
                },
                {
                  "id": 205693,
                  "name": "Cie Fonc. Russe, 4e et 5e serie, j. jv. 87",
                  "security_id": 1721
                },
                {
                  "id": 205624,
                  "name": "Cie Fonc. Russe, 4e serie, j. jv. 87",
                  "security_id": 1719
                },
                {
                  "id": 204701,
                  "name": "Eaux de Brest",
                  "security_id": 104333
                },
                {
                  "id": 205657,
                  "name": "Be Hyp. Nat. de Grece, j. janv. 87",
                  "security_id": 105044
                },
                {
                  "id": 206019,
                  "name": "Gaz Constantinople-Scutari j. jll t 92",
                  "security_id": 105287
                }
              ]
            }
          ]
        }
      ]
    }
  ],
  "date": "1894-04-16",
  "stock_exchange": {
    "id": 2,
    "name": "Paris OTC (Coulisse)"
  }
}