{
  "id": 9998,
  "name": "Paris OTC (Coulisse)",
  "children": [
    {
      "id": 661,
      "name": "Valeurs en banque (cote à terme)",
      "notations": [
        {
          "id": 204476,
          "name": "Espagne, 3%, Extérieure, (négociations, change fixe 5f40)",
          "security_id": 991
        },
        {
          "id": 204504,
          "name": "Obl. Ch. Ottomans, j. oct. 74",
          "security_id": 104175
        },
        {
          "id": 204479,
          "name": "Dette Turque, 5%, 1865-73-74 coup. De 125f",
          "security_id": 1465
        },
        {
          "id": 204620,
          "name": "Autriche 1876, 4% (or), négociation change fixe 2f50.-Obl. 200flor.",
          "security_id": 2315
        },
        {
          "id": 204603,
          "name": "5% Turc L. 30 Ramazan 1292",
          "security_id": 104265
        },
        {
          "id": 204604,
          "name": "Espagne Billets hypothecaires ext.",
          "security_id": 104266
        },
        {
          "id": 204643,
          "name": "Obl. Egypte 6% unifiée nouv",
          "security_id": 104278
        },
        {
          "id": 204493,
          "name": "Obl. Ottom. 1873 j. oct. 1874",
          "security_id": 2060
        },
        {
          "id": 204621,
          "name": "Dette d'Egypte unifiée nouv.Obl. Privilégiées hyp. Sur chems. De fer Egyptiens et Port d'Alexandrie, r. à 500f",
          "security_id": 2324
        },
        {
          "id": 204631,
          "name": "Espagne (Exterieure) 2%",
          "security_id": 3092
        },
        {
          "id": 204642,
          "name": "Pagarés Rio-Tinto, 5%",
          "security_id": 104277
        },
        {
          "id": 204486,
          "name": "Péruvien, obl. 6%, t.p.",
          "security_id": 1853
        },
        {
          "id": 204485,
          "name": "Banq. Ottomane, act. Nouv. 500f., 150f.p.",
          "security_id": 1711
        },
        {
          "id": 204632,
          "name": "Espagne (Interieure) 2%",
          "security_id": 3094
        },
        {
          "id": 204474,
          "name": "3% Esp. interieur j. jr 73",
          "security_id": 401
        },
        {
          "id": 204625,
          "name": "Hongrie 6%, 40% payes",
          "security_id": 2648
        },
        {
          "id": 204513,
          "name": "Tabacs d'Italie 350 fr. p",
          "security_id": 104190
        },
        {
          "id": 204478,
          "name": "Banque Crédit Italien j. janv. 74",
          "security_id": 1416
        }
      ]
    },
    {
      "id": 660,
      "name": "Valeurs en banque (au comptant)",
      "children": [
        {
          "id": 663,
          "name": "Fonds d'Etats et de Villes (Fonds d'Etats de Départements et des Villes)",
          "notations": [
            {
              "id": 204500,
              "name": "Obl d'Autriche, 1854. j. oct.",
              "security_id": 104171,
              "spot_prices": [
                559
              ]
            },
            {
              "id": 204512,
              "name": "Obl. Bari",
              "security_id": 104184,
              "spot_prices": [
                35,
                36
              ]
            },
            {
              "id": 204605,
              "name": "Obl. Haiti, 500 fr. 8%. j jr",
              "security_id": 104267,
              "spot_prices": [
                142.5,
                144.25
              ]
            },
            {
              "id": 204622,
              "name": "4 1/2% Americain",
              "security_id": 2328
            },
            {
              "id": 204502,
              "name": "Obl. d'Autriche Loze 1858",
              "security_id": 104173,
              "spot_prices": [
                340
              ]
            },
            {
              "id": 204505,
              "name": "Obl. Naples, j. nov. 75",
              "security_id": 104177,
              "spot_prices": [
                128.5
              ]
            },
            {
              "id": 204495,
              "name": "Obl. Florence, j. oct. 75",
              "security_id": 2258,
              "spot_prices": [
                212,
                215
              ]
            },
            {
              "id": 204499,
              "name": "Obl. Russes, 1866. j.sept. 75",
              "security_id": 104170,
              "spot_prices": [
                587.5,
                590
              ]
            },
            {
              "id": 204498,
              "name": "Obl. Russes, 1864.j.juill. 75",
              "security_id": 104169,
              "spot_prices": [
                597.5,
                600
              ]
            },
            {
              "id": 204509,
              "name": "Obl. de Milan 1866",
              "security_id": 104181,
              "spot_prices": [
                9.5
              ]
            },
            {
              "id": 204644,
              "name": "4 1/2% Autriche, or",
              "security_id": 104279
            },
            {
              "id": 204480,
              "name": "Obl Ville Anvers 1867, j. mars 75",
              "security_id": 1549
            },
            {
              "id": 204482,
              "name": "Obl. Liege, 1868.j. avril 75",
              "security_id": 1555,
              "spot_prices": [
                87
              ]
            },
            {
              "id": 204488,
              "name": "6% Americain, 1867, j. juillet 75",
              "security_id": 1872,
              "spot_prices": [
                109.5
              ]
            },
            {
              "id": 204506,
              "name": "Obl. Madrid. j. janvier 71",
              "security_id": 104178,
              "spot_prices": [
                31,
                30.75
              ]
            },
            {
              "id": 204510,
              "name": "Obl. de Venise",
              "security_id": 104182,
              "spot_prices": [
                16,
                16.5
              ]
            },
            {
              "id": 204511,
              "name": "Obl. Barletta",
              "security_id": 104183,
              "spot_prices": [
                23.75,
                24.75
              ]
            },
            {
              "id": 204481,
              "name": "Obl. Bruxelles, 1867.j. jr 75",
              "security_id": 1554,
              "spot_prices": [
                88
              ]
            },
            {
              "id": 204489,
              "name": "5% Americain, j. nov. 75",
              "security_id": 1879,
              "spot_prices": [
                108
              ]
            },
            {
              "id": 204473,
              "name": "5% Autrich. conv.j. nill.75",
              "security_id": 2029,
              "spot_prices": [
                1.38,
                1.39
              ]
            },
            {
              "id": 204503,
              "name": "Obl. de Fribourg",
              "security_id": 104174,
              "spot_prices": [
                21,
                21.5
              ]
            },
            {
              "id": 204507,
              "name": "Obl. de Bucharest",
              "security_id": 104179,
              "spot_prices": [
                21
              ]
            },
            {
              "id": 204508,
              "name": "Obl. de Milan 1861",
              "security_id": 104180,
              "spot_prices": [
                30.5,
                31
              ]
            },
            {
              "id": 204501,
              "name": "Obl. d'Autriche 1864",
              "security_id": 104172,
              "spot_prices": [
                270,
                265
              ]
            },
            {
              "id": 204817,
              "name": "Pagarés Rio-Tinto, 5%",
              "security_id": 104277,
              "spot_prices": [
                327.5
              ]
            }
          ]
        },
        {
          "id": 666,
          "name": "Obligations du Crédit Foncier",
          "notations": [
            {
              "id": 204517,
              "name": "Obl. Communales court t. 1877, id",
              "security_id": 104195,
              "spot_prices": [
                502.5,
                503.75
              ]
            },
            {
              "id": 204518,
              "name": "Bons Agric 5%. j. oct 75",
              "security_id": 104196,
              "spot_prices": [
                515,
                512.5
              ]
            },
            {
              "id": 204514,
              "name": "Obl. Communales 5%.j.nov 75",
              "security_id": 104192,
              "spot_prices": [
                505,
                506
              ]
            },
            {
              "id": 204496,
              "name": "Obl. Credit fonc. 5%.j.nov 75",
              "security_id": 3241,
              "spot_prices": [
                505,
                506
              ]
            },
            {
              "id": 204645,
              "name": "Obl. Communales Court t. 1879",
              "security_id": 104280
            }
          ]
        },
        {
          "id": 667,
          "name": "Valeurs diverses",
          "notations": [
            {
              "id": 204573,
              "name": "Omnibus de Londres",
              "security_id": 104201,
              "spot_prices": [
                160
              ]
            },
            {
              "id": 204577,
              "name": "Bons Marches Naples, fe. 74",
              "security_id": 104206,
              "spot_prices": [
                26.25,
                25
              ]
            },
            {
              "id": 204647,
              "name": "Hydrotherapie Plessis-Lalande (act.)",
              "security_id": 104282
            },
            {
              "id": 204567,
              "name": "A. Petitdidier et Ce. j.mars75",
              "security_id": 104185,
              "spot_prices": [
                100
              ]
            },
            {
              "id": 204585,
              "name": "Obl. Eaux de Nimes j oct. 71",
              "security_id": 104227,
              "spot_prices": [
                9
              ]
            },
            {
              "id": 204637,
              "name": "Credit Minier",
              "security_id": 104272,
              "spot_prices": [
                500
              ]
            },
            {
              "id": 204651,
              "name": "Obl. Hydrother. Plessis-Lalande",
              "security_id": 104286
            },
            {
              "id": 204653,
              "name": "Obl. Société de Construction de la Villette",
              "security_id": 104288,
              "spot_prices": [
                253.75
              ]
            },
            {
              "id": 204475,
              "name": "Mobilier francais ancien",
              "security_id": 770
            },
            {
              "id": 204568,
              "name": "Richer, j. juillet 73",
              "security_id": 104186,
              "spot_prices": [
                697.5
              ]
            },
            {
              "id": 204638,
              "name": "Utilisation industriel des déchets",
              "security_id": 104273
            },
            {
              "id": 204581,
              "name": "Obl. Terrains de Trouville",
              "security_id": 104214
            },
            {
              "id": 204586,
              "name": "Obl. Credit Communal 3%",
              "security_id": 104228,
              "spot_prices": [
                1.175
              ]
            },
            {
              "id": 204607,
              "name": "Obl. Vis à bois et à metaux",
              "security_id": 104269
            },
            {
              "id": 204636,
              "name": "Cie nationale (assur. Accidents)",
              "security_id": 104271,
              "spot_prices": [
                500
              ]
            },
            {
              "id": 204648,
              "name": "Messageries Parisiennes",
              "security_id": 104283,
              "spot_prices": [
                610
              ]
            },
            {
              "id": 204559,
              "name": "Obl. F. Suisse 3%, j. jr. 73",
              "security_id": 1586,
              "spot_prices": [
                3
              ]
            },
            {
              "id": 204629,
              "name": "Benedictine de Fecamp",
              "security_id": 2896
            },
            {
              "id": 204569,
              "name": "Compagnie de l'Alliance",
              "security_id": 104187,
              "spot_prices": [
                1.3,
                1.775
              ]
            },
            {
              "id": 204596,
              "name": "Ac. Raynaud. Bechade et Ce.",
              "security_id": 104258
            },
            {
              "id": 204613,
              "name": "Salins du Midi",
              "security_id": 1615,
              "spot_prices": [
                810
              ]
            },
            {
              "id": 204562,
              "name": "Banque terr. d'Esp., j. av.73",
              "security_id": 2170
            },
            {
              "id": 204587,
              "name": "Raffinerie de Honfleur",
              "security_id": 104231,
              "spot_prices": [
                180
              ]
            },
            {
              "id": 204597,
              "name": "Part du Petit Journal",
              "security_id": 104259,
              "spot_prices": [
                760,
                765
              ]
            },
            {
              "id": 204639,
              "name": "Obl. Ports de Cadix",
              "security_id": 104274,
              "spot_prices": [
                11
              ]
            },
            {
              "id": 204654,
              "name": "Obl. Ateliers de Constr. de Passy",
              "security_id": 104289
            },
            {
              "id": 204477,
              "name": "Mobil. Italien 400 p. ex-c 8",
              "security_id": 1407
            },
            {
              "id": 204595,
              "name": "Banque des Charbonnages",
              "security_id": 104257
            },
            {
              "id": 204650,
              "name": "Obl. Pierres lithogr. Diano-Marina",
              "security_id": 104285
            },
            {
              "id": 204652,
              "name": "Obl. hypoth. Usine de St. Quentin",
              "security_id": 104287
            },
            {
              "id": 204558,
              "name": "Obl. Tabacs d'Italie. j. juill",
              "security_id": 1545,
              "spot_prices": [
                515
              ]
            },
            {
              "id": 204588,
              "name": "Caisse Mires",
              "security_id": 104232
            },
            {
              "id": 204649,
              "name": "Gaz de Maubeuge",
              "security_id": 104284,
              "spot_prices": [
                510
              ]
            }
          ]
        },
        {
          "id": 664,
          "name": "Chemins de fer et Canaux",
          "notations": [
            {
              "id": 204618,
              "name": "Obl. Lille a Valenciennes 5%",
              "security_id": 2211
            },
            {
              "id": 204574,
              "name": "Ch. Seville-Xeres, j. jr. 65",
              "security_id": 104202,
              "spot_prices": [
                15
              ]
            },
            {
              "id": 204575,
              "name": "Obl. Lerida a Reuss.j. oct. 64",
              "security_id": 104204,
              "spot_prices": [
                21
              ]
            },
            {
              "id": 204548,
              "name": "Ch. Suisse occidentale",
              "security_id": 104917,
              "spot_prices": [
                107.5
              ]
            },
            {
              "id": 204633,
              "name": "Obl. Lille a Valenciennes 3%",
              "security_id": 3346
            },
            {
              "id": 204579,
              "name": "Obl. Livourne-Fl., j. jt. 75",
              "security_id": 104210,
              "spot_prices": [
                210
              ]
            },
            {
              "id": 204589,
              "name": "Obl. Seville Xères echangées",
              "security_id": 104236,
              "spot_prices": [
                133,
                132
              ]
            },
            {
              "id": 204599,
              "name": "Ch. Seville act. échangées",
              "security_id": 104261,
              "spot_prices": [
                142.5
              ]
            },
            {
              "id": 204556,
              "name": "Obl.Guill.-Lux. 5%.j.nov75",
              "security_id": 1516,
              "spot_prices": [
                545
              ]
            },
            {
              "id": 204572,
              "name": "Obl. Sev.e Xeres nouv. j. mai 65",
              "security_id": 104200,
              "spot_prices": [
                32
              ]
            },
            {
              "id": 204553,
              "name": "Canalisation de I'Ebre",
              "security_id": 1436,
              "spot_prices": [
                22
              ]
            },
            {
              "id": 204555,
              "name": "Obl. Canal Cavour, j. jt. 75",
              "security_id": 1474
            },
            {
              "id": 204571,
              "name": "Obl. Seve Xeres (ance), j.jr.65",
              "security_id": 104199,
              "spot_prices": [
                32
              ]
            },
            {
              "id": 204549,
              "name": "Ch. de fer Russes, j. 13 jt. 75",
              "security_id": 1146,
              "spot_prices": [
                535,
                530
              ]
            },
            {
              "id": 204551,
              "name": "Obl.Guill.-Lux. 3%, id",
              "security_id": 1267,
              "spot_prices": [
                332.5
              ]
            },
            {
              "id": 204554,
              "name": "Obl. Savone a Turin, j. jt. 75",
              "security_id": 1472,
              "spot_prices": [
                210
              ]
            },
            {
              "id": 204564,
              "name": "Obl. Meridionales, j. oct. 75",
              "security_id": 2289,
              "spot_prices": [
                221.25,
                218.75
              ]
            },
            {
              "id": 204557,
              "name": "Ch. Est-Hongrois, j. jr 73",
              "security_id": 1541,
              "spot_prices": [
                87.5
              ]
            },
            {
              "id": 204617,
              "name": "Obl. Maine-et-Loire",
              "security_id": 1813
            },
            {
              "id": 204584,
              "name": "Obl. N.-O. Espag., juin 66",
              "security_id": 104226,
              "spot_prices": [
                28.75,
                27.5
              ]
            },
            {
              "id": 204566,
              "name": "Part de Fondateur Suez",
              "security_id": 2588,
              "spot_prices": [
                12300
              ]
            },
            {
              "id": 204640,
              "name": "Obl. Seville-Xéres (jaune) j. juin",
              "security_id": 104275,
              "spot_prices": [
                131,
                130
              ]
            }
          ]
        },
        {
          "id": 669,
          "name": "Mines",
          "notations": [
            {
              "id": 204655,
              "name": "Holmbusch limited",
              "security_id": 104290
            },
            {
              "id": 204570,
              "name": "Stolberg (p ivileg.), j.oct. 75",
              "security_id": 104197,
              "spot_prices": [
                322.5
              ]
            },
            {
              "id": 204560,
              "name": "Huelva (capital), j. oct. 75",
              "security_id": 1771,
              "spot_prices": [
                190
              ]
            },
            {
              "id": 204561,
              "name": "Huelva jouissance, j. oct. 75",
              "security_id": 1772,
              "spot_prices": [
                250
              ]
            },
            {
              "id": 204600,
              "name": "Silesie (anc.), j. nov. 75",
              "security_id": 104262,
              "spot_prices": [
                312.5
              ]
            },
            {
              "id": 204580,
              "name": "Obl. Union metallurgique",
              "security_id": 104213,
              "spot_prices": [
                7
              ]
            },
            {
              "id": 204591,
              "name": "Richaldon (Bons privil.)",
              "security_id": 104238
            },
            {
              "id": 204601,
              "name": "Silesie (privileg.), j. nov. 75",
              "security_id": 104263,
              "spot_prices": [
                335,
                330
              ]
            },
            {
              "id": 204547,
              "name": "Zinc V. Montagne, j. 10 nov.",
              "security_id": 325,
              "spot_prices": [
                185
              ]
            },
            {
              "id": 204550,
              "name": "Stolberg (anc.), j. jt. 75",
              "security_id": 1234,
              "spot_prices": [
                72.5,
                75
              ]
            },
            {
              "id": 204656,
              "name": "Obligations Rio-Tinto, 7%",
              "security_id": 104291,
              "spot_prices": [
                385,
                386.25
              ]
            }
          ]
        },
        {
          "id": 670,
          "name": "Charbonnages",
          "notations": [
            {
              "id": 204606,
              "name": "Obl. Sud-Est Bully-Fragny",
              "security_id": 104268
            },
            {
              "id": 204592,
              "name": "Houill. Var remb. à 100 f. (Int. 6 fr.)",
              "security_id": 104239,
              "spot_prices": [
                58.5,
                59.5
              ]
            },
            {
              "id": 204582,
              "name": "Obl. Charbonn. Nord, j.nov",
              "security_id": 104216,
              "spot_prices": [
                31.25,
                32.5
              ]
            },
            {
              "id": 204602,
              "name": "Marly-lez-Valenciennes",
              "security_id": 104264,
              "spot_prices": [
                340
              ]
            },
            {
              "id": 204641,
              "name": "Obl. Compagnie Francaise de Pienza",
              "security_id": 104276
            },
            {
              "id": 204578,
              "name": "Obl. Mondragon. j. jt. 75",
              "security_id": 104207,
              "spot_prices": [
                63
              ]
            },
            {
              "id": 204593,
              "name": "Obl. Var, interêt 18",
              "security_id": 104240
            },
            {
              "id": 204583,
              "name": "Obl. Charbonn. Rhin, j. oct",
              "security_id": 104217,
              "spot_prices": [
                87.5
              ]
            },
            {
              "id": 204594,
              "name": "Obl. Saone et Rhone, j.jt.75",
              "security_id": 104241,
              "spot_prices": [
                38.75,
                40
              ]
            },
            {
              "id": 204657,
              "name": "Bassin de Huy (Charbonnages)",
              "security_id": 104292,
              "spot_prices": [
                502.5
              ]
            }
          ]
        }
      ]
    },
    {
      "id": 674,
      "name": "Assurances",
      "notations": [
        {
          "id": 204402,
          "name": "Generale maritime (5,000 f. p.)",
          "security_id": 715,
          "previous_spot_date": "1877-01-01",
          "previous_spot_price": 12750
        },
        {
          "id": 204420,
          "name": "Soleil incendie",
          "security_id": 1604,
          "previous_spot_date": "1877-02-08",
          "previous_spot_price": 6000
        },
        {
          "id": 204421,
          "name": "L'Urbaine (Inc.), act. 5000f., 200f.p.",
          "security_id": 1605,
          "previous_spot_date": "1877-02-12",
          "previous_spot_price": 13000
        },
        {
          "id": 204423,
          "name": "Phenix sur la vie",
          "security_id": 1723,
          "previous_spot_date": "1876-11-01",
          "previous_spot_price": 12000
        },
        {
          "id": 204628,
          "name": "Confiance incendie",
          "security_id": 2788,
          "previous_spot_date": "1877-01-01",
          "previous_spot_price": 3600
        },
        {
          "id": 204408,
          "name": "Nationale Incendie",
          "security_id": 87,
          "previous_spot_date": "1877-01-01",
          "previous_spot_price": 22000
        },
        {
          "id": 204401,
          "name": "Union sur la vie",
          "security_id": 588,
          "previous_spot_date": "1876-12-01",
          "previous_spot_price": 3500
        },
        {
          "id": 204418,
          "name": "Assurances générale (Vie), t.p.",
          "security_id": 1587,
          "previous_spot_date": "1877-01-08",
          "previous_spot_price": 78100
        },
        {
          "id": 204616,
          "name": "Soleil sur la Vie",
          "security_id": 1798,
          "previous_spot_date": "1877-03-01",
          "previous_spot_price": 760
        },
        {
          "id": 204630,
          "name": "Atlas Vie, 126 fr. payes",
          "security_id": 3000
        },
        {
          "id": 204619,
          "name": "Paternelle incendie",
          "security_id": 553,
          "previous_spot_date": "1877-01-01",
          "previous_spot_price": 2000
        },
        {
          "id": 204419,
          "name": "La France (Incendie), 100f.p.",
          "security_id": 1593,
          "previous_spot_date": "1877-01-01",
          "previous_spot_price": 6240
        },
        {
          "id": 204612,
          "name": "Urbaine sur la Vie",
          "security_id": 1607,
          "previous_spot_date": "1877-02-12",
          "previous_spot_price": 882.5
        },
        {
          "id": 204424,
          "name": "La Providence (Incendie), 250 f.p.",
          "security_id": 1724,
          "previous_spot_date": "1877-02-01",
          "previous_spot_price": 8100
        },
        {
          "id": 204414,
          "name": "Union (Incendie), 100f.p.",
          "security_id": 1491,
          "previous_spot_date": "1876-11-17",
          "previous_spot_price": 9500
        },
        {
          "id": 204425,
          "name": "L'Aigle (inc.), a.500f., 100f.p. (nom.)(Cessionnaires soumis à l'agrément di Conseil d'Administration)",
          "security_id": 1735,
          "previous_spot_date": "1876-11-01",
          "previous_spot_price": 3850
        },
        {
          "id": 204434,
          "name": "Nationale (Vie)",
          "security_id": 2790,
          "previous_spot_date": "1877-01-04",
          "previous_spot_price": 12570
        },
        {
          "id": 204399,
          "name": "Phénix (Incendie), t.p.",
          "security_id": 85,
          "previous_spot_date": "1877-02-01",
          "previous_spot_price": 7750
        },
        {
          "id": 204435,
          "name": "Assurances générale (Incend.), t.p.",
          "security_id": 6848,
          "previous_spot_date": "1877-01-01",
          "previous_spot_price": 127000
        }
      ]
    }
  ],
  "date": "1877-03-15",
  "stock_exchange": {
    "id": 2,
    "name": "Paris OTC (Coulisse)"
  }
}