{
  "id": 9998,
  "name": "Paris OTC (Coulisse)",
  "children": [
    {
      "id": 661,
      "name": "Valeurs en banque (cote à terme)",
      "notations": [
        {
          "id": 204504,
          "name": "Obl. Ch. Ottomans, j. oct. 74",
          "security_id": 104175
        },
        {
          "id": 204479,
          "name": "Dette Turque, 5%, 1865-73-74 coup. De 125f",
          "security_id": 1465
        },
        {
          "id": 204603,
          "name": "5% Turc L. 30 Ramazan 1292",
          "security_id": 104265
        },
        {
          "id": 204604,
          "name": "Espagne Billets hypothecaires ext.",
          "security_id": 104266
        },
        {
          "id": 204493,
          "name": "Obl. Ottom. 1873 j. oct. 1874",
          "security_id": 2060
        },
        {
          "id": 204486,
          "name": "Péruvien, obl. 6%, t.p.",
          "security_id": 1853
        },
        {
          "id": 204476,
          "name": "3% Espagne Ext. 1867-72. i. jr 1873",
          "security_id": 991
        },
        {
          "id": 204485,
          "name": "Banq. Ottomane, act. Nouv. 500f., 150f.p.",
          "security_id": 1711
        },
        {
          "id": 204474,
          "name": "3% Esp. interieur j. jr 73",
          "security_id": 401
        },
        {
          "id": 204513,
          "name": "Tabacs d'Italie 350 fr. p",
          "security_id": 104190
        },
        {
          "id": 204478,
          "name": "Banque Crédit Italien j. janv. 74",
          "security_id": 1416
        }
      ]
    },
    {
      "id": 660,
      "name": "Valeurs en banque (au comptant)",
      "children": [
        {
          "id": 663,
          "name": "Fonds d'Etats et de Villes (Fonds d'Etats de Départements et des Villes)",
          "notations": [
            {
              "id": 204500,
              "name": "Obl d'Autriche, 1854. j. oct.",
              "security_id": 104171
            },
            {
              "id": 204512,
              "name": "Obl. Bari",
              "security_id": 104184
            },
            {
              "id": 204605,
              "name": "Obl. Haiti, 500 fr. 8%. j jr",
              "security_id": 104267
            },
            {
              "id": 204502,
              "name": "Obl. d'Autriche Loze 1858",
              "security_id": 104173
            },
            {
              "id": 204505,
              "name": "Obl. Naples, j. nov. 75",
              "security_id": 104177
            },
            {
              "id": 204495,
              "name": "Obl. Florence, j. oct. 75",
              "security_id": 2258
            },
            {
              "id": 204499,
              "name": "Obl. Russes, 1866. j.sept. 75",
              "security_id": 104170
            },
            {
              "id": 204498,
              "name": "Obl. Russes, 1864.j.juill. 75",
              "security_id": 104169
            },
            {
              "id": 204509,
              "name": "Obl. de Milan 1866",
              "security_id": 104181
            },
            {
              "id": 204480,
              "name": "Obl Ville Anvers 1867, j. mars 75",
              "security_id": 1549
            },
            {
              "id": 204482,
              "name": "Obl. Liege, 1868.j. avril 75",
              "security_id": 1555
            },
            {
              "id": 204488,
              "name": "6% Americain, 1867, j. juillet 75",
              "security_id": 1872
            },
            {
              "id": 204506,
              "name": "Obl. Madrid. j. janvier 71",
              "security_id": 104178
            },
            {
              "id": 204510,
              "name": "Obl. de Venise",
              "security_id": 104182
            },
            {
              "id": 204511,
              "name": "Obl. Barletta",
              "security_id": 104183
            },
            {
              "id": 204481,
              "name": "Obl. Bruxelles, 1867.j. jr 75",
              "security_id": 1554
            },
            {
              "id": 204489,
              "name": "5% Americain, j. nov. 75",
              "security_id": 1879
            },
            {
              "id": 204473,
              "name": "5% Autrich. conv.j. nill.75",
              "security_id": 2029
            },
            {
              "id": 204503,
              "name": "Obl. de Fribourg",
              "security_id": 104174
            },
            {
              "id": 204507,
              "name": "Obl. de Bucharest",
              "security_id": 104179
            },
            {
              "id": 204508,
              "name": "Obl. de Milan 1861",
              "security_id": 104180
            },
            {
              "id": 204532,
              "name": "6% Americain, remb. dec. 75",
              "security_id": 1540
            },
            {
              "id": 204497,
              "name": "Etats-Unis, 5-20, 1865, coup. De 3 dol",
              "security_id": 1868
            },
            {
              "id": 204501,
              "name": "Obl. d'Autriche 1864",
              "security_id": 104172
            }
          ]
        },
        {
          "id": 666,
          "name": "Obligations du Crédit Foncier",
          "notations": [
            {
              "id": 204515,
              "name": "Obl. Communales court t.1875, j.jt.75",
              "security_id": 104193
            },
            {
              "id": 204517,
              "name": "Obl. Communales court t. 1877, id",
              "security_id": 104195
            },
            {
              "id": 204518,
              "name": "Bons Agric 5%. j. oct 75",
              "security_id": 104196
            },
            {
              "id": 204514,
              "name": "Obl. Communales 5%.j.nov 75",
              "security_id": 104192
            },
            {
              "id": 204516,
              "name": "Obl. Communales court t. 1876, id",
              "security_id": 104194
            },
            {
              "id": 204496,
              "name": "Obl. Credit fonc. 5%.j.nov 75",
              "security_id": 3241
            }
          ]
        },
        {
          "id": 667,
          "name": "Valeurs diverses",
          "notations": [
            {
              "id": 204573,
              "name": "Omnibus de Londres",
              "security_id": 104201
            },
            {
              "id": 204577,
              "name": "Bons Marches Naples, fe. 74",
              "security_id": 104206
            },
            {
              "id": 204598,
              "name": "Crédit locatif de France",
              "security_id": 104260
            },
            {
              "id": 204567,
              "name": "A. Petitdidier et Ce. j.mars75",
              "security_id": 104185
            },
            {
              "id": 204585,
              "name": "Obl. Eaux de Nimes j oct. 71",
              "security_id": 104227
            },
            {
              "id": 204637,
              "name": "Credit Minier",
              "security_id": 104272
            },
            {
              "id": 204475,
              "name": "Mobilier francais ancien",
              "security_id": 770
            },
            {
              "id": 204568,
              "name": "Richer, j. juillet 73",
              "security_id": 104186
            },
            {
              "id": 204638,
              "name": "Utilisation industriel des déchets",
              "security_id": 104273
            },
            {
              "id": 204581,
              "name": "Obl. Terrains de Trouville",
              "security_id": 104214
            },
            {
              "id": 204586,
              "name": "Obl. Credit Communal 3%",
              "security_id": 104228
            },
            {
              "id": 204607,
              "name": "Obl. Vis à bois et à metaux",
              "security_id": 104269
            },
            {
              "id": 204636,
              "name": "Cie nationale (assur. Accidents)",
              "security_id": 104271
            },
            {
              "id": 204559,
              "name": "Obl. F. Suisse 3%, j. jr. 73",
              "security_id": 1586
            },
            {
              "id": 204629,
              "name": "Benedictine de Fecamp",
              "security_id": 2896
            },
            {
              "id": 204569,
              "name": "Compagnie de l'Alliance",
              "security_id": 104187
            },
            {
              "id": 204596,
              "name": "Ac. Raynaud. Bechade et Ce.",
              "security_id": 104258
            },
            {
              "id": 204562,
              "name": "Banque terr. d'Esp., j. av.73",
              "security_id": 2170
            },
            {
              "id": 204587,
              "name": "Raffinerie de Honfleur",
              "security_id": 104231
            },
            {
              "id": 204590,
              "name": "Obl. Caisse cautionn. 500 5%",
              "security_id": 104237
            },
            {
              "id": 204597,
              "name": "Part du Petit Journal",
              "security_id": 104259
            },
            {
              "id": 204639,
              "name": "Obl. Ports de Cadix",
              "security_id": 104274
            },
            {
              "id": 204477,
              "name": "Mobil. Italien 400 p. ex-c 8",
              "security_id": 1407
            },
            {
              "id": 204595,
              "name": "Banque des Charbonnages",
              "security_id": 104257
            },
            {
              "id": 204558,
              "name": "Obl. Tabacs d'Italie. j. juill",
              "security_id": 1545
            },
            {
              "id": 204588,
              "name": "Caisse Mires",
              "security_id": 104232
            }
          ]
        },
        {
          "id": 664,
          "name": "Chemins de fer et Canaux",
          "notations": [
            {
              "id": 204574,
              "name": "Ch. Seville-Xeres, j. jr. 65",
              "security_id": 104202
            },
            {
              "id": 204575,
              "name": "Obl. Lerida a Reuss.j. oct. 64",
              "security_id": 104204
            },
            {
              "id": 204548,
              "name": "Ch. Suisse occidentale",
              "security_id": 104917
            },
            {
              "id": 204579,
              "name": "Obl. Livourne-Fl., j. jt. 75",
              "security_id": 104210
            },
            {
              "id": 204589,
              "name": "Obl. Seville Xères echangées",
              "security_id": 104236
            },
            {
              "id": 204599,
              "name": "Ch. Seville act. échangées",
              "security_id": 104261
            },
            {
              "id": 204556,
              "name": "Obl.Guill.-Lux. 5%.j.nov75",
              "security_id": 1516
            },
            {
              "id": 204565,
              "name": "Oblig. Autrich., Kronprinz Rodolphe 5%.",
              "security_id": 2340
            },
            {
              "id": 204572,
              "name": "Obl. Sev.e Xeres nouv. j. mai 65",
              "security_id": 104200
            },
            {
              "id": 204553,
              "name": "Canalisation de I'Ebre",
              "security_id": 1436
            },
            {
              "id": 204555,
              "name": "Obl. Canal Cavour, j. jt. 75",
              "security_id": 1474
            },
            {
              "id": 204571,
              "name": "Obl. Seve Xeres (ance), j.jr.65",
              "security_id": 104199
            },
            {
              "id": 204549,
              "name": "Ch. de fer Russes, j. 13 jt. 75",
              "security_id": 1146
            },
            {
              "id": 204551,
              "name": "Obl.Guill.-Lux. 3%, id",
              "security_id": 1267
            },
            {
              "id": 204554,
              "name": "Obl. Savone a Turin, j. jt. 75",
              "security_id": 1472
            },
            {
              "id": 204563,
              "name": "Bons coupons Suez",
              "security_id": 2250
            },
            {
              "id": 204564,
              "name": "Obl. Meridionales, j. oct. 75",
              "security_id": 2289
            },
            {
              "id": 204557,
              "name": "Ch. Est-Hongrois, j. jr 73",
              "security_id": 1541
            },
            {
              "id": 204617,
              "name": "Obl. Maine-et-Loire",
              "security_id": 1813
            },
            {
              "id": 204584,
              "name": "Obl. N.-O. Espag., juin 66",
              "security_id": 104226
            },
            {
              "id": 204566,
              "name": "Part de Fondateur Suez",
              "security_id": 2588
            },
            {
              "id": 204640,
              "name": "Obl. Seville-Xéres (jaune) j. juin",
              "security_id": 104275
            }
          ]
        },
        {
          "id": 669,
          "name": "Mines",
          "notations": [
            {
              "id": 204570,
              "name": "Stolberg (p ivileg.), j.oct. 75",
              "security_id": 104197
            },
            {
              "id": 204560,
              "name": "Huelva (capital), j. oct. 75",
              "security_id": 1771
            },
            {
              "id": 204561,
              "name": "Huelva jouissance, j. oct. 75",
              "security_id": 1772
            },
            {
              "id": 204600,
              "name": "Silesie (anc.), j. nov. 75",
              "security_id": 104262
            },
            {
              "id": 204580,
              "name": "Obl. Union metallurgique",
              "security_id": 104213
            },
            {
              "id": 204591,
              "name": "Richaldon (Bons privil.)",
              "security_id": 104238
            },
            {
              "id": 204601,
              "name": "Silesie (privileg.), j. nov. 75",
              "security_id": 104263
            },
            {
              "id": 204547,
              "name": "Zinc V. Montagne, j. 10 nov.",
              "security_id": 325
            },
            {
              "id": 204550,
              "name": "Stolberg (anc.), j. jt. 75",
              "security_id": 1234
            }
          ]
        },
        {
          "id": 670,
          "name": "Charbonnages",
          "notations": [
            {
              "id": 204606,
              "name": "Obl. Sud-Est Bully-Fragny",
              "security_id": 104268
            },
            {
              "id": 204592,
              "name": "Houill. Var remb. à 100 f. (Int. 6 fr.)",
              "security_id": 104239
            },
            {
              "id": 204582,
              "name": "Obl. Charbonn. Nord, j.nov",
              "security_id": 104216
            },
            {
              "id": 204602,
              "name": "Marly-lez-Valenciennes",
              "security_id": 104264
            },
            {
              "id": 204641,
              "name": "Obl. Compagnie Francaise de Pienza",
              "security_id": 104276
            },
            {
              "id": 204578,
              "name": "Obl. Mondragon. j. jt. 75",
              "security_id": 104207
            },
            {
              "id": 204593,
              "name": "Obl. Var, interêt 18",
              "security_id": 104240
            },
            {
              "id": 204583,
              "name": "Obl. Charbonn. Rhin, j. oct",
              "security_id": 104217
            },
            {
              "id": 204594,
              "name": "Obl. Saone et Rhone, j.jt.75",
              "security_id": 104241
            }
          ]
        }
      ]
    },
    {
      "id": 674,
      "name": "Assurances",
      "notations": [
        {
          "id": 204402,
          "name": "Generale maritime (5,000 f. p.)",
          "security_id": 715
        },
        {
          "id": 204420,
          "name": "Soleil incendie",
          "security_id": 1604
        },
        {
          "id": 204421,
          "name": "L'Urbaine (Inc.), act. 5000f., 200f.p.",
          "security_id": 1605
        },
        {
          "id": 204423,
          "name": "Phenix sur la vie",
          "security_id": 1723
        },
        {
          "id": 204628,
          "name": "Confiance incendie",
          "security_id": 2788
        },
        {
          "id": 204408,
          "name": "Nationale Incendie",
          "security_id": 87
        },
        {
          "id": 204401,
          "name": "Union sur la vie",
          "security_id": 588
        },
        {
          "id": 204418,
          "name": "Assurances générale (Vie), t.p.",
          "security_id": 1587
        },
        {
          "id": 204616,
          "name": "Soleil sur la Vie",
          "security_id": 1798
        },
        {
          "id": 204619,
          "name": "Paternelle incendie",
          "security_id": 553
        },
        {
          "id": 204419,
          "name": "La France (Incendie), 100f.p.",
          "security_id": 1593
        },
        {
          "id": 204612,
          "name": "Urbaine sur la Vie",
          "security_id": 1607
        },
        {
          "id": 204424,
          "name": "La Providence (Incendie), 250 f.p.",
          "security_id": 1724
        },
        {
          "id": 204414,
          "name": "Union (Incendie), 100f.p.",
          "security_id": 1491
        },
        {
          "id": 204425,
          "name": "L'Aigle (inc.), a.500f., 100f.p. (nom.)(Cessionnaires soumis à l'agrément di Conseil d'Administration)",
          "security_id": 1735
        },
        {
          "id": 204434,
          "name": "Nationale (Vie)",
          "security_id": 2790
        },
        {
          "id": 204399,
          "name": "Phénix (Incendie), t.p.",
          "security_id": 85
        },
        {
          "id": 204435,
          "name": "Assurances générale (Incend.), t.p.",
          "security_id": 6848
        }
      ]
    }
  ],
  "date": "1876-10-16",
  "stock_exchange": {
    "id": 2,
    "name": "Paris OTC (Coulisse)"
  }
}