{
  "id": 9998,
  "name": "Paris OTC (Coulisse)",
  "children": [
    {
      "id": 661,
      "name": "Valeurs en banque (cote à terme)",
      "notations": [
        {
          "id": 205364,
          "name": "Espagne 4%, Extérieure (négoc., ch.fixe, 1f.)",
          "security_id": 2758
        },
        {
          "id": 204485,
          "name": "Banq. Ottomane, act. Nouv. 500f., 150f.p.",
          "security_id": 1711
        },
        {
          "id": 204504,
          "name": "Turcs (Ch. Ottom.), J. Oct. 75.",
          "security_id": 104175
        },
        {
          "id": 205334,
          "name": "Alpines, j. juin",
          "security_id": 104915
        }
      ]
    },
    {
      "id": 660,
      "name": "Valeurs en banque (au comptant)",
      "children": [
        {
          "id": 662,
          "name": "Valeurs à l'émission (Emissions nouvelles)",
          "notations": [
            {
              "id": 206093,
              "name": "Obl. Ville de Paris nouv",
              "security_id": 105355
            }
          ]
        },
        {
          "id": 663,
          "name": "Fonds d'Etats et de Villes (Fonds d'Etats de Départements et des Villes)",
          "notations": [
            {
              "id": 204500,
              "name": "Obl d'Autriche, 1854. j. oct.",
              "security_id": 104171
            },
            {
              "id": 204512,
              "name": "Obl. Bari",
              "security_id": 104184
            },
            {
              "id": 205594,
              "name": "Obl. Serbes 3%",
              "security_id": 105035
            },
            {
              "id": 205864,
              "name": "Lots Croix Rouge Autrichieune",
              "security_id": 105186
            },
            {
              "id": 204502,
              "name": "Obl. d'Autriche Loze 1858",
              "security_id": 104173
            },
            {
              "id": 204663,
              "name": "Ville Neufchatel",
              "security_id": 104298
            },
            {
              "id": 205849,
              "name": "Obl. Ville de Gand 1868, j. janv. 90",
              "security_id": 105171
            },
            {
              "id": 205851,
              "name": "Obl. Ville de Gand 1883, j. avril 90",
              "security_id": 105173
            },
            {
              "id": 205865,
              "name": "Lots Croix Rouge Hongroise",
              "security_id": 105187
            },
            {
              "id": 205880,
              "name": "Mexicaine (certif. petits bleus",
              "security_id": 105202
            },
            {
              "id": 204499,
              "name": "Obl. Russes, 1866. j.sept. 75",
              "security_id": 104170
            },
            {
              "id": 205609,
              "name": "Obl. de Fribourg 1878",
              "security_id": 105038
            },
            {
              "id": 205866,
              "name": "Lots Croix Rouge Italienne",
              "security_id": 105188
            },
            {
              "id": 204498,
              "name": "Obl. Russes, 1864.j.juill. 75",
              "security_id": 104169
            },
            {
              "id": 204509,
              "name": "Obl. de Milan 1866",
              "security_id": 104181
            },
            {
              "id": 205264,
              "name": "Rente Napolitaine 5%",
              "security_id": 104858
            },
            {
              "id": 205615,
              "name": "Ville Bruxelles, 1886, lib",
              "security_id": 105042
            },
            {
              "id": 205850,
              "name": "Obl. Ville de Gand 1880, j. 15 juil. 89",
              "security_id": 105172
            },
            {
              "id": 205883,
              "name": "Obl. Liege, 1879, j. nov 1890",
              "security_id": 105205
            },
            {
              "id": 204482,
              "name": "Obl. Liege, 1868.j. avril 75",
              "security_id": 1555
            },
            {
              "id": 205338,
              "name": "Département du Nord 3% 1870",
              "security_id": 40531
            },
            {
              "id": 205813,
              "name": "Turcs (Ch. Ottom.), J. Oct. 75.",
              "security_id": 104175
            },
            {
              "id": 204506,
              "name": "Obl. Madrid. j. janvier 71",
              "security_id": 104178
            },
            {
              "id": 204510,
              "name": "Obl. de Venise",
              "security_id": 104182
            },
            {
              "id": 204511,
              "name": "Obl. Barletta",
              "security_id": 104183
            },
            {
              "id": 205339,
              "name": "Obl. Haiti, Bons de coup. juil. 81",
              "security_id": 104916
            },
            {
              "id": 204503,
              "name": "Obl. de Fribourg",
              "security_id": 104174
            },
            {
              "id": 204508,
              "name": "Obl. de Milan 1861",
              "security_id": 104180
            },
            {
              "id": 205592,
              "name": "Obl. Liege, 1874, Juil. 84",
              "security_id": 105033
            },
            {
              "id": 205764,
              "name": "Obl. Ville Anvers, 1887",
              "security_id": 105112
            },
            {
              "id": 205863,
              "name": "Lots Croix Blanche Hollandaise",
              "security_id": 105185
            },
            {
              "id": 204501,
              "name": "Obl. d'Autriche 1864",
              "security_id": 104172
            },
            {
              "id": 205263,
              "name": "Rente Florentine 3%",
              "security_id": 104857
            },
            {
              "id": 205878,
              "name": "Lots Egyptiens 3%, j. mai 1890",
              "security_id": 105200
            },
            {
              "id": 205882,
              "name": "Obl. Liege, 1853, j. mai 1890",
              "security_id": 105204
            }
          ]
        },
        {
          "id": 664,
          "name": "Chemins de fer et Transports Divers (Chemins de Fer Transports Divers et Canaux)",
          "notations": [
            {
              "id": 205324,
              "name": "L'Urbaine (Cie Parisienne de Voitures) act. 600 fr., t. p. (nos 1 à 18000)",
              "security_id": 3047
            },
            {
              "id": 205891,
              "name": "Bateaux Parisiens (parts bénéficiaires)",
              "security_id": 40402
            },
            {
              "id": 205825,
              "name": "Obl. Russo Nicolas 4% j. aout89",
              "security_id": 105146
            },
            {
              "id": 206028,
              "name": "Obl. Nortfolk et Western, 5% j. jv. 92 (100dol.)",
              "security_id": 105296
            },
            {
              "id": 204579,
              "name": "Obl. Livourne-Fl., j. jt. 75",
              "security_id": 104210
            },
            {
              "id": 205824,
              "name": "Obl. Guyaquil 6%, j. juillet 89",
              "security_id": 105145
            },
            {
              "id": 205861,
              "name": "Koslow-Voronege, j. oct. 1890",
              "security_id": 105183
            },
            {
              "id": 205983,
              "name": "Obl. Russo Nicolas 4% 1890, j. janv.91",
              "security_id": 105257
            },
            {
              "id": 205328,
              "name": "Obl. Romains, 3% juill. 82",
              "security_id": 1122
            },
            {
              "id": 204549,
              "name": "Russes (Grande Société des chemins de fer), act.500fr., t.p.",
              "security_id": 1146
            },
            {
              "id": 205633,
              "name": "Lombards Sud-Autriche, actions de jouissance",
              "security_id": 6657
            },
            {
              "id": 205595,
              "name": "Obl. Xeres (rose), juillet. 85",
              "security_id": 104200
            },
            {
              "id": 205982,
              "name": "Obl. Porto-Rico, (Ste Humacao), j. oct.90",
              "security_id": 105256
            },
            {
              "id": 205612,
              "name": "Ch. de fer Russes, act. de jouissance",
              "security_id": 3413
            },
            {
              "id": 204666,
              "name": "Transports parisiens",
              "security_id": 104301
            },
            {
              "id": 205747,
              "name": "Obl. Bahia e Minas libérées",
              "security_id": 105095
            },
            {
              "id": 204551,
              "name": "Obl.Guill.-Lux. 3%, id",
              "security_id": 1267
            },
            {
              "id": 204554,
              "name": "Obl. Savone a Turin, j. jt. 75",
              "security_id": 1472
            },
            {
              "id": 206008,
              "name": "Jaffa à Jérusalem et prolongements, oblig. 5%",
              "security_id": 40182
            },
            {
              "id": 204589,
              "name": "Obl. Séville-Xérès (grise)",
              "security_id": 104236
            },
            {
              "id": 204664,
              "name": "Arles à St-Louis, juin 78",
              "security_id": 104299
            },
            {
              "id": 206062,
              "name": "Tramways du Jura, c. 1 att.",
              "security_id": 105326
            },
            {
              "id": 205678,
              "name": "Obl. Zafra a Huelva, j. janv. 87",
              "security_id": 105065
            },
            {
              "id": 206032,
              "name": "Porto-Rico, ex-c. 3, j. oct. 1890",
              "security_id": 105300
            },
            {
              "id": 206102,
              "name": "Tramw. a vap. Paris-St-Germain, j. av. 94",
              "security_id": 105364
            },
            {
              "id": 204564,
              "name": "Méridionaux français (en liquidation), obligations",
              "security_id": 2289
            },
            {
              "id": 205918,
              "name": "Transports a vap. Francais, ex-c. 3",
              "security_id": 2994
            },
            {
              "id": 205895,
              "name": "Chargeurs Réunis (parts de fondateurs)",
              "security_id": 4972
            },
            {
              "id": 204640,
              "name": "Obl. Seville-Xéres (jaune) j. juin",
              "security_id": 104275
            },
            {
              "id": 205674,
              "name": "Obl. Arles a St-Louis, j. avril",
              "security_id": 105061
            }
          ]
        },
        {
          "id": 665,
          "name": "Journaux et Librairies (Journaux, Librairies et Imprimeries)",
          "notations": [
            {
              "id": 205639,
              "name": "Le Temps, actions de jouissance",
              "security_id": 6898
            },
            {
              "id": 205654,
              "name": "Obl. Petit Journal (Le)",
              "security_id": 40465
            },
            {
              "id": 205634,
              "name": "La Lanterne, act.",
              "security_id": 40186
            },
            {
              "id": 205636,
              "name": "Le Petit Marseillais 25 aout 79",
              "security_id": 104354
            },
            {
              "id": 205621,
              "name": "Bonnard Bidault ex-c. 5",
              "security_id": 104892
            },
            {
              "id": 205842,
              "name": "France (La), ex-c. 3",
              "security_id": 105164
            },
            {
              "id": 206190,
              "name": "Cote de la Bourse et de la Banque (parts), ex-c. 4",
              "security_id": 105369
            },
            {
              "id": 205979,
              "name": "Librairie Classique Lecene, Oudin et Cie",
              "security_id": 105253
            },
            {
              "id": 205616,
              "name": "Gil Blas, 20 sept. 84 ex-c. 8",
              "security_id": 40188
            },
            {
              "id": 205672,
              "name": "Act. Messager (act. De jouiss.), ex-c. 2",
              "security_id": 105059
            },
            {
              "id": 205701,
              "name": "Le temps, act. 500 fr., t. p.",
              "security_id": 6897
            },
            {
              "id": 205641,
              "name": "Messager Paris juin 84 ex-8",
              "security_id": 104283
            },
            {
              "id": 205742,
              "name": "Le Petit Meridional, ex-c. 23",
              "security_id": 105090
            },
            {
              "id": 205675,
              "name": "Obl. La Lanterne, J. nov, 86",
              "security_id": 105062
            },
            {
              "id": 205728,
              "name": "Act. Bonhomme Normand (Le).",
              "security_id": 105076
            }
          ]
        },
        {
          "id": 669,
          "name": "Mines (Mines, Houillères, Forges et Charbonnages)",
          "notations": [
            {
              "id": 205607,
              "name": "Lexington (Mines de) (actions)",
              "security_id": 40284
            },
            {
              "id": 157876,
              "name": "Urikany (charbonnage)",
              "security_id": 51953
            },
            {
              "id": 205608,
              "name": "Alpines, j. juin",
              "security_id": 104915
            },
            {
              "id": 205995,
              "name": "Usines de Briansk",
              "security_id": 105269
            },
            {
              "id": 206022,
              "name": "Huanchaca j. septembre 1892 ex-c.2",
              "security_id": 105290
            },
            {
              "id": 206085,
              "name": "Huta-Bankowa, ex-c. 20, j. juin 1894",
              "security_id": 105347
            },
            {
              "id": 206290,
              "name": "Randfontein Estates Gold Mining Cy (pet. Coup.)",
              "security_id": 105457
            },
            {
              "id": 205727,
              "name": " El Callao (8000), J. 5 dec. 1887",
              "security_id": 105075
            },
            {
              "id": 205737,
              "name": "De Beers (Diamants)",
              "security_id": 105085
            },
            {
              "id": 206087,
              "name": "Marguerite (Mine d'or de la)",
              "security_id": 105349
            },
            {
              "id": 206088,
              "name": "Monte-Rosa Gold min. Cy (act. 125 f. portr)",
              "security_id": 105350
            },
            {
              "id": 205892,
              "name": "Boleo",
              "security_id": 4250
            },
            {
              "id": 205702,
              "name": "Obl. Met. Ariege. J. aout 1887",
              "security_id": 40492
            },
            {
              "id": 156760,
              "name": "Cape Copper, ex-c.8, j. juillet 1890",
              "security_id": 50837
            },
            {
              "id": 205312,
              "name": "Tharsis, mai 1884",
              "security_id": 104902
            },
            {
              "id": 205846,
              "name": "Placer Haute-Italie (Parts nom.)",
              "security_id": 105168
            },
            {
              "id": 205848,
              "name": "Transvalia (au porteur)",
              "security_id": 105170
            },
            {
              "id": 205869,
              "name": "Ariege (Soc. Metail.) ex-c. 8",
              "security_id": 105191
            },
            {
              "id": 206078,
              "name": "De Lamar Mining Company limited",
              "security_id": 105340
            },
            {
              "id": 206094,
              "name": "Paccha et Jazpampa Nitrate Cy",
              "security_id": 105356
            },
            {
              "id": 206196,
              "name": "Big. Blow Gold mining Cy (au porteur)",
              "security_id": 105375
            },
            {
              "id": 206214,
              "name": "Julia-taltal Nitrate Cy. Limited (The)",
              "security_id": 105391
            },
            {
              "id": 206013,
              "name": "Souffres Romains (parts Soc. Civile)",
              "security_id": 40211
            },
            {
              "id": 205371,
              "name": "Obl. Rio-Tinto 5% j. oct.",
              "security_id": 104927
            },
            {
              "id": 205814,
              "name": "Galicia (mines d'etain)",
              "security_id": 105135
            },
            {
              "id": 206018,
              "name": "Galicia (mines d'etain) (privil)",
              "security_id": 105286
            },
            {
              "id": 206033,
              "name": "Progreso, 25 fr. t. p",
              "security_id": 105301
            },
            {
              "id": 206333,
              "name": "Est-Oregon",
              "security_id": 105490
            },
            {
              "id": 157761,
              "name": "Robinson Gold Mining (unites)",
              "security_id": 51838
            },
            {
              "id": 205652,
              "name": "Part Saint-Elie, ex-c.",
              "security_id": 104885
            },
            {
              "id": 205681,
              "name": "Placer Enfin act. Nouv",
              "security_id": 105068
            },
            {
              "id": 205741,
              "name": "Kinta (part benefic)",
              "security_id": 105089
            },
            {
              "id": 206023,
              "name": "Montecatini j. nov. 1892",
              "security_id": 105291
            },
            {
              "id": 206097,
              "name": "Randfontein Estates Gold mining Cy",
              "security_id": 105359
            },
            {
              "id": 206104,
              "name": "Tweefontein Gold Mining Cy",
              "security_id": 105366
            },
            {
              "id": 206244,
              "name": "Watana (mines d'or de) parts de fondat",
              "security_id": 105421
            },
            {
              "id": 204547,
              "name": "Zinc V. Montagne, j. 10 nov.",
              "security_id": 325
            },
            {
              "id": 204767,
              "name": "Pontgibaud (Mines et Fonderies de), n°s 1 à 12600 et 13001 à 13500",
              "security_id": 6182
            },
            {
              "id": 157067,
              "name": "Compagnie de Mossamedes, au port",
              "security_id": 51144
            },
            {
              "id": 204889,
              "name": "Obl. Soc. Met.Perigord oct 84",
              "security_id": 104490
            },
            {
              "id": 205955,
              "name": "Champ d'Or",
              "security_id": 105229
            },
            {
              "id": 160227,
              "name": "Robinson Gold Mining (port 6 oct 93\r)",
              "security_id": 54304
            },
            {
              "id": 205269,
              "name": "Uruguay (Mines d'or de L')",
              "security_id": 104862
            },
            {
              "id": 205586,
              "name": "Mines Lexington, parts de fondateurs",
              "security_id": 105030
            },
            {
              "id": 205682,
              "name": "Trifail, j. juillet 1886",
              "security_id": 105069
            },
            {
              "id": 205834,
              "name": "Sud Africaine (au porteur)",
              "security_id": 105155
            },
            {
              "id": 205877,
              "name": "Kinta (mines d'etain) ex-c. 1",
              "security_id": 105199
            },
            {
              "id": 206079,
              "name": "Donetz (Forges et acieries du)",
              "security_id": 105341
            },
            {
              "id": 206080,
              "name": "Donetz (Forges et acieries du) (nouv.) nomin",
              "security_id": 105342
            },
            {
              "id": 206100,
              "name": "Scalaccia (Mines d'or de)",
              "security_id": 105362
            },
            {
              "id": 206232,
              "name": "Rip Gold mining Cy (limited)",
              "security_id": 105409
            },
            {
              "id": 205352,
              "name": "Lexington (Mines de) (parts)",
              "security_id": 40285
            },
            {
              "id": 157528,
              "name": "Langlaagte Estate Gold Mining Cy",
              "security_id": 51605
            },
            {
              "id": 160125,
              "name": "Exploitat. Placers Piemont (Parts)",
              "security_id": 54202
            },
            {
              "id": 205270,
              "name": "Uruguay act. de jouiss",
              "security_id": 104863
            },
            {
              "id": 205602,
              "name": "Placer Enfin ex-coup. 7",
              "security_id": 105036
            },
            {
              "id": 206077,
              "name": "Consolidated Goldfield (porteur)",
              "security_id": 105339
            },
            {
              "id": 206103,
              "name": "Transvaal Coal Trust (charbon.)",
              "security_id": 105365
            }
          ]
        },
        {
          "id": 667,
          "name": "Valeurs diverses",
          "children": [
            {
              "id": 672,
              "name": "Actions (Valeurs diverses)",
              "notations": [
                {
                  "id": 204752,
                  "name": "Eaux de Vals",
                  "security_id": 4904
                },
                {
                  "id": 205899,
                  "name": "Eaux de la Bourboule",
                  "security_id": 6776
                },
                {
                  "id": 206009,
                  "name": "Moulins de Corbeil (parts)",
                  "security_id": 6882
                },
                {
                  "id": 205894,
                  "name": "Châlets de Nécessité jouissance",
                  "security_id": 22141
                },
                {
                  "id": 205698,
                  "name": "Eaux de Bussang",
                  "security_id": 40163
                },
                {
                  "id": 206064,
                  "name": "Dynamite du Transvaal, act. de 25 fr.",
                  "security_id": 50757
                },
                {
                  "id": 205817,
                  "name": "Cafes-Restaurants (Cie Cie des)",
                  "security_id": 105138
                },
                {
                  "id": 206057,
                  "name": "Soc des Entrepreneurs, j. avril 1893",
                  "security_id": 105321
                },
                {
                  "id": 206075,
                  "name": "Compagnie Domaniale de France (parts)",
                  "security_id": 105337
                },
                {
                  "id": 157637,
                  "name": "Palais de Glace",
                  "security_id": 51714
                },
                {
                  "id": 205720,
                  "name": "Platrières de Paris, ex.-c 3",
                  "security_id": 104875
                },
                {
                  "id": 206076,
                  "name": "Compagnie generale des Cycles",
                  "security_id": 105338
                },
                {
                  "id": 206099,
                  "name": "Salines de Diego-Suarez, 500 f. t. p",
                  "security_id": 105361
                },
                {
                  "id": 205927,
                  "name": "Châlets de Commodité (Comp. nouvelle des)",
                  "security_id": 6869
                },
                {
                  "id": 205623,
                  "name": "Chalets de Nécessité, act. de 300 fr. t. p.",
                  "security_id": 6870
                },
                {
                  "id": 206041,
                  "name": "Jumelles de Theatre, ex-c. 5",
                  "security_id": 40464
                },
                {
                  "id": 205925,
                  "name": "Auxiliaire ch. de fer, ex-c.2",
                  "security_id": 104441
                },
                {
                  "id": 205964,
                  "name": "Eaux et Services Municipaux, t. p.",
                  "security_id": 105238
                },
                {
                  "id": 206070,
                  "name": "Canal des Deux-Mers (1/10 pt fond.)",
                  "security_id": 105332
                },
                {
                  "id": 206074,
                  "name": "Compagnie Domaniale de France",
                  "security_id": 105336
                },
                {
                  "id": 205354,
                  "name": "Banque Parisienne, 20e de parts de fondateurs",
                  "security_id": 40276
                },
                {
                  "id": 205797,
                  "name": "Cliff(Usines)j. 31 mars88, ex-c. 3",
                  "security_id": 104884
                },
                {
                  "id": 205303,
                  "name": "Dynamite Fusion ex-c. 8",
                  "security_id": 104894
                },
                {
                  "id": 205966,
                  "name": "Explosifs Fortis",
                  "security_id": 105240
                },
                {
                  "id": 205969,
                  "name": "Gaz Franco-Belge, ex-c. 16",
                  "security_id": 105243
                },
                {
                  "id": 206056,
                  "name": "Palais de glace (part de fond.)",
                  "security_id": 105320
                },
                {
                  "id": 206086,
                  "name": "Machines a coudre (Cie francaise des)",
                  "security_id": 105348
                },
                {
                  "id": 206337,
                  "name": "Petroles Societe francaise des)",
                  "security_id": 105493
                },
                {
                  "id": 204852,
                  "name": "Le Printemps, Jules Jaluzot et Cie, act.500f., 250f.payés (n°s 18085 à 80000) (nominatives)",
                  "security_id": 3054
                },
                {
                  "id": 205934,
                  "name": "Musée Grévin, Parts bénéficiaires",
                  "security_id": 6892
                },
                {
                  "id": 205928,
                  "name": "Comptoir national d'Escompte de Paris (parts)",
                  "security_id": 7227
                },
                {
                  "id": 204751,
                  "name": "Gaz de Maubeuge, juillet 78",
                  "security_id": 104284
                },
                {
                  "id": 204838,
                  "name": "Eaux de Pougues ex-c",
                  "security_id": 104444
                },
                {
                  "id": 205739,
                  "name": "Eaux de Calais (jouissance) ex-c. 8",
                  "security_id": 105087
                },
                {
                  "id": 205852,
                  "name": "Texand Land",
                  "security_id": 105174
                },
                {
                  "id": 206065,
                  "name": "Argus (porteur) ex-c. 1, j. janvier 94",
                  "security_id": 105327
                },
                {
                  "id": 206069,
                  "name": "Cafe-Riche-Brasserie, 500 f. t.p.",
                  "security_id": 105331
                },
                {
                  "id": 206012,
                  "name": "Grand-Hotel, 250 p. ex-c. 18",
                  "security_id": 4891
                },
                {
                  "id": 204692,
                  "name": "Eaux de Calais",
                  "security_id": 104324
                },
                {
                  "id": 205304,
                  "name": "Dynamite Espagn. ex-c. 18",
                  "security_id": 104895
                },
                {
                  "id": 205772,
                  "name": "Eaux de Royat, ex-c. 11",
                  "security_id": 105120
                },
                {
                  "id": 205847,
                  "name": "Pont-sur-la-Manche (parts)",
                  "security_id": 105169
                },
                {
                  "id": 206053,
                  "name": "Forage (Le)",
                  "security_id": 105317
                },
                {
                  "id": 206068,
                  "name": "Cafe-Riche-Brasserie, 500 (parts)",
                  "security_id": 105330
                },
                {
                  "id": 206081,
                  "name": "Duval Restaurants for London",
                  "security_id": 105343
                },
                {
                  "id": 205917,
                  "name": "Tabacs de l'Empire Ottoman (Société de la Régie co-intéressée des), act. 200 fr., t. p.",
                  "security_id": 3935
                },
                {
                  "id": 205587,
                  "name": "Musée Grévin, act. 500 fr., t. p. ",
                  "security_id": 6891
                },
                {
                  "id": 205305,
                  "name": "Dynamite Francaise",
                  "security_id": 104896
                },
                {
                  "id": 205996,
                  "name": "Vidanges et Engrais (Cie Nou.) ex-c. 2",
                  "security_id": 105270
                },
                {
                  "id": 206083,
                  "name": "Franco-Neerlandaise des Indes occident",
                  "security_id": 105345
                },
                {
                  "id": 205871,
                  "name": "Cercle de Monaco j mai 1890",
                  "security_id": 105193
                },
                {
                  "id": 206017,
                  "name": "Canal de Toulouse",
                  "security_id": 105285
                },
                {
                  "id": 206066,
                  "name": "Assur.agric.(Sco.gen.des)act.n.port.ex-c.4",
                  "security_id": 105328
                },
                {
                  "id": 206073,
                  "name": "Cercle prive international de Spa",
                  "security_id": 105335
                },
                {
                  "id": 206095,
                  "name": "Petroles d'Iwonicz",
                  "security_id": 105357
                }
              ]
            },
            {
              "id": 673,
              "name": "Obligations (Valeurs diverses)",
              "notations": [
                {
                  "id": 206039,
                  "name": "Bons de I'Exposition (talon)",
                  "security_id": 6879
                },
                {
                  "id": 205660,
                  "name": "Cred. Fonc. Mutuel Russie 4 1/2",
                  "security_id": 105047
                },
                {
                  "id": 205771,
                  "name": "Eaux de Royat (Obligation)",
                  "security_id": 105119
                },
                {
                  "id": 206054,
                  "name": "Grands Etablissem. de Seine-et-Oise",
                  "security_id": 105318
                },
                {
                  "id": 206011,
                  "name": "Eaux de Bayonne, 4%, jouis, oct. 1892",
                  "security_id": 40161
                },
                {
                  "id": 206040,
                  "name": "Grands Moulins St-Pierre (St-Denis) 5% j. nov. 91",
                  "security_id": 40179
                },
                {
                  "id": 205926,
                  "name": "Obl. Ce Aux. ch. de fer, nov. 82",
                  "security_id": 104504
                },
                {
                  "id": 205585,
                  "name": "Matériel Agricole et Industriel 5%, remb. à 300 fr.",
                  "security_id": 3281
                },
                {
                  "id": 206046,
                  "name": "Banque de Santa-Fe 5% j, avril 93",
                  "security_id": 105310
                },
                {
                  "id": 206312,
                  "name": "Bons de I'Exposition (talons)",
                  "security_id": 105474
                },
                {
                  "id": 205699,
                  "name": "Eaux de Bourboule, obligations",
                  "security_id": 6777
                },
                {
                  "id": 204755,
                  "name": "Eaux de Nimes",
                  "security_id": 104227
                },
                {
                  "id": 204725,
                  "name": "Eaux de Bussang juillet 79",
                  "security_id": 104357
                },
                {
                  "id": 206084,
                  "name": "Galerie Champs-Elysees 5% j. fev 94",
                  "security_id": 105346
                },
                {
                  "id": 205873,
                  "name": "Cie Nat. d'Electr. (Ferranti) j. oct. 90",
                  "security_id": 105195
                },
                {
                  "id": 205963,
                  "name": "Eaux et Services Municipaux",
                  "security_id": 105237
                },
                {
                  "id": 205970,
                  "name": "Gaz Franco-Belge, j. dec. 1891",
                  "security_id": 105244
                },
                {
                  "id": 206047,
                  "name": "Banque de Santa-Fe 6% j, avril 93",
                  "security_id": 105311
                },
                {
                  "id": 206051,
                  "name": "Chalets de Commod. (Cie nouv.) 70 f.p.",
                  "security_id": 105315
                },
                {
                  "id": 206067,
                  "name": "Bois de Slavonie 5% j. janvier 94",
                  "security_id": 105329
                },
                {
                  "id": 204880,
                  "name": "Gdes Tuil. du Berry",
                  "security_id": 40224
                },
                {
                  "id": 205820,
                  "name": "Gaz de Lisbonne 5%. J. sep.",
                  "security_id": 105141
                },
                {
                  "id": 206052,
                  "name": "Ecl. Et Voies fer. (soc. Serbe franc. J. jv 93",
                  "security_id": 105316
                },
                {
                  "id": 206324,
                  "name": "Galerie Champs-Elysees 5% j. fev 94",
                  "security_id": 105346
                },
                {
                  "id": 206101,
                  "name": "Soc. Gen. int, d'ecl. Pr le gaz et l'elect",
                  "security_id": 105363
                },
                {
                  "id": 205624,
                  "name": "Cie Fonc. Russe, 4e serie, j. jv. 87",
                  "security_id": 1719
                },
                {
                  "id": 204701,
                  "name": "Eaux de Brest",
                  "security_id": 104333
                },
                {
                  "id": 205657,
                  "name": "Be Hyp. Nat. de Grece, j. janv. 87",
                  "security_id": 105044
                },
                {
                  "id": 206019,
                  "name": "Gaz Constantinople-Scutari j. jll t 92",
                  "security_id": 105287
                }
              ]
            }
          ]
        }
      ]
    }
  ],
  "date": "1895-04-01",
  "stock_exchange": {
    "id": 2,
    "name": "Paris OTC (Coulisse)"
  }
}