{
  "id": 2979,
  "names": [
    "CAFÉ-RESTAURANT AMÉRICAIN",
    "Société du Café-Restaurant Américain"
  ],
  "name": "CAFÉ-RESTAURANT AMÉRICAIN",
  "balance_sheets": [
    {
      "start_date": "1910-12-31",
      "source": "Annuaire Desfossés 1912",
      "page": "936"
    },
    {
      "start_date": "1912-12-31",
      "source": "Annuaire Desfossés 1914",
      "page": "1051"
    },
    {
      "start_date": "1913-12-31",
      "source": "Annuaire Desfossés 1917",
      "page": "957"
    }
  ],
  "balance_sheets_stats": {
    "start_date": "1910-12-31",
    "end_date": "1913-12-31"
  },
  "locations_stats": {
    "start_date": "1912-01-01",
    "end_date": "1928-12-31"
  },
  "locations": {
    "Siège social": [
      {
        "location_types_id": 1,
        "location_type": "Siège social",
        "address": "Boulevard des capucines, 4",
        "city": "Paris",
        "district": "Paris",
        "country": "France",
        "in_yearbook_from": 1912,
        "in_yearbook_to": 1928
      }
    ]
  },
  "persons": [
    {
      "persons_count": 3,
      "yearbook": "Annuaire Desfossés 1917",
      "source": "annuaire_df_1917",
      "page": "957"
    },
    {
      "persons_count": 5,
      "yearbook": "Annuaire Desfossés 1927",
      "source": "annuaire_df_1927",
      "page": "1196"
    }
  ],
  "persons_stats": {
    "persons_count": 8,
    "start_date": "1912-01-01",
    "end_date": "1927-12-31"
  },
  "yearbooks_ocrs": [
    {
      "source": "annuaire_df_1912",
      "yearbook": "Annuaire Desfossés 1912",
      "page": "936"
    },
    {
      "source": "annuaire_df_1914",
      "yearbook": "Annuaire Desfossés 1914",
      "page": "1051"
    },
    {
      "source": "annuaire_df_1917",
      "yearbook": "Annuaire Desfossés 1917",
      "page": "957"
    },
    {
      "source": "annuaire_df_1920",
      "yearbook": "Annuaire Desfossés 1920",
      "page": "1040"
    },
    {
      "source": "annuaire_df_1923",
      "yearbook": "Annuaire Desfossés 1923",
      "page": "1162"
    },
    {
      "source": "annuaire_df_1925",
      "yearbook": "Annuaire Desfossés 1925",
      "page": "1406"
    },
    {
      "source": "annuaire_df_1927",
      "yearbook": "Annuaire Desfossés 1927",
      "page": "1196"
    },
    {
      "source": "annuaire_df_1929",
      "yearbook": "Annuaire Desfossés 1929",
      "page": "1287"
    }
  ],
  "juridical_status": [
    {
      "juridical_status": "Société Anonyme (Libre)",
      "start_date": "1881-12-30",
      "end_date": "1921-12-31",
      "comments": "Société anonyme française, constituée le 30 décembre 1881 pour une durée expirant le 31 décembre 1921.",
      "source": "annuaire_df_1912"
    },
    {
      "juridical_status": "Société Anonyme (Libre)",
      "start_date": "1922-01-01",
      "end_date": "1951-12-31",
      "comments": "Société anonyme française, constituée le 30 décembre 1881 pour une durée expirant le 31 décembre 1951.",
      "source": "annuaire_df_1927"
    }
  ],
  "equity_capital": [
    {
      "amount": "1.500.000",
      "currency": "Franc",
      "infodate": "1881-12-30",
      "source": "annuaire_df_1912",
      "comments": "1.500.000 francs, divisé en 6.000 actions de 250 francs, sur lesquelles 5.600'furent remises aux apporteurs."
    }
  ],
  "profit_dividends": [
    {
      "first_date": "1909-12-31",
      "last_date": "1926-12-31",
      "obs_count": 41
    }
  ],
  "public_status": false
}