{
  "id": 2103,
  "names": [
    "LA FRANCE (Compagnie d'assurances sur la vie)",
    "LA FRANCE COMPAGNIE ANONYME D'ASSURANCES SUR LA VIE",
    "LA FRANCE COMPAGNIE D'ASSURANCES SUR LA VIE",
    "LA FRANCE Compagnie d'assurances sur la vie",
    "LA FRANGE COMPAGNIE ANONYME D'ASSURANCES SUR LA VIE",
    "La France (Compagnie d'assurances sur la vie)",
    "La France, Compagnie anonyme d'assurances sur la vie"
  ],
  "name": "LA FRANCE Compagnie d'assurances sur la vie",
  "balance_sheets": [
    {
      "start_date": "1910-12-31",
      "source": "Annuaire Desfossés 1912",
      "page": "152"
    },
    {
      "start_date": "1912-12-31",
      "source": "Annuaire Desfossés 1914",
      "page": "168"
    },
    {
      "start_date": "1915-12-31",
      "source": "Annuaire Desfossés 1917",
      "page": "133"
    },
    {
      "start_date": "1919-12-31",
      "source": "Annuaire Desfossés 1920",
      "page": "139"
    },
    {
      "start_date": "1921-12-31",
      "source": "Annuaire Desfossés 1923",
      "page": "156"
    },
    {
      "start_date": "1923-12-31",
      "source": "Annuaire Desfossés 1925",
      "page": "168"
    },
    {
      "start_date": "1925-12-31",
      "source": "Annuaire Desfossés 1927",
      "page": "131"
    },
    {
      "start_date": "1927-12-31",
      "source": "Annuaire Desfossés 1929",
      "page": "132"
    },
    {
      "start_date": "1929-12-31",
      "source": "Annuaire Desfossés 1931",
      "page": "131"
    },
    {
      "start_date": "1931-12-31",
      "source": "Annuaire Desfossés 1933",
      "page": "141"
    },
    {
      "start_date": "1932-12-31",
      "source": "Annuaire Desfossés 1936",
      "page": null
    },
    {
      "start_date": "1933-12-31",
      "source": "Annuaire Desfossés 1937",
      "page": "169"
    },
    {
      "start_date": "1934-12-31",
      "source": "Annuaire Desfossés 1937",
      "page": "169"
    },
    {
      "start_date": "1935-12-31",
      "source": "Annuaire Desfossés 1940",
      "page": null
    },
    {
      "start_date": "1936-12-31",
      "source": "Annuaire Desfossés 1940",
      "page": null
    },
    {
      "start_date": "1937-12-31",
      "source": "Annuaire Desfossés 1940",
      "page": null
    },
    {
      "start_date": "1938-12-31",
      "source": "Annuaire Desfossés 1945",
      "page": "196"
    },
    {
      "start_date": "1941-12-31",
      "source": "Annuaire Desfossés 1945",
      "page": "196"
    },
    {
      "start_date": "1942-12-31",
      "source": "Annuaire Desfossés 1945",
      "page": "196"
    },
    {
      "start_date": "1943-12-31",
      "source": "Annuaire Desfossés 1948",
      "page": "207"
    },
    {
      "start_date": "1944-12-31",
      "source": "Annuaire Desfossés 1948",
      "page": "207"
    },
    {
      "start_date": "1945-12-31",
      "source": "Annuaire Desfossés 1948",
      "page": "207"
    },
    {
      "start_date": "1946-12-31",
      "source": "Annuaire Desfossés 1948",
      "page": "207"
    },
    {
      "start_date": "1947-12-31",
      "source": "Annuaire Desfossés 1953",
      "page": "38"
    },
    {
      "start_date": "1948-12-31",
      "source": "Annuaire Desfossés 1953",
      "page": "38"
    },
    {
      "start_date": "1949-12-31",
      "source": "Annuaire Desfossés 1953",
      "page": "38"
    },
    {
      "start_date": "1950-12-31",
      "source": "Annuaire Desfossés 1953",
      "page": "38"
    },
    {
      "start_date": "1951-12-31",
      "source": "Annuaire Desfossés 1953",
      "page": "38"
    }
  ],
  "balance_sheets_stats": {
    "start_date": "1910-12-31",
    "end_date": "1951-12-31"
  },
  "locations_stats": {
    "start_date": "1884-01-01",
    "end_date": "1953-12-31"
  },
  "locations": {
    "Siège social": [
      {
        "location_types_id": 1,
        "location_type": "Siège social",
        "address": "Rue de grammont, 14",
        "city": "Paris",
        "district": "Paris",
        "country": "France",
        "in_yearbook_from": 1884,
        "in_yearbook_to": 1927
      },
      {
        "location_types_id": 1,
        "location_type": "Siège social",
        "address": "Rue de châteaudun, 52-54",
        "city": "Paris",
        "district": "Paris",
        "country": "France",
        "in_yearbook_from": 1933,
        "in_yearbook_to": 1945
      },
      {
        "location_types_id": 1,
        "location_type": "Siège social",
        "address": "Boulevard haussmann, 7 et 9",
        "city": "Paris",
        "district": "Paris",
        "country": "France",
        "in_yearbook_from": 1948,
        "in_yearbook_to": 1953
      }
    ]
  },
  "persons": [
    {
      "persons_count": 5,
      "yearbook": "Annuaire de la Compagnie des Agents de Change 1883",
      "source": "annuaire_cac_1883",
      "page": "266"
    },
    {
      "persons_count": 7,
      "yearbook": "Annuaire de la Compagnie des Agents de Change 1888",
      "source": "annuaire_cac_1888",
      "page": "291"
    },
    {
      "persons_count": 2,
      "yearbook": "Annuaire de la Compagnie des Agents de Change 1893",
      "source": "annuaire_cac_1893",
      "page": "328"
    },
    {
      "persons_count": 6,
      "yearbook": "Annuaire de la Compagnie des Agents de Change 1898",
      "source": "annuaire_cac_1898",
      "page": "418"
    },
    {
      "persons_count": 12,
      "yearbook": "Annuaire de la Compagnie des Agents de Change 1903",
      "source": "annuaire_cac_1903",
      "page": "429"
    },
    {
      "persons_count": 10,
      "yearbook": "Annuaire de la Compagnie des Agents de Change 1908",
      "source": "annuaire_cac_1908",
      "page": "374"
    },
    {
      "persons_count": 6,
      "yearbook": "Annuaire Desfossés 1912",
      "source": "annuaire_df_1912",
      "page": "152"
    },
    {
      "persons_count": 7,
      "yearbook": "Annuaire Desfossés 1917",
      "source": "annuaire_df_1917",
      "page": "133"
    },
    {
      "persons_count": 1,
      "yearbook": "Annuaire Desfossés 1923",
      "source": "annuaire_df_1923",
      "page": "156"
    },
    {
      "persons_count": 9,
      "yearbook": "Annuaire Desfossés 1927",
      "source": "annuaire_df_1927",
      "page": "131"
    },
    {
      "persons_count": 12,
      "yearbook": "Annuaire Desfossés 1933",
      "source": "annuaire_df_1933",
      "page": "141"
    },
    {
      "persons_count": 9,
      "yearbook": "Annuaire Desfossés 1940",
      "source": "annuaire_df_1940",
      "page": null
    },
    {
      "persons_count": 5,
      "yearbook": "Annuaire Desfossés 1945",
      "source": "annuaire_df_1945",
      "page": "196"
    },
    {
      "persons_count": 9,
      "yearbook": "Annuaire Desfossés 1948",
      "source": "annuaire_df_1948",
      "page": "207"
    },
    {
      "persons_count": 14,
      "yearbook": "Annuaire Desfossés 1953",
      "source": "annuaire_df_1953",
      "page": "38"
    }
  ],
  "persons_stats": {
    "persons_count": 77,
    "start_date": "1883-01-01",
    "end_date": "1953-12-31"
  },
  "yearbooks_ocrs": [
    {
      "source": "annuaire_cac_1883",
      "yearbook": "Annuaire de la Compagnie des Agents de Change 1883",
      "page": "266"
    },
    {
      "source": "annuaire_cac_1888",
      "yearbook": "Annuaire de la Compagnie des Agents de Change 1888",
      "page": "291"
    },
    {
      "source": "annuaire_cac_1893",
      "yearbook": "Annuaire de la Compagnie des Agents de Change 1893",
      "page": "328"
    },
    {
      "source": "annuaire_cac_1898",
      "yearbook": "Annuaire de la Compagnie des Agents de Change 1898",
      "page": "418"
    },
    {
      "source": "annuaire_cac_1903",
      "yearbook": "Annuaire de la Compagnie des Agents de Change 1903",
      "page": "429"
    },
    {
      "source": "annuaire_cac_1908",
      "yearbook": "Annuaire de la Compagnie des Agents de Change 1908",
      "page": "374"
    },
    {
      "source": "annuaire_df_1912",
      "yearbook": "Annuaire Desfossés 1912",
      "page": "152"
    },
    {
      "source": "annuaire_df_1914",
      "yearbook": "Annuaire Desfossés 1914",
      "page": "168"
    },
    {
      "source": "annuaire_df_1917",
      "yearbook": "Annuaire Desfossés 1917",
      "page": "133"
    },
    {
      "source": "annuaire_df_1920",
      "yearbook": "Annuaire Desfossés 1920",
      "page": "139"
    },
    {
      "source": "annuaire_df_1923",
      "yearbook": "Annuaire Desfossés 1923",
      "page": "156"
    },
    {
      "source": "annuaire_df_1925",
      "yearbook": "Annuaire Desfossés 1925",
      "page": "168"
    },
    {
      "source": "annuaire_df_1927",
      "yearbook": "Annuaire Desfossés 1927",
      "page": "131"
    },
    {
      "source": "annuaire_df_1929",
      "yearbook": "Annuaire Desfossés 1929",
      "page": "132"
    },
    {
      "source": "annuaire_df_1931",
      "yearbook": "Annuaire Desfossés 1931",
      "page": "131"
    },
    {
      "source": "annuaire_df_1933",
      "yearbook": "Annuaire Desfossés 1933",
      "page": "141"
    },
    {
      "source": "annuaire_df_1937",
      "yearbook": "Annuaire Desfossés 1937",
      "page": "169"
    },
    {
      "source": "annuaire_df_1940",
      "yearbook": "Annuaire Desfossés 1940",
      "page": null
    },
    {
      "source": "annuaire_df_1945",
      "yearbook": "Annuaire Desfossés 1945",
      "page": "196"
    },
    {
      "source": "annuaire_df_1948",
      "yearbook": "Annuaire Desfossés 1948",
      "page": "207"
    },
    {
      "source": "annuaire_df_1953",
      "yearbook": "Annuaire Desfossés 1953",
      "page": "38"
    }
  ],
  "juridical_status": [
    {
      "juridical_status": "Société Anonyme (Libre)",
      "start_date": "1880-10-02",
      "end_date": "1979-10-02",
      "comments": "Société anonyme française, constituée le 2 octobre 1880, pour une durée de 99 ans.",
      "source": "annuaire_df_1912"
    }
  ],
  "equity_capital": [
    {
      "amount": "10.000.000",
      "currency": "Franc",
      "infodate": "1880-10-02",
      "source": "annuaire_df_1912",
      "comments": "10 millions de francs, divisé en 10.000 actions de 1.000 francs, libérées de 250 francs et nominatives."
    },
    {
      "amount": "20.000.000",
      "currency": "Franc",
      "infodate": "1929-05-01",
      "source": "annuaire_df_1933",
      "comments": " 20 millions de francs, divisé en 40.000 actions de 500 francs, libérées de 375 francs et nominatives. A l’origine 10 millions, divisé en 10.000 actions de 1.000 francs, libérées de 250 francs puis des trois quarts; porté en mai 1929 au chiffre actuel par l’émission à 425 francs net de 20.000 actions de 500 francs, libérées des trois quarts. En même temps les actions anciennes ont été divisées en actions de 500 francs, libérées des trois quarts. D’autre part, lors de la souscription un bonus de 200 francs net a été réparti à chaque action ancienne."
    },
    {
      "amount": "30.091.000",
      "currency": "Franc",
      "infodate": "1945-01-01",
      "source": "annuaire_df_1948",
      "comments": "30 millions 91.000 francs, divisé en 60.182 actions de 500 francs, nominatives. A l'origine, 10 -millions, divisé en 10.000 actions de 1.000 francs, libérées de 250 francs, puis des trois quarts ; porté en mai 1929 à 20 millions par l'émission à 550 francs de 20.000 actions de 500 francs, libérées des trois quarts.^ En même temps, les actions anciennes ont été divisées en actions de 500 francs, libérées des trois quarts. D'autre part, lors de fa souscription un bonus de 200 francs net a été réparti à -chaque action ancienne. Porté en 1943 à 30 millions par : 1° l'incorporation au capital de 5 millions de francs prélevés sur les réserves et la création de 10.000 actions de 500 francs remises gratuitement aux actionnaires à raison d'une action nouvelle pour 4 anciennes ; 2° par l'émission à 550 francs de 10.000 actions de 500 francs réservées aux actionnaires à raison d'une nouvelle pour 4 anciennes. - Porté en 1945 à 30.091.000 francs par la création de 182 -actions nouvelles de 500 francs attribuées à lia -Société Immobilière de la rue Taitbout en représentation de ses apports."
    },
    {
      "amount": "60.182.000",
      "currency": "Franc",
      "infodate": "1949-01-01",
      "source": "annuaire_df_1953",
      "comments": "120.364.000 fr., divisé en 60.182 act. de 2.000 fr., nominatives, regroupées comme il est dit ci-dessous. A l'origine, 10 millions, divisé en 10.000 actions de 1.000 fr., libérées de 250 fr., puis des 3/4. Porté en mai 1929 à 20 millions par l'émission à 550 fr. de 20.000 actions de 500 fr., libérées des 3/4. En même temps, les actions anciennes ont été divisées en actions de 500 fr., libérées des 3/4. D'autre part, lors de la souscription, un bonus de 200 fr. net a été réparti à chaque action ancienne. Porté en 1943 à 30 millions par : 1° l'incorporation au capital de 5 millions de fr. prélevés sur les réserves; 2° par l'émission à 550 fr. de 10.000 actions de 500 fr. réservées aux actionnaires à raison de 1 nouvelle pour 4 anciennes. Porté en 1945 à 30.091.000 fr. par la création de 182 actions nouvelles de 500 fr. attribuées à la Société Immobilière de la Rue Taitbout en représentation de ses apports. Porté en 1949 à 60.182.000 fr. par l'émission à 550 fr. de 60.182 actions de 500 fr. (1 pour 1). Regroupement en actions de 1.000 fr. depuis octobre 1949. Le cessionnaire doit être agréé par le Conseil d'administration. Porté en 1952 à 120.364.000 fr. par élévations du nominal à 2.000 fr."
    },
    {
      "amount": "120.364.000",
      "currency": "Franc",
      "infodate": "1952-01-01",
      "source": "annuaire_df_1953",
      "comments": "120.364.000 fr., divisé en 60.182 act. de 2.000 fr., nominatives, regroupées comme il est dit ci-dessous. A l'origine, 10 millions, divisé en 10.000 actions de 1.000 fr., libérées de 250 fr., puis des 3/4. Porté en mai 1929 à 20 millions par l'émission à 550 fr. de 20.000 actions de 500 fr., libérées des 3/4. En même temps, les actions anciennes ont été divisées en actions de 500 fr., libérées des 3/4. D'autre part, lors de la souscription, un bonus de 200 fr. net a été réparti à chaque action ancienne. Porté en 1943 à 30 millions par : 1° l'incorporation au capital de 5 millions de fr. prélevés sur les réserves; 2° par l'émission à 550 fr. de 10.000 actions de 500 fr. réservées aux actionnaires à raison de 1 nouvelle pour 4 anciennes. Porté en 1945 à 30.091.000 fr. par la création de 182 actions nouvelles de 500 fr. attribuées à la Société Immobilière de la Rue Taitbout en représentation de ses apports. Porté en 1949 à 60.182.000 fr. par l'émission à 550 fr. de 60.182 actions de 500 fr. (1 pour 1). Regroupement en actions de 1.000 fr. depuis octobre 1949. Le cessionnaire doit être agréé par le Conseil d'administration. Porté en 1952 à 120.364.000 fr. par élévations du nominal à 2.000 fr."
    }
  ],
  "profit_dividends": [
    {
      "first_date": "1881-12-31",
      "last_date": "1951-12-31",
      "obs_count": 375
    }
  ],
  "public_status": false,
  "stock_exchanges": {
    "1": {
      "id": 1,
      "name": "Paris (Official List)",
      "listings_stats": {
        "start_date": "1881-03-03"
      },
      "spot_prices_stats": {
        "start_date": "1883-04-16",
        "end_date": "1976-12-31"
      }
    },
    "2": {
      "id": 2,
      "name": "Paris OTC (Coulisse)",
      "listings_stats": {
        "start_date": "1881-01-15"
      },
      "spot_prices_stats": {
        "start_date": "1881-01-17",
        "end_date": "1892-04-30"
      }
    }
  },
  "securities": {
    "2935": {
      "id": 2935,
      "name": "France (La) (vie), act. 500 fr., t.p. (nom.)",
      "share_type": {
        "id": 1,
        "name": "Stock (Action)"
      },
      "types": [
        {
          "start_date": "1881-01-15",
          "end_date": "3999-12-31",
          "id": 18,
          "name": "Action",
          "stock_group": "S"
        }
      ],
      "start_date": "1881-01-15",
      "end_date": "3999-12-31",
      "prices_from": "1881-01-17",
      "prices_to": "1951-08-31",
      "is_mainstock": 1,
      "prices_count": 1138
    },
    "11666": {
      "id": 11666,
      "name": "France (La) (vie), act. 500 fr., t. p. (dr. À attribution et dr. à souscrip. Att., non est.) (nom.)",
      "share_type": {
        "id": 1,
        "name": "Stock (Action)"
      },
      "types": [
        {
          "start_date": "1942-11-09",
          "end_date": "3999-12-31",
          "id": 18,
          "name": "Action",
          "stock_group": "S"
        }
      ],
      "start_date": "1942-11-09",
      "end_date": "3999-12-31",
      "prices_from": "1942-11-16",
      "prices_to": "1942-12-15",
      "is_mainstock": 0,
      "prices_count": 3
    },
    "11667": {
      "id": 11667,
      "name": "France (La) (vie), act. 500 fr., t. p. (n°s 40001 à 50000) (nom.)",
      "share_type": {
        "id": 1,
        "name": "Stock (Action)"
      },
      "types": [
        {
          "start_date": "1942-11-09",
          "end_date": "3999-12-31",
          "id": 18,
          "name": "Action",
          "stock_group": "S"
        }
      ],
      "start_date": "1942-11-09",
      "end_date": "3999-12-31",
      "prices_from": "1943-07-01",
      "prices_to": "1943-09-15",
      "is_mainstock": 0,
      "prices_count": 6
    },
    "13402": {
      "id": 13402,
      "name": "France (La) (Vie), act. Anc. (nom.)",
      "share_type": {
        "id": 1,
        "name": "Stock (Action)"
      },
      "types": [
        {
          "start_date": "1949-10-17",
          "end_date": "3999-12-31",
          "id": 18,
          "name": "Action",
          "stock_group": "S"
        }
      ],
      "start_date": "1949-10-17",
      "end_date": "3999-12-31",
      "prices_from": "1949-10-17",
      "prices_to": "1959-09-30",
      "is_mainstock": 0,
      "prices_count": 257
    },
    "16027": {
      "id": 16027,
      "name": "France (La) (vie), act (n 75001 à 150000)(jce 1/1/60)(n)",
      "share_type": {
        "id": 1,
        "name": "Stock (Action)"
      },
      "types": [
        {
          "start_date": "1959-12-23",
          "end_date": "3999-12-31",
          "id": 18,
          "name": "Action",
          "stock_group": "S"
        }
      ],
      "start_date": "1959-12-23",
      "end_date": "3999-12-31",
      "prices_from": "1959-12-23",
      "prices_to": "1960-06-30",
      "is_mainstock": 0,
      "prices_count": 14
    },
    "22006": {
      "id": 22006,
      "name": "France (La) (Vie), act. (nom.)",
      "share_type": {
        "id": 1,
        "name": "Stock (Action)"
      },
      "types": [
        {
          "start_date": "1957-10-01",
          "end_date": "3999-12-31",
          "id": 18,
          "name": "Action",
          "stock_group": "S"
        }
      ],
      "start_date": "1957-10-01",
      "end_date": "3999-12-31",
      "prices_from": "1957-10-01",
      "prices_to": "1976-12-31",
      "is_mainstock": 0,
      "prices_count": 467
    },
    "101615": {
      "id": 101615,
      "name": "Act. LA France (CIE D'ASSURANCES SUR LA VIE) (bon de droit blanc). Pour 4 act. anciennes, 1 action nouvelle émise à 550 francs. Les cessionnaires de droits non actionnaires sont soumis à l'agrément du conseil d'administration",
      "share_type": {
        "id": 4,
        "name": "Rights (Droits)"
      },
      "types": [
        {
          "start_date": "1942-11-09",
          "end_date": "1944-02-12",
          "id": 501,
          "name": "Droit de souscription",
          "stock_group": "R"
        }
      ],
      "start_date": "1942-11-09",
      "end_date": "1944-02-12",
      "prices_from": "1942-11-13",
      "prices_to": "1943-04-15",
      "is_mainstock": 0,
      "prices_count": 11
    },
    "102065": {
      "id": 102065,
      "name": "Act. Cie d'Assurances La France (Vie). Pour 1 act. anc. de 1000 fr., lib. de 750 fr., 2 act. nouv. de 500 fr., libérées de 375 fr., émise à 425 francs net à payer.",
      "share_type": {
        "id": 4,
        "name": "Rights (Droits)"
      },
      "types": [
        {
          "start_date": "1929-05-08",
          "end_date": "1929-06-05",
          "id": 501,
          "name": "Droit de souscription",
          "stock_group": "R"
        }
      ],
      "start_date": "1929-05-08",
      "end_date": "1929-06-05",
      "prices_from": "1929-06-03",
      "prices_to": "1929-06-03",
      "is_mainstock": 0,
      "prices_count": 1
    },
    "103710": {
      "id": 103710,
      "name": "La France (Cie d'Assurances sur la Vie) (bon de droit) (1 act. nouv. Émise à 550 fr. pour 1 act. anc.)",
      "share_type": {
        "id": 4,
        "name": "Rights (Droits)"
      },
      "types": [
        {
          "start_date": "1949-01-24",
          "end_date": "3999-12-31",
          "id": 501,
          "name": "Droit de souscription",
          "stock_group": "R"
        }
      ],
      "start_date": "1949-01-24",
      "end_date": "3999-12-31",
      "prices_from": "1949-01-24",
      "prices_to": "1949-01-26",
      "is_mainstock": 0,
      "prices_count": 1
    },
    "104570": {
      "id": 104570,
      "name": "Act. La France (CIE D'ASSURANCES SUR LA VIE ) ( bon de droit jaune )",
      "share_type": {
        "id": 5,
        "name": "Droits de souscription"
      },
      "types": [
        {
          "start_date": "1942-11-20",
          "end_date": "1944-06-25",
          "id": 501,
          "name": "Droit de souscription",
          "stock_group": "R"
        }
      ],
      "start_date": "1942-11-20",
      "end_date": "1944-06-25",
      "prices_from": "1943-01-15",
      "prices_to": "1944-03-15",
      "is_mainstock": 0,
      "prices_count": 5
    },
    "104571": {
      "id": 104571,
      "name": "Act. La France ( Vie)",
      "share_type": {
        "id": 8,
        "name": "Droit d'attribution"
      },
      "types": [
        {
          "start_date": "1944-06-20",
          "end_date": "1944-07-10",
          "id": 502,
          "name": "Droit d'attribution",
          "stock_group": "R"
        }
      ],
      "start_date": "1944-06-20",
      "end_date": "1944-07-10",
      "prices_from": null,
      "prices_to": null,
      "is_mainstock": 0,
      "prices_count": 0
    }
  }
}