{
  "id": 15960,
  "names": [
    "BANQUE MORHANGE",
    "GEORGES MARHANGE & CIE",
    "GEORGES MORHANGE & CIE",
    "MORHANGE (GEORGES) & CIE",
    "MORHANGE GEORGE & CIE",
    "MORHANGE GEORGES & CIE",
    "Morhange Georges et Cie"
  ],
  "name": "MORHANGE GEORGE & CIE",
  "balance_sheets": [],
  "balance_sheets_stats": {
    "start_date": null,
    "end_date": null
  },
  "locations_stats": {
    "start_date": null,
    "end_date": null
  },
  "locations": {},
  "persons": [],
  "persons_stats": {
    "persons_count": 0,
    "start_date": null,
    "end_date": null
  },
  "yearbooks_ocrs": [],
  "juridical_status": [],
  "equity_capital": [],
  "profit_dividends": [],
  "public_status": false
}