{
  "id": 11628,
  "names": [
    "SOCIÉTÉ ANONYME DES ANCIENS ÉTABLISSEMENTS BILLARD & Cie",
    "Société Anonyme des anciens établissements Billard & Cie"
  ],
  "name": "SOCIÉTÉ ANONYME DES ANCIENS ÉTABLISSEMENTS BILLARD & Cie",
  "balance_sheets": [
    {
      "start_date": "1935-06-30",
      "source": "Annuaire Desfossés 1937",
      "page": "1905"
    }
  ],
  "balance_sheets_stats": {
    "start_date": "1935-06-30",
    "end_date": "1935-06-30"
  },
  "locations_stats": {
    "start_date": "1937-01-01",
    "end_date": "1937-12-31"
  },
  "locations": {
    "Siège social": [
      {
        "location_types_id": 1,
        "location_type": "Siège social",
        "address": null,
        "city": "Tours",
        "district": "Indre-et-Loire",
        "country": "France",
        "in_yearbook_from": 1937,
        "in_yearbook_to": 1937
      }
    ]
  },
  "persons": [],
  "persons_stats": {
    "persons_count": 0,
    "start_date": null,
    "end_date": null
  },
  "yearbooks_ocrs": [
    {
      "source": "annuaire_df_1937",
      "yearbook": "Annuaire Desfossés 1937",
      "page": "1905"
    }
  ],
  "juridical_status": [
    {
      "juridical_status": "Société Anonyme (Libre)",
      "start_date": "1928-01-01",
      "end_date": "2027-01-01",
      "comments": "Constitution : Société Anonyme française constituée en 1928 pour une durée de 99 ans.",
      "source": "annuaire_df_1937"
    }
  ],
  "equity_capital": [],
  "profit_dividends": [],
  "public_status": false
}