{
  "id": 3937,
  "names": [
    "Compagnie Française des matières colorantes"
  ],
  "name": "Compagnie Française des matières colorantes",
  "balance_sheets": [],
  "balance_sheets_stats": {
    "start_date": null,
    "end_date": null
  },
  "locations_stats": {
    "start_date": null,
    "end_date": null
  },
  "locations": {},
  "persons": [],
  "persons_stats": {
    "persons_count": 0,
    "start_date": null,
    "end_date": null
  },
  "yearbooks_ocrs": [],
  "juridical_status": [],
  "equity_capital": [],
  "profit_dividends": [],
  "public_status": false,
  "stock_exchanges": {
    "1": {
      "id": 1,
      "name": "Paris (Official List)",
      "listings_stats": {
        "start_date": "1959-05-14"
      },
      "spot_prices_stats": {
        "start_date": "1959-05-19",
        "end_date": "1964-01-15"
      }
    }
  },
  "securities": {
    "16004": {
      "id": 16004,
      "name": "Matières Colorantes (Cie Française de) 1958, à intér. croiss. et convert. en actions du 1er sept. au 31 octobre 1961, rembours. à 210 NF min. (Avis 34494 et 36218) 1963-77",
      "share_type": {
        "id": 2,
        "name": "Bond (Obligation)"
      },
      "types": [
        {
          "start_date": "1959-05-14",
          "end_date": "3999-12-31",
          "id": 1001,
          "name": "Obligation ordinaire ou classique",
          "stock_group": "B"
        }
      ],
      "start_date": "1959-05-14",
      "end_date": "3999-12-31",
      "prices_from": "1959-05-19",
      "prices_to": "1961-11-15",
      "is_mainstock": 0,
      "prices_count": 69
    },
    "22090": {
      "id": 22090,
      "name": "Matières Colorantes (Cie Française des), act. (numérotées à partir de 600001) (Jce 1/1/62) (n.)",
      "share_type": {
        "id": 1,
        "name": "Stock (Action)"
      },
      "types": [
        {
          "start_date": "1961-10-06",
          "end_date": "3999-12-31",
          "id": 18,
          "name": "Action",
          "stock_group": "S"
        }
      ],
      "start_date": "1961-10-06",
      "end_date": "3999-12-31",
      "prices_from": "1961-10-06",
      "prices_to": "1964-01-15",
      "is_mainstock": 0,
      "prices_count": 63
    }
  }
}