{
  "id": 3293,
  "names": [
    "Société de reprise du solde de l'actif de l'ancien comptoir d'Escompte"
  ],
  "name": "Société de reprise du solde de l'actif de l'ancien comptoir d'Escompte",
  "balance_sheets": [],
  "balance_sheets_stats": {
    "start_date": null,
    "end_date": null
  },
  "locations_stats": {
    "start_date": null,
    "end_date": null
  },
  "locations": {},
  "persons": [],
  "persons_stats": {
    "persons_count": 0,
    "start_date": null,
    "end_date": null
  },
  "yearbooks_ocrs": [],
  "juridical_status": [],
  "equity_capital": [],
  "profit_dividends": [],
  "public_status": false,
  "stock_exchanges": {
    "1": {
      "id": 1,
      "name": "Paris (Official List)",
      "listings_stats": {
        "start_date": "1896-11-19"
      },
      "spot_prices_stats": {
        "start_date": "1896-11-19",
        "end_date": "1897-11-30"
      }
    }
  },
  "securities": {
    "4423": {
      "id": 4423,
      "name": "Société de reprise du solde de l'actif de l'ancien comptoir d'Escompte (Parts)",
      "share_type": {
        "id": 1,
        "name": "Stock (Action)"
      },
      "types": [
        {
          "start_date": "1896-11-19",
          "end_date": "3999-12-31",
          "id": 17,
          "name": "Part sociale",
          "stock_group": "S"
        }
      ],
      "start_date": "1896-11-19",
      "end_date": "3999-12-31",
      "prices_from": "1896-11-19",
      "prices_to": "1897-11-30",
      "is_mainstock": 1,
      "prices_count": 36
    }
  }
}