{
  "id": 1209,
  "names": [
    "Omnibus du Lyon"
  ],
  "name": "Omnibus du Lyon",
  "balance_sheets": [],
  "balance_sheets_stats": {
    "start_date": null,
    "end_date": null
  },
  "locations_stats": {
    "start_date": null,
    "end_date": null
  },
  "locations": {},
  "persons": [],
  "persons_stats": {
    "persons_count": 0,
    "start_date": null,
    "end_date": null
  },
  "yearbooks_ocrs": [],
  "juridical_status": [],
  "equity_capital": [],
  "profit_dividends": [],
  "public_status": false,
  "stock_exchanges": {
    "1": {
      "id": 1,
      "name": "Paris (Official List)",
      "listings_stats": {
        "start_date": "1858-01-23"
      },
      "spot_prices_stats": {
        "start_date": "1862-10-11",
        "end_date": "1862-10-15"
      }
    }
  },
  "securities": {
    "1131": {
      "id": 1131,
      "name": "Omnibus du Lyon",
      "share_type": {
        "id": 6,
        "name": "UNKNOWN"
      },
      "types": [
        {
          "start_date": "1858-01-23",
          "end_date": "3999-12-31",
          "id": 18,
          "name": "Action",
          "stock_group": "S"
        }
      ],
      "start_date": "1858-01-23",
      "end_date": "3999-12-31",
      "prices_from": "1862-10-11",
      "prices_to": "1862-10-15",
      "is_mainstock": 1,
      "prices_count": 2
    }
  }
}