{
  "id": 2676,
  "names": [
    "VILLE DE BLOIS",
    "VILLES : BLOIS",
    "Ville de Blois"
  ],
  "name": "VILLE DE BLOIS",
  "balance_sheets": [],
  "balance_sheets_stats": {
    "start_date": null,
    "end_date": null
  },
  "locations_stats": {
    "start_date": null,
    "end_date": null
  },
  "locations": {},
  "persons": [],
  "persons_stats": {
    "persons_count": 0,
    "start_date": null,
    "end_date": null
  },
  "yearbooks_ocrs": [
    {
      "source": "annuaire_cac_1880",
      "yearbook": "Annuaire de la Compagnie des Agents de Change 1880",
      "page": "36"
    },
    {
      "source": "annuaire_cac_1883",
      "yearbook": "Annuaire de la Compagnie des Agents de Change 1883",
      "page": "50"
    },
    {
      "source": "annuaire_cac_1888",
      "yearbook": "Annuaire de la Compagnie des Agents de Change 1888",
      "page": "32"
    },
    {
      "source": "annuaire_cac_1893",
      "yearbook": "Annuaire de la Compagnie des Agents de Change 1893",
      "page": "39"
    },
    {
      "source": "annuaire_cac_1898",
      "yearbook": "Annuaire de la Compagnie des Agents de Change 1898",
      "page": "54"
    },
    {
      "source": "annuaire_cac_1903",
      "yearbook": "Annuaire de la Compagnie des Agents de Change 1903",
      "page": "74"
    },
    {
      "source": "annuaire_cac_1908",
      "yearbook": "Annuaire de la Compagnie des Agents de Change 1908",
      "page": "67"
    },
    {
      "source": "annuaire_df_1912",
      "yearbook": "Annuaire Desfossés 1912",
      "page": "105"
    },
    {
      "source": "annuaire_df_1917",
      "yearbook": "Annuaire Desfossés 1917",
      "page": "93"
    }
  ],
  "juridical_status": [],
  "equity_capital": [],
  "profit_dividends": [],
  "public_status": true,
  "stock_exchanges": {
    "1": {
      "id": 1,
      "name": "Paris (Official List)",
      "listings_stats": {
        "start_date": "1880-05-31"
      },
      "spot_prices_stats": {
        "start_date": "1889-05-15",
        "end_date": "1920-12-31"
      }
    }
  },
  "securities": {
    "2976": {
      "id": 2976,
      "name": "Blois (ville de) 1879, 4,25%",
      "share_type": {
        "id": 2,
        "name": "Bond (Obligation)"
      },
      "types": [
        {
          "start_date": "1880-05-31",
          "end_date": "3999-12-31",
          "id": 1001,
          "name": "Obligation ordinaire ou classique",
          "stock_group": "B"
        }
      ],
      "start_date": "1880-05-31",
      "end_date": "3999-12-31",
      "prices_from": "1889-05-15",
      "prices_to": "1896-06-30",
      "is_mainstock": 0,
      "prices_count": 8
    },
    "4497": {
      "id": 4497,
      "name": "Blois (Ville de), 3,4% 1896, r. à 500 fr.",
      "share_type": {
        "id": 2,
        "name": "Bond (Obligation)"
      },
      "types": [
        {
          "start_date": "1897-03-22",
          "end_date": "3999-12-31",
          "id": 1001,
          "name": "Obligation ordinaire ou classique",
          "stock_group": "B"
        }
      ],
      "start_date": "1897-03-22",
      "end_date": "3999-12-31",
      "prices_from": "1897-03-23",
      "prices_to": "1920-12-31",
      "is_mainstock": 0,
      "prices_count": 79
    }
  }
}