{
  "id": 10440,
  "names": [
    "SOCIÉTÉ DES SOUDIERES DU DONETZ",
    "SOCIÉTÉ DES SOUDIÈRES DU DONETZ",
    "Sociétés des soudières du Donetz"
  ],
  "name": "SOCIÉTÉ DES SOUDIERES DU DONETZ",
  "balance_sheets": [],
  "balance_sheets_stats": {
    "start_date": null,
    "end_date": null
  },
  "locations_stats": {
    "start_date": "1923-01-01",
    "end_date": "1930-12-31"
  },
  "locations": {
    "Siège social": [
      {
        "location_types_id": 1,
        "location_type": "Siège social",
        "address": "Rue du général-foy, 5",
        "city": "Paris",
        "district": "Paris",
        "country": "France",
        "in_yearbook_from": 1923,
        "in_yearbook_to": 1930
      }
    ]
  },
  "persons": [
    {
      "persons_count": 1,
      "yearbook": "Annuaire Desfossés 1923",
      "source": "annuaire_df_1923",
      "page": "1049"
    },
    {
      "persons_count": 10,
      "yearbook": "Annuaire Desfossés 1927",
      "source": "annuaire_df_1927",
      "page": "1013"
    }
  ],
  "persons_stats": {
    "persons_count": 10,
    "start_date": "1923-01-01",
    "end_date": "1927-12-31"
  },
  "yearbooks_ocrs": [
    {
      "source": "annuaire_df_1920",
      "yearbook": "Annuaire Desfossés 1920",
      "page": "937"
    },
    {
      "source": "annuaire_df_1923",
      "yearbook": "Annuaire Desfossés 1923",
      "page": "1049"
    },
    {
      "source": "annuaire_df_1925",
      "yearbook": "Annuaire Desfossés 1925",
      "page": "1223"
    },
    {
      "source": "annuaire_df_1927",
      "yearbook": "Annuaire Desfossés 1927",
      "page": "1013"
    },
    {
      "source": "annuaire_df_1929",
      "yearbook": "Annuaire Desfossés 1929",
      "page": "1073"
    },
    {
      "source": "annuaire_df_1931",
      "yearbook": "Annuaire Desfossés 1931",
      "page": "1094"
    }
  ],
  "juridical_status": [
    {
      "juridical_status": "Société Anonyme (Libre)",
      "start_date": "1913-08-21",
      "end_date": "2003-08-21",
      "comments": "Société anonyme française, constituée le 21 août 1913, pour une durée de 90 ans",
      "source": "annuaire_df_1923"
    }
  ],
  "equity_capital": [
    {
      "amount": "8.000.000",
      "currency": "Franc",
      "infodate": "1913-08-21",
      "source": "annuaire_df_1923",
      "comments": "8 millions de francs, divisé en 80.000 actions de 100 francs. Parts de fondateur : il a été créé, en outre, 20.000 parts de fondateur remises à MM. E. J. Barbier, J. Barbier, L. Barbier, C. Lugagne, Schuhmann et Bruyant, en représentation de leurs apports."
    }
  ],
  "profit_dividends": [
    {
      "first_date": "1922-12-31",
      "last_date": "1926-12-31",
      "obs_count": 10
    }
  ],
  "public_status": false
}