{
  "id": 1702,
  "names": [
    "Compagnie d'Eclairage par le Gaz de la Ville de Puy"
  ],
  "name": "Compagnie d'Eclairage par le Gaz de la Ville de Puy",
  "balance_sheets": [],
  "balance_sheets_stats": {
    "start_date": null,
    "end_date": null
  },
  "locations_stats": {
    "start_date": null,
    "end_date": null
  },
  "locations": {},
  "persons": [],
  "persons_stats": {
    "persons_count": 0,
    "start_date": null,
    "end_date": null
  },
  "yearbooks_ocrs": [],
  "juridical_status": [],
  "equity_capital": [],
  "profit_dividends": [],
  "public_status": false
}