{
  "id": 3186,
  "names": [
    "PRODUITS CHIMIQUES DE MARSEILLE L'ESTAQUE",
    "SOCIÉTÉ DES PRODUITS CHIMIQUES DE MARSEILLE-L'ESTAQUE",
    "Société des Produits chimiques de Marseille-Lestaque"
  ],
  "name": "SOCIÉTÉ DES PRODUITS CHIMIQUES DE MARSEILLE-L'ESTAQUE",
  "balance_sheets": [
    {
      "start_date": "1910-06-30",
      "source": "Annuaire Desfossés 1912",
      "page": "883"
    },
    {
      "start_date": "1910-06-30",
      "source": "Annuaire Desfossés 1912",
      "page": "1122"
    },
    {
      "start_date": "1912-01-31",
      "source": "Annuaire Desfossés 1912",
      "page": "883"
    },
    {
      "start_date": "1912-01-31",
      "source": "Annuaire Desfossés 1912",
      "page": "1122"
    },
    {
      "start_date": "1913-06-30",
      "source": "Annuaire Desfossés 1914",
      "page": "943"
    }
  ],
  "balance_sheets_stats": {
    "start_date": "1910-06-30",
    "end_date": "1913-06-30"
  },
  "locations_stats": {
    "start_date": "1912-01-01",
    "end_date": "1917-12-31"
  },
  "locations": {
    "Siège social": [
      {
        "location_types_id": 1,
        "location_type": "Siège social",
        "address": "Rue de mogador, 29",
        "city": "Paris",
        "district": "Paris",
        "country": "France",
        "in_yearbook_from": 1912,
        "in_yearbook_to": 1917
      }
    ]
  },
  "persons": [
    {
      "persons_count": 6,
      "yearbook": "Annuaire Desfossés 1912",
      "source": "annuaire_df_1912",
      "page": "1122"
    },
    {
      "persons_count": 6,
      "yearbook": "Annuaire Desfossés 1912",
      "source": "annuaire_df_1912",
      "page": "883"
    }
  ],
  "persons_stats": {
    "persons_count": 6,
    "start_date": "1912-01-01",
    "end_date": "1912-12-31"
  },
  "yearbooks_ocrs": [
    {
      "source": "annuaire_df_1912",
      "yearbook": "Annuaire Desfossés 1912",
      "page": "883"
    },
    {
      "source": "annuaire_df_1912",
      "yearbook": "Annuaire Desfossés 1912",
      "page": "1122"
    },
    {
      "source": "annuaire_df_1914",
      "yearbook": "Annuaire Desfossés 1914",
      "page": "943"
    },
    {
      "source": "annuaire_df_1917",
      "yearbook": "Annuaire Desfossés 1917",
      "page": "860"
    }
  ],
  "juridical_status": [
    {
      "juridical_status": "Société Anonyme (Libre)",
      "start_date": "1890-06-03",
      "end_date": "1913-10-23",
      "comments": "Société anonyme française, constituée le 3 juin 1890, pour une durée de 50 ans. (source : Annuaire Desfossés 1912)",
      "source": "annuaire_df_1914"
    },
    {
      "juridical_status": "Mise en liquidation",
      "start_date": "1913-10-24",
      "end_date": "3999-12-31",
      "comments": "Une assemblée extraordinaire tenue le 24 octobre 1913 a voté la dissolution anticipée de la Société, en conséquence de son absorption par la Société Métallurgique de Penarroya.",
      "source": "annuaire_df_1914"
    }
  ],
  "equity_capital": [
    {
      "amount": "3.760.000",
      "currency": "Franc",
      "infodate": "1890-06-03",
      "source": "annuaire_df_1912",
      "comments": "3.760.000 francs, divisé en 7.520 actions de 500 francs, sur lesquelles 7.500 ont été attribuées à la Compagnie d’exploitation des minerais de Rio-Tinto en rénumération de ses apports."
    }
  ],
  "profit_dividends": [
    {
      "first_date": "1906-06-30",
      "last_date": "1916-06-30",
      "obs_count": 48
    }
  ],
  "public_status": false,
  "stock_exchanges": {
    "2": {
      "id": 2,
      "name": "Paris OTC (Coulisse)",
      "listings_stats": {
        "start_date": "1899-01-09"
      }
    }
  },
  "securities": {
    "106613": {
      "id": 106613,
      "name": "PRODUITS CHIMIQUES MARSEILLE LESTAQUE",
      "share_type": {
        "id": 1,
        "name": "Stock (Action)"
      },
      "types": [
        {
          "start_date": "1899-01-09",
          "end_date": "1899-01-16",
          "id": 18,
          "name": "Action",
          "stock_group": "S"
        }
      ],
      "start_date": "1899-01-09",
      "end_date": "1899-01-16",
      "prices_from": null,
      "prices_to": null,
      "is_mainstock": 0,
      "prices_count": 0
    }
  }
}