{
  "id": 4699,
  "names": [
    "SOCIETE DE PRODUITS CHIMIQUES DES TERRES RARES",
    "SOCIÉTÉ DE PRODUITS CHIMIQUES DES TERRES RARES",
    "Société de Produits Chimiques des Terres Rares"
  ],
  "name": "SOCIETE DE PRODUITS CHIMIQUES DES TERRES RARES",
  "balance_sheets": [
    {
      "start_date": "1934-12-31",
      "source": "Annuaire Desfossés 1937",
      "page": "1974"
    },
    {
      "start_date": "1935-12-31",
      "source": "Annuaire Desfossés 1940",
      "page": null
    },
    {
      "start_date": "1936-12-31",
      "source": "Annuaire Desfossés 1940",
      "page": null
    },
    {
      "start_date": "1937-12-31",
      "source": "Annuaire Desfossés 1940",
      "page": null
    },
    {
      "start_date": "1938-12-31",
      "source": "Annuaire Desfossés 1945",
      "page": "1567"
    },
    {
      "start_date": "1941-12-31",
      "source": "Annuaire Desfossés 1945",
      "page": "1567"
    },
    {
      "start_date": "1942-12-31",
      "source": "Annuaire Desfossés 1945",
      "page": "1567"
    },
    {
      "start_date": "1943-12-31",
      "source": "Annuaire Desfossés 1945",
      "page": "1567"
    },
    {
      "start_date": "1944-12-31",
      "source": "Annuaire Desfossés 1948",
      "page": "1832"
    },
    {
      "start_date": "1945-12-31",
      "source": "Annuaire Desfossés 1948",
      "page": "1832"
    },
    {
      "start_date": "1946-12-31",
      "source": "Annuaire Desfossés 1948",
      "page": "1832"
    },
    {
      "start_date": "1947-12-31",
      "source": "Annuaire Desfossés 1948",
      "page": "1832"
    },
    {
      "start_date": "1948-12-31",
      "source": "Annuaire Desfossés 1953",
      "page": "1427"
    },
    {
      "start_date": "1949-12-31",
      "source": "Annuaire Desfossés 1953",
      "page": "1427"
    },
    {
      "start_date": "1950-12-31",
      "source": "Annuaire Desfossés 1953",
      "page": "1427"
    },
    {
      "start_date": "1951-12-31",
      "source": "Annuaire Desfossés 1953",
      "page": "1427"
    }
  ],
  "balance_sheets_stats": {
    "start_date": "1934-12-31",
    "end_date": "1951-12-31"
  },
  "locations_stats": {
    "start_date": "1937-01-01",
    "end_date": "1953-12-31"
  },
  "locations": {
    "Siège social": [
      {
        "location_types_id": 1,
        "location_type": "Siège social",
        "address": "Rue de prony, 67",
        "city": "Paris",
        "district": "Paris",
        "country": "France",
        "in_yearbook_from": 1937,
        "in_yearbook_to": 1953
      }
    ]
  },
  "persons": [
    {
      "persons_count": 7,
      "yearbook": "Annuaire Desfossés 1940",
      "source": "annuaire_df_1940",
      "page": null
    },
    {
      "persons_count": 1,
      "yearbook": "Annuaire Desfossés 1945",
      "source": "annuaire_df_1945",
      "page": "1567"
    },
    {
      "persons_count": 5,
      "yearbook": "Annuaire Desfossés 1948",
      "source": "annuaire_df_1948",
      "page": "1832"
    },
    {
      "persons_count": 11,
      "yearbook": "Annuaire Desfossés 1953",
      "source": "annuaire_df_1953",
      "page": "1427"
    }
  ],
  "persons_stats": {
    "persons_count": 23,
    "start_date": "1940-01-01",
    "end_date": "1953-12-31"
  },
  "yearbooks_ocrs": [
    {
      "source": "annuaire_df_1937",
      "yearbook": "Annuaire Desfossés 1937",
      "page": "1974"
    },
    {
      "source": "annuaire_df_1940",
      "yearbook": "Annuaire Desfossés 1940",
      "page": null
    },
    {
      "source": "annuaire_df_1945",
      "yearbook": "Annuaire Desfossés 1945",
      "page": "1567"
    },
    {
      "source": "annuaire_df_1948",
      "yearbook": "Annuaire Desfossés 1948",
      "page": "1832"
    },
    {
      "source": "annuaire_df_1953",
      "yearbook": "Annuaire Desfossés 1953",
      "page": "1427"
    }
  ],
  "juridical_status": [
    {
      "juridical_status": "Société Anonyme (Libre)",
      "start_date": "1919-01-01",
      "end_date": "1969-01-01",
      "comments": "Société anonyme française, constituée en 1919 pour une durée de 50 ans.",
      "source": "annuaire_df_1940"
    }
  ],
  "equity_capital": [
    {
      "amount": "2.000.000",
      "currency": "Franc",
      "infodate": "1919-01-01",
      "source": "annuaire_df_1940",
      "comments": "3.750.000 francs, divisé en 37.500 actions de 100 francs. A l’origine, 2 mil. lions en 4.000 actions de 500 francs, porté en 1919 à 2.750.000 francs par l’émission de 7.500 actions de 100 francs. En même temps, les actions anciennes ont été divisées en titres de 100 francs, et le capital se trouvait porté en juin 1932 à 3.750.000 francs par la création de 5.000 actions A, remises à la Société Nord et Alpes avec 500.000 francs espèces en rémunération de son apport. L’assemblée du 26 juin 1934 a décidé la distribution aux actionnaires des 7.500 actions Produits Chimiques, et Raffineries de Berre qu’elle avait en portefeuille, à raison d’une action Raffinerie de Berre pour 5 Terres Rares (coupon n° 5). L’assemblée du 12 juin 1936 a décidé la répartition gra. tuite de 7.500 actions anciennes de la Cie des Produits Chimiques et Raffineries de Berre à raison d’une action Berre pour 5 actions Terres Rares, et l’assemblée du 28 mai 1937 a décidé une nouvelle répartition dans les mêmes conditions."
    },
    {
      "amount": "2.750.000",
      "currency": "Franc",
      "infodate": "1928-01-01",
      "source": "annuaire_df_1953",
      "comments": "CAPITAL : 275.000.000 fr., divisé en 110.000 actions de 2.500 fr. A l'origine, 2.000.000 de fr. ; porté en 1928 à 2.750.000 fr.; en 1932 à 3.750.000 fr.; en 1942 à 15 millions; en février 1946, à 15.789.300 fr.; en mars 1946 à 42.104.800 fr.; en 1947 à 105.262.000 fr. par émission à 110 fr. de 631.752 actions nouvelles (3 nouv. pour 2 anc.). Porté en 1950 à 219.295.000 fr. par élévation du nominal à 208 fr. 1/3 après rachat en Bourse de 4 actions de 100 fr. Titres regroupés à partir du 1er juin 1951. Porté en 1951 à 275 millions par émission à 2.700 fr. de 22.282 actions de 2.500 fr. (1 pour 4)."
    },
    {
      "amount": "3.750.000",
      "currency": "Franc",
      "infodate": "1932-06-01",
      "source": "annuaire_df_1940",
      "comments": "Capital : 3.750.000 francs, divisé en 37.500 actions de 100 francs. A l’origine, 2 mil. lions en 4.000 actions de 500 francs, porté en 1919 à 2.750.000 francs par l’émission de 7.500 actions de 100 francs. En même temps, les actions anciennes ont été divisées en titres de 100 francs, et le capital se trouvait porté en juin 1932 à 3.750.000 francs par la création de 5.000 actions A, remises à la Société Nord et Alpes avec 500.000 francs espèces en rémunération de son apport. L’assemblée du 26 juin 1934 a décidé la distribution aux actionnaires des 7.500 actions Produits Chimiques, et Raffineries de Berre qu’elle avait en portefeuille, à raison d’une action Raffinerie de Berre pour 5 Terres Rares (coupon n° 5). L’assemblée du 12 juin 1936 a décidé la répartition gra. tuite de 7.500 actions anciennes de la Cie des Produits Chimiques et Raffineries de Berre à raison d’une action Berre pour 5 actions Terres Rares, et l’assemblée du 28 mai 1937 a décidé une nouvelle répartition dans les mêmes conditions."
    },
    {
      "amount": "2.750.000",
      "currency": "Franc",
      "infodate": "1934-06-26",
      "source": "annuaire_df_1945",
      "comments": "Capital : 15 mildious de francs, divise en 37.500 actions de 100 fr. et 22.500 actions de 500 fr. entièrement libérées. A l’origine, 2 millions en 4.000 actions de 500 francs, porté en 1919 à 2.750.000 francs par l’émission en 7.500 actions de 100 francs. En même temps, les actions anciennes ont, été divisées en titres de 100 francs, et le capital se trouvait porté en juin 1932 à 3.750.000 francs par la création de 5.000 actions A, remises à la iSociété Nord et Alpes avec 500.000 francs espèces en rémunération de son apport. L’assemblée du 26 juin 1934 a décidé la distribution aux actionnaires des 7.500 actions Produits Chimiques et Raffineries de Berre qu’elle avait en portefeuille, à raison d’une action Raffineries de Berre pour 5 Terres Rares (coupon n° 5). L’assemblée du 12 juin 1936 a décidé la répartition gratuite de 7.500 actions anciennes de la Cie des Produits Chimiques et Raffineries de Berre à raison d’une action Berre pour cinq actions Terres Rares, et l’assemblée du 28 mai 1937 a décidé une nouvelle répartition dans les mêmes conditions. Porté en 1942 à 15 millions par l’émission à 650 francs de 22.500 actions de 500 francs (3 nouvelles pour 5 anciennes)."
    },
    {
      "amount": "15.000.000",
      "currency": "Franc",
      "infodate": "1942-01-01",
      "source": "annuaire_df_1945",
      "comments": "Capital : 15 mildious de francs, divise en 37.500 actions de 100 fr. et 22.500 actions de 500 fr. entièrement libérées. A l’origine, 2 millions en 4.000 actions de 500 francs, porté en 1919 à 2.750.000 francs par l’émission en 7.500 actions de 100 francs. En même temps, les actions anciennes ont, été divisées en titres de 100 francs, et le capital se trouvait porté en juin 1932 à 3.750.000 francs par la création de 5.000 actions A, remises à la iSociété Nord et Alpes avec 500.000 francs espèces en rémunération de son apport. L’assemblée du 26 juin 1934 a décidé la distribution aux actionnaires des 7.500 actions Produits Chimiques et Raffineries de Berre qu’elle avait en portefeuille, à raison d’une action Raffineries de Berre pour 5 Terres Rares (coupon n° 5). L’assemblée du 12 juin 1936 a décidé la répartition gratuite de 7.500 actions anciennes de la Cie des Produits Chimiques et Raffineries de Berre à raison d’une action Berre pour cinq actions Terres Rares, et l’assemblée du 28 mai 1937 a décidé une nouvelle répartition dans les mêmes conditions. Porté en 1942 à 15 millions par l’émission à 650 francs de 22.500 actions de 500 francs (3 nouvelles pour 5 anciennes)."
    },
    {
      "amount": "15.789.300",
      "currency": "Franc",
      "infodate": "1946-01-01",
      "source": "annuaire_df_1948",
      "comments": "Capital : 105.262.000 francs, divisé en 1.052.620 actions de 100 francs. A 1 origine, 2 millions en 4.000 actions de 500 francs, porté en 1919 à 2.750.000. francs,, par l'émission en 7.500 actions de 100 francs. En même temps, les actions anciennes ont été divisées en titres de 100 francs, et le capital se trouvait porté en juin 1932 à 3.750.000 francs par la création de 5.000 actions A, remises à la Société Nord et Alpes avec 500.000 francs espèces en rémunération de son apport. L'assemblée du 26 juin 1934 a décidé la distribution aux actionnaires des 7.500 actions Produits Chimiques et Raffineries de Berre qu'elle avait en portefeuille, à raison d'une action Raffinerie de Berre pour 5 Terres Rares coupon n° 5). L'assemblée du 12 juin 1936 a décidé la répartition gratuite de 7.500 actions anciennes de la Compagnie des , Produits Chimiques et Raffineries de Berre à raison d'une action Berre pour cinq actions Terres Rares, et l'assemblée du 28 mai 1937 a décidé une nouvelle répartition dans les mêmes conditions. Porté en 1942 à 15 millions par l'émission à 650 francs de 22.500 actions de 500 francs (3 nouvelles pour 5 anciennes). Porté en 1946 à 15.789.300 francs pour réglement de l'impôt de solidarité nationale à 21.052.400 francs puis à 42.104.800 francs. Porté en 1947 à 105.262.000 francs par émission' à 110 francs de 631.572 actions nouvelles'\"(3 nouv. pour 2 anc.)."
    },
    {
      "amount": "42.104.800",
      "currency": "Franc",
      "infodate": "1946-06-01",
      "source": "annuaire_df_1948",
      "comments": "Capital : 105.262.000 francs, divisé en 1.052.620 actions de 100 francs. A 1 origine, 2 millions en 4.000 actions de 500 francs, porté en 1919 à 2.750.000. francs,, par l'émission en 7.500 actions de 100 francs. En même temps, les actions anciennes ont été divisées en titres de 100 francs, et le capital se trouvait porté en juin 1932 à 3.750.000 francs par la création de 5.000 actions A, remises à la Société Nord et Alpes avec 500.000 francs espèces en rémunération de son apport. L'assemblée du 26 juin 1934 a décidé la distribution aux actionnaires des 7.500 actions Produits Chimiques et Raffineries de Berre qu'elle avait en portefeuille, à raison d'une action Raffinerie de Berre pour 5 Terres Rares coupon n° 5). L'assemblée du 12 juin 1936 a décidé la répartition gratuite de 7.500 actions anciennes de la Compagnie des , Produits Chimiques et Raffineries de Berre à raison d'une action Berre pour cinq actions Terres Rares, et l'assemblée du 28 mai 1937 a décidé une nouvelle répartition dans les mêmes conditions. Porté en 1942 à 15 millions par l'émission à 650 francs de 22.500 actions de 500 francs (3 nouvelles pour 5 anciennes). Porté en 1946 à 15.789.300 francs pour réglement de l'impôt de solidarité nationale à 21.052.400 francs puis à 42.104.800 francs. Porté en 1947 à 105.262.000 francs par émission' à 110 francs de 631.572 actions nouvelles'\"(3 nouv. pour 2 anc.)."
    },
    {
      "amount": "105.262.000",
      "currency": "Franc",
      "infodate": "1947-01-01",
      "source": "annuaire_df_1948",
      "comments": "Capital : 105.262.000 francs, divisé en 1.052.620 actions de 100 francs. A 1 origine, 2 millions en 4.000 actions de 500 francs, porté en 1919 à 2.750.000. francs,, par l'émission en 7.500 actions de 100 francs. En même temps, les actions anciennes ont été divisées en titres de 100 francs, et le capital se trouvait porté en juin 1932 à 3.750.000 francs par la création de 5.000 actions A, remises à la Société Nord et Alpes avec 500.000 francs espèces en rémunération de son apport. L'assemblée du 26 juin 1934 a décidé la distribution aux actionnaires des 7.500 actions Produits Chimiques et Raffineries de Berre qu'elle avait en portefeuille, à raison d'une action Raffinerie de Berre pour 5 Terres Rares coupon n° 5). L'assemblée du 12 juin 1936 a décidé la répartition gratuite de 7.500 actions anciennes de la Compagnie des , Produits Chimiques et Raffineries de Berre à raison d'une action Berre pour cinq actions Terres Rares, et l'assemblée du 28 mai 1937 a décidé une nouvelle répartition dans les mêmes conditions. Porté en 1942 à 15 millions par l'émission à 650 francs de 22.500 actions de 500 francs (3 nouvelles pour 5 anciennes). Porté en 1946 à 15.789.300 francs pour réglement de l'impôt de solidarité nationale à 21.052.400 francs puis à 42.104.800 francs. Porté en 1947 à 105.262.000 francs par émission' à 110 francs de 631.572 actions nouvelles'\"(3 nouv. pour 2 anc.)."
    },
    {
      "amount": "219.295.000",
      "currency": "Franc",
      "infodate": "1950-01-01",
      "source": "annuaire_df_1953",
      "comments": "CAPITAL : 275.000.000 fr., divisé en 110.000 actions de 2.500 fr. A l'origine, 2.000.000 de fr. ; porté en 1928 à 2.750.000 fr.; en 1932 à 3.750.000 fr.; en 1942 à 15 millions; en février 1946, à 15.789.300 fr.; en mars 1946 à 42.104.800 fr.; en 1947 à 105.262.000 fr. par émission à 110 fr. de 631.752 actions nouvelles (3 nouv. pour 2 anc.). Porté en 1950 à 219.295.000 fr. par élévation du nominal à 208 fr. 1/3 après rachat en Bourse de 4 actions de 100 fr. Titres regroupés à partir du 1er juin 1951. Porté en 1951 à 275 millions par émission à 2.700 fr. de 22.282 actions de 2.500 fr. (1 pour 4)."
    },
    {
      "amount": "275.000.000",
      "currency": "Franc",
      "infodate": "1951-01-01",
      "source": "annuaire_df_1953",
      "comments": "CAPITAL : 275.000.000 fr., divisé en 110.000 actions de 2.500 fr. A l'origine, 2.000.000 de fr. ; porté en 1928 à 2.750.000 fr.; en 1932 à 3.750.000 fr.; en 1942 à 15 millions; en février 1946, à 15.789.300 fr.; en mars 1946 à 42.104.800 fr.; en 1947 à 105.262.000 fr. par émission à 110 fr. de 631.752 actions nouvelles (3 nouv. pour 2 anc.). Porté en 1950 à 219.295.000 fr. par élévation du nominal à 208 fr. 1/3 après rachat en Bourse de 4 actions de 100 fr. Titres regroupés à partir du 1er juin 1951. Porté en 1951 à 275 millions par émission à 2.700 fr. de 22.282 actions de 2.500 fr. (1 pour 4)."
    }
  ],
  "profit_dividends": [
    {
      "first_date": "1930-12-31",
      "last_date": "1951-12-31",
      "obs_count": 111
    }
  ],
  "public_status": false
}