{
  "id": 3091,
  "names": [
    "SOCIETE D'APPLICATIONS INDUSTRIELLES",
    "SOCIETE D'APPLICATIONS INDUSTRIELLES (Cie d'Entreprises Electriques)",
    "SOCIETE D'APPLICATIONS INDUSTRIELLES (Cie d'Entreprises électriques)",
    "SOCIÉTÉ D APPLICATIONS INDUSTRIELLES (Compagnie d'entreprises électriques)",
    "SOCIÉTÉ D'APPLICATIONS INDUSTRIELLES ( Cie D'ENTREPRISES ÉLECTRIQUES)",
    "SOCIÉTÉ D'APPLICATIONS INDUSTRIELLES (CIE D'ENTREPRISES ÉLECTRIQUES)",
    "SOCIÉTÉ D'APPLICATIONS INDUSTRIELLES (Cie D'ENTREPRISES ÉLECTRIQUES)",
    "SOCIÉTÉ D'APPLICATIONS INDUSTRIELLES (Cie d'Entreprises électriques)",
    "SOCIÉTÉ D'APPLICATIONS INDUSTRIELLES (Compagnie d'entreprises électriques)",
    "SOCIÉTÉ D'APPLICATIONS INDUSTRIELLES (C“ D'ENTREPRISES ÉLECTRIQUES)",
    "SOCIÉTÉ D'APPLICATIONS INDUSTRIELLES CIE D'ENTREPRISES ÉLECTRIQUES",
    "Société d'Applications industrielles",
    "Société d'applications industrielles (compagnie d'entreprises électriques)",
    "Sociétés d'Applications industrielles (compagnie d'entreprises électriques)",
    "UNION FINANCIERE POUR L'INDUSTRIE ET L'EQUIPEMENT",
    "Union Financière pour l'Industrie et l'Equipement U.F.I.E."
  ],
  "name": "SOCIÉTÉ D'APPLICATIONS INDUSTRIELLES (Cie d'Entreprises électriques)",
  "balance_sheets": [
    {
      "start_date": "1911-12-31",
      "source": "Annuaire Desfossés 1912",
      "page": "549"
    },
    {
      "start_date": "1913-06-30",
      "source": "Annuaire Desfossés 1914",
      "page": "598"
    },
    {
      "start_date": "1916-06-30",
      "source": "Annuaire Desfossés 1917",
      "page": "536"
    },
    {
      "start_date": "1919-06-30",
      "source": "Annuaire Desfossés 1920",
      "page": "552"
    },
    {
      "start_date": "1922-06-30",
      "source": "Annuaire Desfossés 1923",
      "page": "601"
    },
    {
      "start_date": "1924-06-30",
      "source": "Annuaire Desfossés 1925",
      "page": "660"
    },
    {
      "start_date": "1926-06-30",
      "source": "Annuaire Desfossés 1927",
      "page": "519"
    },
    {
      "start_date": "1927-06-30",
      "source": "Annuaire Desfossés 1929",
      "page": "544"
    },
    {
      "start_date": "1929-06-30",
      "source": "Annuaire Desfossés 1931",
      "page": "557"
    },
    {
      "start_date": "1932-06-30",
      "source": "Annuaire Desfossés 1933",
      "page": "578"
    },
    {
      "start_date": "1933-06-30",
      "source": "Annuaire Desfossés 1937",
      "page": "771"
    },
    {
      "start_date": "1934-06-30",
      "source": "Annuaire Desfossés 1937",
      "page": "771"
    },
    {
      "start_date": "1935-06-30",
      "source": "Annuaire Desfossés 1937",
      "page": "771"
    },
    {
      "start_date": "1936-06-30",
      "source": "Annuaire Desfossés 1940",
      "page": null
    },
    {
      "start_date": "1937-06-30",
      "source": "Annuaire Desfossés 1940",
      "page": null
    },
    {
      "start_date": "1938-06-30",
      "source": "Annuaire Desfossés 1940",
      "page": null
    },
    {
      "start_date": "1939-06-30",
      "source": "Annuaire Desfossés 1945",
      "page": "1426"
    },
    {
      "start_date": "1941-12-31",
      "source": "Annuaire Desfossés 1945",
      "page": "1426"
    },
    {
      "start_date": "1942-12-31",
      "source": "Annuaire Desfossés 1945",
      "page": "1426"
    },
    {
      "start_date": "1943-12-31",
      "source": "Annuaire Desfossés 1945",
      "page": "1426"
    },
    {
      "start_date": "1944-12-31",
      "source": "Annuaire Desfossés 1948",
      "page": "1546"
    },
    {
      "start_date": "1945-12-31",
      "source": "Annuaire Desfossés 1948",
      "page": "1546"
    },
    {
      "start_date": "1946-12-31",
      "source": "Annuaire Desfossés 1948",
      "page": "1546"
    },
    {
      "start_date": "1947-12-31",
      "source": "Annuaire Desfossés 1953",
      "page": "295"
    },
    {
      "start_date": "1948-12-31",
      "source": "Annuaire Desfossés 1953",
      "page": "295"
    },
    {
      "start_date": "1949-12-31",
      "source": "Annuaire Desfossés 1953",
      "page": "295"
    },
    {
      "start_date": "1950-12-31",
      "source": "Annuaire Desfossés 1953",
      "page": "295"
    },
    {
      "start_date": "1951-12-31",
      "source": "Annuaire Desfossés 1953",
      "page": "295"
    }
  ],
  "balance_sheets_stats": {
    "start_date": "1911-12-31",
    "end_date": "1951-12-31"
  },
  "locations_stats": {
    "start_date": "1903-01-01",
    "end_date": "1953-12-31"
  },
  "locations": {
    "Siège social": [
      {
        "location_types_id": 1,
        "location_type": "Siège social",
        "address": "Rue la fayette, 20",
        "city": "Paris",
        "district": "Paris",
        "country": "France",
        "in_yearbook_from": 1903,
        "in_yearbook_to": 1903
      },
      {
        "location_types_id": 1,
        "location_type": "Siège social",
        "address": "Rue pillet-will, 8",
        "city": "Paris",
        "district": "Paris",
        "country": "France",
        "in_yearbook_from": 1908,
        "in_yearbook_to": 1912
      },
      {
        "location_types_id": 1,
        "location_type": "Siège social",
        "address": "Rue saint lazare, 94",
        "city": "Paris",
        "district": "Paris",
        "country": "France",
        "in_yearbook_from": 1917,
        "in_yearbook_to": 1927
      },
      {
        "location_types_id": 1,
        "location_type": "Siège social",
        "address": "Rue st-lazare, 94",
        "city": "Paris",
        "district": "Paris",
        "country": "France",
        "in_yearbook_from": 1930,
        "in_yearbook_to": 1930
      },
      {
        "location_types_id": 1,
        "location_type": "Siège social",
        "address": "Rue paul-cézanne, 2",
        "city": "Paris",
        "district": "Paris",
        "country": "France",
        "in_yearbook_from": 1933,
        "in_yearbook_to": 1940
      },
      {
        "location_types_id": 1,
        "location_type": "Siège social",
        "address": "Avenue victor-emmanuel-iii, 61",
        "city": "Paris",
        "district": "Paris",
        "country": "France",
        "in_yearbook_from": 1945,
        "in_yearbook_to": 1945
      },
      {
        "location_types_id": 1,
        "location_type": "Siège social",
        "address": "Rue de téhéran, 21",
        "city": "Paris",
        "district": "Paris",
        "country": "France",
        "in_yearbook_from": 1948,
        "in_yearbook_to": 1948
      },
      {
        "location_types_id": 1,
        "location_type": "Siège social",
        "address": "Rue cortambert, 45",
        "city": "Paris",
        "district": "Paris",
        "country": "France",
        "in_yearbook_from": 1953,
        "in_yearbook_to": 1953
      }
    ]
  },
  "persons": [
    {
      "persons_count": 7,
      "yearbook": "Annuaire de la Compagnie des Agents de Change 1903",
      "source": "annuaire_cac_1903",
      "page": "1514"
    },
    {
      "persons_count": 7,
      "yearbook": "Annuaire de la Compagnie des Agents de Change 1908",
      "source": "annuaire_cac_1908",
      "page": "1333"
    },
    {
      "persons_count": 11,
      "yearbook": "Annuaire Desfossés 1912",
      "source": "annuaire_df_1912",
      "page": "549"
    },
    {
      "persons_count": 3,
      "yearbook": "Annuaire Desfossés 1917",
      "source": "annuaire_df_1917",
      "page": "536"
    },
    {
      "persons_count": 7,
      "yearbook": "Annuaire Desfossés 1923",
      "source": "annuaire_df_1923",
      "page": "601"
    },
    {
      "persons_count": 7,
      "yearbook": "Annuaire Desfossés 1927",
      "source": "annuaire_df_1927",
      "page": "519"
    },
    {
      "persons_count": 17,
      "yearbook": "Annuaire Desfossés 1933",
      "source": "annuaire_df_1933",
      "page": "578"
    },
    {
      "persons_count": 16,
      "yearbook": "Annuaire Desfossés 1940",
      "source": "annuaire_df_1940",
      "page": null
    },
    {
      "persons_count": 5,
      "yearbook": "Annuaire Desfossés 1945",
      "source": "annuaire_df_1945",
      "page": "1426"
    },
    {
      "persons_count": 9,
      "yearbook": "Annuaire Desfossés 1948",
      "source": "annuaire_df_1948",
      "page": "1546"
    },
    {
      "persons_count": 16,
      "yearbook": "Annuaire Desfossés 1953",
      "source": "annuaire_df_1953",
      "page": "295"
    }
  ],
  "persons_stats": {
    "persons_count": 76,
    "start_date": "1903-01-01",
    "end_date": "1953-12-31"
  },
  "yearbooks_ocrs": [
    {
      "source": "annuaire_cac_1903",
      "yearbook": "Annuaire de la Compagnie des Agents de Change 1903",
      "page": "1514"
    },
    {
      "source": "annuaire_cac_1908",
      "yearbook": "Annuaire de la Compagnie des Agents de Change 1908",
      "page": "1333"
    },
    {
      "source": "annuaire_df_1912",
      "yearbook": "Annuaire Desfossés 1912",
      "page": "549"
    },
    {
      "source": "annuaire_df_1914",
      "yearbook": "Annuaire Desfossés 1914",
      "page": "598"
    },
    {
      "source": "annuaire_df_1917",
      "yearbook": "Annuaire Desfossés 1917",
      "page": "536"
    },
    {
      "source": "annuaire_df_1920",
      "yearbook": "Annuaire Desfossés 1920",
      "page": "552"
    },
    {
      "source": "annuaire_df_1923",
      "yearbook": "Annuaire Desfossés 1923",
      "page": "601"
    },
    {
      "source": "annuaire_df_1925",
      "yearbook": "Annuaire Desfossés 1925",
      "page": "660"
    },
    {
      "source": "annuaire_df_1927",
      "yearbook": "Annuaire Desfossés 1927",
      "page": "519"
    },
    {
      "source": "annuaire_df_1929",
      "yearbook": "Annuaire Desfossés 1929",
      "page": "544"
    },
    {
      "source": "annuaire_df_1931",
      "yearbook": "Annuaire Desfossés 1931",
      "page": "557"
    },
    {
      "source": "annuaire_df_1933",
      "yearbook": "Annuaire Desfossés 1933",
      "page": "578"
    },
    {
      "source": "annuaire_df_1937",
      "yearbook": "Annuaire Desfossés 1937",
      "page": "771"
    },
    {
      "source": "annuaire_df_1940",
      "yearbook": "Annuaire Desfossés 1940",
      "page": null
    },
    {
      "source": "annuaire_df_1945",
      "yearbook": "Annuaire Desfossés 1945",
      "page": "1426"
    },
    {
      "source": "annuaire_df_1948",
      "yearbook": "Annuaire Desfossés 1948",
      "page": "1546"
    },
    {
      "source": "annuaire_df_1953",
      "yearbook": "Annuaire Desfossés 1953",
      "page": "295"
    }
  ],
  "juridical_status": [
    {
      "juridical_status": "Société Anonyme (Libre)",
      "start_date": "1896-07-10",
      "end_date": "1946-07-10",
      "comments": "Société anonyme formée suivant acte reçu par Me Portefin, notaire à Paris, le 10 juillet 1896, et délînitivement constituée le 31 du même mois; modifiée par décisions des Assemblées générales en date des 7 juin et 13 juillet 1899 et 21 novembre 1904.",
      "source": "annuaire_cac_1908"
    },
    {
      "juridical_status": "Société Anonyme (Libre)",
      "start_date": "1946-07-11",
      "end_date": "1996-07-10",
      "comments": "Société anonyme française, constituée le 31 juillet 1896, pour une durée expirant le 10 juilet 1996.",
      "source": "annuaire_df_1937"
    }
  ],
  "equity_capital": [
    {
      "amount": "1.000.000",
      "currency": "Franc",
      "infodate": "1896-07-31",
      "source": "annuaire_cac_1903",
      "comments": "Fixé primitivement a un million de francs divisé en 200 actions de 5000 francs,"
    },
    {
      "amount": "5.000.000",
      "currency": "Franc",
      "infodate": "1899-01-01",
      "source": "annuaire_cac_1903",
      "comments": "le capital a été porté en 1899 à 5 millions et divisé en 10,000 actions de 500 francs chacune, entièrement libérées et au porteur."
    },
    {
      "amount": "2.500.000",
      "currency": "Franc",
      "infodate": "1909-01-01",
      "source": "annuaire_df_1912",
      "comments": "5 millions de francs, divisé en 20.000 actions de 250 francs. A l’origine 1 million de francs, représenté par 2.000 actions de 500 francs, porté en 1899 à 5 millions, puis réduit en 1909 à 2.500.000 francs par l’abaissement de moitié de la valeur nominale de chaque action et reporté en même'temps au chiffre actuel."
    },
    {
      "amount": "5.000.000",
      "currency": "Franc",
      "infodate": "1909-01-01",
      "source": "annuaire_df_1912",
      "comments": " 5 millions de francs, divisé en 20.000 actions de 250 francs. A l’origine 1 million de francs, représenté par 2.000 actions de 500 francs, porté en 1899 à 5 millions, puis réduit en 1909 à 2.500.000 francs par l’abaissement de moitié de la valeur nominale de chaque action et reporté en même'temps au chiffre actuel."
    },
    {
      "amount": "10.000.000",
      "currency": "Franc",
      "infodate": "1912-01-01",
      "source": "annuaire_df_1917",
      "comments": "10 millions>de francs, divisé en 40.000 actions de 250 francs. A l’origine 1 million de francs, représenté par 2.000 actions de 500 francs, porté en 1899 ÎL 5 millions, puis réduit en 1909 à 2.500.000 francs par l’abaissement de moitié de la valeur nominale de chaque action et reporté en même temps à 5 millions ; élevé enfin en 1912 au chiffre actuel."
    },
    {
      "amount": "20.000.000",
      "currency": "Franc",
      "infodate": "1919-01-01",
      "source": "annuaire_df_1923",
      "comments": "16 millions de francs, divisé en 160.000 actions de 100 francs. A l’origine 1 million de francs, représenté par 2.000 actions de -500 francs, porté en 1899 à 5 millions, puis réduit en 1909 à 2.500.000 francs par l’abaissement de moitié de la valeur nominale de chaque action et reporté en même temps à 5 millions ; élevé en 1912 à 10 millions et, en 1919, à 20 millions, ramené en 1923 à 16 millions par l’échange d’une action de 250 francs contre deux actions de 100 francs."
    },
    {
      "amount": "16.000.000",
      "currency": "Franc",
      "infodate": "1923-01-01",
      "source": "annuaire_df_1923",
      "comments": "16 millions de francs, divisé en 160.000 actions de 100 francs. A l’origine 1 million de francs, représenté par 2.000 actions de -500 francs, porté en 1899 à 5 millions, puis réduit en 1909 à 2.500.000 francs par l’abaissement de moitié de la valeur nominale de chaque action et reporté en même temps à 5 millions ; élevé en 1912 à 10 millions et, en 1919, à 20 millions, ramené en 1923 à 16 millions par l’échange d’une action de 250 francs contre deux actions de 100 francs."
    },
    {
      "amount": "24.000.000",
      "currency": "Franc",
      "infodate": "1923-01-02",
      "source": "annuaire_df_1933",
      "comments": "47.800.000 francs, divisé en 478.000 actions de actions de 100 francs. A l’origine 1 million de francs, porté en 1899 à 5 millions, puis réduit en 1909 à 2.500.000 francs et reporté en même temps à 5 millions; élevé en 1912 à 10 millions et, en 1919, à 20 millions, ramené en 1923 à 16 millions, porté à 24 millions en à 30 millions en décembre 1924, en juin 1929 à 40 millions par la création 100.000\tactions nouvelles de 100 francs, attribuées gratuitement aux anciens actionnaires (1 pour 3. Coupon n° 24), et en 1930 à 47.800.000 francs, par la creation de 78.000 actions, dont 43.910 remises à l’Union Houillère et Electrique et 34.090 la Provinciale d’Electricité.\n"
    },
    {
      "amount": "30.000.000",
      "currency": "Franc",
      "infodate": "1924-12-01",
      "source": "annuaire_df_1927",
      "comments": " au chiffre actuel en décembre 1924 par émission de 60.000 actions nouvelles (1 nouvelle pour 8 anciennes).30 millions de Francs divisé en 300000 actions de 100 francs"
    },
    {
      "amount": "40.000.000",
      "currency": "Franc",
      "infodate": "1929-06-01",
      "source": "annuaire_df_1933",
      "comments": "47.800.000 francs, divisé en 478.000 actions de actions de 100 francs. A l’origine 1 million de francs, porté en 1899 à 5 millions, puis réduit en 1909 à 2.500.000 francs et reporté en même temps à 5 millions; élevé en 1912 à 10 millions et, en 1919, à 20 millions, ramené en 1923 à 16 millions, porté à 24 millions en à 30 millions en décembre 1924, en juin 1929 à 40 millions par la création 100.000\tactions nouvelles de 100 francs, attribuées gratuitement aux anciens actionnaires (1 pour 3. Coupon n° 24), et en 1930 à 47.800.000 francs, par la creation de 78.000 actions, dont 43.910 remises à l’Union Houillère et Electrique et 34.090 la Provinciale d’Electricité.\n"
    },
    {
      "amount": "47.800.000",
      "currency": "Franc",
      "infodate": "1930-01-01",
      "source": "annuaire_df_1933",
      "comments": "47.800.000 francs, divisé en 478.000 actions de actions de 100 francs. A l’origine 1 million de francs, porté en 1899 à 5 millions, puis réduit en 1909 à 2.500.000 francs et reporté en même temps à 5 millions; élevé en 1912 à 10 millions et, en 1919, à 20 millions, ramené en 1923 à 16 millions, porté à 24 millions en à 30 millions en décembre 1924, en juin 1929 à 40 millions par la création 100.000\tactions nouvelles de 100 francs, attribuées gratuitement aux anciens actionnaires (1 pour 3. Coupon n° 24), et en 1930 à 47.800.000 francs, par la creation de 78.000 actions, dont 43.910 remises à l’Union Houillère et Electrique et 34.090 la Provinciale d’Electricité."
    },
    {
      "amount": "48.000.000",
      "currency": "Franc",
      "infodate": "1944-01-01",
      "source": "annuaire_df_1945",
      "comments": "50.000.000 francs, divisé en 500.000 actions de 100 francs. A l’origine 1 million de francs, porté en 1899 à 5 millions, puis réduit en 1909 à 2 millions 500.000 francs et reporté en même temps à 5 millions, divisé en 20.000 actions de 250 francs ; élevé en 1912 à 10 millions et, en 1919, à 20 millions, ramené en 1923 à 16 millions, par l’échange des 80.000 actions de 250 fr. contre 160.000 actions de 100 fivancs, porté à 24 millions en 1923, à 30 millions en décembre 1924, en juin 1929 à 40 millions par la distribution d’actions gratuites ; en 1930 à 47.800.000 francs, par la création de 78.000 actions d’apport remises à l’Union Houillère et Electrique et à la Provinciale d’Electricité ; en 1944 à 48 millions par .l’incorporation de réserves et la création de 2.000 actions distribuées gratuitement aux propriétaires des droits de souscription d’origine pour .le r.achat et l’annulation de ces droits ; en janvier 1945 à 50 millions (émission à 500 francs).\n"
    },
    {
      "amount": "50.000.000",
      "currency": "Franc",
      "infodate": "1945-01-01",
      "source": "annuaire_df_1945",
      "comments": "50.000.000 francs, divisé en 500.000 actions de 100 francs. A l’origine 1 million de francs, porté en 1899 à 5 millions, puis réduit en 1909 à 2 millions 500.000 francs et reporté en même temps à 5 millions, divisé en 20.000 actions de 250 francs ; élevé en 1912 à 10 millions et, en 1919, à 20 millions, ramené en 1923 à 16 millions, par l’échange des 80.000 actions de 250 fr. contre 160.000 actions de 100 fivancs, porté à 24 millions en 1923, à 30 millions en décembre 1924, en juin 1929 à 40 millions par la distribution d’actions gratuites ; en 1930 à 47.800.000 francs, par la création de 78.000 actions d’apport remises à l’Union Houillère et Electrique et à la Provinciale d’Electricité ; en 1944 à 48 millions par .l’incorporation de réserves et la création de 2.000 actions distribuées gratuitement aux propriétaires des droits de souscription d’origine pour .le r.achat et l’annulation de ces droits ; en janvier 1945 à 50 millions (émission à 500 francs)."
    },
    {
      "amount": "52.631.200",
      "currency": "Franc",
      "infodate": "1946-01-01",
      "source": "annuaire_df_1948",
      "comments": " Capital social : 52.631.200 francs, divisé en .526.312 actions de 100 francs. A d'origine 1 million de francs, porté en 1899 à 5 millions, puis réduit en 1909 à 2 millions 500.000 francs et reporté en même temps à 5 millions, divisé en 20.#00 actions de 250 francs; élevé en 1912 à 10 millions et, en 1919, à 20 millions, ramené en .1923 à 16 millions, par l'échange des 80.000 actions de 250 fr. contre 160.000 actions de 100 francs, porté \\ 24 millions en 1923, à 30 millions en décembre 1924, en juin 1929 à 40 millions par da distribution d'actions gratuites; en 1930 à 47.800.000 francs, par la création de 78.000 actions d'apport remises à l'Union Houillère et Electrique et à la Provinciale d'Electricité ; en 1944 à 48 millions par l'incorporation de réserves et la création de 2.000 actions distribuées gratuitement aux propriétaires des droits de souscription d'origine pour de. rachat et l'annulation de ces droits; en janvier 1945 à 50 millions (émission à 500 francs). Porté en 1946 à 52.631.200 francs pour réglement de d'impôt de solidarité nationale."
    },
    {
      "amount": "180.000.000",
      "currency": "Franc",
      "infodate": "1950-01-01",
      "source": "annuaire_df_1953",
      "comments": "287.500.000 fr., divisé en 115.000 actions de 2.500' fr, A l'origine, 1 million. Porté en 1899 à 5 millions. Ramené en 1908 à 2.500.000. Porté en 1909 à 5 millions, en 1912 à 10 millions, en 1919 à 20 millions. Ramené en 1923 à 16 millions. Porté en 1924 à 24 millions, par émission de 80.000 actions de 100 fr. Porté en 1925 à 30 millions par émission de 60.000 actions de 100 fr. Porté en 1929 à 40 millions par la création de 100.000 actions gratuites (1 nouv. pour 3 anc.). Porté en 1930 à 47.800.000, par la création de 78.000 actions d'.appor'c de 100 fr. Porté en 1944 à 48 millions par la création de 2.000 actions gratuites de 100 fr. attribuées aux souscripteurs d'origine en échange de l'abandon de leur privilège de souscription. Porté en 1945 à 50 millions par émission de 20.00© actions de 100 fr. Porté en 1946 à 52.631.200 par la création de 26.312 actions de 100 fr. pour 1 règlement de l'impôt de solidarité. Ramené en 1947 à. 52 millions par ,1e rachat et l'annulation de 6.312 actions sur celles qui avaient été remises en règlement de l'impôt de solidarité. Porté en 1950 à 108 millions par la création de 560.000 actions de 100 fr. attribuées à L'Union Financière pour l'Industrie et l'équipement en rémunération de son apport-fusion. Porté en 1950 à 180 millions, par l'élévation du nominal des actions à 166. fr. 66. Les actions ont été regroupées en titres de 2.500 fr., puis en 1951 le capital a été porté à 2S7.500.000 fr. par création de 43.000 actions de 2.500 fr. attribuées à l'Union d'Electricité en rémunération d'apports.\t..."
    },
    {
      "amount": "108.000.000",
      "currency": "Franc",
      "infodate": "1950-01-01",
      "source": "annuaire_df_1953",
      "comments": "287.500.000 fr., divisé en 115.000 actions de 2.500' fr, A l'origine, 1 million. Porté en 1899 à 5 millions. Ramené en 1908 à 2.500.000. Porté en 1909 à 5 millions, en 1912 à 10 millions, en 1919 à 20 millions. Ramené en 1923 à 16 millions. Porté en 1924 à 24 millions, par émission de 80.000 actions de 100 fr. Porté en 1925 à 30 millions par émission de 60.000 actions de 100 fr. Porté en 1929 à 40 millions par la création de 100.000 actions gratuites (1 nouv. pour 3 anc.). Porté en 1930 à 47.800.000, par la création de 78.000 actions d'.appor'c de 100 fr. Porté en 1944 à 48 millions par la création de 2.000 actions gratuites de 100 fr. attribuées aux souscripteurs d'origine en échange de l'abandon de leur privilège de souscription. Porté en 1945 à 50 millions par émission de 20.00© actions de 100 fr. Porté en 1946 à 52.631.200 par la création de 26.312 actions de 100 fr. pour 1 règlement de l'impôt de solidarité. Ramené en 1947 à. 52 millions par ,1e rachat et l'annulation de 6.312 actions sur celles qui avaient été remises en règlement de l'impôt de solidarité. Porté en 1950 à 108 millions par la création de 560.000 actions de 100 fr. attribuées à L'Union Financière pour l'Industrie et l'équipement en rémunération de son apport-fusion. Porté en 1950 à 180 millions, par l'élévation du nominal des actions à 166. fr. 66. Les actions ont été regroupées en titres de 2.500 fr., puis en 1951 le capital a été porté à 2S7.500.000 fr. par création de 43.000 actions de 2.500 fr. attribuées à l'Union d'Electricité en rémunération d'apports.\t..."
    },
    {
      "amount": "287.500.000",
      "currency": "Franc",
      "infodate": "1951-01-01",
      "source": "annuaire_df_1953",
      "comments": "287.500.000 fr., divisé en 115.000 actions de 2.500' fr, A l'origine, 1 million. Porté en 1899 à 5 millions. Ramené en 1908 à 2.500.000. Porté en 1909 à 5 millions, en 1912 à 10 millions, en 1919 à 20 millions. Ramené en 1923 à 16 millions. Porté en 1924 à 24 millions, par émission de 80.000 actions de 100 fr. Porté en 1925 à 30 millions par émission de 60.000 actions de 100 fr. Porté en 1929 à 40 millions par la création de 100.000 actions gratuites (1 nouv. pour 3 anc.). Porté en 1930 à 47.800.000, par la création de 78.000 actions d'.appor'c de 100 fr. Porté en 1944 à 48 millions par la création de 2.000 actions gratuites de 100 fr. attribuées aux souscripteurs d'origine en échange de l'abandon de leur privilège de souscription. Porté en 1945 à 50 millions par émission de 20.00© actions de 100 fr. Porté en 1946 à 52.631.200 par la création de 26.312 actions de 100 fr. pour 1 règlement de l'impôt de solidarité. Ramené en 1947 à. 52 millions par ,1e rachat et l'annulation de 6.312 actions sur celles qui avaient été remises en règlement de l'impôt de solidarité. Porté en 1950 à 108 millions par la création de 560.000 actions de 100 fr. attribuées à L'Union Financière pour l'Industrie et l'équipement en rémunération de son apport-fusion. Porté en 1950 à 180 millions, par l'élévation du nominal des actions à 166. fr. 66. Les actions ont été regroupées en titres de 2.500 fr., puis en 1951 le capital a été porté à 2S7.500.000 fr. par création de 43.000 actions de 2.500 fr. attribuées à l'Union d'Electricité en rémunération d'apports.\t..."
    }
  ],
  "profit_dividends": [
    {
      "first_date": "1897-06-30",
      "last_date": "1951-12-31",
      "obs_count": 288
    }
  ],
  "public_status": false,
  "stock_exchanges": {
    "1": {
      "id": 1,
      "name": "Paris (Official List)",
      "listings_stats": {
        "start_date": "1901-05-03"
      },
      "spot_prices_stats": {
        "start_date": "1910-02-01",
        "end_date": "1976-12-31"
      }
    }
  },
  "securities": {
    "6171": {
      "id": 6171,
      "name": "Applications Industrielles, act. 100 fr., t. p. (c. 16 att.)",
      "share_type": {
        "id": 1,
        "name": "Stock (Action)"
      },
      "types": [
        {
          "start_date": "1912-12-14",
          "end_date": "3999-12-31",
          "id": 18,
          "name": "Action",
          "stock_group": "S"
        }
      ],
      "start_date": "1912-12-14",
      "end_date": "3999-12-31",
      "prices_from": "1912-12-14",
      "prices_to": "1952-01-02",
      "is_mainstock": 1,
      "prices_count": 1255
    },
    "9328": {
      "id": 9328,
      "name": "Applications Industrielles, act. 100 fr., t.p. (dr. répartit. et c. 24 att.)",
      "share_type": {
        "id": 1,
        "name": "Stock (Action)"
      },
      "types": [
        {
          "start_date": "1929-07-01",
          "end_date": "3999-12-31",
          "id": 11,
          "name": "Action ordinaire",
          "stock_group": "S"
        }
      ],
      "start_date": "1929-07-01",
      "end_date": "3999-12-31",
      "prices_from": "1929-07-01",
      "prices_to": "1929-09-30",
      "is_mainstock": 0,
      "prices_count": 7
    },
    "16037": {
      "id": 16037,
      "name": "Union financiere pour l'industrie et l'Equipement, promesses (jce 1/1/60)",
      "share_type": {
        "id": 1,
        "name": "Stock (Action)"
      },
      "types": [
        {
          "start_date": "1959-12-07",
          "end_date": "3999-12-31",
          "id": 27,
          "name": "Promesse d'action",
          "stock_group": "S"
        }
      ],
      "start_date": "1959-12-07",
      "end_date": "3999-12-31",
      "prices_from": "1959-12-07",
      "prices_to": "1960-06-15",
      "is_mainstock": 0,
      "prices_count": 14
    },
    "17783": {
      "id": 17783,
      "name": "Union Financière pour l'Industrie et l'Equipement Act. (n°150001 à 180000) (c.16 étoilé att.)",
      "share_type": {
        "id": 1,
        "name": "Stock (Action)"
      },
      "types": [
        {
          "start_date": "1962-08-06",
          "end_date": "3999-12-31",
          "id": 27,
          "name": "Promesse d'action",
          "stock_group": "S"
        }
      ],
      "start_date": "1962-08-06",
      "end_date": "3999-12-31",
      "prices_from": "1962-08-17",
      "prices_to": "1963-06-17",
      "is_mainstock": 0,
      "prices_count": 21
    },
    "20977": {
      "id": 20977,
      "name": "Européenne d'Accumulateurs (Cie), act (c. 4 att.)",
      "share_type": {
        "id": 1,
        "name": "Stock (Action)"
      },
      "types": [
        {
          "start_date": "1972-07-04",
          "end_date": "3999-12-31",
          "id": 18,
          "name": "Action",
          "stock_group": "S"
        }
      ],
      "start_date": "1972-07-04",
      "end_date": "3999-12-31",
      "prices_from": "1972-07-04",
      "prices_to": "1976-12-31",
      "is_mainstock": 0,
      "prices_count": 111
    },
    "21712": {
      "id": 21712,
      "name": "Union Financière pour l'Industrie et l'Equipement, act. 2500 fr., t. p.",
      "share_type": {
        "id": 1,
        "name": "Stock (Action)"
      },
      "types": [
        {
          "start_date": "1951-01-02",
          "end_date": "3999-12-31",
          "id": 18,
          "name": "Action",
          "stock_group": "S"
        }
      ],
      "start_date": "1951-01-02",
      "end_date": "3999-12-31",
      "prices_from": "1951-01-02",
      "prices_to": "1969-01-15",
      "is_mainstock": 0,
      "prices_count": 469
    },
    "40539": {
      "id": 40539,
      "name": "Société d'Applications Industrielles (Cie d'Entreprises électriques)",
      "share_type": {
        "id": 1,
        "name": "Stock (Action)"
      },
      "types": [
        {
          "start_date": "1000-01-01",
          "end_date": "3999-12-31",
          "id": 1,
          "name": "UNKNOWN",
          "stock_group": "U"
        }
      ],
      "start_date": "1000-01-01",
      "end_date": "3999-12-31",
      "prices_from": "1910-02-01",
      "prices_to": "1912-11-30",
      "is_mainstock": 0,
      "prices_count": 12
    },
    "100438": {
      "id": 100438,
      "name": "Act. APPLICATIONS INDUSTRIELLES (droit et coupon 41 ou bon de droit)",
      "share_type": {
        "id": 4,
        "name": "Rights (Droits)"
      },
      "types": [
        {
          "start_date": "1944-12-20",
          "end_date": "1945-01-18",
          "id": 501,
          "name": "Droit de souscription",
          "stock_group": "R"
        }
      ],
      "start_date": "1944-12-20",
      "end_date": "1945-01-18",
      "prices_from": "1944-12-20",
      "prices_to": "1945-01-15",
      "is_mainstock": 0,
      "prices_count": 4
    },
    "101888": {
      "id": 101888,
      "name": "Act. Applications Industrielles (dr. Et coupon 19)",
      "share_type": {
        "id": 4,
        "name": "Rights (Droits)"
      },
      "types": [
        {
          "start_date": "1924-12-04",
          "end_date": "1924-12-26",
          "id": 501,
          "name": "Droit de souscription",
          "stock_group": "R"
        }
      ],
      "start_date": "1924-12-04",
      "end_date": "1924-12-26",
      "prices_from": "1924-12-04",
      "prices_to": "1924-12-04",
      "is_mainstock": 0,
      "prices_count": 0
    },
    "102935": {
      "id": 102935,
      "name": "Act. Société d'Applications Industrielles (droit et coupon 31). Pour 24 actions, 1 action acquise à 285 fr",
      "share_type": {
        "id": 4,
        "name": "Rights (Droits)"
      },
      "types": [
        {
          "start_date": "1934-12-06",
          "end_date": "1934-12-22",
          "id": 501,
          "name": "Droit de souscription",
          "stock_group": "R"
        }
      ],
      "start_date": "1934-12-06",
      "end_date": "1934-12-22",
      "prices_from": null,
      "prices_to": null,
      "is_mainstock": 0,
      "prices_count": 0
    },
    "103031": {
      "id": 103031,
      "name": "Act. Sté d'Applications Industrielles (droit et coupon 24). Pour 3 act. anciennes, 1 act. nouvelle attribuée gratuitement.",
      "share_type": {
        "id": 4,
        "name": "Rights (Droits)"
      },
      "types": [
        {
          "start_date": "1000-01-01",
          "end_date": "1929-09-30",
          "id": 502,
          "name": "Droit d'attribution",
          "stock_group": "R"
        }
      ],
      "start_date": "1000-01-01",
      "end_date": "1929-09-30",
      "prices_from": "1929-07-01",
      "prices_to": "1929-07-01",
      "is_mainstock": 0,
      "prices_count": 1
    },
    "103574": {
      "id": 103574,
      "name": "Actions Sté d'applications Industrielles (dr. Et c. 17)",
      "share_type": {
        "id": 4,
        "name": "Rights (Droits)"
      },
      "types": [
        {
          "start_date": "1923-12-05",
          "end_date": "1923-12-19",
          "id": 501,
          "name": "Droit de souscription",
          "stock_group": "R"
        }
      ],
      "start_date": "1923-12-05",
      "end_date": "1923-12-19",
      "prices_from": "1923-12-05",
      "prices_to": "1923-12-15",
      "is_mainstock": 0,
      "prices_count": 0
    },
    "106319": {
      "id": 106319,
      "name": "Union financière pour l'industrie et l'equipement, Promesses (Jce 1/1/64)",
      "share_type": {
        "id": 1,
        "name": "Stock (Action)"
      },
      "types": [
        {
          "start_date": "1964-02-17",
          "end_date": "1964-05-15",
          "id": 27,
          "name": "Promesse d'action",
          "stock_group": "S"
        }
      ],
      "start_date": "1964-02-17",
      "end_date": "1964-05-15",
      "prices_from": "1964-02-17",
      "prices_to": "1964-05-15",
      "is_mainstock": 0,
      "prices_count": 7
    },
    "106323": {
      "id": 106323,
      "name": "Union financière pour l'industrie et l'equipement, Act. (n 180001 a 240000) (c. 19 att)",
      "share_type": {
        "id": 1,
        "name": "Stock (Action)"
      },
      "types": [
        {
          "start_date": "1964-06-01",
          "end_date": "1964-06-15",
          "id": 11,
          "name": "Action ordinaire",
          "stock_group": "S"
        }
      ],
      "start_date": "1964-06-01",
      "end_date": "1964-06-15",
      "prices_from": "1964-06-01",
      "prices_to": "1964-06-15",
      "is_mainstock": 0,
      "prices_count": 2
    }
  }
}