{
  "id": 11457,
  "names": [
    "SOCIETE ALSACIENNE DES CARBURANTS",
    "SOCIÉTÉ ALSACIENNE DES CARBURANTS",
    "Société Alsacienne des Carburants"
  ],
  "name": "SOCIETE ALSACIENNE DES CARBURANTS",
  "balance_sheets": [
    {
      "start_date": "1937-12-31",
      "source": "Annuaire Desfossés 1945",
      "page": "880"
    },
    {
      "start_date": "1938-12-31",
      "source": "Annuaire Desfossés 1945",
      "page": "880"
    },
    {
      "start_date": "1939-12-31",
      "source": "Annuaire Desfossés 1945",
      "page": "880"
    },
    {
      "start_date": "1944-12-31",
      "source": "Annuaire Desfossés 1948",
      "page": "937"
    },
    {
      "start_date": "1945-12-31",
      "source": "Annuaire Desfossés 1948",
      "page": "937"
    },
    {
      "start_date": "1946-12-31",
      "source": "Annuaire Desfossés 1948",
      "page": "937"
    },
    {
      "start_date": "1947-12-31",
      "source": "Annuaire Desfossés 1948",
      "page": "937"
    }
  ],
  "balance_sheets_stats": {
    "start_date": "1937-12-31",
    "end_date": "1947-12-31"
  },
  "locations_stats": {
    "start_date": "1940-01-01",
    "end_date": "1948-12-31"
  },
  "locations": {
    "Siège social": [
      {
        "location_types_id": 1,
        "location_type": "Siège social",
        "address": "Allée de la robertsau, 32-34",
        "city": "Strasbourg",
        "district": "Bas-Rhin",
        "country": "France",
        "in_yearbook_from": 1940,
        "in_yearbook_to": 1940
      },
      {
        "location_types_id": 1,
        "location_type": "Siège social",
        "address": "Rue saint-dominique, 35",
        "city": "Paris",
        "district": "Paris",
        "country": "France",
        "in_yearbook_from": 1945,
        "in_yearbook_to": 1945
      },
      {
        "location_types_id": 1,
        "location_type": "Siège social",
        "address": "Allée de la robertsau, 32",
        "city": "Strasbourg",
        "district": "Bas-Rhin",
        "country": "France",
        "in_yearbook_from": 1948,
        "in_yearbook_to": 1948
      }
    ],
    "Siège administratif / Bureaux": [
      {
        "location_types_id": 2,
        "location_type": "Siège administratif / Bureaux",
        "address": "Rue roussel, 4",
        "city": "Paris",
        "district": "Paris",
        "country": "France",
        "in_yearbook_from": 1945,
        "in_yearbook_to": 1945
      }
    ],
    "Direction Générale": [
      {
        "location_types_id": 6,
        "location_type": "Direction Générale",
        "address": "Rue léon-jost, 4",
        "city": "Paris",
        "district": "Paris",
        "country": "France",
        "in_yearbook_from": 1948,
        "in_yearbook_to": 1948
      }
    ]
  },
  "persons": [
    {
      "persons_count": 10,
      "yearbook": "Annuaire Desfossés 1940",
      "source": "annuaire_df_1940",
      "page": null
    },
    {
      "persons_count": 9,
      "yearbook": "Annuaire Desfossés 1945",
      "source": "annuaire_df_1945",
      "page": "880"
    },
    {
      "persons_count": 12,
      "yearbook": "Annuaire Desfossés 1948",
      "source": "annuaire_df_1948",
      "page": "937"
    }
  ],
  "persons_stats": {
    "persons_count": 25,
    "start_date": "1940-01-01",
    "end_date": "1948-12-31"
  },
  "yearbooks_ocrs": [
    {
      "source": "annuaire_df_1940",
      "yearbook": "Annuaire Desfossés 1940",
      "page": null
    },
    {
      "source": "annuaire_df_1945",
      "yearbook": "Annuaire Desfossés 1945",
      "page": "880"
    },
    {
      "source": "annuaire_df_1948",
      "yearbook": "Annuaire Desfossés 1948",
      "page": "937"
    }
  ],
  "juridical_status": [
    {
      "juridical_status": "Société Anonyme (Libre)",
      "start_date": "1922-01-01",
      "end_date": "2021-01-01",
      "comments": "Société anonyme française constituée en 1922 pour une durée de 99 ans.",
      "source": "annuaire_df_1940"
    }
  ],
  "equity_capital": [
    {
      "amount": "18.100.000",
      "currency": "Franc",
      "infodate": "1922-01-01",
      "source": "annuaire_df_1940",
      "comments": " Capital: 18.100.000 francs divisé en 181.000 actions de 100 francs. Le Conseil est autorisé à porter le capital à 19.600.000 francs."
    }
  ],
  "profit_dividends": [
    {
      "first_date": "1932-12-31",
      "last_date": "1947-12-31",
      "obs_count": 78
    }
  ],
  "public_status": false
}