{
  "id": 2747,
  "names": [
    "SOCIETE DES CHANTIER ET ATELIERS DE SAINT-NAZAIRE (PENHOET)",
    "SOCIETE DES CHANTIERS ET ATELIERS DE St-NAZAIRE (PENHOET)",
    "SOCIÉTÉ DES CHANTIER ET ATELIERS DE SAINT-NAZAIRE (PENHOET)",
    "SOCIÉTÉ DES CHANTIER ET ATELIERS DE SAINT-NAZAIRE (PENHOËT)",
    "SOCIÉTÉ DES CHANTIERS ET ATELIERS DE SAINT-NAZAIRE (PENHOET)",
    "SOCIÉTÉ DES CHANTIERS ET ATELIERS DE SAINT-NAZAIRE (PENHOËT)",
    "Société des Chantier et Ateliers de Saint-Nazaire (Penhoët)",
    "Société des Chantiers et Ateliers de Saint-Nazaire (Penhoët)"
  ],
  "name": "SOCIÉTÉ DES CHANTIER ET ATELIERS DE SAINT-NAZAIRE (PENHOET)",
  "balance_sheets": [
    {
      "start_date": "1911-12-31",
      "source": "Annuaire Desfossés 1912",
      "page": "673"
    },
    {
      "start_date": "1912-12-31",
      "source": "Annuaire Desfossés 1914",
      "page": "735"
    },
    {
      "start_date": "1916-12-31",
      "source": "Annuaire Desfossés 1917",
      "page": "669"
    },
    {
      "start_date": "1919-12-31",
      "source": "Annuaire Desfossés 1920",
      "page": "733"
    },
    {
      "start_date": "1921-12-31",
      "source": "Annuaire Desfossés 1923",
      "page": "812"
    },
    {
      "start_date": "1923-12-31",
      "source": "Annuaire Desfossés 1925",
      "page": "937"
    },
    {
      "start_date": "1925-12-31",
      "source": "Annuaire Desfossés 1927",
      "page": "749"
    },
    {
      "start_date": "1927-12-31",
      "source": "Annuaire Desfossés 1929",
      "page": "794"
    },
    {
      "start_date": "1929-12-31",
      "source": "Annuaire Desfossés 1931",
      "page": "805"
    },
    {
      "start_date": "1930-12-31",
      "source": "Annuaire Desfossés 1932",
      "page": null
    },
    {
      "start_date": "1931-12-31",
      "source": "Annuaire Desfossés 1933",
      "page": "861"
    },
    {
      "start_date": "1932-12-31",
      "source": "Annuaire Desfossés 1936",
      "page": null
    },
    {
      "start_date": "1933-12-31",
      "source": "Annuaire Desfossés 1937",
      "page": "936"
    },
    {
      "start_date": "1934-12-31",
      "source": "Annuaire Desfossés 1937",
      "page": "936"
    },
    {
      "start_date": "1935-12-31",
      "source": "Annuaire Desfossés 1940",
      "page": null
    },
    {
      "start_date": "1936-12-31",
      "source": "Annuaire Desfossés 1940",
      "page": null
    },
    {
      "start_date": "1937-12-31",
      "source": "Annuaire Desfossés 1940",
      "page": null
    },
    {
      "start_date": "1938-12-31",
      "source": "Annuaire Desfossés 1945",
      "page": "1079"
    },
    {
      "start_date": "1938-12-31",
      "source": "Annuaire Desfossés 1940",
      "page": null
    },
    {
      "start_date": "1941-12-31",
      "source": "Annuaire Desfossés 1945",
      "page": "1079"
    },
    {
      "start_date": "1942-12-31",
      "source": "Annuaire Desfossés 1945",
      "page": "1079"
    },
    {
      "start_date": "1943-12-31",
      "source": "Annuaire Desfossés 1945",
      "page": "1079"
    },
    {
      "start_date": "1944-12-31",
      "source": "Annuaire Desfossés 1948",
      "page": "1155"
    },
    {
      "start_date": "1945-12-31",
      "source": "Annuaire Desfossés 1948",
      "page": "1155"
    },
    {
      "start_date": "1946-12-31",
      "source": "Annuaire Desfossés 1948",
      "page": "1155"
    },
    {
      "start_date": "1947-12-31",
      "source": "Annuaire Desfossés 1948",
      "page": "1155"
    },
    {
      "start_date": "1948-12-31",
      "source": "Annuaire Desfossés 1953",
      "page": "969"
    },
    {
      "start_date": "1949-12-31",
      "source": "Annuaire Desfossés 1953",
      "page": "969"
    },
    {
      "start_date": "1950-12-31",
      "source": "Annuaire Desfossés 1953",
      "page": "969"
    },
    {
      "start_date": "1951-12-31",
      "source": "Annuaire Desfossés 1953",
      "page": "969"
    }
  ],
  "balance_sheets_stats": {
    "start_date": "1911-12-31",
    "end_date": "1951-12-31"
  },
  "locations_stats": {
    "start_date": "1903-01-01",
    "end_date": "1953-12-31"
  },
  "locations": {
    "Siège social": [
      {
        "location_types_id": 1,
        "location_type": "Siège social",
        "address": "Rue des mathurins, 5",
        "city": "Paris",
        "district": "Paris",
        "country": "France",
        "in_yearbook_from": 1903,
        "in_yearbook_to": 1903
      },
      {
        "location_types_id": 1,
        "location_type": "Siège social",
        "address": "Rue auber, 6 bis",
        "city": "Paris",
        "district": "Paris",
        "country": "France",
        "in_yearbook_from": 1908,
        "in_yearbook_to": 1933
      },
      {
        "location_types_id": 1,
        "location_type": "Siège social",
        "address": "Rue auber, 7",
        "city": "Paris",
        "district": "Paris",
        "country": "France",
        "in_yearbook_from": 1940,
        "in_yearbook_to": 1953
      }
    ],
    "Mines / Carrières / Pétrole / Gaz": [
      {
        "location_types_id": 7,
        "location_type": "Mines / Carrières / Pétrole / Gaz",
        "address": null,
        "city": "Rouen",
        "district": "Seine-Maritime",
        "country": "France",
        "in_yearbook_from": 1945,
        "in_yearbook_to": 1945
      },
      {
        "location_types_id": 7,
        "location_type": "Mines / Carrières / Pétrole / Gaz",
        "address": null,
        "city": "Saint Nazaire",
        "district": "Loire-Atlantique",
        "country": "France",
        "in_yearbook_from": 1945,
        "in_yearbook_to": 1945
      }
    ]
  },
  "persons": [
    {
      "persons_count": 6,
      "yearbook": "Annuaire de la Compagnie des Agents de Change 1903",
      "source": "annuaire_cac_1903",
      "page": "1725"
    },
    {
      "persons_count": 12,
      "yearbook": "Annuaire de la Compagnie des Agents de Change 1908",
      "source": "annuaire_cac_1908",
      "page": "1468"
    },
    {
      "persons_count": 6,
      "yearbook": "Annuaire Desfossés 1912",
      "source": "annuaire_df_1912",
      "page": "673"
    },
    {
      "persons_count": 3,
      "yearbook": "Annuaire Desfossés 1917",
      "source": "annuaire_df_1917",
      "page": "669"
    },
    {
      "persons_count": 4,
      "yearbook": "Annuaire Desfossés 1923",
      "source": "annuaire_df_1923",
      "page": "812"
    },
    {
      "persons_count": 5,
      "yearbook": "Annuaire Desfossés 1927",
      "source": "annuaire_df_1927",
      "page": "749"
    },
    {
      "persons_count": 11,
      "yearbook": "Annuaire Desfossés 1933",
      "source": "annuaire_df_1933",
      "page": "861"
    },
    {
      "persons_count": 9,
      "yearbook": "Annuaire Desfossés 1940",
      "source": "annuaire_df_1940",
      "page": null
    },
    {
      "persons_count": 7,
      "yearbook": "Annuaire Desfossés 1945",
      "source": "annuaire_df_1945",
      "page": "1079"
    },
    {
      "persons_count": 10,
      "yearbook": "Annuaire Desfossés 1948",
      "source": "annuaire_df_1948",
      "page": "1155"
    },
    {
      "persons_count": 13,
      "yearbook": "Annuaire Desfossés 1953",
      "source": "annuaire_df_1953",
      "page": "969"
    }
  ],
  "persons_stats": {
    "persons_count": 63,
    "start_date": "1903-01-01",
    "end_date": "1953-12-31"
  },
  "yearbooks_ocrs": [
    {
      "source": "annuaire_cac_1903",
      "yearbook": "Annuaire de la Compagnie des Agents de Change 1903",
      "page": "1725"
    },
    {
      "source": "annuaire_cac_1908",
      "yearbook": "Annuaire de la Compagnie des Agents de Change 1908",
      "page": "1468"
    },
    {
      "source": "annuaire_df_1912",
      "yearbook": "Annuaire Desfossés 1912",
      "page": "673"
    },
    {
      "source": "annuaire_df_1914",
      "yearbook": "Annuaire Desfossés 1914",
      "page": "735"
    },
    {
      "source": "annuaire_df_1917",
      "yearbook": "Annuaire Desfossés 1917",
      "page": "669"
    },
    {
      "source": "annuaire_df_1920",
      "yearbook": "Annuaire Desfossés 1920",
      "page": "733"
    },
    {
      "source": "annuaire_df_1923",
      "yearbook": "Annuaire Desfossés 1923",
      "page": "812"
    },
    {
      "source": "annuaire_df_1925",
      "yearbook": "Annuaire Desfossés 1925",
      "page": "937"
    },
    {
      "source": "annuaire_df_1927",
      "yearbook": "Annuaire Desfossés 1927",
      "page": "749"
    },
    {
      "source": "annuaire_df_1929",
      "yearbook": "Annuaire Desfossés 1929",
      "page": "794"
    },
    {
      "source": "annuaire_df_1931",
      "yearbook": "Annuaire Desfossés 1931",
      "page": "805"
    },
    {
      "source": "annuaire_df_1933",
      "yearbook": "Annuaire Desfossés 1933",
      "page": "861"
    },
    {
      "source": "annuaire_df_1937",
      "yearbook": "Annuaire Desfossés 1937",
      "page": "936"
    },
    {
      "source": "annuaire_df_1940",
      "yearbook": "Annuaire Desfossés 1940",
      "page": null
    },
    {
      "source": "annuaire_df_1945",
      "yearbook": "Annuaire Desfossés 1945",
      "page": "1079"
    },
    {
      "source": "annuaire_df_1948",
      "yearbook": "Annuaire Desfossés 1948",
      "page": "1155"
    },
    {
      "source": "annuaire_df_1953",
      "yearbook": "Annuaire Desfossés 1953",
      "page": "969"
    }
  ],
  "juridical_status": [
    {
      "juridical_status": "Société Anonyme (Libre)",
      "start_date": "1900-07-05",
      "end_date": "1950-07-05",
      "comments": "Société anonyme formée suivant acte passé devant Me Bertrand, notaire à Paris, le 9,juin 1900, et définitivement constituée le 5 juillet suivant.",
      "source": "annuaire_cac_1908"
    }
  ],
  "equity_capital": [
    {
      "amount": "8.000.000",
      "currency": "Franc",
      "infodate": "1900-07-05",
      "source": "annuaire_cac_1908",
      "comments": "Fixé à 8 millions de francs et divisé en 16,000 actions de 500 Irancs, entièrement libérées et au porteur, sur lesquelles 14,000 ont été attribuées a i» Compagnie Générale Transatlantique en représentation de son apport, et • ont été souscrites en espèces et au pair."
    },
    {
      "amount": "12.000.000",
      "currency": "Franc",
      "infodate": "1908-01-01",
      "source": "annuaire_df_1912",
      "comments": " 12 millions de francs, divisé en 24.000 actions de 500 francs. A i origine 8 millions de francs, porté au chiffre actuel en 1908"
    },
    {
      "amount": "20.000.000",
      "currency": "Franc",
      "infodate": "1920-01-01",
      "source": "annuaire_df_1923",
      "comments": "20 millions de francs, divisé en 40.000 actions de 500 francs. A l’origine, 8 millions de francs, porté en 1908 à 12 millions et en 1920 au chiffre actuel."
    },
    {
      "amount": "30.000.000",
      "currency": "Franc",
      "infodate": "1925-01-01",
      "source": "annuaire_df_1927",
      "comments": "30 millions de francs, divisé en 60.000 actions de 500 francs. A l’origine, 8 millions de francs, porté en 1908 à 12 millions, en 1920 à 20 millions et en 1925 au chiffre actuel."
    },
    {
      "amount": "42.000.000",
      "currency": "Franc",
      "infodate": "1929-03-01",
      "source": "annuaire_df_1933",
      "comments": "42 millions de francs, divisé en 84.000 actions de 500 francs, dont 72.000 dites B et 12.000 dites A à vote plural. A l’origine; 8 millions de francs, porté en 1908 à 12 millions, en 1920 à 20 millions, en 1925 à 30 millions, en mars 1929, il a été porté à 42 millions par l’émission de 12.000 actions B au prix de 650 fr. et de 12.000 actions A à vote plural."
    },
    {
      "amount": "34.686.000",
      "currency": "Franc",
      "infodate": "1933-11-01",
      "source": "annuaire_df_1940",
      "comments": "70.000.000 de fr., divisé en 140.000. actions de 500 francs. A l’origine, 8 millions de francs, porté en 1908 à 12 millions, en 1920 à 20 millions, en 1925 à 30 millions, en mars 1929, il a été porté à 42 millions, par l’émission de 12.000 actions B au prix de 650 francs et de 12.000 actions A à. vote plural. Ramené en novembre 1933 à 34.686.000 francs par le rachat et l’annulation de 14.628 actions ordinaires. En même temps, il a été transformé 2.090 actions .A en 2.090 actions ordinaires. A cette époque, le capital était divisé en 69.372 actions de 500 francs, dont 59.462 actions B et 9.910 actions A à vote plural. En juin 1935, les actions A ont été échangées contre des actions ordinaires et leur droit de vote plural a été supprimé. Porté en 1937 à 55.089.500 francs, pour l’émission au pair de 40.807 actions nouvelles réservées aux actionnaires, à raison de 10 actions nouvelles pour 17 anciennes coupon n° 52). Porté en 1938 à 70 millions par l’émission à 575 fr. de 29.821 aet. nouv. jouiss. 1er janvier 1939 réservées aux anc. actionnaires à raison de 10 nouv. pour 37 anc. (droit : coupon 57)."
    },
    {
      "amount": "55.089.500",
      "currency": "Franc",
      "infodate": "1937-01-01",
      "source": "annuaire_df_1940",
      "comments": "70.000.000 de fr., divisé en 140.000. actions de 500 francs. A l’origine, 8 millions de francs, porté en 1908 à 12 millions, en 1920 à 20 millions, en 1925 à 30 millions, en mars 1929, il a été porté à 42 millions, par l’émission de 12.000 actions B au prix de 650 francs et de 12.000 actions A à. vote plural. Ramené en novembre 1933 à 34.686.000 francs par le rachat et l’annulation de 14.628 actions ordinaires. En même temps, il a été transformé 2.090 actions .A en 2.090 actions ordinaires. A cette époque, le capital était divisé en 69.372 actions de 500 francs, dont 59.462 actions B et 9.910 actions A à vote plural. En juin 1935, les actions A ont été échangées contre des actions ordinaires et leur droit de vote plural a été supprimé. Porté en 1937 à 55.089.500 francs, pour l’émission au pair de 40.807 actions nouvelles réservées aux actionnaires, à raison de 10 actions nouvelles pour 17 anciennes coupon n° 52). Porté en 1938 à 70 millions par l’émission à 575 fr. de 29.821 aet. nouv. jouiss. 1er janvier 1939 réservées aux anc. actionnaires à raison de 10 nouv. pour 37 anc. (droit : coupon 57)."
    },
    {
      "amount": "70.000.000",
      "currency": "Franc",
      "infodate": "1938-01-01",
      "source": "annuaire_df_1945",
      "comments": " 140 millions de francs divisé en 280.000 actions de 500 fr. A l’origine, 8 millions de francs, porté en 1908 à 12 millions, en 1920 à 20 millions, en 1925 à 30 millions, en mars 1929, il a été porté à ,42 millions, par l’émission de 12.000 actions B au prix de 650 francs et de 12.000 actions A à vote plural. Ramené en novembre 1933 à 34.686.000 francs par le rachat et l’annulation de 14.628 actions ordinaires. En même temps, il a été transformé 2.090 actions A en 2.090 actions ordinaires. A cette époque, le capital était divisé en 69.372. actions de 500 francs, dont 59.462 actions B et 9.910 actions A à vote plural. En juin 1935, les actions A ont. été échangées contre des actions ordinaires et. leur droit de vote plural a été supprimé. Porté en 1937 à 55.089.500 francs, pour l’émission au pair de 40.807 actions nouvelles réservées aux actionnaires, à raison de 10 actions nouvelles pour 17 anciennes coupon n°. 52). Porté en 1938 à'7û millions par ,l’émission à 575 fr. de 29.821 act. nouv. jouiss. 1er janvier 1939 réservées aux anc. actionnaires à raison de 10 nouv. pour 37 anc. (droit : coupon 57). Porté en 1945 à 140 millions par l’émission à 1.000 fr. de 140.000 actions nouvelles de 600 francs réservées aux anciens actionnaires titre pour titre."
    },
    {
      "amount": "140.000.000",
      "currency": "Franc",
      "infodate": "1945-09-30",
      "source": "annuaire_df_1945",
      "comments": " 140 millions de francs divisé en 280.000 actions de 500 fr. A l’origine, 8 millions de francs, porté en 1908 à 12 millions, en 1920 à 20 millions, en 1925 à 30 millions, en mars 1929, il a été porté à ,42 millions, par l’émission de 12.000 actions B au prix de 650 francs et de 12.000 actions A à vote plural. Ramené en novembre 1933 à 34.686.000 francs par le rachat et l’annulation de 14.628 actions ordinaires. En même temps, il a été transformé 2.090 actions A en 2.090 actions ordinaires. A cette époque, le capital était divisé en 69.372. actions de 500 francs, dont 59.462 actions B et 9.910 actions A à vote plural. En juin 1935, les actions A ont. été échangées contre des actions ordinaires et. leur droit de vote plural a été supprimé. Porté en 1937 à 55.089.500 francs, pour l’émission au pair de 40.807 actions nouvelles réservées aux actionnaires, à raison de 10 actions nouvelles pour 17 anciennes coupon n°. 52). Porté en 1938 à'7û millions par ,l’émission à 575 fr. de 29.821 act. nouv. jouiss. 1er janvier 1939 réservées aux anc. actionnaires à raison de 10 nouv. pour 37 anc. (droit : coupon 57). Porté en 1945 à 140 millions par l’émission à 1.000 fr. de 140.000 actions nouvelles de 600 francs réservées aux anciens actionnaires titre pour titre."
    },
    {
      "amount": "350.000.000",
      "currency": "Franc",
      "infodate": "1947-01-01",
      "source": "annuaire_df_1948",
      "comments": "350 millions de francs. A l'origine, 8 millions de francs, porté en 1908 à 12 millions, en 1920 à 20 millions, en 1925 à 30 millions, en mars 1929, il a été porté à 42 millions, par l'émission de 12.000 actions B au prix-de 650 francs et de 12.000 actions A à vote plural. Ramené en novembre 1933 à 34.686.000 francs par le rachat et l'annulation de 14.628 actions ordinaires. En même temps, il a été transformé 2.090 actions A en 2.090 actions ordinaires. A cette époque, le capital était divisé en 69.372 actions de 500 francs, dont 59.462 actions B et 9.910 actions A à vote plural. En juin 1935, les actions A ont été échangées contre des actions ordinaires et leur droit de vote plural a été supprimé. Porté en 1937 à 55.089.500 francs, pour l'émission au pair de 40.807 actions nouvelles réservées aux actionnaires, à raison de 10 actions nouvelles pour 17 anciennes coupon n° 52). Porté en 1938 à 70 millions par l'émission à 575 fr. de 29.821 act. nouv. jouiss. 1er janvier 1939 réservées aux anc. actionnaires à raison de 10 nouv. pour 37 anc. (droit : coupon 57). Porté en 1945 à 140 millions par l'émission à 1.000 fr. de 140.000 actions nouvelles de 500 francs réservées aux anciens actionnaires titre pour titre.  Porté en janvier 1947 au chiffre actuel par prélèvement sur la réserve de réévaluation et création de 420.000 actions de 500 fr. attribuées gratuitement à raison de 3 nouvelles pour 2 anciennes."
    },
    {
      "amount": "525.000.000",
      "currency": "Franc",
      "infodate": "1950-01-01",
      "source": "annuaire_df_1953",
      "comments": "1.050 millions de fr., divisé en 350.000 actions de 3.000 fr. A l'origine, 8 millions de fr., porté en 1908 à 12 millions, en 1920 à 20 millions, en 1925 à 30 millions. En mars 1929, il a été porté à 42 millions, par l'émission de 12.000 actions B au prix de 650.fr. et de 12.000 actions A à vote plural. Ramené en novembre 1933 à 34.686.000 fr. par le rachat et l'annulation de 14.628 actions ordinaires. En mêm.e temps, il a été transformé 2.090 actions A en 2.090 actions ordinaires. A cette époque, le capital était divisé en 69.372 actions de 500 fr. dont 59.462 actions B et 9.910 actions A à vote plural. En juin 1935, les actions A ont été échangées contre des actions ordinaires et leur droit de vote plural a été supprimé. Porté en 1937 à 55 millions 089.500 fr., par l'émission au pair de 40.807 actions nouvelles réservées aux actionnaires, à raison de 10 actions nouvelles pour 17 anciennes (coupon no 52). Porté en 1939 à 70 millions par l'émission à 575 fr. de 29.821 actions nouvelles, jouissance 1er janvier 1939, réservées aux anciens actionnaires\tà raison de 10 nouvelles pour\t37 anciennes\t(droit : coupon\t57). Porté en 1945 à 140 millions par l'émission à 1.000 fr. de\t140.000 actions\tnouvelles\tde 500 fr. réservées aux anciens- actionnaires titre pour titre. Porté en janvier 1947 à 350 millions par prélèvement sur la réserve de réévaluation et création de 420.000 actions de 500 fr. attribuées gratuitement à raison de\t3 nouvelles pour 2 anciennes.\tPorté en octobre 1949 à 525\tmillions\tpar élévation du nominal de\t500 à 750 fr. En 1950, titres\tregroupés en\t3.000 fr. Porté\ten 1952\tà 1.050 millions par émission à 3.500 fr. de 175.000 actions nouvelles de 3.000 fr. (1 pour 1)."
    }
  ],
  "profit_dividends": [
    {
      "first_date": "1901-12-31",
      "last_date": "1951-12-31",
      "obs_count": 336
    }
  ],
  "public_status": false,
  "stock_exchanges": {
    "1": {
      "id": 1,
      "name": "Paris (Official List)",
      "listings_stats": {
        "start_date": "1901-01-02"
      },
      "spot_prices_stats": {
        "start_date": "1901-01-31",
        "end_date": "1976-12-31"
      }
    }
  },
  "securities": {
    "5390": {
      "id": 5390,
      "name": "Chantiers et Ateliers de Saint-Nazaire (Penhoët), act. 500 fr., t.p. (n°s 1 à 714628)",
      "share_type": {
        "id": 1,
        "name": "Stock (Action)"
      },
      "types": [
        {
          "start_date": "1901-03-15",
          "end_date": "3999-12-31",
          "id": 18,
          "name": "Action",
          "stock_group": "S"
        }
      ],
      "start_date": "1901-01-02",
      "end_date": "3999-12-31",
      "prices_from": "1901-03-15",
      "prices_to": "1951-08-31",
      "is_mainstock": 1,
      "prices_count": 1621
    },
    "6352": {
      "id": 6352,
      "name": "Chantier et Ateliers de St-Nazaire (Penhoët) 5%, remb. à 500 fr",
      "share_type": {
        "id": 2,
        "name": "Bond (Obligation)"
      },
      "types": [
        {
          "start_date": "1914-06-24",
          "end_date": "3999-12-31",
          "id": 1001,
          "name": "Obligation ordinaire ou classique",
          "stock_group": "B"
        }
      ],
      "start_date": "1914-06-24",
      "end_date": "3999-12-31",
      "prices_from": "1914-06-30",
      "prices_to": "1939-04-17",
      "is_mainstock": 0,
      "prices_count": 430
    },
    "6811": {
      "id": 6811,
      "name": "Chantiers et Ateliers de Saint-Nazaire (Penhoet), Obligations 4%",
      "share_type": {
        "id": 2,
        "name": "Bond (Obligation)"
      },
      "types": [
        {
          "start_date": "1901-01-31",
          "end_date": "3999-12-31",
          "id": 1001,
          "name": "Obligation ordinaire ou classique",
          "stock_group": "B"
        }
      ],
      "start_date": "1901-01-02",
      "end_date": "3999-12-31",
      "prices_from": "1901-01-31",
      "prices_to": "1922-06-30",
      "is_mainstock": 0,
      "prices_count": 156
    },
    "7428": {
      "id": 7428,
      "name": "Chantiers et ateliers de Saint-Nazaire (Penhoët) 6%, remb. À 500 fr. 1922-46",
      "share_type": {
        "id": 2,
        "name": "Bond (Obligation)"
      },
      "types": [
        {
          "start_date": "1921-09-21",
          "end_date": "3999-12-31",
          "id": 1001,
          "name": "Obligation ordinaire ou classique",
          "stock_group": "B"
        }
      ],
      "start_date": "1921-09-21",
      "end_date": "3999-12-31",
      "prices_from": "1921-09-21",
      "prices_to": "1941-09-30",
      "is_mainstock": 0,
      "prices_count": 422
    },
    "8477": {
      "id": 8477,
      "name": "Chantiers et Ateliers de Saint-Nazaire (Penhoet) Bons 7% 1927, remb. à 500 fr.",
      "share_type": {
        "id": 2,
        "name": "Bond (Obligation)"
      },
      "types": [
        {
          "start_date": "1927-08-04",
          "end_date": "3999-12-31",
          "id": 1001,
          "name": "Obligation ordinaire ou classique",
          "stock_group": "B"
        }
      ],
      "start_date": "1927-08-04",
      "end_date": "3999-12-31",
      "prices_from": "1927-08-04",
      "prices_to": "1941-09-30",
      "is_mainstock": 0,
      "prices_count": 300
    },
    "9101": {
      "id": 9101,
      "name": "Chantier et Atelier de St-Nazaire (Penhoët), act. 500 f., t.p. (dr. et c. 44 att.)",
      "share_type": {
        "id": 1,
        "name": "Stock (Action)"
      },
      "types": [
        {
          "start_date": "1929-02-28",
          "end_date": "3999-12-31",
          "id": 11,
          "name": "Action ordinaire",
          "stock_group": "S"
        }
      ],
      "start_date": "1929-02-28",
      "end_date": "3999-12-31",
      "prices_from": "1929-02-28",
      "prices_to": "1929-02-28",
      "is_mainstock": 0,
      "prices_count": 2
    },
    "11037": {
      "id": 11037,
      "name": "Chantier et Ateliers de Saint-Nazaire (Penhoët), Act. 500 fr., 375 fr.p. (nos 84001 à 124807) (nom.)",
      "share_type": {
        "id": 1,
        "name": "Stock (Action)"
      },
      "types": [
        {
          "start_date": "1937-08-09",
          "end_date": "3999-12-31",
          "id": 18,
          "name": "Action",
          "stock_group": "S"
        }
      ],
      "start_date": "1937-08-09",
      "end_date": "3999-12-31",
      "prices_from": "1937-08-09",
      "prices_to": "1937-12-31",
      "is_mainstock": 0,
      "prices_count": 10
    },
    "11274": {
      "id": 11274,
      "name": "Chantiers et Ateliers de Saint-Nazaire (Penhoet) Bons 7% 1938, remb. à 1000 fr. (Jce 1/7/38)",
      "share_type": {
        "id": 2,
        "name": "Bond (Obligation)"
      },
      "types": [
        {
          "start_date": "1938-11-21",
          "end_date": "3999-12-31",
          "id": 1009,
          "name": "Bons",
          "stock_group": "B"
        }
      ],
      "start_date": "1938-11-21",
      "end_date": "3999-12-31",
      "prices_from": "1938-11-21",
      "prices_to": "1941-09-30",
      "is_mainstock": 0,
      "prices_count": 62
    },
    "11616": {
      "id": 11616,
      "name": "Penhoët (Cie Industrielle et Financière de Participations) 4,5% 1941 (Rach. Ou Tir.) 1942-71",
      "share_type": {
        "id": 2,
        "name": "Bond (Obligation)"
      },
      "types": [
        {
          "start_date": "1942-03-11",
          "end_date": "3999-12-31",
          "id": 1001,
          "name": "Obligation ordinaire ou classique",
          "stock_group": "B"
        }
      ],
      "start_date": "1942-03-11",
      "end_date": "3999-12-31",
      "prices_from": "1942-03-11",
      "prices_to": "1971-08-31",
      "is_mainstock": 0,
      "prices_count": 712
    },
    "12231": {
      "id": 12231,
      "name": "Penhoët (Cie Industrielle et Financière de Participations) 3,75% 1945 de 50 F (Tir. 21/3/73). 1946-75",
      "share_type": {
        "id": 2,
        "name": "Bond (Obligation)"
      },
      "types": [
        {
          "start_date": "1945-10-24",
          "end_date": "3999-12-31",
          "id": 1001,
          "name": "Obligation ordinaire ou classique",
          "stock_group": "B"
        }
      ],
      "start_date": "1945-10-24",
      "end_date": "3999-12-31",
      "prices_from": "1945-10-24",
      "prices_to": "1973-08-31",
      "is_mainstock": 0,
      "prices_count": 682
    },
    "12605": {
      "id": 12605,
      "name": "Penhoët (Cie Industrielle et Financière de Participations) 4% 1946 (Rach. Ou Tir.) 1947-76",
      "share_type": {
        "id": 2,
        "name": "Bond (Obligation)"
      },
      "types": [
        {
          "start_date": "1947-04-25",
          "end_date": "3999-12-31",
          "id": 1001,
          "name": "Obligation ordinaire ou classique",
          "stock_group": "B"
        }
      ],
      "start_date": "1947-04-25",
      "end_date": "3999-12-31",
      "prices_from": "1947-04-28",
      "prices_to": "1976-09-30",
      "is_mainstock": 0,
      "prices_count": 720
    },
    "13691": {
      "id": 13691,
      "name": "Chantiers et Ateliers de Saint-Nazaire (Penhoët), act. 3000 fr., t.p. (c. 72 att.)",
      "share_type": {
        "id": 1,
        "name": "Stock (Action)"
      },
      "types": [
        {
          "start_date": "1950-06-05",
          "end_date": "3999-12-31",
          "id": 18,
          "name": "Action",
          "stock_group": "S"
        }
      ],
      "start_date": "1950-06-05",
      "end_date": "3999-12-31",
      "prices_from": "1950-06-06",
      "prices_to": "1955-04-15",
      "is_mainstock": 0,
      "prices_count": 150
    },
    "14961": {
      "id": 14961,
      "name": "Penhoët (Cie Industrielle et Financière de Participations), act.",
      "share_type": {
        "id": 1,
        "name": "Stock (Action)"
      },
      "types": [
        {
          "start_date": "1955-04-22",
          "end_date": "3999-12-31",
          "id": 11,
          "name": "Action ordinaire",
          "stock_group": "S"
        }
      ],
      "start_date": "1955-04-22",
      "end_date": "3999-12-31",
      "prices_from": "1955-04-22",
      "prices_to": "1976-12-31",
      "is_mainstock": 0,
      "prices_count": 663
    },
    "15014": {
      "id": 15014,
      "name": "Penhoet (cie industr et financ) (Chant. et Atel. de Saint-Nazaire), act 50 NF (par 25 actions)",
      "share_type": {
        "id": 1,
        "name": "Stock (Action)"
      },
      "types": [
        {
          "start_date": "1955-04-22",
          "end_date": "3999-12-31",
          "id": 11,
          "name": "Action ordinaire",
          "stock_group": "S"
        }
      ],
      "start_date": "1955-04-22",
      "end_date": "3999-12-31",
      "prices_from": null,
      "prices_to": null,
      "is_mainstock": 0,
      "prices_count": 0
    },
    "40021": {
      "id": 40021,
      "name": "Chantier et ateliers de Saint-Nazaire (Penhoët), A. 500 f., t.p. (n°154629 à 294628) (att.)",
      "share_type": {
        "id": 1,
        "name": "Stock (Action)"
      },
      "types": [
        {
          "start_date": "1000-01-01",
          "end_date": "3999-12-31",
          "id": 18,
          "name": "Action",
          "stock_group": "S"
        }
      ],
      "start_date": "1946-03-27",
      "end_date": "1946-09-09",
      "prices_from": "1946-03-29",
      "prices_to": "1946-08-30",
      "is_mainstock": 0,
      "prices_count": 8
    },
    "40022": {
      "id": 40022,
      "name": "Chantiers et Ateliers de Saint-Nazaire (Penhoët), act. B 500 fr. tp. (nos 1 à 74090)",
      "share_type": {
        "id": 1,
        "name": "Stock (Action)"
      },
      "types": [
        {
          "start_date": "1000-01-01",
          "end_date": "3999-12-31",
          "id": 18,
          "name": "Action",
          "stock_group": "S"
        }
      ],
      "start_date": "1929-07-03",
      "end_date": "1935-10-28",
      "prices_from": "1930-07-31",
      "prices_to": "1935-10-15",
      "is_mainstock": 0,
      "prices_count": 109
    },
    "100461": {
      "id": 100461,
      "name": "Act. Chantier et Ateliers de Saint-Nazaire (Penhoët) (dr. et c. 65 ou bon de droit)",
      "share_type": {
        "id": 4,
        "name": "Rights (Droits)"
      },
      "types": [
        {
          "start_date": "1945-05-17",
          "end_date": "1946-07-13",
          "id": 501,
          "name": "Droit de souscription",
          "stock_group": "R"
        }
      ],
      "start_date": "1945-05-17",
      "end_date": "1946-07-13",
      "prices_from": "1945-05-17",
      "prices_to": "1945-07-02",
      "is_mainstock": 0,
      "prices_count": 5
    },
    "100701": {
      "id": 100701,
      "name": "Chantier et Ateliers de St-Nazaire (Penhoët) (dr. et c. 68). 3 act. nouvelles pour 2 act. anciennes",
      "share_type": {
        "id": 4,
        "name": "Rights (Droits)"
      },
      "types": [
        {
          "start_date": "1947-01-20",
          "end_date": "3999-12-31",
          "id": 502,
          "name": "Droit d'attribution",
          "stock_group": "R"
        }
      ],
      "start_date": "1947-01-20",
      "end_date": "3999-12-31",
      "prices_from": "1947-01-20",
      "prices_to": "1947-01-20",
      "is_mainstock": 0,
      "prices_count": 1
    },
    "101324": {
      "id": 101324,
      "name": "Act. CHANTIER ATELIERS DE SAINT-NAZAIRE (droit et coupon 52). pour 17 actions anc., 10 actions nouvelles émises à 500 francs.",
      "share_type": {
        "id": 4,
        "name": "Rights (Droits)"
      },
      "types": [
        {
          "start_date": "1937-01-13",
          "end_date": "1937-02-03",
          "id": 501,
          "name": "Droit de souscription",
          "stock_group": "R"
        }
      ],
      "start_date": "1937-01-13",
      "end_date": "1937-02-03",
      "prices_from": "1937-01-13",
      "prices_to": "1937-02-01",
      "is_mainstock": 0,
      "prices_count": 3
    },
    "101325": {
      "id": 101325,
      "name": "Act. CHANTIER ATELIERS DE SAINT-NAZAIRE (PENHOET) (droit et coup. 57). Pour 37 act. Anciennes, 10 act. Nouvelles émises à 575 francs.",
      "share_type": {
        "id": 4,
        "name": "Rights (Droits)"
      },
      "types": [
        {
          "start_date": "1939-01-18",
          "end_date": "1939-02-02",
          "id": 501,
          "name": "Droit de souscription",
          "stock_group": "R"
        }
      ],
      "start_date": "1939-01-18",
      "end_date": "1939-02-02",
      "prices_from": "1939-01-18",
      "prices_to": "1939-01-31",
      "is_mainstock": 0,
      "prices_count": 2
    },
    "102032": {
      "id": 102032,
      "name": "Act. Chantier et Atelier de St-Nazaire (droit et coupon 42)",
      "share_type": {
        "id": 4,
        "name": "Rights (Droits)"
      },
      "types": [
        {
          "start_date": "1925-04-21",
          "end_date": "1925-05-07",
          "id": 501,
          "name": "Droit de souscription",
          "stock_group": "R"
        }
      ],
      "start_date": "1925-04-21",
      "end_date": "1925-05-07",
      "prices_from": "1925-04-21",
      "prices_to": "1925-04-21",
      "is_mainstock": 0,
      "prices_count": 0
    },
    "102033": {
      "id": 102033,
      "name": "Act. Chantier et Atelier de St-Nazaire (Penhoët) (droit et coupon 44). Pour 5 act. Anciennes, 1 act. B nouvelle émise à 650 francs.",
      "share_type": {
        "id": 4,
        "name": "Rights (Droits)"
      },
      "types": [
        {
          "start_date": "1929-02-28",
          "end_date": "1929-03-15",
          "id": 501,
          "name": "Droit de souscription",
          "stock_group": "R"
        }
      ],
      "start_date": "1929-02-28",
      "end_date": "1929-03-15",
      "prices_from": "1929-02-28",
      "prices_to": "1929-03-01",
      "is_mainstock": 0,
      "prices_count": 2
    },
    "102034": {
      "id": 102034,
      "name": "Act. Chantier et Ateliers de Saint-Nazaire (Penhoët)",
      "share_type": {
        "id": 4,
        "name": "Rights (Droits)"
      },
      "types": [
        {
          "start_date": "1946-03-29",
          "end_date": "3999-12-31",
          "id": 501,
          "name": "Droit de souscription",
          "stock_group": "R"
        }
      ],
      "start_date": "1946-03-29",
      "end_date": "3999-12-31",
      "prices_from": null,
      "prices_to": null,
      "is_mainstock": 0,
      "prices_count": 0
    },
    "103333": {
      "id": 103333,
      "name": "Actions chantier et Ateliers de St-Nazaire (Penhoët)",
      "share_type": {
        "id": 4,
        "name": "Rights (Droits)"
      },
      "types": [
        {
          "start_date": "1920-09-15",
          "end_date": "1920-10-05",
          "id": 501,
          "name": "Droit de souscription",
          "stock_group": "R"
        }
      ],
      "start_date": "1920-09-15",
      "end_date": "1920-10-05",
      "prices_from": "1920-09-16",
      "prices_to": "1920-09-16",
      "is_mainstock": 0,
      "prices_count": 0
    },
    "104129": {
      "id": 104129,
      "name": "Chantier et ateliers de Saint-Nazaire (Penhoët), Act. 500 fr., t. p. (nos 294629 a 714628) (c. 70 att.)",
      "share_type": {
        "id": 2,
        "name": "Bond (Obligation)"
      },
      "types": [
        {
          "start_date": "1947-06-23",
          "end_date": "1947-07-15",
          "id": 18,
          "name": "Action",
          "stock_group": "S"
        }
      ],
      "start_date": "1947-06-23",
      "end_date": "1947-07-15",
      "prices_from": "1947-06-30",
      "prices_to": "1947-06-30",
      "is_mainstock": 0,
      "prices_count": 1
    },
    "104609": {
      "id": 104609,
      "name": "Chantier St-Nazaire, c 65",
      "share_type": {
        "id": 5,
        "name": "Droits de souscription"
      },
      "types": [
        {
          "start_date": "1945-07-06",
          "end_date": "1945-07-26",
          "id": 501,
          "name": "Droit de souscription",
          "stock_group": "R"
        }
      ],
      "start_date": "1945-07-06",
      "end_date": "1945-07-26",
      "prices_from": "1945-07-16",
      "prices_to": "1945-07-16",
      "is_mainstock": 0,
      "prices_count": 1
    }
  }
}