{
  "id": 6027,
  "names": [
    "Laroche, Joubert et Cie"
  ],
  "name": "Laroche, Joubert et Cie",
  "balance_sheets": [],
  "balance_sheets_stats": {
    "start_date": null,
    "end_date": null
  },
  "locations_stats": {
    "start_date": null,
    "end_date": null
  },
  "locations": {},
  "persons": [],
  "persons_stats": {
    "persons_count": 0,
    "start_date": null,
    "end_date": null
  },
  "yearbooks_ocrs": [],
  "juridical_status": [],
  "equity_capital": [],
  "profit_dividends": [],
  "public_status": false,
  "stock_exchanges": {
    "1": {
      "id": 1,
      "name": "Paris (Official List)",
      "listings_stats": {
        "start_date": "1967-05-02"
      },
      "spot_prices_stats": {
        "start_date": "1967-05-02",
        "end_date": "1975-08-18"
      }
    }
  },
  "securities": {
    "19572": {
      "id": 19572,
      "name": "Bordeaux_Bourse Laroche, Joubert et Cie 4,75% 1947 (Tirage 3/4/67). 1948-72",
      "share_type": {
        "id": 2,
        "name": "Bond (Obligation)"
      },
      "types": [
        {
          "start_date": "1967-05-02",
          "end_date": "3999-12-31",
          "id": 1001,
          "name": "Obligation ordinaire ou classique",
          "stock_group": "B"
        }
      ],
      "start_date": "1967-05-02",
      "end_date": "3999-12-31",
      "prices_from": "1967-05-09",
      "prices_to": "1968-04-30",
      "is_mainstock": 0,
      "prices_count": 25
    },
    "19573": {
      "id": 19573,
      "name": "Bordeaux_Bourse Laroche, Joubert et Cie 6,75% 1950. 1951-75",
      "share_type": {
        "id": 2,
        "name": "Bond (Obligation)"
      },
      "types": [
        {
          "start_date": "1967-05-02",
          "end_date": "3999-12-31",
          "id": 1001,
          "name": "Obligation ordinaire ou classique",
          "stock_group": "B"
        }
      ],
      "start_date": "1967-05-02",
      "end_date": "3999-12-31",
      "prices_from": "1967-05-05",
      "prices_to": "1975-08-18",
      "is_mainstock": 0,
      "prices_count": 200
    },
    "19574": {
      "id": 19574,
      "name": "Bordeaux_Bourse Laroche, Joubert et Cie 5% 1960, à 235 F (Tir. 13/3/67). 1961-75",
      "share_type": {
        "id": 2,
        "name": "Bond (Obligation)"
      },
      "types": [
        {
          "start_date": "1967-05-02",
          "end_date": "3999-12-31",
          "id": 1001,
          "name": "Obligation ordinaire ou classique",
          "stock_group": "B"
        }
      ],
      "start_date": "1967-05-02",
      "end_date": "3999-12-31",
      "prices_from": "1967-05-02",
      "prices_to": "1975-04-01",
      "is_mainstock": 0,
      "prices_count": 191
    }
  }
}