{
  "id": 2328,
  "names": [
    "Etablissements Malétra (Société anonyme de produits chimiques)",
    "Société anonyme de Produits Chimiques, Etablissements Malétra",
    "Société anonyme de produits chimiques, Etablissement Malétra",
    "Société anonyme de produits chimiques, Etablissements Malétra",
    "Société anonyme de produits chimiques, etablissements Malétra",
    "Société anonyme de produits chimiques, établissements Malétra",
    "Société des produits chimiques - Etablissements Malétra",
    "ÉTABLISSEMENTS MALÉTRA",
    "ÉTABLISSEMENTS MALÉTRA (Société Anonyme de Produits Chimiques)"
  ],
  "name": "Société anonyme de produits chimiques, Etablissements Malétra",
  "balance_sheets": [
    {
      "start_date": "1911-04-30",
      "source": "Annuaire Desfossés 1912",
      "page": "872"
    },
    {
      "start_date": "1913-04-30",
      "source": "Annuaire Desfossés 1914",
      "page": "931"
    },
    {
      "start_date": "1916-04-30",
      "source": "Annuaire Desfossés 1917",
      "page": "849"
    },
    {
      "start_date": "1920-04-30",
      "source": "Annuaire Desfossés 1920",
      "page": "923"
    },
    {
      "start_date": "1922-12-31",
      "source": "Annuaire Desfossés 1923",
      "page": "1028"
    },
    {
      "start_date": "1924-04-30",
      "source": "Annuaire Desfossés 1925",
      "page": "1240"
    }
  ],
  "balance_sheets_stats": {
    "start_date": "1911-04-30",
    "end_date": "1924-04-30"
  },
  "locations_stats": {
    "start_date": "1880-01-01",
    "end_date": "1924-12-31"
  },
  "locations": {
    "Siège social": [
      {
        "location_types_id": 1,
        "location_type": "Siège social",
        "address": "Rue de rivoli, 140",
        "city": "Paris",
        "district": "Paris",
        "country": "France",
        "in_yearbook_from": 1880,
        "in_yearbook_to": 1903
      },
      {
        "location_types_id": 1,
        "location_type": "Siège social",
        "address": "Rue la boétie, 11",
        "city": "Paris",
        "district": "Paris",
        "country": "France",
        "in_yearbook_from": 1908,
        "in_yearbook_to": 1924
      }
    ],
    "Usines": [
      {
        "location_types_id": 3,
        "location_type": "Usines",
        "address": "Lescure",
        "city": "Amfreville la Mi Voie",
        "district": "Seine-Maritime",
        "country": "France",
        "in_yearbook_from": 1880,
        "in_yearbook_to": 1880
      },
      {
        "location_types_id": 3,
        "location_type": "Usines",
        "address": "Petit-quevilly",
        "city": "Rouen",
        "district": "Seine-Maritime",
        "country": "France",
        "in_yearbook_from": 1880,
        "in_yearbook_to": 1880
      },
      {
        "location_types_id": 3,
        "location_type": "Usines",
        "address": null,
        "city": "Franciade",
        "district": "Paris",
        "country": "France",
        "in_yearbook_from": 1880,
        "in_yearbook_to": 1880
      },
      {
        "location_types_id": 3,
        "location_type": "Usines",
        "address": "Dieppedalle",
        "city": "Rouen",
        "district": "Seine-Maritime",
        "country": "France",
        "in_yearbook_from": 1923,
        "in_yearbook_to": 1923
      },
      {
        "location_types_id": 3,
        "location_type": "Usines",
        "address": "Lescure",
        "city": "Rouen",
        "district": "Seine-Maritime",
        "country": "France",
        "in_yearbook_from": 1923,
        "in_yearbook_to": 1923
      },
      {
        "location_types_id": 3,
        "location_type": "Usines",
        "address": "Petit-quevilly",
        "city": "Rouen",
        "district": "Seine-Maritime",
        "country": "France",
        "in_yearbook_from": 1923,
        "in_yearbook_to": 1923
      },
      {
        "location_types_id": 3,
        "location_type": "Usines",
        "address": null,
        "city": "Caen",
        "district": "Calvados",
        "country": "France",
        "in_yearbook_from": 1923,
        "in_yearbook_to": 1923
      },
      {
        "location_types_id": 3,
        "location_type": "Usines",
        "address": null,
        "city": "Franciade",
        "district": "Paris",
        "country": "France",
        "in_yearbook_from": 1923,
        "in_yearbook_to": 1923
      }
    ],
    "Siège d'exploitation": [
      {
        "location_types_id": 15,
        "location_type": "Siège d'exploitation",
        "address": null,
        "city": "Arzew",
        "district": null,
        "country": "Algérie",
        "in_yearbook_from": 1923,
        "in_yearbook_to": 1923
      }
    ]
  },
  "persons": [
    {
      "persons_count": 11,
      "yearbook": "Annuaire de la Compagnie des Agents de Change 1880",
      "source": "annuaire_cac_1880",
      "page": "1127"
    },
    {
      "persons_count": 4,
      "yearbook": "Annuaire de la Compagnie des Agents de Change 1883",
      "source": "annuaire_cac_1883",
      "page": "1391"
    },
    {
      "persons_count": 8,
      "yearbook": "Annuaire de la Compagnie des Agents de Change 1888",
      "source": "annuaire_cac_1888",
      "page": "1505"
    },
    {
      "persons_count": 2,
      "yearbook": "Annuaire de la Compagnie des Agents de Change 1893",
      "source": "annuaire_cac_1893",
      "page": "1610"
    },
    {
      "persons_count": 1,
      "yearbook": "Annuaire de la Compagnie des Agents de Change 1898",
      "source": "annuaire_cac_1898",
      "page": "1927"
    },
    {
      "persons_count": 4,
      "yearbook": "Annuaire de la Compagnie des Agents de Change 1903",
      "source": "annuaire_cac_1903",
      "page": "2020"
    },
    {
      "persons_count": 4,
      "yearbook": "Annuaire de la Compagnie des Agents de Change 1908",
      "source": "annuaire_cac_1908",
      "page": "1706"
    },
    {
      "persons_count": 3,
      "yearbook": "Annuaire Desfossés 1912",
      "source": "annuaire_df_1912",
      "page": "872"
    },
    {
      "persons_count": 1,
      "yearbook": "Annuaire Desfossés 1917",
      "source": "annuaire_df_1917",
      "page": "849"
    },
    {
      "persons_count": 5,
      "yearbook": "Annuaire Desfossés 1923",
      "source": "annuaire_df_1923",
      "page": "1028"
    }
  ],
  "persons_stats": {
    "persons_count": 38,
    "start_date": "1880-01-01",
    "end_date": "1923-12-31"
  },
  "yearbooks_ocrs": [
    {
      "source": "annuaire_cac_1880",
      "yearbook": "Annuaire de la Compagnie des Agents de Change 1880",
      "page": "1127"
    },
    {
      "source": "annuaire_cac_1883",
      "yearbook": "Annuaire de la Compagnie des Agents de Change 1883",
      "page": "1391"
    },
    {
      "source": "annuaire_cac_1888",
      "yearbook": "Annuaire de la Compagnie des Agents de Change 1888",
      "page": "1505"
    },
    {
      "source": "annuaire_cac_1893",
      "yearbook": "Annuaire de la Compagnie des Agents de Change 1893",
      "page": "1610"
    },
    {
      "source": "annuaire_cac_1898",
      "yearbook": "Annuaire de la Compagnie des Agents de Change 1898",
      "page": "1927"
    },
    {
      "source": "annuaire_cac_1903",
      "yearbook": "Annuaire de la Compagnie des Agents de Change 1903",
      "page": "2020"
    },
    {
      "source": "annuaire_cac_1908",
      "yearbook": "Annuaire de la Compagnie des Agents de Change 1908",
      "page": "1706"
    },
    {
      "source": "annuaire_df_1912",
      "yearbook": "Annuaire Desfossés 1912",
      "page": "872"
    },
    {
      "source": "annuaire_df_1914",
      "yearbook": "Annuaire Desfossés 1914",
      "page": "931"
    },
    {
      "source": "annuaire_df_1917",
      "yearbook": "Annuaire Desfossés 1917",
      "page": "849"
    },
    {
      "source": "annuaire_df_1920",
      "yearbook": "Annuaire Desfossés 1920",
      "page": "923"
    },
    {
      "source": "annuaire_df_1923",
      "yearbook": "Annuaire Desfossés 1923",
      "page": "1028"
    },
    {
      "source": "annuaire_df_1925",
      "yearbook": "Annuaire Desfossés 1925",
      "page": "1240"
    }
  ],
  "juridical_status": [
    {
      "juridical_status": "Société Anonyme (Libre)",
      "start_date": "1873-03-29",
      "end_date": "1923-01-01",
      "comments": "Société anonyme constituée par statuts dressés par M°Duplan, notaire à Paris, le 1er février 1873, définitivement constituée le 29 mars suivant, modifiés par décisions des assemblées générales des 13 juillet 1876, 26 mai 1877, 16 et 24 octobre 1879, 18 octobre 1880, 22 et 31 décembre 1881.",
      "source": "annuaire_cac_1883"
    }
  ],
  "equity_capital": [
    {
      "amount": "20.000.000",
      "currency": null,
      "infodate": "1873-03-29",
      "source": "annuaire_cac_1883",
      "comments": "Primitivement fixé à 20 millions, divisé en 40,000 actions de 500 fr., libérées de 250 fr., sur lesquelles 30,000 ont été attribuées à M. Malétra, en représentation de ses apports, le fonds social a été réduit par décision de l’assemblée générale du 13 juillet 1876, à 8 millions, divisé en 16,000 actions de 500 fr. au porteur, entièrement libérées, au moyen de l’annulation de 8,000 anciennes actions et de l’échange des 32,000 autres, libérées de 250 fr. contre 16,000 actions nouvelles de 500 fr., entièrement libérées, à raison de deux anciennes pour une nouvelle."
    },
    {
      "amount": "8.000.000",
      "currency": null,
      "infodate": "1876-07-13",
      "source": "annuaire_cac_1883",
      "comments": "Primitivement fixé à 20 millions, divisé en 40,000 actions de 500 fr., libérées de 250 fr., sur lesquelles 30,000 ont été attribuées à M. Malétra, en représentation de ses apports, le fonds social a été réduit par décision de l’assemblée générale du 13 juillet 1876, à 8 millions, divisé en 16,000 actions de 500 fr. au porteur, entièrement libérées, au moyen de l’annulation de 8,000 anciennes actions et de l’échange des 32,000 autres, libérées de 250 fr. contre 16,000 actions nouvelles de 500 fr., entièrement libérées, à raison de deux anciennes pour une nouvelle."
    },
    {
      "amount": "6.250.000",
      "currency": null,
      "infodate": "1881-12-22",
      "source": "annuaire_cac_1883",
      "comments": "Par décision de l’assemblée générale du 22 décembre 1881, ce capital de 8 millions a été réduit à 6,250,000 fr. par l’annulation de 3,500 actions."
    },
    {
      "amount": "10.000.000",
      "currency": null,
      "infodate": "1881-12-31",
      "source": "annuaire_cac_1883",
      "comments": "Et enfin, par décision de l’assemblée générale du 31 décembre 1881, ce capital a été élevé à 10 millions, par la création de 7,500 actions qui ont été remises entièrement libérées à la liquidation de la Compagnie des salins d’Algérie en représentation partielle de son actif."
    },
    {
      "amount": "5.000.000",
      "currency": "Franc",
      "infodate": "1888-05-16",
      "source": "annuaire_cac_1888",
      "comments": "Ce qui a porté à 20,000 le nombre des actions de la Société. Enfin, par décision de l’Assemblée générale du 16 mai 1888, le capital social a été réduit de 10 à 5 millions, au moyen de l’échange des 20,000 actions anciennes libérées contre 10,000 actions nouvelles également libérées."
    }
  ],
  "profit_dividends": [
    {
      "first_date": "1873-12-31",
      "last_date": "1922-12-31",
      "obs_count": 158
    }
  ],
  "public_status": false,
  "stock_exchanges": {
    "1": {
      "id": 1,
      "name": "Paris (Official List)",
      "listings_stats": {
        "start_date": "1874-08-17"
      },
      "spot_prices_stats": {
        "start_date": "1880-11-02",
        "end_date": "1926-06-30"
      }
    },
    "2": {
      "id": 2,
      "name": "Paris OTC (Coulisse)",
      "listings_stats": {
        "start_date": "1890-07-15"
      },
      "spot_prices_stats": {
        "start_date": "1890-07-15",
        "end_date": "1891-04-18"
      }
    }
  },
  "securities": {
    "1820": {
      "id": 1820,
      "name": "Etablissements Malétra, a. 500 fr. t.p.",
      "share_type": {
        "id": 1,
        "name": "Stock (Action)"
      },
      "types": [
        {
          "start_date": "1874-08-17",
          "end_date": "3999-12-31",
          "id": 18,
          "name": "Action",
          "stock_group": "S"
        }
      ],
      "start_date": "1873-03-29",
      "end_date": "3999-12-31",
      "prices_from": "1880-11-02",
      "prices_to": "1926-06-30",
      "is_mainstock": 1,
      "prices_count": 685
    },
    "3310": {
      "id": 3310,
      "name": "Etablissement Malétra, 5%, r.à 500f.",
      "share_type": {
        "id": 2,
        "name": "Bond (Obligation)"
      },
      "types": [
        {
          "start_date": "1882-10-30",
          "end_date": "3999-12-31",
          "id": 1001,
          "name": "Obligation ordinaire ou classique",
          "stock_group": "B"
        }
      ],
      "start_date": "1882-10-30",
      "end_date": "3999-12-31",
      "prices_from": "1882-11-02",
      "prices_to": "1921-01-15",
      "is_mainstock": 0,
      "prices_count": 293
    },
    "4562": {
      "id": 4562,
      "name": "Etablissements Maltéra 4,5%, remb. à 500 fr.",
      "share_type": {
        "id": 2,
        "name": "Bond (Obligation)"
      },
      "types": [
        {
          "start_date": "1896-04-21",
          "end_date": "3999-12-31",
          "id": 1001,
          "name": "Obligation ordinaire ou classique",
          "stock_group": "B"
        }
      ],
      "start_date": "1896-04-21",
      "end_date": "3999-12-31",
      "prices_from": "1896-09-15",
      "prices_to": "1906-07-16",
      "is_mainstock": 0,
      "prices_count": 11
    },
    "40290": {
      "id": 40290,
      "name": "Etablissements Malétra (actions anciennes)",
      "share_type": {
        "id": 1,
        "name": "Stock (Action)"
      },
      "types": [
        {
          "start_date": "1000-01-01",
          "end_date": "3999-12-31",
          "id": 18,
          "name": "Action",
          "stock_group": "S"
        }
      ],
      "start_date": "1000-01-01",
      "end_date": "3999-12-31",
      "prices_from": "1892-10-15",
      "prices_to": "1892-10-15",
      "is_mainstock": 0,
      "prices_count": 1
    },
    "102475": {
      "id": 102475,
      "name": "Act. Etablissements Malétra (droit et coupon 7)",
      "share_type": {
        "id": 4,
        "name": "Rights (Droits)"
      },
      "types": [
        {
          "start_date": "1925-12-08",
          "end_date": "1925-12-28",
          "id": 501,
          "name": "Droit de souscription",
          "stock_group": "R"
        }
      ],
      "start_date": "1925-12-08",
      "end_date": "1925-12-28",
      "prices_from": null,
      "prices_to": null,
      "is_mainstock": 0,
      "prices_count": 0
    },
    "105201": {
      "id": 105201,
      "name": "Maletra (Bons)",
      "share_type": {
        "id": 2,
        "name": "Bond (Obligation)"
      },
      "types": [
        {
          "start_date": "1890-07-15",
          "end_date": "1891-04-18",
          "id": 1001,
          "name": "Obligation ordinaire ou classique",
          "stock_group": "B"
        }
      ],
      "start_date": "1890-07-15",
      "end_date": "1891-04-18",
      "prices_from": "1890-07-15",
      "prices_to": "1891-04-18",
      "is_mainstock": 0,
      "prices_count": 18
    }
  }
}