{
  "id": 6101,
  "names": [
    "Clamecy et du Centre (Sté Forestière)"
  ],
  "name": "Clamecy et du Centre (Sté Forestière)",
  "balance_sheets": [],
  "balance_sheets_stats": {
    "start_date": null,
    "end_date": null
  },
  "locations_stats": {
    "start_date": null,
    "end_date": null
  },
  "locations": {},
  "persons": [],
  "persons_stats": {
    "persons_count": 0,
    "start_date": null,
    "end_date": null
  },
  "yearbooks_ocrs": [],
  "juridical_status": [],
  "equity_capital": [],
  "profit_dividends": [],
  "public_status": false,
  "stock_exchanges": {
    "1": {
      "id": 1,
      "name": "Paris (Official List)",
      "listings_stats": {
        "start_date": "1967-05-02"
      },
      "spot_prices_stats": {
        "start_date": "1967-05-16",
        "end_date": "1967-06-30"
      }
    }
  },
  "securities": {
    "19788": {
      "id": 19788,
      "name": "Lyon_Bourse Clamecy et du Centre (Sté Forestière), bon 6% 1955, remb. À 105 F min. 1956-67",
      "share_type": {
        "id": 2,
        "name": "Bond (Obligation)"
      },
      "types": [
        {
          "start_date": "1967-05-02",
          "end_date": "3999-12-31",
          "id": 1009,
          "name": "Bons",
          "stock_group": "B"
        }
      ],
      "start_date": "1967-05-02",
      "end_date": "3999-12-31",
      "prices_from": "1967-05-16",
      "prices_to": "1967-06-30",
      "is_mainstock": 0,
      "prices_count": 4
    }
  }
}