{
  "id": 10023,
  "names": [
    "ATLIXCO (Compagnie Industrielle d')",
    "Atlixco (Cie Industrielle d’)",
    "COMPAGNIE INDUSTRIELLE D'ATLIXCO"
  ],
  "name": "Atlixco (Cie Industrielle d’)",
  "balance_sheets": [
    {
      "start_date": "1910-12-31",
      "source": "Annuaire Desfossés 1912",
      "page": "968"
    },
    {
      "start_date": "1912-12-31",
      "source": "Annuaire Desfossés 1914",
      "page": "1015"
    },
    {
      "start_date": "1916-12-31",
      "source": "Annuaire Desfossés 1917",
      "page": "937"
    },
    {
      "start_date": "1919-12-31",
      "source": "Annuaire Desfossés 1920",
      "page": "1019"
    },
    {
      "start_date": "1920-12-31",
      "source": "Annuaire Desfossés 1923",
      "page": "1139"
    },
    {
      "start_date": "1923-12-31",
      "source": "Annuaire Desfossés 1925",
      "page": "1361"
    },
    {
      "start_date": "1930-12-31",
      "source": "Annuaire Desfossés 1933",
      "page": "1297"
    }
  ],
  "balance_sheets_stats": {
    "start_date": "1910-12-31",
    "end_date": "1930-12-31"
  },
  "locations_stats": {
    "start_date": "1912-01-01",
    "end_date": "1953-12-31"
  },
  "locations": {
    "Siège social": [
      {
        "location_types_id": 1,
        "location_type": "Siège social",
        "address": "Avenida isabel la catolica, 79",
        "city": "Mexico",
        "district": null,
        "country": "Mexique",
        "in_yearbook_from": 1912,
        "in_yearbook_to": 1945
      },
      {
        "location_types_id": 1,
        "location_type": "Siège social",
        "address": "Avenue isabelle-la-catholique, 79",
        "city": "Mexico",
        "district": null,
        "country": "Mexique",
        "in_yearbook_from": 1948,
        "in_yearbook_to": 1953
      }
    ],
    "Usines": [
      {
        "location_types_id": 3,
        "location_type": "Usines",
        "address": null,
        "city": "Metepec",
        "district": null,
        "country": "Mexique",
        "in_yearbook_from": 1940,
        "in_yearbook_to": 1940
      }
    ]
  },
  "persons": [
    {
      "persons_count": 7,
      "yearbook": "Annuaire Desfossés 1912",
      "source": "annuaire_df_1912",
      "page": "968"
    },
    {
      "persons_count": 6,
      "yearbook": "Annuaire Desfossés 1917",
      "source": "annuaire_df_1917",
      "page": "937"
    },
    {
      "persons_count": 1,
      "yearbook": "Annuaire Desfossés 1923",
      "source": "annuaire_df_1923",
      "page": "1139"
    },
    {
      "persons_count": 4,
      "yearbook": "Annuaire Desfossés 1927",
      "source": "annuaire_df_1927",
      "page": "1143"
    },
    {
      "persons_count": 5,
      "yearbook": "Annuaire Desfossés 1933",
      "source": "annuaire_df_1933",
      "page": "1297"
    },
    {
      "persons_count": 7,
      "yearbook": "Annuaire Desfossés 1948",
      "source": "annuaire_df_1948",
      "page": "2117"
    },
    {
      "persons_count": 8,
      "yearbook": "Annuaire Desfossés 1953",
      "source": "annuaire_df_1953",
      "page": "1726"
    }
  ],
  "persons_stats": {
    "persons_count": 34,
    "start_date": "1912-01-01",
    "end_date": "1953-12-31"
  },
  "yearbooks_ocrs": [
    {
      "source": "annuaire_df_1912",
      "yearbook": "Annuaire Desfossés 1912",
      "page": "968"
    },
    {
      "source": "annuaire_df_1914",
      "yearbook": "Annuaire Desfossés 1914",
      "page": "1015"
    },
    {
      "source": "annuaire_df_1917",
      "yearbook": "Annuaire Desfossés 1917",
      "page": "937"
    },
    {
      "source": "annuaire_df_1920",
      "yearbook": "Annuaire Desfossés 1920",
      "page": "1019"
    },
    {
      "source": "annuaire_df_1923",
      "yearbook": "Annuaire Desfossés 1923",
      "page": "1139"
    },
    {
      "source": "annuaire_df_1925",
      "yearbook": "Annuaire Desfossés 1925",
      "page": "1361"
    },
    {
      "source": "annuaire_df_1927",
      "yearbook": "Annuaire Desfossés 1927",
      "page": "1143"
    },
    {
      "source": "annuaire_df_1929",
      "yearbook": "Annuaire Desfossés 1929",
      "page": "1226"
    },
    {
      "source": "annuaire_df_1931",
      "yearbook": "Annuaire Desfossés 1931",
      "page": "1258"
    },
    {
      "source": "annuaire_df_1933",
      "yearbook": "Annuaire Desfossés 1933",
      "page": "1297"
    },
    {
      "source": "annuaire_df_1937",
      "yearbook": "Annuaire Desfossés 1937",
      "page": "1500"
    },
    {
      "source": "annuaire_df_1940",
      "yearbook": "Annuaire Desfossés 1940",
      "page": null
    },
    {
      "source": "annuaire_df_1945",
      "yearbook": "Annuaire Desfossés 1945",
      "page": "1811"
    },
    {
      "source": "annuaire_df_1948",
      "yearbook": "Annuaire Desfossés 1948",
      "page": "2117"
    },
    {
      "source": "annuaire_df_1953",
      "yearbook": "Annuaire Desfossés 1953",
      "page": "1726"
    }
  ],
  "juridical_status": [
    {
      "juridical_status": "Société anonyme mexicaine",
      "start_date": "1899-01-05",
      "end_date": "1948-12-31",
      "comments": "Société anonyme mexicaine, constituée le 5 janvier 1899, pour une durée expirant le 31 décembre 1948.",
      "source": "annuaire_df_1912"
    }
  ],
  "equity_capital": [
    {
      "amount": "2.500.000",
      "currency": "Peso (ou Dollar ou Piastre)",
      "infodate": "1899-01-05",
      "source": "annuaire_df_1940",
      "comments": "6 millions de piastres, divisé en 60.000 actions de 100 piastres. A origine, 2 millions de piastres mexicaines, porté en 1899 à 2.500.000 piastres, en 1900 à 3 500.000 piastres et en 1905 au chiffre actuel."
    },
    {
      "amount": "2.000.000",
      "currency": "Peso (ou Dollar ou Piastre)",
      "infodate": "1899-01-05",
      "source": "annuaire_df_1912",
      "comments": " 6 millions de piastres, divisé en 60.000 actions de 100 piastres. A l’origine 2 millions de piastres mexicaines, porté en 1899 à 2.500.000 piastres, en 1900 à 3.500.000 piastres et en 1905 au chiffre actuel."
    },
    {
      "amount": "3.500.000",
      "currency": "Peso (ou Dollar ou Piastre)",
      "infodate": "1900-01-01",
      "source": "annuaire_df_1912",
      "comments": " 6 millions de piastres, divisé en 60.000 actions de 100 piastres. A l’origine 2 millions de piastres mexicaines, porté en 1899 à 2.500.000 piastres, en 1900 à 3.500.000 piastres et en 1905 au chiffre actuel."
    },
    {
      "amount": "6.000.000",
      "currency": "Peso (ou Dollar ou Piastre)",
      "infodate": "1905-01-01",
      "source": "annuaire_df_1912",
      "comments": " 6 millions de piastres, divisé en 60.000 actions de 100 piastres. A l’origine 2 millions de piastres mexicaines, porté en 1899 à 2.500.000 piastres, en 1900 à 3.500.000 piastres et en 1905 au chiffre actuel."
    }
  ],
  "profit_dividends": [
    {
      "first_date": "1906-12-31",
      "last_date": "1940-12-31",
      "obs_count": 125
    }
  ],
  "public_status": false
}