{
  "id": 6159,
  "names": [
    "INTERBAIL",
    "INTERBALL",
    "Interbail"
  ],
  "name": "INTERBAIL",
  "balance_sheets": [],
  "balance_sheets_stats": {
    "start_date": null,
    "end_date": null
  },
  "locations_stats": {
    "start_date": null,
    "end_date": null
  },
  "locations": {},
  "persons": [],
  "persons_stats": {
    "persons_count": 0,
    "start_date": null,
    "end_date": null
  },
  "yearbooks_ocrs": [],
  "juridical_status": [],
  "equity_capital": [],
  "profit_dividends": [],
  "public_status": false,
  "stock_exchanges": {
    "1": {
      "id": 1,
      "name": "Paris (Official List)",
      "listings_stats": {
        "start_date": "1971-01-26"
      },
      "spot_prices_stats": {
        "start_date": "1971-01-26",
        "end_date": "1976-12-31"
      }
    }
  },
  "securities": {
    "20161": {
      "id": 20161,
      "name": "Interbail, promesses (Jce 1/1/77)",
      "share_type": {
        "id": 1,
        "name": "Stock (Action)"
      },
      "types": [
        {
          "start_date": "1976-11-18",
          "end_date": "3999-12-31",
          "id": 27,
          "name": "Promesse d'action",
          "stock_group": "S"
        }
      ],
      "start_date": "1976-11-18",
      "end_date": "3999-12-31",
      "prices_from": "1976-11-30",
      "prices_to": "1976-12-31",
      "is_mainstock": 0,
      "prices_count": 4
    },
    "20181": {
      "id": 20181,
      "name": "Interbail, act. (c. 2 att.)",
      "share_type": {
        "id": 1,
        "name": "Stock (Action)"
      },
      "types": [
        {
          "start_date": "1971-01-26",
          "end_date": "3999-12-31",
          "id": 11,
          "name": "Action ordinaire",
          "stock_group": "S"
        }
      ],
      "start_date": "1971-01-26",
      "end_date": "3999-12-31",
      "prices_from": "1971-01-26",
      "prices_to": "1976-12-31",
      "is_mainstock": 0,
      "prices_count": 145
    },
    "20995": {
      "id": 20995,
      "name": "Interbail 8,75% déc 1971 (Avis 72-854)…1974-89",
      "share_type": {
        "id": 2,
        "name": "Bond (Obligation)"
      },
      "types": [
        {
          "start_date": "1972-11-10",
          "end_date": "3999-12-31",
          "id": 1001,
          "name": "Obligation ordinaire ou classique",
          "stock_group": "B"
        }
      ],
      "start_date": "1972-11-10",
      "end_date": "3999-12-31",
      "prices_from": "1972-11-10",
      "prices_to": "1976-12-31",
      "is_mainstock": 0,
      "prices_count": 101
    },
    "21146": {
      "id": 21146,
      "name": "Interbail 8,25% 73 (c. 1/2/74 att.), r. au gré du porteur à partir du 1/2/79 (Avis 73-227) 1977-91",
      "share_type": {
        "id": 2,
        "name": "Bond (Obligation)"
      },
      "types": [
        {
          "start_date": "1973-03-23",
          "end_date": "3999-12-31",
          "id": 1001,
          "name": "Obligation ordinaire ou classique",
          "stock_group": "B"
        }
      ],
      "start_date": "1973-03-23",
      "end_date": "3999-12-31",
      "prices_from": "1973-03-23",
      "prices_to": "1976-12-31",
      "is_mainstock": 0,
      "prices_count": 92
    },
    "21248": {
      "id": 21248,
      "name": "Interbail, promesses (Jce 1/1/74)",
      "share_type": {
        "id": 1,
        "name": "Stock (Action)"
      },
      "types": [
        {
          "start_date": "1973-11-05",
          "end_date": "3999-12-31",
          "id": 27,
          "name": "Promesse d'action",
          "stock_group": "S"
        }
      ],
      "start_date": "1973-11-05",
      "end_date": "3999-12-31",
      "prices_from": "1973-11-05",
      "prices_to": "1974-04-30",
      "is_mainstock": 0,
      "prices_count": 13
    },
    "21425": {
      "id": 21425,
      "name": "Interbail 12% 1974 de 1000F (c. 8/7/75 att) (avis 74-759 et 74-907) 1977-89",
      "share_type": {
        "id": 2,
        "name": "Bond (Obligation)"
      },
      "types": [
        {
          "start_date": "1974-09-30",
          "end_date": "3999-12-31",
          "id": 1001,
          "name": "Obligation ordinaire ou classique",
          "stock_group": "B"
        }
      ],
      "start_date": "1974-09-30",
      "end_date": "3999-12-31",
      "prices_from": "1974-09-30",
      "prices_to": "1976-12-31",
      "is_mainstock": 0,
      "prices_count": 56
    },
    "21535": {
      "id": 21535,
      "name": "Interbail 11,50% 1975 de 1000 F (c.7/4/76 att.)(Avis 75-424) 1976-90",
      "share_type": {
        "id": 2,
        "name": "Bond (Obligation)"
      },
      "types": [
        {
          "start_date": "1975-06-23",
          "end_date": "3999-12-31",
          "id": 1001,
          "name": "Obligation ordinaire ou classique",
          "stock_group": "B"
        }
      ],
      "start_date": "1975-06-23",
      "end_date": "3999-12-31",
      "prices_from": "1975-06-23",
      "prices_to": "1976-12-31",
      "is_mainstock": 0,
      "prices_count": 38
    }
  }
}