{
  "id": 3848,
  "names": [
    "ETABLISSEMENTS BERTAGNA (Société Agricole Algérienne)",
    "ETABLISSEMENTS BERTASNA (Société Agricole Algérienne)",
    "Etablissements Bertagna (Société Agricole Algérienne)",
    "ÉTABLISSEMENTS BERTAGNA (Société Agricole Algérienne)"
  ],
  "name": "ETABLISSEMENTS BERTAGNA (Société Agricole Algérienne)",
  "balance_sheets": [
    {
      "start_date": "1929-06-30",
      "source": "Annuaire Desfossés 1931",
      "page": "1202"
    },
    {
      "start_date": "1931-06-30",
      "source": "Annuaire Desfossés 1933",
      "page": "1177"
    },
    {
      "start_date": "1932-06-30",
      "source": "Annuaire Desfossés 1936",
      "page": null
    },
    {
      "start_date": "1933-06-30",
      "source": "Annuaire Desfossés 1937",
      "page": "1322"
    },
    {
      "start_date": "1934-06-30",
      "source": "Annuaire Desfossés 1937",
      "page": "1322"
    },
    {
      "start_date": "1935-06-30",
      "source": "Annuaire Desfossés 1940",
      "page": null
    },
    {
      "start_date": "1936-06-30",
      "source": "Annuaire Desfossés 1940",
      "page": null
    },
    {
      "start_date": "1937-06-30",
      "source": "Annuaire Desfossés 1940",
      "page": null
    },
    {
      "start_date": "1938-06-30",
      "source": "Annuaire Desfossés 1940",
      "page": null
    },
    {
      "start_date": "1939-06-30",
      "source": "Annuaire Desfossés 1945",
      "page": "2002"
    },
    {
      "start_date": "1942-06-30",
      "source": "Annuaire Desfossés 1945",
      "page": "2002"
    },
    {
      "start_date": "1943-06-30",
      "source": "Annuaire Desfossés 1945",
      "page": "2002"
    },
    {
      "start_date": "1944-06-30",
      "source": "Annuaire Desfossés 1948",
      "page": "2323"
    },
    {
      "start_date": "1945-06-30",
      "source": "Annuaire Desfossés 1948",
      "page": "2323"
    },
    {
      "start_date": "1946-06-30",
      "source": "Annuaire Desfossés 1948",
      "page": "2323"
    },
    {
      "start_date": "1947-06-30",
      "source": "Annuaire Desfossés 1948",
      "page": "2323"
    },
    {
      "start_date": "1949-06-30",
      "source": "Annuaire Desfossés 1953",
      "page": "1944"
    },
    {
      "start_date": "1949-12-31",
      "source": "Annuaire Desfossés 1953",
      "page": "1944"
    },
    {
      "start_date": "1950-12-31",
      "source": "Annuaire Desfossés 1953",
      "page": "1944"
    },
    {
      "start_date": "1951-12-31",
      "source": "Annuaire Desfossés 1953",
      "page": "1944"
    }
  ],
  "balance_sheets_stats": {
    "start_date": "1929-06-30",
    "end_date": "1951-12-31"
  },
  "locations_stats": {
    "start_date": "1930-01-01",
    "end_date": "1953-12-31"
  },
  "locations": {
    "Siège social": [
      {
        "location_types_id": 1,
        "location_type": "Siège social",
        "address": "Cours bertagna, 7",
        "city": "Bône",
        "district": null,
        "country": "Algérie",
        "in_yearbook_from": 1930,
        "in_yearbook_to": 1933
      },
      {
        "location_types_id": 1,
        "location_type": "Siège social",
        "address": "Domaine de guébar",
        "city": "Constantine",
        "district": null,
        "country": "Algérie",
        "in_yearbook_from": 1940,
        "in_yearbook_to": 1940
      },
      {
        "location_types_id": 1,
        "location_type": "Siège social",
        "address": "Domaine de guebar",
        "city": "Constantine",
        "district": null,
        "country": "Algérie",
        "in_yearbook_from": 1945,
        "in_yearbook_to": 1953
      }
    ],
    "Siège administratif / Bureaux": [
      {
        "location_types_id": 2,
        "location_type": "Siège administratif / Bureaux",
        "address": "Avenue des champs-elysées, 144",
        "city": "Paris",
        "district": "Paris",
        "country": "France",
        "in_yearbook_from": 1933,
        "in_yearbook_to": 1940
      },
      {
        "location_types_id": 2,
        "location_type": "Siège administratif / Bureaux",
        "address": "Cours bertagna, 7",
        "city": "Bône",
        "district": null,
        "country": "Algérie",
        "in_yearbook_from": 1945,
        "in_yearbook_to": 1953
      }
    ],
    "Plantations / Forêts": [
      {
        "location_types_id": 30,
        "location_type": "Plantations / Forêts",
        "address": "Domaines de guébai-bouffarah",
        "city": "Guébai-Bouffarah",
        "district": null,
        "country": "Algérie",
        "in_yearbook_from": 1940,
        "in_yearbook_to": 1940
      },
      {
        "location_types_id": 30,
        "location_type": "Plantations / Forêts",
        "address": "Domaines de l'armandière",
        "city": null,
        "district": null,
        "country": "Algérie",
        "in_yearbook_from": 1940,
        "in_yearbook_to": 1940
      },
      {
        "location_types_id": 30,
        "location_type": "Plantations / Forêts",
        "address": "Domaines du télégraphe",
        "city": null,
        "district": null,
        "country": "Algérie",
        "in_yearbook_from": 1940,
        "in_yearbook_to": 1940
      }
    ]
  },
  "persons": [
    {
      "persons_count": 5,
      "yearbook": "Annuaire Desfossés 1933",
      "source": "annuaire_df_1933",
      "page": "1177"
    },
    {
      "persons_count": 6,
      "yearbook": "Annuaire Desfossés 1940",
      "source": "annuaire_df_1940",
      "page": null
    },
    {
      "persons_count": 1,
      "yearbook": "Annuaire Desfossés 1945",
      "source": "annuaire_df_1945",
      "page": "2002"
    },
    {
      "persons_count": 3,
      "yearbook": "Annuaire Desfossés 1948",
      "source": "annuaire_df_1948",
      "page": "2323"
    },
    {
      "persons_count": 7,
      "yearbook": "Annuaire Desfossés 1953",
      "source": "annuaire_df_1953",
      "page": "1944"
    }
  ],
  "persons_stats": {
    "persons_count": 13,
    "start_date": "1933-01-01",
    "end_date": "1953-12-31"
  },
  "yearbooks_ocrs": [
    {
      "source": "annuaire_df_1931",
      "yearbook": "Annuaire Desfossés 1931",
      "page": "1202"
    },
    {
      "source": "annuaire_df_1933",
      "yearbook": "Annuaire Desfossés 1933",
      "page": "1177"
    },
    {
      "source": "annuaire_df_1937",
      "yearbook": "Annuaire Desfossés 1937",
      "page": "1322"
    },
    {
      "source": "annuaire_df_1940",
      "yearbook": "Annuaire Desfossés 1940",
      "page": null
    },
    {
      "source": "annuaire_df_1945",
      "yearbook": "Annuaire Desfossés 1945",
      "page": "2002"
    },
    {
      "source": "annuaire_df_1948",
      "yearbook": "Annuaire Desfossés 1948",
      "page": "2323"
    },
    {
      "source": "annuaire_df_1953",
      "yearbook": "Annuaire Desfossés 1953",
      "page": "1944"
    }
  ],
  "juridical_status": [
    {
      "juridical_status": "Société Anonyme (Libre)",
      "start_date": "1928-01-01",
      "end_date": "2027-01-01",
      "comments": "Société anonyme française, constituée en 1928, pour une durée de 99 ans.",
      "source": "annuaire_df_1933"
    }
  ],
  "equity_capital": [
    {
      "amount": "52.000.000",
      "currency": "Franc",
      "infodate": "1928-01-01",
      "source": "annuaire_df_1933",
      "comments": "43 millions, divisé en 430.000 actions de 100 francs, dont 150.000 actions P à vote plural et 520.000 actions O. A l'origine, 52 millions de francs, porté à 67 millions en 1929. Ramené en 1931 à 43 millions par la remise de 240.000 actions O de 100 francs contre 15.000 obligations de 1.000 francs 5 % demi-net émises en 1931.\n"
    },
    {
      "amount": "67.000.000",
      "currency": "Franc",
      "infodate": "1929-01-01",
      "source": "annuaire_df_1933",
      "comments": "43 millions, divisé en 430.000 actions de 100 francs, dont 150.000 actions P à vote plural et 520.000 actions O. A l'origine, 52 millions de francs, porté à 67 millions en 1929. Ramené en 1931 à 43 millions par la remise de 240.000 actions O de 100 francs contre 15.000 obligations de 1.000 francs 5 % demi-net émises en 1931.\n"
    },
    {
      "amount": "43.000.000",
      "currency": "Franc",
      "infodate": "1931-01-01",
      "source": "annuaire_df_1933",
      "comments": "43 millions, divisé en 430.000 actions de 100 francs, dont 150.000 actions P à vote plural et 520.000 actions O. A l'origine, 52 millions de francs, porté à 67 millions en 1929. Ramené en 1931 à 43 millions par la remise de 240.000 actions O de 100 francs contre 15.000 obligations de 1.000 francs 5 % demi-net émises en 1931."
    },
    {
      "amount": "40.000.000",
      "currency": "Franc",
      "infodate": "1935-06-01",
      "source": "annuaire_df_1940",
      "comments": "40 millions, divisé en 400.000 actions de 100 francs, dont 280.000 actions ordinaires O et 120.000 actions à dividende privilégié cumulatif. A l'origine 52 millions de francs, porté à 67 millions en 1929. Ramené en 1931 à 43 million^ par la remise de 240.000 actions O de 100 francs contre 15.000 obligations de 1.000 francs 5 % demi-net, émises en 1931. A cette époque, le capital était représenté par 280.000 actions O et 150.000 actions P à vote plural. En juin 1935, le capital a été ramené à 40 millions par l’échange des 150.000 actions P à vote plural, contre 120.000 actions ayant droit à un dividende cumulatif privilégié de 3 %."
    },
    {
      "amount": "80.000.000",
      "currency": "Franc",
      "infodate": "1947-01-01",
      "source": "annuaire_df_1948",
      "comments": "90.400.000 fr., divisé en 664.000 actions ordinaires de 100 francs et 240.000 actions privilégiées cumulatives 3\t% de 100 francs. A l'origine, 52 millions de francs, porté à 67 millions en 1929. Ramené en 1931 à 43 millions par la remise de 240.000 _ actions O de 100 francs contre 15.000 obligations de 1.000 francs 5 %, demi-net, émises en 1931. A cette époque, le capital était représenté par 280.000 actions O et 150.000 actions P à vote plural. En juin 1935, le capital a été ramené à 40 millions par l'échange des 150.000 actions P à vote plural, contre 120.000 actions ayant droit à un dividende cumulatif privilégié de 3 %. Porté, en 1947\tà 80 millions par la création de 400.000 actions de 100 francs dont 280.000 ordinaires et 120.000 .privilégiées réparties gratuitement (1 nouv. pour 1 anc.). Porté en 1948\tà 90.400.000 fr. par création de 104.000 actions nouvelles-attribuées aux porteurs de parts (4 pour 1 part)."
    },
    {
      "amount": "90.400.000",
      "currency": "Franc",
      "infodate": "1948-01-01",
      "source": "annuaire_df_1948",
      "comments": "90.400.000 fr., divisé en 664.000 actions ordinaires de 100 francs et 240.000 actions privilégiées cumulatives 3\t% de 100 francs. A l'origine, 52 millions de francs, porté à 67 millions en 1929. Ramené en 1931 à 43 millions par la remise de 240.000 _ actions O de 100 francs contre 15.000 obligations de 1.000 francs 5 %, demi-net, émises en 1931. A cette époque, le capital était représenté par 280.000 actions O et 150.000 actions P à vote plural. En juin 1935, le capital a été ramené à 40 millions par l'échange des 150.000 actions P à vote plural, contre 120.000 actions ayant droit à un dividende cumulatif privilégié de 3 %. Porté, en 1947\tà 80 millions par la création de 400.000 actions de 100 francs dont 280.000 ordinaires et 120.000 .privilégiées réparties gratuitement (1 nouv. pour 1 anc.). Porté en 1948\tà 90.400.000 fr. par création de 104.000 actions nouvelles-attribuées aux porteurs de parts (4 pour 1 part)."
    },
    {
      "amount": "271.200.000",
      "currency": "Franc",
      "infodate": "1951-01-01",
      "source": "annuaire_df_1953",
      "comments": " 2S2.900.000 fr., divisé en 703.000 actions ordinaires de 300 fr. et 240.000 actions privilégiées cumulatives 3 % de 300 fr. obligatoirement nominatives. A l'origine, 52 millions. Porté à 67 millions en 1929. Ramené en 1931 à 43 millions par la remise de 240. ÜU0 actions O de 100 fr. contre 15.000 obligations de 1.000 fr. 5 % demi-net, émises en 1931. A cette époque, le capital était représenté par 280.000 actions O et 150.000 actions P à vote plural. En juin 1935, le capital a été ramené à 40 millions par l'échange des 150.000 actions à vote plural contre 120.000 act. ayant droit à un dividende cumulatif privilégié de 3 %. Porté en 1947 à 80 millions par la création de 400.000 actions de 100 fr. dont 280.000 ordinaires et 120.000 privilégiées réparties gratuitement (1 nouv. pour 1 anc.). Porté en 1948 à 90.400.000 fr. par création de 104.000 actions nouvelles attribuées aux porteurs de parts (4 pour 1 part). Porté en 1951- à 271.200.000 fr. par élévation du nominal à 300 fr. puis à 282.900.000 fr. par création de 39.000 actions ordinaires de 300 fr. attribuées gratuitement aux porteurs de parts à raison de 3 actions ordinaires pour 2 parts en échange et annulation de leurs titres"
    },
    {
      "amount": "282.900.000",
      "currency": "Franc",
      "infodate": "1951-01-02",
      "source": "annuaire_df_1953",
      "comments": " 2S2.900.000 fr., divisé en 703.000 actions ordinaires de 300 fr. et 240.000 actions privilégiées cumulatives 3 % de 300 fr. obligatoirement nominatives. A l'origine, 52 millions. Porté à 67 millions en 1929. Ramené en 1931 à 43 millions par la remise de 240. ÜU0 actions O de 100 fr. contre 15.000 obligations de 1.000 fr. 5 % demi-net, émises en 1931. A cette époque, le capital était représenté par 280.000 actions O et 150.000 actions P à vote plural. En juin 1935, le capital a été ramené à 40 millions par l'échange des 150.000 actions à vote plural contre 120.000 act. ayant droit à un dividende cumulatif privilégié de 3 %. Porté en 1947 à 80 millions par la création de 400.000 actions de 100 fr. dont 280.000 ordinaires et 120.000 privilégiées réparties gratuitement (1 nouv. pour 1 anc.). Porté en 1948 à 90.400.000 fr. par création de 104.000 actions nouvelles attribuées aux porteurs de parts (4 pour 1 part). Porté en 1951- à 271.200.000 fr. par élévation du nominal à 300 fr. puis à 282.900.000 fr. par création de 39.000 actions ordinaires de 300 fr. attribuées gratuitement aux porteurs de parts à raison de 3 actions ordinaires pour 2 parts en échange et annulation de leurs titres"
    }
  ],
  "profit_dividends": [
    {
      "first_date": "1929-06-30",
      "last_date": "1951-12-31",
      "obs_count": 143
    }
  ],
  "public_status": false,
  "stock_exchanges": {
    "1": {
      "id": 1,
      "name": "Paris (Official List)",
      "listings_stats": {
        "start_date": "1967-05-02"
      },
      "spot_prices_stats": {
        "start_date": "1967-05-03",
        "end_date": "1974-01-31"
      }
    }
  },
  "securities": {
    "18783": {
      "id": 18783,
      "name": "Marseille_Bourse Bertagna (Etabl.), act.",
      "share_type": {
        "id": 1,
        "name": "Stock (Action)"
      },
      "types": [
        {
          "start_date": "1967-05-02",
          "end_date": "3999-12-31",
          "id": 18,
          "name": "Action",
          "stock_group": "S"
        }
      ],
      "start_date": "1967-05-02",
      "end_date": "3999-12-31",
      "prices_from": "1967-05-03",
      "prices_to": "1974-01-31",
      "is_mainstock": 0,
      "prices_count": 163
    }
  }
}