{
  "id": 10728,
  "names": [
    "LA GOMME LAOUE J.-B. (J. Besnard et Cle).",
    "LA GOMME LAQUE J.-B. (J. Besnard et C,e).",
    "LA GOMME LAQUE J.-B. (J. Besnard et Cie)",
    "LA GOMME LAQUE J.-B. (J. Besnard et Cle)",
    "La gomme laque J.-B. (J. Besnard et Cie)"
  ],
  "name": "LA GOMME LAQUE J.-B. (J. Besnard et Cie)",
  "balance_sheets": [
    {
      "start_date": "1923-12-31",
      "source": "Annuaire Desfossés 1925",
      "page": "1266"
    },
    {
      "start_date": "1925-12-31",
      "source": "Annuaire Desfossés 1927",
      "page": "1054"
    },
    {
      "start_date": "1927-12-31",
      "source": "Annuaire Desfossés 1929",
      "page": "1128"
    }
  ],
  "balance_sheets_stats": {
    "start_date": "1923-12-31",
    "end_date": "1927-12-31"
  },
  "locations_stats": {
    "start_date": "1924-01-01",
    "end_date": "1930-12-31"
  },
  "locations": {
    "Siège social": [
      {
        "location_types_id": 1,
        "location_type": "Siège social",
        "address": "Boulevard de magenta, 41",
        "city": "Paris",
        "district": "Paris",
        "country": "France",
        "in_yearbook_from": 1924,
        "in_yearbook_to": 1924
      },
      {
        "location_types_id": 1,
        "location_type": "Siège social",
        "address": "Voie, 132",
        "city": "Hanoï",
        "district": null,
        "country": "Indochine",
        "in_yearbook_from": 1927,
        "in_yearbook_to": 1927
      },
      {
        "location_types_id": 1,
        "location_type": "Siège social",
        "address": "Voie, 132",
        "city": "Tonkin",
        "district": null,
        "country": "Indochine",
        "in_yearbook_from": 1928,
        "in_yearbook_to": 1928
      },
      {
        "location_types_id": 1,
        "location_type": "Siège social",
        "address": null,
        "city": "Hanoï",
        "district": null,
        "country": "Indochine",
        "in_yearbook_from": 1930,
        "in_yearbook_to": 1930
      }
    ],
    "Siège administratif / Bureaux": [
      {
        "location_types_id": 2,
        "location_type": "Siège administratif / Bureaux",
        "address": "Boulevard de magenta, 41",
        "city": "Paris",
        "district": "Paris",
        "country": "France",
        "in_yearbook_from": 1927,
        "in_yearbook_to": 1927
      },
      {
        "location_types_id": 2,
        "location_type": "Siège administratif / Bureaux",
        "address": "Cité bergère, 2",
        "city": "Paris",
        "district": "Paris",
        "country": "France",
        "in_yearbook_from": 1930,
        "in_yearbook_to": 1930
      }
    ]
  },
  "persons": [
    {
      "persons_count": 8,
      "yearbook": "Annuaire Desfossés 1927",
      "source": "annuaire_df_1927",
      "page": "1054"
    }
  ],
  "persons_stats": {
    "persons_count": 8,
    "start_date": "1927-01-01",
    "end_date": "1927-12-31"
  },
  "yearbooks_ocrs": [
    {
      "source": "annuaire_df_1925",
      "yearbook": "Annuaire Desfossés 1925",
      "page": "1266"
    },
    {
      "source": "annuaire_df_1927",
      "yearbook": "Annuaire Desfossés 1927",
      "page": "1054"
    },
    {
      "source": "annuaire_df_1929",
      "yearbook": "Annuaire Desfossés 1929",
      "page": "1128"
    },
    {
      "source": "annuaire_df_1931",
      "yearbook": "Annuaire Desfossés 1931",
      "page": "1151"
    }
  ],
  "juridical_status": [
    {
      "juridical_status": "Société en Commandite par actions",
      "start_date": "1921-10-21",
      "end_date": "1926-11-18",
      "comments": "Société française en commandite par actions, constituée le 21 octobre 1921, pour une durée de 99 ans. Transformée en Société anonyme par l’assemblée du 19 novembre 1926.",
      "source": "annuaire_df_1927"
    },
    {
      "juridical_status": "Société Anonyme (Libre)",
      "start_date": "1926-11-19",
      "end_date": "2020-01-31",
      "comments": "Transformée en Société anonyme par l’assemblée du 19 novembre 1926.",
      "source": "annuaire_df_1927"
    }
  ],
  "equity_capital": [
    {
      "amount": "1.000.000",
      "currency": "Franc",
      "infodate": "1921-10-21",
      "source": "annuaire_df_1927",
      "comments": "2 millions de francs, divisé en 20.000 actions de 100 francs. A l’origine, 1.000.000 de francs, représenté par 10.000 actions de 100 francs chacune, sur lesquelles 1.500 ont été remises, entièrement libérées, en rémunération partielle d’apports et les 8.500 de surplus souscrites en espèces ; porté, suivant décisions des Assemblées générales extraordinaires des 28 juin et 23 août 1924, à 2.000.000 de francs, par la création de 10.000 actions nouvelles de 100 francs chacune, toutes souscrites en numéraire.\n"
    },
    {
      "amount": "2.000.000",
      "currency": "Franc",
      "infodate": "1924-08-23",
      "source": "annuaire_df_1927",
      "comments": "2 millions de francs, divisé en 20.000 actions de 100 francs. A l’origine, 1.000.000 de francs, représenté par 10.000 actions de 100 francs chacune, sur lesquelles 1.500 ont été remises, entièrement libérées, en rémunération partielle d’apports et les 8.500 de surplus souscrites en espèces ; porté, suivant décisions des Assemblées générales extraordinaires des 28 juin et 23 août 1924, à 2.000.000 de francs, par la création de 10.000 actions nouvelles de 100 francs chacune, toutes souscrites en numéraire."
    }
  ],
  "profit_dividends": [
    {
      "first_date": "1924-12-31",
      "last_date": "1926-12-31",
      "obs_count": 7
    }
  ],
  "public_status": false
}