{
  "id": 4075,
  "names": [
    "SALINES DE DAX",
    "Salines de Dax"
  ],
  "name": "SALINES DE DAX",
  "balance_sheets": [
    {
      "start_date": "1951-12-31",
      "source": "Annuaire Desfossés 1953",
      "page": "1505"
    }
  ],
  "balance_sheets_stats": {
    "start_date": "1951-12-31",
    "end_date": "1951-12-31"
  },
  "locations_stats": {
    "start_date": "1953-01-01",
    "end_date": "1953-12-31"
  },
  "locations": {
    "Siège social": [
      {
        "location_types_id": 1,
        "location_type": "Siège social",
        "address": "Villa biahizpa,  route de biarritz",
        "city": "Baïonne",
        "district": "Pyrénées-Atlantiques",
        "country": "France",
        "in_yearbook_from": 1953,
        "in_yearbook_to": 1953
      }
    ]
  },
  "persons": [
    {
      "persons_count": 13,
      "yearbook": "Annuaire Desfossés 1953",
      "source": "annuaire_df_1953",
      "page": "1505"
    }
  ],
  "persons_stats": {
    "persons_count": 13,
    "start_date": "1953-01-01",
    "end_date": "1953-12-31"
  },
  "yearbooks_ocrs": [
    {
      "source": "annuaire_df_1953",
      "yearbook": "Annuaire Desfossés 1953",
      "page": "1505"
    }
  ],
  "juridical_status": [
    {
      "juridical_status": "Société Anonyme (Libre)",
      "start_date": "1869-01-01",
      "end_date": "2047-12-23",
      "comments": "CONSTITUTION : Société anonyme constituée en 1869 pour une durée expirant le 23 décembre 2047.",
      "source": "annuaire_df_1953"
    }
  ],
  "equity_capital": [
    {
      "amount": "1.500.000",
      "currency": "Franc",
      "infodate": "1869-01-01",
      "source": "annuaire_df_1953",
      "comments": "35, millions, divisé en 14.000 actions de 2.500 fr. A l'origine 1.500.000 fr., porté en 1944 à 7.500.000 fr. et en 1948 à 30 millions, puis en 1951, à 35 millions."
    },
    {
      "amount": "7.500.000",
      "currency": "Franc",
      "infodate": "1944-01-01",
      "source": "annuaire_df_1953",
      "comments": "35, millions, divisé en 14.000 actions de 2.500 fr. A l'origine 1.500.000 fr., porté en 1944 à 7.500.000 fr. et en 1948 à 30 millions, puis en 1951, à 35 millions."
    },
    {
      "amount": "30.000.000",
      "currency": "Franc",
      "infodate": "1948-01-01",
      "source": "annuaire_df_1953",
      "comments": "35, millions, divisé en 14.000 actions de 2.500 fr. A l'origine 1.500.000 fr., porté en 1944 à 7.500.000 fr. et en 1948 à 30 millions, puis en 1951, à 35 millions."
    },
    {
      "amount": "35.000.000",
      "currency": "Franc",
      "infodate": "1951-01-01",
      "source": "annuaire_df_1953",
      "comments": "35, millions, divisé en 14.000 actions de 2.500 fr. A l'origine 1.500.000 fr., porté en 1944 à 7.500.000 fr. et en 1948 à 30 millions, puis en 1951, à 35 millions."
    }
  ],
  "profit_dividends": [
    {
      "first_date": "1948-12-31",
      "last_date": "1951-12-31",
      "obs_count": 12
    }
  ],
  "public_status": false,
  "stock_exchanges": {
    "1": {
      "id": 1,
      "name": "Paris (Official List)",
      "listings_stats": {
        "start_date": "1962-01-02"
      },
      "spot_prices_stats": {
        "start_date": "1962-01-02",
        "end_date": "1962-06-15"
      }
    }
  },
  "securities": {
    "17054": {
      "id": 17054,
      "name": "Salines de Dax 6% 1948 1949-73",
      "share_type": {
        "id": 2,
        "name": "Bond (Obligation)"
      },
      "types": [
        {
          "start_date": "1962-01-02",
          "end_date": "3999-12-31",
          "id": 1001,
          "name": "Obligation ordinaire ou classique",
          "stock_group": "B"
        }
      ],
      "start_date": "1962-01-02",
      "end_date": "3999-12-31",
      "prices_from": "1962-01-02",
      "prices_to": "1962-06-15",
      "is_mainstock": 0,
      "prices_count": 12
    }
  }
}