{
  "id": 4404,
  "names": [
    "LES INDUSTRIES MUSICALES ET ELECTRIQUES PATHE-MARCONI (Compagnie Générale des Machines Parlantes Pathé Frères et Compagnie Française du Gramophone Réunies)",
    "LES INDUSTRIES MUSICALES ET ELECTRIQUES PATHE-MARCONI Compagnie Générale des Machines Parlantes Pathé Frères et Compagnie Française du Gramophone Réunies",
    "LES INDUSTRIES MUSICALES ET ELECTRIQUES PATHÉ MARCONI Compagnie Générale des Machines parlantes Pathé Frères et Compagnie Française du Gramophone Réunies",
    "Les Industries Musicales et Electriques Pathe-Marconi (Cie Générale des Machines Parlantes Pathé Frères et Cie Française du Gramophone Réunies)",
    "MACHINES PARLANTES PATHÉ FRÈRES (COMPAGNIE GÉNÉRALE DES)"
  ],
  "name": "LES INDUSTRIES MUSICALES ET ELECTRIQUES PATHE-MARCONI (Compagnie Générale des Machines Parlantes Pathé Frères et Compagnie Française du Gramophone Réunies)",
  "balance_sheets": [
    {
      "start_date": "1930-02-28",
      "source": "Annuaire Desfossés 1931",
      "page": "1436"
    },
    {
      "start_date": "1932-12-31",
      "source": "Annuaire Desfossés 1933",
      "page": "1495"
    },
    {
      "start_date": "1934-12-31",
      "source": "Annuaire Desfossés 1937",
      "page": "1700"
    },
    {
      "start_date": "1935-12-31",
      "source": "Annuaire Desfossés 1940",
      "page": null
    },
    {
      "start_date": "1936-12-31",
      "source": "Annuaire Desfossés 1940",
      "page": null
    },
    {
      "start_date": "1937-12-31",
      "source": "Annuaire Desfossés 1940",
      "page": null
    },
    {
      "start_date": "1938-12-31",
      "source": "Annuaire Desfossés 1945",
      "page": "2269"
    },
    {
      "start_date": "1941-12-31",
      "source": "Annuaire Desfossés 1945",
      "page": "2269"
    },
    {
      "start_date": "1942-12-31",
      "source": "Annuaire Desfossés 1945",
      "page": "2269"
    },
    {
      "start_date": "1943-12-31",
      "source": "Annuaire Desfossés 1945",
      "page": "2269"
    },
    {
      "start_date": "1944-12-31",
      "source": "Annuaire Desfossés 1948",
      "page": "2622"
    },
    {
      "start_date": "1945-12-31",
      "source": "Annuaire Desfossés 1948",
      "page": "2622"
    },
    {
      "start_date": "1946-12-31",
      "source": "Annuaire Desfossés 1948",
      "page": "2622"
    },
    {
      "start_date": "1947-12-31",
      "source": "Annuaire Desfossés 1948",
      "page": "2622"
    },
    {
      "start_date": "1948-12-31",
      "source": "Annuaire Desfossés 1953",
      "page": "2227"
    },
    {
      "start_date": "1949-12-31",
      "source": "Annuaire Desfossés 1953",
      "page": "2227"
    },
    {
      "start_date": "1950-12-31",
      "source": "Annuaire Desfossés 1953",
      "page": "2227"
    },
    {
      "start_date": "1951-12-31",
      "source": "Annuaire Desfossés 1953",
      "page": "2227"
    }
  ],
  "balance_sheets_stats": {
    "start_date": "1930-02-28",
    "end_date": "1951-12-31"
  },
  "locations_stats": {
    "start_date": "1930-01-01",
    "end_date": "1953-12-31"
  },
  "locations": {
    "Siège social": [
      {
        "location_types_id": 1,
        "location_type": "Siège social",
        "address": "Boulevard des italiens, 30",
        "city": "Paris",
        "district": "Paris",
        "country": "France",
        "in_yearbook_from": 1930,
        "in_yearbook_to": 1953
      }
    ],
    "Siège administratif / Bureaux": [
      {
        "location_types_id": 2,
        "location_type": "Siège administratif / Bureaux",
        "address": "Rue du faubourg-saint-martin, 251-253",
        "city": "Paris",
        "district": "Paris",
        "country": "France",
        "in_yearbook_from": 1940,
        "in_yearbook_to": 1940
      },
      {
        "location_types_id": 2,
        "location_type": "Siège administratif / Bureaux",
        "address": "Rue du faubourg-saint-martin, 251-253",
        "city": "Paris",
        "district": "Paris",
        "country": "France",
        "in_yearbook_from": 1953,
        "in_yearbook_to": 1953
      }
    ]
  },
  "persons": [
    {
      "persons_count": 7,
      "yearbook": "Annuaire Desfossés 1933",
      "source": "annuaire_df_1933",
      "page": "1495"
    },
    {
      "persons_count": 8,
      "yearbook": "Annuaire Desfossés 1940",
      "source": "annuaire_df_1940",
      "page": null
    },
    {
      "persons_count": 2,
      "yearbook": "Annuaire Desfossés 1945",
      "source": "annuaire_df_1945",
      "page": "2269"
    },
    {
      "persons_count": 3,
      "yearbook": "Annuaire Desfossés 1948",
      "source": "annuaire_df_1948",
      "page": "2622"
    },
    {
      "persons_count": 7,
      "yearbook": "Annuaire Desfossés 1953",
      "source": "annuaire_df_1953",
      "page": "2227"
    }
  ],
  "persons_stats": {
    "persons_count": 21,
    "start_date": "1933-01-01",
    "end_date": "1953-12-31"
  },
  "yearbooks_ocrs": [
    {
      "source": "annuaire_df_1931",
      "yearbook": "Annuaire Desfossés 1931",
      "page": "1436"
    },
    {
      "source": "annuaire_df_1933",
      "yearbook": "Annuaire Desfossés 1933",
      "page": "1495"
    },
    {
      "source": "annuaire_df_1937",
      "yearbook": "Annuaire Desfossés 1937",
      "page": "1700"
    },
    {
      "source": "annuaire_df_1940",
      "yearbook": "Annuaire Desfossés 1940",
      "page": null
    },
    {
      "source": "annuaire_df_1945",
      "yearbook": "Annuaire Desfossés 1945",
      "page": "2269"
    },
    {
      "source": "annuaire_df_1948",
      "yearbook": "Annuaire Desfossés 1948",
      "page": "2622"
    },
    {
      "source": "annuaire_df_1953",
      "yearbook": "Annuaire Desfossés 1953",
      "page": "2227"
    }
  ],
  "juridical_status": [
    {
      "juridical_status": "Société Anonyme (Libre)",
      "start_date": "1919-02-17",
      "end_date": "1969-02-17",
      "comments": "Société anonyme française, constituée le 17 février 1919„ pour une durée de 50 ans.",
      "source": "annuaire_df_1933"
    }
  ],
  "equity_capital": [
    {
      "amount": "5.000.000",
      "currency": "Franc",
      "infodate": "1919-02-17",
      "source": "annuaire_df_1933",
      "comments": "40 millions de francs, divisé en 40.000 actions de 1.000 francs, «ont tî.ooo entièrement amorties et remplacées par des actions de jouissance. A eni?ne 5 millions, porté en 1920 SI 10 millions, en juillet 1921 à 12 millions, porté d“?|eèmbre 1925 Si 18 millions, puis en décembre 1929 à 40 millions par la création r™ 00 actions de 1.000 francs dont 8.888 remises à la Société Pathé-Orient en «Présentation de son apport."
    },
    {
      "amount": "10.000.000",
      "currency": "Franc",
      "infodate": "1920-01-01",
      "source": "annuaire_df_1933",
      "comments": "40 millions de francs, divisé en 40.000 actions de 1.000 francs, «ont tî.ooo entièrement amorties et remplacées par des actions de jouissance. A eni?ne 5 millions, porté en 1920 SI 10 millions, en juillet 1921 à 12 millions, porté d“?|eèmbre 1925 Si 18 millions, puis en décembre 1929 à 40 millions par la création r™ 00 actions de 1.000 francs dont 8.888 remises à la Société Pathé-Orient en «Présentation de son apport."
    },
    {
      "amount": "12.000.000",
      "currency": "Franc",
      "infodate": "1921-07-01",
      "source": "annuaire_df_1933",
      "comments": "lie.'*8* soc'al • ^0 millions de francs, divisé en 40.000 actions de 1.000 francs, «ont tî.ooo entièrement amorties et remplacées par des actions de jouissance. A eni?ne 5 millions, porté en 1920 SI 10 millions, en juillet 1921 à 12 millions, porté d“?|eèmbre 1925 Si 18 millions, puis en décembre 1929 à 40 millions par la création r™ 00 actions de 1.000 francs dont 8.888 remises à la Société Pathé-Orient en «Présentation de son apport."
    },
    {
      "amount": "18.000.000",
      "currency": "Franc",
      "infodate": "1925-12-01",
      "source": "annuaire_df_1933",
      "comments": "40 millions de francs, divisé en 40.000 actions de 1.000 francs, «ont tî.ooo entièrement amorties et remplacées par des actions de jouissance. A eni?ne 5 millions, porté en 1920 SI 10 millions, en juillet 1921 à 12 millions, porté d“?|eèmbre 1925 Si 18 millions, puis en décembre 1929 à 40 millions par la création r™ 00 actions de 1.000 francs dont 8.888 remises à la Société Pathé-Orient en «Présentation de son apport.\n"
    },
    {
      "amount": "40.000.000",
      "currency": "Franc",
      "infodate": "1929-12-01",
      "source": "annuaire_df_1933",
      "comments": "40 millions de francs, divisé en 40.000 actions de 1.000 francs, dont 12.ooo entièrement amorties et remplacées par des actions de jouissance.  Par la création 22000 actions de 1.000 francs dont 8.888 remises à la Société Pathé-Orient en réprésentation de son apport"
    },
    {
      "amount": "41.500.000",
      "currency": "Franc",
      "infodate": "1934-01-01",
      "source": "annuaire_df_1940",
      "comments": "42.000.000 de francs, divisé en 42.000 actions de 1.000 francs dont 12.000 entièrement amorties et remplacées par des actions de jouissance. A l’origine, 5 millions porté en 1920 à 10 millions, en 1921 à 12 millions, en 1925 à 18 millions, en 1929 à 40 millions, par la création de 22.000 actions de 1.000 francs dont 8.888 remises à la Société Pathé-Orient. Porté à 41.500.000 en 1934 par la création de 1.500 actions de 1.000 fr. remises à la Sté Gle de Disques. Porté à 42.000.000 en novembre 1936 par la création de 500 actions nouvelles remises à la Cie du Gramophone en rémunération de son apport-fusion."
    },
    {
      "amount": "42.000.000",
      "currency": "Franc",
      "infodate": "1936-11-01",
      "source": "annuaire_df_1940",
      "comments": "42.000.000 de francs, divisé en 42.000 actions de 1.000 francs dont 12.000 entièrement amorties et remplacées par des actions de jouissance. A l’origine, 5 millions porté en 1920 à 10 millions, en 1921 à 12 millions, en 1925 à 18 millions, en 1929 à 40 millions, par la création de 22.000 actions de 1.000 francs dont 8.888 remises à la Société Pathé-Orient. Porté à 41.500.000 en 1934 par la création de 1.500 actions de 1.000 fr. remises à la Sté Gle de Disques. Porté à 42.000.000 en novembre 1936 par la création de 500 actions nouvelles remises à la Cie du Gramophone en rémunération de son apport-fusion."
    },
    {
      "amount": "168.000.000",
      "currency": "Franc",
      "infodate": "1951-01-01",
      "source": "annuaire_df_1953",
      "comments": "168.000.000 de fr., divisé en 42.000 actions de 4.000 fr. dont 12.000 amorties de 1.000 fr. -A l'origine, 5 millions porté en 1920 à 10 millions, en 1921 à 12 millions, en 1925 à 18 millions, en 1929 à 40 millions, par la création de 22.000 actions de 1.000 fr. dont 8.888 remises à la Société Pathé-Orient. Porté à 41.500.000 en 1934 par la création de 1.500 actions de 1.000 fr. remises à la Société Générale de Disques. Porté à 42.000.000 en novembre 1936 par la création de 500 actions nouvelles remises à la Compagnie du Gramophone en rémunération de son apport-fusion. Porté en 1951 à 168 millions par élévation du nominal à 4.000 fr."
    }
  ],
  "profit_dividends": [
    {
      "first_date": "1929-02-28",
      "last_date": "1951-12-31",
      "obs_count": 62
    }
  ],
  "public_status": false,
  "stock_exchanges": {
    "1": {
      "id": 1,
      "name": "Paris (Official List)",
      "listings_stats": {
        "start_date": "1962-01-02"
      },
      "spot_prices_stats": {
        "start_date": "1962-01-02",
        "end_date": "1976-12-31"
      }
    }
  },
  "securities": {
    "16641": {
      "id": 16641,
      "name": "Pathé-Marconi, act.",
      "share_type": {
        "id": 1,
        "name": "Stock (Action)"
      },
      "types": [
        {
          "start_date": "1962-01-02",
          "end_date": "3999-12-31",
          "id": 18,
          "name": "Action",
          "stock_group": "S"
        }
      ],
      "start_date": "1962-01-02",
      "end_date": "3999-12-31",
      "prices_from": "1962-01-02",
      "prices_to": "1976-12-31",
      "is_mainstock": 0,
      "prices_count": 363
    },
    "17062": {
      "id": 17062,
      "name": "Pathé-Marconi 6% 1956, remb. à 105 NF 1957-74",
      "share_type": {
        "id": 2,
        "name": "Bond (Obligation)"
      },
      "types": [
        {
          "start_date": "1962-01-02",
          "end_date": "3999-12-31",
          "id": 1001,
          "name": "Obligation ordinaire ou classique",
          "stock_group": "B"
        }
      ],
      "start_date": "1962-01-02",
      "end_date": "3999-12-31",
      "prices_from": "1962-01-02",
      "prices_to": "1974-01-31",
      "is_mainstock": 0,
      "prices_count": 291
    }
  }
}