{
  "id": 508,
  "names": [
    "La Sauvegarde (Compagnie d'Assurances Nautiques)"
  ],
  "name": "La Sauvegarde (Compagnie d'Assurances Nautiques)",
  "balance_sheets": [],
  "balance_sheets_stats": {
    "start_date": null,
    "end_date": null
  },
  "locations_stats": {
    "start_date": "1856-01-01",
    "end_date": "1856-12-31"
  },
  "locations": {
    "Siège social": [
      {
        "location_types_id": 1,
        "location_type": "Siège social",
        "address": "Place de la bourse, 8",
        "city": "Paris",
        "district": "Paris",
        "country": "France",
        "in_yearbook_from": 1856,
        "in_yearbook_to": 1856
      }
    ]
  },
  "persons": [],
  "persons_stats": {
    "persons_count": 0,
    "start_date": null,
    "end_date": null
  },
  "yearbooks_ocrs": [],
  "juridical_status": [
    {
      "juridical_status": "Société Anonyme (Libre)",
      "start_date": "1846-05-04",
      "end_date": "1875-12-31",
      "comments": "Société anonyme française autorisée par ordonnance royale du 4 mai 1846, pour une durée 30 ans. ",
      "source": "Courtois 1856"
    }
  ],
  "equity_capital": [],
  "profit_dividends": [],
  "public_status": false,
  "stock_exchanges": {
    "1": {
      "id": 1,
      "name": "Paris (Official List)",
      "listings_stats": {
        "start_date": "1849-07-28"
      },
      "spot_prices_stats": {
        "start_date": "1849-07-28",
        "end_date": "1859-10-22"
      }
    }
  },
  "securities": {
    "572": {
      "id": 572,
      "name": "La Sauve-garde (assurances)",
      "share_type": {
        "id": 6,
        "name": "UNKNOWN"
      },
      "types": [
        {
          "start_date": "1849-07-28",
          "end_date": "3999-12-31",
          "id": 18,
          "name": "Action",
          "stock_group": "S"
        }
      ],
      "start_date": "1849-07-28",
      "end_date": "3999-12-31",
      "prices_from": "1849-07-28",
      "prices_to": "1849-07-28",
      "is_mainstock": 1,
      "prices_count": 1
    },
    "1177": {
      "id": 1177,
      "name": "La Sauvegard",
      "share_type": {
        "id": 6,
        "name": "UNKNOWN"
      },
      "types": [
        {
          "start_date": "1859-10-22",
          "end_date": "3999-12-31",
          "id": 1,
          "name": "UNKNOWN",
          "stock_group": "U"
        }
      ],
      "start_date": "1859-10-22",
      "end_date": "3999-12-31",
      "prices_from": "1859-10-22",
      "prices_to": "1859-10-22",
      "is_mainstock": 0,
      "prices_count": 1
    }
  }
}