{
  "id": 3624,
  "names": [
    "UNION BANCAIRE DU NORD",
    "Union Bancaire du Nord",
    "Union bancaire du Nord",
    "Union bancaire du Nord (U. B. N.)"
  ],
  "name": "Union Bancaire du Nord",
  "balance_sheets": [
    {
      "start_date": "1937-12-31",
      "source": "Annuaire Desfossés 1940",
      "page": null
    },
    {
      "start_date": "1938-12-31",
      "source": "Annuaire Desfossés 1945",
      "page": "312"
    },
    {
      "start_date": "1938-12-31",
      "source": "Annuaire Desfossés 1945",
      "page": "2287"
    },
    {
      "start_date": "1941-12-31",
      "source": "Annuaire Desfossés 1945",
      "page": "312"
    },
    {
      "start_date": "1941-12-31",
      "source": "Annuaire Desfossés 1945",
      "page": "2287"
    },
    {
      "start_date": "1942-12-31",
      "source": "Annuaire Desfossés 1945",
      "page": "312"
    },
    {
      "start_date": "1942-12-31",
      "source": "Annuaire Desfossés 1945",
      "page": "2287"
    },
    {
      "start_date": "1943-12-31",
      "source": "Annuaire Desfossés 1945",
      "page": "2287"
    },
    {
      "start_date": "1943-12-31",
      "source": "Annuaire Desfossés 1945",
      "page": "312"
    },
    {
      "start_date": "1944-12-31",
      "source": "Annuaire Desfossés 1948",
      "page": "340"
    },
    {
      "start_date": "1945-12-31",
      "source": "Annuaire Desfossés 1948",
      "page": "340"
    },
    {
      "start_date": "1946-12-31",
      "source": "Annuaire Desfossés 1948",
      "page": "340"
    },
    {
      "start_date": "1947-12-31",
      "source": "Annuaire Desfossés 1953",
      "page": "175"
    },
    {
      "start_date": "1948-12-31",
      "source": "Annuaire Desfossés 1953",
      "page": "175"
    },
    {
      "start_date": "1949-12-31",
      "source": "Annuaire Desfossés 1953",
      "page": "175"
    },
    {
      "start_date": "1950-12-31",
      "source": "Annuaire Desfossés 1953",
      "page": "175"
    },
    {
      "start_date": "1951-12-31",
      "source": "Annuaire Desfossés 1953",
      "page": "175"
    }
  ],
  "balance_sheets_stats": {
    "start_date": "1937-12-31",
    "end_date": "1951-12-31"
  },
  "locations_stats": {
    "start_date": "1940-01-01",
    "end_date": "1953-12-31"
  },
  "locations": {
    "Siège social": [
      {
        "location_types_id": 1,
        "location_type": "Siège social",
        "address": "Boulevard haussmann, 57",
        "city": "Paris",
        "district": "Paris",
        "country": "France",
        "in_yearbook_from": 1940,
        "in_yearbook_to": 1945
      },
      {
        "location_types_id": 1,
        "location_type": "Siège social",
        "address": "Rue des mathurins, 32",
        "city": "Paris",
        "district": "Paris",
        "country": "France",
        "in_yearbook_from": 1948,
        "in_yearbook_to": 1948
      },
      {
        "location_types_id": 1,
        "location_type": "Siège social",
        "address": "Boulevard haussmann, 57",
        "city": "Paris",
        "district": null,
        "country": "France",
        "in_yearbook_from": 1953,
        "in_yearbook_to": 1953
      }
    ]
  },
  "persons": [
    {
      "persons_count": 7,
      "yearbook": "Annuaire Desfossés 1940",
      "source": "annuaire_df_1940",
      "page": null
    },
    {
      "persons_count": 4,
      "yearbook": "Annuaire Desfossés 1945",
      "source": "annuaire_df_1945",
      "page": "2287"
    },
    {
      "persons_count": 4,
      "yearbook": "Annuaire Desfossés 1945",
      "source": "annuaire_df_1945",
      "page": "312"
    },
    {
      "persons_count": 3,
      "yearbook": "Annuaire Desfossés 1948",
      "source": "annuaire_df_1948",
      "page": "340"
    },
    {
      "persons_count": 9,
      "yearbook": "Annuaire Desfossés 1953",
      "source": "annuaire_df_1953",
      "page": "175"
    }
  ],
  "persons_stats": {
    "persons_count": 17,
    "start_date": "1940-01-01",
    "end_date": "1953-12-31"
  },
  "yearbooks_ocrs": [
    {
      "source": "annuaire_df_1940",
      "yearbook": "Annuaire Desfossés 1940",
      "page": null
    },
    {
      "source": "annuaire_df_1945",
      "yearbook": "Annuaire Desfossés 1945",
      "page": "2287"
    },
    {
      "source": "annuaire_df_1945",
      "yearbook": "Annuaire Desfossés 1945",
      "page": "312"
    },
    {
      "source": "annuaire_df_1948",
      "yearbook": "Annuaire Desfossés 1948",
      "page": "340"
    },
    {
      "source": "annuaire_df_1953",
      "yearbook": "Annuaire Desfossés 1953",
      "page": "175"
    }
  ],
  "juridical_status": [
    {
      "juridical_status": "Société Anonyme (Libre)",
      "start_date": "1928-01-01",
      "end_date": "2027-01-01",
      "comments": "Constitution : Société anonyme française constituée en 1928 pour 99 ans.",
      "source": "annuaire_df_1940"
    }
  ],
  "equity_capital": [
    {
      "amount": "60.000.000",
      "currency": "Franc",
      "infodate": "1928-01-01",
      "source": "annuaire_df_1940",
      "comments": "60 millions divisé en 60.000 actions de 1.000 francs dont 15.000 A libérées du quart obligatoirement nominatives et 45.000 B. Le Conseil est autorisé à porter ,1e capital à 100 millinos. Les actions A jouissent d’un droit de préférence à la souscription des actions nouvelles en compensation de leur privilège de vote."
    },
    {
      "amount": "45.000.000",
      "currency": "Franc",
      "infodate": "1941-11-26",
      "source": "annuaire_df_1945",
      "comments": "Capital : 45 millions divisé en 60.000 actions de 750 francs libérées, dont 15.000 A obligatoirement nominatives et 45.000 B. Le Conseil est autorisé à porter le capital à 100 millions. Les actions A jouissent d'un droit de préférence à la souscription des actions nouvelles en compensation de .leur privilège de vote, à concurrence d’un montant total de 15 millions. Le capital, qui était de 60 millions depuis l’origine, a été ramené à son chiffre actuel, selon décision d’une assemblée extraordinaii*e du 26 novembre 1941, par la décharge du montant de 250 francs par titre restant à appeler sur les actions A, et le remboursement de 250 francs .par action B."
    },
    {
      "amount": "75.000.000",
      "currency": "Franc",
      "infodate": "1952-01-01",
      "source": "annuaire_df_1953",
      "comments": "Le capital qui était de 60 millions à l'origine, puis avait été ramené à 45 millions suivant décision de l'Assemblée générale extraordinaire du 26 novembre 1941, a été, suivant décision de l'Assemblée générale extraordinaire du 22 septembre 1949, porté à 75 millions de fr. par incorporation d'une partie de la réserve de réévaluation (nominal porté de 750 à 1.000 fr., distribution gratuite d'une action nouvelle pour 10 anciennes, échange de parts de fondateur contre des actions); jouissance 1er janvier 1949. Porté en 1952 à. ICO millions par création de 25.000 actions de 4.000 fr. échangées contre les actions de 1.000 fr,. sur la base d'une action de 4.000 fr. pour 3 actions de 1.000 fr."
    },
    {
      "amount": "100.000.000",
      "currency": "Franc",
      "infodate": "1952-01-02",
      "source": "annuaire_df_1953",
      "comments": "Le capital qui était de 60 millions à l'origine, puis avait été ramené à 45 millions suivant décision de l'Assemblée générale extraordinaire du 26 novembre 1941, a été, suivant décision de l'Assemblée générale extraordinaire du 22 septembre 1949, porté à 75 millions de fr. par incorporation d'une partie de la réserve de réévaluation (nominal porté de 750 à 1.000 fr., distribution gratuite d'une action nouvelle pour 10 anciennes, échange de parts de fondateur contre des actions); jouissance 1er janvier 1949. Porté en 1952 à. ICO millions par création de 25.000 actions de 4.000 fr. échangées contre les actions de 1.000 fr,. sur la base d'une action de 4.000 fr. pour 3 actions de 1.000 fr."
    }
  ],
  "profit_dividends": [
    {
      "first_date": "1935-12-31",
      "last_date": "1951-12-31",
      "obs_count": 77
    }
  ],
  "public_status": false,
  "stock_exchanges": {
    "1": {
      "id": 1,
      "name": "Paris (Official List)",
      "listings_stats": {
        "start_date": "1967-05-02"
      },
      "spot_prices_stats": {
        "start_date": "1967-05-02",
        "end_date": "1976-12-31"
      }
    }
  },
  "securities": {
    "18718": {
      "id": 18718,
      "name": "Lille_Bourse Union Bancaire du Nord, act.",
      "share_type": {
        "id": 1,
        "name": "Stock (Action)"
      },
      "types": [
        {
          "start_date": "1967-05-02",
          "end_date": "3999-12-31",
          "id": 18,
          "name": "Action",
          "stock_group": "S"
        }
      ],
      "start_date": "1967-05-02",
      "end_date": "3999-12-31",
      "prices_from": "1967-05-02",
      "prices_to": "1976-12-31",
      "is_mainstock": 0,
      "prices_count": 234
    },
    "20188": {
      "id": 20188,
      "name": "Lille_Bourse Union Bancaire du Nord, Promesses (Jce 1/1/71)",
      "share_type": {
        "id": 1,
        "name": "Stock (Action)"
      },
      "types": [
        {
          "start_date": "1971-06-25",
          "end_date": "3999-12-31",
          "id": 27,
          "name": "Promesse d'action",
          "stock_group": "S"
        }
      ],
      "start_date": "1971-06-25",
      "end_date": "3999-12-31",
      "prices_from": "1971-06-25",
      "prices_to": "1971-09-15",
      "is_mainstock": 0,
      "prices_count": 7
    },
    "106431": {
      "id": 106431,
      "name": "Lille_Bourse Union bancaire du Nord, Promesses (Jce 1/1/69)",
      "share_type": {
        "id": 1,
        "name": "Stock (Action)"
      },
      "types": [
        {
          "start_date": "1969-07-31",
          "end_date": "1969-11-17",
          "id": 27,
          "name": "Promesse d'action",
          "stock_group": "S"
        }
      ],
      "start_date": "1969-07-31",
      "end_date": "1969-11-17",
      "prices_from": "1969-07-31",
      "prices_to": "1969-11-17",
      "is_mainstock": 0,
      "prices_count": 8
    }
  }
}