{
  "id": 4397,
  "names": [
    "SOCIETE ANONYME HOLOPHANE",
    "SOCIÉTÉ ANONYME FRANÇAISE HOLOPHANE",
    "SOCIÉTÉ ANONYME HOLOPHANE",
    "Société Anonyme Française Holophane",
    "Société Anonyme Holophane"
  ],
  "name": "SOCIÉTÉ ANONYME HOLOPHANE",
  "balance_sheets": [
    {
      "start_date": "1927-12-31",
      "source": "Annuaire Desfossés 1929",
      "page": "613"
    },
    {
      "start_date": "1929-12-31",
      "source": "Annuaire Desfossés 1931",
      "page": "619"
    },
    {
      "start_date": "1931-12-31",
      "source": "Annuaire Desfossés 1933",
      "page": "673"
    },
    {
      "start_date": "1932-12-31",
      "source": "Annuaire Desfossés 1936",
      "page": null
    },
    {
      "start_date": "1933-12-31",
      "source": "Annuaire Desfossés 1937",
      "page": "712"
    },
    {
      "start_date": "1934-12-31",
      "source": "Annuaire Desfossés 1937",
      "page": "712"
    },
    {
      "start_date": "1935-12-31",
      "source": "Annuaire Desfossés 1937",
      "page": "712"
    },
    {
      "start_date": "1936-12-31",
      "source": "Annuaire Desfossés 1940",
      "page": null
    },
    {
      "start_date": "1937-12-31",
      "source": "Annuaire Desfossés 1940",
      "page": null
    },
    {
      "start_date": "1938-12-31",
      "source": "Annuaire Desfossés 1940",
      "page": null
    },
    {
      "start_date": "1939-08-31",
      "source": "Annuaire Desfossés 1945",
      "page": "1442"
    },
    {
      "start_date": "1939-08-31",
      "source": "Annuaire Desfossés 1945",
      "page": "2303"
    },
    {
      "start_date": "1941-12-31",
      "source": "Annuaire Desfossés 1945",
      "page": "1442"
    },
    {
      "start_date": "1941-12-31",
      "source": "Annuaire Desfossés 1945",
      "page": "2303"
    },
    {
      "start_date": "1942-12-31",
      "source": "Annuaire Desfossés 1945",
      "page": "1442"
    },
    {
      "start_date": "1942-12-31",
      "source": "Annuaire Desfossés 1945",
      "page": "2303"
    },
    {
      "start_date": "1943-12-31",
      "source": "Annuaire Desfossés 1945",
      "page": "1442"
    },
    {
      "start_date": "1943-12-31",
      "source": "Annuaire Desfossés 1945",
      "page": "2303"
    },
    {
      "start_date": "1944-12-31",
      "source": "Annuaire Desfossés 1948",
      "page": "1567"
    },
    {
      "start_date": "1945-12-31",
      "source": "Annuaire Desfossés 1948",
      "page": "1567"
    },
    {
      "start_date": "1946-12-31",
      "source": "Annuaire Desfossés 1948",
      "page": "1567"
    },
    {
      "start_date": "1947-12-31",
      "source": "Annuaire Desfossés 1948",
      "page": "1567"
    },
    {
      "start_date": "1948-12-31",
      "source": "Annuaire Desfossés 1953",
      "page": "1311"
    },
    {
      "start_date": "1949-12-31",
      "source": "Annuaire Desfossés 1953",
      "page": "1311"
    },
    {
      "start_date": "1950-12-31",
      "source": "Annuaire Desfossés 1953",
      "page": "1311"
    },
    {
      "start_date": "1951-12-31",
      "source": "Annuaire Desfossés 1953",
      "page": "1311"
    }
  ],
  "balance_sheets_stats": {
    "start_date": "1927-12-31",
    "end_date": "1951-12-31"
  },
  "locations_stats": {
    "start_date": "1929-01-01",
    "end_date": "1953-12-31"
  },
  "locations": {
    "Siège social": [
      {
        "location_types_id": 1,
        "location_type": "Siège social",
        "address": "Boulevard haussmann, 156",
        "city": "Paris",
        "district": "Paris",
        "country": "France",
        "in_yearbook_from": 1929,
        "in_yearbook_to": 1953
      }
    ],
    "Usines": [
      {
        "location_types_id": 3,
        "location_type": "Usines",
        "address": null,
        "city": "Andely",
        "district": "Eure",
        "country": "France",
        "in_yearbook_from": 1945,
        "in_yearbook_to": 1945
      }
    ],
    "Agences / Succursales": [
      {
        "location_types_id": 4,
        "location_type": "Agences / Succursales",
        "address": null,
        "city": "Barcelone",
        "district": null,
        "country": "Espagne",
        "in_yearbook_from": 1945,
        "in_yearbook_to": 1945
      },
      {
        "location_types_id": 4,
        "location_type": "Agences / Succursales",
        "address": null,
        "city": "Bruxelles",
        "district": null,
        "country": "Belgique",
        "in_yearbook_from": 1945,
        "in_yearbook_to": 1945
      },
      {
        "location_types_id": 4,
        "location_type": "Agences / Succursales",
        "address": null,
        "city": "Genève",
        "district": null,
        "country": "Suisse",
        "in_yearbook_from": 1945,
        "in_yearbook_to": 1945
      },
      {
        "location_types_id": 4,
        "location_type": "Agences / Succursales",
        "address": null,
        "city": "Lille",
        "district": "Nord",
        "country": "France",
        "in_yearbook_from": 1945,
        "in_yearbook_to": 1945
      },
      {
        "location_types_id": 4,
        "location_type": "Agences / Succursales",
        "address": null,
        "city": "Milan",
        "district": null,
        "country": "Italie",
        "in_yearbook_from": 1945,
        "in_yearbook_to": 1945
      }
    ]
  },
  "persons": [
    {
      "persons_count": 11,
      "yearbook": "Annuaire Desfossés 1933",
      "source": "annuaire_df_1933",
      "page": "673"
    },
    {
      "persons_count": 6,
      "yearbook": "Annuaire Desfossés 1940",
      "source": "annuaire_df_1940",
      "page": null
    },
    {
      "persons_count": 4,
      "yearbook": "Annuaire Desfossés 1945",
      "source": "annuaire_df_1945",
      "page": "1442"
    },
    {
      "persons_count": 4,
      "yearbook": "Annuaire Desfossés 1945",
      "source": "annuaire_df_1945",
      "page": "2303"
    },
    {
      "persons_count": 3,
      "yearbook": "Annuaire Desfossés 1948",
      "source": "annuaire_df_1948",
      "page": "1567"
    },
    {
      "persons_count": 9,
      "yearbook": "Annuaire Desfossés 1953",
      "source": "annuaire_df_1953",
      "page": "1311"
    }
  ],
  "persons_stats": {
    "persons_count": 22,
    "start_date": "1933-01-01",
    "end_date": "1953-12-31"
  },
  "yearbooks_ocrs": [
    {
      "source": "annuaire_df_1929",
      "yearbook": "Annuaire Desfossés 1929",
      "page": "613"
    },
    {
      "source": "annuaire_df_1931",
      "yearbook": "Annuaire Desfossés 1931",
      "page": "619"
    },
    {
      "source": "annuaire_df_1933",
      "yearbook": "Annuaire Desfossés 1933",
      "page": "673"
    },
    {
      "source": "annuaire_df_1937",
      "yearbook": "Annuaire Desfossés 1937",
      "page": "712"
    },
    {
      "source": "annuaire_df_1940",
      "yearbook": "Annuaire Desfossés 1940",
      "page": null
    },
    {
      "source": "annuaire_df_1945",
      "yearbook": "Annuaire Desfossés 1945",
      "page": "2303"
    },
    {
      "source": "annuaire_df_1945",
      "yearbook": "Annuaire Desfossés 1945",
      "page": "1442"
    },
    {
      "source": "annuaire_df_1948",
      "yearbook": "Annuaire Desfossés 1948",
      "page": "1567"
    },
    {
      "source": "annuaire_df_1953",
      "yearbook": "Annuaire Desfossés 1953",
      "page": "1311"
    }
  ],
  "juridical_status": [
    {
      "juridical_status": "Société Anonyme (Libre)",
      "start_date": "1920-03-06",
      "end_date": "1970-03-06",
      "comments": "Société anonyme française, constituée le 6 mars 1920, pour une durée de 50 ans sous la dénomination : Société anonyme française Holophane, changée en 1931 en relie actuelle.",
      "source": "annuaire_df_1933"
    }
  ],
  "equity_capital": [
    {
      "amount": "1.800.000",
      "currency": "Franc",
      "infodate": "1920-03-06",
      "source": "annuaire_df_1933",
      "comments": "8.000.000 francs, divisé en 16.000 actions de 500 francs. A l’origine 1.800.000 francs en 18.000 actions de 100 francs dont 13.000 de priorité sur lesquelles 6.000 d’apports et 5.000 ordinaires d’apports; porté en décembre 1920 à 3.300.000 francs par la création de 15.000 actions de priorité nouvelles, en mars 1921 à 5 millions par émission de 17.000 actions de priorité; en mars 1921, les actions ont été unifiées et leur nominal porté à 500 francs; en août 1929 le capital a été porté à 6.500.000 francs par création de 3.000 actions nouvelles et en février 1931 à 8.000.000 par l’émission à 560 francs de 3.000 actions nouvelles (1 nouvelle pour 5 anciennes, coup. 13).\n"
    },
    {
      "amount": "3.300.000",
      "currency": "Franc",
      "infodate": "1920-12-01",
      "source": "annuaire_df_1940",
      "comments": "8.250.000 de francs, divisé en 16.500 actions de 500 francs. A l’origine 1.800.000 francs, porté en décembre 1920 à 3.300.000 francs, en mars 1921 à 5 millions, en août 1923 porté à 6.500.000 francs, en février 1931 à 8.000.000 par l’émission à 560 francs de 3.000 actions nouvelles (1 nouvelle pour 5 anciennes, coupon 13), et en mars 1936, à 8.250.000 francs, par la création de 500 actions, remises en rémunération d’apport aux établissements P. B. L."
    },
    {
      "amount": "5.000.000",
      "currency": "Franc",
      "infodate": "1921-03-01",
      "source": "annuaire_df_1933",
      "comments": "8.000.000 francs, divisé en 16.000 actions de 500 francs. A l’origine 1.800.000 francs en 18.000 actions de 100 francs dont 13.000 de priorité sur lesquelles 6.000 d’apports et 5.000 ordinaires d’apports; porté en décembre 1920 à 3.300.000 francs par la création de 15.000 actions de priorité nouvelles, en mars 1921 à 5 millions par émission de 17.000 actions de priorité; en mars 1921, les actions ont été unifiées et leur nominal porté à 500 francs; en août 1929 le capital a été porté à 6.500.000 francs par création de 3.000 actions nouvelles et en février 1931 à 8.000.000 par l’émission à 560 francs de 3.000 actions nouvelles (1 nouvelle pour 5 anciennes, coup. 13).\n"
    },
    {
      "amount": "6.500.000",
      "currency": "Franc",
      "infodate": "1923-08-01",
      "source": "annuaire_df_1940",
      "comments": "8.250.000 de francs, divisé en 16.500 actions de 500 francs. A l’origine 1.800.000 francs, porté en décembre 1920 à 3.300.000 francs, en mars 1921 à 5 millions, en août 1923 porté à 6.500.000 francs, en février 1931 à 8.000.000 par l’émission à 560 francs de 3.000 actions nouvelles (1 nouvelle pour 5 anciennes, coupon 13), et en mars 1936, à 8.250.000 francs, par la création de 500 actions, remises en rémunération d’apport aux établissements P. B. L."
    },
    {
      "amount": "8.000.000",
      "currency": "Franc",
      "infodate": "1931-02-01",
      "source": "annuaire_df_1933",
      "comments": "8.000.000 francs, divisé en 16.000 actions de 500 francs. A l’origine 1.800.000 francs en 18.000 actions de 100 francs dont 13.000 de priorité sur lesquelles 6.000 d’apports et 5.000 ordinaires d’apports; porté en décembre 1920 à 3.300.000 francs par la création de 15.000 actions de priorité nouvelles, en mars 1921 à 5 millions par émission de 17.000 actions de priorité; en mars 1921, les actions ont été unifiées et leur nominal porté à 500 francs; en août 1929 le capital a été porté à 6.500.000 francs par création de 3.000 actions nouvelles et en février 1931 à 8.000.000 par l’émission à 560 francs de 3.000 actions nouvelles (1 nouvelle pour 5 anciennes, coup. 13)."
    },
    {
      "amount": "8.250.000",
      "currency": "Franc",
      "infodate": "1936-03-01",
      "source": "annuaire_df_1940",
      "comments": "8.250.000 de francs, divisé en 16.500 actions de 500 francs. A l’origine 1.800.000 francs, porté en décembre 1920 à 3.300.000 francs, en mars 1921 à 5 millions, en août 1923 porté à 6.500.000 francs, en février 1931 à 8.000.000 par l’émission à 560 francs de 3.000 actions nouvelles (1 nouvelle pour 5 anciennes, coupon 13), et en mars 1936, à 8.250.000 francs, par la création de 500 actions, remises en rémunération d’apport aux établissements P. B. L."
    },
    {
      "amount": "33.000.000",
      "currency": "Franc",
      "infodate": "1947-01-01",
      "source": "annuaire_df_1948",
      "comments": "33.000.000 francs. A l'origine 1.800.000 francs, porté en décembre 1920 à 3.300.000 francs, en mars 1921 à 5 millions, en août 1923 à 6.500.000 francs, en février 1931 à 8.000.000 (émission à 560 francs) ; en mars 1936, à 8.250.000 francs, en vue de l'absorption des Etablissements P. B. L. Porté en 1947 au chiffre actuel par incorporation de réserves et création de 49.500 actions de 500 fr. attribuées gratuitement."
    },
    {
      "amount": "36.300.000",
      "currency": "Franc",
      "infodate": "1947-06-01",
      "source": "annuaire_df_1948",
      "comments": "36.300.000 francs, divisé en 72.600 actions de 500 francs. A l'origine 1.800.000 francs, porté en décembre 1920 à 3.300.000 francs, en mars 1921 à 5 millions, en août 1923 à 6.500.000 francs, en février 1931 à 8.000.000 (émission à 560 francs) ; en mars 1936, à 8.250.000 francs, en vue de l'absorption des Etablissements P. B. L. Porté en 1947 à 33 millions par incorporation de réserves et création de 49.500 actions de 500 fr. attribuées gratuitement et ensuite au chiffre actuel par l'émission au pair de 6.600 actions de 500 fr. (2 nouv. pour 5 anc.)."
    },
    {
      "amount": "90.750.000",
      "currency": "Franc",
      "infodate": "1950-01-01",
      "source": "annuaire_df_1953",
      "comments": "145.200.000 fr., divisé en 29.040 act. de 5.000 fr. A l'origine, 1.800.000 fr.; porté en décembre 1920 à 3.300.000 fr. ; en mars 1921 à 5 millions;' en août 1923 à 6.500.000 fr. ; en février 1931 â 8.000.000 (émission à 560 fr.); en mars 1936, à 8.250.000 fr., en vue de l'absorption des Etablissements P.B.L. Porté en 1947 à 33 millions par incorporation de réserves et création de '19.500 actions de 500 fr. attribuées gratuitement et ensuite à 36.300.000 fr. par l'émission au pair de 6.600 actions de 500 fr. (2 nouvelles pour 5 anciennes). Porté en 1949 à 54.450.000 fr. par élévation du nominal à 750 fr., puis en 1950 à 90.750.000 fr. par élévation du nominal à 1.250 fr. Porté en 1941 à 121 millions par création de 24.200 actions de 1.250 fr. réparties gratuitement (1 pour 3). Regroupement en titi-es de 5.000 fr. à partir du 3 septembre 1951. Porté en 1952 à 145.200.000 fr. par création de 4.840 actions nouv. de 5.000 fr. réparties gratuitement (1 pour 5)."
    },
    {
      "amount": "121.000.000",
      "currency": "Franc",
      "infodate": "1951-01-01",
      "source": "annuaire_df_1953",
      "comments": "Split : 145.200.000 fr., divisé en 29.040 act. de 5.000 fr. A l'origine, 1.800.000 fr.; porté en décembre 1920 à 3.300.000 fr. ; en mars 1921 à 5 millions;' en août 1923 à 6.500.000 fr. ; en février 1931 â 8.000.000 (émission à 560 fr.); en mars 1936, à 8.250.000 fr., en vue de l'absorption des Etablissements P.B.L. Porté en 1947 à 33 millions par incorporation de réserves et création de '19.500 actions de 500 fr. attribuées gratuitement et ensuite à 36.300.000 fr. par l'émission au pair de 6.600 actions de 500 fr. (2 nouvelles pour 5 anciennes). Porté en 1949 à 54.450.000 fr. par élévation du nominal à 750 fr., puis en 1950 à 90.750.000 fr. par élévation du nominal à 1.250 fr. Porté en 1941 à 121 millions par création de 24.200 actions de 1.250 fr. réparties gratuitement (1 pour 3). Regroupement en titi-es de 5.000 fr. à partir du 3 septembre 1951. Porté en 1952 à 145.200.000 fr. par création de 4.840 actions nouv. de 5.000 fr. réparties gratuitement (1 pour 5)."
    },
    {
      "amount": "145.200.000",
      "currency": "Franc",
      "infodate": "1952-01-01",
      "source": "annuaire_df_1953",
      "comments": "145.200.000 fr., divisé en 29.040 act. de 5.000 fr. A l'origine, 1.800.000 fr.; porté en décembre 1920 à 3.300.000 fr. ; en mars 1921 à 5 millions;' en août 1923 à 6.500.000 fr. ; en février 1931 â 8.000.000 (émission à 560 fr.); en mars 1936, à 8.250.000 fr., en vue de l'absorption des Etablissements P.B.L. Porté en 1947 à 33 millions par incorporation de réserves et création de '19.500 actions de 500 fr. attribuées gratuitement et ensuite à 36.300.000 fr. par l'émission au pair de 6.600 actions de 500 fr. (2 nouvelles pour 5 anciennes). Porté en 1949 à 54.450.000 fr. par élévation du nominal à 750 fr., puis en 1950 à 90.750.000 fr. par élévation du nominal à 1.250 fr. Porté en 1941 à 121 millions par création de 24.200 actions de 1.250 fr. réparties gratuitement (1 pour 3). Regroupement en titi-es de 5.000 fr. à partir du 3 septembre 1951. Porté en 1952 à 145.200.000 fr. par création de 4.840 actions nouv. de 5.000 fr. réparties gratuitement (1 pour 5)."
    }
  ],
  "profit_dividends": [
    {
      "first_date": "1925-12-31",
      "last_date": "1951-12-31",
      "obs_count": 206
    }
  ],
  "public_status": false,
  "stock_exchanges": {
    "1": {
      "id": 1,
      "name": "Paris (Official List)",
      "listings_stats": {
        "start_date": "1962-01-02"
      },
      "spot_prices_stats": {
        "start_date": "1962-01-02",
        "end_date": "1976-12-31"
      }
    }
  },
  "securities": {
    "16781": {
      "id": 16781,
      "name": "Holophane, act. (ex-dr., )",
      "share_type": {
        "id": 1,
        "name": "Stock (Action)"
      },
      "types": [
        {
          "start_date": "1962-01-02",
          "end_date": "3999-12-31",
          "id": 18,
          "name": "Action",
          "stock_group": "S"
        }
      ],
      "start_date": "1962-01-02",
      "end_date": "3999-12-31",
      "prices_from": "1962-01-02",
      "prices_to": "1976-12-31",
      "is_mainstock": 0,
      "prices_count": 364
    },
    "18620": {
      "id": 18620,
      "name": "Holophane, act. (n° 81601 à 97920)(c. 23 att.)",
      "share_type": {
        "id": 1,
        "name": "Stock (Action)"
      },
      "types": [
        {
          "start_date": "1966-11-28",
          "end_date": "3999-12-31",
          "id": 27,
          "name": "Promesse d'action",
          "stock_group": "S"
        }
      ],
      "start_date": "1966-11-28",
      "end_date": "3999-12-31",
      "prices_from": "1967-01-03",
      "prices_to": "1967-09-15",
      "is_mainstock": 0,
      "prices_count": 18
    },
    "20464": {
      "id": 20464,
      "name": "Holophane, act (ex-dr., ) - Promesses (Jce 1/1/70)",
      "share_type": {
        "id": 1,
        "name": "Stock (Action)"
      },
      "types": [
        {
          "start_date": "1970-04-13",
          "end_date": "3999-12-31",
          "id": 27,
          "name": "Promesse d'action",
          "stock_group": "S"
        }
      ],
      "start_date": "1970-04-13",
      "end_date": "3999-12-31",
      "prices_from": "1970-04-21",
      "prices_to": "1970-07-15",
      "is_mainstock": 0,
      "prices_count": 7
    },
    "20469": {
      "id": 20469,
      "name": "Holophane, act (ex-dr., ) - Act. (nos 99381 à 124225) (c. 26 att.)",
      "share_type": {
        "id": 1,
        "name": "Stock (Action)"
      },
      "types": [
        {
          "start_date": "1970-07-27",
          "end_date": "3999-12-31",
          "id": 11,
          "name": "Action ordinaire",
          "stock_group": "S"
        }
      ],
      "start_date": "1970-07-27",
      "end_date": "3999-12-31",
      "prices_from": "1970-07-31",
      "prices_to": "1970-09-15",
      "is_mainstock": 0,
      "prices_count": 5
    },
    "20976": {
      "id": 20976,
      "name": "Holophane, promesses (Jce 1/1/1972)",
      "share_type": {
        "id": 1,
        "name": "Stock (Action)"
      },
      "types": [
        {
          "start_date": "1972-05-12",
          "end_date": "3999-12-31",
          "id": 27,
          "name": "Promesse d'action",
          "stock_group": "S"
        }
      ],
      "start_date": "1972-05-12",
      "end_date": "3999-12-31",
      "prices_from": "1972-05-31",
      "prices_to": "1972-09-15",
      "is_mainstock": 0,
      "prices_count": 8
    },
    "21516": {
      "id": 21516,
      "name": "Holophane, act.(n°155251 à 310500)(c.33 étoilé att.)",
      "share_type": {
        "id": 1,
        "name": "Stock (Action)"
      },
      "types": [
        {
          "start_date": "1975-01-06",
          "end_date": "3999-12-31",
          "id": 18,
          "name": "Action",
          "stock_group": "S"
        }
      ],
      "start_date": "1975-01-06",
      "end_date": "3999-12-31",
      "prices_from": "1975-01-10",
      "prices_to": "1975-06-30",
      "is_mainstock": 0,
      "prices_count": 13
    }
  }
}