{
  "id": 4317,
  "names": [
    "SOCIETE COMMERCIALE DE L'OUEST AFRICAIN",
    "SOCIÉTÉ COMMERCIALE DE L'OUEST AFRICAIN",
    "Société Commerciale de l'Ouest Africain"
  ],
  "name": "SOCIETE COMMERCIALE DE L'OUEST AFRICAIN",
  "balance_sheets": [
    {
      "start_date": "1922-04-30",
      "source": "Annuaire Desfossés 1923",
      "page": "1300"
    },
    {
      "start_date": "1922-04-30",
      "source": "Annuaire Desfossés 1923",
      "page": "1077"
    },
    {
      "start_date": "1922-05-01",
      "source": "Annuaire Desfossés 1923",
      "page": "1300"
    },
    {
      "start_date": "1922-05-01",
      "source": "Annuaire Desfossés 1923",
      "page": "1077"
    },
    {
      "start_date": "1924-04-30",
      "source": "Annuaire Desfossés 1925",
      "page": "1259"
    },
    {
      "start_date": "1926-04-30",
      "source": "Annuaire Desfossés 1927",
      "page": "1043"
    },
    {
      "start_date": "1928-04-30",
      "source": "Annuaire Desfossés 1929",
      "page": "1111"
    },
    {
      "start_date": "1930-04-30",
      "source": "Annuaire Desfossés 1931",
      "page": "1134"
    },
    {
      "start_date": "1931-04-30",
      "source": "Annuaire Desfossés 1932",
      "page": null
    },
    {
      "start_date": "1932-04-30",
      "source": "Annuaire Desfossés 1933",
      "page": "1187"
    },
    {
      "start_date": "1933-04-30",
      "source": "Annuaire Desfossés 1937",
      "page": "1336"
    },
    {
      "start_date": "1934-04-30",
      "source": "Annuaire Desfossés 1937",
      "page": "1336"
    },
    {
      "start_date": "1935-04-30",
      "source": "Annuaire Desfossés 1937",
      "page": "1336"
    },
    {
      "start_date": "1936-04-30",
      "source": "Annuaire Desfossés 1940",
      "page": null
    },
    {
      "start_date": "1937-04-30",
      "source": "Annuaire Desfossés 1940",
      "page": null
    },
    {
      "start_date": "1938-04-30",
      "source": "Annuaire Desfossés 1940",
      "page": null
    },
    {
      "start_date": "1939-04-30",
      "source": "Annuaire Desfossés 1940",
      "page": null
    },
    {
      "start_date": "1941-04-30",
      "source": "Annuaire Desfossés 1945",
      "page": "1827"
    },
    {
      "start_date": "1942-04-30",
      "source": "Annuaire Desfossés 1945",
      "page": "1827"
    },
    {
      "start_date": "1943-04-30",
      "source": "Annuaire Desfossés 1945",
      "page": "1827"
    },
    {
      "start_date": "1944-04-30",
      "source": "Annuaire Desfossés 1948",
      "page": "2134"
    },
    {
      "start_date": "1945-04-30",
      "source": "Annuaire Desfossés 1948",
      "page": "2134"
    },
    {
      "start_date": "1946-04-30",
      "source": "Annuaire Desfossés 1948",
      "page": "2134"
    },
    {
      "start_date": "1947-03-31",
      "source": "Annuaire Desfossés 1948",
      "page": "2134"
    },
    {
      "start_date": "1948-03-31",
      "source": "Annuaire Desfossés 1953",
      "page": "1744"
    },
    {
      "start_date": "1949-03-31",
      "source": "Annuaire Desfossés 1953",
      "page": "1744"
    },
    {
      "start_date": "1950-03-31",
      "source": "Annuaire Desfossés 1953",
      "page": "1744"
    },
    {
      "start_date": "1951-03-31",
      "source": "Annuaire Desfossés 1953",
      "page": "1744"
    },
    {
      "start_date": "1952-03-31",
      "source": "Annuaire Desfossés 1953",
      "page": "1744"
    }
  ],
  "balance_sheets_stats": {
    "start_date": "1922-04-30",
    "end_date": "1952-03-31"
  },
  "locations_stats": {
    "start_date": "1923-01-01",
    "end_date": "1953-12-31"
  },
  "locations": {
    "Siège social": [
      {
        "location_types_id": 1,
        "location_type": "Siège social",
        "address": "Rue de miromesnil, 69",
        "city": "Paris",
        "district": "Paris",
        "country": "France",
        "in_yearbook_from": 1923,
        "in_yearbook_to": 1927
      },
      {
        "location_types_id": 1,
        "location_type": "Siège social",
        "address": "Rue de téhéran, 7",
        "city": "Paris",
        "district": "Paris",
        "country": "France",
        "in_yearbook_from": 1930,
        "in_yearbook_to": 1953
      }
    ],
    "Usines": [
      {
        "location_types_id": 3,
        "location_type": "Usines",
        "address": null,
        "city": null,
        "district": null,
        "country": "Afrique occidentale française",
        "in_yearbook_from": 1940,
        "in_yearbook_to": 1940
      },
      {
        "location_types_id": 3,
        "location_type": "Usines",
        "address": null,
        "city": null,
        "district": null,
        "country": "Cameroun",
        "in_yearbook_from": 1940,
        "in_yearbook_to": 1940
      },
      {
        "location_types_id": 3,
        "location_type": "Usines",
        "address": null,
        "city": null,
        "district": null,
        "country": "Ghana",
        "in_yearbook_from": 1940,
        "in_yearbook_to": 1940
      },
      {
        "location_types_id": 3,
        "location_type": "Usines",
        "address": null,
        "city": null,
        "district": null,
        "country": "Nigeria",
        "in_yearbook_from": 1940,
        "in_yearbook_to": 1940
      },
      {
        "location_types_id": 3,
        "location_type": "Usines",
        "address": null,
        "city": null,
        "district": null,
        "country": "Sierra-Léone",
        "in_yearbook_from": 1940,
        "in_yearbook_to": 1940
      }
    ]
  },
  "persons": [
    {
      "persons_count": 11,
      "yearbook": "Annuaire Desfossés 1927",
      "source": "annuaire_df_1927",
      "page": "1043"
    },
    {
      "persons_count": 11,
      "yearbook": "Annuaire Desfossés 1933",
      "source": "annuaire_df_1933",
      "page": "1187"
    },
    {
      "persons_count": 2,
      "yearbook": "Annuaire Desfossés 1940",
      "source": "annuaire_df_1940",
      "page": null
    },
    {
      "persons_count": 3,
      "yearbook": "Annuaire Desfossés 1945",
      "source": "annuaire_df_1945",
      "page": "1827"
    },
    {
      "persons_count": 7,
      "yearbook": "Annuaire Desfossés 1948",
      "source": "annuaire_df_1948",
      "page": "2134"
    },
    {
      "persons_count": 13,
      "yearbook": "Annuaire Desfossés 1953",
      "source": "annuaire_df_1953",
      "page": "1744"
    }
  ],
  "persons_stats": {
    "persons_count": 39,
    "start_date": "1923-01-01",
    "end_date": "1953-12-31"
  },
  "yearbooks_ocrs": [
    {
      "source": "annuaire_df_1923",
      "yearbook": "Annuaire Desfossés 1923",
      "page": "1077"
    },
    {
      "source": "annuaire_df_1923",
      "yearbook": "Annuaire Desfossés 1923",
      "page": "1300"
    },
    {
      "source": "annuaire_df_1925",
      "yearbook": "Annuaire Desfossés 1925",
      "page": "1259"
    },
    {
      "source": "annuaire_df_1927",
      "yearbook": "Annuaire Desfossés 1927",
      "page": "1043"
    },
    {
      "source": "annuaire_df_1929",
      "yearbook": "Annuaire Desfossés 1929",
      "page": "1111"
    },
    {
      "source": "annuaire_df_1931",
      "yearbook": "Annuaire Desfossés 1931",
      "page": "1134"
    },
    {
      "source": "annuaire_df_1933",
      "yearbook": "Annuaire Desfossés 1933",
      "page": "1187"
    },
    {
      "source": "annuaire_df_1937",
      "yearbook": "Annuaire Desfossés 1937",
      "page": "1336"
    },
    {
      "source": "annuaire_df_1940",
      "yearbook": "Annuaire Desfossés 1940",
      "page": null
    },
    {
      "source": "annuaire_df_1945",
      "yearbook": "Annuaire Desfossés 1945",
      "page": "1827"
    },
    {
      "source": "annuaire_df_1948",
      "yearbook": "Annuaire Desfossés 1948",
      "page": "2134"
    },
    {
      "source": "annuaire_df_1953",
      "yearbook": "Annuaire Desfossés 1953",
      "page": "1744"
    }
  ],
  "juridical_status": [
    {
      "juridical_status": "Société Anonyme (Libre)",
      "start_date": "1906-12-06",
      "end_date": "1966-12-06",
      "comments": "Société anonyme française, constituée le 6 décembre 1906, pour une durée de 60 ans.",
      "source": "annuaire_df_1923"
    },
    {
      "juridical_status": "Société Anonyme (Libre)",
      "start_date": "1966-12-07",
      "end_date": "2042-04-04",
      "comments": "Société anonyme française, constituée Je 4 avril 1907, pour 135 ans.",
      "source": "annuaire_df_1948"
    }
  ],
  "equity_capital": [
    {
      "amount": "3.000.000",
      "currency": "Franc",
      "infodate": "1906-12-06",
      "source": "annuaire_df_1923",
      "comments": " A l’origine 3.000.000 francs"
    },
    {
      "amount": "4.000.000",
      "currency": "Franc",
      "infodate": "1913-01-01",
      "source": "annuaire_df_1923",
      "comments": " porté en 1913 à 4 millions, "
    },
    {
      "amount": "4.500.000",
      "currency": "Franc",
      "infodate": "1915-01-01",
      "source": "annuaire_df_1923",
      "comments": "en 1915 à 4 % millions,"
    },
    {
      "amount": "9.000.000",
      "currency": "Franc",
      "infodate": "1918-01-01",
      "source": "annuaire_df_1923",
      "comments": " en 1918 à 9 millions "
    },
    {
      "amount": "18.000.000",
      "currency": "Franc",
      "infodate": "1920-01-01",
      "source": "annuaire_df_1923",
      "comments": "30 millions de francs, divisé en 60.000 actions de 500 francs. A l’origine 3 millions de francs, porté en 1913 à 4 millions, en 1916 à 4.500.000 francs, en 1917 à 9 millions, en janvier 1920 à 18 millions et en novembre 1920, au chiffre actuel."
    },
    {
      "amount": "30.000.000",
      "currency": "Franc",
      "infodate": "1920-11-01",
      "source": "annuaire_df_1923",
      "comments": "30 millions de francs, divisé en 60.000 actions de 500 francs. A l’origine 3 millions de francs, porté en 1913 à 4 millions, en 1916 à 4.500.000 francs, en 1917 à 9 millions, en janvier 1920 à 18 millions et en novembre 1920, au chiffre actuel."
    },
    {
      "amount": "50.000.000",
      "currency": "Franc",
      "infodate": "1924-01-01",
      "source": "annuaire_df_1927",
      "comments": "50.000.000 de frs, divisé en 100.000 actions de 500 francs. A l’origine 3.000.000 de fr. porté en 1913 à 4 millions, en 1915 à 4 y2 millions, en 1918 à 9 millions, en janvier 1920 à 18 millions, en novembre 1920 à 30 millions et en mai 1924 au chiffre actuel."
    },
    {
      "amount": "100.000.000",
      "currency": "Franc",
      "infodate": "1927-04-01",
      "source": "annuaire_df_1945",
      "comments": "200 millions, divisé en 800.000 actions de 250 francs. A l’origine, 3 millions de francs, porté en 1913 à 4 millions ; en 1915 à 4 millions 1/2 ; en 1918 à 9 millions, en janvier 1920 à 18 millions, en novembre 1920' à 30 millions, en mai 1924 à 50 millions, en avril 1927 à 100 millions, en juillet 1927 à 105 millions (actions à vote plural dites B), en 1929 à 157.500.000 francs. Ramené en mai 1932 à 135.975.000 francs par l’annulation de 43.050 actions, puis à 67.987.500 francs par la réduction de la valeur nominale des actions de 500 francs à 250 francs, en 1934 à 65 millions (rachat et annulation des actions à vote plural et de 1.950 actions A). Porté en 1937 à 75 millions (prélèvement sur le fonds de prévoyance et transformation en 40.000 actions destinées à l’échange des parts de compensation créées en 1932), puis à 125 millions par l’émission à 275 francs de 200.000 actions. Porté en 1941 à 200 millions par l’émission à 275 francs de 300.000 actions de 250 francs réservées aux actionnaires à raison de 3 nouvelles pour 5 anciennes."
    },
    {
      "amount": "105.000.000",
      "currency": "Franc",
      "infodate": "1927-07-01",
      "source": "annuaire_df_1933",
      "comments": "67.987.500 francs, divisé en 271.950 actions de 250 francs dont 271.950 actions A libérées et 10.000 B non libérées. A l’origine, 3.000.000 de francs, porté en 1913 à 4 millions, en 1915 à 4 millions 14, en 1918 à 9 millions, en janvier 1920 à 18 millions, en novembre 1920 à 30 millions, en mai 1924 à 50 millions, en avril 1927 à 100 millions par la création de 100.000 actions nouvelles (1 nouvelle pour 1 ancienne), et en juillet 1927 à 105 millions par la création de 10.000 actions à vote plural dites B  (1 action pour 20 anciennes possédées avant le 27 avril 1927), les anciennes actions étant dénommées A; en mai 1929 à 157.500.000 francs par l’émission à 560 francs de 105.000 actions A nouvelles de 500 francs (1 pour 2 actions A ou B anciennes, aoupon n° 29). Ramené en mai 1932 d'abord à 135.975.000 francs par l’annulation de 43.050 actions, puis à 67.987.500 francs par la réduction de la valeur nominale des actions de 500 francs à 250 francs. \n"
    },
    {
      "amount": "157.500.000",
      "currency": "Franc",
      "infodate": "1929-05-01",
      "source": "annuaire_df_1933",
      "comments": "67.987.500 francs, divisé en 271.950 actions de 250 francs dont 271.950 actions A libérées et 10.000 B non libérées. A l’origine, 3.000.000 de francs, porté en 1913 à 4 millions, en 1915 à 4 millions 14, en 1918 à 9 millions, en janvier 1920 à 18 millions, en novembre 1920 à 30 millions, en mai 1924 à 50 millions, en avril 1927 à 100 millions par la création de 100.000 actions nouvelles (1 nouvelle pour 1 ancienne), et en juillet 1927 à 105 millions par la création de 10.000 actions à vote plural dites B  (1 action pour 20 anciennes possédées avant le 27 avril 1927), les anciennes actions étant dénommées A; en mai 1929 à 157.500.000 francs par l’émission à 560 francs de 105.000 actions A nouvelles de 500 francs (1 pour 2 actions A ou B anciennes, aoupon n° 29). Ramené en mai 1932 d'abord à 135.975.000 francs par l’annulation de 43.050 actions, puis à 67.987.500 francs par la réduction de la valeur nominale des actions de 500 francs à 250 francs. \n"
    },
    {
      "amount": "135.975.000",
      "currency": "Franc",
      "infodate": "1932-05-01",
      "source": "annuaire_df_1933",
      "comments": "67.987.500 francs, divisé en 271.950 actions de 250 francs dont 271.950 actions A libérées et 10.000 B non libérées. A l’origine, 3.000.000 de francs, porté en 1913 à 4 millions, en 1915 à 4 millions 14, en 1918 à 9 millions, en janvier 1920 à 18 millions, en novembre 1920 à 30 millions, en mai 1924 à 50 millions, en avril 1927 à 100 millions par la création de 100.000 actions nouvelles (1 nouvelle pour 1 ancienne), et en juillet 1927 à 105 millions par la création de 10.000 actions à vote plural dites B  (1 action pour 20 anciennes possédées avant le 27 avril 1927), les anciennes actions étant dénommées A; en mai 1929 à 157.500.000 francs par l’émission à 560 francs de 105.000 actions A nouvelles de 500 francs (1 pour 2 actions A ou B anciennes, aoupon n° 29). Ramené en mai 1932 d'abord à 135.975.000 francs par l’annulation de 43.050 actions, puis à 67.987.500 francs par la réduction de la valeur nominale des actions de 500 francs à 250 francs. \n"
    },
    {
      "amount": "67.987.500",
      "currency": "Franc",
      "infodate": "1932-05-02",
      "source": "annuaire_df_1933",
      "comments": "67.987.500 francs, divisé en 271.950 actions de 250 francs dont 271.950 actions A libérées et 10.000 B non libérées. A l’origine, 3.000.000 de francs, porté en 1913 à 4 millions, en 1915 à 4 millions 14, en 1918 à 9 millions, en janvier 1920 à 18 millions, en novembre 1920 à 30 millions, en mai 1924 à 50 millions, en avril 1927 à 100 millions par la création de 100.000 actions nouvelles (1 nouvelle pour 1 ancienne), et en juillet 1927 à 105 millions par la création de 10.000 actions à vote plural dites B  (1 action pour 20 anciennes possédées avant le 27 avril 1927), les anciennes actions étant dénommées A; en mai 1929 à 157.500.000 francs par l’émission à 560 francs de 105.000 actions A nouvelles de 500 francs (1 pour 2 actions A ou B anciennes, aoupon n° 29). Ramené en mai 1932 d'abord à 135.975.000 francs par l’annulation de 43.050 actions, puis à 67.987.500 francs par la réduction de la valeur nominale des actions de 500 francs à 250 francs. "
    },
    {
      "amount": "65.000.000",
      "currency": "Franc",
      "infodate": "1934-01-01",
      "source": "annuaire_df_1940",
      "comments": "125 millions de francs, divisé ep 500.000 actions de 250 francs. A l’origine, 3 millions de francs, porté en 1913 à 4 millions, en 1915 à 4 millions 1/2, eQ 1918 à 9 millions, en janvier 1920 à 18 millions, en novembre 1920 à 30 millions, en mai 1924 à 50 millions, en avril 1927 à 100 millions, en juillet 1927 à 105 millions (actions à vote plural dites B), en 1929 à 157.500.000 francs. Ramené en mai 1932 à 135.975.000 francs par l’annulation de 43.050 actions, puis à 67.987.500 francs parla réduction de la valeur nominale des actions de 500 francs à 250 francs, en 1934 à 65 millions (rachat et annulation des actions à vote plural et de 1.950 actions A). Porté en 1937 à 75 millions (prélèvement sur le fonds de prévoyance et transformation en 40.000 actions destinées à l’échange des parts de compensation créées en 1932), puis à 125 millions par l’émission à 275 fr. de 200.000 actions."
    },
    {
      "amount": "75.000.000",
      "currency": "Franc",
      "infodate": "1937-01-01",
      "source": "annuaire_df_1940",
      "comments": "125 millions de francs, divisé ep 500.000 actions de 250 francs. A l’origine, 3 millions de francs, porté en 1913 à 4 millions, en 1915 à 4 millions 1/2, eQ 1918 à 9 millions, en janvier 1920 à 18 millions, en novembre 1920 à 30 millions, en mai 1924 à 50 millions, en avril 1927 à 100 millions, en juillet 1927 à 105 millions (actions à vote plural dites B), en 1929 à 157.500.000 francs. Ramené en mai 1932 à 135.975.000 francs par l’annulation de 43.050 actions, puis à 67.987.500 francs parla réduction de la valeur nominale des actions de 500 francs à 250 francs, en 1934 à 65 millions (rachat et annulation des actions à vote plural et de 1.950 actions A). Porté en 1937 à 75 millions (prélèvement sur le fonds de prévoyance et transformation en 40.000 actions destinées à l’échange des parts de compensation créées en 1932), puis à 125 millions par l’émission à 275 fr. de 200.000 actions."
    },
    {
      "amount": "125.000.000",
      "currency": "Franc",
      "infodate": "1937-01-02",
      "source": "annuaire_df_1940",
      "comments": "125 millions de francs, divisé ep 500.000 actions de 250 francs. A l’origine, 3 millions de francs, porté en 1913 à 4 millions, en 1915 à 4 millions 1/2, eQ 1918 à 9 millions, en janvier 1920 à 18 millions, en novembre 1920 à 30 millions, en mai 1924 à 50 millions, en avril 1927 à 100 millions, en juillet 1927 à 105 millions (actions à vote plural dites B), en 1929 à 157.500.000 francs. Ramené en mai 1932 à 135.975.000 francs par l’annulation de 43.050 actions, puis à 67.987.500 francs parla réduction de la valeur nominale des actions de 500 francs à 250 francs, en 1934 à 65 millions (rachat et annulation des actions à vote plural et de 1.950 actions A). Porté en 1937 à 75 millions (prélèvement sur le fonds de prévoyance et transformation en 40.000 actions destinées à l’échange des parts de compensation créées en 1932), puis à 125 millions par l’émission à 275 fr. de 200.000 actions."
    },
    {
      "amount": "200.000.000",
      "currency": "Franc",
      "infodate": "1941-01-01",
      "source": "annuaire_df_1945",
      "comments": "^ : 200 millions, divisé en 800.000 actions de 250 francs. A l’origine, 3 millions de francs, porté en 1913 à 4 millions ; en 1915 à 4 millions 1/2 ; en 1918 à 9 millions, en janvier 1920 à 18 millions, en novembre 1920' à 30 millions, en mai 1924 à 50 millions, en avril 1927 à 100 millions, en juillet 1927 à 105 millions (actions à vote plural dites B), en 1929 à 157.500.000 francs. Ramené en mai 1932 à 135.975.000 francs par l’annulation de 43.050 actions, puis à 67.987.500 francs par la réduction de la valeur nominale des actions de 500 francs à 250 francs, en 1934 à 65 millions (rachat et annulation des actions à vote plural et de 1.950 actions A). Porté en 1937 à 75 millions (prélèvement sur le fonds de prévoyance et transformation en 40.000 actions destinées à l’échange des parts de compensation créées en 1932), puis à 125 millions par l’émission à 275 francs de 200.000 actions. Porté en 1941 à 200 millions par l’émission à 275 francs de 300.000 actions de 250 francs réservées aux actionnaires à raison de 3 nouvelles pour 5 anciennes."
    },
    {
      "amount": "250.000.000",
      "currency": "Franc",
      "infodate": "1946-01-01",
      "source": "annuaire_df_1948",
      "comments": "625 millions de fr., divisé en 2.500.000 actions de 250 fr. A l'origine, 3 millions de francs, porté en 1913 à 4 millions; en 1915 à 4 millions 1/2; en 1918 à 9 millions, en janvier 1920 à 18 millions, en novembre 1920 à 30 millions, en mai 1924 à 50. millions, en avril 1927 à 100 millions, en juillet 1927 à 105 millions (actions à vote plural dites B), en .1929 à 157.500.000 francs. Ramené en mai 1932 à 135.975.000 francs par l'annulation de 43.050 actions, puis à 67.987.500 francs par la réduction de la valeur nominale des actions de 500 francs à 250 francs, en 1934 à 65 millions (rachat et annulation des actions à vote plural et de 1.950 actions A). Porté en 1937 à 75 millions (prélèvement sur le fonds de prévoyance et transformation en 40.000 actions destinées à J'échange des parts de compensation créées en 1932), puis à 125 millions par l'émission à 275 francs 'de 200.000 actions. Porté en 1941 à 200 millions par l'émission à 275 francs de 300.000 actions de 250 francs réservées aux actionnaires à raison de 3 nouvelles pour 5 anciennes. Porté en 1946 à 250 millions par l'émission à 1.000 fr. de 200.000 actions de 250 fr. .(une nouvelle pour 4 anciennes) et ensuite à 375 millions par la création de 500.000 actions, nouvelles de 250 fr. (1 nouv. pour 2 anc.). Porté en 1947 à 386.967.000 fr. (actionnaires empêchés) puis en 1948 à 6.25 millions par J'émission à 400 fr. de 952.132 actions nouvelles de 250 fr."
    },
    {
      "amount": "375.000.000",
      "currency": "Franc",
      "infodate": "1946-01-02",
      "source": "annuaire_df_1948",
      "comments": "625 millions de fr., divisé en 2.500.000 actions de 250 fr. A l'origine, 3 millions de francs, porté en 1913 à 4 millions; en 1915 à 4 millions 1/2; en 1918 à 9 millions, en janvier 1920 à 18 millions, en novembre 1920 à 30 millions, en mai 1924 à 50. millions, en avril 1927 à 100 millions, en juillet 1927 à 105 millions (actions à vote plural dites B), en .1929 à 157.500.000 francs. Ramené en mai 1932 à 135.975.000 francs par l'annulation de 43.050 actions, puis à 67.987.500 francs par la réduction de la valeur nominale des actions de 500 francs à 250 francs, en 1934 à 65 millions (rachat et annulation des actions à vote plural et de 1.950 actions A). Porté en 1937 à 75 millions (prélèvement sur le fonds de prévoyance et transformation en 40.000 actions destinées à J'échange des parts de compensation créées en 1932), puis à 125 millions par l'émission à 275 francs 'de 200.000 actions. Porté en 1941 à 200 millions par l'émission à 275 francs de 300.000 actions de 250 francs réservées aux actionnaires à raison de 3 nouvelles pour 5 anciennes. Porté en 1946 à 250 millions par l'émission à 1.000 fr. de 200.000 actions de 250 fr. .(une nouvelle pour 4 anciennes) et ensuite à 375 millions par la création de 500.000 actions, nouvelles de 250 fr. (1 nouv. pour 2 anc.). Porté en 1947 à 386.967.000 fr. (actionnaires empêchés) puis en 1948 à 6.25 millions par J'émission à 400 fr. de 952.132 actions nouvelles de 250 fr."
    },
    {
      "amount": "386.967.000",
      "currency": "Franc",
      "infodate": "1947-01-01",
      "source": "annuaire_df_1948",
      "comments": "625 millions de fr., divisé en 2.500.000 actions de 250 fr. A l'origine, 3 millions de francs, porté en 1913 à 4 millions; en 1915 à 4 millions 1/2; en 1918 à 9 millions, en janvier 1920 à 18 millions, en novembre 1920 à 30 millions, en mai 1924 à 50. millions, en avril 1927 à 100 millions, en juillet 1927 à 105 millions (actions à vote plural dites B), en .1929 à 157.500.000 francs. Ramené en mai 1932 à 135.975.000 francs par l'annulation de 43.050 actions, puis à 67.987.500 francs par la réduction de la valeur nominale des actions de 500 francs à 250 francs, en 1934 à 65 millions (rachat et annulation des actions à vote plural et de 1.950 actions A). Porté en 1937 à 75 millions (prélèvement sur le fonds de prévoyance et transformation en 40.000 actions destinées à J'échange des parts de compensation créées en 1932), puis à 125 millions par l'émission à 275 francs 'de 200.000 actions. Porté en 1941 à 200 millions par l'émission à 275 francs de 300.000 actions de 250 francs réservées aux actionnaires à raison de 3 nouvelles pour 5 anciennes. Porté en 1946 à 250 millions par l'émission à 1.000 fr. de 200.000 actions de 250 fr. .(une nouvelle pour 4 anciennes) et ensuite à 375 millions par la création de 500.000 actions, nouvelles de 250 fr. (1 nouv. pour 2 anc.). Porté en 1947 à 386.967.000 fr. (actionnaires empêchés) puis en 1948 à 6.25 millions par J'émission à 400 fr. de 952.132 actions nouvelles de 250 fr."
    },
    {
      "amount": "625.000.000",
      "currency": "Franc",
      "infodate": "1948-01-01",
      "source": "annuaire_df_1948",
      "comments": "625 millions de fr., divisé en 2.500.000 actions de 250 fr. A l'origine, 3 millions de francs, porté en 1913 à 4 millions; en 1915 à 4 millions 1/2; en 1918 à 9 millions, en janvier 1920 à 18 millions, en novembre 1920 à 30 millions, en mai 1924 à 50. millions, en avril 1927 à 100 millions, en juillet 1927 à 105 millions (actions à vote plural dites B), en .1929 à 157.500.000 francs. Ramené en mai 1932 à 135.975.000 francs par l'annulation de 43.050 actions, puis à 67.987.500 francs par la réduction de la valeur nominale des actions de 500 francs à 250 francs, en 1934 à 65 millions (rachat et annulation des actions à vote plural et de 1.950 actions A). Porté en 1937 à 75 millions (prélèvement sur le fonds de prévoyance et transformation en 40.000 actions destinées à J'échange des parts de compensation créées en 1932), puis à 125 millions par l'émission à 275 francs 'de 200.000 actions. Porté en 1941 à 200 millions par l'émission à 275 francs de 300.000 actions de 250 francs réservées aux actionnaires à raison de 3 nouvelles pour 5 anciennes. Porté en 1946 à 250 millions par l'émission à 1.000 fr. de 200.000 actions de 250 fr. .(une nouvelle pour 4 anciennes) et ensuite à 375 millions par la création de 500.000 actions, nouvelles de 250 fr. (1 nouv. pour 2 anc.). Porté en 1947 à 386.967.000 fr. (actionnaires empêchés) puis en 1948 à 6.25 millions par J'émission à 400 fr. de 952.132 actions nouvelles de 250 fr."
    },
    {
      "amount": "750.000.000",
      "currency": "Franc",
      "infodate": "1948-12-01",
      "source": "annuaire_df_1953",
      "comments": "3.000 millions de fr., divisé en 1.000.000 actions de 3.000 fr. A l'origine, 3 millions de francs, porté en 1913 à 4 millions; en 1915 à 4 millions 1/2; en 1918 à 9 millions; en janvier 1920 à 18 millions; en novembre 1920 à 30 millions; en mai 1924 à 50 millions; en avril 1927 à 100 millions; en juillet 1927 à 105 millions (actions à vote plural dites B); en 1929 àl57.500.000 .francs. Ramené en mai 1932 à 135.975.000 fr. par l'annulation de 43.050 actions, puis à 67.9S7.500 . francs par la réduction de la valeur nominale des actions de 500 fr. à 250 fr. ; en 1934 à 65 millions (rachat et\tannulation des\tactions à vote plural et de\t1..950 actions\tA). Porté en 1937 à 75 millions (prélèvement sur • le fonds de prévoyance et transformation en 40.000 actions destinées à. l'échange des parts de compensation créées en 1932). puis à 125 millions par l'émission à 275 fr. de 200.000 actions. Porté en 1941 à 200 millions par l'émission à 275 francs de 300.000 actions de 250 francs réservées aux actionnaires à raison de 3 nouvelles pour 5 anciennes. Porté en 1946 à 250 millions de francs par l'émission à 1.000 francs de 200.000 actions de 250 francs (une nouvelle pour 4 anciennes) et ensuite à 375 millions par la création de 500.000 actions nouvelles de 250 fr. fl nouv.pour 2 anc.). Porté en 1947 à 3S6.967.000 fr. (actionnaires empêchés) puis en 1948 à 625 millions par l'émission à 400 fr. de 952.132 actions nouvelles de 250 fr. Porté fin 1948 à 750 millions par incorporation de réserves, et création de 500.000 actions de 250 fr. attribuées gratuitement 1 pour\t5 anciennes. Porté\ten 1949 à 1.250 millions\tpar émission -à\t350 fr. de 2 millions d'actions de 250\tfr., jouissance\t1er\tavril 1949 (2 nouv. pour 3 anc.). En\t1950 titres regroupés. Porté en 1951 à\t1.500 millions\tpar\télévation du nominal à\t3.000 fr., puis\tà 3.000 millions par émission à 3.300 fr. de 500.000 actions de 3.000 fr. (1 pour 1)."
    },
    {
      "amount": "1.250.000.000",
      "currency": "Franc",
      "infodate": "1949-01-01",
      "source": "annuaire_df_1953",
      "comments": "3.000 millions de fr., divisé en 1.000.000 actions de 3.000 fr. A l'origine, 3 millions de francs, porté en 1913 à 4 millions; en 1915 à 4 millions 1/2; en 1918 à 9 millions; en janvier 1920 à 18 millions; en novembre 1920 à 30 millions; en mai 1924 à 50 millions; en avril 1927 à 100 millions; en juillet 1927 à 105 millions (actions à vote plural dites B); en 1929 àl57.500.000 .francs. Ramené en mai 1932 à 135.975.000 fr. par l'annulation de 43.050 actions, puis à 67.9S7.500 . francs par la réduction de la valeur nominale des actions de 500 fr. à 250 fr. ; en 1934 à 65 millions (rachat et\tannulation des\tactions à vote plural et de\t1..950 actions\tA). Porté en 1937 à 75 millions (prélèvement sur • le fonds de prévoyance et transformation en 40.000 actions destinées à. l'échange des parts de compensation créées en 1932). puis à 125 millions par l'émission à 275 fr. de 200.000 actions. Porté en 1941 à 200 millions par l'émission à 275 francs de 300.000 actions de 250 francs réservées aux actionnaires à raison de 3 nouvelles pour 5 anciennes. Porté en 1946 à 250 millions de francs par l'émission à 1.000 francs de 200.000 actions de 250 francs (une nouvelle pour 4 anciennes) et ensuite à 375 millions par la création de 500.000 actions nouvelles de 250 fr. fl nouv.pour 2 anc.). Porté en 1947 à 3S6.967.000 fr. (actionnaires empêchés) puis en 1948 à 625 millions par l'émission à 400 fr. de 952.132 actions nouvelles de 250 fr. Porté fin 1948 à 750 millions par incorporation de réserves, et création de 500.000 actions de 250 fr. attribuées gratuitement 1 pour\t5 anciennes. Porté\ten 1949 à 1.250 millions\tpar émission -à\t350 fr. de 2 millions d'actions de 250\tfr., jouissance\t1er\tavril 1949 (2 nouv. pour 3 anc.). En\t1950 titres regroupés. Porté en 1951 à\t1.500 millions\tpar\télévation du nominal à\t3.000 fr., puis\tà 3.000 millions par émission à 3.300 fr. de 500.000 actions de 3.000 fr. (1 pour 1)."
    },
    {
      "amount": "1.500.000.000",
      "currency": "Franc",
      "infodate": "1950-01-01",
      "source": "annuaire_df_1953",
      "comments": "3.000 millions de fr., divisé en 1.000.000 actions de 3.000 fr. A l'origine, 3 millions de francs, porté en 1913 à 4 millions; en 1915 à 4 millions 1/2; en 1918 à 9 millions; en janvier 1920 à 18 millions; en novembre 1920 à 30 millions; en mai 1924 à 50 millions; en avril 1927 à 100 millions; en juillet 1927 à 105 millions (actions à vote plural dites B); en 1929 àl57.500.000 .francs. Ramené en mai 1932 à 135.975.000 fr. par l'annulation de 43.050 actions, puis à 67.9S7.500 . francs par la réduction de la valeur nominale des actions de 500 fr. à 250 fr. ; en 1934 à 65 millions (rachat et\tannulation des\tactions à vote plural et de\t1..950 actions\tA). Porté en 1937 à 75 millions (prélèvement sur • le fonds de prévoyance et transformation en 40.000 actions destinées à. l'échange des parts de compensation créées en 1932). puis à 125 millions par l'émission à 275 fr. de 200.000 actions. Porté en 1941 à 200 millions par l'émission à 275 francs de 300.000 actions de 250 francs réservées aux actionnaires à raison de 3 nouvelles pour 5 anciennes. Porté en 1946 à 250 millions de francs par l'émission à 1.000 francs de 200.000 actions de 250 francs (une nouvelle pour 4 anciennes) et ensuite à 375 millions par la création de 500.000 actions nouvelles de 250 fr. fl nouv.pour 2 anc.). Porté en 1947 à 3S6.967.000 fr. (actionnaires empêchés) puis en 1948 à 625 millions par l'émission à 400 fr. de 952.132 actions nouvelles de 250 fr. Porté fin 1948 à 750 millions par incorporation de réserves, et création de 500.000 actions de 250 fr. attribuées gratuitement 1 pour\t5 anciennes. Porté\ten 1949 à 1.250 millions\tpar émission -à\t350 fr. de 2 millions d'actions de 250\tfr., jouissance\t1er\tavril 1949 (2 nouv. pour 3 anc.). En\t1950 titres regroupés. Porté en 1951 à\t1.500 millions\tpar\télévation du nominal à\t3.000 fr., puis\tà 3.000 millions par émission à 3.300 fr. de 500.000 actions de 3.000 fr. (1 pour 1)."
    },
    {
      "amount": "3.000.000.000",
      "currency": "Franc",
      "infodate": "1951-01-02",
      "source": "annuaire_df_1953",
      "comments": "3.000 millions de fr., divisé en 1.000.000 actions de 3.000 fr. A l'origine, 3 millions de francs, porté en 1913 à 4 millions; en 1915 à 4 millions 1/2; en 1918 à 9 millions; en janvier 1920 à 18 millions; en novembre 1920 à 30 millions; en mai 1924 à 50 millions; en avril 1927 à 100 millions; en juillet 1927 à 105 millions (actions à vote plural dites B); en 1929 àl57.500.000 .francs. Ramené en mai 1932 à 135.975.000 fr. par l'annulation de 43.050 actions, puis à 67.9S7.500 . francs par la réduction de la valeur nominale des actions de 500 fr. à 250 fr. ; en 1934 à 65 millions (rachat et\tannulation des\tactions à vote plural et de\t1..950 actions\tA). Porté en 1937 à 75 millions (prélèvement sur • le fonds de prévoyance et transformation en 40.000 actions destinées à. l'échange des parts de compensation créées en 1932). puis à 125 millions par l'émission à 275 fr. de 200.000 actions. Porté en 1941 à 200 millions par l'émission à 275 francs de 300.000 actions de 250 francs réservées aux actionnaires à raison de 3 nouvelles pour 5 anciennes. Porté en 1946 à 250 millions de francs par l'émission à 1.000 francs de 200.000 actions de 250 francs (une nouvelle pour 4 anciennes) et ensuite à 375 millions par la création de 500.000 actions nouvelles de 250 fr. fl nouv.pour 2 anc.). Porté en 1947 à 3S6.967.000 fr. (actionnaires empêchés) puis en 1948 à 625 millions par l'émission à 400 fr. de 952.132 actions nouvelles de 250 fr. Porté fin 1948 à 750 millions par incorporation de réserves, et création de 500.000 actions de 250 fr. attribuées gratuitement 1 pour\t5 anciennes. Porté\ten 1949 à 1.250 millions\tpar émission -à\t350 fr. de 2 millions d'actions de 250\tfr., jouissance\t1er\tavril 1949 (2 nouv. pour 3 anc.). En\t1950 titres regroupés. Porté en 1951 à\t1.500 millions\tpar\télévation du nominal à\t3.000 fr., puis\tà 3.000 millions par émission à 3.300 fr. de 500.000 actions de 3.000 fr. (1 pour 1)."
    }
  ],
  "profit_dividends": [
    {
      "first_date": "1916-04-30",
      "last_date": "1952-03-31",
      "obs_count": 246
    }
  ],
  "public_status": false,
  "stock_exchanges": {
    "1": {
      "id": 1,
      "name": "Paris (Official List)",
      "listings_stats": {
        "start_date": "1921-03-14"
      },
      "spot_prices_stats": {
        "start_date": "1921-03-14",
        "end_date": "1976-12-31"
      }
    }
  },
  "securities": {
    "7386": {
      "id": 7386,
      "name": "Ouest-Africain (Sté Commerciale de l'), act. 250 fr., t. p. (ex-dr., )",
      "share_type": {
        "id": 1,
        "name": "Stock (Action)"
      },
      "types": [
        {
          "start_date": "1921-03-14",
          "end_date": "3999-12-31",
          "id": 18,
          "name": "Action",
          "stock_group": "S"
        }
      ],
      "start_date": "1921-03-14",
      "end_date": "3999-12-31",
      "prices_from": "1921-03-14",
      "prices_to": "1951-08-31",
      "is_mainstock": 1,
      "prices_count": 1275
    },
    "7579": {
      "id": 7579,
      "name": "Ouest-Africain (Sté Commerciale de l'). Bons décennaux 6,5%, r. à 500 fr.",
      "share_type": {
        "id": 2,
        "name": "Bond (Obligation)"
      },
      "types": [
        {
          "start_date": "1922-09-07",
          "end_date": "3999-12-31",
          "id": 1001,
          "name": "Obligation ordinaire ou classique",
          "stock_group": "B"
        }
      ],
      "start_date": "1922-09-07",
      "end_date": "3999-12-31",
      "prices_from": "1922-09-07",
      "prices_to": "1931-03-16",
      "is_mainstock": 0,
      "prices_count": 160
    },
    "13737": {
      "id": 13737,
      "name": "Ouest-Africain (Sté commerciale de l') a. 3000 fr., t.p. (ex-dr., )",
      "share_type": {
        "id": 1,
        "name": "Stock (Action)"
      },
      "types": [
        {
          "start_date": "1950-07-17",
          "end_date": "3999-12-31",
          "id": 11,
          "name": "Action ordinaire",
          "stock_group": "S"
        }
      ],
      "start_date": "1950-07-17",
      "end_date": "3999-12-31",
      "prices_from": "1950-07-17",
      "prices_to": "1956-01-31",
      "is_mainstock": 0,
      "prices_count": 183
    },
    "14709": {
      "id": 14709,
      "name": "Ouest-Africain (Commerciale), actions",
      "share_type": {
        "id": 1,
        "name": "Stock (Action)"
      },
      "types": [
        {
          "start_date": "1955-02-14",
          "end_date": "3999-12-31",
          "id": 11,
          "name": "Action ordinaire",
          "stock_group": "S"
        }
      ],
      "start_date": "1955-02-14",
      "end_date": "3999-12-31",
      "prices_from": "1955-02-14",
      "prices_to": "1976-12-31",
      "is_mainstock": 0,
      "prices_count": 670
    },
    "15011": {
      "id": 15011,
      "name": "Ouest Africain (Sté Commerciale de l'), act. 50F (par 25 actions)",
      "share_type": {
        "id": 1,
        "name": "Stock (Action)"
      },
      "types": [
        {
          "start_date": "1955-04-22",
          "end_date": "3999-12-31",
          "id": 11,
          "name": "Action ordinaire",
          "stock_group": "S"
        }
      ],
      "start_date": "1955-04-22",
      "end_date": "3999-12-31",
      "prices_from": null,
      "prices_to": null,
      "is_mainstock": 0,
      "prices_count": 0
    },
    "17721": {
      "id": 17721,
      "name": "Ouest-Africain (Commerciale), act. nouv. (Jce 1/6/62)",
      "share_type": {
        "id": 1,
        "name": "Stock (Action)"
      },
      "types": [
        {
          "start_date": "1962-04-16",
          "end_date": "3999-12-31",
          "id": 27,
          "name": "Promesse d'action",
          "stock_group": "S"
        }
      ],
      "start_date": "1962-04-16",
      "end_date": "3999-12-31",
      "prices_from": "1962-04-16",
      "prices_to": "1962-11-30",
      "is_mainstock": 0,
      "prices_count": 23
    },
    "20291": {
      "id": 20291,
      "name": "Ouest-Africain (Sté Commerciale de l'), act. 3000 fr., t. p. (par 10 actions)",
      "share_type": {
        "id": 1,
        "name": "Stock (Action)"
      },
      "types": [
        {
          "start_date": "1951-11-02",
          "end_date": "3999-12-31",
          "id": 18,
          "name": "Action",
          "stock_group": "S"
        }
      ],
      "start_date": "1951-11-02",
      "end_date": "3999-12-31",
      "prices_from": "1951-11-15",
      "prices_to": "1952-01-02",
      "is_mainstock": 0,
      "prices_count": 3
    },
    "20864": {
      "id": 20864,
      "name": "Ouest Africain",
      "share_type": {
        "id": 3,
        "name": "OPTIONS"
      },
      "types": [
        {
          "start_date": "1969-05-16",
          "end_date": "3999-12-31",
          "id": 2,
          "name": "Option",
          "stock_group": "M"
        }
      ],
      "start_date": "1969-05-16",
      "end_date": "3999-12-31",
      "prices_from": null,
      "prices_to": null,
      "is_mainstock": 0,
      "prices_count": 0
    },
    "21955": {
      "id": 21955,
      "name": "S.C.O.A.",
      "share_type": {
        "id": 3,
        "name": "OPTIONS"
      },
      "types": [
        {
          "start_date": "1976-01-29",
          "end_date": "3999-12-31",
          "id": 2,
          "name": "Option",
          "stock_group": "M"
        }
      ],
      "start_date": "1976-01-29",
      "end_date": "3999-12-31",
      "prices_from": null,
      "prices_to": null,
      "is_mainstock": 0,
      "prices_count": 0
    },
    "22000": {
      "id": 22000,
      "name": "Ouest-Africain (Sté Commerc. de l'), act. anc. 3000 fr., t. p. (ex-dr., ) (Opérat. Conditionnelles par 25 act. De 5000 fr.)",
      "share_type": {
        "id": 1,
        "name": "Stock (Action)"
      },
      "types": [
        {
          "start_date": "1955-02-17",
          "end_date": "3999-12-31",
          "id": 18,
          "name": "Action",
          "stock_group": "S"
        }
      ],
      "start_date": "1955-02-17",
      "end_date": "3999-12-31",
      "prices_from": null,
      "prices_to": null,
      "is_mainstock": 0,
      "prices_count": 0
    },
    "22256": {
      "id": 22256,
      "name": "Ouest Africain",
      "share_type": {
        "id": 3,
        "name": "OPTIONS"
      },
      "types": [
        {
          "start_date": "1969-02-28",
          "end_date": "3999-12-31",
          "id": 2,
          "name": "Option",
          "stock_group": "M"
        }
      ],
      "start_date": "1969-02-28",
      "end_date": "3999-12-31",
      "prices_from": null,
      "prices_to": null,
      "is_mainstock": 0,
      "prices_count": 0
    },
    "100539": {
      "id": 100539,
      "name": "Act. Ouest-Africain (Sté Com. de l') (bon 1946, coup. 44). 1 act. nouv. émises à 1000 fr. pour 4 act. Anc.",
      "share_type": {
        "id": 4,
        "name": "Rights (Droits)"
      },
      "types": [
        {
          "start_date": "1946-04-04",
          "end_date": "1948-06-02",
          "id": 501,
          "name": "Droit de souscription",
          "stock_group": "R"
        }
      ],
      "start_date": "1946-04-04",
      "end_date": "1948-06-02",
      "prices_from": "1946-04-04",
      "prices_to": "1946-04-30",
      "is_mainstock": 0,
      "prices_count": 7
    },
    "100665": {
      "id": 100665,
      "name": "Ouest-Africain (Sté Comm. de l') (dr. et coup. 46). 1 action nouvelle pour 2 actions anciennes",
      "share_type": {
        "id": 4,
        "name": "Rights (Droits)"
      },
      "types": [
        {
          "start_date": "1946-12-20",
          "end_date": "1948-03-10",
          "id": 502,
          "name": "Droit d'attribution",
          "stock_group": "R"
        }
      ],
      "start_date": "1946-12-20",
      "end_date": "1948-03-10",
      "prices_from": "1946-12-20",
      "prices_to": "1946-12-27",
      "is_mainstock": 0,
      "prices_count": 1
    },
    "100922": {
      "id": 100922,
      "name": "Ouest-Africain (Sté Comm. de l') (dr. et coup. 48). 3 act. nouv. émises à 400 fr. pour 5 act. anc. (Voir Avis n° 24627)",
      "share_type": {
        "id": 4,
        "name": "Rights (Droits)"
      },
      "types": [
        {
          "start_date": "1948-05-24",
          "end_date": "3999-12-31",
          "id": 501,
          "name": "Droit de souscription",
          "stock_group": "R"
        }
      ],
      "start_date": "1948-05-24",
      "end_date": "3999-12-31",
      "prices_from": "1948-05-24",
      "prices_to": "1948-05-25",
      "is_mainstock": 0,
      "prices_count": 1
    },
    "101015": {
      "id": 101015,
      "name": "Ouest Africain (Sté Comm. de l') (dr. et coup. 50) (1 action nouvelle pour 5 actions anciennes)",
      "share_type": {
        "id": 4,
        "name": "Rights (Droits)"
      },
      "types": [
        {
          "start_date": "1950-01-03",
          "end_date": "1951-05-16",
          "id": 502,
          "name": "Droit d'attribution",
          "stock_group": "R"
        }
      ],
      "start_date": "1950-01-03",
      "end_date": "1951-05-16",
      "prices_from": null,
      "prices_to": null,
      "is_mainstock": 0,
      "prices_count": 0
    },
    "101116": {
      "id": 101116,
      "name": "Commerciale de l'Ouest-Africain (dr. et coup. 52) (2 act. nouvelles émises à 350 fr. (Jce 1/4/149) pour 3 actions anciennes)",
      "share_type": {
        "id": 4,
        "name": "Rights (Droits)"
      },
      "types": [
        {
          "start_date": "1949-11-02",
          "end_date": "3999-12-31",
          "id": 501,
          "name": "Droit de souscription",
          "stock_group": "R"
        }
      ],
      "start_date": "1949-11-02",
      "end_date": "3999-12-31",
      "prices_from": "1949-11-02",
      "prices_to": "1949-11-02",
      "is_mainstock": 0,
      "prices_count": 1
    },
    "101488": {
      "id": 101488,
      "name": "Act. SOCIETE COMMERCIALE DE L'OUEST AFRICAIN (droit et coupon 33). Pour 3 actions anc., 2 actions nouv. Émises à 275 francs.",
      "share_type": {
        "id": 4,
        "name": "Rights (Droits)"
      },
      "types": [
        {
          "start_date": "1937-10-15",
          "end_date": "1937-11-09",
          "id": 501,
          "name": "Droit de souscription",
          "stock_group": "R"
        }
      ],
      "start_date": "1937-10-15",
      "end_date": "1937-11-09",
      "prices_from": "1937-10-15",
      "prices_to": "1937-11-03",
      "is_mainstock": 0,
      "prices_count": 9
    },
    "101641": {
      "id": 101641,
      "name": "Act. Ouest-Africain (Sté Com. de l') (bon 1941, coup. 37). 3 act. nouv. émises à 275 fr. pour 5 act. Anc.",
      "share_type": {
        "id": 4,
        "name": "Rights (Droits)"
      },
      "types": [
        {
          "start_date": "1947-05-07",
          "end_date": "3999-12-31",
          "id": 501,
          "name": "Droit de souscription",
          "stock_group": "R"
        }
      ],
      "start_date": "1947-05-07",
      "end_date": "3999-12-31",
      "prices_from": "1947-05-07",
      "prices_to": "1947-05-08",
      "is_mainstock": 0,
      "prices_count": 1
    },
    "101817": {
      "id": 101817,
      "name": "Act. A Sté Commerciale de l'Ouest-Africain (droit et coupon 29). Pour 2 act. A anciennes, 1 act. A nouv. Éémise à 560 francs.",
      "share_type": {
        "id": 4,
        "name": "Rights (Droits)"
      },
      "types": [
        {
          "start_date": "1929-05-06",
          "end_date": "1929-05-27",
          "id": 501,
          "name": "Droit de souscription",
          "stock_group": "R"
        }
      ],
      "start_date": "1929-05-06",
      "end_date": "1929-05-27",
      "prices_from": "1929-05-06",
      "prices_to": "1929-05-06",
      "is_mainstock": 0,
      "prices_count": 2
    },
    "102847": {
      "id": 102847,
      "name": "Act. Ouest-Africain (Sté Com. de l') (bon 1946, coup. 44). 1 act. nouv. émise à 1000 fr. pour 4 act. Anc.",
      "share_type": {
        "id": 4,
        "name": "Rights (Droits)"
      },
      "types": [
        {
          "start_date": "1947-05-07",
          "end_date": "3999-12-31",
          "id": 501,
          "name": "Droit de souscription",
          "stock_group": "R"
        }
      ],
      "start_date": "1947-05-07",
      "end_date": "3999-12-31",
      "prices_from": "1947-05-07",
      "prices_to": "1947-05-08",
      "is_mainstock": 0,
      "prices_count": 1
    },
    "102932": {
      "id": 102932,
      "name": "Act. Société commerciale de l'ouest-Africain (droit et c. 21)",
      "share_type": {
        "id": 4,
        "name": "Rights (Droits)"
      },
      "types": [
        {
          "start_date": "1924-04-22",
          "end_date": "1924-05-14",
          "id": 501,
          "name": "Droit de souscription",
          "stock_group": "R"
        }
      ],
      "start_date": "1924-04-22",
      "end_date": "1924-05-14",
      "prices_from": "1924-04-22",
      "prices_to": "1924-04-30",
      "is_mainstock": 0,
      "prices_count": 0
    },
    "103026": {
      "id": 103026,
      "name": "Act. Sté commerciale de l'ouest-Africain (droit et coupon 25). Pour 1 action ancienne, 1 action nouvelle émise à 560 francs.",
      "share_type": {
        "id": 4,
        "name": "Rights (Droits)"
      },
      "types": [
        {
          "start_date": "1000-01-01",
          "end_date": "1927-04-02",
          "id": 501,
          "name": "Droit de souscription",
          "stock_group": "R"
        }
      ],
      "start_date": "1000-01-01",
      "end_date": "1927-04-02",
      "prices_from": "1927-03-14",
      "prices_to": "1927-03-15",
      "is_mainstock": 0,
      "prices_count": 0
    },
    "103268": {
      "id": 103268,
      "name": "Act.SOCIETE COMMERCIALE DE L'OUEST-AFRICAIN (droit et coupon 37).Pour 5 act.anciennes.3 actions nouvelles émises à 275 francs",
      "share_type": {
        "id": 4,
        "name": "Rights (Droits)"
      },
      "types": [
        {
          "start_date": "1941-09-15",
          "end_date": "1941-09-29",
          "id": 501,
          "name": "Droit de souscription",
          "stock_group": "R"
        }
      ],
      "start_date": "1941-09-15",
      "end_date": "1941-09-29",
      "prices_from": "1941-09-15",
      "prices_to": "1941-09-15",
      "is_mainstock": 0,
      "prices_count": 2
    },
    "103994": {
      "id": 103994,
      "name": "Ouest-Africain (Sté Commerciale de l'), act. A 250 fr., t. p. (dr. et c. 37 att.)",
      "share_type": {
        "id": 1,
        "name": "Stock (Action)"
      },
      "types": [],
      "start_date": "1941-09-01",
      "end_date": "1941-09-10",
      "prices_from": "1941-09-01",
      "prices_to": "1941-09-01",
      "is_mainstock": 0,
      "prices_count": 1
    },
    "104779": {
      "id": 104779,
      "name": "Ouest-Africain ( Sté Comm. De l') ( dr. Et coup. 46 ).",
      "share_type": {
        "id": 8,
        "name": "Droit d'attribution"
      },
      "types": [
        {
          "start_date": "1948-03-05",
          "end_date": "1948-06-10",
          "id": 502,
          "name": "Droit d'attribution",
          "stock_group": "R"
        }
      ],
      "start_date": "1948-03-05",
      "end_date": "1948-06-10",
      "prices_from": "1948-03-15",
      "prices_to": "1948-05-31",
      "is_mainstock": 0,
      "prices_count": 6
    },
    "104780": {
      "id": 104780,
      "name": "Ouest-Africain ( Sté Comm. De l') ( dr. Et coup. 50)",
      "share_type": {
        "id": 8,
        "name": "Droit d'attribution"
      },
      "types": [
        {
          "start_date": "1948-12-24",
          "end_date": "1949-10-17",
          "id": 502,
          "name": "Droit d'attribution",
          "stock_group": "R"
        }
      ],
      "start_date": "1948-12-24",
      "end_date": "1949-02-10",
      "prices_from": "1949-01-03",
      "prices_to": "1949-10-17",
      "is_mainstock": 0,
      "prices_count": 15
    },
    "104781": {
      "id": 104781,
      "name": "Ouest-Africain ( Sté Comm. De l') ( dr. Et c. 13)",
      "share_type": {
        "id": 8,
        "name": "Droit d'attribution"
      },
      "types": [
        {
          "start_date": "1949-02-19",
          "end_date": "1949-03-11",
          "id": 502,
          "name": "Droit d'attribution",
          "stock_group": "R"
        }
      ],
      "start_date": "1949-02-19",
      "end_date": "1949-03-11",
      "prices_from": "1949-03-01",
      "prices_to": "1949-03-01",
      "is_mainstock": 0,
      "prices_count": 1
    },
    "104782": {
      "id": 104782,
      "name": "Ouest-Africain (Sté Comm. De l')( dr. Et c. 50)",
      "share_type": {
        "id": 8,
        "name": "Droit d'attribution"
      },
      "types": [
        {
          "start_date": "1949-08-21",
          "end_date": "1949-12-25",
          "id": 502,
          "name": "Droit d'attribution",
          "stock_group": "R"
        }
      ],
      "start_date": "1949-08-21",
      "end_date": "1949-12-25",
      "prices_from": "1949-08-31",
      "prices_to": "1949-11-30",
      "is_mainstock": 0,
      "prices_count": 5
    },
    "105718": {
      "id": 105718,
      "name": "Ouest-Africain (Sté Comm. de l') (dr. et coup. 55) (1 action nouvelle de 3000 fr. émise à 3300 fr., jce 1/4/51, pour 1 action ancienne)",
      "share_type": {
        "id": 5,
        "name": "Droits de souscription"
      },
      "types": [
        {
          "start_date": "1951-10-11",
          "end_date": "1952-01-31",
          "id": 501,
          "name": "Droit de souscription",
          "stock_group": "R"
        }
      ],
      "start_date": "1951-10-11",
      "end_date": "1952-01-31",
      "prices_from": null,
      "prices_to": null,
      "is_mainstock": 0,
      "prices_count": 0
    }
  }
}