{
  "id": 516,
  "names": [
    "Pont de Pertuiset"
  ],
  "name": "Pont de Pertuiset",
  "balance_sheets": [],
  "balance_sheets_stats": {
    "start_date": null,
    "end_date": null
  },
  "locations_stats": {
    "start_date": "1846-12-26",
    "end_date": "1846-12-31"
  },
  "locations": {
    "Siège social": [
      {
        "location_types_id": 1,
        "location_type": "Siège social",
        "address": null,
        "city": "Unieux",
        "district": "Loire",
        "country": "France",
        "in_yearbook_from": 1846,
        "in_yearbook_to": 1846
      }
    ]
  },
  "persons": [],
  "persons_stats": {
    "persons_count": 0,
    "start_date": null,
    "end_date": null
  },
  "yearbooks_ocrs": [],
  "juridical_status": [],
  "equity_capital": [],
  "profit_dividends": [],
  "public_status": false
}