{
  "id": 11054,
  "names": [
    "CENTRALE THERMIQUE DE L'ADOUR",
    "Centrale Thermique de l'Adour"
  ],
  "name": "CENTRALE THERMIQUE DE L'ADOUR",
  "balance_sheets": [],
  "balance_sheets_stats": {
    "start_date": null,
    "end_date": null
  },
  "locations_stats": {
    "start_date": "1937-01-01",
    "end_date": "1953-12-31"
  },
  "locations": {
    "Siège social": [
      {
        "location_types_id": 1,
        "location_type": "Siège social",
        "address": "Faubourg saint-honoré, 68",
        "city": "Paris",
        "district": "Paris",
        "country": "France",
        "in_yearbook_from": 1937,
        "in_yearbook_to": 1953
      }
    ]
  },
  "persons": [],
  "persons_stats": {
    "persons_count": 0,
    "start_date": null,
    "end_date": null
  },
  "yearbooks_ocrs": [
    {
      "source": "annuaire_df_1937",
      "yearbook": "Annuaire Desfossés 1937",
      "page": "1999"
    },
    {
      "source": "annuaire_df_1940",
      "yearbook": "Annuaire Desfossés 1940",
      "page": null
    },
    {
      "source": "annuaire_df_1945",
      "yearbook": "Annuaire Desfossés 1945",
      "page": "1318"
    },
    {
      "source": "annuaire_df_1948",
      "yearbook": "Annuaire Desfossés 1948",
      "page": "1432"
    },
    {
      "source": "annuaire_df_1953",
      "yearbook": "Annuaire Desfossés 1953",
      "page": "1208"
    }
  ],
  "juridical_status": [],
  "equity_capital": [],
  "profit_dividends": [],
  "public_status": false
}