{
  "id": 3273,
  "names": [
    "Société minière et métallurgique de Nicopol-Marioupol",
    "Société minière et métallurgique do Nicopol-Marioupol"
  ],
  "name": "Société minière et métallurgique de Nicopol-Marioupol",
  "balance_sheets": [],
  "balance_sheets_stats": {
    "start_date": null,
    "end_date": null
  },
  "locations_stats": {
    "start_date": "1903-01-01",
    "end_date": "1908-12-31"
  },
  "locations": {
    "Siège social": [
      {
        "location_types_id": 1,
        "location_type": "Siège social",
        "address": null,
        "city": "Petrograd",
        "district": null,
        "country": "Union des républiques socialistes soviétiques",
        "in_yearbook_from": 1903,
        "in_yearbook_to": 1908
      }
    ],
    "Représentant / Correspondant": [
      {
        "location_types_id": 16,
        "location_type": "Représentant / Correspondant",
        "address": "Rue bergère, 14",
        "city": "Paris",
        "district": "Paris",
        "country": "France",
        "in_yearbook_from": 1903,
        "in_yearbook_to": 1908
      }
    ]
  },
  "persons": [
    {
      "persons_count": 5,
      "yearbook": "Annuaire de la Compagnie des Agents de Change 1903",
      "source": "annuaire_cac_1903",
      "page": "1995"
    },
    {
      "persons_count": 6,
      "yearbook": "Annuaire de la Compagnie des Agents de Change 1908",
      "source": "annuaire_cac_1908",
      "page": "1683"
    }
  ],
  "persons_stats": {
    "persons_count": 10,
    "start_date": "1903-01-01",
    "end_date": "1908-12-31"
  },
  "yearbooks_ocrs": [
    {
      "source": "annuaire_cac_1903",
      "yearbook": "Annuaire de la Compagnie des Agents de Change 1903",
      "page": "1995"
    },
    {
      "source": "annuaire_cac_1908",
      "yearbook": "Annuaire de la Compagnie des Agents de Change 1908",
      "page": "1683"
    }
  ],
  "juridical_status": [
    {
      "juridical_status": "Société anonyme russe",
      "start_date": "1896-05-10",
      "end_date": "3999-12-31",
      "comments": "Société anonyme russe constituée suivant statuts sanctionnés par Empereur de Russie le 10 mai 1896, modifiée par décision de l’Assem- générale du 15 décembre 1898 approuvée par le Ministre des Finances",
      "source": "annuaire_cac_1903"
    }
  ],
  "equity_capital": [
    {
      "amount": "12.000.000",
      "currency": "Franc",
      "infodate": "1896-05-10",
      "source": "annuaire_cac_1903",
      "comments": "Fixé à l'origine à 3 millions de roubles or ou 12 millions de francs et divisé en 24,000 actions de 125 roubles or ou 500 francs, "
    },
    {
      "amount": "18.000.000",
      "currency": "Franc",
      "infodate": "1898-12-15",
      "source": "annuaire_cac_1903",
      "comments": "le capital social a été porté à 6,750,000 roubles (nouvelle monnaie) ou 18 millions de francs, par décision do l’Assemblée générale du 15 décembre 1898, au moyen de la création de 12,000 actions nouvelles de roubles 187 50 (nouvelle monnaie) ou 500 francs, émises à 608 francs environ.\n"
    },
    {
      "amount": "3.600.000",
      "currency": "Franc",
      "infodate": "1907-11-20",
      "source": "annuaire_cac_1908",
      "comments": "Au total : 36,000 actions de 500 francs, libérées et au porteur. (L’Assemblée générale du 20 novembre 1907 a décidé, en principe et sous réserve de l’approbation gouvernementale, la réduction du capital social à 3.600.000 roubles, au moyen de la réduction à 100 roubles du nominal de chaque action, et la création, pour une somme de 3 millions de roubles, d’actions privilégiées donnant droit à un premier dividende de 7 •/<» par préférence aux actions ordinaires.)"
    }
  ],
  "profit_dividends": [
    {
      "first_date": "1897-07-12",
      "last_date": "1907-07-12",
      "obs_count": 11
    }
  ],
  "public_status": false,
  "stock_exchanges": {
    "1": {
      "id": 1,
      "name": "Paris (Official List)",
      "forward_prices_stats": {
        "start_date": "1900-01-31",
        "end_date": "1911-11-30"
      },
      "listings_stats": {
        "start_date": "1899-10-19"
      },
      "options_prices_stats": {
        "start_date": "1904-10-31",
        "end_date": "1904-10-31"
      },
      "spot_prices_stats": {
        "start_date": "1899-10-19",
        "end_date": "1911-11-30"
      }
    }
  },
  "securities": {
    "4778": {
      "id": 4778,
      "name": "Nicopol-Marioupol (Société minière et métallurgique de), act. 500 fr., tout payé",
      "share_type": {
        "id": 1,
        "name": "Stock (Action)"
      },
      "types": [
        {
          "start_date": "1899-10-19",
          "end_date": "3999-12-31",
          "id": 18,
          "name": "Action",
          "stock_group": "S"
        }
      ],
      "start_date": "1899-10-19",
      "end_date": "3999-12-31",
      "prices_from": "1899-10-19",
      "prices_to": "1911-11-30",
      "is_mainstock": 1,
      "prices_count": 184
    },
    "4780": {
      "id": 4780,
      "name": "Nicopol-Marioupol (Société minière et métallurgique de), act. 500 fr., actions nouvelles, nos 24001 à 36000",
      "share_type": {
        "id": 1,
        "name": "Stock (Action)"
      },
      "types": [
        {
          "start_date": "1899-10-19",
          "end_date": "3999-12-31",
          "id": 18,
          "name": "Action",
          "stock_group": "S"
        }
      ],
      "start_date": "1899-10-19",
      "end_date": "3999-12-31",
      "prices_from": "1899-10-19",
      "prices_to": "1900-01-15",
      "is_mainstock": 0,
      "prices_count": 10
    },
    "22113": {
      "id": 22113,
      "name": "Nicopol-Marioupol (Société minière et métallurgique de), act. 500 fr., tout payé Gr. Coup.",
      "share_type": {
        "id": 1,
        "name": "Stock (Action)"
      },
      "types": [
        {
          "start_date": "1906-01-15",
          "end_date": "3999-12-31",
          "id": 18,
          "name": "Action",
          "stock_group": "S"
        }
      ],
      "start_date": "1906-01-15",
      "end_date": "3999-12-31",
      "prices_from": "1908-01-15",
      "prices_to": "1909-07-15",
      "is_mainstock": 0,
      "prices_count": 3
    },
    "25393": {
      "id": 25393,
      "name": "Nicopol-Marioupol (Société minière et métallurgique de), act. 500 fr coup de 5",
      "share_type": {
        "id": 1,
        "name": "Stock (Action)"
      },
      "types": [
        {
          "start_date": "1000-01-01",
          "end_date": "3999-12-31",
          "id": 18,
          "name": "Action",
          "stock_group": "S"
        }
      ],
      "start_date": "1911-11-28",
      "end_date": "3999-12-31",
      "prices_from": "1911-11-30",
      "prices_to": "1911-11-30",
      "is_mainstock": 0,
      "prices_count": 1
    }
  }
}