{
  "id": 12473,
  "names": [
    "Syndicat Franco-anglais des Mines d'or"
  ],
  "name": "Syndicat Franco-anglais des Mines d'or",
  "balance_sheets": [],
  "balance_sheets_stats": {
    "start_date": null,
    "end_date": null
  },
  "locations_stats": {
    "start_date": null,
    "end_date": null
  },
  "locations": {},
  "persons": [],
  "persons_stats": {
    "persons_count": 0,
    "start_date": null,
    "end_date": null
  },
  "yearbooks_ocrs": [],
  "juridical_status": [],
  "equity_capital": [],
  "profit_dividends": [],
  "public_status": false,
  "stock_exchanges": {
    "2": {
      "id": 2,
      "name": "Paris OTC (Coulisse)",
      "listings_stats": {
        "start_date": "1895-07-29"
      },
      "spot_prices_stats": {
        "start_date": "1895-07-29",
        "end_date": "1896-02-15"
      }
    }
  },
  "securities": {
    "105415": {
      "id": 105415,
      "name": "Syndicat Franco-anglais des Mines d'or",
      "share_type": {
        "id": 1,
        "name": "Stock (Action)"
      },
      "types": [
        {
          "start_date": "1895-07-29",
          "end_date": "1896-05-01",
          "id": 18,
          "name": "Action",
          "stock_group": "S"
        }
      ],
      "start_date": "1895-07-29",
      "end_date": "1896-05-01",
      "prices_from": "1895-07-29",
      "prices_to": "1896-02-15",
      "is_mainstock": 1,
      "prices_count": 20
    }
  }
}