{
  "id": 11111,
  "names": [
    "Banque de Forbach"
  ],
  "name": "Banque de Forbach",
  "balance_sheets": [],
  "balance_sheets_stats": {
    "start_date": "1919-12-31",
    "end_date": "1930-12-31"
  },
  "locations_stats": {
    "start_date": null,
    "end_date": null
  },
  "locations": {},
  "persons": [],
  "persons_stats": {
    "persons_count": 0,
    "start_date": null,
    "end_date": null
  },
  "yearbooks_ocrs": [],
  "juridical_status": [
    {
      "juridical_status": "Société Anonyme (Libre)",
      "start_date": "1886-01-01",
      "end_date": "1931-12-30",
      "comments": "the company may have started differently, but it was a SA by the end of the 1920s",
      "source": "titres"
    },
    {
      "juridical_status": "Mise en faillite",
      "start_date": "1931-12-31",
      "end_date": "1931-12-31",
      "comments": "the bank managers ended up in jail",
      "source": "CL"
    }
  ],
  "equity_capital": [],
  "profit_dividends": [
    {
      "first_date": "1919-12-31",
      "last_date": "1930-12-31",
      "obs_count": 26
    }
  ],
  "public_status": false
}