{
  "id": 11784,
  "names": [
    "GASTON BLAVET ET CIE",
    "Gaston Blavet et Cie"
  ],
  "name": "GASTON BLAVET ET CIE",
  "balance_sheets": [],
  "balance_sheets_stats": {
    "start_date": null,
    "end_date": null
  },
  "locations_stats": {
    "start_date": "1928-01-01",
    "end_date": "1930-12-31"
  },
  "locations": {
    "Siège social": [
      {
        "location_types_id": 1,
        "location_type": "Siège social",
        "address": "Quartier du petit-nice",
        "city": "Lourde",
        "district": "Hautes-Pyrénées",
        "country": "France",
        "in_yearbook_from": 1928,
        "in_yearbook_to": 1930
      }
    ]
  },
  "persons": [],
  "persons_stats": {
    "persons_count": 0,
    "start_date": null,
    "end_date": null
  },
  "yearbooks_ocrs": [
    {
      "source": "annuaire_df_1929",
      "yearbook": "Annuaire Desfossés 1929",
      "page": "985"
    },
    {
      "source": "annuaire_df_1931",
      "yearbook": "Annuaire Desfossés 1931",
      "page": "1005"
    }
  ],
  "juridical_status": [
    {
      "juridical_status": "Société en Commandite Simple",
      "start_date": "1927-03-28",
      "end_date": "1987-03-28",
      "comments": "Société en commandite par actions, constituée le 28 mars 1927, pour une durée de 60 ans.",
      "source": "annuaire_df_1931"
    }
  ],
  "equity_capital": [],
  "profit_dividends": [],
  "public_status": false
}