{
  "id": 11513,
  "names": [
    "MORANE SAULNIER",
    "MORANE-SAULNIER",
    "Morane Saulnier"
  ],
  "name": "MORANE SAULNIER",
  "balance_sheets": [
    {
      "start_date": "1943-12-31",
      "source": "Annuaire Desfossés 1948",
      "page": "1319"
    },
    {
      "start_date": "1944-12-31",
      "source": "Annuaire Desfossés 1948",
      "page": "1319"
    },
    {
      "start_date": "1945-12-31",
      "source": "Annuaire Desfossés 1948",
      "page": "1319"
    },
    {
      "start_date": "1946-12-31",
      "source": "Annuaire Desfossés 1948",
      "page": "1319"
    },
    {
      "start_date": "1948-12-31",
      "source": "Annuaire Desfossés 1953",
      "page": "1143"
    },
    {
      "start_date": "1949-12-31",
      "source": "Annuaire Desfossés 1953",
      "page": "1143"
    },
    {
      "start_date": "1950-12-31",
      "source": "Annuaire Desfossés 1953",
      "page": "1143"
    },
    {
      "start_date": "1951-12-31",
      "source": "Annuaire Desfossés 1953",
      "page": "1143"
    }
  ],
  "balance_sheets_stats": {
    "start_date": "1943-12-31",
    "end_date": "1951-12-31"
  },
  "locations_stats": {
    "start_date": "1945-01-01",
    "end_date": "1953-12-31"
  },
  "locations": {
    "Siège social": [
      {
        "location_types_id": 1,
        "location_type": "Siège social",
        "address": "Rue volta, 3-5",
        "city": "Puteaux",
        "district": "Paris",
        "country": "France",
        "in_yearbook_from": 1945,
        "in_yearbook_to": 1953
      }
    ],
    "Usines": [
      {
        "location_types_id": 3,
        "location_type": "Usines",
        "address": null,
        "city": "Alençon",
        "district": "Orne",
        "country": "France",
        "in_yearbook_from": 1948,
        "in_yearbook_to": 1948
      },
      {
        "location_types_id": 3,
        "location_type": "Usines",
        "address": null,
        "city": "Boulogne-Billancourt",
        "district": "Paris",
        "country": "France",
        "in_yearbook_from": 1948,
        "in_yearbook_to": 1948
      },
      {
        "location_types_id": 3,
        "location_type": "Usines",
        "address": null,
        "city": "Fauville",
        "district": "Eure",
        "country": "France",
        "in_yearbook_from": 1948,
        "in_yearbook_to": 1948
      },
      {
        "location_types_id": 3,
        "location_type": "Usines",
        "address": null,
        "city": "Franciade",
        "district": "Paris",
        "country": "France",
        "in_yearbook_from": 1948,
        "in_yearbook_to": 1948
      },
      {
        "location_types_id": 3,
        "location_type": "Usines",
        "address": null,
        "city": "Louey",
        "district": "Eure",
        "country": "France",
        "in_yearbook_from": 1948,
        "in_yearbook_to": 1948
      },
      {
        "location_types_id": 3,
        "location_type": "Usines",
        "address": null,
        "city": "Ossun",
        "district": "Hautes-Pyrénées",
        "country": "France",
        "in_yearbook_from": 1948,
        "in_yearbook_to": 1948
      },
      {
        "location_types_id": 3,
        "location_type": "Usines",
        "address": null,
        "city": "Puteaux",
        "district": "Paris",
        "country": "France",
        "in_yearbook_from": 1948,
        "in_yearbook_to": 1948
      },
      {
        "location_types_id": 3,
        "location_type": "Usines",
        "address": null,
        "city": "Suresne",
        "district": "Paris",
        "country": "France",
        "in_yearbook_from": 1948,
        "in_yearbook_to": 1948
      },
      {
        "location_types_id": 3,
        "location_type": "Usines",
        "address": null,
        "city": "Vélizy-Villacoublay",
        "district": "Yvelines",
        "country": "France",
        "in_yearbook_from": 1948,
        "in_yearbook_to": 1948
      }
    ]
  },
  "persons": [
    {
      "persons_count": 3,
      "yearbook": "Annuaire Desfossés 1945",
      "source": "annuaire_df_1945",
      "page": "1209"
    },
    {
      "persons_count": 7,
      "yearbook": "Annuaire Desfossés 1948",
      "source": "annuaire_df_1948",
      "page": "1319"
    },
    {
      "persons_count": 9,
      "yearbook": "Annuaire Desfossés 1953",
      "source": "annuaire_df_1953",
      "page": "1143"
    }
  ],
  "persons_stats": {
    "persons_count": 16,
    "start_date": "1945-01-01",
    "end_date": "1953-12-31"
  },
  "yearbooks_ocrs": [
    {
      "source": "annuaire_df_1945",
      "yearbook": "Annuaire Desfossés 1945",
      "page": "1209"
    },
    {
      "source": "annuaire_df_1948",
      "yearbook": "Annuaire Desfossés 1948",
      "page": "1319"
    },
    {
      "source": "annuaire_df_1953",
      "yearbook": "Annuaire Desfossés 1953",
      "page": "1143"
    }
  ],
  "juridical_status": [
    {
      "juridical_status": "Société Anonyme (Libre)",
      "start_date": "1942-12-01",
      "end_date": "2041-12-01",
      "comments": "Société anonyme française constituée le 1er décembre 1942 pour une durée de 99 ans et résultant de la fusion de la société « Aéroplanes Morane-Saulnier » avec la société « Avions IKellner-Beehereau ».",
      "source": "annuaire_df_1945"
    }
  ],
  "equity_capital": [
    {
      "amount": "50.000.000",
      "currency": "Franc",
      "infodate": "1942-12-01",
      "source": "annuaire_df_1945",
      "comments": " 50 millions de francs divisé en 50.000 actions de 1.000 francs dont 39.140 attribuées aux sociétés apporteuses et 10.860 souscrites-en numéraire et libérées de moitié lors de la souscription. Le conseil est autorisé à porter le capital à 100 millions en une ou plusieurs fois."
    },
    {
      "amount": "80.000.000",
      "currency": "Franc",
      "infodate": "1946-01-01",
      "source": "annuaire_df_1948",
      "comments": "Capital : 100 millions de francs divisé en 100.000 actions de 1.000 francs dont 39.140 attribuées aux sociétés apporteuses et 10.860 souscrites en numéraire et libérées de moitié lors de la souscription. Porté en 1946 à 80 millions par l'émission à 1.065 francs de 30.000 actions nouvelles de 1.000 francs (3 nouvelles pour 5 anciennes), puis à 100 millions par incorporation de réserves et création de 20.000 actions nouvelles de 100 fr. attribuées gratuitement aux actionnaires à raison d'une nouvelle pour 4 anciennes."
    },
    {
      "amount": "100.000.000",
      "currency": "Franc",
      "infodate": "1946-01-02",
      "source": "annuaire_df_1948",
      "comments": " 100 millions de francs divisé en 100.000 actions de 1.000 francs dont 39.140 attribuées aux sociétés apporteuses et 10.860 souscrites en numéraire et libérées de moitié lors de la souscription. Porté en 1946 à 80 millions par l'émission à 1.065 francs de 30.000 actions nouvelles de 1.000 francs (3 nouvelles pour 5 anciennes), puis à 100 millions par incorporation de réserves et création de 20.000 actions nouvelles de 100 fr. attribuées gratuitement aux actionnaires à raison d'une nouvelle pour 4 anciennes."
    }
  ],
  "profit_dividends": [
    {
      "first_date": "1943-12-31",
      "last_date": "1951-12-31",
      "obs_count": 52
    }
  ],
  "public_status": false,
  "stock_exchanges": {
    "1": {
      "id": 1,
      "name": "Paris (Official List)",
      "listings_stats": {
        "start_date": "1962-01-02"
      },
      "spot_prices_stats": {
        "start_date": "1962-01-02",
        "end_date": "1964-05-15"
      }
    }
  },
  "securities": {
    "16675": {
      "id": 16675,
      "name": "Morane-Saulnier, act",
      "share_type": {
        "id": 1,
        "name": "Stock (Action)"
      },
      "types": [
        {
          "start_date": "1962-01-02",
          "end_date": "3999-12-31",
          "id": 18,
          "name": "Action",
          "stock_group": "S"
        }
      ],
      "start_date": "1942-12-01",
      "end_date": "4000-01-03",
      "prices_from": "1962-01-02",
      "prices_to": "1964-05-15",
      "is_mainstock": 0,
      "prices_count": 59
    }
  }
}