{
  "id": 4937,
  "names": [
    "COMPANHIA PORTUGUESA DE TABACOS (Compagnie Fermière des fabriques et marques de tabacs de l'Etat Portugais)",
    "COMPANHIA PORTUGUESA DE TABACOS (Compagnie Portugaise de Tabacs)",
    "COMPANHIA PORTUGUESA DE TABACOS Compagnie fermière des fabriques et des marques de Tabacs de l'Etat Portugais",
    "COMPANHIA PORTUGUESA DE TOBACOS",
    "Companhia Portuguesa de Tabacos"
  ],
  "name": "COMPANHIA PORTUGUESA DE TABACOS (Compagnie Portugaise de Tabacs)",
  "balance_sheets": [
    {
      "start_date": "1931-12-31",
      "source": "Annuaire Desfossés 1933",
      "page": "1641"
    },
    {
      "start_date": "1932-12-31",
      "source": "Annuaire Desfossés 1936",
      "page": null
    },
    {
      "start_date": "1933-12-31",
      "source": "Annuaire Desfossés 1937",
      "page": "1713"
    },
    {
      "start_date": "1934-12-31",
      "source": "Annuaire Desfossés 1937",
      "page": "1713"
    },
    {
      "start_date": "1935-12-31",
      "source": "Annuaire Desfossés 1940",
      "page": null
    },
    {
      "start_date": "1936-12-31",
      "source": "Annuaire Desfossés 1940",
      "page": null
    },
    {
      "start_date": "1937-12-31",
      "source": "Annuaire Desfossés 1940",
      "page": null
    },
    {
      "start_date": "1938-12-31",
      "source": "Annuaire Desfossés 1945",
      "page": "1952"
    },
    {
      "start_date": "1941-12-31",
      "source": "Annuaire Desfossés 1945",
      "page": "1952"
    },
    {
      "start_date": "1942-12-31",
      "source": "Annuaire Desfossés 1945",
      "page": "1952"
    },
    {
      "start_date": "1943-12-31",
      "source": "Annuaire Desfossés 1945",
      "page": "1952"
    },
    {
      "start_date": "1944-12-31",
      "source": "Annuaire Desfossés 1948",
      "page": "2267"
    },
    {
      "start_date": "1945-12-31",
      "source": "Annuaire Desfossés 1948",
      "page": "2267"
    },
    {
      "start_date": "1946-12-31",
      "source": "Annuaire Desfossés 1948",
      "page": "2267"
    },
    {
      "start_date": "1947-12-31",
      "source": "Annuaire Desfossés 1953",
      "page": "1887"
    },
    {
      "start_date": "1948-12-31",
      "source": "Annuaire Desfossés 1953",
      "page": "1887"
    },
    {
      "start_date": "1949-12-31",
      "source": "Annuaire Desfossés 1953",
      "page": "1887"
    },
    {
      "start_date": "1950-12-31",
      "source": "Annuaire Desfossés 1953",
      "page": "1887"
    },
    {
      "start_date": "1951-12-31",
      "source": "Annuaire Desfossés 1953",
      "page": "1887"
    }
  ],
  "balance_sheets_stats": {
    "start_date": "1931-12-31",
    "end_date": "1951-12-31"
  },
  "locations_stats": {
    "start_date": "1933-01-01",
    "end_date": "1953-12-31"
  },
  "locations": {
    "Siège social": [
      {
        "location_types_id": 1,
        "location_type": "Siège social",
        "address": "Largo de santo-domingos, 14 et 15",
        "city": "Lisbonne",
        "district": null,
        "country": "Portugal",
        "in_yearbook_from": 1933,
        "in_yearbook_to": 1933
      },
      {
        "location_types_id": 1,
        "location_type": "Siège social",
        "address": "Avenida da liberdade, 10",
        "city": "Lisbonne",
        "district": null,
        "country": "Portugal",
        "in_yearbook_from": 1940,
        "in_yearbook_to": 1940
      },
      {
        "location_types_id": 1,
        "location_type": "Siège social",
        "address": "Avénida da liberdade, 16",
        "city": "Lisbonne",
        "district": null,
        "country": "Portugal",
        "in_yearbook_from": 1945,
        "in_yearbook_to": 1948
      },
      {
        "location_types_id": 1,
        "location_type": "Siège social",
        "address": "Avenida da liberdadel, 16",
        "city": "Lisbonne",
        "district": null,
        "country": "Portugal",
        "in_yearbook_from": 1953,
        "in_yearbook_to": 1953
      }
    ],
    "Représentant / Correspondant": [
      {
        "location_types_id": 16,
        "location_type": "Représentant / Correspondant",
        "address": "Rue la fayette, 11",
        "city": "Paris",
        "district": "Paris",
        "country": "France",
        "in_yearbook_from": 1933,
        "in_yearbook_to": 1933
      },
      {
        "location_types_id": 16,
        "location_type": "Représentant / Correspondant",
        "address": "Rue lafayette, 11",
        "city": "Paris",
        "district": "Paris",
        "country": "France",
        "in_yearbook_from": 1940,
        "in_yearbook_to": 1940
      },
      {
        "location_types_id": 16,
        "location_type": "Représentant / Correspondant",
        "address": "Rue lafayette, 11",
        "city": "Paris",
        "district": "Paris",
        "country": "France",
        "in_yearbook_from": 1953,
        "in_yearbook_to": 1953
      }
    ]
  },
  "persons": [
    {
      "persons_count": 5,
      "yearbook": "Annuaire Desfossés 1933",
      "source": "annuaire_df_1933",
      "page": "1641"
    },
    {
      "persons_count": 10,
      "yearbook": "Annuaire Desfossés 1940",
      "source": "annuaire_df_1940",
      "page": null
    },
    {
      "persons_count": 8,
      "yearbook": "Annuaire Desfossés 1945",
      "source": "annuaire_df_1945",
      "page": "1952"
    },
    {
      "persons_count": 4,
      "yearbook": "Annuaire Desfossés 1948",
      "source": "annuaire_df_1948",
      "page": "2267"
    },
    {
      "persons_count": 12,
      "yearbook": "Annuaire Desfossés 1953",
      "source": "annuaire_df_1953",
      "page": "1887"
    }
  ],
  "persons_stats": {
    "persons_count": 22,
    "start_date": "1933-01-01",
    "end_date": "1953-12-31"
  },
  "yearbooks_ocrs": [
    {
      "source": "annuaire_df_1933",
      "yearbook": "Annuaire Desfossés 1933",
      "page": "1641"
    },
    {
      "source": "annuaire_df_1937",
      "yearbook": "Annuaire Desfossés 1937",
      "page": "1713"
    },
    {
      "source": "annuaire_df_1940",
      "yearbook": "Annuaire Desfossés 1940",
      "page": null
    },
    {
      "source": "annuaire_df_1945",
      "yearbook": "Annuaire Desfossés 1945",
      "page": "1952"
    },
    {
      "source": "annuaire_df_1948",
      "yearbook": "Annuaire Desfossés 1948",
      "page": "2267"
    },
    {
      "source": "annuaire_df_1953",
      "yearbook": "Annuaire Desfossés 1953",
      "page": "1887"
    }
  ],
  "juridical_status": [
    {
      "juridical_status": "Société anonyme portugaise",
      "start_date": "1927-01-01",
      "end_date": "1957-01-01",
      "comments": "Compagnie fermière des Fabriques et des Marques des Tabacs de l’Etat Portugais. Société portugaise constituée en 1927 pour 30 ans.",
      "source": "annuaire_df_1933"
    }
  ],
  "equity_capital": [
    {
      "amount": "200.000.250",
      "currency": "Ecus-or (Escudos-or)",
      "infodate": "1927-01-01",
      "source": "annuaire_df_1933",
      "comments": "2.000.002.50 escudos or, divisé en 444.445 actions de 4 $ 50 or, dont 414.445 actions ordinaires et 30.000 privilégiées."
    }
  ],
  "profit_dividends": [
    {
      "first_date": "1928-12-31",
      "last_date": "1951-12-31",
      "obs_count": 158
    }
  ],
  "public_status": false,
  "stock_exchanges": {
    "1": {
      "id": 1,
      "name": "Paris (Official List)",
      "forward_prices_stats": {
        "start_date": "1929-04-27",
        "end_date": "1937-12-31"
      },
      "listings_stats": {
        "start_date": "1929-04-27"
      },
      "options_prices_stats": {
        "start_date": "1929-04-27",
        "end_date": "1930-03-31"
      },
      "spot_prices_stats": {
        "start_date": "1929-04-27",
        "end_date": "1966-03-15"
      }
    }
  },
  "securities": {
    "8800": {
      "id": 8800,
      "name": "Portuguesa de Tabacos, act. Ord. 4,50 escudos or ou 1 £, t. p.",
      "share_type": {
        "id": 1,
        "name": "Stock (Action)"
      },
      "types": [
        {
          "start_date": "1929-04-27",
          "end_date": "3999-12-31",
          "id": 11,
          "name": "Action ordinaire",
          "stock_group": "S"
        }
      ],
      "start_date": "1929-04-27",
      "end_date": "3999-12-31",
      "prices_from": "1929-04-27",
      "prices_to": "1966-03-15",
      "is_mainstock": 1,
      "prices_count": 1294
    },
    "8801": {
      "id": 8801,
      "name": "Portuguesa de Tabacos, act. Ord. 4,50 escudos or ou 1 £, t. p. Coup. De 5",
      "share_type": {
        "id": 1,
        "name": "Stock (Action)"
      },
      "types": [
        {
          "start_date": "1929-04-27",
          "end_date": "3999-12-31",
          "id": 11,
          "name": "Action ordinaire",
          "stock_group": "S"
        }
      ],
      "start_date": "1929-04-27",
      "end_date": "3999-12-31",
      "prices_from": "1929-04-27",
      "prices_to": "1966-03-15",
      "is_mainstock": 0,
      "prices_count": 845
    },
    "9720": {
      "id": 9720,
      "name": "Portuguesa de Tabacos, act. Ord. 4,50 escudos or ou 1 £, t. p. Coup. De 10",
      "share_type": {
        "id": 1,
        "name": "Stock (Action)"
      },
      "types": [
        {
          "start_date": "1932-05-11",
          "end_date": "3999-12-31",
          "id": 11,
          "name": "Action ordinaire",
          "stock_group": "S"
        }
      ],
      "start_date": "1932-05-11",
      "end_date": "3999-12-31",
      "prices_from": "1932-05-11",
      "prices_to": "1966-03-15",
      "is_mainstock": 0,
      "prices_count": 719
    },
    "9724": {
      "id": 9724,
      "name": "Portuguesa de Tabacos, act. Ord. 4,50 escudos or ou 1 £, t. p. Coup. De 20",
      "share_type": {
        "id": 1,
        "name": "Stock (Action)"
      },
      "types": [
        {
          "start_date": "1932-05-11",
          "end_date": "3999-12-31",
          "id": 11,
          "name": "Action ordinaire",
          "stock_group": "S"
        }
      ],
      "start_date": "1932-05-11",
      "end_date": "3999-12-31",
      "prices_from": "1932-05-11",
      "prices_to": "1966-03-15",
      "is_mainstock": 0,
      "prices_count": 703
    },
    "10857": {
      "id": 10857,
      "name": "Portuguesa de Tabacos, act. ord. 4,50 escudos or ou 1£, t.p. (Unités, coup. de 5, de 10 et de 20)",
      "share_type": {
        "id": 1,
        "name": "Stock (Action)"
      },
      "types": [
        {
          "start_date": "1936-05-11",
          "end_date": "3999-12-31",
          "id": 11,
          "name": "Action ordinaire",
          "stock_group": "S"
        }
      ],
      "start_date": "1936-05-11",
      "end_date": "3999-12-31",
      "prices_from": "1936-05-15",
      "prices_to": "1937-12-31",
      "is_mainstock": 0,
      "prices_count": 86
    }
  }
}