{
  "id": 2540,
  "names": [
    "Digeon et Cie (Société franco-australienne)",
    "Société Franco-Australienne",
    "Société Franco-Australienne. Raison sociale. — Digeon et Cie",
    "Société franco-australienne."
  ],
  "name": "Société franco-australienne.",
  "balance_sheets": [],
  "balance_sheets_stats": {
    "start_date": null,
    "end_date": null
  },
  "locations_stats": {
    "start_date": "1884-01-01",
    "end_date": "1893-12-31"
  },
  "locations": {
    "Siège social": [
      {
        "location_types_id": 1,
        "location_type": "Siège social",
        "address": "Rue de rome, 37",
        "city": "Paris",
        "district": "Paris",
        "country": "France",
        "in_yearbook_from": 1884,
        "in_yearbook_to": 1884
      },
      {
        "location_types_id": 1,
        "location_type": "Siège social",
        "address": "Rond-point des champs elysées, 12",
        "city": "Paris",
        "district": "Paris",
        "country": "France",
        "in_yearbook_from": 1889,
        "in_yearbook_to": 1889
      },
      {
        "location_types_id": 1,
        "location_type": "Siège social",
        "address": "Rue basse-du-rempart, 66",
        "city": "Paris",
        "district": "Paris",
        "country": "France",
        "in_yearbook_from": 1893,
        "in_yearbook_to": 1893
      }
    ],
    "Représentant / Correspondant": [
      {
        "location_types_id": 16,
        "location_type": "Représentant / Correspondant",
        "address": "Rond point des champs elysées, 12",
        "city": "Paris",
        "district": "Paris",
        "country": "France",
        "in_yearbook_from": 1889,
        "in_yearbook_to": 1889
      }
    ]
  },
  "persons": [
    {
      "persons_count": 5,
      "yearbook": "Annuaire de la Compagnie des Agents de Change 1883",
      "source": "annuaire_cac_1883",
      "page": "1398"
    },
    {
      "persons_count": 4,
      "yearbook": "Annuaire de la Compagnie des Agents de Change 1888",
      "source": "annuaire_cac_1888",
      "page": "1513"
    }
  ],
  "persons_stats": {
    "persons_count": 8,
    "start_date": "1883-01-01",
    "end_date": "1889-12-31"
  },
  "yearbooks_ocrs": [
    {
      "source": "annuaire_cac_1883",
      "yearbook": "Annuaire de la Compagnie des Agents de Change 1883",
      "page": "1398"
    },
    {
      "source": "annuaire_cac_1888",
      "yearbook": "Annuaire de la Compagnie des Agents de Change 1888",
      "page": "1513"
    },
    {
      "source": "annuaire_cac_1893",
      "yearbook": "Annuaire de la Compagnie des Agents de Change 1893",
      "page": "1619"
    }
  ],
  "juridical_status": [
    {
      "juridical_status": "Société en Commandite par actions",
      "start_date": "1880-09-01",
      "end_date": "1932-03-31",
      "comments": "Société en commandite par actions, formée par acte sous seings privés du 30 août 1880, déposé chez Me Gatine, notaire à Paris, le 31 du même mois, définitivement constituée le 1er septembre suivant.",
      "source": "annuaire_cac_1883"
    }
  ],
  "equity_capital": [
    {
      "amount": "2.000.000",
      "currency": "Franc",
      "infodate": "1880-09-01",
      "source": "annuaire_cac_1888",
      "comments": "2 millions de francs, divisé en 4,000 actions de 500 fr., émises au pair, entièrement libérées et au porteur."
    }
  ],
  "profit_dividends": [
    {
      "first_date": "1880-06-30",
      "last_date": "1891-06-30",
      "obs_count": 12
    }
  ],
  "public_status": false,
  "stock_exchanges": {
    "1": {
      "id": 1,
      "name": "Paris (Official List)",
      "listings_stats": {
        "start_date": "1881-12-19"
      },
      "spot_prices_stats": {
        "start_date": "1881-12-19",
        "end_date": "1886-04-15"
      }
    },
    "2": {
      "id": 2,
      "name": "Paris OTC (Coulisse)",
      "listings_stats": {
        "start_date": "1897-02-15"
      },
      "spot_prices_stats": {
        "start_date": "1897-02-15",
        "end_date": "1897-10-15"
      }
    }
  },
  "securities": {
    "3022": {
      "id": 3022,
      "name": "Digeon et Cie (Société franco-australienne)",
      "share_type": {
        "id": 1,
        "name": "Stock (Action)"
      },
      "types": [
        {
          "start_date": "1881-12-19",
          "end_date": "3999-12-31",
          "id": 18,
          "name": "Action",
          "stock_group": "S"
        }
      ],
      "start_date": "1881-12-19",
      "end_date": "3999-12-31",
      "prices_from": "1881-12-19",
      "prices_to": "1882-10-16",
      "is_mainstock": 1,
      "prices_count": 32
    },
    "3294": {
      "id": 3294,
      "name": "Digeon et Ce (Société franco-australienne) remb.à 500f",
      "share_type": {
        "id": 2,
        "name": "Bond (Obligation)"
      },
      "types": [
        {
          "start_date": "1881-12-19",
          "end_date": "3999-12-31",
          "id": 1001,
          "name": "Obligation ordinaire ou classique",
          "stock_group": "B"
        }
      ],
      "start_date": "1881-12-19",
      "end_date": "3999-12-31",
      "prices_from": "1881-12-19",
      "prices_to": "1897-10-15",
      "is_mainstock": 0,
      "prices_count": 65
    }
  }
}