{
  "id": 3098,
  "names": [
    "Forces motrices de la Vis",
    "SOCIÉTÉ DES FORCES MOTRICES DE LA VIS"
  ],
  "name": "Forces motrices de la Vis",
  "balance_sheets": [
    {
      "start_date": "1908-12-31",
      "source": "Annuaire Desfossés 1912",
      "page": "592"
    }
  ],
  "balance_sheets_stats": {
    "start_date": "1908-12-31",
    "end_date": "1908-12-31"
  },
  "locations_stats": {
    "start_date": "1912-01-01",
    "end_date": "1912-12-31"
  },
  "locations": {
    "Siège social": [
      {
        "location_types_id": 1,
        "location_type": "Siège social",
        "address": "Rue pillet-will, 8",
        "city": "Paris",
        "district": "Paris",
        "country": "France",
        "in_yearbook_from": 1912,
        "in_yearbook_to": 1912
      }
    ]
  },
  "persons": [
    {
      "persons_count": 7,
      "yearbook": "Annuaire Desfossés 1912",
      "source": "annuaire_df_1912",
      "page": "592"
    }
  ],
  "persons_stats": {
    "persons_count": 7,
    "start_date": "1912-01-01",
    "end_date": "1912-12-31"
  },
  "yearbooks_ocrs": [
    {
      "source": "annuaire_df_1912",
      "yearbook": "Annuaire Desfossés 1912",
      "page": "592"
    }
  ],
  "juridical_status": [
    {
      "juridical_status": "Société Anonyme (Libre)",
      "start_date": "1906-01-25",
      "end_date": "1966-01-25",
      "comments": "Société anonyme française, constituée le 25 janvier 1906, pour une durée de 60 ans.",
      "source": "annuaire_df_1912"
    }
  ],
  "equity_capital": [
    {
      "amount": "2.250.000",
      "currency": "Franc",
      "infodate": "1908-01-01",
      "source": "annuaire_df_1912",
      "comments": "2.250.000 francs, représenté par 6.600 actions de priorité et 2.400 actions ordinaires, toutes de 250 francs. A l’origine 1.250.000 francs, divisé en 2.600 actions de priorité et 2.400 actions ordinaires de 250 francs, sur lesquelles 400 actions de priorité et les 2.400 actions ordinaires ont été remises, en outre d’une somme en espèces de 50.000 francs, à MM. Bernheim, Falgairolle et Prat en rémunération de leurs apports. En 1908 le capital a été porté au chiffre actuel, par l’émission de 4.000 actions de priorité."
    }
  ],
  "profit_dividends": [],
  "public_status": false
}