{
  "id": 7103,
  "names": [
    "Crédit Général Industriel"
  ],
  "name": "Crédit Général Industriel",
  "balance_sheets": [],
  "balance_sheets_stats": {
    "start_date": null,
    "end_date": null
  },
  "locations_stats": {
    "start_date": null,
    "end_date": null
  },
  "locations": {},
  "persons": [],
  "persons_stats": {
    "persons_count": 0,
    "start_date": null,
    "end_date": null
  },
  "yearbooks_ocrs": [],
  "juridical_status": [],
  "equity_capital": [],
  "profit_dividends": [],
  "public_status": false,
  "stock_exchanges": {
    "1": {
      "id": 1,
      "name": "Paris (Official List)",
      "listings_stats": {
        "start_date": "1972-10-19"
      },
      "spot_prices_stats": {
        "start_date": "1972-10-19",
        "end_date": "1976-12-31"
      }
    }
  },
  "securities": {
    "20945": {
      "id": 20945,
      "name": "Crédit Général Industriel, act. (c. 13 att.)",
      "share_type": {
        "id": 1,
        "name": "Stock (Action)"
      },
      "types": [
        {
          "start_date": "1972-10-19",
          "end_date": "3999-12-31",
          "id": 18,
          "name": "Action",
          "stock_group": "S"
        }
      ],
      "start_date": "1951-01-01",
      "end_date": "3999-12-31",
      "prices_from": "1972-10-19",
      "prices_to": "1976-12-31",
      "is_mainstock": 0,
      "prices_count": 103
    }
  }
}