{
  "id": 10544,
  "names": [
    "Etablissements Roux-Baudrand frères",
    "ÉTABLISSEMENTS ROUX-BAUDRAND FRERES",
    "ÉTABLISSEMENTS ROUX-BAUDRAND FRÈRES",
    "ÉTABLISSEMENTS ROUX-BAUDRAND FRÈRES (Société Coloniale et Industrielle des Bois.)"
  ],
  "name": "ÉTABLISSEMENTS ROUX-BAUDRAND FRÈRES",
  "balance_sheets": [
    {
      "start_date": "1925-12-31",
      "source": "Annuaire Desfossés 1927",
      "page": "1459"
    },
    {
      "start_date": "1925-12-31",
      "source": "Annuaire Desfossés 1927",
      "page": "1421"
    },
    {
      "start_date": "1929-12-31",
      "source": "Annuaire Desfossés 1931",
      "page": "1622"
    }
  ],
  "balance_sheets_stats": {
    "start_date": "1925-12-31",
    "end_date": "1929-12-31"
  },
  "locations_stats": {
    "start_date": "1923-01-01",
    "end_date": "1930-12-31"
  },
  "locations": {
    "Siège social": [
      {
        "location_types_id": 1,
        "location_type": "Siège social",
        "address": "Rue de picpus, 52",
        "city": "Paris",
        "district": "Paris",
        "country": "France",
        "in_yearbook_from": 1923,
        "in_yearbook_to": 1930
      }
    ]
  },
  "persons": [
    {
      "persons_count": 3,
      "yearbook": "Annuaire Desfossés 1927",
      "source": "annuaire_df_1927",
      "page": "1421"
    },
    {
      "persons_count": 3,
      "yearbook": "Annuaire Desfossés 1927",
      "source": "annuaire_df_1927",
      "page": "1459"
    }
  ],
  "persons_stats": {
    "persons_count": 3,
    "start_date": "1927-01-01",
    "end_date": "1927-12-31"
  },
  "yearbooks_ocrs": [
    {
      "source": "annuaire_df_1923",
      "yearbook": "Annuaire Desfossés 1923",
      "page": "1341"
    },
    {
      "source": "annuaire_df_1925",
      "yearbook": "Annuaire Desfossés 1925",
      "page": "1611"
    },
    {
      "source": "annuaire_df_1927",
      "yearbook": "Annuaire Desfossés 1927",
      "page": "1459"
    },
    {
      "source": "annuaire_df_1927",
      "yearbook": "Annuaire Desfossés 1927",
      "page": "1421"
    },
    {
      "source": "annuaire_df_1929",
      "yearbook": "Annuaire Desfossés 1929",
      "page": "1540"
    },
    {
      "source": "annuaire_df_1931",
      "yearbook": "Annuaire Desfossés 1931",
      "page": "1622"
    }
  ],
  "juridical_status": [
    {
      "juridical_status": "Société Anonyme (Libre)",
      "start_date": "1917-08-03",
      "end_date": "3999-12-31",
      "comments": "Société anonyme française, constituée le 3 août 1917.",
      "source": "annuaire_df_1923"
    }
  ],
  "equity_capital": [
    {
      "amount": "825.000",
      "currency": "Franc",
      "infodate": "1917-08-03",
      "source": "annuaire_df_1923",
      "comments": "5 millions de francs, divisé en 10.000 actions de 500 francs. A l’origine 825.000 francs, porté en 1919 à 1.650.000 francs et en 1920, au chiffre actuel.\n"
    },
    {
      "amount": "1.650.000",
      "currency": "Franc",
      "infodate": "1919-01-01",
      "source": "annuaire_df_1923",
      "comments": "5 millions de francs, divisé en 10.000 actions de 500 francs. A l’origine 825.000 francs, porté en 1919 à 1.650.000 francs et en 1920, au chiffre actuel."
    },
    {
      "amount": "5.000.000",
      "currency": "Franc",
      "infodate": "1920-01-01",
      "source": "annuaire_df_1923",
      "comments": "5 millions de francs, divisé en 10.000 actions de 500 francs. A l’origine 825.000 francs, porté en 1919 à 1.650.000 francs et en 1920, au chiffre actuel."
    }
  ],
  "profit_dividends": [
    {
      "first_date": "1924-12-31",
      "last_date": "1925-12-31",
      "obs_count": 7
    }
  ],
  "public_status": false
}