{
  "id": 3819,
  "names": [
    "SOCIETE FRANÇAISE DE SUCRERIES AU CHILI",
    "Société Française de Sucreries au Chili"
  ],
  "name": "SOCIETE FRANÇAISE DE SUCRERIES AU CHILI",
  "balance_sheets": [
    {
      "start_date": "1946-12-31",
      "source": "Annuaire Desfossés 1948",
      "page": "2482"
    },
    {
      "start_date": "1947-12-31",
      "source": "Annuaire Desfossés 1953",
      "page": "2097"
    },
    {
      "start_date": "1948-12-31",
      "source": "Annuaire Desfossés 1953",
      "page": "2097"
    },
    {
      "start_date": "1949-12-31",
      "source": "Annuaire Desfossés 1953",
      "page": "2097"
    },
    {
      "start_date": "1950-12-31",
      "source": "Annuaire Desfossés 1953",
      "page": "2097"
    },
    {
      "start_date": "1951-12-31",
      "source": "Annuaire Desfossés 1953",
      "page": "2097"
    }
  ],
  "balance_sheets_stats": {
    "start_date": "1946-12-31",
    "end_date": "1951-12-31"
  },
  "locations_stats": {
    "start_date": "1948-01-01",
    "end_date": "1953-12-31"
  },
  "locations": {
    "Siège social": [
      {
        "location_types_id": 1,
        "location_type": "Siège social",
        "address": "Rue d'antin, 5",
        "city": "Paris",
        "district": "Paris",
        "country": "France",
        "in_yearbook_from": 1948,
        "in_yearbook_to": 1953
      }
    ]
  },
  "persons": [
    {
      "persons_count": 2,
      "yearbook": "Annuaire Desfossés 1948",
      "source": "annuaire_df_1948",
      "page": "2482"
    },
    {
      "persons_count": 7,
      "yearbook": "Annuaire Desfossés 1953",
      "source": "annuaire_df_1953",
      "page": "2097"
    }
  ],
  "persons_stats": {
    "persons_count": 9,
    "start_date": "1948-01-01",
    "end_date": "1953-12-31"
  },
  "yearbooks_ocrs": [
    {
      "source": "annuaire_df_1948",
      "yearbook": "Annuaire Desfossés 1948",
      "page": "2482"
    },
    {
      "source": "annuaire_df_1953",
      "yearbook": "Annuaire Desfossés 1953",
      "page": "2097"
    }
  ],
  "juridical_status": [
    {
      "juridical_status": "Société Anonyme (Libre)",
      "start_date": "1912-01-01",
      "end_date": "1962-01-01",
      "comments": "Société anonyme' constituée en janvier 1912 pour une duree de 50 ans.",
      "source": "annuaire_df_1948"
    }
  ],
  "equity_capital": [
    {
      "amount": "1.200.000",
      "currency": "Franc",
      "infodate": "1912-01-01",
      "source": "annuaire_df_1948",
      "comments": "20 millions, divisé en 80.000 actions de 250 francs. A l'origine, 1.200.000 francs, porté ipar étapes successives à 20 millions."
    },
    {
      "amount": "20.000.000",
      "currency": "Franc",
      "infodate": "1948-01-01",
      "source": "annuaire_df_1948",
      "comments": "20 millions, divisé en 80.000 actions de 250 francs. A l'origine, 1.200.000 francs, porté ipar étapes successives à 20 millions."
    },
    {
      "amount": "40.000.000",
      "currency": "Franc",
      "infodate": "1949-01-01",
      "source": "annuaire_df_1953",
      "comments": "40 millions, divisé en 16.000 actions de 2.500 fr. A l'origine, 1.200.000 fr., porté par étapes successives à 20 millions en 1947. Porté en 1949 à 40 millions par élévation du nominal de 250 à 500 fr. (jouissance 1-49). Regroupement en actions de 2.500 fr. à partir du 15 oct. 1951."
    }
  ],
  "profit_dividends": [
    {
      "first_date": "1944-12-31",
      "last_date": "1951-12-31",
      "obs_count": 36
    }
  ],
  "public_status": false
}