{
  "id": 660,
  "names": [
    "LA FONCIERE-CAPITALISATION",
    "La Foncière-Capitalisation"
  ],
  "name": "LA FONCIERE-CAPITALISATION",
  "balance_sheets": [
    {
      "start_date": "1944-12-31",
      "source": "Annuaire Desfossés 1948",
      "page": "197"
    },
    {
      "start_date": "1945-12-31",
      "source": "Annuaire Desfossés 1948",
      "page": "197"
    },
    {
      "start_date": "1946-12-31",
      "source": "Annuaire Desfossés 1948",
      "page": "197"
    },
    {
      "start_date": "1947-12-31",
      "source": "Annuaire Desfossés 1953",
      "page": "25"
    },
    {
      "start_date": "1948-12-31",
      "source": "Annuaire Desfossés 1953",
      "page": "25"
    },
    {
      "start_date": "1949-12-31",
      "source": "Annuaire Desfossés 1953",
      "page": "25"
    },
    {
      "start_date": "1950-12-31",
      "source": "Annuaire Desfossés 1953",
      "page": "25"
    },
    {
      "start_date": "1951-12-31",
      "source": "Annuaire Desfossés 1953",
      "page": "25"
    }
  ],
  "balance_sheets_stats": {
    "start_date": "1944-12-31",
    "end_date": "1951-12-31"
  },
  "locations_stats": {
    "start_date": "1948-01-01",
    "end_date": "1953-12-31"
  },
  "locations": {
    "Siège social": [
      {
        "location_types_id": 1,
        "location_type": "Siège social",
        "address": "Rue le peletier, 26",
        "city": "Paris",
        "district": "Paris",
        "country": "France",
        "in_yearbook_from": 1948,
        "in_yearbook_to": 1953
      }
    ]
  },
  "persons": [
    {
      "persons_count": 4,
      "yearbook": "Annuaire Desfossés 1948",
      "source": "annuaire_df_1948",
      "page": "197"
    },
    {
      "persons_count": 9,
      "yearbook": "Annuaire Desfossés 1953",
      "source": "annuaire_df_1953",
      "page": "25"
    }
  ],
  "persons_stats": {
    "persons_count": 12,
    "start_date": "1948-01-01",
    "end_date": "1953-12-31"
  },
  "yearbooks_ocrs": [
    {
      "source": "annuaire_df_1948",
      "yearbook": "Annuaire Desfossés 1948",
      "page": "197"
    },
    {
      "source": "annuaire_df_1953",
      "yearbook": "Annuaire Desfossés 1953",
      "page": "25"
    }
  ],
  "juridical_status": [
    {
      "juridical_status": "Société Anonyme (Libre)",
      "start_date": "1910-07-04",
      "end_date": "2009-07-04",
      "comments": "Société anonyme française, constituée le 4 juillet 1910, (pour une durée de 99 ans.",
      "source": "annuaire_df_1948"
    }
  ],
  "equity_capital": [
    {
      "amount": "1.000.000",
      "currency": "Franc",
      "infodate": "1910-07-04",
      "source": "annuaire_df_1948",
      "comments": "5 millions de francs divisé en 12.500 actions de 400 fr. entièrement libérées. A l'origine, 1 million, porté à 5 millions en décembre 1942 par l'émission à 500 fr.. de 10.000 actions de 400 fr."
    },
    {
      "amount": "5.000.000",
      "currency": "Franc",
      "infodate": "1942-12-01",
      "source": "annuaire_df_1948",
      "comments": "5 millions de francs divisé en 12.500 actions de 400 fr. entièrement libérées. A l'origine, 1 million, porté à 5 millions en décembre 1942 par l'émission à 500 fr.. de 10.000 actions de 400 fr."
    },
    {
      "amount": "10.000.000",
      "currency": "Franc",
      "infodate": "1948-01-01",
      "source": "annuaire_df_1953",
      "comments": "10 millions de fr. divisé en 25.000 actions de 400 fr. A l'origine, 1 million, porté à 5 millions en décembre 1942 par l'émission à 500 fr. de 10.000 actions de 400 fr. Porté en 1948 à 10 millions par émission à 420 fr. de 12.500 actions nouvelles de 400 fr. (1 pour 1)."
    }
  ],
  "profit_dividends": [
    {
      "first_date": "1942-12-31",
      "last_date": "1951-12-31",
      "obs_count": 57
    }
  ],
  "public_status": false,
  "stock_exchanges": {
    "1": {
      "id": 1,
      "name": "Paris (Official List)",
      "listings_stats": {
        "start_date": "1943-10-07"
      },
      "spot_prices_stats": {
        "start_date": "1943-10-07",
        "end_date": "1958-05-16"
      }
    }
  },
  "securities": {
    "11675": {
      "id": 11675,
      "name": "Foncière (La) (capitalisation), act. 400 fr., t. p. (nom)",
      "share_type": {
        "id": 1,
        "name": "Stock (Action)"
      },
      "types": [
        {
          "start_date": "1943-10-07",
          "end_date": "3999-12-31",
          "id": 18,
          "name": "Action",
          "stock_group": "S"
        }
      ],
      "start_date": "1943-10-07",
      "end_date": "3999-12-31",
      "prices_from": "1943-10-07",
      "prices_to": "1958-05-16",
      "is_mainstock": 0,
      "prices_count": 354
    }
  }
}