{
  "id": 3399,
  "names": [
    "ETATS : CANADA",
    "GOUVERNEMENT DES POSSESSIONS ANGLAISES DU CANADA",
    "GOUVERNEMENT DU CANADA",
    "emprunts 4 % du Gouvernement des Possessions anglaises du Canada"
  ],
  "name": "GOUVERNEMENT DU CANADA",
  "balance_sheets": [],
  "balance_sheets_stats": {
    "start_date": null,
    "end_date": null
  },
  "locations_stats": {
    "start_date": null,
    "end_date": null
  },
  "locations": {},
  "persons": [],
  "persons_stats": {
    "persons_count": 0,
    "start_date": null,
    "end_date": null
  },
  "yearbooks_ocrs": [
    {
      "source": "annuaire_cac_1880",
      "yearbook": "Annuaire de la Compagnie des Agents de Change 1880",
      "page": "152"
    },
    {
      "source": "annuaire_cac_1883",
      "yearbook": "Annuaire de la Compagnie des Agents de Change 1883",
      "page": "105"
    },
    {
      "source": "annuaire_cac_1888",
      "yearbook": "Annuaire de la Compagnie des Agents de Change 1888",
      "page": "103"
    },
    {
      "source": "annuaire_cac_1893",
      "yearbook": "Annuaire de la Compagnie des Agents de Change 1893",
      "page": "115"
    },
    {
      "source": "annuaire_cac_1898",
      "yearbook": "Annuaire de la Compagnie des Agents de Change 1898",
      "page": "153"
    },
    {
      "source": "annuaire_cac_1903",
      "yearbook": "Annuaire de la Compagnie des Agents de Change 1903",
      "page": "164"
    },
    {
      "source": "annuaire_cac_1908",
      "yearbook": "Annuaire de la Compagnie des Agents de Change 1908",
      "page": "141"
    },
    {
      "source": "annuaire_df_1912",
      "yearbook": "Annuaire Desfossés 1912",
      "page": "33"
    }
  ],
  "juridical_status": [],
  "equity_capital": [],
  "profit_dividends": [],
  "public_status": true,
  "stock_exchanges": {
    "1": {
      "id": 1,
      "name": "Paris (Official List)",
      "listings_stats": {
        "start_date": "1879-11-15"
      },
      "spot_prices_stats": {
        "start_date": "1879-11-19",
        "end_date": "1906-06-30"
      }
    }
  },
  "securities": {
    "3138": {
      "id": 3138,
      "name": "Canada, 4%, garantis, .1903-1904-1908-1910-1913 (nég.ch.fixe 25.20)",
      "share_type": {
        "id": 2,
        "name": "Bond (Obligation)"
      },
      "types": [
        {
          "start_date": "1879-11-15",
          "end_date": "3999-12-31",
          "id": 1001,
          "name": "Obligation ordinaire ou classique",
          "stock_group": "B"
        }
      ],
      "start_date": "1879-11-15",
      "end_date": "3999-12-31",
      "prices_from": "1879-11-19",
      "prices_to": "1901-09-16",
      "is_mainstock": 0,
      "prices_count": 3
    },
    "3139": {
      "id": 3139,
      "name": "Canada, 4%, non garantis, .1904-1905-1906-1908 (nég.ch.fixe 25.20)",
      "share_type": {
        "id": 2,
        "name": "Bond (Obligation)"
      },
      "types": [
        {
          "start_date": "1879-11-15",
          "end_date": "3999-12-31",
          "id": 1001,
          "name": "Obligation ordinaire ou classique",
          "stock_group": "B"
        }
      ],
      "start_date": "1879-11-15",
      "end_date": "3999-12-31",
      "prices_from": "1879-11-19",
      "prices_to": "1903-02-16",
      "is_mainstock": 0,
      "prices_count": 4
    },
    "4790": {
      "id": 4790,
      "name": "Canada 4% (nég. ch. fixe 25f20), garantis, r. en 1903-1904",
      "share_type": {
        "id": 2,
        "name": "Bond (Obligation)"
      },
      "types": [
        {
          "start_date": "1903-01-12",
          "end_date": "3999-12-31",
          "id": 1001,
          "name": "Obligation ordinaire ou classique",
          "stock_group": "B"
        }
      ],
      "start_date": "1903-01-12",
      "end_date": "3999-12-31",
      "prices_from": "1903-01-21",
      "prices_to": "1903-01-21",
      "is_mainstock": 0,
      "prices_count": 1
    },
    "4792": {
      "id": 4792,
      "name": "Canada 4% (nég. ch. fixe 25f20), garantis, r. en 1908-1910-1913",
      "share_type": {
        "id": 2,
        "name": "Bond (Obligation)"
      },
      "types": [
        {
          "start_date": "1903-01-12",
          "end_date": "3999-12-31",
          "id": 1001,
          "name": "Obligation ordinaire ou classique",
          "stock_group": "B"
        }
      ],
      "start_date": "1903-01-12",
      "end_date": "3999-12-31",
      "prices_from": "1903-01-27",
      "prices_to": "1906-06-30",
      "is_mainstock": 0,
      "prices_count": 3
    }
  }
}