{
  "id": 618,
  "names": [
    "Mines de Kef-Oum-Theboul (cercle de la Calle, province de Constantine - Algérie)"
  ],
  "name": "Mines de Kef-Oum-Theboul (cercle de la Calle, province de Constantine - Algérie)",
  "balance_sheets": [],
  "balance_sheets_stats": {
    "start_date": null,
    "end_date": null
  },
  "locations_stats": {
    "start_date": "1856-01-01",
    "end_date": "1856-12-31"
  },
  "locations": {
    "Siège social": [
      {
        "location_types_id": 1,
        "location_type": "Siège social",
        "address": null,
        "city": "Marseille",
        "district": "Bouches-du-Rhône",
        "country": "France",
        "in_yearbook_from": 1856,
        "in_yearbook_to": 1856
      }
    ]
  },
  "persons": [],
  "persons_stats": {
    "persons_count": 0,
    "start_date": null,
    "end_date": null
  },
  "yearbooks_ocrs": [],
  "juridical_status": [
    {
      "juridical_status": "Société Anonyme (Libre)",
      "start_date": "1854-11-15",
      "end_date": "1943-12-31",
      "comments": "Société anonyme française, autorisée par décret impérial du 15 novembre 1854 pour une durée de 90 ans. ",
      "source": "Courtois 1856"
    }
  ],
  "equity_capital": [],
  "profit_dividends": [],
  "public_status": false,
  "stock_exchanges": {
    "1": {
      "id": 1,
      "name": "Paris (Official List)",
      "listings_stats": {
        "start_date": "1892-05-30"
      }
    }
  },
  "securities": {
    "40249": {
      "id": 40249,
      "name": "Kef-Oum-Theboul",
      "share_type": {
        "id": 1,
        "name": "Stock (Action)"
      },
      "types": [
        {
          "start_date": "1000-01-01",
          "end_date": "3999-12-31",
          "id": 1,
          "name": "UNKNOWN",
          "stock_group": "U"
        }
      ],
      "start_date": "1000-01-01",
      "end_date": "3999-12-31",
      "prices_from": null,
      "prices_to": null,
      "is_mainstock": 0,
      "prices_count": 0
    }
  }
}