{
  "id": 5609,
  "names": [
    "Rexall Drug and Chemical Cy"
  ],
  "name": "Rexall Drug and Chemical Cy",
  "balance_sheets": [],
  "balance_sheets_stats": {
    "start_date": null,
    "end_date": null
  },
  "locations_stats": {
    "start_date": null,
    "end_date": null
  },
  "locations": {},
  "persons": [],
  "persons_stats": {
    "persons_count": 0,
    "start_date": null,
    "end_date": null
  },
  "yearbooks_ocrs": [],
  "juridical_status": [],
  "equity_capital": [],
  "profit_dividends": [],
  "public_status": false,
  "stock_exchanges": {
    "1": {
      "id": 1,
      "name": "Paris (Official List)",
      "listings_stats": {
        "start_date": "1964-09-15"
      },
      "spot_prices_stats": {
        "start_date": "1964-09-15",
        "end_date": "1976-12-31"
      }
    }
  },
  "securities": {
    "18255": {
      "id": 18255,
      "name": "Rexall Drug and Chemical Cy, a. ord $ US 1,25 (nom.) (Livraison en crédit SICOVAM)",
      "share_type": {
        "id": 1,
        "name": "Stock (Action)"
      },
      "types": [
        {
          "start_date": "1964-09-15",
          "end_date": "3999-12-31",
          "id": 18,
          "name": "Action",
          "stock_group": "S"
        }
      ],
      "start_date": "1964-09-15",
      "end_date": "3999-12-31",
      "prices_from": "1964-09-15",
      "prices_to": "1976-12-31",
      "is_mainstock": 0,
      "prices_count": 302
    }
  }
}