{
  "id": 2574,
  "names": [
    "SOCIÉTÉ CENTRALE DES BOIS",
    "Société Centrale des Bois"
  ],
  "name": "SOCIÉTÉ CENTRALE DES BOIS",
  "balance_sheets": [
    {
      "start_date": "1923-12-31",
      "source": "Annuaire Desfossés 1925",
      "page": "1641"
    },
    {
      "start_date": "1925-12-31",
      "source": "Annuaire Desfossés 1927",
      "page": "1325"
    },
    {
      "start_date": "1927-12-31",
      "source": "Annuaire Desfossés 1929",
      "page": "1427"
    },
    {
      "start_date": "1929-12-31",
      "source": "Annuaire Desfossés 1931",
      "page": "1485"
    },
    {
      "start_date": "1931-12-31",
      "source": "Annuaire Desfossés 1933",
      "page": "1517"
    }
  ],
  "balance_sheets_stats": {
    "start_date": "1923-12-31",
    "end_date": "1931-12-31"
  },
  "locations_stats": {
    "start_date": "1924-01-01",
    "end_date": "1933-12-31"
  },
  "locations": {
    "Siège social": [
      {
        "location_types_id": 1,
        "location_type": "Siège social",
        "address": "Rue d'aguesseau, 16",
        "city": "Paris",
        "district": "Paris",
        "country": "France",
        "in_yearbook_from": 1924,
        "in_yearbook_to": 1933
      }
    ]
  },
  "persons": [
    {
      "persons_count": 9,
      "yearbook": "Annuaire Desfossés 1927",
      "source": "annuaire_df_1927",
      "page": "1325"
    },
    {
      "persons_count": 8,
      "yearbook": "Annuaire Desfossés 1933",
      "source": "annuaire_df_1933",
      "page": "1517"
    }
  ],
  "persons_stats": {
    "persons_count": 16,
    "start_date": "1927-01-01",
    "end_date": "1933-12-31"
  },
  "yearbooks_ocrs": [
    {
      "source": "annuaire_df_1925",
      "yearbook": "Annuaire Desfossés 1925",
      "page": "1641"
    },
    {
      "source": "annuaire_df_1927",
      "yearbook": "Annuaire Desfossés 1927",
      "page": "1325"
    },
    {
      "source": "annuaire_df_1929",
      "yearbook": "Annuaire Desfossés 1929",
      "page": "1427"
    },
    {
      "source": "annuaire_df_1931",
      "yearbook": "Annuaire Desfossés 1931",
      "page": "1485"
    },
    {
      "source": "annuaire_df_1933",
      "yearbook": "Annuaire Desfossés 1933",
      "page": "1517"
    }
  ],
  "juridical_status": [
    {
      "juridical_status": "Société Anonyme (Libre)",
      "start_date": "1920-09-07",
      "end_date": "1980-01-31",
      "comments": "Société française constituée le 7 septembre 1920 pour une durée de 60 années.",
      "source": "annuaire_df_1927"
    }
  ],
  "equity_capital": [
    {
      "amount": "70.000.000",
      "currency": "Franc",
      "infodate": "1920-09-07",
      "source": "annuaire_df_1927",
      "comments": " A ’origine 70 millions de francs"
    },
    {
      "amount": "74.500.000",
      "currency": "Franc",
      "infodate": "1920-09-08",
      "source": "annuaire_df_1933",
      "comments": " porté ensuite à 74.500.000"
    },
    {
      "amount": "76.650.000",
      "currency": "Franc",
      "infodate": "1920-09-09",
      "source": "annuaire_df_1933",
      "comments": " puisà 76.650.000 francs,"
    },
    {
      "amount": "24.000.000",
      "currency": "Franc",
      "infodate": "1922-01-01",
      "source": "annuaire_df_1933",
      "comments": "24 millions de francs divisé en 48.000 actions de 500 francs. A l’origine 70 millions de francs, porté ensuite à 74.500.000 puisà 76.650.000 francs, ramené à 24 millions en 1922 par annulation de 105.300 actions."
    }
  ],
  "profit_dividends": [
    {
      "first_date": "1925-12-31",
      "last_date": "1932-12-31",
      "obs_count": 37
    }
  ],
  "public_status": false,
  "stock_exchanges": {
    "1": {
      "id": 1,
      "name": "Paris (Official List)",
      "listings_stats": {
        "start_date": "1923-11-12"
      },
      "spot_prices_stats": {
        "start_date": "1923-11-12",
        "end_date": "1937-04-30"
      }
    }
  },
  "securities": {
    "7790": {
      "id": 7790,
      "name": "Centrale des Bois (Sté), act. 500 fr., t. p.",
      "share_type": {
        "id": 1,
        "name": "Stock (Action)"
      },
      "types": [
        {
          "start_date": "1923-11-12",
          "end_date": "1937-04-30",
          "id": 18,
          "name": "Action",
          "stock_group": "S"
        }
      ],
      "start_date": "1600-01-01",
      "end_date": "3999-12-31",
      "prices_from": "1923-11-12",
      "prices_to": "1937-04-30",
      "is_mainstock": 1,
      "prices_count": 270
    },
    "105793": {
      "id": 105793,
      "name": "Centrale des Bois (Sté), act. anc. 500 fr., t. p. (vignettes bleues)",
      "share_type": {
        "id": 1,
        "name": "Stock (Action)"
      },
      "types": [
        {
          "start_date": "1935-01-15",
          "end_date": "3999-12-31",
          "id": 18,
          "name": "Action",
          "stock_group": "S"
        }
      ],
      "start_date": "1935-01-15",
      "end_date": "3999-12-31",
      "prices_from": "1935-01-31",
      "prices_to": "1935-07-01",
      "is_mainstock": 0,
      "prices_count": 11
    }
  }
}