{
  "id": 5911,
  "names": [
    "Bischviller (Etabl. De Laine Cardée),"
  ],
  "name": "Bischviller (Etabl. De Laine Cardée),",
  "balance_sheets": [],
  "balance_sheets_stats": {
    "start_date": null,
    "end_date": null
  },
  "locations_stats": {
    "start_date": null,
    "end_date": null
  },
  "locations": {},
  "persons": [],
  "persons_stats": {
    "persons_count": 0,
    "start_date": null,
    "end_date": null
  },
  "yearbooks_ocrs": [],
  "juridical_status": [],
  "equity_capital": [],
  "profit_dividends": [],
  "public_status": false,
  "stock_exchanges": {
    "1": {
      "id": 1,
      "name": "Paris (Official List)",
      "listings_stats": {
        "start_date": "1967-05-02"
      },
      "spot_prices_stats": {
        "start_date": "1967-05-16",
        "end_date": "1969-03-17"
      }
    }
  },
  "securities": {
    "19190": {
      "id": 19190,
      "name": "Nancy_Bourse Bischviller (Etabl. De Laine Cardée), act. (nom.)",
      "share_type": {
        "id": 1,
        "name": "Stock (Action)"
      },
      "types": [
        {
          "start_date": "1967-05-02",
          "end_date": "3999-12-31",
          "id": 18,
          "name": "Action",
          "stock_group": "S"
        }
      ],
      "start_date": "1967-05-02",
      "end_date": "3999-12-31",
      "prices_from": "1967-05-16",
      "prices_to": "1969-03-17",
      "is_mainstock": 0,
      "prices_count": 45
    }
  }
}