{
  "id": 4130,
  "names": [
    "USINES DU PIED SELLE",
    "USINES DU PIED-SELLE",
    "Usines du Pied-Selle"
  ],
  "name": "USINES DU PIED-SELLE",
  "balance_sheets": [
    {
      "start_date": "1929-12-31",
      "source": "Annuaire Desfossés 1931",
      "page": "792"
    },
    {
      "start_date": "1931-12-31",
      "source": "Annuaire Desfossés 1933",
      "page": "849"
    },
    {
      "start_date": "1932-12-31",
      "source": "Annuaire Desfossés 1936",
      "page": null
    },
    {
      "start_date": "1933-12-31",
      "source": "Annuaire Desfossés 1937",
      "page": "925"
    },
    {
      "start_date": "1934-12-31",
      "source": "Annuaire Desfossés 1937",
      "page": "925"
    },
    {
      "start_date": "1935-12-31",
      "source": "Annuaire Desfossés 1940",
      "page": null
    },
    {
      "start_date": "1936-12-31",
      "source": "Annuaire Desfossés 1940",
      "page": null
    },
    {
      "start_date": "1937-12-31",
      "source": "Annuaire Desfossés 1940",
      "page": null
    },
    {
      "start_date": "1938-12-31",
      "source": "Annuaire Desfossés 1945",
      "page": "1067"
    },
    {
      "start_date": "1941-12-31",
      "source": "Annuaire Desfossés 1945",
      "page": "1067"
    },
    {
      "start_date": "1942-12-31",
      "source": "Annuaire Desfossés 1945",
      "page": "1067"
    },
    {
      "start_date": "1943-12-31",
      "source": "Annuaire Desfossés 1945",
      "page": "1067"
    },
    {
      "start_date": "1944-12-31",
      "source": "Annuaire Desfossés 1948",
      "page": "1141"
    },
    {
      "start_date": "1945-12-31",
      "source": "Annuaire Desfossés 1948",
      "page": "1141"
    },
    {
      "start_date": "1946-12-31",
      "source": "Annuaire Desfossés 1948",
      "page": "1141"
    },
    {
      "start_date": "1947-12-31",
      "source": "Annuaire Desfossés 1948",
      "page": "1141"
    },
    {
      "start_date": "1948-12-31",
      "source": "Annuaire Desfossés 1953",
      "page": "951"
    },
    {
      "start_date": "1949-12-31",
      "source": "Annuaire Desfossés 1953",
      "page": "951"
    },
    {
      "start_date": "1950-12-31",
      "source": "Annuaire Desfossés 1953",
      "page": "951"
    },
    {
      "start_date": "1951-12-31",
      "source": "Annuaire Desfossés 1953",
      "page": "951"
    }
  ],
  "balance_sheets_stats": {
    "start_date": "1929-12-31",
    "end_date": "1951-12-31"
  },
  "locations_stats": {
    "start_date": "1930-01-01",
    "end_date": "1953-12-31"
  },
  "locations": {
    "Siège social": [
      {
        "location_types_id": 1,
        "location_type": "Siège social",
        "address": null,
        "city": "Fumay",
        "district": "Ardennes",
        "country": "France",
        "in_yearbook_from": 1930,
        "in_yearbook_to": 1930
      },
      {
        "location_types_id": 1,
        "location_type": "Siège social",
        "address": null,
        "city": "Fumay",
        "district": "Ardennes",
        "country": "France",
        "in_yearbook_from": 1933,
        "in_yearbook_to": 1940
      },
      {
        "location_types_id": 1,
        "location_type": "Siège social",
        "address": "Boulevard haussmann, 173",
        "city": "Paris",
        "district": "Paris",
        "country": "France",
        "in_yearbook_from": 1945,
        "in_yearbook_to": 1953
      }
    ],
    "Siège administratif / Bureaux": [
      {
        "location_types_id": 2,
        "location_type": "Siège administratif / Bureaux",
        "address": "Rue du terrage, 27",
        "city": "Paris",
        "district": "Paris",
        "country": "France",
        "in_yearbook_from": 1930,
        "in_yearbook_to": 1933
      }
    ],
    "Usines": [
      {
        "location_types_id": 3,
        "location_type": "Usines",
        "address": null,
        "city": "Fumay",
        "district": "Ardennes",
        "country": "France",
        "in_yearbook_from": 1940,
        "in_yearbook_to": 1940
      },
      {
        "location_types_id": 3,
        "location_type": "Usines",
        "address": null,
        "city": "Issoudun",
        "district": "Indre",
        "country": "France",
        "in_yearbook_from": 1940,
        "in_yearbook_to": 1940
      },
      {
        "location_types_id": 3,
        "location_type": "Usines",
        "address": null,
        "city": "Rosières-en-Santerre",
        "district": "Somme",
        "country": "France",
        "in_yearbook_from": 1940,
        "in_yearbook_to": 1940
      }
    ]
  },
  "persons": [
    {
      "persons_count": 7,
      "yearbook": "Annuaire Desfossés 1933",
      "source": "annuaire_df_1933",
      "page": "849"
    },
    {
      "persons_count": 4,
      "yearbook": "Annuaire Desfossés 1940",
      "source": "annuaire_df_1940",
      "page": null
    },
    {
      "persons_count": 1,
      "yearbook": "Annuaire Desfossés 1945",
      "source": "annuaire_df_1945",
      "page": "1067"
    },
    {
      "persons_count": 6,
      "yearbook": "Annuaire Desfossés 1948",
      "source": "annuaire_df_1948",
      "page": "1141"
    },
    {
      "persons_count": 8,
      "yearbook": "Annuaire Desfossés 1953",
      "source": "annuaire_df_1953",
      "page": "951"
    }
  ],
  "persons_stats": {
    "persons_count": 21,
    "start_date": "1933-01-01",
    "end_date": "1953-12-31"
  },
  "yearbooks_ocrs": [
    {
      "source": "annuaire_df_1931",
      "yearbook": "Annuaire Desfossés 1931",
      "page": "792"
    },
    {
      "source": "annuaire_df_1933",
      "yearbook": "Annuaire Desfossés 1933",
      "page": "849"
    },
    {
      "source": "annuaire_df_1937",
      "yearbook": "Annuaire Desfossés 1937",
      "page": "925"
    },
    {
      "source": "annuaire_df_1940",
      "yearbook": "Annuaire Desfossés 1940",
      "page": null
    },
    {
      "source": "annuaire_df_1945",
      "yearbook": "Annuaire Desfossés 1945",
      "page": "1067"
    },
    {
      "source": "annuaire_df_1948",
      "yearbook": "Annuaire Desfossés 1948",
      "page": "1141"
    },
    {
      "source": "annuaire_df_1953",
      "yearbook": "Annuaire Desfossés 1953",
      "page": "951"
    }
  ],
  "juridical_status": [
    {
      "juridical_status": "Société Anonyme (Libre)",
      "start_date": "1893-12-05",
      "end_date": "1992-01-31",
      "comments": "Société anonyme française, constituée le 5 décembre 1893, pour une durée de 99 ans.",
      "source": "annuaire_df_1933"
    }
  ],
  "equity_capital": [
    {
      "amount": "10.000.000",
      "currency": "Franc",
      "infodate": "1893-12-05",
      "source": "annuaire_df_1933",
      "comments": "10.000.000 de francs, divisé en 28.000 actions dont 18.000 dites A de 500 francs et 10.000 dites V de 100 francs à vote plural."
    },
    {
      "amount": "30.000.000",
      "currency": "Franc",
      "infodate": "1946-01-01",
      "source": "annuaire_df_1948",
      "comments": "30 mill. de fr. divise en 60.000 actions de 500 ir, A rongme, io mu. lions, divisé en 18.000 actions *A de 500 francs et 10.000 actions V de 100 francs. En 1935, les actions V ont été échangées contre des actions A, à raison de 10 actions V contre 2 actions A de 500 fr. Porté à 30 millions en 1946 par l'émission à 530 fr. de 40.000 actions nouvelles de 500 fr. (deux nouvelles pour 1 ancienne)."
    },
    {
      "amount": "79.500.000",
      "currency": "Franc",
      "infodate": "1949-01-01",
      "source": "annuaire_df_1953",
      "comments": "120 millions de fr., divisé en 30.000 actions de 4.000 fr. A l'origine, 10 millions, divisé en 18.000 actions A de 500 fr. et 10.000 actions V de 100 fr. En 1935, les actions V ont été échangées contre des actions A, à raison de 10 actions V contre 2 actions A de 500 fr. Porté i 30 millions en 1946 par l'émission à 530 fr. de 40.000 actions nouvelles de 500 fr. (2 nouv. cour 1 anc ) Porté à. 54 millions en 1948 par incorporation de réserves et élévation du nominal des actions à 900 fr. Porté eu 1949 à. 75 millions par élévation du nominal à 1.250 fr. Actions regroupées en 1949 en titres de 2.500 fr. Porté en 1950 à 79.500.000 fr. par élévation du nominal à 2 650 fr. Porté en 1951 à 120 millions par élévation du nominal de 2.650 à 4.000 fr. r."
    },
    {
      "amount": "79.500.000",
      "currency": "Franc",
      "infodate": "1950-01-01",
      "source": "annuaire_df_1953",
      "comments": " CAPITAL SOCIAL. : 120 millions de fr., divisé en 30.000 actions de 4.000 fr. A l'origine, 10 millions, divisé en 18.000 actions A de 500 fr. et 10.000 actions V de 100 fr. En 1935, les actions V ont été échangées contre des actions A, à raison de 10 actions V contre 2 actions A de 500 fr. Porté i 30 millions en 1946 par l'émission à 530 fr. de 40.000 actions nouvelles de 500 fr. (2 nouv. cour 1 anc ) Porté à. 54 millions en 1948 par incorporation de réserves et élévation du nominal des actions à 900 fr. Porté eu 1949 à. 75 millions par élévation du nominal à 1.250 fr. Actions regroupées en 1949 en titres de 2.500 fr. Porté en 1950 à 79.500.000 fr. par élévation du nominal à 2 650 fr. Porté en 1951 à 120 millions par élévation du nominal de 2.650 à 4.000 fr. r."
    },
    {
      "amount": "120.000.000",
      "currency": "Franc",
      "infodate": "1951-01-01",
      "source": "annuaire_df_1953",
      "comments": "120 millions de fr., divisé en 30.000 actions de 4.000 fr. A l'origine, 10 millions, divisé en 18.000 actions A de 500 fr. et 10.000 actions V de 100 fr. En 1935, les actions V ont été échangées contre des actions A, à raison de 10 actions V contre 2 actions A de 500 fr. Porté i 30 millions en 1946 par l'émission à 530 fr. de 40.000 actions nouvelles de 500 fr. (2 nouv. cour 1 anc ) Porté à. 54 millions en 1948 par incorporation de réserves et élévation du nominal des actions à 900 fr. Porté eu 1949 à. 75 millions par élévation du nominal à 1.250 fr. Actions regroupées en 1949 en titres de 2.500 fr. Porté en 1950 à 79.500.000 fr. par élévation du nominal à 2 650 fr. Porté en 1951 à 120 millions par élévation du nominal de 2.650 à 4.000 fr. r."
    }
  ],
  "profit_dividends": [
    {
      "first_date": "1928-12-31",
      "last_date": "1951-12-31",
      "obs_count": 156
    }
  ],
  "public_status": false,
  "stock_exchanges": {
    "1": {
      "id": 1,
      "name": "Paris (Official List)",
      "listings_stats": {
        "start_date": "1929-06-10"
      },
      "spot_prices_stats": {
        "start_date": "1929-06-10",
        "end_date": "1974-07-01"
      }
    }
  },
  "securities": {
    "9343": {
      "id": 9343,
      "name": "Pied-Selle (Usines du), act. A 1250 fr., t. p.",
      "share_type": {
        "id": 1,
        "name": "Stock (Action)"
      },
      "types": [
        {
          "start_date": "1929-06-10",
          "end_date": "3999-12-31",
          "id": 11,
          "name": "Action ordinaire",
          "stock_group": "S"
        }
      ],
      "start_date": "1929-06-10",
      "end_date": "3999-12-31",
      "prices_from": "1929-06-10",
      "prices_to": "1951-08-31",
      "is_mainstock": 1,
      "prices_count": 516
    },
    "12339": {
      "id": 12339,
      "name": "Pied-Selle (Usine du) 4% 1945, remb. à 2000 fr. 1946-70",
      "share_type": {
        "id": 2,
        "name": "Bond (Obligation)"
      },
      "types": [
        {
          "start_date": "1946-06-06",
          "end_date": "3999-12-31",
          "id": 1001,
          "name": "Obligation ordinaire ou classique",
          "stock_group": "B"
        }
      ],
      "start_date": "1946-06-06",
      "end_date": "3999-12-31",
      "prices_from": "1946-06-14",
      "prices_to": "1955-01-31",
      "is_mainstock": 0,
      "prices_count": 203
    },
    "13792": {
      "id": 13792,
      "name": "Pied-Selle (Usines du), act. 4000 fr., t.p.",
      "share_type": {
        "id": 1,
        "name": "Stock (Action)"
      },
      "types": [
        {
          "start_date": "1950-10-02",
          "end_date": "3999-12-31",
          "id": 11,
          "name": "Action ordinaire",
          "stock_group": "S"
        }
      ],
      "start_date": "1950-10-02",
      "end_date": "3999-12-31",
      "prices_from": "1950-11-15",
      "prices_to": "1969-01-15",
      "is_mainstock": 0,
      "prices_count": 470
    },
    "15099": {
      "id": 15099,
      "name": "Pied-Selle (Usines du), Act. (n°s 30001 à 60000) (c. 25 att.)",
      "share_type": {
        "id": 1,
        "name": "Stock (Action)"
      },
      "types": [
        {
          "start_date": "1955-11-08",
          "end_date": "3999-12-31",
          "id": 11,
          "name": "Action ordinaire",
          "stock_group": "S"
        }
      ],
      "start_date": "1955-11-08",
      "end_date": "3999-12-31",
      "prices_from": "1955-11-09",
      "prices_to": "1956-06-15",
      "is_mainstock": 0,
      "prices_count": 27
    },
    "15532": {
      "id": 15532,
      "name": "Pied-Selle (Usines du) 6% 1956, remb. À 10500 fr. minimum (c. 10/7/57 att.) 1957-74",
      "share_type": {
        "id": 2,
        "name": "Bond (Obligation)"
      },
      "types": [
        {
          "start_date": "1957-03-05",
          "end_date": "3999-12-31",
          "id": 1001,
          "name": "Obligation ordinaire ou classique",
          "stock_group": "B"
        }
      ],
      "start_date": "1957-03-05",
      "end_date": "3999-12-31",
      "prices_from": "1957-03-15",
      "prices_to": "1974-07-01",
      "is_mainstock": 0,
      "prices_count": 416
    },
    "15599": {
      "id": 15599,
      "name": "Pied-Selle (usines du), Promesses (Jce 1/1/58)",
      "share_type": {
        "id": 1,
        "name": "Stock (Action)"
      },
      "types": [
        {
          "start_date": "1958-04-25",
          "end_date": "3999-12-31",
          "id": 27,
          "name": "Promesse d'action",
          "stock_group": "S"
        }
      ],
      "start_date": "1958-04-25",
      "end_date": "3999-12-31",
      "prices_from": "1958-04-25",
      "prices_to": "1958-07-01",
      "is_mainstock": 0,
      "prices_count": 6
    },
    "100550": {
      "id": 100550,
      "name": "Act. Pied-Selle (Usines du) (droit et coupon 13 ou bon de droit)",
      "share_type": {
        "id": 4,
        "name": "Rights (Droits)"
      },
      "types": [
        {
          "start_date": "1946-05-13",
          "end_date": "1946-06-07",
          "id": 501,
          "name": "Droit de souscription",
          "stock_group": "R"
        }
      ],
      "start_date": "1946-05-13",
      "end_date": "1946-06-07",
      "prices_from": "1946-05-13",
      "prices_to": "1946-05-31",
      "is_mainstock": 0,
      "prices_count": 3
    },
    "102864": {
      "id": 102864,
      "name": "Act. Pied-Selle (Usines du). 2 act. A nouv. mai 1946 émises à 530 fr. pour 1 bon",
      "share_type": {
        "id": 4,
        "name": "Rights (Droits)"
      },
      "types": [
        {
          "start_date": "1947-05-14",
          "end_date": "3999-12-31",
          "id": 501,
          "name": "Droit de souscription",
          "stock_group": "R"
        }
      ],
      "start_date": "1947-05-14",
      "end_date": "3999-12-31",
      "prices_from": null,
      "prices_to": null,
      "is_mainstock": 0,
      "prices_count": 0
    },
    "104135": {
      "id": 104135,
      "name": "Pied-Selle (Usines du), act. A 500 fr., t.p. (nos 20001 a 60000) (ex-c. 15)",
      "share_type": {
        "id": 2,
        "name": "Bond (Obligation)"
      },
      "types": [
        {
          "start_date": "1948-01-28",
          "end_date": "1948-06-28",
          "id": 33,
          "name": "Action A",
          "stock_group": "S"
        }
      ],
      "start_date": "1948-01-28",
      "end_date": "1948-06-28",
      "prices_from": "1948-01-31",
      "prices_to": "1948-06-15",
      "is_mainstock": 0,
      "prices_count": 10
    }
  }
}