{
  "id": 5286,
  "names": [
    "Simmons (La Compagnie Continentale)"
  ],
  "name": "Simmons (La Compagnie Continentale)",
  "balance_sheets": [],
  "balance_sheets_stats": {
    "start_date": null,
    "end_date": null
  },
  "locations_stats": {
    "start_date": null,
    "end_date": null
  },
  "locations": {},
  "persons": [],
  "persons_stats": {
    "persons_count": 0,
    "start_date": null,
    "end_date": null
  },
  "yearbooks_ocrs": [],
  "juridical_status": [],
  "equity_capital": [],
  "profit_dividends": [],
  "public_status": false,
  "stock_exchanges": {
    "1": {
      "id": 1,
      "name": "Paris (Official List)",
      "listings_stats": {
        "start_date": "1962-01-02"
      },
      "spot_prices_stats": {
        "start_date": "1962-01-02",
        "end_date": "1971-12-15"
      }
    }
  },
  "securities": {
    "16687": {
      "id": 16687,
      "name": "Simmons (La Cie Continentale), act. (ex-dr., )",
      "share_type": {
        "id": 1,
        "name": "Stock (Action)"
      },
      "types": [
        {
          "start_date": "1962-01-02",
          "end_date": "3999-12-31",
          "id": 18,
          "name": "Action",
          "stock_group": "S"
        }
      ],
      "start_date": "1962-01-02",
      "end_date": "3999-12-31",
      "prices_from": "1962-01-02",
      "prices_to": "1971-12-15",
      "is_mainstock": 0,
      "prices_count": 244
    },
    "17094": {
      "id": 17094,
      "name": "Simmons (Continentale) 4% 1946 1947-71",
      "share_type": {
        "id": 2,
        "name": "Bond (Obligation)"
      },
      "types": [
        {
          "start_date": "1962-01-02",
          "end_date": "3999-12-31",
          "id": 1001,
          "name": "Obligation ordinaire ou classique",
          "stock_group": "B"
        }
      ],
      "start_date": "1962-01-02",
      "end_date": "3999-12-31",
      "prices_from": "1962-01-02",
      "prices_to": "1962-12-17",
      "is_mainstock": 0,
      "prices_count": 24
    },
    "19011": {
      "id": 19011,
      "name": "Simmons (La continentale), Promesses (Jce 1/12/67)",
      "share_type": {
        "id": 1,
        "name": "Stock (Action)"
      },
      "types": [
        {
          "start_date": "1967-10-16",
          "end_date": "1970-01-12",
          "id": 27,
          "name": "Promesse d'action",
          "stock_group": "S"
        }
      ],
      "start_date": "1967-10-16",
      "end_date": "1968-04-16",
      "prices_from": "1967-10-16",
      "prices_to": "1969-12-31",
      "is_mainstock": 0,
      "prices_count": 38
    },
    "106412": {
      "id": 106412,
      "name": "Simmons (La continentale), Act. (n 204001 a 285600) (c. 18 barre att.).",
      "share_type": {
        "id": 1,
        "name": "Stock (Action)"
      },
      "types": [
        {
          "start_date": "1968-04-30",
          "end_date": "1969-12-31",
          "id": 18,
          "name": "Action",
          "stock_group": "S"
        },
        {
          "start_date": "1970-01-12",
          "end_date": "3999-12-31",
          "id": 27,
          "name": "Promesse d'action",
          "stock_group": "S"
        }
      ],
      "start_date": "1968-04-30",
      "end_date": "1969-12-31",
      "prices_from": "1968-04-30",
      "prices_to": "1968-12-31",
      "is_mainstock": 0,
      "prices_count": 17
    }
  }
}