{
  "id": 11688,
  "names": [
    "Union metallurgique"
  ],
  "name": "Union metallurgique",
  "balance_sheets": [],
  "balance_sheets_stats": {
    "start_date": null,
    "end_date": null
  },
  "locations_stats": {
    "start_date": null,
    "end_date": null
  },
  "locations": {},
  "persons": [],
  "persons_stats": {
    "persons_count": 0,
    "start_date": null,
    "end_date": null
  },
  "yearbooks_ocrs": [],
  "juridical_status": [],
  "equity_capital": [],
  "profit_dividends": [],
  "public_status": false,
  "stock_exchanges": {
    "2": {
      "id": 2,
      "name": "Paris OTC (Coulisse)",
      "listings_stats": {
        "start_date": "1873-12-18"
      },
      "spot_prices_stats": {
        "start_date": "1874-01-15",
        "end_date": "1880-11-30"
      }
    }
  },
  "securities": {
    "104213": {
      "id": 104213,
      "name": "Obl. Union metallurgique",
      "share_type": {
        "id": 2,
        "name": "Bond (Obligation)"
      },
      "types": [
        {
          "start_date": "1873-12-18",
          "end_date": "1875-09-30",
          "id": 1001,
          "name": "Obligation ordinaire ou classique",
          "stock_group": "B"
        }
      ],
      "start_date": "1873-12-18",
      "end_date": "1875-09-30",
      "prices_from": "1874-01-15",
      "prices_to": "1880-11-30",
      "is_mainstock": 0,
      "prices_count": 143
    }
  }
}