{
  "id": 10969,
  "names": [
    "ETABLISSEMENTS MONTREUIL",
    "Etablissements Montreuil",
    "ÉTABLISSEMENTS MONTREUIL"
  ],
  "name": "ETABLISSEMENTS MONTREUIL",
  "balance_sheets": [
    {
      "start_date": "1927-12-31",
      "source": "Annuaire Desfossés 1929",
      "page": "1049"
    },
    {
      "start_date": "1929-06-30",
      "source": "Annuaire Desfossés 1931",
      "page": "1074"
    },
    {
      "start_date": "1932-12-30",
      "source": "Annuaire Desfossés 1933",
      "page": "1142"
    },
    {
      "start_date": "1935-06-30",
      "source": "Annuaire Desfossés 1940",
      "page": null
    },
    {
      "start_date": "1936-06-30",
      "source": "Annuaire Desfossés 1940",
      "page": null
    },
    {
      "start_date": "1937-06-30",
      "source": "Annuaire Desfossés 1945",
      "page": "1569"
    },
    {
      "start_date": "1942-06-30",
      "source": "Annuaire Desfossés 1945",
      "page": "1569"
    },
    {
      "start_date": "1943-06-30",
      "source": "Annuaire Desfossés 1945",
      "page": "1569"
    },
    {
      "start_date": "1944-06-30",
      "source": "Annuaire Desfossés 1948",
      "page": "1834"
    },
    {
      "start_date": "1945-06-30",
      "source": "Annuaire Desfossés 1948",
      "page": "1834"
    },
    {
      "start_date": "1946-06-30",
      "source": "Annuaire Desfossés 1948",
      "page": "1834"
    },
    {
      "start_date": "1947-06-30",
      "source": "Annuaire Desfossés 1948",
      "page": "1834"
    }
  ],
  "balance_sheets_stats": {
    "start_date": "1927-12-31",
    "end_date": "1947-06-30"
  },
  "locations_stats": {
    "start_date": "1930-01-01",
    "end_date": "1953-12-31"
  },
  "locations": {
    "Siège social": [
      {
        "location_types_id": 1,
        "location_type": "Siège social",
        "address": "Rue de la grange-aux-belles, 63 bis",
        "city": "Paris",
        "district": "Paris",
        "country": "France",
        "in_yearbook_from": 1930,
        "in_yearbook_to": 1930
      },
      {
        "location_types_id": 1,
        "location_type": "Siège social",
        "address": "Rue de la grange-aux-belles, 3 b",
        "city": "Paris",
        "district": "Paris",
        "country": "France",
        "in_yearbook_from": 1933,
        "in_yearbook_to": 1933
      },
      {
        "location_types_id": 1,
        "location_type": "Siège social",
        "address": "Rue de la grange-aux-belles, 63 bis",
        "city": "Paris",
        "district": "Paris",
        "country": "France",
        "in_yearbook_from": 1940,
        "in_yearbook_to": 1940
      },
      {
        "location_types_id": 1,
        "location_type": "Siège social",
        "address": "Avenue claude-vellefaux, 48",
        "city": "Paris",
        "district": "Paris",
        "country": "France",
        "in_yearbook_from": 1945,
        "in_yearbook_to": 1945
      },
      {
        "location_types_id": 1,
        "location_type": "Siège social",
        "address": "Place de l'eglise, 50",
        "city": "Pantin",
        "district": "Paris",
        "country": "France",
        "in_yearbook_from": 1948,
        "in_yearbook_to": 1953
      }
    ]
  },
  "persons": [
    {
      "persons_count": 5,
      "yearbook": "Annuaire Desfossés 1933",
      "source": "annuaire_df_1933",
      "page": "1142"
    },
    {
      "persons_count": 4,
      "yearbook": "Annuaire Desfossés 1940",
      "source": "annuaire_df_1940",
      "page": null
    },
    {
      "persons_count": 6,
      "yearbook": "Annuaire Desfossés 1945",
      "source": "annuaire_df_1945",
      "page": "1569"
    },
    {
      "persons_count": 1,
      "yearbook": "Annuaire Desfossés 1948",
      "source": "annuaire_df_1948",
      "page": "1834"
    },
    {
      "persons_count": 10,
      "yearbook": "Annuaire Desfossés 1953",
      "source": "annuaire_df_1953",
      "page": "1432"
    }
  ],
  "persons_stats": {
    "persons_count": 22,
    "start_date": "1933-01-01",
    "end_date": "1953-12-31"
  },
  "yearbooks_ocrs": [
    {
      "source": "annuaire_df_1929",
      "yearbook": "Annuaire Desfossés 1929",
      "page": "1049"
    },
    {
      "source": "annuaire_df_1931",
      "yearbook": "Annuaire Desfossés 1931",
      "page": "1074"
    },
    {
      "source": "annuaire_df_1933",
      "yearbook": "Annuaire Desfossés 1933",
      "page": "1142"
    },
    {
      "source": "annuaire_df_1937",
      "yearbook": "Annuaire Desfossés 1937",
      "page": "1295"
    },
    {
      "source": "annuaire_df_1940",
      "yearbook": "Annuaire Desfossés 1940",
      "page": null
    },
    {
      "source": "annuaire_df_1945",
      "yearbook": "Annuaire Desfossés 1945",
      "page": "1569"
    },
    {
      "source": "annuaire_df_1948",
      "yearbook": "Annuaire Desfossés 1948",
      "page": "1834"
    },
    {
      "source": "annuaire_df_1953",
      "yearbook": "Annuaire Desfossés 1953",
      "page": "1432"
    }
  ],
  "juridical_status": [
    {
      "juridical_status": "Société Anonyme (Libre)",
      "start_date": "1925-10-01",
      "end_date": "1930-03-01",
      "comments": "Société anonyme française, constituée le 1er octobre 1925, pour une duree de 99 ans. La Société a obtenu la liquidation judiciaire en mars 1930. Ses créanciers ont accepté en juin suivant un concordat sur la base d’un règlement de 60 % des créances en sept années.",
      "source": "annuaire_df_1945"
    },
    {
      "juridical_status": "Mise en liquidation",
      "start_date": "1930-03-02",
      "end_date": "3999-12-31",
      "comments": "Société anonyme française, constituée le 1er octobre 1925, pour une duree de. 99 ans. La Société a obtenu la liquidation judiciaire en mars 1930. Ses créanciers ont accepté en juin suivant un concordat sur la base d’un règlement de 60 % des créances en sept années.",
      "source": "annuaire_df_1945"
    }
  ],
  "equity_capital": [
    {
      "amount": "1.000.000",
      "currency": "Franc",
      "infodate": "1925-10-01",
      "source": "annuaire_df_1933",
      "comments": " A l’origine, 1 million de francs, en 2.000 actions de 500 francs.dont 400 d’apports"
    },
    {
      "amount": "2.000.000",
      "currency": "Franc",
      "infodate": "1928-02-01",
      "source": "annuaire_df_1933",
      "comments": "2 millions de francs, divisé en 2.0.000 actions de 100 A l’origine, 1 million de francs, en 2.000 actions de 500 francs.dont 400 d’apports,port^ en février 1928 à 2 millions par la création de 2.000 actions nouvelles souscrites en pn janvier 1929 à 3 millions de francs par création de 2.000 actions de 500 fr. espèces,e J nouvelle pour 2 anciennes; coupon n° 4) ; ramené en avril 1932 à émÆ» francs par la réduction du nominal des actions de 500 à 100 francs, puis en mai 1932 à 2 millions par la création de 14.000 actions de 100 francs."
    },
    {
      "amount": "3.000.000",
      "currency": "Franc",
      "infodate": "1929-01-01",
      "source": "annuaire_df_1933",
      "comments": " janvier 1929 à 3 millions de francs par création de 2.000 actions de 500 fr. espèces,e J nouvelle pour 2 anciennes; coupon n° 4) ;"
    },
    {
      "amount": "600.000",
      "currency": "Franc",
      "infodate": "1932-04-01",
      "source": "annuaire_df_1933",
      "comments": "2 millions de francs, divisé en 2.0.000 actions de 100 A l’origine, 1 million de francs, en 2.000 actions de 500 francs.dont 400 d’apports,port^ en février 1928 à 2 millions par la création de 2.000 actions nouvelles souscrites en pn janvier 1929 à 3 millions de francs par création de 2.000 actions de 500 fr. espèces,e J nouvelle pour 2 anciennes; coupon n° 4) ; ramené en avril 1932 à émÆ» francs par la réduction du nominal des actions de 500 à 100 francs, puis en mai 1932 à 2 millions par la création de 14.000 actions de 100 francs."
    },
    {
      "amount": "2.000.000",
      "currency": "Franc",
      "infodate": "1932-05-01",
      "source": "annuaire_df_1933",
      "comments": " en mai 1932 à 2 millions par la création de 14.000 actions de 100 francs."
    },
    {
      "amount": "5.000.000",
      "currency": "Franc",
      "infodate": "1943-01-01",
      "source": "annuaire_df_1945",
      "comments": "10 millions de francs, divisé en 100.000 actions de 100 francs. A l’origine, 1 million de francs, en 2.000 actions de 500 francs dont 400 d’apports., porté en février 1928 à 2 millions par la création, de • 2.000 actions nouvelles souscrites en espèces, en janvier 1929 à 3 millions de francs par création de 2.000 actions de 500 fr. émises à 600 (1 nouvelle pour 2 anciennes; coupon n° 4); ramené en avril 1932 à 600.000 francs par la réduction du nominal des actions de 500 à 100 francs, puis porté en mai 1932 à 2 millions par ila création de 14.000 actions de 100 francs. Poi’té en 1943 à 5 millions par la création de 30.000 actions de .100 francs émises à 125 fr. ; porté en 1944 à 10 millions par la création de 50.000 actions de 100 fr., émises au pair (une* nouvelle pour une ancienne)."
    },
    {
      "amount": "10.000.000",
      "currency": "Franc",
      "infodate": "1944-01-01",
      "source": "annuaire_df_1945",
      "comments": "10 millions de francs, divisé en 100.000 actions de 100 francs. A l’origine, 1 million de francs, en 2.000 actions de 500 francs dont 400 d’apports., porté en février 1928 à 2 millions par la création, de • 2.000 actions nouvelles souscrites en espèces, en janvier 1929 à 3 millions de francs par création de 2.000 actions de 500 fr. émises à 600 (1 nouvelle pour 2 anciennes; coupon n° 4); ramené en avril 1932 à 600.000 francs par la réduction du nominal des actions de 500 à 100 francs, puis porté en mai 1932 à 2 millions par ila création de 14.000 actions de 100 francs. Poi’té en 1943 à 5 millions par la création de 30.000 actions de .100 francs émises à 125 fr. ; porté en 1944 à 10 millions par la création de 50.000 actions de 100 fr., émises au pair (une* nouvelle pour une ancienne)."
    }
  ],
  "profit_dividends": [
    {
      "first_date": "1935-06-30",
      "last_date": "1947-06-30",
      "obs_count": 26
    }
  ],
  "public_status": false
}