{
  "id": 804,
  "names": [
    "Galvanisation du Fer"
  ],
  "name": "Galvanisation du Fer",
  "balance_sheets": [],
  "balance_sheets_stats": {
    "start_date": null,
    "end_date": null
  },
  "locations_stats": {
    "start_date": "1839-01-01",
    "end_date": "1839-12-31"
  },
  "locations": {
    "Siège social": [
      {
        "location_types_id": 1,
        "location_type": "Siège social",
        "address": "Rue des trois bornes, 14",
        "city": "Paris",
        "district": "Paris",
        "country": "France",
        "in_yearbook_from": 1839,
        "in_yearbook_to": 1839
      }
    ]
  },
  "persons": [],
  "persons_stats": {
    "persons_count": 0,
    "start_date": null,
    "end_date": null
  },
  "yearbooks_ocrs": [],
  "juridical_status": [
    {
      "juridical_status": "Société en Commandite par actions",
      "start_date": "1838-02-01",
      "end_date": "1845-12-13",
      "comments": "Société fondée en février 1838.",
      "source": "Bresson 1839"
    }
  ],
  "equity_capital": [],
  "profit_dividends": [],
  "public_status": false,
  "stock_exchanges": {
    "1": {
      "id": 1,
      "name": "Paris (Official List)",
      "listings_stats": {
        "start_date": "1844-12-28"
      },
      "spot_prices_stats": {
        "start_date": "1844-12-28",
        "end_date": "1845-07-15"
      }
    }
  },
  "securities": {
    "410": {
      "id": 410,
      "name": "Fer Galvanisé",
      "share_type": {
        "id": 6,
        "name": "UNKNOWN"
      },
      "types": [
        {
          "start_date": "1844-12-28",
          "end_date": "3999-12-31",
          "id": 1,
          "name": "UNKNOWN",
          "stock_group": "U"
        }
      ],
      "start_date": "1844-12-28",
      "end_date": "3999-12-31",
      "prices_from": "1844-12-28",
      "prices_to": "1845-07-15",
      "is_mainstock": 0,
      "prices_count": 3
    }
  }
}