{
  "id": 12177,
  "names": [
    "Distillerie de Croisset-Rouen"
  ],
  "name": "Distillerie de Croisset-Rouen",
  "balance_sheets": [],
  "balance_sheets_stats": {
    "start_date": null,
    "end_date": null
  },
  "locations_stats": {
    "start_date": null,
    "end_date": null
  },
  "locations": {},
  "persons": [],
  "persons_stats": {
    "persons_count": 0,
    "start_date": null,
    "end_date": null
  },
  "yearbooks_ocrs": [],
  "juridical_status": [],
  "equity_capital": [],
  "profit_dividends": [],
  "public_status": false,
  "stock_exchanges": {
    "2": {
      "id": 2,
      "name": "Paris OTC (Coulisse)",
      "listings_stats": {
        "start_date": "1885-01-15"
      },
      "spot_prices_stats": {
        "start_date": "1885-01-15",
        "end_date": "1892-04-30"
      }
    }
  },
  "securities": {
    "104903": {
      "id": 104903,
      "name": "Dist. Croisset-Rouen, ex-c. 2",
      "share_type": {
        "id": 1,
        "name": "Stock (Action)"
      },
      "types": [
        {
          "start_date": "1885-01-15",
          "end_date": "1892-12-31",
          "id": 18,
          "name": "Action",
          "stock_group": "S"
        }
      ],
      "start_date": "1885-01-15",
      "end_date": "1892-12-31",
      "prices_from": "1885-01-15",
      "prices_to": "1892-04-30",
      "is_mainstock": 1,
      "prices_count": 144
    }
  }
}