{
  "id": 11964,
  "names": [
    "Transports hydrauliques et Vidanges"
  ],
  "name": "Transports hydrauliques et Vidanges",
  "balance_sheets": [],
  "balance_sheets_stats": {
    "start_date": null,
    "end_date": null
  },
  "locations_stats": {
    "start_date": null,
    "end_date": null
  },
  "locations": {},
  "persons": [],
  "persons_stats": {
    "persons_count": 0,
    "start_date": null,
    "end_date": null
  },
  "yearbooks_ocrs": [],
  "juridical_status": [],
  "equity_capital": [],
  "profit_dividends": [],
  "public_status": false,
  "stock_exchanges": {
    "2": {
      "id": 2,
      "name": "Paris OTC (Coulisse)",
      "listings_stats": {
        "start_date": "1879-01-15"
      },
      "spot_prices_stats": {
        "start_date": "1879-07-15",
        "end_date": "1880-02-14"
      }
    }
  },
  "securities": {
    "104370": {
      "id": 104370,
      "name": "Tr. Hyd. Et Vidanges jn 79",
      "share_type": {
        "id": 2,
        "name": "Bond (Obligation)"
      },
      "types": [
        {
          "start_date": "1879-01-15",
          "end_date": "1880-12-31",
          "id": 18,
          "name": "Action",
          "stock_group": "S"
        }
      ],
      "start_date": "1879-01-15",
      "end_date": "1880-12-31",
      "prices_from": "1879-07-15",
      "prices_to": "1880-02-14",
      "is_mainstock": 1,
      "prices_count": 15
    },
    "104371": {
      "id": 104371,
      "name": "Tr. Hyd. Et Vid. aout. 79",
      "share_type": {
        "id": 2,
        "name": "Bond (Obligation)"
      },
      "types": [
        {
          "start_date": "1879-01-15",
          "end_date": "1880-12-31",
          "id": 1001,
          "name": "Obligation ordinaire ou classique",
          "stock_group": "B"
        }
      ],
      "start_date": "1879-01-15",
      "end_date": "1880-12-31",
      "prices_from": "1879-07-15",
      "prices_to": "1880-01-31",
      "is_mainstock": 0,
      "prices_count": 14
    }
  }
}