{
  "id": 10892,
  "names": [
    "TRÉFILERIES, LAMINOIRS ET FONDERIES DE CHAUNY",
    "TRÉFILERIES, LAMINOIRS ET FONDERIES DE CHAUNY (En liquidation)",
    "Tréfileries, laminoirs et fonderies de Chauny"
  ],
  "name": "TRÉFILERIES, LAMINOIRS ET FONDERIES DE CHAUNY",
  "balance_sheets": [
    {
      "start_date": "1927-12-31",
      "source": "Annuaire Desfossés 1929",
      "page": "709"
    },
    {
      "start_date": "1929-12-31",
      "source": "Annuaire Desfossés 1931",
      "page": "714"
    },
    {
      "start_date": "1930-12-31",
      "source": "Annuaire Desfossés 1933",
      "page": "778"
    }
  ],
  "balance_sheets_stats": {
    "start_date": "1927-12-31",
    "end_date": "1930-12-31"
  },
  "locations_stats": {
    "start_date": "1928-01-01",
    "end_date": "1933-12-31"
  },
  "locations": {
    "Siège social": [
      {
        "location_types_id": 1,
        "location_type": "Siège social",
        "address": "Rue duperré, 28",
        "city": "Paris",
        "district": "Paris",
        "country": "France",
        "in_yearbook_from": 1928,
        "in_yearbook_to": 1933
      }
    ],
    "Siège de liquidation": [
      {
        "location_types_id": 17,
        "location_type": "Siège de liquidation",
        "address": "Rue monsieur-le-prince, 48",
        "city": "Paris",
        "district": "Paris",
        "country": "France",
        "in_yearbook_from": 1933,
        "in_yearbook_to": 1933
      }
    ]
  },
  "persons": [
    {
      "persons_count": 5,
      "yearbook": "Annuaire Desfossés 1933",
      "source": "annuaire_df_1933",
      "page": "778"
    }
  ],
  "persons_stats": {
    "persons_count": 5,
    "start_date": "1933-01-01",
    "end_date": "1933-12-31"
  },
  "yearbooks_ocrs": [
    {
      "source": "annuaire_df_1929",
      "yearbook": "Annuaire Desfossés 1929",
      "page": "709"
    },
    {
      "source": "annuaire_df_1931",
      "yearbook": "Annuaire Desfossés 1931",
      "page": "714"
    },
    {
      "source": "annuaire_df_1933",
      "yearbook": "Annuaire Desfossés 1933",
      "page": "778"
    }
  ],
  "juridical_status": [
    {
      "juridical_status": "Société Anonyme (Libre)",
      "start_date": "1922-04-20",
      "end_date": "1931-10-31",
      "comments": "Société anonyme française, constituée le 20 avril 1922, pour une durée de 95 aï. Cette Société a été admise au bénéfice de la liquidation judiciaire en novembre fMi.",
      "source": "annuaire_df_1933"
    },
    {
      "juridical_status": "Mise en liquidation",
      "start_date": "1931-11-01",
      "end_date": "3999-12-31",
      "comments": "Cette Société a été admise au bénéfice de la liquidation judiciaire en novembre 1931. Liquidateur:  M. Omnez.48, rue Monsieur-le-Prince, Paris.",
      "source": "annuaire_df_1933"
    }
  ],
  "equity_capital": [
    {
      "amount": "1.500.000",
      "currency": "Franc",
      "infodate": "1922-04-20",
      "source": "annuaire_df_1933",
      "comments": "10.000.00U rraucs, divisé en 2U.UU0 actions de suu iraura 18.000 actions A et 2.000 actions B. A l'origine 1.500.000 francs en 3.000 actions don 2 806 attribuées en rémunération des apports, porté en septembre 1925 a î lllUJri! par l’incorporation au capital de 500.000 francs prélevé, sur les réserves, puis aussi» à 3 millions, en avril 1926 a 6 millions, et enfin en mai 1928 au chiffre actuel."
    },
    {
      "amount": "3.000.000",
      "currency": "Franc",
      "infodate": "1925-09-01",
      "source": "annuaire_df_1933",
      "comments": "10.000.00U rraucs, divisé en 2U.UU0 actions de suu iraura 18.000 actions A et 2.000 actions B. A l'origine 1.500.000 francs en 3.000 actions don 2 806 attribuées en rémunération des apports, porté en septembre 1925 a î lllUJri! par l’incorporation au capital de 500.000 francs prélevé, sur les réserves, puis aussi» à 3 millions, en avril 1926 a 6 millions, et enfin en mai 1928 au chiffre actuel."
    },
    {
      "amount": "2.000.000",
      "currency": "Franc",
      "infodate": "1925-09-01",
      "source": "annuaire_df_1933",
      "comments": "10.000.00U rraucs, divisé en 2U.UU0 actions de suu iraura 18.000 actions A et 2.000 actions B. A l'origine 1.500.000 francs en 3.000 actions don 2 806 attribuées en rémunération des apports, porté en septembre 1925 a î lllUJri! par l’incorporation au capital de 500.000 francs prélevé, sur les réserves, puis aussi» à 3 millions, en avril 1926 a 6 millions, et enfin en mai 1928 au chiffre actuel."
    },
    {
      "amount": "6.000.000",
      "currency": "Franc",
      "infodate": "1926-04-01",
      "source": "annuaire_df_1933",
      "comments": "10.000.00U rraucs, divisé en 2U.UU0 actions de suu iraura 18.000 actions A et 2.000 actions B. A l'origine 1.500.000 francs en 3.000 actions don 2 806 attribuées en rémunération des apports, porté en septembre 1925 a î lllUJri! par l’incorporation au capital de 500.000 francs prélevé, sur les réserves, puis aussi» à 3 millions, en avril 1926 a 6 millions, et enfin en mai 1928 au chiffre actuel."
    },
    {
      "amount": "10.000.000",
      "currency": "Franc",
      "infodate": "1928-05-21",
      "source": "annuaire_df_1933",
      "comments": "10.000.00U rraucs, divisé en 2U.UU0 actions de suu iraura 18.000 actions A et 2.000 actions B. A l'origine 1.500.000 francs en 3.000 actions don 2 806 attribuées en rémunération des apports, porté en septembre 1925 a î lllUJri! par l’incorporation au capital de 500.000 francs prélevé, sur les réserves, puis aussi» à 3 millions, en avril 1926 a 6 millions, et enfin en mai 1928 au chiffre actuel."
    }
  ],
  "profit_dividends": [
    {
      "first_date": "1927-12-31",
      "last_date": "1931-12-31",
      "obs_count": 27
    }
  ],
  "public_status": false
}