{
  "id": 3616,
  "names": [
    "CREDIT ELECTRIQUE ET GAZIER (CREG)",
    "Crédit Elécrique et Gazier"
  ],
  "name": "Crédit Elécrique et Gazier",
  "balance_sheets": [
    {
      "start_date": "1950-12-31",
      "source": "Annuaire Desfossés 1953",
      "page": "2253"
    },
    {
      "start_date": "1951-12-31",
      "source": "Annuaire Desfossés 1953",
      "page": "2253"
    }
  ],
  "balance_sheets_stats": {
    "start_date": "1950-12-31",
    "end_date": "1951-12-31"
  },
  "locations_stats": {
    "start_date": "1953-01-01",
    "end_date": "1953-12-31"
  },
  "locations": {
    "Siège social": [
      {
        "location_types_id": 1,
        "location_type": "Siège social",
        "address": "Avenue kléber, 40",
        "city": "Paris",
        "district": "Paris",
        "country": "France",
        "in_yearbook_from": 1953,
        "in_yearbook_to": 1953
      }
    ]
  },
  "persons": [
    {
      "persons_count": 6,
      "yearbook": "Annuaire Desfossés 1953",
      "source": "annuaire_df_1953",
      "page": "2253"
    }
  ],
  "persons_stats": {
    "persons_count": 6,
    "start_date": "1953-01-01",
    "end_date": "1953-12-31"
  },
  "yearbooks_ocrs": [
    {
      "source": "annuaire_df_1953",
      "yearbook": "Annuaire Desfossés 1953",
      "page": "2253"
    }
  ],
  "juridical_status": [
    {
      "juridical_status": "Société Anonyme (Libre)",
      "start_date": "1927-06-10",
      "end_date": "2026-06-10",
      "comments": "Société anonyme française, constituée le 10 juin 1927 pour une durée de 99 ans.",
      "source": "annuaire_df_1953"
    }
  ],
  "equity_capital": [
    {
      "amount": "40.000.000",
      "currency": "Franc",
      "infodate": "1953-01-01",
      "source": "annuaire_df_1953",
      "comments": "40 millions de fr., divisé en 8.000 actions de 5.000 fr."
    }
  ],
  "profit_dividends": [
    {
      "first_date": "1950-12-31",
      "last_date": "1951-12-31",
      "obs_count": 10
    }
  ],
  "public_status": false,
  "stock_exchanges": {
    "1": {
      "id": 1,
      "name": "Paris (Official List)",
      "listings_stats": {
        "start_date": "1968-07-16"
      },
      "spot_prices_stats": {
        "start_date": "1968-07-16",
        "end_date": "1976-12-31"
      }
    }
  },
  "securities": {
    "19927": {
      "id": 19927,
      "name": "CREG (Crédit Electr.et Gazier), act. (c.43 att.)",
      "share_type": {
        "id": 1,
        "name": "Stock (Action)"
      },
      "types": [
        {
          "start_date": "1968-09-06",
          "end_date": "3999-12-31",
          "id": 18,
          "name": "Action",
          "stock_group": "S"
        }
      ],
      "start_date": "1968-07-16",
      "end_date": "3999-12-31",
      "prices_from": "1968-07-16",
      "prices_to": "1976-12-31",
      "is_mainstock": 0,
      "prices_count": 205
    },
    "20793": {
      "id": 20793,
      "name": "C R E G (Crédit Electr et Gazier), act (n°280001 à 420000)",
      "share_type": {
        "id": 1,
        "name": "Stock (Action)"
      },
      "types": [
        {
          "start_date": "1971-11-22",
          "end_date": "3999-12-31",
          "id": 27,
          "name": "Promesse d'action",
          "stock_group": "S"
        }
      ],
      "start_date": "1971-11-22",
      "end_date": "3999-12-31",
      "prices_from": "1971-11-29",
      "prices_to": "1972-05-15",
      "is_mainstock": 0,
      "prices_count": 13
    }
  }
}