{
  "id": 3223,
  "names": [
    "EL BUEN TONO",
    "EL BUEN TONO Compagnie manufacturière de cigarettes sans colle",
    "EL BUEN TONO Compagnie manufacturière de cigarettes sans colle.",
    "El Buen Tono",
    "El Buen Tono. S. A. Compania manufacturera del cigarro sin pegamento (Le Bon Ton, Compagnie manufacturière de cigarettes sans colle. Société anonyme)"
  ],
  "name": "EL BUEN TONO Compagnie manufacturière de cigarettes sans colle",
  "balance_sheets": [
    {
      "start_date": "1910-12-31",
      "source": "Annuaire Desfossés 1912",
      "page": "1027"
    },
    {
      "start_date": "1912-12-31",
      "source": "Annuaire Desfossés 1914",
      "page": "1050"
    },
    {
      "start_date": "1915-12-31",
      "source": "Annuaire Desfossés 1917",
      "page": "999"
    },
    {
      "start_date": "1919-12-31",
      "source": "Annuaire Desfossés 1920",
      "page": "1081"
    },
    {
      "start_date": "1921-12-31",
      "source": "Annuaire Desfossés 1923",
      "page": "1221"
    },
    {
      "start_date": "1923-12-31",
      "source": "Annuaire Desfossés 1925",
      "page": "1532"
    },
    {
      "start_date": "1925-12-31",
      "source": "Annuaire Desfossés 1927",
      "page": "1320"
    },
    {
      "start_date": "1927-12-31",
      "source": "Annuaire Desfossés 1929",
      "page": "1422"
    },
    {
      "start_date": "1929-12-31",
      "source": "Annuaire Desfossés 1931",
      "page": "1472"
    },
    {
      "start_date": "1931-01-03",
      "source": "Annuaire Desfossés 1933",
      "page": "1520"
    },
    {
      "start_date": "1932-12-31",
      "source": "Annuaire Desfossés 1936",
      "page": null
    },
    {
      "start_date": "1933-12-31",
      "source": "Annuaire Desfossés 1937",
      "page": "1791"
    },
    {
      "start_date": "1934-12-31",
      "source": "Annuaire Desfossés 1937",
      "page": "1791"
    },
    {
      "start_date": "1935-12-31",
      "source": "Annuaire Desfossés 1945",
      "page": "1954"
    },
    {
      "start_date": "1936-12-31",
      "source": "Annuaire Desfossés 1945",
      "page": "1954"
    },
    {
      "start_date": "1937-12-31",
      "source": "Annuaire Desfossés 1945",
      "page": "1954"
    },
    {
      "start_date": "1938-12-31",
      "source": "Annuaire Desfossés 1945",
      "page": "1954"
    },
    {
      "start_date": "1944-12-31",
      "source": "Annuaire Desfossés 1948",
      "page": "2269"
    },
    {
      "start_date": "1945-12-31",
      "source": "Annuaire Desfossés 1948",
      "page": "2269"
    },
    {
      "start_date": "1946-12-31",
      "source": "Annuaire Desfossés 1948",
      "page": "2269"
    },
    {
      "start_date": "1947-12-31",
      "source": "Annuaire Desfossés 1948",
      "page": "2269"
    }
  ],
  "balance_sheets_stats": {
    "start_date": "1910-12-31",
    "end_date": "1947-12-31"
  },
  "locations_stats": {
    "start_date": "1908-01-01",
    "end_date": "1948-12-31"
  },
  "locations": {
    "Siège social": [
      {
        "location_types_id": 1,
        "location_type": "Siège social",
        "address": null,
        "city": "Mexico",
        "district": null,
        "country": "Mexique",
        "in_yearbook_from": 1908,
        "in_yearbook_to": 1912
      },
      {
        "location_types_id": 1,
        "location_type": "Siège social",
        "address": "Plaza san juan, 218",
        "city": "Mexico",
        "district": null,
        "country": "Mexique",
        "in_yearbook_from": 1914,
        "in_yearbook_to": 1933
      },
      {
        "location_types_id": 1,
        "location_type": "Siège social",
        "address": "Plaza san juan",
        "city": "Mexico",
        "district": null,
        "country": "Mexique",
        "in_yearbook_from": 1937,
        "in_yearbook_to": 1948
      }
    ],
    "Usines": [
      {
        "location_types_id": 3,
        "location_type": "Usines",
        "address": null,
        "city": "Celaya",
        "district": null,
        "country": "Mexique",
        "in_yearbook_from": 1940,
        "in_yearbook_to": 1940
      },
      {
        "location_types_id": 3,
        "location_type": "Usines",
        "address": null,
        "city": "Mexico",
        "district": null,
        "country": "Mexique",
        "in_yearbook_from": 1940,
        "in_yearbook_to": 1940
      },
      {
        "location_types_id": 3,
        "location_type": "Usines",
        "address": null,
        "city": "Mexico",
        "district": null,
        "country": "Mexique",
        "in_yearbook_from": 1945,
        "in_yearbook_to": 1945
      }
    ],
    "Agences / Succursales": [
      {
        "location_types_id": 4,
        "location_type": "Agences / Succursales",
        "address": "Rue de paradis, 21 bis",
        "city": "Paris",
        "district": "Paris",
        "country": "France",
        "in_yearbook_from": 1945,
        "in_yearbook_to": 1945
      }
    ],
    "Comité de Direction / Délégation / Obligataires": [
      {
        "location_types_id": 13,
        "location_type": "Comité de Direction / Délégation / Obligataires",
        "address": "Avenue de l'opéra, 41",
        "city": "Paris",
        "district": "Paris",
        "country": "France",
        "in_yearbook_from": 1928,
        "in_yearbook_to": 1933
      }
    ],
    "Représentant / Correspondant": [
      {
        "location_types_id": 16,
        "location_type": "Représentant / Correspondant",
        "address": "Rue de paradis, 21 bis",
        "city": "Paris",
        "district": "Paris",
        "country": "France",
        "in_yearbook_from": 1940,
        "in_yearbook_to": 1940
      },
      {
        "location_types_id": 16,
        "location_type": "Représentant / Correspondant",
        "address": "Boulevard haussmann, 23",
        "city": "Paris",
        "district": "Paris",
        "country": "France",
        "in_yearbook_from": 1948,
        "in_yearbook_to": 1948
      }
    ]
  },
  "persons": [
    {
      "persons_count": 12,
      "yearbook": "Annuaire de la Compagnie des Agents de Change 1908",
      "source": "annuaire_cac_1908",
      "page": "2008"
    },
    {
      "persons_count": 9,
      "yearbook": "Annuaire Desfossés 1912",
      "source": "annuaire_df_1912",
      "page": "1027"
    },
    {
      "persons_count": 2,
      "yearbook": "Annuaire Desfossés 1917",
      "source": "annuaire_df_1917",
      "page": "999"
    },
    {
      "persons_count": 7,
      "yearbook": "Annuaire Desfossés 1923",
      "source": "annuaire_df_1923",
      "page": "1221"
    },
    {
      "persons_count": 11,
      "yearbook": "Annuaire Desfossés 1927",
      "source": "annuaire_df_1927",
      "page": "1320"
    },
    {
      "persons_count": 7,
      "yearbook": "Annuaire Desfossés 1933",
      "source": "annuaire_df_1933",
      "page": "1520"
    },
    {
      "persons_count": 1,
      "yearbook": "Annuaire Desfossés 1940",
      "source": "annuaire_df_1940",
      "page": null
    },
    {
      "persons_count": 9,
      "yearbook": "Annuaire Desfossés 1945",
      "source": "annuaire_df_1945",
      "page": "1954"
    },
    {
      "persons_count": 12,
      "yearbook": "Annuaire Desfossés 1948",
      "source": "annuaire_df_1948",
      "page": "2269"
    }
  ],
  "persons_stats": {
    "persons_count": 58,
    "start_date": "1908-01-01",
    "end_date": "1948-12-31"
  },
  "yearbooks_ocrs": [
    {
      "source": "annuaire_cac_1908",
      "yearbook": "Annuaire de la Compagnie des Agents de Change 1908",
      "page": "2008"
    },
    {
      "source": "annuaire_df_1912",
      "yearbook": "Annuaire Desfossés 1912",
      "page": "1027"
    },
    {
      "source": "annuaire_df_1914",
      "yearbook": "Annuaire Desfossés 1914",
      "page": "1050"
    },
    {
      "source": "annuaire_df_1917",
      "yearbook": "Annuaire Desfossés 1917",
      "page": "999"
    },
    {
      "source": "annuaire_df_1920",
      "yearbook": "Annuaire Desfossés 1920",
      "page": "1081"
    },
    {
      "source": "annuaire_df_1923",
      "yearbook": "Annuaire Desfossés 1923",
      "page": "1221"
    },
    {
      "source": "annuaire_df_1925",
      "yearbook": "Annuaire Desfossés 1925",
      "page": "1532"
    },
    {
      "source": "annuaire_df_1927",
      "yearbook": "Annuaire Desfossés 1927",
      "page": "1320"
    },
    {
      "source": "annuaire_df_1929",
      "yearbook": "Annuaire Desfossés 1929",
      "page": "1422"
    },
    {
      "source": "annuaire_df_1931",
      "yearbook": "Annuaire Desfossés 1931",
      "page": "1472"
    },
    {
      "source": "annuaire_df_1933",
      "yearbook": "Annuaire Desfossés 1933",
      "page": "1520"
    },
    {
      "source": "annuaire_df_1937",
      "yearbook": "Annuaire Desfossés 1937",
      "page": "1791"
    },
    {
      "source": "annuaire_df_1940",
      "yearbook": "Annuaire Desfossés 1940",
      "page": null
    },
    {
      "source": "annuaire_df_1945",
      "yearbook": "Annuaire Desfossés 1945",
      "page": "1954"
    },
    {
      "source": "annuaire_df_1948",
      "yearbook": "Annuaire Desfossés 1948",
      "page": "2269"
    }
  ],
  "juridical_status": [
    {
      "juridical_status": "Société anonyme mexicaine",
      "start_date": "1899-02-01",
      "end_date": "1949-02-01",
      "comments": "Société anonyme mexicaine, constituée le 1er février 1899, pour une durée de 50 ans.",
      "source": "annuaire_df_1929"
    }
  ],
  "equity_capital": [
    {
      "amount": "2.500.000",
      "currency": "Peso (ou Dollar ou Piastre)",
      "infodate": "1899-03-01",
      "source": "annuaire_cac_1908",
      "comments": " Fixé primitivement à 2.500.000 piastres et divisé en 25,000  actions de 100 piastres représentant les biens apportés à la'nouvelle Société par l’ancienne."
    },
    {
      "amount": "5.000.000",
      "currency": "Peso (ou Dollar ou Piastre)",
      "infodate": "1903-03-05",
      "source": "annuaire_cac_1908",
      "comments": "Par décisions des assemblées générales des 17 octobre 1901 et 5 mars 1903, le capital social a été porté à 5 millions de piastres au moyen de la création d’ensemble 25,000 actions de 100 piastres dites « actions de préférence » qui ont été émises, au pair do la piastre, en trois fractions successives de novembre 1901 à juillet 1904."
    },
    {
      "amount": "6.500.000",
      "currency": "Peso (ou Dollar ou Piastre)",
      "infodate": "1906-11-15",
      "source": "annuaire_cac_1908",
      "comments": "Suivant décision de l’assemblée générale du 15 novembre 1906, le capital social a été porté à 6.500.000 piastres, au moyen de la création de 15.000 actions ordinaires nouvelles de 100 piastres qui ont été émises en janvier 1907 à 195,50 piastres ou 515 francs."
    },
    {
      "amount": "10.000.000",
      "currency": "Peso (ou Dollar ou Piastre)",
      "infodate": "1913-01-01",
      "source": "annuaire_df_1917",
      "comments": "10.000.000 piastres, divisé en 150:000 actions ordinaires et 50.000 actions de préférence de 50 piastres chacune, libérées et au porteur. A l’origine, 2.500.000\tpiastres, porté de 1901 à 1903 à 5 millions de piastres, en 1906 ci 6 millions 500.000\tpiastres et en 1913 au chiffre actuel. A cette époque les actions anciennes de 100 piastres furent échangées à raison de une, pour deux actions nouvelles de 50 piastres."
    },
    {
      "amount": "10.000.000",
      "currency": "Peso (ou Dollar ou Piastre)",
      "infodate": "1948-01-01",
      "source": "annuaire_df_1948",
      "comments": "10.000.000 de pesos mexicains, divisé en 150.000 actions ordinaires et 50.000 actions de préférence de 50 pesos mexicains chacune, libérées et au porteur. A l'origine, 2.500.000 pesos mexicains, porté de 1901 à 1903 à 5 millions, en 1906 à 6.500.000 pesos mexicains et en 1913 à 10 militons. A cette époque les actions anciennes de 100 pesos mexicains furent échangées à raison de une pour trois actions nouvelles de 50 pesos mexicains."
    }
  ],
  "profit_dividends": [
    {
      "first_date": "1899-12-31",
      "last_date": "1947-12-31",
      "obs_count": 306
    }
  ],
  "public_status": false,
  "stock_exchanges": {
    "1": {
      "id": 1,
      "name": "Paris (Official List)",
      "listings_stats": {
        "start_date": "1904-12-02"
      },
      "spot_prices_stats": {
        "start_date": "1904-12-02",
        "end_date": "1925-08-17"
      }
    },
    "2": {
      "id": 2,
      "name": "Paris OTC (Coulisse)",
      "listings_stats": {
        "start_date": "1899-01-16"
      }
    }
  },
  "securities": {
    "5434": {
      "id": 5434,
      "name": "El Buen Tono, act. ord. 100 P., t.p.",
      "share_type": {
        "id": 1,
        "name": "Stock (Action)"
      },
      "types": [
        {
          "start_date": "1904-12-02",
          "end_date": "3999-12-31",
          "id": 11,
          "name": "Action ordinaire",
          "stock_group": "S"
        }
      ],
      "start_date": "1904-12-02",
      "end_date": "3999-12-31",
      "prices_from": "1904-12-03",
      "prices_to": "1925-08-17",
      "is_mainstock": 1,
      "prices_count": 657
    },
    "5436": {
      "id": 5436,
      "name": "El Buen Tono, actions de préférence 50 P., t.p. (c. 24 att.)",
      "share_type": {
        "id": 1,
        "name": "Stock (Action)"
      },
      "types": [
        {
          "start_date": "1904-12-02",
          "end_date": "3999-12-31",
          "id": 15,
          "name": "Action de préférence",
          "stock_group": "S"
        }
      ],
      "start_date": "1904-12-02",
      "end_date": "3999-12-31",
      "prices_from": "1904-12-02",
      "prices_to": "1925-08-17",
      "is_mainstock": 0,
      "prices_count": 475
    },
    "5437": {
      "id": 5437,
      "name": "El Buen Tono, actions ordin. 50 P., t.p. Gr. Coup",
      "share_type": {
        "id": 1,
        "name": "Stock (Action)"
      },
      "types": [
        {
          "start_date": "1905-04-21",
          "end_date": "3999-12-31",
          "id": 11,
          "name": "Action ordinaire",
          "stock_group": "S"
        }
      ],
      "start_date": "1905-04-21",
      "end_date": "3999-12-31",
      "prices_from": "1905-04-25",
      "prices_to": "1912-09-16",
      "is_mainstock": 0,
      "prices_count": 76
    },
    "5438": {
      "id": 5438,
      "name": "El Buen Tono, actions de préférence 50 P., t.p. (c. 24 att.) Gr. Coup",
      "share_type": {
        "id": 1,
        "name": "Stock (Action)"
      },
      "types": [
        {
          "start_date": "1905-05-30",
          "end_date": "3999-12-31",
          "id": 15,
          "name": "Action de préférence",
          "stock_group": "S"
        }
      ],
      "start_date": "1905-05-30",
      "end_date": "3999-12-31",
      "prices_from": "1905-05-30",
      "prices_to": "1912-08-31",
      "is_mainstock": 0,
      "prices_count": 27
    },
    "6984": {
      "id": 6984,
      "name": "El Buen Tono, actions de préférence 50 P., t.p. (c. 30 att.) (jouissance 15 juillet 1916)",
      "share_type": {
        "id": 1,
        "name": "Stock (Action)"
      },
      "types": [
        {
          "start_date": "1917-01-17",
          "end_date": "3999-12-31",
          "id": 15,
          "name": "Action de préférence",
          "stock_group": "S"
        }
      ],
      "start_date": "1917-01-17",
      "end_date": "3999-12-31",
      "prices_from": "1917-04-30",
      "prices_to": "1917-11-30",
      "is_mainstock": 0,
      "prices_count": 3
    }
  }
}