{
  "id": 10720,
  "names": [
    "SOCIÉTÉ DES BOIS DE SASSANDRA",
    "Société des bois de Sassandra"
  ],
  "name": "SOCIÉTÉ DES BOIS DE SASSANDRA",
  "balance_sheets": [
    {
      "start_date": "1925-12-31",
      "source": "Annuaire Desfossés 1927",
      "page": "1035"
    },
    {
      "start_date": "1927-12-31",
      "source": "Annuaire Desfossés 1929",
      "page": "1098"
    },
    {
      "start_date": "1929-12-31",
      "source": "Annuaire Desfossés 1931",
      "page": "1124"
    }
  ],
  "balance_sheets_stats": {
    "start_date": "1925-12-31",
    "end_date": "1929-12-31"
  },
  "locations_stats": {
    "start_date": "1927-01-01",
    "end_date": "1930-12-31"
  },
  "locations": {
    "Siège social": [
      {
        "location_types_id": 1,
        "location_type": "Siège social",
        "address": null,
        "city": "Sassandra",
        "district": null,
        "country": "Afrique occidentale française",
        "in_yearbook_from": 1927,
        "in_yearbook_to": 1930
      }
    ]
  },
  "persons": [
    {
      "persons_count": 3,
      "yearbook": "Annuaire Desfossés 1927",
      "source": "annuaire_df_1927",
      "page": "1035"
    }
  ],
  "persons_stats": {
    "persons_count": 3,
    "start_date": "1927-01-01",
    "end_date": "1927-12-31"
  },
  "yearbooks_ocrs": [
    {
      "source": "annuaire_df_1927",
      "yearbook": "Annuaire Desfossés 1927",
      "page": "1035"
    },
    {
      "source": "annuaire_df_1929",
      "yearbook": "Annuaire Desfossés 1929",
      "page": "1098"
    },
    {
      "source": "annuaire_df_1931",
      "yearbook": "Annuaire Desfossés 1931",
      "page": "1124"
    }
  ],
  "juridical_status": [
    {
      "juridical_status": "Société Anonyme (Libre)",
      "start_date": "1925-12-01",
      "end_date": "1985-10-02",
      "comments": "Société anonyme française, constituée le 1er décembre 1925, pour une durée de 60 ans.",
      "source": "annuaire_df_1931"
    }
  ],
  "equity_capital": [
    {
      "amount": "1.400.000",
      "currency": "Franc",
      "infodate": "1925-12-01",
      "source": "annuaire_df_1927",
      "comments": " A l’origine 1.400.000 francs"
    },
    {
      "amount": "2.500.000",
      "currency": "Franc",
      "infodate": "1926-08-01",
      "source": "annuaire_df_1927",
      "comments": "25000000 francs divisé en 25000 actions de 100 francs sur lesquelles 10.000 ont été attribuées aux Etablissements Roux, Baiidrand Frères, en rémunération d’apports. A l’origine 1.400.000 francs ; porté en août 1926 à 2.500.000 fr. parla création de 11.000 actions nouvelles (5 nouvelles pour 13 anciennes, 11 nouvelles nour 8 parts)."
    }
  ],
  "profit_dividends": [],
  "public_status": false
}