{
  "id": 6102,
  "names": [
    "Société Job"
  ],
  "name": "Société Job",
  "balance_sheets": [],
  "balance_sheets_stats": {
    "start_date": null,
    "end_date": null
  },
  "locations_stats": {
    "start_date": null,
    "end_date": null
  },
  "locations": {},
  "persons": [],
  "persons_stats": {
    "persons_count": 0,
    "start_date": null,
    "end_date": null
  },
  "yearbooks_ocrs": [],
  "juridical_status": [],
  "equity_capital": [],
  "profit_dividends": [],
  "public_status": false,
  "stock_exchanges": {
    "1": {
      "id": 1,
      "name": "Paris (Official List)",
      "listings_stats": {
        "start_date": "1967-05-02"
      },
      "spot_prices_stats": {
        "start_date": "1967-05-09",
        "end_date": "1973-10-31"
      }
    }
  },
  "securities": {
    "19789": {
      "id": 19789,
      "name": "Bordeaux_Bourse Job (Sté) 5,25% 1948. 1949-73",
      "share_type": {
        "id": 2,
        "name": "Bond (Obligation)"
      },
      "types": [
        {
          "start_date": "1967-05-02",
          "end_date": "3999-12-31",
          "id": 1001,
          "name": "Obligation ordinaire ou classique",
          "stock_group": "B"
        }
      ],
      "start_date": "1967-05-02",
      "end_date": "3999-12-31",
      "prices_from": "1967-05-16",
      "prices_to": "1971-12-31",
      "is_mainstock": 0,
      "prices_count": 112
    },
    "19790": {
      "id": 19790,
      "name": "BORDEAUX_BOURSE Job (Sté) 6% 1955 1956-73",
      "share_type": {
        "id": 2,
        "name": "Bond (Obligation)"
      },
      "types": [
        {
          "start_date": "1967-05-02",
          "end_date": "3999-12-31",
          "id": 1001,
          "name": "Obligation ordinaire ou classique",
          "stock_group": "B"
        }
      ],
      "start_date": "1967-05-02",
      "end_date": "3999-12-31",
      "prices_from": "1967-05-09",
      "prices_to": "1973-10-31",
      "is_mainstock": 0,
      "prices_count": 157
    }
  }
}