{
  "id": 5786,
  "names": [
    "Flamand-Saint-Isidore"
  ],
  "name": "Flamand-Saint-Isidore",
  "balance_sheets": [],
  "balance_sheets_stats": {
    "start_date": null,
    "end_date": null
  },
  "locations_stats": {
    "start_date": null,
    "end_date": null
  },
  "locations": {},
  "persons": [],
  "persons_stats": {
    "persons_count": 0,
    "start_date": null,
    "end_date": null
  },
  "yearbooks_ocrs": [],
  "juridical_status": [],
  "equity_capital": [],
  "profit_dividends": [],
  "public_status": false,
  "stock_exchanges": {
    "1": {
      "id": 1,
      "name": "Paris (Official List)",
      "listings_stats": {
        "start_date": "1967-05-02"
      },
      "spot_prices_stats": {
        "start_date": "1967-05-02",
        "end_date": "1971-06-15"
      }
    }
  },
  "securities": {
    "18926": {
      "id": 18926,
      "name": "Bordeaux_Bourse Flamand-Saint-Isidore, act.",
      "share_type": {
        "id": 1,
        "name": "Stock (Action)"
      },
      "types": [
        {
          "start_date": "1967-05-02",
          "end_date": "3999-12-31",
          "id": 18,
          "name": "Action",
          "stock_group": "S"
        }
      ],
      "start_date": "1967-05-02",
      "end_date": "3999-12-31",
      "prices_from": "1967-05-02",
      "prices_to": "1971-06-15",
      "is_mainstock": 0,
      "prices_count": 99
    },
    "20384": {
      "id": 20384,
      "name": "BORDEAUX_BOURSE_Flamand-Saint-Isidore, act - Act. (nos 43688 à 56169) (c.98)",
      "share_type": {
        "id": 1,
        "name": "Stock (Action)"
      },
      "types": [
        {
          "start_date": "1970-05-12",
          "end_date": "3999-12-31",
          "id": 11,
          "name": "Action ordinaire",
          "stock_group": "S"
        }
      ],
      "start_date": "1970-05-12",
      "end_date": "3999-12-31",
      "prices_from": null,
      "prices_to": null,
      "is_mainstock": 0,
      "prices_count": 0
    }
  }
}