{
  "id": 10029,
  "names": [
    "BANQUE FRANCO-TUNISIENNE DE PRÊTS MOBILIERS ET MONTS-DE-PIÉTÉ DE TUNISIE",
    "Banque Franco-Tunisienne de Prêts mobiliers et Monts-de-Piété de Tunisie"
  ],
  "name": "BANQUE FRANCO-TUNISIENNE DE PRÊTS MOBILIERS ET MONTS-DE-PIÉTÉ DE TUNISIE",
  "balance_sheets": [
    {
      "start_date": "1910-12-31",
      "source": "Annuaire Desfossés 1912",
      "page": "192"
    }
  ],
  "balance_sheets_stats": {
    "start_date": "1910-12-31",
    "end_date": "1938-12-31"
  },
  "locations_stats": {
    "start_date": "1912-01-01",
    "end_date": "1912-12-31"
  },
  "locations": {
    "Siège social": [
      {
        "location_types_id": 1,
        "location_type": "Siège social",
        "address": "Rue de naples, 58",
        "city": "Tunis",
        "district": null,
        "country": "Tunisie",
        "in_yearbook_from": 1912,
        "in_yearbook_to": 1912
      }
    ]
  },
  "persons": [
    {
      "persons_count": 4,
      "yearbook": "Annuaire Desfossés 1912",
      "source": "annuaire_df_1912",
      "page": "192"
    }
  ],
  "persons_stats": {
    "persons_count": 4,
    "start_date": "1912-01-01",
    "end_date": "1912-12-31"
  },
  "yearbooks_ocrs": [
    {
      "source": "annuaire_df_1912",
      "yearbook": "Annuaire Desfossés 1912",
      "page": "192"
    }
  ],
  "juridical_status": [
    {
      "juridical_status": "Société anonyme tunisienne",
      "start_date": "1905-12-30",
      "end_date": "1929-08-13",
      "comments": "Société anonyme tunisienne, constituée le 30 décembre 1905 pour une durée expirant le 13 août 1929.",
      "source": "annuaire_df_1912"
    }
  ],
  "equity_capital": [
    {
      "amount": "400.000",
      "currency": "Franc",
      "infodate": "1905-12-30",
      "source": "annuaire_df_1912",
      "comments": " 1 million de francs, divisé en 10.000 actions de 100 francs. A l’origine 400.000 francs, porté en 1908 au chiffre actuel par l’émission de 5.000 actions nouvelles de 100 francs et la conversion, en 1.000 actions de 100 francs, du cautionnement de' garantie d’intérêt déposé par la Société des Monts-de-Piété de Tunisie."
    },
    {
      "amount": "1.000.000",
      "currency": "Franc",
      "infodate": "1908-01-01",
      "source": "annuaire_df_1912",
      "comments": "1 million de francs, divisé en 10.000 actions de 100 francs. A l’origine 400.000 francs, porté en 1908 au chiffre actuel par l’émission de 5.000 actions nouvelles de 100 francs et la conversion, en 1.000 actions de 100 francs, du cautionnement de' garantie d’intérêt déposé par la Société des Monts-de-Piété de Tunisie. Parts de fondateurs : Il a été créé en outre 5.000 parts de fondateurs qui ont été remises à cette société en rémunération de ses apports."
    }
  ],
  "profit_dividends": [
    {
      "first_date": "1909-12-31",
      "last_date": "1938-12-31",
      "obs_count": 131
    }
  ],
  "public_status": false
}