{
  "id": 5811,
  "names": [
    "Industrielle de Fabrication et de Transformat. (S.I.F.T.),"
  ],
  "name": "Industrielle de Fabrication et de Transformat. (S.I.F.T.),",
  "balance_sheets": [],
  "balance_sheets_stats": {
    "start_date": null,
    "end_date": null
  },
  "locations_stats": {
    "start_date": null,
    "end_date": null
  },
  "locations": {},
  "persons": [],
  "persons_stats": {
    "persons_count": 0,
    "start_date": null,
    "end_date": null
  },
  "yearbooks_ocrs": [],
  "juridical_status": [],
  "equity_capital": [],
  "profit_dividends": [],
  "public_status": false,
  "stock_exchanges": {
    "1": {
      "id": 1,
      "name": "Paris (Official List)",
      "listings_stats": {
        "start_date": "1967-05-02"
      },
      "spot_prices_stats": {
        "start_date": "1967-05-05",
        "end_date": "1976-02-16"
      }
    }
  },
  "securities": {
    "18985": {
      "id": 18985,
      "name": "Bordeaux_Bourse Industrielle de Fabrication et de transformat.(S.I.F.T.), act.ord.",
      "share_type": {
        "id": 1,
        "name": "Stock (Action)"
      },
      "types": [
        {
          "start_date": "1967-05-02",
          "end_date": "3999-12-31",
          "id": 11,
          "name": "Action ordinaire",
          "stock_group": "S"
        }
      ],
      "start_date": "1967-05-02",
      "end_date": "3999-12-31",
      "prices_from": "1967-05-05",
      "prices_to": "1976-02-16",
      "is_mainstock": 0,
      "prices_count": 212
    },
    "18986": {
      "id": 18986,
      "name": "Bordeaux_Bourse Industrielle de Fabrication et de Transformat. (S.I.F.T.), act. Priorité",
      "share_type": {
        "id": 1,
        "name": "Stock (Action)"
      },
      "types": [
        {
          "start_date": "1967-05-02",
          "end_date": "3999-12-31",
          "id": 14,
          "name": "Action prioritaire",
          "stock_group": "S"
        }
      ],
      "start_date": "1967-05-02",
      "end_date": "3999-12-31",
      "prices_from": "1967-05-16",
      "prices_to": "1971-07-15",
      "is_mainstock": 0,
      "prices_count": 101
    }
  }
}