{
  "id": 12175,
  "names": [
    "Grand-Saint-Bernard"
  ],
  "name": "Grand-Saint-Bernard",
  "balance_sheets": [],
  "balance_sheets_stats": {
    "start_date": null,
    "end_date": null
  },
  "locations_stats": {
    "start_date": null,
    "end_date": null
  },
  "locations": {},
  "persons": [],
  "persons_stats": {
    "persons_count": 0,
    "start_date": null,
    "end_date": null
  },
  "yearbooks_ocrs": [],
  "juridical_status": [],
  "equity_capital": [],
  "profit_dividends": [],
  "public_status": false,
  "stock_exchanges": {
    "2": {
      "id": 2,
      "name": "Paris OTC (Coulisse)",
      "listings_stats": {
        "start_date": "1885-01-15"
      },
      "spot_prices_stats": {
        "start_date": "1885-09-15",
        "end_date": "1885-12-16"
      }
    }
  },
  "securities": {
    "104904": {
      "id": 104904,
      "name": "Bons 3% Gd-St-Bernard jt85",
      "share_type": {
        "id": 6,
        "name": "UNKNOWN"
      },
      "types": [
        {
          "start_date": "1885-01-15",
          "end_date": "1887-12-31",
          "id": 1009,
          "name": "Bons",
          "stock_group": "B"
        }
      ],
      "start_date": "1885-01-15",
      "end_date": "1887-12-31",
      "prices_from": "1885-09-15",
      "prices_to": "1885-12-16",
      "is_mainstock": 0,
      "prices_count": 3
    }
  }
}