{
  "id": 12507,
  "names": [
    "Conservation des liquides (Cie gen. pour la)"
  ],
  "name": "Conservation des liquides (Cie gen. pour la)",
  "balance_sheets": [],
  "balance_sheets_stats": {
    "start_date": null,
    "end_date": null
  },
  "locations_stats": {
    "start_date": null,
    "end_date": null
  },
  "locations": {},
  "persons": [],
  "persons_stats": {
    "persons_count": 0,
    "start_date": null,
    "end_date": null
  },
  "yearbooks_ocrs": [],
  "juridical_status": [],
  "equity_capital": [],
  "profit_dividends": [],
  "public_status": false,
  "stock_exchanges": {
    "2": {
      "id": 2,
      "name": "Paris OTC (Coulisse)",
      "listings_stats": {
        "start_date": "1897-08-16"
      },
      "spot_prices_stats": {
        "start_date": "1897-08-16",
        "end_date": "1898-12-31"
      }
    }
  },
  "securities": {
    "105536": {
      "id": 105536,
      "name": "CONSERVATION DES LIQUIDES (act. priv.)",
      "share_type": {
        "id": 1,
        "name": "Stock (Action)"
      },
      "types": [
        {
          "start_date": "1897-08-16",
          "end_date": "1898-12-31",
          "id": 18,
          "name": "Action",
          "stock_group": "S"
        }
      ],
      "start_date": "1897-08-16",
      "end_date": "1898-12-31",
      "prices_from": "1897-08-16",
      "prices_to": "1898-12-31",
      "is_mainstock": 1,
      "prices_count": 38
    }
  }
}