{
  "id": 11708,
  "names": [
    "SOCIÉTÉ FRANÇAISE DES PRODUITS ODOL (Laboratoire RIBEIRA)",
    "Société française des produits Odol (Laboratoire Ribeira)"
  ],
  "name": "SOCIÉTÉ FRANÇAISE DES PRODUITS ODOL (Laboratoire RIBEIRA)",
  "balance_sheets": [],
  "balance_sheets_stats": {
    "start_date": null,
    "end_date": null
  },
  "locations_stats": {
    "start_date": "1930-01-01",
    "end_date": "1930-12-31"
  },
  "locations": {
    "Siège social": [
      {
        "location_types_id": 1,
        "location_type": "Siège social",
        "address": "Rue alexandre-dumas, 5",
        "city": "Saint Ouen",
        "district": "Paris",
        "country": "France",
        "in_yearbook_from": 1930,
        "in_yearbook_to": 1930
      }
    ]
  },
  "persons": [],
  "persons_stats": {
    "persons_count": 0,
    "start_date": null,
    "end_date": null
  },
  "yearbooks_ocrs": [
    {
      "source": "annuaire_df_1931",
      "yearbook": "Annuaire Desfossés 1931",
      "page": "1108"
    }
  ],
  "juridical_status": [
    {
      "juridical_status": "Société Anonyme (Libre)",
      "start_date": "1927-04-01",
      "end_date": "2026-04-01",
      "comments": "Société anonyme française, constituée en avril 1927, pour une durée de 99 ans.",
      "source": "annuaire_df_1931"
    }
  ],
  "equity_capital": [],
  "profit_dividends": [],
  "public_status": false
}