{
  "id": 11091,
  "names": [
    "BANQUE COMMERCIALE FRANCO-BELGE",
    "Banque commerciale franco-belge",
    "Banque commerciale franco-belge (Ph. L. von Klemert et cie) (anc. banque française et hollando-americaine, banque hollando-americaine)"
  ],
  "name": "Banque commerciale franco-belge",
  "balance_sheets": [],
  "balance_sheets_stats": {
    "start_date": "1921-12-31",
    "end_date": "1939-12-31"
  },
  "locations_stats": {
    "start_date": null,
    "end_date": null
  },
  "locations": {},
  "persons": [],
  "persons_stats": {
    "persons_count": 0,
    "start_date": null,
    "end_date": null
  },
  "yearbooks_ocrs": [
    {
      "source": "annuaire_df_1953",
      "yearbook": "Annuaire Desfossés 1953",
      "page": "2237"
    }
  ],
  "juridical_status": [
    {
      "juridical_status": "Société Anonyme (Libre)",
      "start_date": "1906-01-01",
      "end_date": "1923-12-31",
      "comments": null,
      "source": "publications de la banque: Chemins de fer américains, Chaix, various years"
    },
    {
      "juridical_status": "Société Anonyme (Libre)",
      "start_date": "1924-01-01",
      "end_date": "3999-12-31",
      "comments": null,
      "source": "hypothesis based on the fact that the bank was already a SA before merger"
    }
  ],
  "equity_capital": [],
  "profit_dividends": [
    {
      "first_date": "1921-12-31",
      "last_date": "1939-12-31",
      "obs_count": 95
    }
  ],
  "public_status": false
}