{
  "id": 552,
  "names": [
    "Sambre Francaise Canalisee",
    "Société de la Sambre française canalisée",
    "Société de la Sambre française canalisée."
  ],
  "name": "Société de la Sambre française canalisée",
  "balance_sheets": [],
  "balance_sheets_stats": {
    "start_date": null,
    "end_date": null
  },
  "locations_stats": {
    "start_date": "1880-01-01",
    "end_date": "1898-12-31"
  },
  "locations": {
    "Siège social": [
      {
        "location_types_id": 1,
        "location_type": "Siège social",
        "address": "Rue drouot, 22",
        "city": "Paris",
        "district": "Paris",
        "country": "France",
        "in_yearbook_from": 1880,
        "in_yearbook_to": 1889
      }
    ],
    "Siège de liquidation": [
      {
        "location_types_id": 17,
        "location_type": "Siège de liquidation",
        "address": "Rue drouot, 22",
        "city": "Paris",
        "district": "Paris",
        "country": "France",
        "in_yearbook_from": 1893,
        "in_yearbook_to": 1898
      }
    ]
  },
  "persons": [
    {
      "persons_count": 7,
      "yearbook": "Annuaire de la Compagnie des Agents de Change 1880",
      "source": "annuaire_cac_1880",
      "page": "540"
    },
    {
      "persons_count": 1,
      "yearbook": "Annuaire de la Compagnie des Agents de Change 1883",
      "source": "annuaire_cac_1883",
      "page": "629"
    },
    {
      "persons_count": 5,
      "yearbook": "Annuaire de la Compagnie des Agents de Change 1888",
      "source": "annuaire_cac_1888",
      "page": "669"
    },
    {
      "persons_count": 2,
      "yearbook": "Annuaire de la Compagnie des Agents de Change 1898",
      "source": "annuaire_cac_1898",
      "page": "2170"
    }
  ],
  "persons_stats": {
    "persons_count": 12,
    "start_date": "1880-01-01",
    "end_date": "1898-12-31"
  },
  "yearbooks_ocrs": [
    {
      "source": "annuaire_cac_1880",
      "yearbook": "Annuaire de la Compagnie des Agents de Change 1880",
      "page": "540"
    },
    {
      "source": "annuaire_cac_1883",
      "yearbook": "Annuaire de la Compagnie des Agents de Change 1883",
      "page": "629"
    },
    {
      "source": "annuaire_cac_1888",
      "yearbook": "Annuaire de la Compagnie des Agents de Change 1888",
      "page": "669"
    },
    {
      "source": "annuaire_cac_1893",
      "yearbook": "Annuaire de la Compagnie des Agents de Change 1893",
      "page": "1773"
    },
    {
      "source": "annuaire_cac_1898",
      "yearbook": "Annuaire de la Compagnie des Agents de Change 1898",
      "page": "2170"
    }
  ],
  "juridical_status": [
    {
      "juridical_status": "Société Anonyme Réglementée",
      "start_date": "1850-12-20",
      "end_date": "1890-05-02",
      "comments": "Société de la Sambre française canalisée. — Société anonyme constituée par acte passé devant M° Roquebert, notaire à Paris, le 13 décembre 1850, approuvé par décret du 20.du môme mois; modifiée par acte devant ledit M°Roquebert du 5 mai 1856, approuvé par décret du 26 du même mois.",
      "source": "annuaire_cac_1893"
    },
    {
      "juridical_status": "Mise en liquidation",
      "start_date": "1890-05-03",
      "end_date": "3999-12-31",
      "comments": "La Société étant arrivée à son terme le 15 mars 1890, date cle l’expiration de la concession qu’elle avait pour objet d’exploiter, a été dissoute et mise en liquidation, par délibération de l’Assemblée générale des actionnaires du 3 mai 1890",
      "source": "annuaire_cac_1893"
    }
  ],
  "equity_capital": [
    {
      "amount": "6.000.000",
      "currency": "Franc",
      "infodate": "1850-12-13",
      "source": "annuaire_cac_1893",
      "comments": "6 millions ; divisé en 6,000 actions de 1,000 fr,.entièrement libérées, dont 5',400 nominatives, n°s 1 à.5400, et 600 au porteur, nos 5401 à 6000, donnant droit chacune à 1/6,000 de tout l’actif social."
    }
  ],
  "profit_dividends": [
    {
      "first_date": "1850-12-31",
      "last_date": "1887-12-31",
      "obs_count": 38
    }
  ],
  "public_status": false,
  "stock_exchanges": {
    "1": {
      "id": 1,
      "name": "Paris (Official List)",
      "listings_stats": {
        "start_date": "1852-05-03"
      },
      "spot_prices_stats": {
        "start_date": "1852-05-03",
        "end_date": "1887-10-07"
      }
    }
  },
  "securities": {
    "699": {
      "id": 699,
      "name": "Sambre Française canalisée (act. 500 fr.)",
      "share_type": {
        "id": 1,
        "name": "Stock (Action)"
      },
      "types": [
        {
          "start_date": "1852-05-03",
          "end_date": "3999-12-31",
          "id": 18,
          "name": "Action",
          "stock_group": "S"
        }
      ],
      "start_date": "1852-05-03",
      "end_date": "3999-12-31",
      "prices_from": "1852-05-03",
      "prices_to": "1887-10-07",
      "is_mainstock": 1,
      "prices_count": 4
    }
  }
}