{
  "id": 12047,
  "names": [
    "MATÉRIEL DE CULTURE MODERNE (Etablissements Georges Filtz et Ateliers Grivolas réunis)",
    "Matériel de culture moderne (Etablissements Georges Filtz et Ateliers Grivolas réunis)"
  ],
  "name": "MATÉRIEL DE CULTURE MODERNE (Etablissements Georges Filtz et Ateliers Grivolas réunis)",
  "balance_sheets": [
    {
      "start_date": "1919-12-31",
      "source": "Annuaire Desfossés 1920",
      "page": "704"
    }
  ],
  "balance_sheets_stats": {
    "start_date": "1919-12-31",
    "end_date": "1919-12-31"
  },
  "locations_stats": {
    "start_date": "1920-01-01",
    "end_date": "1920-12-31"
  },
  "locations": {
    "Siège social": [
      {
        "location_types_id": 1,
        "location_type": "Siège social",
        "address": "Rue taibout, 3",
        "city": "Paris",
        "district": "Paris",
        "country": "France",
        "in_yearbook_from": 1920,
        "in_yearbook_to": 1920
      }
    ],
    "Usines": [
      {
        "location_types_id": 3,
        "location_type": "Usines",
        "address": null,
        "city": "Chatou",
        "district": "Yvelines",
        "country": "France",
        "in_yearbook_from": 1920,
        "in_yearbook_to": 1920
      },
      {
        "location_types_id": 3,
        "location_type": "Usines",
        "address": null,
        "city": "Viry",
        "district": "Yvelines",
        "country": "France",
        "in_yearbook_from": 1920,
        "in_yearbook_to": 1920
      }
    ]
  },
  "persons": [],
  "persons_stats": {
    "persons_count": 0,
    "start_date": null,
    "end_date": null
  },
  "yearbooks_ocrs": [
    {
      "source": "annuaire_df_1920",
      "yearbook": "Annuaire Desfossés 1920",
      "page": "704"
    }
  ],
  "juridical_status": [
    {
      "juridical_status": "Société Anonyme (Libre)",
      "start_date": "1918-07-18",
      "end_date": "2017-07-18",
      "comments": "Société anonyme française, constituée le 18 juillet 1918, pour une durée de 99 ans.",
      "source": "annuaire_df_1920"
    }
  ],
  "equity_capital": [],
  "profit_dividends": [],
  "public_status": false
}