{
  "id": 15843,
  "names": [
    "SAPE (S.A. de participations, d'études et de banque et Cie de Micheville réunies)",
    "SAPE (Société anonyme de participations, d'études et de banque et Cie de Micheville réunies)",
    "Société anonyme de participations, d'études et de banque (S.A.P.E.)",
    "UNION BANCAIRE ET INDUSTRIELLE (SAPE)"
  ],
  "name": "SAPE (S.A. de participations, d'études et de banque et Cie de Micheville réunies)",
  "balance_sheets": [],
  "balance_sheets_stats": {
    "start_date": null,
    "end_date": null
  },
  "locations_stats": {
    "start_date": null,
    "end_date": null
  },
  "locations": {},
  "persons": [],
  "persons_stats": {
    "persons_count": 0,
    "start_date": null,
    "end_date": null
  },
  "yearbooks_ocrs": [],
  "juridical_status": [],
  "equity_capital": [],
  "profit_dividends": [],
  "public_status": false
}