{
  "id": 11367,
  "names": [
    "société commerciale et financière franco- anglaise"
  ],
  "name": "société commerciale et financière franco- anglaise",
  "balance_sheets": [],
  "balance_sheets_stats": {
    "start_date": "1920-12-31",
    "end_date": "1931-12-31"
  },
  "locations_stats": {
    "start_date": null,
    "end_date": null
  },
  "locations": {},
  "persons": [],
  "persons_stats": {
    "persons_count": 0,
    "start_date": null,
    "end_date": null
  },
  "yearbooks_ocrs": [],
  "juridical_status": [
    {
      "juridical_status": "Société Anonyme (Libre)",
      "start_date": "1919-11-25",
      "end_date": "3999-12-31",
      "comments": null,
      "source": "bdf"
    }
  ],
  "equity_capital": [],
  "profit_dividends": [
    {
      "first_date": "1920-12-31",
      "last_date": "1931-12-31",
      "obs_count": 50
    }
  ],
  "public_status": false
}