{
  "id": 4713,
  "names": [
    "SOCIETE VERRIERE DE LA BRIE ET DU BUGEY",
    "Société Verrière de la Brie et du Bugey"
  ],
  "name": "SOCIETE VERRIERE DE LA BRIE ET DU BUGEY",
  "balance_sheets": [
    {
      "start_date": "1948-12-31",
      "source": "Annuaire Desfossés 1953",
      "page": "1481"
    },
    {
      "start_date": "1949-12-31",
      "source": "Annuaire Desfossés 1953",
      "page": "1481"
    },
    {
      "start_date": "1950-12-31",
      "source": "Annuaire Desfossés 1953",
      "page": "1481"
    }
  ],
  "balance_sheets_stats": {
    "start_date": "1948-12-31",
    "end_date": "1950-12-31"
  },
  "locations_stats": {
    "start_date": "1953-01-01",
    "end_date": "1953-12-31"
  },
  "locations": {
    "Siège social": [
      {
        "location_types_id": 1,
        "location_type": "Siège social",
        "address": "Rue cambacérès, 4",
        "city": "Paris",
        "district": "Paris",
        "country": "France",
        "in_yearbook_from": 1953,
        "in_yearbook_to": 1953
      }
    ]
  },
  "persons": [
    {
      "persons_count": 15,
      "yearbook": "Annuaire Desfossés 1953",
      "source": "annuaire_df_1953",
      "page": "1481"
    }
  ],
  "persons_stats": {
    "persons_count": 15,
    "start_date": "1953-01-01",
    "end_date": "1953-12-31"
  },
  "yearbooks_ocrs": [
    {
      "source": "annuaire_df_1953",
      "yearbook": "Annuaire Desfossés 1953",
      "page": "1481"
    }
  ],
  "juridical_status": [
    {
      "juridical_status": "Société Anonyme (Libre)",
      "start_date": "1943-01-01",
      "end_date": "3999-12-31",
      "comments": "CONSTITUTION : Société anonyme constituée en 1943. Elle a absorbé, par voie de fusion, la Société -d'Exploitation Verrière de la Brie, et la Société d'Exploitation Verrière du Bugey.",
      "source": "annuaire_df_1953"
    }
  ],
  "equity_capital": [
    {
      "amount": "80.000.000",
      "currency": "Franc",
      "infodate": "1943-01-01",
      "source": "annuaire_df_1953",
      "comments": " 216 millions divisé en 144.000 actions de 1.500 fr. nominatives. A l'origine, 80 millions. porté en 1947 à 120 millions par émission à 1.050 fr. de 40.000 actions de 1.000 fr. Porté en 1949 à 180 millions par élévation du nominal à 1.500 fr. Porté à 216 millions en 1951, par émission au pair en numéraire de 24.000 actions nouvelles d'une valeur nominale de 1.500 fr."
    },
    {
      "amount": "120.000.000",
      "currency": "Franc",
      "infodate": "1947-01-01",
      "source": "annuaire_df_1953",
      "comments": " 216 millions divisé en 144.000 actions de 1.500 fr. nominatives. A l'origine, 80 millions. porté en 1947 à 120 millions par émission à 1.050 fr. de 40.000 actions de 1.000 fr. Porté en 1949 à 180 millions par élévation du nominal à 1.500 fr. Porté à 216 millions en 1951, par émission au pair en numéraire de 24.000 actions nouvelles d'une valeur nominale de 1.500 fr."
    },
    {
      "amount": "180.000.000",
      "currency": "Franc",
      "infodate": "1949-01-01",
      "source": "annuaire_df_1953",
      "comments": " 216 millions divisé en 144.000 actions de 1.500 fr. nominatives. A l'origine, 80 millions. porté en 1947 à 120 millions par émission à 1.050 fr. de 40.000 actions de 1.000 fr. Porté en 1949 à 180 millions par élévation du nominal à 1.500 fr. Porté à 216 millions en 1951, par émission au pair en numéraire de 24.000 actions nouvelles d'une valeur nominale de 1.500 fr."
    },
    {
      "amount": "216.000.000",
      "currency": "Franc",
      "infodate": "1951-01-01",
      "source": "annuaire_df_1953",
      "comments": "216 millions divisé en 144.000 actions de 1.500 fr. nominatives. A l'origine, 80 millions. porté en 1947 à 120 millions par émission à 1.050 fr. de 40.000 actions de 1.000 fr. Porté en 1949 à 180 millions par élévation du nominal à 1.500 fr. Porté à 216 millions en 1951, par émission au pair en numéraire de 24.000 actions nouvelles d'une valeur nominale de 1.500 fr."
    }
  ],
  "profit_dividends": [
    {
      "first_date": "1948-12-31",
      "last_date": "1950-12-31",
      "obs_count": 13
    }
  ],
  "public_status": false,
  "stock_exchanges": {
    "1": {
      "id": 1,
      "name": "Paris (Official List)",
      "listings_stats": {
        "start_date": "1962-01-02"
      },
      "spot_prices_stats": {
        "start_date": "1962-01-02",
        "end_date": "1973-10-31"
      }
    }
  },
  "securities": {
    "17288": {
      "id": 17288,
      "name": "Verrière de la Brie et du Bugey 6,75 % 1950 1951-75",
      "share_type": {
        "id": 2,
        "name": "Bond (Obligation)"
      },
      "types": [
        {
          "start_date": "1962-01-02",
          "end_date": "3999-12-31",
          "id": 1001,
          "name": "Obligation ordinaire ou classique",
          "stock_group": "B"
        }
      ],
      "start_date": "1962-01-02",
      "end_date": "3999-12-31",
      "prices_from": "1962-01-02",
      "prices_to": "1973-08-31",
      "is_mainstock": 0,
      "prices_count": 281
    },
    "17289": {
      "id": 17289,
      "name": "Verrière de la Brie et du Bugey 6% 1955, remb. à 105 NF 1956-73",
      "share_type": {
        "id": 2,
        "name": "Bond (Obligation)"
      },
      "types": [
        {
          "start_date": "1962-01-02",
          "end_date": "3999-12-31",
          "id": 1001,
          "name": "Obligation ordinaire ou classique",
          "stock_group": "B"
        }
      ],
      "start_date": "1962-01-02",
      "end_date": "3999-12-31",
      "prices_from": "1962-01-02",
      "prices_to": "1973-10-31",
      "is_mainstock": 0,
      "prices_count": 285
    },
    "17290": {
      "id": 17290,
      "name": "Verrière de la Brie et du Bugey 6,5 % 1957, remb. à 105 NF 1958-69",
      "share_type": {
        "id": 2,
        "name": "Bond (Obligation)"
      },
      "types": [
        {
          "start_date": "1962-01-02",
          "end_date": "3999-12-31",
          "id": 1001,
          "name": "Obligation ordinaire ou classique",
          "stock_group": "B"
        }
      ],
      "start_date": "1962-01-02",
      "end_date": "3999-12-31",
      "prices_from": "1962-01-02",
      "prices_to": "1969-02-28",
      "is_mainstock": 0,
      "prices_count": 172
    }
  }
}