{
  "id": 803,
  "names": [
    "Ch. de Fer feuilles de Plateaux"
  ],
  "name": "Ch. de Fer feuilles de Plateaux",
  "balance_sheets": [],
  "balance_sheets_stats": {
    "start_date": null,
    "end_date": null
  },
  "locations_stats": {
    "start_date": null,
    "end_date": null
  },
  "locations": {},
  "persons": [],
  "persons_stats": {
    "persons_count": 0,
    "start_date": null,
    "end_date": null
  },
  "yearbooks_ocrs": [],
  "juridical_status": [],
  "equity_capital": [],
  "profit_dividends": [],
  "public_status": false,
  "stock_exchanges": {
    "1": {
      "id": 1,
      "name": "Paris (Official List)",
      "listings_stats": {
        "start_date": "1844-08-20"
      },
      "spot_prices_stats": {
        "start_date": "1844-08-20",
        "end_date": "1844-08-20"
      }
    }
  },
  "securities": {
    "407": {
      "id": 407,
      "name": "Ch. de Fer feuilles de Plateaux",
      "share_type": {
        "id": 6,
        "name": "UNKNOWN"
      },
      "types": [
        {
          "start_date": "1844-08-20",
          "end_date": "3999-12-31",
          "id": 1,
          "name": "UNKNOWN",
          "stock_group": "U"
        }
      ],
      "start_date": "1844-08-20",
      "end_date": "3999-12-31",
      "prices_from": "1844-08-20",
      "prices_to": "1844-08-20",
      "is_mainstock": 0,
      "prices_count": 1
    }
  }
}