{
  "id": 11127,
  "names": [
    "Banque de l'Union régionale"
  ],
  "name": "Banque de l'Union régionale",
  "balance_sheets": [],
  "balance_sheets_stats": {
    "start_date": "1918-12-31",
    "end_date": "1930-06-30"
  },
  "locations_stats": {
    "start_date": null,
    "end_date": null
  },
  "locations": {},
  "persons": [],
  "persons_stats": {
    "persons_count": 0,
    "start_date": null,
    "end_date": null
  },
  "yearbooks_ocrs": [],
  "juridical_status": [
    {
      "juridical_status": "Société Anonyme (Libre)",
      "start_date": "1918-02-09",
      "end_date": "1931-12-31",
      "comments": null,
      "source": "titres"
    },
    {
      "juridical_status": "Liquidation judiciaire",
      "start_date": "1931-01-01",
      "end_date": "1931-12-31",
      "comments": null,
      "source": "CL"
    }
  ],
  "equity_capital": [],
  "profit_dividends": [
    {
      "first_date": "1918-12-31",
      "last_date": "1930-06-30",
      "obs_count": 35
    }
  ],
  "public_status": false
}