{
  "id": 4124,
  "names": [
    "MAISON BREGUET",
    "MAISON BRÉGUET",
    "Maison Breguet",
    "Maison Bréguet"
  ],
  "name": "MAISON BREGUET",
  "balance_sheets": [
    {
      "start_date": "1911-04-30",
      "source": "Annuaire Desfossés 1912",
      "page": "551"
    },
    {
      "start_date": "1913-04-30",
      "source": "Annuaire Desfossés 1914",
      "page": "600"
    },
    {
      "start_date": "1916-04-30",
      "source": "Annuaire Desfossés 1917",
      "page": "1084"
    },
    {
      "start_date": "1916-04-30",
      "source": "Annuaire Desfossés 1917",
      "page": "538"
    },
    {
      "start_date": "1920-04-30",
      "source": "Annuaire Desfossés 1920",
      "page": "554"
    },
    {
      "start_date": "1922-04-30",
      "source": "Annuaire Desfossés 1923",
      "page": "650"
    },
    {
      "start_date": "1924-04-30",
      "source": "Annuaire Desfossés 1925",
      "page": "714"
    },
    {
      "start_date": "1926-04-30",
      "source": "Annuaire Desfossés 1927",
      "page": "588"
    },
    {
      "start_date": "1928-04-30",
      "source": "Annuaire Desfossés 1929",
      "page": "626"
    },
    {
      "start_date": "1930-04-30",
      "source": "Annuaire Desfossés 1931",
      "page": "632"
    },
    {
      "start_date": "1932-04-30",
      "source": "Annuaire Desfossés 1933",
      "page": "691"
    },
    {
      "start_date": "1932-04-30",
      "source": "Annuaire Desfossés 1933",
      "page": "35"
    },
    {
      "start_date": "1933-04-30",
      "source": "Annuaire Desfossés 1937",
      "page": "730"
    },
    {
      "start_date": "1934-04-30",
      "source": "Annuaire Desfossés 1937",
      "page": "730"
    },
    {
      "start_date": "1935-04-30",
      "source": "Annuaire Desfossés 1937",
      "page": "730"
    },
    {
      "start_date": "1936-04-30",
      "source": "Annuaire Desfossés 1940",
      "page": null
    },
    {
      "start_date": "1937-04-30",
      "source": "Annuaire Desfossés 1940",
      "page": null
    },
    {
      "start_date": "1938-04-30",
      "source": "Annuaire Desfossés 1940",
      "page": null
    },
    {
      "start_date": "1939-04-30",
      "source": "Annuaire Desfossés 1945",
      "page": "1427"
    },
    {
      "start_date": "1942-12-31",
      "source": "Annuaire Desfossés 1945",
      "page": "1427"
    },
    {
      "start_date": "1943-12-31",
      "source": "Annuaire Desfossés 1945",
      "page": "1427"
    },
    {
      "start_date": "1944-12-31",
      "source": "Annuaire Desfossés 1948",
      "page": "1548"
    },
    {
      "start_date": "1945-12-31",
      "source": "Annuaire Desfossés 1948",
      "page": "1548"
    },
    {
      "start_date": "1946-12-31",
      "source": "Annuaire Desfossés 1948",
      "page": "1548"
    },
    {
      "start_date": "1947-12-31",
      "source": "Annuaire Desfossés 1948",
      "page": "1548"
    },
    {
      "start_date": "1948-12-31",
      "source": "Annuaire Desfossés 1953",
      "page": "1288"
    },
    {
      "start_date": "1949-12-31",
      "source": "Annuaire Desfossés 1953",
      "page": "1288"
    },
    {
      "start_date": "1950-12-31",
      "source": "Annuaire Desfossés 1953",
      "page": "1288"
    },
    {
      "start_date": "1951-12-31",
      "source": "Annuaire Desfossés 1953",
      "page": "1288"
    }
  ],
  "balance_sheets_stats": {
    "start_date": "1911-04-30",
    "end_date": "1951-12-31"
  },
  "locations_stats": {
    "start_date": "1898-01-01",
    "end_date": "1953-12-31"
  },
  "locations": {
    "Siège social": [
      {
        "location_types_id": 1,
        "location_type": "Siège social",
        "address": "Rue didot, 19",
        "city": "Paris",
        "district": "Paris",
        "country": "France",
        "in_yearbook_from": 1898,
        "in_yearbook_to": 1948
      },
      {
        "location_types_id": 1,
        "location_type": "Siège social",
        "address": "Avenue d'eylau, 15",
        "city": "Paris",
        "district": "Paris",
        "country": "France",
        "in_yearbook_from": 1953,
        "in_yearbook_to": 1953
      }
    ],
    "Usines": [
      {
        "location_types_id": 3,
        "location_type": "Usines",
        "address": null,
        "city": "Douai",
        "district": "Nord",
        "country": "France",
        "in_yearbook_from": 1903,
        "in_yearbook_to": 1908
      },
      {
        "location_types_id": 3,
        "location_type": "Usines",
        "address": null,
        "city": "Paris",
        "district": "Paris",
        "country": "France",
        "in_yearbook_from": 1903,
        "in_yearbook_to": 1908
      },
      {
        "location_types_id": 3,
        "location_type": "Usines",
        "address": null,
        "city": "Déville-lès-Rouen",
        "district": "Seine-Maritime",
        "country": "France",
        "in_yearbook_from": 1945,
        "in_yearbook_to": 1945
      }
    ],
    "Agences / Succursales": [
      {
        "location_types_id": 4,
        "location_type": "Agences / Succursales",
        "address": null,
        "city": "Bordeaux",
        "district": "Gironde",
        "country": "France",
        "in_yearbook_from": 1945,
        "in_yearbook_to": 1945
      },
      {
        "location_types_id": 4,
        "location_type": "Agences / Succursales",
        "address": null,
        "city": "Bruxelles",
        "district": null,
        "country": "Belgique",
        "in_yearbook_from": 1945,
        "in_yearbook_to": 1945
      },
      {
        "location_types_id": 4,
        "location_type": "Agences / Succursales",
        "address": null,
        "city": "Lille",
        "district": "Nord",
        "country": "France",
        "in_yearbook_from": 1945,
        "in_yearbook_to": 1945
      },
      {
        "location_types_id": 4,
        "location_type": "Agences / Succursales",
        "address": null,
        "city": "Lyon",
        "district": "Rhône",
        "country": "France",
        "in_yearbook_from": 1945,
        "in_yearbook_to": 1945
      },
      {
        "location_types_id": 4,
        "location_type": "Agences / Succursales",
        "address": null,
        "city": "Marseille",
        "district": "Bouches-du-Rhône",
        "country": "France",
        "in_yearbook_from": 1945,
        "in_yearbook_to": 1945
      },
      {
        "location_types_id": 4,
        "location_type": "Agences / Succursales",
        "address": null,
        "city": "Nancy",
        "district": "Meurthe-et-Moselle",
        "country": "France",
        "in_yearbook_from": 1945,
        "in_yearbook_to": 1945
      }
    ]
  },
  "persons": [
    {
      "persons_count": 1,
      "yearbook": "Annuaire de la Compagnie des Agents de Change 1898",
      "source": "annuaire_cac_1898",
      "page": "2007"
    },
    {
      "persons_count": 3,
      "yearbook": "Annuaire de la Compagnie des Agents de Change 1903",
      "source": "annuaire_cac_1903",
      "page": "1531"
    },
    {
      "persons_count": 7,
      "yearbook": "Annuaire de la Compagnie des Agents de Change 1908",
      "source": "annuaire_cac_1908",
      "page": "1335"
    },
    {
      "persons_count": 4,
      "yearbook": "Annuaire Desfossés 1912",
      "source": "annuaire_df_1912",
      "page": "551"
    },
    {
      "persons_count": 2,
      "yearbook": "Annuaire Desfossés 1917",
      "source": "annuaire_df_1917",
      "page": "538"
    },
    {
      "persons_count": 2,
      "yearbook": "Annuaire Desfossés 1917",
      "source": "annuaire_df_1917",
      "page": "1084"
    },
    {
      "persons_count": 2,
      "yearbook": "Annuaire Desfossés 1923",
      "source": "annuaire_df_1923",
      "page": "650"
    },
    {
      "persons_count": 5,
      "yearbook": "Annuaire Desfossés 1927",
      "source": "annuaire_df_1927",
      "page": "588"
    },
    {
      "persons_count": 6,
      "yearbook": "Annuaire Desfossés 1933",
      "source": "annuaire_df_1933",
      "page": "691"
    },
    {
      "persons_count": 6,
      "yearbook": "Annuaire Desfossés 1933",
      "source": "annuaire_df_1933",
      "page": "35"
    },
    {
      "persons_count": 3,
      "yearbook": "Annuaire Desfossés 1940",
      "source": "annuaire_df_1940",
      "page": null
    },
    {
      "persons_count": 5,
      "yearbook": "Annuaire Desfossés 1945",
      "source": "annuaire_df_1945",
      "page": "1427"
    },
    {
      "persons_count": 4,
      "yearbook": "Annuaire Desfossés 1948",
      "source": "annuaire_df_1948",
      "page": "1548"
    },
    {
      "persons_count": 10,
      "yearbook": "Annuaire Desfossés 1953",
      "source": "annuaire_df_1953",
      "page": "1288"
    }
  ],
  "persons_stats": {
    "persons_count": 37,
    "start_date": "1898-01-01",
    "end_date": "1953-12-31"
  },
  "yearbooks_ocrs": [
    {
      "source": "annuaire_cac_1898",
      "yearbook": "Annuaire de la Compagnie des Agents de Change 1898",
      "page": "2007"
    },
    {
      "source": "annuaire_cac_1903",
      "yearbook": "Annuaire de la Compagnie des Agents de Change 1903",
      "page": "1531"
    },
    {
      "source": "annuaire_cac_1908",
      "yearbook": "Annuaire de la Compagnie des Agents de Change 1908",
      "page": "1335"
    },
    {
      "source": "annuaire_df_1912",
      "yearbook": "Annuaire Desfossés 1912",
      "page": "551"
    },
    {
      "source": "annuaire_df_1914",
      "yearbook": "Annuaire Desfossés 1914",
      "page": "600"
    },
    {
      "source": "annuaire_df_1917",
      "yearbook": "Annuaire Desfossés 1917",
      "page": "1084"
    },
    {
      "source": "annuaire_df_1917",
      "yearbook": "Annuaire Desfossés 1917",
      "page": "538"
    },
    {
      "source": "annuaire_df_1920",
      "yearbook": "Annuaire Desfossés 1920",
      "page": "554"
    },
    {
      "source": "annuaire_df_1923",
      "yearbook": "Annuaire Desfossés 1923",
      "page": "650"
    },
    {
      "source": "annuaire_df_1925",
      "yearbook": "Annuaire Desfossés 1925",
      "page": "714"
    },
    {
      "source": "annuaire_df_1927",
      "yearbook": "Annuaire Desfossés 1927",
      "page": "588"
    },
    {
      "source": "annuaire_df_1929",
      "yearbook": "Annuaire Desfossés 1929",
      "page": "626"
    },
    {
      "source": "annuaire_df_1931",
      "yearbook": "Annuaire Desfossés 1931",
      "page": "632"
    },
    {
      "source": "annuaire_df_1933",
      "yearbook": "Annuaire Desfossés 1933",
      "page": "691"
    },
    {
      "source": "annuaire_df_1933",
      "yearbook": "Annuaire Desfossés 1933",
      "page": "35"
    },
    {
      "source": "annuaire_df_1937",
      "yearbook": "Annuaire Desfossés 1937",
      "page": "730"
    },
    {
      "source": "annuaire_df_1940",
      "yearbook": "Annuaire Desfossés 1940",
      "page": null
    },
    {
      "source": "annuaire_df_1945",
      "yearbook": "Annuaire Desfossés 1945",
      "page": "1427"
    },
    {
      "source": "annuaire_df_1948",
      "yearbook": "Annuaire Desfossés 1948",
      "page": "1548"
    },
    {
      "source": "annuaire_df_1953",
      "yearbook": "Annuaire Desfossés 1953",
      "page": "1288"
    }
  ],
  "juridical_status": [
    {
      "juridical_status": "Société Anonyme (Libre)",
      "start_date": "1882-01-14",
      "end_date": "1926-12-31",
      "comments": "Société anonyme formée par acte passé devant M° Masson, notaire à Paris, le 31 décembre 1881, définitivement constituée le 14 janvier 1882, modifiée par décisions des Assemblées générales des 18 avril 1889, 29 mai 1897, 7 et 26 mai 1898 et 7 janvier 1899.  Du 14 janvier 1882 au 31 décembre 1926.",
      "source": "annuaire_cac_1908"
    },
    {
      "juridical_status": "Société Anonyme (Libre)",
      "start_date": "1927-01-01",
      "end_date": "2012-05-01",
      "comments": "Société anonyme française, constituée Je 14 janvier 1882, (pour une durée expirant le 1er mai 2012.",
      "source": "annuaire_df_1948"
    }
  ],
  "equity_capital": [
    {
      "amount": "3.000.000",
      "currency": "Franc",
      "infodate": "1882-01-14",
      "source": "annuaire_cac_1898",
      "comments": "3 millions de francs, divise a l'origine en 600actions de 5,000 fr., dont 200 ont été attribuées entièrement libérées à M. Antoine Breguet, fondateur, en représentation de ses apports détaillés aux statuts; et 400 actions souscrites en espèces et au pair."
    },
    {
      "amount": "4.000.000",
      "currency": "Franc",
      "infodate": "1898-05-26",
      "source": "annuaire_cac_1903",
      "comments": " Par décision des assemblées générales des 7 et 26 mai 1898, le capital a été porté de trois à quatre millions de francs, au moyen de la création de 2,000 actions nouvelles de 500 francs, émises à 675 francs."
    },
    {
      "amount": "8.000.000",
      "currency": "Franc",
      "infodate": "1920-01-01",
      "source": "annuaire_df_1923",
      "comments": "8 millions de francs, divisé enl6.000 actions de 500 francs. A l’origine 3 millions, représenté par 600 actions de 5.000 francs échangées en 1889 contre 6.000 actions de 500 francs à raison de une action ancienne contre 10 nouvelles, porté en 1898 à 4 millions et, en 1920, au chiffre actuel."
    },
    {
      "amount": "12.000.000",
      "currency": "Franc",
      "infodate": "1925-01-01",
      "source": "annuaire_df_1927",
      "comments": "Ï 12millionsde francs, divisé en24.000 actions de 500francs. A l’origine 3 millions, représenté par 600 actions de 5.000 francs échangées en 1889 contre 6.000 actions de 500 francs à raison de une action ancienne contre 10 nouvelles, porté en 1898 à 4 millions, en 1920 à 8 millions et en janvier 1925 à 12 millions par la création de 8.000 nouvelles actions."
    },
    {
      "amount": "18.000.000",
      "currency": "Franc",
      "infodate": "1942-01-01",
      "source": "annuaire_df_1945",
      "comments": "18 millions de francs, divisé en 36.000 actions de 500 fr. A l’origine, 3 millions, représenté par 600 actions de 5.000 francs échangées en 1889 contre 6.000 actions de 500 francs, porté en 1898 à 4 millions, en 1920. à 8 millions, en 1925 à 12 millions (émission à 775 fr.) ; en 1942 à 18 millions (émission à 550 francs)."
    },
    {
      "amount": "30.000.000",
      "currency": "Franc",
      "infodate": "1945-01-01",
      "source": "annuaire_df_1948",
      "comments": "93.120.000 francs, divisé en 186.240 actions de 500 francs. A l'origine, 3 millions, représenté par 600 actions de 5.000 francs échangées en 1889 contre 6.000 actions de 500 francs, porté en 1898 à 4 millions, en 1920 à 8 millions, en 1925 à 12 millions (émission à 775 fr.) ; en 1942 à 18 millions (émission à 650 fr.). Porté en 1945 à 30 millions par l'émission à 600 francs, de 24.000 actions de 500 francs (2 nouv. pour 3 anc.). Porté en 1947 à 90 millions par l'émission à 560 francs de 120.000 actions nouvelles de 500 francs (2 nouv. pour 1 anc.). Porté en 1948 à 93.120.000 francs (actionnaires empêchés)."
    },
    {
      "amount": "90.000.000",
      "currency": "Franc",
      "infodate": "1947-01-01",
      "source": "annuaire_df_1948",
      "comments": "93.120.000 francs, divisé en 186.240 actions de 500 francs. A l'origine, 3 millions, représenté par 600 actions de 5.000 francs échangées en 1889 contre 6.000 actions de 500 francs, porté en 1898 à 4 millions, en 1920 à 8 millions, en 1925 à 12 millions (émission à 775 fr.) ; en 1942 à 18 millions (émission à 650 fr.). Porté en 1945 à 30 millions par l'émission à 600 francs, de 24.000 actions de 500 francs (2 nouv. pour 3 anc.). Porté en 1947 à 90 millions par l'émission à 560 francs de 120.000 actions nouvelles de 500 francs (2 nouv. pour 1 anc.). Porté en 1948 à 93.120.000 francs (actionnaires empêchés)."
    },
    {
      "amount": "93.120.000",
      "currency": "Franc",
      "infodate": "1948-01-01",
      "source": "annuaire_df_1948",
      "comments": "93.120.000 francs, divisé en 186.240 actions de 500 francs. A l'origine, 3 millions, représenté par 600 actions de 5.000 francs échangées en 1889 contre 6.000 actions de 500 francs, porté en 1898 à 4 millions, en 1920 à 8 millions, en 1925 à 12 millions (émission à 775 fr.) ; en 1942 à 18 millions (émission à 650 fr.). Porté en 1945 à 30 millions par l'émission à 600 francs, de 24.000 actions de 500 francs (2 nouv. pour 3 anc.). Porté en 1947 à 90 millions par l'émission à 560 francs de 120.000 actions nouvelles de 500 francs (2 nouv. pour 1 anc.). Porté en 1948 à 93.120.000 francs (actionnaires empêchés)."
    },
    {
      "amount": "139.680.000",
      "currency": "Franc",
      "infodate": "1948-01-02",
      "source": "annuaire_df_1953",
      "comments": " 465.600.000 fr., divisé en 186.240 actions de 2.500 fr.  A l'origine, 3 millions, représenté par 600 actions de 5.000 fr. échangées en 1889 contre 6.000 actions de 500 fr. Porté en 1898 à 4 millions; en 1920 à 8 millions; en 1925 à 12 millions (émission à 775 fr.) ; en 1942 à 18 millions (émission à 550 fr.). Porté en 1945 à 30 millions par l'émission à 600 fr. de 24.000 actions de 500 fr. (2 nouv. pour 3 anc.). Porté en 1947 à 90 millions par l'émission à 560 fr. de 120.000 actions nouvelles de 500 fr. (2 nouv. pour 1 anc.). Porté en 1948 à 93.120.000 fr. (actionnaires empêchés), puis à 139.680.000 fr. par incorporation de réserves et élévation de *500 à 750 fr. du nominal des actions. Porté en 1949 à 310.400.000 fr. par incorporation de 15.520.000 fr. de réserves et élévation du nominal de 750 à 833 fr. 33, avec regroupement des actions 3 à '3 pour porter le nominal à 2.500 fr. ; puis par incorporation de 155.200.000 fr. de réserves et distribution d'une action gratuite de 2.500 fr. pour chaque action ancienne de 2.500 fr. après regroupement. Porté fin 1951 à 465.600.Q00 fr. par émission à 2.800 fr. de 62.080 actions de 2.500 fr. (1 pour 2)."
    },
    {
      "amount": "310.400.000",
      "currency": "Franc",
      "infodate": "1949-01-01",
      "source": "annuaire_df_1953",
      "comments": " 465.600.000 fr., divisé en 186.240 actions de 2.500 fr.  A l'origine, 3 millions, représenté par 600 actions de 5.000 fr. échangées en 1889 contre 6.000 actions de 500 fr. Porté en 1898 à 4 millions; en 1920 à 8 millions; en 1925 à 12 millions (émission à 775 fr.) ; en 1942 à 18 millions (émission à 550 fr.). Porté en 1945 à 30 millions par l'émission à 600 fr. de 24.000 actions de 500 fr. (2 nouv. pour 3 anc.). Porté en 1947 à 90 millions par l'émission à 560 fr. de 120.000 actions nouvelles de 500 fr. (2 nouv. pour 1 anc.). Porté en 1948 à 93.120.000 fr. (actionnaires empêchés), puis à 139.680.000 fr. par incorporation de réserves et élévation de *500 à 750 fr. du nominal des actions. Porté en 1949 à 310.400.000 fr. par incorporation de 15.520.000 fr. de réserves et élévation du nominal de 750 à 833 fr. 33, avec regroupement des actions 3 à '3 pour porter le nominal à 2.500 fr. ; puis par incorporation de 155.200.000 fr. de réserves et distribution d'une action gratuite de 2.500 fr. pour chaque action ancienne de 2.500 fr. après regroupement. Porté fin 1951 à 465.600.Q00 fr. par émission à 2.800 fr. de 62.080 actions de 2.500 fr. (1 pour 2)."
    },
    {
      "amount": "465.600.000",
      "currency": "Franc",
      "infodate": "1951-01-01",
      "source": "annuaire_df_1953",
      "comments": "465.600.000 fr., divisé en 186.240 actions de 2.500 fr."
    }
  ],
  "profit_dividends": [
    {
      "first_date": "1889-04-30",
      "last_date": "1951-12-31",
      "obs_count": 403
    }
  ],
  "public_status": false,
  "stock_exchanges": {
    "1": {
      "id": 1,
      "name": "Paris (Official List)",
      "listings_stats": {
        "start_date": "1892-05-05"
      },
      "spot_prices_stats": {
        "start_date": "1893-11-30",
        "end_date": "1969-01-31"
      }
    }
  },
  "securities": {
    "6786": {
      "id": 6786,
      "name": "Maison Bréguet, obligations 4,5%, remb. à 500 fr.",
      "share_type": {
        "id": 2,
        "name": "Bond (Obligation)"
      },
      "types": [
        {
          "start_date": "1893-11-30",
          "end_date": "3999-12-31",
          "id": 1001,
          "name": "Obligation ordinaire ou classique",
          "stock_group": "B"
        }
      ],
      "start_date": "1893-11-10",
      "end_date": "3999-12-31",
      "prices_from": "1893-11-30",
      "prices_to": "1925-03-31",
      "is_mainstock": 0,
      "prices_count": 159
    },
    "6787": {
      "id": 6787,
      "name": "Maison Bréguet, obl 6%, remb à 500 fr.",
      "share_type": {
        "id": 2,
        "name": "Bond (Obligation)"
      },
      "types": [
        {
          "start_date": "1917-08-31",
          "end_date": "3999-12-31",
          "id": 1001,
          "name": "Obligation ordinaire ou classique",
          "stock_group": "B"
        }
      ],
      "start_date": "1917-08-22",
      "end_date": "3999-12-31",
      "prices_from": "1917-08-31",
      "prices_to": "1932-05-17",
      "is_mainstock": 0,
      "prices_count": 219
    },
    "7007": {
      "id": 7007,
      "name": "Maison Bréguet, act. 750 fr., t. p.",
      "share_type": {
        "id": 1,
        "name": "Stock (Action)"
      },
      "types": [
        {
          "start_date": "1000-01-01",
          "end_date": "3999-12-31",
          "id": 18,
          "name": "Action",
          "stock_group": "S"
        }
      ],
      "start_date": "1893-11-20",
      "end_date": "3999-12-31",
      "prices_from": "1896-06-30",
      "prices_to": "1968-04-30",
      "is_mainstock": 1,
      "prices_count": 1512
    },
    "7262": {
      "id": 7262,
      "name": "Maison Bréguet, oblig. 6% 1921-1922, remb. à 500 fr.",
      "share_type": {
        "id": 2,
        "name": "Bond (Obligation)"
      },
      "types": [
        {
          "start_date": "1921-12-13",
          "end_date": "3999-12-31",
          "id": 1001,
          "name": "Obligation ordinaire ou classique",
          "stock_group": "B"
        }
      ],
      "start_date": "1921-12-13",
      "end_date": "3999-12-31",
      "prices_from": "1921-12-13",
      "prices_to": "1931-05-15",
      "is_mainstock": 0,
      "prices_count": 222
    },
    "9832": {
      "id": 9832,
      "name": "Maison Breguet 4,5% 1930, remboursables à 1000 fr. est. 1934-55",
      "share_type": {
        "id": 2,
        "name": "Bond (Obligation)"
      },
      "types": [
        {
          "start_date": "1931-03-23",
          "end_date": "3999-12-31",
          "id": 1001,
          "name": "Obligation ordinaire ou classique",
          "stock_group": "B"
        }
      ],
      "start_date": "1931-03-23",
      "end_date": "3999-12-31",
      "prices_from": "1931-03-23",
      "prices_to": "1943-08-17",
      "is_mainstock": 0,
      "prices_count": 230
    },
    "11558": {
      "id": 11558,
      "name": "Maison Breguet, act. 500 fr., t.p. (dr. et c. 51 att.)",
      "share_type": {
        "id": 1,
        "name": "Stock (Action)"
      },
      "types": [
        {
          "start_date": "1941-12-30",
          "end_date": "3999-12-31",
          "id": 18,
          "name": "Action",
          "stock_group": "S"
        }
      ],
      "start_date": "1941-12-30",
      "end_date": "3999-12-31",
      "prices_from": "1942-01-05",
      "prices_to": "1942-01-05",
      "is_mainstock": 0,
      "prices_count": 1
    },
    "11896": {
      "id": 11896,
      "name": "Maison Breguet 4% 1943, remb. À 2000 fr. 1947-73",
      "share_type": {
        "id": 2,
        "name": "Bond (Obligation)"
      },
      "types": [
        {
          "start_date": "1943-11-26",
          "end_date": "3999-12-31",
          "id": 1001,
          "name": "Obligation ordinaire ou classique",
          "stock_group": "B"
        }
      ],
      "start_date": "1943-11-26",
      "end_date": "3999-12-31",
      "prices_from": "1943-11-26",
      "prices_to": "1960-12-15",
      "is_mainstock": 0,
      "prices_count": 412
    },
    "12576": {
      "id": 12576,
      "name": "Maison Breguet 4,5% 1947, remb. À 5000 fr. 1951-77",
      "share_type": {
        "id": 2,
        "name": "Bond (Obligation)"
      },
      "types": [
        {
          "start_date": "1947-10-02",
          "end_date": "3999-12-31",
          "id": 1001,
          "name": "Obligation ordinaire ou classique",
          "stock_group": "B"
        }
      ],
      "start_date": "1947-10-02",
      "end_date": "3999-12-31",
      "prices_from": "1947-10-03",
      "prices_to": "1966-03-15",
      "is_mainstock": 0,
      "prices_count": 455
    },
    "14464": {
      "id": 14464,
      "name": "Maison Bréguet, act. 2500 f., t.p. (n° 124161 à 186240) (c. 5 att.)",
      "share_type": {
        "id": 1,
        "name": "Stock (Action)"
      },
      "types": [
        {
          "start_date": "1952-05-26",
          "end_date": "3999-12-31",
          "id": 11,
          "name": "Action ordinaire",
          "stock_group": "S"
        }
      ],
      "start_date": "1952-05-26",
      "end_date": "3999-12-31",
      "prices_from": "1952-05-28",
      "prices_to": "1952-11-17",
      "is_mainstock": 0,
      "prices_count": 15
    },
    "14842": {
      "id": 14842,
      "name": "Maison Bréguet 6% 1953, remboursables à 112F (Tir. 8/12/66) 1954-71",
      "share_type": {
        "id": 2,
        "name": "Bond (Obligation)"
      },
      "types": [
        {
          "start_date": "1953-08-24",
          "end_date": "3999-12-31",
          "id": 1001,
          "name": "Obligation ordinaire ou classique",
          "stock_group": "B"
        }
      ],
      "start_date": "1953-08-24",
      "end_date": "3999-12-31",
      "prices_from": "1953-08-31",
      "prices_to": "1969-01-31",
      "is_mainstock": 0,
      "prices_count": 388
    },
    "16239": {
      "id": 16239,
      "name": "Maison Bréguet, promesses (jce 1/1/60)",
      "share_type": {
        "id": 1,
        "name": "Stock (Action)"
      },
      "types": [
        {
          "start_date": "1960-07-15",
          "end_date": "3999-12-31",
          "id": 27,
          "name": "Promesse d'action",
          "stock_group": "S"
        }
      ],
      "start_date": "1960-07-15",
      "end_date": "3999-12-31",
      "prices_from": "1960-07-15",
      "prices_to": "1960-11-02",
      "is_mainstock": 0,
      "prices_count": 11
    },
    "16499": {
      "id": 16499,
      "name": "Maison breguet 4% 1943-45 (tir 30/3/61) 1973",
      "share_type": {
        "id": 2,
        "name": "Bond (Obligation)"
      },
      "types": [
        {
          "start_date": "1961-01-16",
          "end_date": "3999-12-31",
          "id": 1001,
          "name": "Obligation ordinaire ou classique",
          "stock_group": "B"
        }
      ],
      "start_date": "1961-01-16",
      "end_date": "3999-12-31",
      "prices_from": "1961-01-16",
      "prices_to": "1961-01-16",
      "is_mainstock": 0,
      "prices_count": 1
    },
    "16696": {
      "id": 16696,
      "name": "Maison Bréguet, promesses (Jce 1/1/62)",
      "share_type": {
        "id": 1,
        "name": "Stock (Action)"
      },
      "types": [
        {
          "start_date": "1962-01-15",
          "end_date": "3999-12-31",
          "id": 27,
          "name": "Promesse d'action",
          "stock_group": "S"
        }
      ],
      "start_date": "1962-01-15",
      "end_date": "3999-12-31",
      "prices_from": "1962-01-15",
      "prices_to": "1962-07-16",
      "is_mainstock": 0,
      "prices_count": 17
    },
    "17083": {
      "id": 17083,
      "name": "Maison Bréguet 4% 1943-45 (T. 30/3/61) 1947-73",
      "share_type": {
        "id": 2,
        "name": "Bond (Obligation)"
      },
      "types": [
        {
          "start_date": "1962-01-02",
          "end_date": "3999-12-31",
          "id": 1001,
          "name": "Obligation ordinaire ou classique",
          "stock_group": "B"
        }
      ],
      "start_date": "1962-01-02",
      "end_date": "3999-12-31",
      "prices_from": "1962-01-02",
      "prices_to": "1962-12-17",
      "is_mainstock": 0,
      "prices_count": 24
    },
    "25343": {
      "id": 25343,
      "name": "Maison Breguet, act. 500 fr., t. p nos 16001à 24000",
      "share_type": {
        "id": 1,
        "name": "Stock (Action)"
      },
      "types": [
        {
          "start_date": "1000-01-01",
          "end_date": "3999-12-31",
          "id": 18,
          "name": "Action",
          "stock_group": "S"
        }
      ],
      "start_date": "1925-09-14",
      "end_date": "3999-12-31",
      "prices_from": "1925-09-15",
      "prices_to": "1925-10-15",
      "is_mainstock": 0,
      "prices_count": 3
    },
    "40065": {
      "id": 40065,
      "name": "Maison Breguet act. 500 fr. tp (nos 36001 à 60000) (c 56 att)",
      "share_type": {
        "id": 1,
        "name": "Stock (Action)"
      },
      "types": [
        {
          "start_date": "1000-01-01",
          "end_date": "3999-12-31",
          "id": 18,
          "name": "Action",
          "stock_group": "S"
        }
      ],
      "start_date": "1946-05-16",
      "end_date": "1946-11-15",
      "prices_from": "1946-05-31",
      "prices_to": "1946-10-31",
      "is_mainstock": 0,
      "prices_count": 7
    },
    "40524": {
      "id": 40524,
      "name": "Maison Bréguet, act. nouv. (n°s 6001 à 8000)",
      "share_type": {
        "id": 1,
        "name": "Stock (Action)"
      },
      "types": [
        {
          "start_date": "1000-01-01",
          "end_date": "3999-12-31",
          "id": 18,
          "name": "Action",
          "stock_group": "S"
        }
      ],
      "start_date": "1000-01-01",
      "end_date": "3999-12-31",
      "prices_from": "1898-06-30",
      "prices_to": "1898-08-31",
      "is_mainstock": 0,
      "prices_count": 6
    },
    "100476": {
      "id": 100476,
      "name": "Act. Maison Breguet (droit et coupon 55 ou bon de droit)",
      "share_type": {
        "id": 4,
        "name": "Rights (Droits)"
      },
      "types": [
        {
          "start_date": "1945-08-23",
          "end_date": "1945-09-27",
          "id": 501,
          "name": "Droit de souscription",
          "stock_group": "R"
        }
      ],
      "start_date": "1945-08-23",
      "end_date": "1945-09-27",
      "prices_from": "1945-08-23",
      "prices_to": "1945-08-31",
      "is_mainstock": 0,
      "prices_count": 2
    },
    "100837": {
      "id": 100837,
      "name": "Maison Bréguet (droit et coupon 56). 2 act. nouv. émises à 560 fr. pour 1 act. Anc.",
      "share_type": {
        "id": 4,
        "name": "Rights (Droits)"
      },
      "types": [
        {
          "start_date": "1947-12-08",
          "end_date": "3999-12-31",
          "id": 501,
          "name": "Droit de souscription",
          "stock_group": "R"
        }
      ],
      "start_date": "1947-12-08",
      "end_date": "3999-12-31",
      "prices_from": "1947-12-09",
      "prices_to": "1947-12-09",
      "is_mainstock": 0,
      "prices_count": 1
    },
    "102669": {
      "id": 102669,
      "name": "Act. Maison Bréguet (droit et coupon 39)",
      "share_type": {
        "id": 4,
        "name": "Rights (Droits)"
      },
      "types": [
        {
          "start_date": "1924-12-16",
          "end_date": "3999-12-31",
          "id": 501,
          "name": "Droit de souscription",
          "stock_group": "R"
        }
      ],
      "start_date": "1924-12-16",
      "end_date": "3999-12-31",
      "prices_from": "1924-12-19",
      "prices_to": "1924-12-19",
      "is_mainstock": 0,
      "prices_count": 0
    },
    "103244": {
      "id": 103244,
      "name": "Act.MAISON BREGUET (dr.et coup.5).Pour 2 actions anciennes, 1 action nouvelle émise à 550 francs",
      "share_type": {
        "id": 4,
        "name": "Rights (Droits)"
      },
      "types": [
        {
          "start_date": "1941-12-31",
          "end_date": "1942-01-29",
          "id": 501,
          "name": "Droit de souscription",
          "stock_group": "R"
        }
      ],
      "start_date": "1941-12-31",
      "end_date": "1942-01-29",
      "prices_from": "1941-12-31",
      "prices_to": "1942-01-15",
      "is_mainstock": 0,
      "prices_count": 0
    },
    "103494": {
      "id": 103494,
      "name": "Actions Maison Breguet (droit et coupon n° 30)",
      "share_type": {
        "id": 4,
        "name": "Rights (Droits)"
      },
      "types": [
        {
          "start_date": "1920-05-05",
          "end_date": "1920-05-26",
          "id": 501,
          "name": "Droit de souscription",
          "stock_group": "R"
        }
      ],
      "start_date": "1920-05-05",
      "end_date": "1920-05-26",
      "prices_from": "1920-05-05",
      "prices_to": "1920-05-05",
      "is_mainstock": 0,
      "prices_count": 0
    },
    "103719": {
      "id": 103719,
      "name": "Maison Bréguet (bon bleu 1945). 2 act. nouv. cédées à 650 fr. pour 3 act. Anc.",
      "share_type": {
        "id": 4,
        "name": "Rights (Droits)"
      },
      "types": [
        {
          "start_date": "1948-06-17",
          "end_date": "3999-12-31",
          "id": 501,
          "name": "Droit de souscription",
          "stock_group": "R"
        }
      ],
      "start_date": "1948-06-17",
      "end_date": "3999-12-31",
      "prices_from": null,
      "prices_to": null,
      "is_mainstock": 0,
      "prices_count": 0
    },
    "103720": {
      "id": 103720,
      "name": "Maison Bréguet (bon rouge 1941). 1 act. nouv. cédée à 654 fr. pour 2 act. Anc.",
      "share_type": {
        "id": 4,
        "name": "Rights (Droits)"
      },
      "types": [
        {
          "start_date": "1948-06-17",
          "end_date": "3999-12-31",
          "id": 501,
          "name": "Droit de souscription",
          "stock_group": "R"
        }
      ],
      "start_date": "1948-06-17",
      "end_date": "3999-12-31",
      "prices_from": null,
      "prices_to": null,
      "is_mainstock": 0,
      "prices_count": 0
    },
    "104151": {
      "id": 104151,
      "name": "Maison Breguet, Act. 500 fr., t.p. (nos 60001 a 180000 et 182016 a 186240) (ex-c. 57)",
      "share_type": {
        "id": 2,
        "name": "Bond (Obligation)"
      },
      "types": [
        {
          "start_date": "1948-07-16",
          "end_date": "1948-08-05",
          "id": 18,
          "name": "Action",
          "stock_group": "S"
        }
      ],
      "start_date": "1948-07-16",
      "end_date": "1948-08-05",
      "prices_from": "1948-07-30",
      "prices_to": "1948-07-30",
      "is_mainstock": 0,
      "prices_count": 1
    },
    "105755": {
      "id": 105755,
      "name": "Maison Bréguet (droit et coup 3) (1 act. nouv. de 2500 fr. émise à 2800 fr., jce 1/1/52, pour 2 actions anciennes de 2500 fr.)",
      "share_type": {
        "id": 5,
        "name": "Droits de souscription"
      },
      "types": [
        {
          "start_date": "1951-01-01",
          "end_date": "1952-12-31",
          "id": 501,
          "name": "Droit de souscription",
          "stock_group": "R"
        }
      ],
      "start_date": "1951-01-01",
      "end_date": "1952-12-31",
      "prices_from": null,
      "prices_to": null,
      "is_mainstock": 0,
      "prices_count": 0
    },
    "106281": {
      "id": 106281,
      "share_type": {
        "id": 1,
        "name": "Stock (Action)"
      },
      "types": [
        {
          "start_date": "1960-11-07",
          "end_date": "3999-12-31",
          "id": 18,
          "name": "Action",
          "stock_group": "S"
        }
      ],
      "start_date": "1960-11-07",
      "end_date": "3999-12-31",
      "prices_from": "1960-11-07",
      "prices_to": "1960-11-07",
      "is_mainstock": 0,
      "prices_count": 2
    },
    "106282": {
      "id": 106282,
      "share_type": {
        "id": 1,
        "name": "Stock (Action)"
      },
      "types": [
        {
          "start_date": "1950-03-28",
          "end_date": "3999-12-31",
          "id": 18,
          "name": "Action",
          "stock_group": "S"
        }
      ],
      "start_date": "1950-03-28",
      "end_date": "3999-12-31",
      "prices_from": "1950-03-31",
      "prices_to": "1951-08-31",
      "is_mainstock": 0,
      "prices_count": 28
    }
  }
}