{
  "id": 12115,
  "names": [
    "COMPAGNIE DU FARAONY",
    "Compagnie du Faraony"
  ],
  "name": "COMPAGNIE DU FARAONY",
  "balance_sheets": [
    {
      "start_date": "1912-12-31",
      "source": "Annuaire Desfossés 1914",
      "page": "881"
    }
  ],
  "balance_sheets_stats": {
    "start_date": "1912-12-31",
    "end_date": "1912-12-31"
  },
  "locations_stats": {
    "start_date": "1914-01-01",
    "end_date": "1914-12-31"
  },
  "locations": {
    "Siège social": [
      {
        "location_types_id": 1,
        "location_type": "Siège social",
        "address": "Rue de clichy, 25",
        "city": "Paris",
        "district": "Paris",
        "country": "France",
        "in_yearbook_from": 1914,
        "in_yearbook_to": 1914
      }
    ]
  },
  "persons": [],
  "persons_stats": {
    "persons_count": 0,
    "start_date": null,
    "end_date": null
  },
  "yearbooks_ocrs": [
    {
      "source": "annuaire_df_1914",
      "yearbook": "Annuaire Desfossés 1914",
      "page": "881"
    }
  ],
  "juridical_status": [
    {
      "juridical_status": "Société Anonyme (Libre)",
      "start_date": "1911-12-15",
      "end_date": "1961-12-15",
      "comments": "Société anonyme française, constituée le 15 décembre 1911, pour une durée de 50 ans.",
      "source": "annuaire_df_1914"
    }
  ],
  "equity_capital": [],
  "profit_dividends": [],
  "public_status": false
}