{
  "id": 3332,
  "names": [
    "Compagnie Lyonnaise de Tramways"
  ],
  "name": "Compagnie Lyonnaise de Tramways",
  "balance_sheets": [],
  "balance_sheets_stats": {
    "start_date": null,
    "end_date": null
  },
  "locations_stats": {
    "start_date": "1898-01-01",
    "end_date": "1898-12-31"
  },
  "locations": {
    "Siège social": [
      {
        "location_types_id": 1,
        "location_type": "Siège social",
        "address": null,
        "city": "Lyon",
        "district": "Rhône",
        "country": "France",
        "in_yearbook_from": 1898,
        "in_yearbook_to": 1898
      }
    ],
    "Siège administratif / Bureaux": [
      {
        "location_types_id": 2,
        "location_type": "Siège administratif / Bureaux",
        "address": "Rue la fayette, 3",
        "city": "Paris",
        "district": "Paris",
        "country": "France",
        "in_yearbook_from": 1898,
        "in_yearbook_to": 1898
      }
    ]
  },
  "persons": [
    {
      "persons_count": 4,
      "yearbook": "Annuaire de la Compagnie des Agents de Change 1898",
      "source": "annuaire_cac_1898",
      "page": "1148"
    }
  ],
  "persons_stats": {
    "persons_count": 4,
    "start_date": "1898-01-01",
    "end_date": "1898-12-31"
  },
  "yearbooks_ocrs": [
    {
      "source": "annuaire_cac_1898",
      "yearbook": "Annuaire de la Compagnie des Agents de Change 1898",
      "page": "1148"
    }
  ],
  "juridical_status": [
    {
      "juridical_status": "Société Anonyme (Libre)",
      "start_date": "1893-01-04",
      "end_date": "1992-01-04",
      "comments": "Société anonyme formée par acte sous seings privés du 26 décembre 1892, défltivement constituée le 4 janvier 1893 ; moditiée par décisions des assemblées générales des 17 juillet et 24 décembre 1894, et 7 mars 1896.",
      "source": "annuaire_cac_1898"
    }
  ],
  "equity_capital": [
    {
      "amount": "2.000.000",
      "currency": "Franc",
      "infodate": "1893-01-04",
      "source": "annuaire_cac_1898",
      "comments": "Fixé à L'origine a 2 millions, divisé en 4,000 actions de 500 fr. dont : 2,000 ont été souscrites en espèces et au pair et 2,000 ont été attribuées entièrement libérées à la liquidation de la Compagnie Lyonnaise de Tramways et chemins de fer, en représentation de l’apport des deux lignes de tramways de Bron et de Monplaisir à Lyon, dont elle était concessionnaire."
    },
    {
      "amount": "3.000.000",
      "currency": "Franc",
      "infodate": "1894-12-24",
      "source": "annuaire_cac_1898",
      "comments": "Par décision des assemblées générales des 17 juillet et 24 décembre 1894, le capital social a été porté à 3 millions par la création de 2,000 actions de 500 francs."
    },
    {
      "amount": "4.000.000",
      "currency": "Franc",
      "infodate": "1896-03-07",
      "source": "annuaire_cac_1898",
      "comments": "Et par décision de l’Assemblée générale du 7 mars 1896, le capital a été porté à 4 millions de francs, au moyen de la création de 2.000 actions nouvelles de 500 francs."
    }
  ],
  "profit_dividends": [
    {
      "first_date": "1893-12-31",
      "last_date": "1896-12-31",
      "obs_count": 4
    }
  ],
  "public_status": false,
  "stock_exchanges": {
    "1": {
      "id": 1,
      "name": "Paris (Official List)",
      "listings_stats": {
        "start_date": "1895-03-25"
      },
      "spot_prices_stats": {
        "start_date": "1895-04-01",
        "end_date": "1901-01-31"
      }
    },
    "2": {
      "id": 2,
      "name": "Paris OTC (Coulisse)",
      "listings_stats": {
        "start_date": "1889-11-15"
      },
      "spot_prices_stats": {
        "start_date": "1889-11-15",
        "end_date": "1895-03-14"
      }
    }
  },
  "securities": {
    "4983": {
      "id": 4983,
      "name": "Cie Lyonnaise de Tramways 125fp",
      "share_type": {
        "id": 1,
        "name": "Stock (Action)"
      },
      "types": [
        {
          "start_date": "1889-11-15",
          "end_date": "3999-12-31",
          "id": 18,
          "name": "Action",
          "stock_group": "S"
        }
      ],
      "start_date": "1889-11-15",
      "end_date": "3999-12-31",
      "prices_from": "1889-11-15",
      "prices_to": "1901-01-31",
      "is_mainstock": 1,
      "prices_count": 176
    }
  }
}