{
  "id": 2100,
  "names": [
    "LE PATRIMOINE (Compagnie anonyme d'assurances sur la vie)",
    "LE PATRIMOINE COMPAGNIE ANONYME D'ASSURANCE8 SUR LA VIE",
    "LE PATRIMOINE COMPAGNIE ANONYME D'ASSURANCES SUR LA VIE",
    "LE PATRIMOINE OOMPAQNIE ANONYME D'ASSURANCES SUR LA VIE",
    "LE PATRIMOINE OOMPAQNtg ANONYME D'ASSURANCES SUR LA VIE",
    "Le Patrimoine (Compagnie d'assurance sur la vie et de prêts viagers)",
    "Le Patrimoine, compagnie anonyme d'assurances sur la vie",
    "Le Patrimoine, compagnie anonyme d'assurances sur la vie et de prêts viagers"
  ],
  "name": "LE PATRIMOINE COMPAGNIE ANONYME D'ASSURANCES SUR LA VIE",
  "balance_sheets": [
    {
      "start_date": "1910-12-31",
      "source": "Annuaire Desfossés 1912",
      "page": "160"
    },
    {
      "start_date": "1912-12-31",
      "source": "Annuaire Desfossés 1914",
      "page": "175"
    },
    {
      "start_date": "1915-12-31",
      "source": "Annuaire Desfossés 1917",
      "page": "141"
    },
    {
      "start_date": "1919-12-31",
      "source": "Annuaire Desfossés 1920",
      "page": "147"
    },
    {
      "start_date": "1922-12-31",
      "source": "Annuaire Desfossés 1923",
      "page": "168"
    },
    {
      "start_date": "1923-12-31",
      "source": "Annuaire Desfossés 1925",
      "page": "182"
    },
    {
      "start_date": "1925-12-31",
      "source": "Annuaire Desfossés 1927",
      "page": "143"
    },
    {
      "start_date": "1927-12-31",
      "source": "Annuaire Desfossés 1929",
      "page": "145"
    },
    {
      "start_date": "1929-12-31",
      "source": "Annuaire Desfossés 1931",
      "page": "144"
    },
    {
      "start_date": "1931-12-31",
      "source": "Annuaire Desfossés 1933",
      "page": "155"
    },
    {
      "start_date": "1932-12-31",
      "source": "Annuaire Desfossés 1936",
      "page": null
    },
    {
      "start_date": "1933-12-31",
      "source": "Annuaire Desfossés 1937",
      "page": "184"
    },
    {
      "start_date": "1934-12-31",
      "source": "Annuaire Desfossés 1937",
      "page": "184"
    },
    {
      "start_date": "1935-12-31",
      "source": "Annuaire Desfossés 1940",
      "page": null
    },
    {
      "start_date": "1936-12-31",
      "source": "Annuaire Desfossés 1940",
      "page": null
    },
    {
      "start_date": "1937-12-31",
      "source": "Annuaire Desfossés 1945",
      "page": "201"
    },
    {
      "start_date": "1938-12-31",
      "source": "Annuaire Desfossés 1945",
      "page": "201"
    },
    {
      "start_date": "1941-12-31",
      "source": "Annuaire Desfossés 1945",
      "page": "201"
    },
    {
      "start_date": "1942-12-31",
      "source": "Annuaire Desfossés 1945",
      "page": "201"
    },
    {
      "start_date": "1943-12-31",
      "source": "Annuaire Desfossés 1948",
      "page": "213"
    },
    {
      "start_date": "1944-12-31",
      "source": "Annuaire Desfossés 1948",
      "page": "213"
    },
    {
      "start_date": "1945-12-31",
      "source": "Annuaire Desfossés 1948",
      "page": "213"
    },
    {
      "start_date": "1946-12-31",
      "source": "Annuaire Desfossés 1948",
      "page": "213"
    },
    {
      "start_date": "1947-12-31",
      "source": "Annuaire Desfossés 1953",
      "page": "43"
    },
    {
      "start_date": "1948-12-31",
      "source": "Annuaire Desfossés 1953",
      "page": "43"
    },
    {
      "start_date": "1949-12-31",
      "source": "Annuaire Desfossés 1953",
      "page": "43"
    },
    {
      "start_date": "1950-12-31",
      "source": "Annuaire Desfossés 1953",
      "page": "43"
    },
    {
      "start_date": "1951-12-31",
      "source": "Annuaire Desfossés 1953",
      "page": "43"
    }
  ],
  "balance_sheets_stats": {
    "start_date": "1910-12-31",
    "end_date": "1951-12-31"
  },
  "locations_stats": {
    "start_date": "1889-01-01",
    "end_date": "1953-12-31"
  },
  "locations": {
    "Siège social": [
      {
        "location_types_id": 1,
        "location_type": "Siège social",
        "address": "Rue de la chaussée-d'antin, 55",
        "city": "Paris",
        "district": "Paris",
        "country": "France",
        "in_yearbook_from": 1889,
        "in_yearbook_to": 1898
      },
      {
        "location_types_id": 1,
        "location_type": "Siège social",
        "address": "Rue taitbout, 59",
        "city": "Paris",
        "district": "Paris",
        "country": "France",
        "in_yearbook_from": 1903,
        "in_yearbook_to": 1912
      },
      {
        "location_types_id": 1,
        "location_type": "Siège social",
        "address": "Rue de mogador, 32",
        "city": "Paris",
        "district": "Paris",
        "country": "France",
        "in_yearbook_from": 1914,
        "in_yearbook_to": 1948
      },
      {
        "location_types_id": 1,
        "location_type": "Siège social",
        "address": "Rue drouot, 26-28",
        "city": "Paris",
        "district": "Paris",
        "country": "France",
        "in_yearbook_from": 1953,
        "in_yearbook_to": 1953
      }
    ]
  },
  "persons": [
    {
      "persons_count": 5,
      "yearbook": "Annuaire de la Compagnie des Agents de Change 1888",
      "source": "annuaire_cac_1888",
      "page": "316"
    },
    {
      "persons_count": 8,
      "yearbook": "Annuaire de la Compagnie des Agents de Change 1893",
      "source": "annuaire_cac_1893",
      "page": "354"
    },
    {
      "persons_count": 12,
      "yearbook": "Annuaire de la Compagnie des Agents de Change 1898",
      "source": "annuaire_cac_1898",
      "page": "446"
    },
    {
      "persons_count": 7,
      "yearbook": "Annuaire de la Compagnie des Agents de Change 1903",
      "source": "annuaire_cac_1903",
      "page": "456"
    },
    {
      "persons_count": 7,
      "yearbook": "Annuaire de la Compagnie des Agents de Change 1908",
      "source": "annuaire_cac_1908",
      "page": "397"
    },
    {
      "persons_count": 5,
      "yearbook": "Annuaire Desfossés 1912",
      "source": "annuaire_df_1912",
      "page": "160"
    },
    {
      "persons_count": 5,
      "yearbook": "Annuaire Desfossés 1917",
      "source": "annuaire_df_1917",
      "page": "141"
    },
    {
      "persons_count": 5,
      "yearbook": "Annuaire Desfossés 1923",
      "source": "annuaire_df_1923",
      "page": "168"
    },
    {
      "persons_count": 10,
      "yearbook": "Annuaire Desfossés 1927",
      "source": "annuaire_df_1927",
      "page": "143"
    },
    {
      "persons_count": 13,
      "yearbook": "Annuaire Desfossés 1933",
      "source": "annuaire_df_1933",
      "page": "155"
    },
    {
      "persons_count": 6,
      "yearbook": "Annuaire Desfossés 1940",
      "source": "annuaire_df_1940",
      "page": null
    },
    {
      "persons_count": 2,
      "yearbook": "Annuaire Desfossés 1945",
      "source": "annuaire_df_1945",
      "page": "201"
    },
    {
      "persons_count": 5,
      "yearbook": "Annuaire Desfossés 1948",
      "source": "annuaire_df_1948",
      "page": "213"
    },
    {
      "persons_count": 11,
      "yearbook": "Annuaire Desfossés 1953",
      "source": "annuaire_df_1953",
      "page": "43"
    }
  ],
  "persons_stats": {
    "persons_count": 69,
    "start_date": "1889-01-01",
    "end_date": "1953-12-31"
  },
  "yearbooks_ocrs": [
    {
      "source": "annuaire_cac_1888",
      "yearbook": "Annuaire de la Compagnie des Agents de Change 1888",
      "page": "316"
    },
    {
      "source": "annuaire_cac_1893",
      "yearbook": "Annuaire de la Compagnie des Agents de Change 1893",
      "page": "354"
    },
    {
      "source": "annuaire_cac_1898",
      "yearbook": "Annuaire de la Compagnie des Agents de Change 1898",
      "page": "446"
    },
    {
      "source": "annuaire_cac_1903",
      "yearbook": "Annuaire de la Compagnie des Agents de Change 1903",
      "page": "456"
    },
    {
      "source": "annuaire_cac_1908",
      "yearbook": "Annuaire de la Compagnie des Agents de Change 1908",
      "page": "397"
    },
    {
      "source": "annuaire_df_1912",
      "yearbook": "Annuaire Desfossés 1912",
      "page": "160"
    },
    {
      "source": "annuaire_df_1914",
      "yearbook": "Annuaire Desfossés 1914",
      "page": "175"
    },
    {
      "source": "annuaire_df_1917",
      "yearbook": "Annuaire Desfossés 1917",
      "page": "141"
    },
    {
      "source": "annuaire_df_1920",
      "yearbook": "Annuaire Desfossés 1920",
      "page": "147"
    },
    {
      "source": "annuaire_df_1923",
      "yearbook": "Annuaire Desfossés 1923",
      "page": "168"
    },
    {
      "source": "annuaire_df_1925",
      "yearbook": "Annuaire Desfossés 1925",
      "page": "182"
    },
    {
      "source": "annuaire_df_1927",
      "yearbook": "Annuaire Desfossés 1927",
      "page": "143"
    },
    {
      "source": "annuaire_df_1929",
      "yearbook": "Annuaire Desfossés 1929",
      "page": "145"
    },
    {
      "source": "annuaire_df_1931",
      "yearbook": "Annuaire Desfossés 1931",
      "page": "144"
    },
    {
      "source": "annuaire_df_1933",
      "yearbook": "Annuaire Desfossés 1933",
      "page": "155"
    },
    {
      "source": "annuaire_df_1937",
      "yearbook": "Annuaire Desfossés 1937",
      "page": "184"
    },
    {
      "source": "annuaire_df_1940",
      "yearbook": "Annuaire Desfossés 1940",
      "page": null
    },
    {
      "source": "annuaire_df_1945",
      "yearbook": "Annuaire Desfossés 1945",
      "page": "201"
    },
    {
      "source": "annuaire_df_1948",
      "yearbook": "Annuaire Desfossés 1948",
      "page": "213"
    },
    {
      "source": "annuaire_df_1953",
      "yearbook": "Annuaire Desfossés 1953",
      "page": "43"
    }
  ],
  "juridical_status": [
    {
      "juridical_status": "Société Anonyme (Libre)",
      "start_date": "1877-12-08",
      "end_date": "1976-10-27",
      "comments": "Société anonyme dont les statuts ont été dressés par acte passé devant Mc Dufour, notaire à Paris, le 3 octobre 1877, autorisée par décret du 27 du même mois, définitivement constituée par l’Assemblée générale du 8 décembre 1877.",
      "source": "annuaire_cac_1888"
    }
  ],
  "equity_capital": [
    {
      "amount": "5.000.000",
      "currency": "Franc",
      "infodate": "1877-12-08",
      "source": "annuaire_cac_1888",
      "comments": "5 millions divise en 5,000 actions de 1,000 fr., émises au pair, libérées de 250 fr. et nominatives. "
    },
    {
      "amount": "2.500.000",
      "currency": "Franc",
      "infodate": "1911-01-01",
      "source": "annuaire_df_1912",
      "comments": "2.500.000 francs, divisé en 5.000 actions de 500 francs libérées de 125 francs et nominatives. A l’origine, 5 millions de francs divisé en 5.000 actions de 1.000 francs libérées de 250 francs, ramené en 1911 au chiffre actuel."
    },
    {
      "amount": "625.000",
      "currency": "Franc",
      "infodate": "1925-01-01",
      "source": "annuaire_df_1927",
      "comments": "6.000.000 de francs, divisé en 48.000 actions de 125 francs libérées. A l’origine 5 millions de francs divisé en 5.000 actions de 1.000 francs libérées de 250 francs, ramené en 1911 à 2.500.000 francs, puis en 1925 à 625.000 francs et reporté aussitôt au chiffre actuel."
    },
    {
      "amount": "6.000.000",
      "currency": "Franc",
      "infodate": "1925-01-02",
      "source": "annuaire_df_1927",
      "comments": "6.000.000 de francs, divisé en 48.000 actions de 125 francs libérées. A l’origine 5 millions de francs divisé en 5.000 actions de 1.000 francs libérées de 250 francs, ramené en 1911 à 2.500.000 francs, puis en 1925 à 625.000 francs et reporté aussitôt au chiffre actuel."
    },
    {
      "amount": "30.000.000",
      "currency": "Franc",
      "infodate": "1949-01-01",
      "source": "annuaire_df_1953",
      "comments": "120 millions de fr., divisé en 48.000 actions de 2.500 fr. nominatives. A l'origine, 5 millions, divisé en 5.000 actions de 1.000 fr. libérées de 250 fr. Ramené en 1911 à 2.500.000 fr., par l'échange contre 2.500 actions nominatives de 500 fr. libérées de 125 fr., puis de 250 fr., sous réserve des droits afférents aux contrats antérieurs à la réduction. Puis en 1925 le capital a été ramené à 625.000 fr. par réduction à 125 fr. de la valeur nominale des 5.000 actions de 500 fr. Enfin le capital a été porté à 6 millions par l'émission au pair de 43.000 actions nouvelles de 125 fr. Porté en 1949 à 30 millions par élévation du nominal de 125 à 625 fr. En 1952 porté à 120 millions par élévation du nominal à 2.500 fr. Le cessionnaire, sauf vente publique ou judiciaire, doit être agréé par le Conseil d'administration."
    },
    {
      "amount": "120.000.000",
      "currency": "Franc",
      "infodate": "1952-01-01",
      "source": "annuaire_df_1953",
      "comments": "120 millions de fr., divisé en 48.000 actions de 2.500 fr. nominatives. A l'origine, 5 millions, divisé en 5.000 actions de 1.000 fr. libérées de 250 fr. Ramené en 1911 à 2.500.000 fr., par l'échange contre 2.500 actions nominatives de 500 fr. libérées de 125 fr., puis de 250 fr., sous réserve des droits afférents aux contrats antérieurs à la réduction. Puis en 1925 le capital a été ramené à 625.000 fr. par réduction à 125 fr. de la valeur nominale des 5.000 actions de 500 fr. Enfin le capital a été porté à 6 millions par l'émission au pair de 43.000 actions nouvelles de 125 fr. Porté en 1949 à 30 millions par élévation du nominal de 125 à 625 fr. En 1952 porté à 120 millions par élévation du nominal à 2.500 fr. Le cessionnaire, sauf vente publique ou judiciaire, doit être agréé par le Conseil d'administration."
    }
  ],
  "profit_dividends": [
    {
      "first_date": "1878-12-31",
      "last_date": "1951-12-31",
      "obs_count": 290
    }
  ],
  "public_status": false,
  "stock_exchanges": {
    "1": {
      "id": 1,
      "name": "Paris (Official List)",
      "listings_stats": {
        "start_date": "1888-03-02"
      },
      "spot_prices_stats": {
        "start_date": "1888-03-02",
        "end_date": "1967-12-15"
      }
    },
    "2": {
      "id": 2,
      "name": "Paris OTC (Coulisse)",
      "listings_stats": {
        "start_date": "1881-01-15"
      },
      "spot_prices_stats": {
        "start_date": "1881-01-17",
        "end_date": "1892-03-16"
      }
    }
  },
  "securities": {
    "3198": {
      "id": 3198,
      "name": "Patrimoine (Le) (vie), act. 125 fr., t. p. (nom.) (Jce 9/7/45)",
      "share_type": {
        "id": 1,
        "name": "Stock (Action)"
      },
      "types": [
        {
          "start_date": "1881-01-15",
          "end_date": "3999-12-31",
          "id": 18,
          "name": "Action",
          "stock_group": "S"
        }
      ],
      "start_date": "1881-01-15",
      "end_date": "3999-12-31",
      "prices_from": "1881-01-17",
      "prices_to": "1967-12-15",
      "is_mainstock": 1,
      "prices_count": 1224
    },
    "8216": {
      "id": 8216,
      "name": "Patrimoine (Le) (vie), act. 500 fr., 250 fr. p. sous réserves formul. à l'art. 11 des statuts, non estampillées (Cessionnaire soumis à l'agrément du Conseil d'Administration)",
      "share_type": {
        "id": 1,
        "name": "Stock (Action)"
      },
      "types": [
        {
          "start_date": "1925-08-24",
          "end_date": "3999-12-31",
          "id": 18,
          "name": "Action",
          "stock_group": "S"
        }
      ],
      "start_date": "1925-08-24",
      "end_date": "3999-12-31",
      "prices_from": null,
      "prices_to": null,
      "is_mainstock": 0,
      "prices_count": 0
    },
    "8495": {
      "id": 8495,
      "name": "Patrimoine (Le) (vie), act. 125 fr., t. p. (n°s 5001 à 48000) (nom.) (Jce 20/11/45)",
      "share_type": {
        "id": 1,
        "name": "Stock (Action)"
      },
      "types": [
        {
          "start_date": "1926-05-27",
          "end_date": "3999-12-31",
          "id": 18,
          "name": "Action",
          "stock_group": "S"
        }
      ],
      "start_date": "1926-05-27",
      "end_date": "3999-12-31",
      "prices_from": "1926-06-03",
      "prices_to": "1950-07-17",
      "is_mainstock": 0,
      "prices_count": 283
    },
    "102068": {
      "id": 102068,
      "name": "Act. Cie d'Assurances sur la Vie \"Le Patrimoine\"",
      "share_type": {
        "id": 4,
        "name": "Rights (Droits)"
      },
      "types": [
        {
          "start_date": "1925-08-24",
          "end_date": "1925-11-12",
          "id": 501,
          "name": "Droit de souscription",
          "stock_group": "R"
        }
      ],
      "start_date": "1925-08-24",
      "end_date": "1925-11-12",
      "prices_from": null,
      "prices_to": null,
      "is_mainstock": 0,
      "prices_count": 0
    }
  }
}