{
  "id": 3494,
  "names": [
    "COMPAGNIE NATIONALE DU RHONE",
    "Compagnie Nationale du Rhône"
  ],
  "name": "COMPAGNIE NATIONALE DU RHONE",
  "balance_sheets": [
    {
      "start_date": "1941-12-31",
      "source": "Annuaire Desfossés 1945",
      "page": "1369"
    },
    {
      "start_date": "1942-12-31",
      "source": "Annuaire Desfossés 1945",
      "page": "1369"
    },
    {
      "start_date": "1943-12-31",
      "source": "Annuaire Desfossés 1945",
      "page": "1369"
    },
    {
      "start_date": "1944-12-31",
      "source": "Annuaire Desfossés 1948",
      "page": "1483"
    },
    {
      "start_date": "1945-12-31",
      "source": "Annuaire Desfossés 1948",
      "page": "1483"
    },
    {
      "start_date": "1946-12-31",
      "source": "Annuaire Desfossés 1948",
      "page": "1483"
    },
    {
      "start_date": "1947-12-31",
      "source": "Annuaire Desfossés 1948",
      "page": "1483"
    },
    {
      "start_date": "1949-12-31",
      "source": "Annuaire Desfossés 1953",
      "page": "1258"
    },
    {
      "start_date": "1950-12-31",
      "source": "Annuaire Desfossés 1953",
      "page": "1258"
    },
    {
      "start_date": "1951-12-31",
      "source": "Annuaire Desfossés 1953",
      "page": "1258"
    }
  ],
  "balance_sheets_stats": {
    "start_date": "1941-12-31",
    "end_date": "1951-12-31"
  },
  "locations_stats": {
    "start_date": "1940-01-01",
    "end_date": "1953-12-31"
  },
  "locations": {
    "Siège social": [
      {
        "location_types_id": 1,
        "location_type": "Siège social",
        "address": "Boulevard jules-favre, 10",
        "city": "Lyon",
        "district": "Rhône",
        "country": "France",
        "in_yearbook_from": 1940,
        "in_yearbook_to": 1953
      }
    ],
    "Siège administratif / Bureaux": [
      {
        "location_types_id": 2,
        "location_type": "Siège administratif / Bureaux",
        "address": "Boulevard raspail, 28",
        "city": "Paris",
        "district": "Paris",
        "country": "France",
        "in_yearbook_from": 1945,
        "in_yearbook_to": 1953
      }
    ]
  },
  "persons": [
    {
      "persons_count": 40,
      "yearbook": "Annuaire Desfossés 1940",
      "source": "annuaire_df_1940",
      "page": null
    },
    {
      "persons_count": 10,
      "yearbook": "Annuaire Desfossés 1948",
      "source": "annuaire_df_1948",
      "page": "1483"
    },
    {
      "persons_count": 14,
      "yearbook": "Annuaire Desfossés 1953",
      "source": "annuaire_df_1953",
      "page": "1258"
    }
  ],
  "persons_stats": {
    "persons_count": 57,
    "start_date": "1940-01-01",
    "end_date": "1953-12-31"
  },
  "yearbooks_ocrs": [
    {
      "source": "annuaire_df_1940",
      "yearbook": "Annuaire Desfossés 1940",
      "page": null
    },
    {
      "source": "annuaire_df_1945",
      "yearbook": "Annuaire Desfossés 1945",
      "page": "1369"
    },
    {
      "source": "annuaire_df_1948",
      "yearbook": "Annuaire Desfossés 1948",
      "page": "1483"
    },
    {
      "source": "annuaire_df_1953",
      "yearbook": "Annuaire Desfossés 1953",
      "page": "1258"
    }
  ],
  "juridical_status": [
    {
      "juridical_status": "Société Anonyme (Libre)",
      "start_date": "1934-06-14",
      "end_date": "2033-06-14",
      "comments": "Société anonyme française constituée le 14 juin 1934 pour une durée de 99 ans.",
      "source": "annuaire_df_1940"
    }
  ],
  "equity_capital": [
    {
      "amount": "240.000.000",
      "currency": "Franc",
      "infodate": "1934-06-14",
      "source": "annuaire_df_1940",
      "comments": "240 millions en 240.000 actions de 1.000 fr. liberees du quart : les actions ont été statutairement réparties en quatre fractions de 60.000 titres chacune entre : 1° Collectivités et établissements publies de la région parisienne (actions A) ; 2° Collectivités et établissements publics de la vallée du Rhône (actions B) ; 3° S. N. C. F. (actions C) ; 4° Services concédés, industriels, consommateurs d’énergie électrique ou ‘d’eau, sociétés, particuliers (actions D).\nToutes les actions ont les mêmes droits, sauf le droit d’option sur l’énergie électrique produite par la Compagnie (réservé aux porteurs de 500 actions A ou B). Elles sont obligatoirement nominatives, mais leur cession est libre."
    }
  ],
  "profit_dividends": [
    {
      "first_date": "1949-12-31",
      "last_date": "1951-12-31",
      "obs_count": 18
    }
  ],
  "public_status": false,
  "stock_exchanges": {
    "1": {
      "id": 1,
      "name": "Paris (Official List)",
      "listings_stats": {
        "start_date": "1939-10-12"
      },
      "spot_prices_stats": {
        "start_date": "1939-10-12",
        "end_date": "1976-12-31"
      }
    }
  },
  "securities": {
    "11330": {
      "id": 11330,
      "name": "Nationale du Rhône (Cie) 5,5% 1939, remboursables à 1000 fr. 1940-69.",
      "share_type": {
        "id": 2,
        "name": "Bond (Obligation)"
      },
      "types": [
        {
          "start_date": "1939-10-12",
          "end_date": "3999-12-31",
          "id": 1001,
          "name": "Obligation ordinaire ou classique",
          "stock_group": "B"
        }
      ],
      "start_date": "1939-10-12",
      "end_date": "3999-12-31",
      "prices_from": "1939-10-12",
      "prices_to": "1942-05-15",
      "is_mainstock": 0,
      "prices_count": 64
    },
    "11331": {
      "id": 11331,
      "name": "Nationale du Rhône (Cie) 5,5% 1939 r.à 5000 f. (n°102106 à 121684) 1940-69",
      "share_type": {
        "id": 2,
        "name": "Bond (Obligation)"
      },
      "types": [
        {
          "start_date": "1939-10-12",
          "end_date": "3999-12-31",
          "id": 1001,
          "name": "Obligation ordinaire ou classique",
          "stock_group": "B"
        }
      ],
      "start_date": "1939-10-12",
      "end_date": "3999-12-31",
      "prices_from": "1939-10-12",
      "prices_to": "1942-05-15",
      "is_mainstock": 0,
      "prices_count": 63
    },
    "11599": {
      "id": 11599,
      "name": "Nationale du Rhône 4% 1941 (Rachats ou Tirages) 1946-75",
      "share_type": {
        "id": 2,
        "name": "Bond (Obligation)"
      },
      "types": [
        {
          "start_date": "1942-02-17",
          "end_date": "3999-12-31",
          "id": 1001,
          "name": "Obligation ordinaire ou classique",
          "stock_group": "B"
        }
      ],
      "start_date": "1942-02-17",
      "end_date": "3999-12-31",
      "prices_from": "1942-02-17",
      "prices_to": "1973-08-31",
      "is_mainstock": 0,
      "prices_count": 760
    },
    "11852": {
      "id": 11852,
      "name": "Nationale du Rhône 4% 1942 (nos 100001 à 188140) (Rachats ou tirages) 1947-76",
      "share_type": {
        "id": 2,
        "name": "Bond (Obligation)"
      },
      "types": [
        {
          "start_date": "1942-12-07",
          "end_date": "3999-12-31",
          "id": 1001,
          "name": "Obligation ordinaire ou classique",
          "stock_group": "B"
        }
      ],
      "start_date": "1942-12-07",
      "end_date": "3999-12-31",
      "prices_from": "1942-12-07",
      "prices_to": "1976-04-30",
      "is_mainstock": 0,
      "prices_count": 804
    },
    "12214": {
      "id": 12214,
      "name": "Nationale du Rhône 3,5% 1945 (R. ou T.) (Avis 22093) 1951-95",
      "share_type": {
        "id": 2,
        "name": "Bond (Obligation)"
      },
      "types": [
        {
          "start_date": "1946-04-30",
          "end_date": "3999-12-31",
          "id": 1001,
          "name": "Obligation ordinaire ou classique",
          "stock_group": "B"
        }
      ],
      "start_date": "1946-04-30",
      "end_date": "3999-12-31",
      "prices_from": "1946-04-30",
      "prices_to": "1976-12-31",
      "is_mainstock": 0,
      "prices_count": 751
    },
    "13211": {
      "id": 13211,
      "name": "Nationale du Rhône 4,75% 1947-52 (Rachats ou Tirages) (Cf Avis n° 30343) E 1953-82",
      "share_type": {
        "id": 2,
        "name": "Bond (Obligation)"
      },
      "types": [
        {
          "start_date": "1948-12-24",
          "end_date": "3999-12-31",
          "id": 1001,
          "name": "Obligation ordinaire ou classique",
          "stock_group": "B"
        }
      ],
      "start_date": "1948-12-24",
      "end_date": "3999-12-31",
      "prices_from": "1949-01-17",
      "prices_to": "1956-01-03",
      "is_mainstock": 0,
      "prices_count": 167
    },
    "13382": {
      "id": 13382,
      "name": "Nationale du Rhône 5% 1948-53 (Rachats ou Tirages) (Cf Avis n° 30620) E 1949-83",
      "share_type": {
        "id": 2,
        "name": "Bond (Obligation)"
      },
      "types": [
        {
          "start_date": "1949-09-22",
          "end_date": "3999-12-31",
          "id": 1001,
          "name": "Obligation ordinaire ou classique",
          "stock_group": "B"
        }
      ],
      "start_date": "1949-09-22",
      "end_date": "3999-12-31",
      "prices_from": "1949-09-22",
      "prices_to": "1956-01-03",
      "is_mainstock": 0,
      "prices_count": 155
    },
    "13477": {
      "id": 13477,
      "name": "Nationale du Rhône 6% 1949 (Tir. 27/4/62) (Avis 26357) 1950-84",
      "share_type": {
        "id": 2,
        "name": "Bond (Obligation)"
      },
      "types": [
        {
          "start_date": "1950-01-24",
          "end_date": "3999-12-31",
          "id": 1001,
          "name": "Obligation ordinaire ou classique",
          "stock_group": "B"
        }
      ],
      "start_date": "1950-01-24",
      "end_date": "3999-12-31",
      "prices_from": "1950-01-24",
      "prices_to": "1976-12-31",
      "is_mainstock": 0,
      "prices_count": 663
    },
    "14273": {
      "id": 14273,
      "name": "Nationale du Rhône 6% fév. 51 (T. 27/12/62) (Avis 27973) 1952-66",
      "share_type": {
        "id": 2,
        "name": "Bond (Obligation)"
      },
      "types": [
        {
          "start_date": "1951-07-10",
          "end_date": "3999-12-31",
          "id": 1001,
          "name": "Obligation ordinaire ou classique",
          "stock_group": "B"
        }
      ],
      "start_date": "1951-07-10",
      "end_date": "3999-12-31",
      "prices_from": "1951-07-10",
      "prices_to": "1966-01-31",
      "is_mainstock": 0,
      "prices_count": 367
    },
    "15161": {
      "id": 15161,
      "name": "Nationale du Rhône 4,75% 1947-52-54-55 (Rachats ou Tirages) (Avis 30343, 32303 et 32743) 1953-82",
      "share_type": {
        "id": 2,
        "name": "Bond (Obligation)"
      },
      "types": [
        {
          "start_date": "1956-01-10",
          "end_date": "3999-12-31",
          "id": 1001,
          "name": "Obligation ordinaire ou classique",
          "stock_group": "B"
        }
      ],
      "start_date": "1956-01-10",
      "end_date": "3999-12-31",
      "prices_from": "1956-01-10",
      "prices_to": "1976-12-31",
      "is_mainstock": 0,
      "prices_count": 523
    },
    "15162": {
      "id": 15162,
      "name": "Nationale du Rhône 5% 1948-53-54 (Rach. ou Tir.) (Avis 30620 et 32303) 1949-83",
      "share_type": {
        "id": 2,
        "name": "Bond (Obligation)"
      },
      "types": [
        {
          "start_date": "1956-01-10",
          "end_date": "3999-12-31",
          "id": 1001,
          "name": "Obligation ordinaire ou classique",
          "stock_group": "B"
        }
      ],
      "start_date": "1956-01-10",
      "end_date": "3999-12-31",
      "prices_from": "1956-01-10",
      "prices_to": "1976-12-31",
      "is_mainstock": 0,
      "prices_count": 522
    },
    "15573": {
      "id": 15573,
      "name": "Nationale du Rhône 6% 1957 min. à bonif. sup. en int. et cap. var. (Tir 15/11/62) (Avis 34012) 1958-82",
      "share_type": {
        "id": 2,
        "name": "Bond (Obligation)"
      },
      "types": [
        {
          "start_date": "1958-02-19",
          "end_date": "3999-12-31",
          "id": 1001,
          "name": "Obligation ordinaire ou classique",
          "stock_group": "B"
        }
      ],
      "start_date": "1958-02-19",
      "end_date": "3999-12-31",
      "prices_from": "1958-02-19",
      "prices_to": "1976-12-31",
      "is_mainstock": 0,
      "prices_count": 457
    },
    "18358": {
      "id": 18358,
      "name": "Nationale du Rhône 5,75% 1965-66 de 400 F (Tir. 17/5/73). 1967-80",
      "share_type": {
        "id": 2,
        "name": "Bond (Obligation)"
      },
      "types": [
        {
          "start_date": "1966-03-29",
          "end_date": "3999-12-31",
          "id": 1001,
          "name": "Obligation ordinaire ou classique",
          "stock_group": "B"
        }
      ],
      "start_date": "1966-03-29",
      "end_date": "3999-12-31",
      "prices_from": "1966-03-30",
      "prices_to": "1976-12-31",
      "is_mainstock": 0,
      "prices_count": 260
    },
    "18682": {
      "id": 18682,
      "name": "Nationale du Rhone 6,25% 1967 (c. 31-3-68 att.)",
      "share_type": {
        "id": 2,
        "name": "Bond (Obligation)"
      },
      "types": [
        {
          "start_date": "1967-09-26",
          "end_date": "3999-12-31",
          "id": 1001,
          "name": "Obligation ordinaire ou classique",
          "stock_group": "B"
        }
      ],
      "start_date": "1967-09-26",
      "end_date": "3999-12-31",
      "prices_from": "1967-10-02",
      "prices_to": "1976-12-31",
      "is_mainstock": 0,
      "prices_count": 223
    },
    "19908": {
      "id": 19908,
      "name": "Nationale du Rhône 6,5% mai 1968 (c. 31/5/69 att.) 1969-86",
      "share_type": {
        "id": 2,
        "name": "Bond (Obligation)"
      },
      "types": [
        {
          "start_date": "1969-01-14",
          "end_date": "3999-12-31",
          "id": 1001,
          "name": "Obligation ordinaire ou classique",
          "stock_group": "B"
        }
      ],
      "start_date": "1969-01-14",
      "end_date": "3999-12-31",
      "prices_from": "1969-01-14",
      "prices_to": "1976-12-31",
      "is_mainstock": 0,
      "prices_count": 193
    },
    "20103": {
      "id": 20103,
      "name": "Nationale du Rhône 8% juillet 1969, remb. À 1000 F (c. 20/7/70 att.) (Avis 70-26) 1970-87",
      "share_type": {
        "id": 2,
        "name": "Bond (Obligation)"
      },
      "types": [
        {
          "start_date": "1970-01-15",
          "end_date": "3999-12-31",
          "id": 1001,
          "name": "Obligation ordinaire ou classique",
          "stock_group": "B"
        }
      ],
      "start_date": "1970-01-15",
      "end_date": "3999-12-31",
      "prices_from": "1970-01-15",
      "prices_to": "1976-12-31",
      "is_mainstock": 0,
      "prices_count": 169
    },
    "20104": {
      "id": 20104,
      "name": "Electricité de France 8,50% juin 1970 de 500 F (n° 1 à 1050000) (Avis 70-630). Remb. À 500 F le 29/6/85",
      "share_type": {
        "id": 2,
        "name": "Bond (Obligation)"
      },
      "types": [
        {
          "start_date": "1970-08-12",
          "end_date": "3999-12-31",
          "id": 1001,
          "name": "Obligation ordinaire ou classique",
          "stock_group": "B"
        }
      ],
      "start_date": "1970-08-12",
      "end_date": "3999-12-31",
      "prices_from": "1970-08-12",
      "prices_to": "1976-12-31",
      "is_mainstock": 0,
      "prices_count": 155
    },
    "20105": {
      "id": 20105,
      "name": "Nationale du Rhône 8,50% juin 1970 (c. 1/6/71 att.) (Avis 70-1012) 1971-88",
      "share_type": {
        "id": 2,
        "name": "Bond (Obligation)"
      },
      "types": [
        {
          "start_date": "1970-12-28",
          "end_date": "3999-12-31",
          "id": 1001,
          "name": "Obligation ordinaire ou classique",
          "stock_group": "B"
        }
      ],
      "start_date": "1970-12-28",
      "end_date": "3999-12-31",
      "prices_from": "1970-12-28",
      "prices_to": "1976-12-31",
      "is_mainstock": 0,
      "prices_count": 146
    },
    "20931": {
      "id": 20931,
      "name": "Nationale du Rhône 8,50% janvier 1972 de 1000 F (Tir. 15/12/72) (Avis 72-662). 1973-92",
      "share_type": {
        "id": 2,
        "name": "Bond (Obligation)"
      },
      "types": [
        {
          "start_date": "1972-09-12",
          "end_date": "3999-12-31",
          "id": 1001,
          "name": "Obligation ordinaire ou classique",
          "stock_group": "B"
        }
      ],
      "start_date": "1972-09-12",
      "end_date": "3999-12-31",
      "prices_from": "1972-09-12",
      "prices_to": "1976-12-31",
      "is_mainstock": 0,
      "prices_count": 105
    },
    "21053": {
      "id": 21053,
      "name": "Nationale du Rhône 8% décembre 1972 de 2000 F (c. 3/12/73 att.) (Avis 73-446) 1973-92",
      "share_type": {
        "id": 2,
        "name": "Bond (Obligation)"
      },
      "types": [
        {
          "start_date": "1973-06-07",
          "end_date": "3999-12-31",
          "id": 1001,
          "name": "Obligation ordinaire ou classique",
          "stock_group": "B"
        }
      ],
      "start_date": "1973-06-07",
      "end_date": "3999-12-31",
      "prices_from": "1973-06-08",
      "prices_to": "1976-12-31",
      "is_mainstock": 0,
      "prices_count": 87
    },
    "21302": {
      "id": 21302,
      "name": "Nationale du Rhône, 8,70% mai 1973 de 2000F (c. 12/5/74 att.) (avis 74-58) 1977-96",
      "share_type": {
        "id": 2,
        "name": "Bond (Obligation)"
      },
      "types": [
        {
          "start_date": "1974-01-25",
          "end_date": "3999-12-31",
          "id": 1001,
          "name": "Obligation ordinaire ou classique",
          "stock_group": "B"
        }
      ],
      "start_date": "1974-01-25",
      "end_date": "3999-12-31",
      "prices_from": "1974-01-25",
      "prices_to": "1976-12-31",
      "is_mainstock": 0,
      "prices_count": 72
    },
    "21377": {
      "id": 21377,
      "name": "Nationale du Rhône 9,30% septembre-novembre 1973 de 2000F (avis 74-644) 1977-98",
      "share_type": {
        "id": 2,
        "name": "Bond (Obligation)"
      },
      "types": [
        {
          "start_date": "1974-08-05",
          "end_date": "3999-12-31",
          "id": 1001,
          "name": "Obligation ordinaire ou classique",
          "stock_group": "B"
        }
      ],
      "start_date": "1974-08-05",
      "end_date": "3999-12-31",
      "prices_from": "1974-08-16",
      "prices_to": "1976-12-31",
      "is_mainstock": 0,
      "prices_count": 40
    },
    "21765": {
      "id": 21765,
      "name": "Nationale du Rhône 4% 1947 (R. ou T.) (Avis 24206) 1953-82",
      "share_type": {
        "id": 2,
        "name": "Bond (Obligation)"
      },
      "types": [
        {
          "start_date": "1948-01-13",
          "end_date": "3999-12-31",
          "id": 1001,
          "name": "Obligation ordinaire ou classique",
          "stock_group": "B"
        }
      ],
      "start_date": "1948-01-13",
      "end_date": "3999-12-31",
      "prices_from": "1948-01-13",
      "prices_to": "1976-12-31",
      "is_mainstock": 0,
      "prices_count": 713
    },
    "35385": {
      "id": 35385,
      "name": "Nationale du Rhône 11,30% FEVRIER 1975 de 1000F (c. 15/2/76 att.) (Avis 75-231)1981-",
      "share_type": {
        "id": 2,
        "name": "Bond (Obligation)"
      },
      "types": [
        {
          "start_date": "1975-04-14",
          "end_date": "3999-12-31",
          "id": 1001,
          "name": "Obligation ordinaire ou classique",
          "stock_group": "B"
        }
      ],
      "start_date": "1975-04-14",
      "end_date": "3999-12-31",
      "prices_from": "1975-04-14",
      "prices_to": "1976-12-31",
      "is_mainstock": 0,
      "prices_count": 43
    }
  }
}