{
  "id": 4258,
  "names": [
    "PAPETERIES DARBLAY",
    "Papeteries Darblay",
    "SOCIETE ANONYME DES PAPETERIES DARBLAY"
  ],
  "name": "PAPETERIES DARBLAY",
  "balance_sheets": [
    {
      "start_date": "1938-12-31",
      "source": "Annuaire Desfossés 1940",
      "page": null
    },
    {
      "start_date": "1948-12-31",
      "source": "Annuaire Desfossés 1953",
      "page": "2170"
    },
    {
      "start_date": "1949-12-31",
      "source": "Annuaire Desfossés 1953",
      "page": "2170"
    },
    {
      "start_date": "1950-12-31",
      "source": "Annuaire Desfossés 1953",
      "page": "2170"
    },
    {
      "start_date": "1951-12-31",
      "source": "Annuaire Desfossés 1953",
      "page": "2170"
    }
  ],
  "balance_sheets_stats": {
    "start_date": "1938-12-31",
    "end_date": "1951-12-31"
  },
  "locations_stats": {
    "start_date": "1940-01-01",
    "end_date": "1953-12-31"
  },
  "locations": {
    "Siège social": [
      {
        "location_types_id": 1,
        "location_type": "Siège social",
        "address": "Rue des pyramides, 27",
        "city": "Paris",
        "district": "Paris",
        "country": "France",
        "in_yearbook_from": 1940,
        "in_yearbook_to": 1953
      }
    ],
    "Usines": [
      {
        "location_types_id": 3,
        "location_type": "Usines",
        "address": "Papeteries d'essonnes",
        "city": "Corbeil-Essonnes",
        "district": "Yvelines",
        "country": "France",
        "in_yearbook_from": 1953,
        "in_yearbook_to": 1953
      }
    ]
  },
  "persons": [
    {
      "persons_count": 4,
      "yearbook": "Annuaire Desfossés 1940",
      "source": "annuaire_df_1940",
      "page": null
    },
    {
      "persons_count": 6,
      "yearbook": "Annuaire Desfossés 1953",
      "source": "annuaire_df_1953",
      "page": "2170"
    }
  ],
  "persons_stats": {
    "persons_count": 9,
    "start_date": "1940-01-01",
    "end_date": "1953-12-31"
  },
  "yearbooks_ocrs": [
    {
      "source": "annuaire_df_1940",
      "yearbook": "Annuaire Desfossés 1940",
      "page": null
    },
    {
      "source": "annuaire_df_1945",
      "yearbook": "Annuaire Desfossés 1945",
      "page": "2320"
    },
    {
      "source": "annuaire_df_1949",
      "yearbook": "Annuaire Desfossés 1949",
      "page": null
    },
    {
      "source": "annuaire_df_1953",
      "yearbook": "Annuaire Desfossés 1953",
      "page": "2170"
    }
  ],
  "juridical_status": [
    {
      "juridical_status": "Société Anonyme (Libre)",
      "start_date": "1899-01-01",
      "end_date": "1959-01-01",
      "comments": "S. A. Française constituée en 1899 pour une durée expirant en 1959.",
      "source": "annuaire_df_1940"
    }
  ],
  "equity_capital": [
    {
      "amount": "40.000.000",
      "currency": "Franc",
      "infodate": "1899-01-01",
      "source": "annuaire_df_1940",
      "comments": "40 millions divisé en 40.000 actions de jouissance de 1.000 fr. entièrement hberees et amorties."
    },
    {
      "amount": "1.380.000.000",
      "currency": "Franc",
      "infodate": "1953-01-01",
      "source": "annuaire_df_1953",
      "comments": "1.380 millions, divisé en 276.000 actions de 5.000 francs."
    }
  ],
  "profit_dividends": [
    {
      "first_date": "1938-12-31",
      "last_date": "1951-12-31",
      "obs_count": 23
    }
  ],
  "public_status": false,
  "stock_exchanges": {
    "1": {
      "id": 1,
      "name": "Paris (Official List)",
      "listings_stats": {
        "start_date": "1939-07-06"
      },
      "spot_prices_stats": {
        "start_date": "1939-07-06",
        "end_date": "1976-12-31"
      }
    }
  },
  "securities": {
    "11313": {
      "id": 11313,
      "name": "Papeteries Darblay, bons hyp. 6,5% r.à 1000 f. 1942-49",
      "share_type": {
        "id": 2,
        "name": "Bond (Obligation)"
      },
      "types": [
        {
          "start_date": "1939-07-06",
          "end_date": "3999-12-31",
          "id": 1033,
          "name": "Obligations Hypothécaires",
          "stock_group": "B"
        }
      ],
      "start_date": "1939-07-06",
      "end_date": "3999-12-31",
      "prices_from": "1939-07-06",
      "prices_to": "1943-04-01",
      "is_mainstock": 0,
      "prices_count": 86
    },
    "12043": {
      "id": 12043,
      "name": "Papeteries Darblay, bons hypoth. 4% 1943, remb. À 5000 fr. 1944-53",
      "share_type": {
        "id": 2,
        "name": "Bond (Obligation)"
      },
      "types": [
        {
          "start_date": "1943-08-19",
          "end_date": "3999-12-31",
          "id": 1033,
          "name": "Obligations Hypothécaires",
          "stock_group": "B"
        }
      ],
      "start_date": "1943-08-19",
      "end_date": "3999-12-31",
      "prices_from": "1943-08-19",
      "prices_to": "1950-03-31",
      "is_mainstock": 0,
      "prices_count": 146
    },
    "14027": {
      "id": 14027,
      "name": "Papeteries Darblay 6,5% fév. 1950 (R. ou T.) 1951-75",
      "share_type": {
        "id": 2,
        "name": "Bond (Obligation)"
      },
      "types": [
        {
          "start_date": "1950-11-21",
          "end_date": "3999-12-31",
          "id": 1001,
          "name": "Obligation ordinaire ou classique",
          "stock_group": "B"
        }
      ],
      "start_date": "1950-11-21",
      "end_date": "3999-12-31",
      "prices_from": "1950-11-29",
      "prices_to": "1961-12-15",
      "is_mainstock": 0,
      "prices_count": 285
    },
    "15307": {
      "id": 15307,
      "name": "Darblay, act.",
      "share_type": {
        "id": 1,
        "name": "Stock (Action)"
      },
      "types": [
        {
          "start_date": "1956-06-08",
          "end_date": "3999-12-31",
          "id": 11,
          "name": "Action ordinaire",
          "stock_group": "S"
        }
      ],
      "start_date": "1956-06-08",
      "end_date": "3999-12-31",
      "prices_from": "1956-06-08",
      "prices_to": "1976-12-31",
      "is_mainstock": 0,
      "prices_count": 538
    },
    "17046": {
      "id": 17046,
      "name": "Darblay (Papeteries), actions 50 NF",
      "share_type": {
        "id": 1,
        "name": "Stock (Action)"
      },
      "types": [
        {
          "start_date": "1960-02-22",
          "end_date": "3999-12-31",
          "id": 18,
          "name": "Action",
          "stock_group": "S"
        }
      ],
      "start_date": "1960-02-22",
      "end_date": "3999-12-31",
      "prices_from": null,
      "prices_to": null,
      "is_mainstock": 0,
      "prices_count": 0
    },
    "17126": {
      "id": 17126,
      "name": "Darblay (Papet.) 6,5 % fév. 1950 (T. 9/1/61) 1951-75",
      "share_type": {
        "id": 2,
        "name": "Bond (Obligation)"
      },
      "types": [
        {
          "start_date": "1962-01-02",
          "end_date": "3999-12-31",
          "id": 1001,
          "name": "Obligation ordinaire ou classique",
          "stock_group": "B"
        }
      ],
      "start_date": "1962-01-02",
      "end_date": "3999-12-31",
      "prices_from": "1962-01-02",
      "prices_to": "1973-08-31",
      "is_mainstock": 0,
      "prices_count": 281
    },
    "18001": {
      "id": 18001,
      "name": "Darblay (Papet.) 5% 1962, r. à 228F (c. 15/9/63 att.) 1963-80",
      "share_type": {
        "id": 2,
        "name": "Bond (Obligation)"
      },
      "types": [
        {
          "start_date": "1963-03-04",
          "end_date": "3999-12-31",
          "id": 1001,
          "name": "Obligation ordinaire ou classique",
          "stock_group": "B"
        }
      ],
      "start_date": "1963-03-04",
      "end_date": "3999-12-31",
      "prices_from": "1963-03-05",
      "prices_to": "1976-12-31",
      "is_mainstock": 0,
      "prices_count": 333
    },
    "18100": {
      "id": 18100,
      "name": "Darblay (Papeteries), Act. nouv. (Jce 1/10/63)",
      "share_type": {
        "id": 1,
        "name": "Stock (Action)"
      },
      "types": [
        {
          "start_date": "1963-12-13",
          "end_date": "3999-12-31",
          "id": 27,
          "name": "Promesse d'action",
          "stock_group": "S"
        }
      ],
      "start_date": "1963-12-13",
      "end_date": "3999-12-31",
      "prices_from": "1963-12-13",
      "prices_to": "1964-06-30",
      "is_mainstock": 0,
      "prices_count": 16
    },
    "105953": {
      "id": 105953,
      "name": "Darblay (Papeteries), Act. (n 441601 a 552000) (c. 4 att)",
      "share_type": {
        "id": 1,
        "name": "Stock (Action)"
      },
      "types": [
        {
          "start_date": "1957-01-15",
          "end_date": "1957-04-30",
          "id": 18,
          "name": "Action",
          "stock_group": "S"
        }
      ],
      "start_date": "1957-01-15",
      "end_date": "1957-04-30",
      "prices_from": null,
      "prices_to": null,
      "is_mainstock": 0,
      "prices_count": 0
    }
  }
}