{
  "id": 10636,
  "names": [
    "PIANOS D'ART « GABRIEL GAVEAU ET CE » (Maison fondée en 1911)",
    "PIANOS D'ART « GABRIEL GAVEAU ET Cie» (Maison fondée en 1911)",
    "Pianos d'Art \"Gabriel Gaveau et Cie\" (Maison fondée en 1911)"
  ],
  "name": "PIANOS D'ART « GABRIEL GAVEAU ET Cie» (Maison fondée en 1911)",
  "balance_sheets": [
    {
      "start_date": "1926-07-01",
      "source": "Annuaire Desfossés 1927",
      "page": "1412"
    },
    {
      "start_date": "1928-06-30",
      "source": "Annuaire Desfossés 1929",
      "page": "1530"
    },
    {
      "start_date": "1929-06-30",
      "source": "Annuaire Desfossés 1931",
      "page": "1576"
    }
  ],
  "balance_sheets_stats": {
    "start_date": "1926-07-01",
    "end_date": "1929-06-30"
  },
  "locations_stats": {
    "start_date": "1927-01-01",
    "end_date": "1930-12-31"
  },
  "locations": {
    "Siège social": [
      {
        "location_types_id": 1,
        "location_type": "Siège social",
        "address": "Avenue malakoff, 55 et 57",
        "city": "Paris",
        "district": "Paris",
        "country": "France",
        "in_yearbook_from": 1927,
        "in_yearbook_to": 1927
      },
      {
        "location_types_id": 1,
        "location_type": "Siège social",
        "address": "Avenue malakoff, 55 et 57 a",
        "city": "Paris",
        "district": "Paris",
        "country": "France",
        "in_yearbook_from": 1928,
        "in_yearbook_to": 1930
      }
    ]
  },
  "persons": [
    {
      "persons_count": 5,
      "yearbook": "Annuaire Desfossés 1927",
      "source": "annuaire_df_1927",
      "page": "1412"
    }
  ],
  "persons_stats": {
    "persons_count": 5,
    "start_date": "1927-01-01",
    "end_date": "1927-12-31"
  },
  "yearbooks_ocrs": [
    {
      "source": "annuaire_df_1927",
      "yearbook": "Annuaire Desfossés 1927",
      "page": "1412"
    },
    {
      "source": "annuaire_df_1929",
      "yearbook": "Annuaire Desfossés 1929",
      "page": "1530"
    },
    {
      "source": "annuaire_df_1931",
      "yearbook": "Annuaire Desfossés 1931",
      "page": "1576"
    }
  ],
  "juridical_status": [
    {
      "juridical_status": "Société en Commandite par actions",
      "start_date": "1925-07-01",
      "end_date": "2024-07-01",
      "comments": "Société en commandite par actions, constituée en juillet 1925, pour une durée de 99 ans.",
      "source": "annuaire_df_1927"
    }
  ],
  "equity_capital": [
    {
      "amount": "4.000.000",
      "currency": "Franc",
      "infodate": "1925-07-01",
      "source": "annuaire_df_1927",
      "comments": "4 millions de francs, divisé en 40.000 actions de 100 francs, dont 30.000 actions ordinaires attribuées en rémunération des apports et 10.000 actions a priorité."
    }
  ],
  "profit_dividends": [
    {
      "first_date": "1925-06-30",
      "last_date": "1926-06-30",
      "obs_count": 7
    }
  ],
  "public_status": false
}