{
  "id": 500,
  "names": [
    "L'Aigle, Compagnie pour la Formation et la Gestion de Sociétés d'Assurances Mutuelles sur la Vie"
  ],
  "name": "L'Aigle, Compagnie pour la Formation et la Gestion de Sociétés d'Assurances Mutuelles sur la Vie",
  "balance_sheets": [],
  "balance_sheets_stats": {
    "start_date": null,
    "end_date": null
  },
  "locations_stats": {
    "start_date": "1846-01-25",
    "end_date": "1846-12-31"
  },
  "locations": {
    "Siège social": [
      {
        "location_types_id": 1,
        "location_type": "Siège social",
        "address": null,
        "city": "Paris",
        "district": "Paris",
        "country": "France",
        "in_yearbook_from": 1846,
        "in_yearbook_to": 1846
      }
    ]
  },
  "persons": [],
  "persons_stats": {
    "persons_count": 0,
    "start_date": null,
    "end_date": null
  },
  "yearbooks_ocrs": [],
  "juridical_status": [],
  "equity_capital": [],
  "profit_dividends": [],
  "public_status": false,
  "stock_exchanges": {
    "1": {
      "id": 1,
      "name": "Paris (Official List)",
      "listings_stats": {
        "start_date": "1851-04-08"
      },
      "spot_prices_stats": {
        "start_date": "1851-04-08",
        "end_date": "1851-04-08"
      }
    }
  },
  "securities": {
    "664": {
      "id": 664,
      "name": "L'Aigle (assur. Vie)",
      "share_type": {
        "id": 6,
        "name": "UNKNOWN"
      },
      "types": [
        {
          "start_date": "1851-04-08",
          "end_date": "3999-12-31",
          "id": 1,
          "name": "UNKNOWN",
          "stock_group": "U"
        }
      ],
      "start_date": "1851-04-08",
      "end_date": "3999-12-31",
      "prices_from": "1851-04-08",
      "prices_to": "1851-04-08",
      "is_mainstock": 0,
      "prices_count": 1
    }
  }
}