{
  "id": 467,
  "names": [
    "Canalisation de la Sambre"
  ],
  "name": "Canalisation de la Sambre",
  "balance_sheets": [],
  "balance_sheets_stats": {
    "start_date": null,
    "end_date": null
  },
  "locations_stats": {
    "start_date": null,
    "end_date": null
  },
  "locations": {},
  "persons": [],
  "persons_stats": {
    "persons_count": 0,
    "start_date": null,
    "end_date": null
  },
  "yearbooks_ocrs": [],
  "juridical_status": [],
  "equity_capital": [],
  "profit_dividends": [],
  "public_status": false,
  "stock_exchanges": {
    "1": {
      "id": 1,
      "name": "Paris (Official List)",
      "listings_stats": {
        "start_date": "1835-08-29"
      },
      "spot_prices_stats": {
        "start_date": "1835-08-29",
        "end_date": "1848-01-15"
      }
    }
  },
  "securities": {
    "242": {
      "id": 242,
      "name": "Canal de jonction de la Sambre",
      "share_type": {
        "id": 1,
        "name": "Stock (Action)"
      },
      "types": [
        {
          "start_date": "1835-08-29",
          "end_date": "3999-12-31",
          "id": 18,
          "name": "Action",
          "stock_group": "S"
        }
      ],
      "start_date": "1835-08-29",
      "end_date": "3999-12-31",
      "prices_from": "1835-08-29",
      "prices_to": "1848-01-15",
      "is_mainstock": 1,
      "prices_count": 4
    }
  }
}