{
  "id": 3961,
  "names": [
    "BENDIX SOCIETE ANONYME",
    "Bendix Société Anonyme"
  ],
  "name": "BENDIX SOCIETE ANONYME",
  "balance_sheets": [],
  "balance_sheets_stats": {
    "start_date": null,
    "end_date": null
  },
  "locations_stats": {
    "start_date": "1953-01-01",
    "end_date": "1953-12-31"
  },
  "locations": {
    "Siège social": [
      {
        "location_types_id": 1,
        "location_type": "Siège social",
        "address": "Rue madame-de-sanzillon, 32 à 38",
        "city": "Clichy",
        "district": "Paris",
        "country": "France",
        "in_yearbook_from": 1953,
        "in_yearbook_to": 1953
      }
    ]
  },
  "persons": [
    {
      "persons_count": 4,
      "yearbook": "Annuaire Desfossés 1953",
      "source": "annuaire_df_1953",
      "page": "1118"
    }
  ],
  "persons_stats": {
    "persons_count": 4,
    "start_date": "1953-01-01",
    "end_date": "1953-12-31"
  },
  "yearbooks_ocrs": [
    {
      "source": "annuaire_df_1953",
      "yearbook": "Annuaire Desfossés 1953",
      "page": "1118"
    }
  ],
  "juridical_status": [
    {
      "juridical_status": "Société Anonyme (Libre)",
      "start_date": "1930-01-01",
      "end_date": "2029-01-01",
      "comments": "Société anonyme française, constituée en 1930, pour une durée de 99 ans.",
      "source": "annuaire_df_1953"
    }
  ],
  "equity_capital": [
    {
      "amount": "12.000.000",
      "currency": "Franc",
      "infodate": "1930-01-01",
      "source": "annuaire_df_1953",
      "comments": " A l'origine, le capital était de 12 millions. Porté en 1947 à 50 millions; en 1948 à 120 millions; en 1950 à 318 millions; en 1952 à 600 millions."
    },
    {
      "amount": "50.000.000",
      "currency": "Franc",
      "infodate": "1947-01-01",
      "source": "annuaire_df_1953",
      "comments": "A l'origine, le capital était de 12 millions. Porté en 1947 à 50 millions; en 1948 à 120 millions; en 1950 à 318 millions; en 1952 à 600 millions."
    },
    {
      "amount": "120.000.000",
      "currency": "Franc",
      "infodate": "1948-01-01",
      "source": "annuaire_df_1953",
      "comments": "A l'origine, le capital était de 12 millions. Porté en 1947 à 50 millions; en 1948 à 120 millions; en 1950 à 318 millions; en 1952 à 600 millions."
    },
    {
      "amount": "318.000.000",
      "currency": "Franc",
      "infodate": "1950-01-01",
      "source": "annuaire_df_1953",
      "comments": "A l'origine, le capital était de 12 millions. Porté en 1947 à 50 millions; en 1948 à 120 millions; en 1950 à 318 millions; en 1952 à 600 millions."
    },
    {
      "amount": "600.000.000",
      "currency": "Franc",
      "infodate": "1952-01-01",
      "source": "annuaire_df_1953",
      "comments": "A l'origine, le capital était de 12 millions. Porté en 1947 à 50 millions; en 1948 à 120 millions; en 1950 à 318 millions; en 1952 à 600 millions."
    }
  ],
  "profit_dividends": [],
  "public_status": false
}