{
  "id": 680,
  "names": [
    "Compagnie des Mines et Chemin de Fer de Carmaux (Raison sociale Mancel Père, Fils et Cie)",
    "Houilleres et Chemins de Fer de Carmaux",
    "Mines de Carmaux",
    "SOCIETE DES MINES DE CARMAUX",
    "SOCIÉTÉ DES MINES DE CARMAUX",
    "Société des Mines de Carmaux"
  ],
  "name": "Société des Mines de Carmaux",
  "balance_sheets": [
    {
      "start_date": "1910-12-31",
      "source": "Annuaire Desfossés 1912",
      "page": "695"
    },
    {
      "start_date": "1912-12-31",
      "source": "Annuaire Desfossés 1914",
      "page": "762"
    },
    {
      "start_date": "1916-12-31",
      "source": "Annuaire Desfossés 1917",
      "page": "695"
    },
    {
      "start_date": "1919-12-31",
      "source": "Annuaire Desfossés 1920",
      "page": "763"
    },
    {
      "start_date": "1921-12-31",
      "source": "Annuaire Desfossés 1923",
      "page": "850"
    },
    {
      "start_date": "1923-12-31",
      "source": "Annuaire Desfossés 1925",
      "page": "976"
    },
    {
      "start_date": "1925-12-31",
      "source": "Annuaire Desfossés 1927",
      "page": "780"
    },
    {
      "start_date": "1927-12-31",
      "source": "Annuaire Desfossés 1929",
      "page": "830"
    },
    {
      "start_date": "1929-12-31",
      "source": "Annuaire Desfossés 1931",
      "page": "852"
    },
    {
      "start_date": "1930-12-31",
      "source": "Annuaire Desfossés 1932",
      "page": null
    },
    {
      "start_date": "1931-12-31",
      "source": "Annuaire Desfossés 1933",
      "page": "907"
    },
    {
      "start_date": "1932-12-31",
      "source": "Annuaire Desfossés 1936",
      "page": null
    },
    {
      "start_date": "1933-12-31",
      "source": "Annuaire Desfossés 1937",
      "page": "998"
    },
    {
      "start_date": "1934-12-31",
      "source": "Annuaire Desfossés 1937",
      "page": "998"
    },
    {
      "start_date": "1935-12-31",
      "source": "Annuaire Desfossés 1937",
      "page": "998"
    },
    {
      "start_date": "1936-12-31",
      "source": "Annuaire Desfossés 1940",
      "page": null
    },
    {
      "start_date": "1937-12-31",
      "source": "Annuaire Desfossés 1940",
      "page": null
    },
    {
      "start_date": "1938-12-31",
      "source": "Annuaire Desfossés 1945",
      "page": "702"
    },
    {
      "start_date": "1941-12-31",
      "source": "Annuaire Desfossés 1945",
      "page": "702"
    },
    {
      "start_date": "1942-12-31",
      "source": "Annuaire Desfossés 1948",
      "page": "744"
    },
    {
      "start_date": "1943-12-31",
      "source": "Annuaire Desfossés 1948",
      "page": "744"
    },
    {
      "start_date": "1944-12-31",
      "source": "Annuaire Desfossés 1948",
      "page": "744"
    },
    {
      "start_date": "1945-12-31",
      "source": "Annuaire Desfossés 1948",
      "page": "744"
    }
  ],
  "balance_sheets_stats": {
    "start_date": "1910-12-31",
    "end_date": "1945-12-31"
  },
  "locations_stats": {
    "start_date": "1880-01-01",
    "end_date": "1953-12-31"
  },
  "locations": {
    "Siège social": [
      {
        "location_types_id": 1,
        "location_type": "Siège social",
        "address": "Place vendôme, 16",
        "city": "Paris",
        "district": "Paris",
        "country": "France",
        "in_yearbook_from": 1880,
        "in_yearbook_to": 1880
      },
      {
        "location_types_id": 1,
        "location_type": "Siège social",
        "address": "Avenue de l'opéra, 11",
        "city": "Paris",
        "district": "Paris",
        "country": "France",
        "in_yearbook_from": 1884,
        "in_yearbook_to": 1893
      },
      {
        "location_types_id": 1,
        "location_type": "Siège social",
        "address": "Rue pasquier, 35",
        "city": "Paris",
        "district": "Paris",
        "country": "France",
        "in_yearbook_from": 1898,
        "in_yearbook_to": 1927
      },
      {
        "location_types_id": 1,
        "location_type": "Siège social",
        "address": "Rue de la ville-l'evêque, 21",
        "city": "Paris",
        "district": "Paris",
        "country": "France",
        "in_yearbook_from": 1930,
        "in_yearbook_to": 1953
      }
    ],
    "Mines / Carrières / Pétrole / Gaz": [
      {
        "location_types_id": 7,
        "location_type": "Mines / Carrières / Pétrole / Gaz",
        "address": null,
        "city": "Albi",
        "district": "Tarn",
        "country": "France",
        "in_yearbook_from": 1923,
        "in_yearbook_to": 1923
      },
      {
        "location_types_id": 7,
        "location_type": "Mines / Carrières / Pétrole / Gaz",
        "address": null,
        "city": "Gaillac",
        "district": "Tarn",
        "country": "France",
        "in_yearbook_from": 1923,
        "in_yearbook_to": 1923
      }
    ]
  },
  "persons": [
    {
      "persons_count": 8,
      "yearbook": "Annuaire de la Compagnie des Agents de Change 1880",
      "source": "annuaire_cac_1880",
      "page": "978"
    },
    {
      "persons_count": 1,
      "yearbook": "Annuaire de la Compagnie des Agents de Change 1883",
      "source": "annuaire_cac_1883",
      "page": "1228"
    },
    {
      "persons_count": 1,
      "yearbook": "Annuaire de la Compagnie des Agents de Change 1888",
      "source": "annuaire_cac_1888",
      "page": "1324"
    },
    {
      "persons_count": 5,
      "yearbook": "Annuaire de la Compagnie des Agents de Change 1893",
      "source": "annuaire_cac_1893",
      "page": "1436"
    },
    {
      "persons_count": 3,
      "yearbook": "Annuaire de la Compagnie des Agents de Change 1898",
      "source": "annuaire_cac_1898",
      "page": "1676"
    },
    {
      "persons_count": 2,
      "yearbook": "Annuaire de la Compagnie des Agents de Change 1903",
      "source": "annuaire_cac_1903",
      "page": "1881"
    },
    {
      "persons_count": 8,
      "yearbook": "Annuaire de la Compagnie des Agents de Change 1908",
      "source": "annuaire_cac_1908",
      "page": "1587"
    },
    {
      "persons_count": 3,
      "yearbook": "Annuaire Desfossés 1912",
      "source": "annuaire_df_1912",
      "page": "695"
    },
    {
      "persons_count": 2,
      "yearbook": "Annuaire Desfossés 1923",
      "source": "annuaire_df_1923",
      "page": "850"
    },
    {
      "persons_count": 3,
      "yearbook": "Annuaire Desfossés 1927",
      "source": "annuaire_df_1927",
      "page": "780"
    },
    {
      "persons_count": 8,
      "yearbook": "Annuaire Desfossés 1933",
      "source": "annuaire_df_1933",
      "page": "907"
    },
    {
      "persons_count": 6,
      "yearbook": "Annuaire Desfossés 1940",
      "source": "annuaire_df_1940",
      "page": null
    },
    {
      "persons_count": 11,
      "yearbook": "Annuaire Desfossés 1945",
      "source": "annuaire_df_1945",
      "page": "702"
    },
    {
      "persons_count": 3,
      "yearbook": "Annuaire Desfossés 1953",
      "source": "annuaire_df_1953",
      "page": "545"
    }
  ],
  "persons_stats": {
    "persons_count": 37,
    "start_date": "1880-01-01",
    "end_date": "1953-12-31"
  },
  "yearbooks_ocrs": [
    {
      "source": "annuaire_cac_1880",
      "yearbook": "Annuaire de la Compagnie des Agents de Change 1880",
      "page": "978"
    },
    {
      "source": "annuaire_cac_1883",
      "yearbook": "Annuaire de la Compagnie des Agents de Change 1883",
      "page": "1228"
    },
    {
      "source": "annuaire_cac_1888",
      "yearbook": "Annuaire de la Compagnie des Agents de Change 1888",
      "page": "1324"
    },
    {
      "source": "annuaire_cac_1893",
      "yearbook": "Annuaire de la Compagnie des Agents de Change 1893",
      "page": "1436"
    },
    {
      "source": "annuaire_cac_1898",
      "yearbook": "Annuaire de la Compagnie des Agents de Change 1898",
      "page": "1676"
    },
    {
      "source": "annuaire_cac_1903",
      "yearbook": "Annuaire de la Compagnie des Agents de Change 1903",
      "page": "1881"
    },
    {
      "source": "annuaire_cac_1908",
      "yearbook": "Annuaire de la Compagnie des Agents de Change 1908",
      "page": "1587"
    },
    {
      "source": "annuaire_df_1912",
      "yearbook": "Annuaire Desfossés 1912",
      "page": "695"
    },
    {
      "source": "annuaire_df_1914",
      "yearbook": "Annuaire Desfossés 1914",
      "page": "762"
    },
    {
      "source": "annuaire_df_1917",
      "yearbook": "Annuaire Desfossés 1917",
      "page": "695"
    },
    {
      "source": "annuaire_df_1920",
      "yearbook": "Annuaire Desfossés 1920",
      "page": "763"
    },
    {
      "source": "annuaire_df_1923",
      "yearbook": "Annuaire Desfossés 1923",
      "page": "850"
    },
    {
      "source": "annuaire_df_1925",
      "yearbook": "Annuaire Desfossés 1925",
      "page": "976"
    },
    {
      "source": "annuaire_df_1927",
      "yearbook": "Annuaire Desfossés 1927",
      "page": "780"
    },
    {
      "source": "annuaire_df_1929",
      "yearbook": "Annuaire Desfossés 1929",
      "page": "830"
    },
    {
      "source": "annuaire_df_1931",
      "yearbook": "Annuaire Desfossés 1931",
      "page": "852"
    },
    {
      "source": "annuaire_df_1933",
      "yearbook": "Annuaire Desfossés 1933",
      "page": "907"
    },
    {
      "source": "annuaire_df_1937",
      "yearbook": "Annuaire Desfossés 1937",
      "page": "998"
    },
    {
      "source": "annuaire_df_1940",
      "yearbook": "Annuaire Desfossés 1940",
      "page": null
    },
    {
      "source": "annuaire_df_1945",
      "yearbook": "Annuaire Desfossés 1945",
      "page": "702"
    },
    {
      "source": "annuaire_df_1948",
      "yearbook": "Annuaire Desfossés 1948",
      "page": "744"
    },
    {
      "source": "annuaire_df_1953",
      "yearbook": "Annuaire Desfossés 1953",
      "page": "545"
    }
  ],
  "juridical_status": [
    {
      "juridical_status": "Société en Commandite par actions",
      "start_date": "1856-03-07",
      "end_date": "1860-04-11",
      "comments": "Société française en commandite par actions, constituée le 7 mars 1856, transfoi'mee en société anonyme le 12 avril 1860, pour une durée expirant le 4 mars 2006.",
      "source": "annuaire_df_1937"
    },
    {
      "juridical_status": "Société Anonyme (Libre)",
      "start_date": "1860-04-12",
      "end_date": "1946-04-30",
      "comments": "(source:  Annuaire_DF_1948_10)  Société française en commandite par actions, constituée le 7 mars 1856, transfoi'mee en société anonyme le 12 avril 1860, pour une durée expirant le 4 mars 2006.",
      "source": "annuaire_df_1937"
    },
    {
      "juridical_status": "Etablissement public",
      "start_date": "1946-05-01",
      "end_date": "3999-12-31",
      "comments": "Service financier et Transferts : Société Générale.",
      "source": "annuaire_df_1948"
    }
  ],
  "equity_capital": [
    {
      "amount": "11.600.000",
      "currency": "Franc",
      "infodate": "1880-12-31",
      "source": "annuaire_cac_1880",
      "comments": " Le fonds social, composé des mines, forets et immeubles de la Société, et d'une somme de 1,500,000 fr., montant du fonds de roulement, est représenté par 23,200 actions de 500 fr. au porteur, entièrement libérées, donnant droit chacun à l/23200e de l'actif social.\n Les intérêts et dividendes se paient les 1er novembre (à-compte) et 1er mai (solde)."
    },
    {
      "amount": "17.400.000",
      "currency": "Franc",
      "infodate": "1919-01-01",
      "source": "annuaire_df_1923",
      "comments": "17.400.000 francs, divisé en 116.000 actions de 150 francs. A l'origine représenté par 23.200: actions sans valeur nominale, porté en 1919 au chiffre actuel par la subdivision en cinq de chacun des titres d’origine. En juin 1921. il a été remboursé à titre d’amortissement du capital une somme de 100-francs par action ; en outre, il a été offert aux porteurs, d’acquérir au. pair de 100 francs des actions de la Compagnie Générale Industrielle."
    },
    {
      "amount": "36.000.000",
      "currency": "Franc",
      "infodate": "1925-06-01",
      "source": "annuaire_df_1927",
      "comments": "36.000.000 de francs, divisé en 240.000 actions de 150 francs, dont 124.000 de capital et 124.000 amorties et transformées en actions de jouissance. A l’origine, représenté par 23.200 actions sans valeur nominale; porté en 1919 à 17.400.000 francs par la subdivision en cinq de chacun des titres d’origine. En juin 1921 il a été remboursé, à titre d’amortissement du capital, une somme de 100 francs par action ; en outre, il a été offert aux porteurs, d'acquérir au pair de 100 francs des actions de la Compagnie Générale Industrielle. En juin 1924, il a été remboursé le solde de 50 francs par action, de sorte que le fonds social est entièrement amorti et que les actions ont été transformées en actions de jouissance. En même temps, il a été offert aux actionnaires d’acquérir au pair de 100 francs, des actions de la Compagnie Générale Industrielle à raison de 1 de ces dernières pour 2 actions Carmaux. En juin 1925. le capital a été porté à son chiffre actuel par l’émission au pair de 124.000 actions nouvelles de 150 francs à libérer de 37 fr. 50 par la répartition d’une somme égale."
    },
    {
      "amount": "72.000.000",
      "currency": "Franc",
      "infodate": "1942-01-01",
      "source": "annuaire_df_1945",
      "comments": "72.000.000 de francs, divisé en 480.000 actions de 150 francs, dont 116.000 de jouissance. A l’origine, représenté par 23.200 actions sans valeur nominale; porté en 1919 à 17.400.000 francs, divisé en 116.000 actions. En juin 1921 il a été amorti 100 francs par action. En juin 1924 il a été remboursé le solde de 50 francs par action, les actions ont été transformées en actions de jouissance. En juin 1925, le capital a été porté à 36 millions par l’émission au pair de 124.000 actions nouvelles de 150 francs et à son chiffre actuel en 19.42 par l’émission au pair de 240.000'actions jouissance 1er janvier 1942 (titre pour titre)."
    },
    {
      "amount": "75.788.250",
      "currency": "Franc",
      "infodate": "1946-01-01",
      "source": "annuaire_df_1948",
      "comments": "75.788.250 francs, divisé en 505.255 actions de 150 francs, dont 122.103 de jouissance. A l'oï-igine, représenté par 23.200 actions sans valeur nominale ; porté en 1919 à 17.400.000 francs, divisé en 116.000 actions. En juin. 1921 il a été amorti 100 francs par action. En juin 1924 il a été remboursé le solde de 50 francs par action, les actions ont été transformées en actions de jouissance. En juin 1925, le Capital a été porté à 36 millions par l'émission au pair de 124.000 actions nouvelles de 150 francs et à 72 millions en 1942 par l'émission au pair de 240.000 actions jouissance 1er janvier 1942 (titre pour titre). Porté en 1946 à 75.788.250 francs pour règlement de l'impôt de solidarité."
    }
  ],
  "profit_dividends": [
    {
      "first_date": "1856-12-31",
      "last_date": "1945-12-31",
      "obs_count": 334
    }
  ],
  "public_status": false,
  "stock_exchanges": {
    "1": {
      "id": 1,
      "name": "Paris (Official List)",
      "listings_stats": {
        "start_date": "1857-02-06"
      },
      "spot_prices_stats": {
        "start_date": "1857-02-07",
        "end_date": "1973-08-31"
      }
    }
  },
  "securities": {
    "1100": {
      "id": 1100,
      "name": "Ch. fer Carmeaux-Toulse (act. De 150 f, tout payé.)",
      "share_type": {
        "id": 1,
        "name": "Stock (Action)"
      },
      "types": [
        {
          "start_date": "1857-02-06",
          "end_date": "3999-12-31",
          "id": 18,
          "name": "Action",
          "stock_group": "S"
        }
      ],
      "start_date": "1857-02-06",
      "end_date": "3999-12-31",
      "prices_from": "1857-02-07",
      "prices_to": "1860-06-30",
      "is_mainstock": 0,
      "prices_count": 18
    },
    "1231": {
      "id": 1231,
      "name": "Mines de Carmaux, act. de jouissance",
      "share_type": {
        "id": 1,
        "name": "Stock (Action)"
      },
      "types": [
        {
          "start_date": "1860-11-15",
          "end_date": "3999-12-31",
          "id": 18,
          "name": "Action",
          "stock_group": "S"
        }
      ],
      "start_date": "1860-11-15",
      "end_date": "3999-12-31",
      "prices_from": "1860-11-15",
      "prices_to": "1949-04-29",
      "is_mainstock": 1,
      "prices_count": 1887
    },
    "7185": {
      "id": 7185,
      "name": "Mines de Carmaux 6%, remb. à 500 fr. 1925-49",
      "share_type": {
        "id": 2,
        "name": "Bond (Obligation)"
      },
      "types": [
        {
          "start_date": "1920-04-12",
          "end_date": "3999-12-31",
          "id": 1001,
          "name": "Obligation ordinaire ou classique",
          "stock_group": "B"
        }
      ],
      "start_date": "1920-04-12",
      "end_date": "3999-12-31",
      "prices_from": "1920-04-21",
      "prices_to": "1943-04-15",
      "is_mainstock": 0,
      "prices_count": 491
    },
    "7913": {
      "id": 7913,
      "name": "Mines de Carmaux, act. nouv. 150 fr., t. p., 100 fr. remb. non estampillées",
      "share_type": {
        "id": 1,
        "name": "Stock (Action)"
      },
      "types": [
        {
          "start_date": "1924-07-01",
          "end_date": "3999-12-31",
          "id": 18,
          "name": "Action",
          "stock_group": "S"
        }
      ],
      "start_date": "1924-07-01",
      "end_date": "3999-12-31",
      "prices_from": "1924-07-01",
      "prices_to": "1924-09-15",
      "is_mainstock": 0,
      "prices_count": 12
    },
    "8379": {
      "id": 8379,
      "name": "Mines de Carmaux, act. 150 fr., t. p. (n° 116001 à 240000)",
      "share_type": {
        "id": 1,
        "name": "Stock (Action)"
      },
      "types": [
        {
          "start_date": "1926-04-28",
          "end_date": "3999-12-31",
          "id": 18,
          "name": "Action",
          "stock_group": "S"
        }
      ],
      "start_date": "1926-04-28",
      "end_date": "3999-12-31",
      "prices_from": "1926-05-03",
      "prices_to": "1949-06-15",
      "is_mainstock": 1,
      "prices_count": 633
    },
    "10192": {
      "id": 10192,
      "name": "Mines de Carmaux 5% 1931, remb. à 1000 fr. 1937-66",
      "share_type": {
        "id": 2,
        "name": "Bond (Obligation)"
      },
      "types": [
        {
          "start_date": "1932-03-29",
          "end_date": "3999-12-31",
          "id": 1001,
          "name": "Obligation ordinaire ou classique",
          "stock_group": "B"
        }
      ],
      "start_date": "1932-03-29",
      "end_date": "3999-12-31",
      "prices_from": "1932-03-29",
      "prices_to": "1943-04-15",
      "is_mainstock": 0,
      "prices_count": 263
    },
    "11573": {
      "id": 11573,
      "name": "Mines de Carmaux, act. 150 fr., t. p. (n°s 116001 à 240000) (dr. Et c. 29 att.)",
      "share_type": {
        "id": 1,
        "name": "Stock (Action)"
      },
      "types": [
        {
          "start_date": "1942-02-11",
          "end_date": "3999-12-31",
          "id": 18,
          "name": "Action",
          "stock_group": "S"
        }
      ],
      "start_date": "1942-02-11",
      "end_date": "3999-12-31",
      "prices_from": "1942-02-13",
      "prices_to": "1942-03-16",
      "is_mainstock": 0,
      "prices_count": 4
    },
    "11574": {
      "id": 11574,
      "name": "Mines de Carmaux, Act. De jouiss. (dr. Et c. 128 att.)",
      "share_type": {
        "id": 1,
        "name": "Stock (Action)"
      },
      "types": [
        {
          "start_date": "1942-02-11",
          "end_date": "3999-12-31",
          "id": 22,
          "name": "Action de jouissance",
          "stock_group": "S"
        }
      ],
      "start_date": "1942-02-11",
      "end_date": "3999-12-31",
      "prices_from": "1942-02-16",
      "prices_to": "1942-03-16",
      "is_mainstock": 0,
      "prices_count": 4
    },
    "11974": {
      "id": 11974,
      "name": "Carmaux 4% 1943 (Rach. Ou Tir.) 1944-78",
      "share_type": {
        "id": 2,
        "name": "Bond (Obligation)"
      },
      "types": [
        {
          "start_date": "1943-09-14",
          "end_date": "3999-12-31",
          "id": 1001,
          "name": "Obligation ordinaire ou classique",
          "stock_group": "B"
        }
      ],
      "start_date": "1943-09-14",
      "end_date": "3999-12-31",
      "prices_from": "1943-09-14",
      "prices_to": "1973-08-31",
      "is_mainstock": 0,
      "prices_count": 725
    },
    "13357": {
      "id": 13357,
      "name": "Mines de Carmaux, act. Cap. Ou jouiss.",
      "share_type": {
        "id": 1,
        "name": "Stock (Action)"
      },
      "types": [
        {
          "start_date": "1949-06-30",
          "end_date": "3999-12-31",
          "id": 18,
          "name": "Action",
          "stock_group": "S"
        }
      ],
      "start_date": "1949-06-30",
      "end_date": "3999-12-31",
      "prices_from": "1949-06-30",
      "prices_to": "1950-02-15",
      "is_mainstock": 0,
      "prices_count": 18
    },
    "25318": {
      "id": 25318,
      "name": "Mines Carmaux, a.nouv.150f., non estampillès",
      "share_type": {
        "id": 1,
        "name": "Stock (Action)"
      },
      "types": [
        {
          "start_date": "1000-01-01",
          "end_date": "3999-12-31",
          "id": 18,
          "name": "Action",
          "stock_group": "S"
        }
      ],
      "start_date": "1921-01-07",
      "end_date": "3999-12-31",
      "prices_from": "1921-08-16",
      "prices_to": "1921-09-15",
      "is_mainstock": 0,
      "prices_count": 2
    },
    "102278": {
      "id": 102278,
      "name": "Act. de capital et de jouiss. MINES DE CARNAUX (droit et coupon 29 ou 128). Pour 1 action anc. de cap. ou de jouiss, 1 action nouvelle émise à 150 francs.",
      "share_type": {
        "id": 4,
        "name": "Rights (Droits)"
      },
      "types": [
        {
          "start_date": "1942-02-11",
          "end_date": "1942-04-07",
          "id": 501,
          "name": "Droit de souscription",
          "stock_group": "R"
        }
      ],
      "start_date": "1942-02-11",
      "end_date": "1942-04-07",
      "prices_from": "1942-02-11",
      "prices_to": "1942-03-31",
      "is_mainstock": 0,
      "prices_count": 5
    },
    "102336": {
      "id": 102336,
      "name": "Act. De jouissance Mines de Carmaux (droit et coupon 91)",
      "share_type": {
        "id": 4,
        "name": "Rights (Droits)"
      },
      "types": [
        {
          "start_date": "1925-06-16",
          "end_date": "1925-08-27",
          "id": 501,
          "name": "Droit de souscription",
          "stock_group": "R"
        }
      ],
      "start_date": "1925-06-16",
      "end_date": "1925-08-27",
      "prices_from": "1925-06-24",
      "prices_to": "1925-08-17",
      "is_mainstock": 0,
      "prices_count": 0
    },
    "102701": {
      "id": 102701,
      "name": "Act. Mines de Carmaux (droit à la répartition et droit d'acquisition)",
      "share_type": {
        "id": 4,
        "name": "Rights (Droits)"
      },
      "types": [
        {
          "start_date": "1924-07-01",
          "end_date": "1924-09-26",
          "id": 501,
          "name": "Droit de souscription",
          "stock_group": "R"
        }
      ],
      "start_date": "1924-07-01",
      "end_date": "1924-09-26",
      "prices_from": "1924-07-01",
      "prices_to": "1924-09-15",
      "is_mainstock": 0,
      "prices_count": 0
    },
    "103577": {
      "id": 103577,
      "name": "Actions Sté des Mines de Carmaux (droit à répartition et à acquisition)",
      "share_type": {
        "id": 4,
        "name": "Rights (Droits)"
      },
      "types": [
        {
          "start_date": "1921-07-01",
          "end_date": "1921-09-28",
          "id": 501,
          "name": "Droit de souscription",
          "stock_group": "R"
        }
      ],
      "start_date": "1921-07-01",
      "end_date": "1921-09-28",
      "prices_from": "1921-07-05",
      "prices_to": "1921-09-15",
      "is_mainstock": 0,
      "prices_count": 0
    }
  }
}