{
  "id": 4409,
  "names": [
    "J. VISSEAUX S.A.",
    "J. Visseaux S.A."
  ],
  "name": "J. VISSEAUX S.A.",
  "balance_sheets": [
    {
      "start_date": "1949-03-31",
      "source": "Annuaire Desfossés 1953",
      "page": "1263"
    },
    {
      "start_date": "1950-03-31",
      "source": "Annuaire Desfossés 1953",
      "page": "1263"
    },
    {
      "start_date": "1951-03-31",
      "source": "Annuaire Desfossés 1953",
      "page": "1263"
    }
  ],
  "balance_sheets_stats": {
    "start_date": "1949-03-31",
    "end_date": "1951-03-31"
  },
  "locations_stats": {
    "start_date": "1953-01-01",
    "end_date": "1953-12-31"
  },
  "locations": {
    "Siège social": [
      {
        "location_types_id": 1,
        "location_type": "Siège social",
        "address": "Quai pierre-scize, 88",
        "city": "Lyon",
        "district": "Rhône",
        "country": "France",
        "in_yearbook_from": 1953,
        "in_yearbook_to": 1953
      }
    ],
    "Agences / Succursales": [
      {
        "location_types_id": 4,
        "location_type": "Agences / Succursales",
        "address": "Rue lafayette, 103",
        "city": "Paris",
        "district": "Paris",
        "country": "France",
        "in_yearbook_from": 1953,
        "in_yearbook_to": 1953
      }
    ]
  },
  "persons": [
    {
      "persons_count": 7,
      "yearbook": "Annuaire Desfossés 1953",
      "source": "annuaire_df_1953",
      "page": "1263"
    }
  ],
  "persons_stats": {
    "persons_count": 7,
    "start_date": "1953-01-01",
    "end_date": "1953-12-31"
  },
  "yearbooks_ocrs": [
    {
      "source": "annuaire_df_1953",
      "yearbook": "Annuaire Desfossés 1953",
      "page": "1263"
    }
  ],
  "juridical_status": [
    {
      "juridical_status": "Société Anonyme (Libre)",
      "start_date": "1949-04-01",
      "end_date": "2048-04-01",
      "comments": "CONSTITUTION : Affaire familiale créée en 1900, transformée en Société anonyme française au 1er avril 1949, pour une durée de 99 ans.",
      "source": "annuaire_df_1953"
    }
  ],
  "equity_capital": [
    {
      "amount": "18.000.000",
      "currency": "Franc",
      "infodate": "1918-01-01",
      "source": "annuaire_df_1953",
      "comments": " 500 millions, divisé en 100.000 actions de 5.000 fr. A l'origine, 18 millions; porté en 1943 à 30 millions, en mars 1948 à 45 millions, en septembre 1948 à 150 millions, , en 1949 à 200 millions, en 1951 à 300 millions. Porté fin 1952 à 500 millions par émission de 40.000 actions de 5.000 fr. (2.pour 3)."
    },
    {
      "amount": "45.000.000",
      "currency": "Franc",
      "infodate": "1948-03-01",
      "source": "annuaire_df_1953",
      "comments": "500 millions, divisé en 100.000 actions de 5.000 fr. A l'origine, 18 millions; porté en 1943 à 30 millions, en mars 1948 à 45 millions, en septembre 1948 à 150 millions, , en 1949 à 200 millions, en 1951 à 300 millions. Porté fin 1952 à 500 millions par émission de 40.000 actions de 5.000 fr. (2.pour 3)."
    },
    {
      "amount": "30.000.000",
      "currency": "Franc",
      "infodate": "1948-03-01",
      "source": "annuaire_df_1953",
      "comments": "500 millions, divisé en 100.000 actions de 5.000 fr. A l'origine, 18 millions; porté en 1943 à 30 millions, en mars 1948 à 45 millions, en septembre 1948 à 150 millions, , en 1949 à 200 millions, en 1951 à 300 millions. Porté fin 1952 à 500 millions par émission de 40.000 actions de 5.000 fr. (2.pour 3)."
    },
    {
      "amount": "150.000.000",
      "currency": "Franc",
      "infodate": "1948-09-01",
      "source": "annuaire_df_1953",
      "comments": "500 millions, divisé en 100.000 actions de 5.000 fr. A l'origine, 18 millions; porté en 1943 à 30 millions, en mars 1948 à 45 millions, en septembre 1948 à 150 millions, , en 1949 à 200 millions, en 1951 à 300 millions. Porté fin 1952 à 500 millions par émission de 40.000 actions de 5.000 fr. (2.pour 3)."
    },
    {
      "amount": "200.000.000",
      "currency": "Franc",
      "infodate": "1949-04-01",
      "source": "annuaire_df_1953",
      "comments": "500 millions, divisé en 100.000 actions de 5.000 fr. A l'origine, 18 millions; porté en 1943 à 30 millions, en mars 1948 à 45 millions, en septembre 1948 à 150 millions, , en 1949 à 200 millions, en 1951 à 300 millions. Porté fin 1952 à 500 millions par émission de 40.000 actions de 5.000 fr. (2.pour 3)."
    },
    {
      "amount": "300.000.000",
      "currency": "Franc",
      "infodate": "1951-01-01",
      "source": "annuaire_df_1953",
      "comments": "500 millions, divisé en 100.000 actions de 5.000 fr. A l'origine, 18 millions; porté en 1943 à 30 millions, en mars 1948 à 45 millions, en septembre 1948 à 150 millions, , en 1949 à 200 millions, en 1951 à 300 millions. Porté fin 1952 à 500 millions par émission de 40.000 actions de 5.000 fr. (2.pour 3)."
    },
    {
      "amount": "500.000.000",
      "currency": "Franc",
      "infodate": "1952-01-01",
      "source": "annuaire_df_1953",
      "comments": "500 millions, divisé en 100.000 actions de 5.000 fr. A l'origine, 18 millions; porté en 1943 à 30 millions, en mars 1948 à 45 millions, en septembre 1948 à 150 millions, , en 1949 à 200 millions, en 1951 à 300 millions. Porté fin 1952 à 500 millions par émission de 40.000 actions de 5.000 fr. (2.pour 3)."
    }
  ],
  "profit_dividends": [
    {
      "first_date": "1949-12-31",
      "last_date": "1951-12-31",
      "obs_count": 12
    }
  ],
  "public_status": false,
  "stock_exchanges": {
    "1": {
      "id": 1,
      "name": "Paris (Official List)",
      "listings_stats": {
        "start_date": "1962-01-02"
      },
      "spot_prices_stats": {
        "start_date": "1962-01-02",
        "end_date": "1973-08-31"
      }
    }
  },
  "securities": {
    "17210": {
      "id": 17210,
      "name": "Visseaux (Etabl.) 6,5 % 1949 1950-74",
      "share_type": {
        "id": 2,
        "name": "Bond (Obligation)"
      },
      "types": [
        {
          "start_date": "1962-01-02",
          "end_date": "3999-12-31",
          "id": 1001,
          "name": "Obligation ordinaire ou classique",
          "stock_group": "B"
        }
      ],
      "start_date": "1962-01-02",
      "end_date": "3999-12-31",
      "prices_from": "1962-01-02",
      "prices_to": "1973-08-31",
      "is_mainstock": 0,
      "prices_count": 282
    }
  }
}