{
  "id": 15467,
  "names": [
    "Société des ateliers de construction de la Madeleine-Lez-Lille"
  ],
  "name": "Société des ateliers de construction de la Madeleine-Lez-Lille",
  "balance_sheets": [],
  "balance_sheets_stats": {
    "start_date": null,
    "end_date": null
  },
  "locations_stats": {
    "start_date": null,
    "end_date": null
  },
  "locations": {},
  "persons": [],
  "persons_stats": {
    "persons_count": 0,
    "start_date": null,
    "end_date": null
  },
  "yearbooks_ocrs": [],
  "juridical_status": [],
  "equity_capital": [],
  "profit_dividends": [],
  "public_status": false,
  "stock_exchanges": {
    "2": {
      "id": 2,
      "name": "Paris OTC (Coulisse)",
      "listings_stats": {
        "start_date": "1898-04-30"
      },
      "spot_prices_stats": {
        "start_date": "1898-04-30",
        "end_date": "1898-12-31"
      }
    }
  },
  "securities": {
    "106006": {
      "id": 106006,
      "name": "LA MADELEINE-LEZ-LILLE",
      "share_type": {
        "id": 1,
        "name": "Stock (Action)"
      },
      "types": [
        {
          "start_date": "1898-04-30",
          "end_date": "1898-12-31",
          "id": 18,
          "name": "Action",
          "stock_group": "S"
        }
      ],
      "start_date": "1898-04-30",
      "end_date": "1898-12-31",
      "prices_from": "1898-04-30",
      "prices_to": "1898-12-31",
      "is_mainstock": 1,
      "prices_count": 25
    }
  }
}