{
  "id": 12086,
  "names": [
    "SCIERIES MÉCANIQUES DU SUD-OUEST",
    "Scieries mécaniques du Sud-Ouest"
  ],
  "name": "SCIERIES MÉCANIQUES DU SUD-OUEST",
  "balance_sheets": [
    {
      "start_date": "1920-06-30",
      "source": "Annuaire Desfossés 1920",
      "page": "1170"
    }
  ],
  "balance_sheets_stats": {
    "start_date": "1920-06-30",
    "end_date": "1920-06-30"
  },
  "locations_stats": {
    "start_date": "1920-01-01",
    "end_date": "1920-12-31"
  },
  "locations": {
    "Siège social": [
      {
        "location_types_id": 1,
        "location_type": "Siège social",
        "address": "Allées de tourny, 35",
        "city": "Bordeaux",
        "district": "Gironde",
        "country": "France",
        "in_yearbook_from": 1920,
        "in_yearbook_to": 1920
      }
    ]
  },
  "persons": [],
  "persons_stats": {
    "persons_count": 0,
    "start_date": null,
    "end_date": null
  },
  "yearbooks_ocrs": [
    {
      "source": "annuaire_df_1920",
      "yearbook": "Annuaire Desfossés 1920",
      "page": "1170"
    }
  ],
  "juridical_status": [
    {
      "juridical_status": "Société Anonyme (Libre)",
      "start_date": "1919-12-26",
      "end_date": "1969-12-26",
      "comments": "Société anonyme française, constituée le 26 décembre 1919, pour une durée de 50 ans.",
      "source": "annuaire_df_1920"
    }
  ],
  "equity_capital": [],
  "profit_dividends": [],
  "public_status": false
}