{
  "id": 2539,
  "names": [
    "Compagnie Insulaire de Navigation à Vapeur, F.Morelli et Cie",
    "Compagnie insulaire de navigation à vapeur F Morelli et Cie",
    "Compagnie insulaire de navigation à vapeur F. Morelli et Cie"
  ],
  "name": "Compagnie insulaire de navigation à vapeur F Morelli et Cie",
  "balance_sheets": [],
  "balance_sheets_stats": {
    "start_date": null,
    "end_date": null
  },
  "locations_stats": {
    "start_date": "1884-01-01",
    "end_date": "1893-12-31"
  },
  "locations": {
    "Siège social": [
      {
        "location_types_id": 1,
        "location_type": "Siège social",
        "address": null,
        "city": "Marseille",
        "district": "Bouches-du-Rhône",
        "country": "France",
        "in_yearbook_from": 1884,
        "in_yearbook_to": 1889
      },
      {
        "location_types_id": 1,
        "location_type": "Siège social",
        "address": null,
        "city": "Bastia",
        "district": "Corse",
        "country": "France",
        "in_yearbook_from": 1893,
        "in_yearbook_to": 1893
      }
    ],
    "Siège de la faillite": [
      {
        "location_types_id": 18,
        "location_type": "Siège de la faillite",
        "address": null,
        "city": "Marseille",
        "district": "Bouches-du-Rhône",
        "country": "France",
        "in_yearbook_from": 1893,
        "in_yearbook_to": 1893
      }
    ]
  },
  "persons": [
    {
      "persons_count": 8,
      "yearbook": "Annuaire de la Compagnie des Agents de Change 1883",
      "source": "annuaire_cac_1883",
      "page": "1332"
    },
    {
      "persons_count": 5,
      "yearbook": "Annuaire de la Compagnie des Agents de Change 1888",
      "source": "annuaire_cac_1888",
      "page": "1429"
    },
    {
      "persons_count": 2,
      "yearbook": "Annuaire de la Compagnie des Agents de Change 1893",
      "source": "annuaire_cac_1893",
      "page": "1799"
    }
  ],
  "persons_stats": {
    "persons_count": 15,
    "start_date": "1883-01-01",
    "end_date": "1893-12-31"
  },
  "yearbooks_ocrs": [
    {
      "source": "annuaire_cac_1883",
      "yearbook": "Annuaire de la Compagnie des Agents de Change 1883",
      "page": "1332"
    },
    {
      "source": "annuaire_cac_1888",
      "yearbook": "Annuaire de la Compagnie des Agents de Change 1888",
      "page": "1429"
    },
    {
      "source": "annuaire_cac_1893",
      "yearbook": "Annuaire de la Compagnie des Agents de Change 1893",
      "page": "1799"
    }
  ],
  "juridical_status": [
    {
      "juridical_status": "Société en Commandite par actions",
      "start_date": "1850-09-06",
      "end_date": "1891-05-04",
      "comments": "Société en commandite par actions, formée par acte du 6 septembre 1850, modifiée par délibération des Assemblées générales des 5 septembre 1858, 6 novembre 1859, 8 avril 1860, 30 avril 1871, 10 mars 1878, 11 mai 1879,. 17 et 18 janvier 1883; régie par statuts déposés le 5 février 1883 à Me Sca-telli, notaire à Bastia, modifiés par décision de l’Assemblée générale du 29 novembre 1889.",
      "source": "annuaire_cac_1893"
    },
    {
      "juridical_status": "Mise en faillite",
      "start_date": "1891-05-05",
      "end_date": "3999-12-31",
      "comments": "La Société a été déclarée en faillite par jugements du tribunal de commerce de Marseille des 17 avril et 5 mai 1891, confirmés par arrêt de la cour d’appel d’Aix du 5 août 1891.",
      "source": "annuaire_cac_1893"
    }
  ],
  "equity_capital": [
    {
      "amount": "2.640.000",
      "currency": null,
      "infodate": "1871-04-30",
      "source": "annuaire_cac_1883",
      "comments": "Le capital social s’élevait, en 1871, à 2,640,000 fr., divisé en 5.280 actions. Par décision de l’assemblée générale du 30 avril 1871, il a été porté en novembre 1871, par l’émission de 4,720 actions nouvelles, à 5 millions, divisé par conséquent en 10,000 actions au porteur entièrement libérées, émises à 500 fr."
    },
    {
      "amount": "5.000.000",
      "currency": null,
      "infodate": "1871-11-01",
      "source": "annuaire_cac_1883",
      "comments": "il a été porté en novembre 1871, par l’émission de 4,720 actions nouvelles, à 5 millions, divisé par conséquent en 10,000 actions au porteur entièrement libérées, émises à 500 fr. Les intérêts et dividendes se payent à des époques irrégulières; mais, en général, fin octobre à lin novembre."
    }
  ],
  "profit_dividends": [
    {
      "first_date": "1872-12-31",
      "last_date": "1887-12-31",
      "obs_count": 16
    }
  ],
  "public_status": false,
  "stock_exchanges": {
    "1": {
      "id": 1,
      "name": "Paris (Official List)",
      "listings_stats": {
        "start_date": "1883-04-11"
      },
      "spot_prices_stats": {
        "start_date": "1883-04-13",
        "end_date": "1907-08-31"
      }
    },
    "2": {
      "id": 2,
      "name": "Paris OTC (Coulisse)",
      "listings_stats": {
        "start_date": "1884-01-15"
      },
      "spot_prices_stats": {
        "start_date": "1884-03-15",
        "end_date": "1889-10-31"
      }
    }
  },
  "securities": {
    "3110": {
      "id": 3110,
      "name": "Cie insulaire de navigat. à vapeur F. Morelli et Cie",
      "share_type": {
        "id": 1,
        "name": "Stock (Action)"
      },
      "types": [
        {
          "start_date": "1883-04-20",
          "end_date": "3999-12-31",
          "id": 18,
          "name": "Action",
          "stock_group": "S"
        }
      ],
      "start_date": "1883-04-20",
      "end_date": "3999-12-31",
      "prices_from": null,
      "prices_to": null,
      "is_mainstock": 1,
      "prices_count": 0
    },
    "3324": {
      "id": 3324,
      "name": "Valéry 6% 1878, remb. à 415f785 le 1er avril 1908",
      "share_type": {
        "id": 2,
        "name": "Bond (Obligation)"
      },
      "types": [
        {
          "start_date": "1883-04-11",
          "end_date": "3999-12-31",
          "id": 1001,
          "name": "Obligation ordinaire ou classique",
          "stock_group": "B"
        }
      ],
      "start_date": "1883-04-11",
      "end_date": "3999-12-31",
      "prices_from": "1883-04-13",
      "prices_to": "1907-08-31",
      "is_mainstock": 0,
      "prices_count": 220
    },
    "40403": {
      "id": 40403,
      "name": "Cie insulaire de navigat. à vapeur F. Morelli et Cie, obligations nouvelles",
      "share_type": {
        "id": 2,
        "name": "Bond (Obligation)"
      },
      "types": [
        {
          "start_date": "1000-01-01",
          "end_date": "3999-12-31",
          "id": 1001,
          "name": "Obligation ordinaire ou classique",
          "stock_group": "B"
        }
      ],
      "start_date": "1000-01-01",
      "end_date": "3999-12-31",
      "prices_from": null,
      "prices_to": null,
      "is_mainstock": 0,
      "prices_count": 0
    },
    "104889": {
      "id": 104889,
      "name": "Obl. Morelli 5% juin 84",
      "share_type": {
        "id": 2,
        "name": "Bond (Obligation)"
      },
      "types": [
        {
          "start_date": "1884-01-15",
          "end_date": "1889-12-31",
          "id": 1001,
          "name": "Obligation ordinaire ou classique",
          "stock_group": "B"
        }
      ],
      "start_date": "1884-01-15",
      "end_date": "1889-12-31",
      "prices_from": "1884-03-15",
      "prices_to": "1889-10-31",
      "is_mainstock": 0,
      "prices_count": 91
    }
  }
}