{
  "id": 11582,
  "names": [
    "COMPAGNIE DES MESSAGERIES MARITIMES",
    "Compagnie des Messageries Maritimes"
  ],
  "name": "COMPAGNIE DES MESSAGERIES MARITIMES",
  "balance_sheets": [
    {
      "start_date": "1932-12-31",
      "source": "Annuaire Desfossés 1936",
      "page": null
    },
    {
      "start_date": "1949-12-31",
      "source": "Annuaire Desfossés 1953",
      "page": "469"
    },
    {
      "start_date": "1950-12-31",
      "source": "Annuaire Desfossés 1953",
      "page": "469"
    },
    {
      "start_date": "1951-12-31",
      "source": "Annuaire Desfossés 1953",
      "page": "469"
    }
  ],
  "balance_sheets_stats": {
    "start_date": "1932-12-31",
    "end_date": "1951-12-31"
  },
  "locations_stats": {
    "start_date": "1953-01-01",
    "end_date": "1953-12-31"
  },
  "locations": {
    "Siège social": [
      {
        "location_types_id": 1,
        "location_type": "Siège social",
        "address": "Boulevard de la madeleine, 12",
        "city": "Paris",
        "district": "Paris",
        "country": "France",
        "in_yearbook_from": 1953,
        "in_yearbook_to": 1953
      }
    ]
  },
  "persons": [
    {
      "persons_count": 15,
      "yearbook": "Annuaire Desfossés 1953",
      "source": "annuaire_df_1953",
      "page": "469"
    }
  ],
  "persons_stats": {
    "persons_count": 15,
    "start_date": "1953-01-01",
    "end_date": "1953-12-31"
  },
  "yearbooks_ocrs": [
    {
      "source": "annuaire_df_1953",
      "yearbook": "Annuaire Desfossés 1953",
      "page": "469"
    }
  ],
  "juridical_status": [
    {
      "juridical_status": "Société Anonyme (Libre)",
      "start_date": "1948-07-31",
      "end_date": "3999-12-31",
      "comments": "CONSTITUTION : Société anonyme française constituée le 31 juillet 1948, en exécution de l'article 15 de la loi du 28 février 1948 portant organisation de la Marine marchande, par apports de l'Etat et de l'ancienne Compagnie des Messageries Maritimes.",
      "source": "annuaire_df_1953"
    }
  ],
  "equity_capital": [
    {
      "amount": "4.000.000.000",
      "currency": "Franc",
      "infodate": "1948-07-31",
      "source": "annuaire_df_1953",
      "comments": " (source bilan) 4 milliards de fr., divisé en 4 millions d'actions de 1.000 fr., entièrement libérées, regroupées depuis le 12 novembre 1951 en 1.600.000 act. de 2.500 fr."
    }
  ],
  "profit_dividends": [
    {
      "first_date": "1949-12-31",
      "last_date": "1951-12-31",
      "obs_count": 14
    }
  ],
  "public_status": false,
  "stock_exchanges": {
    "1": {
      "id": 1,
      "name": "Paris (Official List)",
      "listings_stats": {
        "start_date": "1954-11-24"
      },
      "spot_prices_stats": {
        "start_date": "1954-11-24",
        "end_date": "1976-12-31"
      }
    }
  },
  "securities": {
    "14808": {
      "id": 14808,
      "name": "Messageries Maritimes (Cie des), act.",
      "share_type": {
        "id": 1,
        "name": "Stock (Action)"
      },
      "types": [
        {
          "start_date": "1954-11-24",
          "end_date": "3999-12-31",
          "id": 11,
          "name": "Action ordinaire",
          "stock_group": "S"
        }
      ],
      "start_date": "1948-07-31",
      "end_date": "3999-12-31",
      "prices_from": "1954-11-24",
      "prices_to": "1976-12-31",
      "is_mainstock": 0,
      "prices_count": 570
    },
    "17990": {
      "id": 17990,
      "name": "Messageries Maritimes (Cie des), Act. anc.",
      "share_type": {
        "id": 1,
        "name": "Stock (Action)"
      },
      "types": [
        {
          "start_date": "1963-05-06",
          "end_date": "3999-12-31",
          "id": 18,
          "name": "Action",
          "stock_group": "S"
        }
      ],
      "start_date": "1948-07-31",
      "end_date": "3999-12-31",
      "prices_from": "1963-05-06",
      "prices_to": "1965-04-30",
      "is_mainstock": 0,
      "prices_count": 49
    },
    "19762": {
      "id": 19762,
      "name": "Messageries Maritimes (Cie des) 6,25% fév. 1967 (c. 1/2/68 att.) 1970-85",
      "share_type": {
        "id": 2,
        "name": "Bond (Obligation)"
      },
      "types": [
        {
          "start_date": "1967-06-30",
          "end_date": "3999-12-31",
          "id": 1001,
          "name": "Obligation ordinaire ou classique",
          "stock_group": "B"
        }
      ],
      "start_date": "1948-07-31",
      "end_date": "3999-12-31",
      "prices_from": "1967-06-30",
      "prices_to": "1976-12-31",
      "is_mainstock": 0,
      "prices_count": 162
    },
    "20718": {
      "id": 20718,
      "name": "Messageries Maritimes (Cie des) 7% mars 1969 (c. 15/3/71 att.) (Tir. 30/1/70) (Garanti par l'Etat) 1970-86",
      "share_type": {
        "id": 2,
        "name": "Bond (Obligation)"
      },
      "types": [
        {
          "start_date": "1970-08-17",
          "end_date": "3999-12-31",
          "id": 1001,
          "name": "Obligation ordinaire ou classique",
          "stock_group": "B"
        }
      ],
      "start_date": "1948-07-31",
      "end_date": "3999-12-31",
      "prices_from": "1970-08-19",
      "prices_to": "1976-12-31",
      "is_mainstock": 0,
      "prices_count": 154
    },
    "21019": {
      "id": 21019,
      "name": "Messageries Maritimes (Cie des) 8,5% avril 1970 (c. 15/4/73 att.) (Garanti par l'Etat) (Avis 72-541)…1973-87",
      "share_type": {
        "id": 2,
        "name": "Bond (Obligation)"
      },
      "types": [
        {
          "start_date": "1972-07-25",
          "end_date": "3999-12-31",
          "id": 1001,
          "name": "Obligation ordinaire ou classique",
          "stock_group": "B"
        }
      ],
      "start_date": "1948-07-31",
      "end_date": "3999-12-31",
      "prices_from": "1972-07-27",
      "prices_to": "1976-12-31",
      "is_mainstock": 0,
      "prices_count": 108
    },
    "21020": {
      "id": 21020,
      "name": "Messageries Maritimes (Cie des) 8,50% déc. 1970 - sept. 1971 (Garanti par l'Etat) (Avis 72-542 et 72-978) 1974-90",
      "share_type": {
        "id": 2,
        "name": "Bond (Obligation)"
      },
      "types": [
        {
          "start_date": "1972-07-25",
          "end_date": "3999-12-31",
          "id": 1001,
          "name": "Obligation ordinaire ou classique",
          "stock_group": "B"
        }
      ],
      "start_date": "1948-07-31",
      "end_date": "3999-12-31",
      "prices_from": "1972-07-27",
      "prices_to": "1976-12-31",
      "is_mainstock": 0,
      "prices_count": 108
    },
    "21179": {
      "id": 21179,
      "name": "Messageries Maritimes (Cie des) 8,5% mai 1972 (c. 12/5/73 att.) (Garanti par l'Etat) (Avis 72-994)…1976-92",
      "share_type": {
        "id": 2,
        "name": "Bond (Obligation)"
      },
      "types": [
        {
          "start_date": "1972-12-28",
          "end_date": "3999-12-31",
          "id": 1001,
          "name": "Obligation ordinaire ou classique",
          "stock_group": "B"
        }
      ],
      "start_date": "1948-07-31",
      "end_date": "3999-12-31",
      "prices_from": "1972-12-28",
      "prices_to": "1976-12-31",
      "is_mainstock": 0,
      "prices_count": 98
    },
    "21238": {
      "id": 21238,
      "name": "Messageries Maritimes (Cie des) 8% novembre 1972 de 1000 F (c. 27/11/73 att.) (Garanti par l'Etat) (Avis 73-810). 1977-92",
      "share_type": {
        "id": 2,
        "name": "Bond (Obligation)"
      },
      "types": [
        {
          "start_date": "1973-09-27",
          "end_date": "3999-12-31",
          "id": 1001,
          "name": "Obligation ordinaire ou classique",
          "stock_group": "B"
        }
      ],
      "start_date": "1948-07-31",
      "end_date": "3999-12-31",
      "prices_from": "1973-10-01",
      "prices_to": "1976-12-31",
      "is_mainstock": 0,
      "prices_count": 79
    },
    "21264": {
      "id": 21264,
      "name": "Messageries Maritimes (Cie des) 8,60% mars 1973 de 1000 F (c. 22/3/74 att.) (Garanti par l'Etat) (Avis 73-870). 1977-92",
      "share_type": {
        "id": 2,
        "name": "Bond (Obligation)"
      },
      "types": [
        {
          "start_date": "1973-10-12",
          "end_date": "3999-12-31",
          "id": 1001,
          "name": "Obligation ordinaire ou classique",
          "stock_group": "B"
        }
      ],
      "start_date": "1948-07-31",
      "end_date": "3999-12-31",
      "prices_from": "1973-10-15",
      "prices_to": "1976-12-31",
      "is_mainstock": 0,
      "prices_count": 78
    },
    "21448": {
      "id": 21448,
      "name": "Messageries Maritimes (cie des), 9,30% déc 1973 de 1000F (n° 1 à 40000) (avis 74-662) (Garanti par l'Etat) 1990-93",
      "share_type": {
        "id": 2,
        "name": "Bond (Obligation)"
      },
      "types": [
        {
          "start_date": "1974-08-12",
          "end_date": "3999-12-31",
          "id": 1001,
          "name": "Obligation ordinaire ou classique",
          "stock_group": "B"
        }
      ],
      "start_date": "1948-07-31",
      "end_date": "3999-12-31",
      "prices_from": "1974-08-16",
      "prices_to": "1976-12-31",
      "is_mainstock": 0,
      "prices_count": 53
    }
  }
}