{
  "id": 297,
  "names": [
    "Pont de Condrieu"
  ],
  "name": "Pont de Condrieu",
  "balance_sheets": [],
  "balance_sheets_stats": {
    "start_date": null,
    "end_date": null
  },
  "locations_stats": {
    "start_date": "1839-01-01",
    "end_date": "1839-12-31"
  },
  "locations": {
    "Siège social": [
      {
        "location_types_id": 1,
        "location_type": "Siège social",
        "address": null,
        "city": "Condrieu",
        "district": "Rhône",
        "country": "France",
        "in_yearbook_from": 1839,
        "in_yearbook_to": 1839
      }
    ]
  },
  "persons": [],
  "persons_stats": {
    "persons_count": 0,
    "start_date": null,
    "end_date": null
  },
  "yearbooks_ocrs": [],
  "juridical_status": [
    {
      "juridical_status": "Société Anonyme (Libre)",
      "start_date": "1835-09-19",
      "end_date": "3999-12-31",
      "comments": "Société fondée en septembre 1835.",
      "source": "Bresson 1839"
    }
  ],
  "equity_capital": [],
  "profit_dividends": [],
  "public_status": false
}