{
  "id": 4857,
  "names": [
    "CHANTIERS NAVALS DE L'OUEST",
    "Chantiers naval de l'Ouest"
  ],
  "name": "Chantiers naval de l'Ouest",
  "balance_sheets": [
    {
      "start_date": "1919-03-31",
      "source": "Annuaire Desfossés 1925",
      "page": "829"
    },
    {
      "start_date": "1925-03-31",
      "source": "Annuaire Desfossés 1927",
      "page": "662"
    },
    {
      "start_date": "1930-03-31",
      "source": "Annuaire Desfossés 1932",
      "page": null
    }
  ],
  "balance_sheets_stats": {
    "start_date": "1919-03-31",
    "end_date": "1930-03-31"
  },
  "locations_stats": {
    "start_date": "1920-01-01",
    "end_date": "1927-12-31"
  },
  "locations": {
    "Siège social": [
      {
        "location_types_id": 1,
        "location_type": "Siège social",
        "address": "Route de la révolte, n° 5",
        "city": "Neuilly-sur-Seine",
        "district": "Paris",
        "country": "France",
        "in_yearbook_from": 1920,
        "in_yearbook_to": 1923
      },
      {
        "location_types_id": 1,
        "location_type": "Siège social",
        "address": "Rue du faubourg-saint-honoré, 73",
        "city": "Paris",
        "district": "Paris",
        "country": "France",
        "in_yearbook_from": 1924,
        "in_yearbook_to": 1927
      }
    ]
  },
  "persons": [
    {
      "persons_count": 2,
      "yearbook": "Annuaire Desfossés 1923",
      "source": "annuaire_df_1923",
      "page": "726"
    },
    {
      "persons_count": 6,
      "yearbook": "Annuaire Desfossés 1927",
      "source": "annuaire_df_1927",
      "page": "662"
    }
  ],
  "persons_stats": {
    "persons_count": 7,
    "start_date": "1923-01-01",
    "end_date": "1927-12-31"
  },
  "yearbooks_ocrs": [
    {
      "source": "annuaire_df_1920",
      "yearbook": "Annuaire Desfossés 1920",
      "page": "653"
    },
    {
      "source": "annuaire_df_1923",
      "yearbook": "Annuaire Desfossés 1923",
      "page": "726"
    },
    {
      "source": "annuaire_df_1925",
      "yearbook": "Annuaire Desfossés 1925",
      "page": "829"
    },
    {
      "source": "annuaire_df_1927",
      "yearbook": "Annuaire Desfossés 1927",
      "page": "662"
    }
  ],
  "juridical_status": [
    {
      "juridical_status": "Société Anonyme (Libre)",
      "start_date": "1918-03-26",
      "end_date": "1968-01-31",
      "comments": "Société anonyme française, constituée le 26 mars 1918, pour, une durée de 50 ans.",
      "source": "annuaire_df_1923"
    }
  ],
  "equity_capital": [
    {
      "amount": "5.000.000",
      "currency": "Franc",
      "infodate": "1918-03-26",
      "source": "annuaire_df_1923",
      "comments": " 12.000.000 francs divise en 120.000 actions de 100 francs, A l’origine, 5 millions porté en 1921 au chiffre actuel.\n"
    },
    {
      "amount": "12.000.000",
      "currency": "Franc",
      "infodate": "1921-01-01",
      "source": "annuaire_df_1923",
      "comments": " 12.000.000 francs divise en 120.000 actions de 100 francs, A l’origine, 5 millions porté en 1921 au chiffre actuel."
    },
    {
      "amount": "3.000.000",
      "currency": "Franc",
      "infodate": "1926-01-01",
      "source": "annuaire_df_1927",
      "comments": "7.500.000 francs divisé en 75.000 actions de 100 francs dont 40.000 ordinaires et 35.000 privilégiées 7 %, dites actions B remises aux créanciers. A l’origine, 5 millions porté en 1921 à 12 millions ramené à 3 millions en 1926 par l’échange de 4 actions anciennes contre 1 nouvelle, porté ensuite à 7.500.000 par la création l® de 10.000 actions de 100 francs du même type que celles provenant delà réduction du capital remises aux obligataires en échange du solde de leur créance ; 2° de 35.000 actions privilégiées de 100 francs 7 % dites type B."
    },
    {
      "amount": "7.500.000",
      "currency": "Franc",
      "infodate": "1926-01-01",
      "source": "annuaire_df_1927",
      "comments": "7.500.000 francs divisé en 75.000 actions de 100 francs dont 40.000 ordinaires et 35.000 privilégiées 7 %, dites actions B remises aux créanciers. A l’origine, 5 millions porté en 1921 à 12 millions ramené à 3 millions en 1926 par l’échange de 4 actions anciennes contre 1 nouvelle, porté ensuite à 7.500.000 par la création l® de 10.000 actions de 100 francs du même type que celles provenant delà réduction du capital remises aux obligataires en échange du solde de leur créance ; 2° de 35.000 actions privilégiées de 100 francs 7 % dites type B."
    }
  ],
  "profit_dividends": [
    {
      "first_date": "1918-12-31",
      "last_date": "1925-12-31",
      "obs_count": 35
    }
  ],
  "public_status": false,
  "stock_exchanges": {
    "1": {
      "id": 1,
      "name": "Paris (Official List)",
      "listings_stats": {
        "start_date": "1918-08-14"
      },
      "spot_prices_stats": {
        "start_date": "1918-08-14",
        "end_date": "1925-06-02"
      }
    }
  },
  "securities": {
    "6761": {
      "id": 6761,
      "name": "Chantiers naval de l'Ouest, a.100fr., t.p.",
      "share_type": {
        "id": 1,
        "name": "Stock (Action)"
      },
      "types": [
        {
          "start_date": "1918-08-14",
          "end_date": "3999-12-31",
          "id": 18,
          "name": "Action",
          "stock_group": "S"
        }
      ],
      "start_date": "1918-08-14",
      "end_date": "3999-12-31",
      "prices_from": "1918-08-14",
      "prices_to": "1925-05-15",
      "is_mainstock": 1,
      "prices_count": 107
    },
    "7168": {
      "id": 7168,
      "name": "Chantiers Navals de l'Ouest, 6%, remb. à 500 fr",
      "share_type": {
        "id": 2,
        "name": "Bond (Obligation)"
      },
      "types": [
        {
          "start_date": "1920-02-20",
          "end_date": "3999-12-31",
          "id": 1001,
          "name": "Obligation ordinaire ou classique",
          "stock_group": "B"
        }
      ],
      "start_date": "1920-02-20",
      "end_date": "3999-12-31",
      "prices_from": "1920-02-20",
      "prices_to": "1925-06-02",
      "is_mainstock": 0,
      "prices_count": 91
    }
  }
}