{
  "id": 11507,
  "names": [
    "SOCIETE FONCIERE ET FINANCIERE PEUGEOT",
    "SOCIÉTÉ FONCIÈRE ET FINANCIÈRE PEUGEOT",
    "Société foncière et financière Peugeot"
  ],
  "name": "SOCIETE FONCIERE ET FINANCIERE PEUGEOT",
  "balance_sheets": [
    {
      "start_date": "1941-12-31",
      "source": "Annuaire Desfossés 1945",
      "page": "440"
    },
    {
      "start_date": "1942-12-31",
      "source": "Annuaire Desfossés 1945",
      "page": "440"
    },
    {
      "start_date": "1943-12-31",
      "source": "Annuaire Desfossés 1945",
      "page": "440"
    },
    {
      "start_date": "1944-12-31",
      "source": "Annuaire Desfossés 1948",
      "page": "473"
    },
    {
      "start_date": "1945-12-31",
      "source": "Annuaire Desfossés 1948",
      "page": "473"
    },
    {
      "start_date": "1946-12-31",
      "source": "Annuaire Desfossés 1948",
      "page": "473"
    },
    {
      "start_date": "1947-12-31",
      "source": "Annuaire Desfossés 1953",
      "page": "302"
    },
    {
      "start_date": "1948-12-31",
      "source": "Annuaire Desfossés 1953",
      "page": "302"
    },
    {
      "start_date": "1949-12-31",
      "source": "Annuaire Desfossés 1953",
      "page": "302"
    },
    {
      "start_date": "1950-12-31",
      "source": "Annuaire Desfossés 1953",
      "page": "302"
    },
    {
      "start_date": "1951-12-31",
      "source": "Annuaire Desfossés 1953",
      "page": "302"
    }
  ],
  "balance_sheets_stats": {
    "start_date": "1941-12-31",
    "end_date": "1951-12-31"
  },
  "locations_stats": {
    "start_date": "1945-01-01",
    "end_date": "1953-12-31"
  },
  "locations": {
    "Siège social": [
      {
        "location_types_id": 1,
        "location_type": "Siège social",
        "address": "Rue du docteur-germain, 14",
        "city": "Paris",
        "district": "Paris",
        "country": "France",
        "in_yearbook_from": 1945,
        "in_yearbook_to": 1945
      },
      {
        "location_types_id": 1,
        "location_type": "Siège social",
        "address": "Rue du docteur-germain-sée, 14",
        "city": "Paris",
        "district": "Paris",
        "country": "France",
        "in_yearbook_from": 1948,
        "in_yearbook_to": 1953
      }
    ],
    "Siège administratif / Bureaux": [
      {
        "location_types_id": 2,
        "location_type": "Siège administratif / Bureaux",
        "address": "Boulevard haussmann, 146",
        "city": "Paris",
        "district": "Paris",
        "country": "France",
        "in_yearbook_from": 1945,
        "in_yearbook_to": 1945
      },
      {
        "location_types_id": 2,
        "location_type": "Siège administratif / Bureaux",
        "address": "Rue de berri, 29",
        "city": "Paris",
        "district": "Paris",
        "country": "France",
        "in_yearbook_from": 1948,
        "in_yearbook_to": 1953
      }
    ]
  },
  "persons": [
    {
      "persons_count": 2,
      "yearbook": "Annuaire Desfossés 1945",
      "source": "annuaire_df_1945",
      "page": "440"
    },
    {
      "persons_count": 4,
      "yearbook": "Annuaire Desfossés 1948",
      "source": "annuaire_df_1948",
      "page": "473"
    },
    {
      "persons_count": 10,
      "yearbook": "Annuaire Desfossés 1953",
      "source": "annuaire_df_1953",
      "page": "302"
    }
  ],
  "persons_stats": {
    "persons_count": 14,
    "start_date": "1945-01-01",
    "end_date": "1953-12-31"
  },
  "yearbooks_ocrs": [
    {
      "source": "annuaire_df_1945",
      "yearbook": "Annuaire Desfossés 1945",
      "page": "440"
    },
    {
      "source": "annuaire_df_1948",
      "yearbook": "Annuaire Desfossés 1948",
      "page": "473"
    },
    {
      "source": "annuaire_df_1953",
      "yearbook": "Annuaire Desfossés 1953",
      "page": "302"
    }
  ],
  "juridical_status": [
    {
      "juridical_status": "Société Anonyme (Libre)",
      "start_date": "1929-07-19",
      "end_date": "2028-07-19",
      "comments": "Société anonyme française, constituée le 19 juillet 1929, pour une durée de quatre- vingt-dix-neuf ans, sous la dénomination de Société Foncière des Grands Garages Français. E\"e a pris son titre actuel par décision d’une Assemblée extraordinaire du 11 avril 1942.",
      "source": "annuaire_df_1945"
    }
  ],
  "equity_capital": [
    {
      "amount": "10.000.000",
      "currency": "Franc",
      "infodate": "1929-07-19",
      "source": "annuaire_df_1945",
      "comments": "Carntai : 24 millions en 30.000 actions de 800 francs nominatives. A l’origine, 10 millions. Ramené de 1936 à 1938 à 6 millions par la réduction de 1.000 à 600 franès du nominal des actions opérée par l’annulation de 350 francs non appelés et un remboursement de 50 francs. Porté en 1940 à 8 millions par l’incorporation de réserves et l’élévation de 600 à 800 francs du nominal des actions; en 1942 à 10 millions (émission an Pair), puis à 20 millions (émission à 840 fr.) ; en 1943 à 24 millions (émission à 950 francs)."
    },
    {
      "amount": "6.000.000",
      "currency": "Franc",
      "infodate": "1938-01-01",
      "source": "annuaire_df_1945",
      "comments": "Carntai : 24 millions en 30.000 actions de 800 francs nominatives. A l’origine, 10 millions. Ramené de 1936 à 1938 à 6 millions par la réduction de 1.000 à 600 franès du nominal des actions opérée par l’annulation de 350 francs non appelés et un remboursement de 50 francs. Porté en 1940 à 8 millions par l’incorporation de réserves et l’élévation de 600 à 800 francs du nominal des actions; en 1942 à 10 millions (émission an Pair), puis à 20 millions (émission à 840 fr.) ; en 1943 à 24 millions (émission à 950 francs)."
    },
    {
      "amount": "8.000.000",
      "currency": "Franc",
      "infodate": "1940-01-01",
      "source": "annuaire_df_1945",
      "comments": "Carntai : 24 millions en 30.000 actions de 800 francs nominatives. A l’origine, 10 millions. Ramené de 1936 à 1938 à 6 millions par la réduction de 1.000 à 600 franès du nominal des actions opérée par l’annulation de 350 francs non appelés et un remboursement de 50 francs. Porté en 1940 à 8 millions par l’incorporation de réserves et l’élévation de 600 à 800 francs du nominal des actions; en 1942 à 10 millions (émission an Pair), puis à 20 millions (émission à 840 fr.) ; en 1943 à 24 millions (émission à 950 francs)."
    },
    {
      "amount": "10.000.000",
      "currency": "Franc",
      "infodate": "1942-01-01",
      "source": "annuaire_df_1945",
      "comments": " en 1942 à 10 millions"
    },
    {
      "amount": "20.000.000",
      "currency": "Franc",
      "infodate": "1942-01-01",
      "source": "annuaire_df_1945",
      "comments": "Carntai : 24 millions en 30.000 actions de 800 francs nominatives. A l’origine, 10 millions. Ramené de 1936 à 1938 à 6 millions par la réduction de 1.000 à 600 franès du nominal des actions opérée par l’annulation de 350 francs non appelés et un remboursement de 50 francs. Porté en 1940 à 8 millions par l’incorporation de réserves et l’élévation de 600 à 800 francs du nominal des actions; en 1942 à 10 millions (émission an Pair), puis à 20 millions (émission à 840 fr.) ; en 1943 à 24 millions (émission à 950 francs)."
    },
    {
      "amount": "24.000.000",
      "currency": "Franc",
      "infodate": "1943-01-01",
      "source": "annuaire_df_1945",
      "comments": "Carntai : 24 millions en 30.000 actions de 800 francs nominatives. A l’origine, 10 millions. Ramené de 1936 à 1938 à 6 millions par la réduction de 1.000 à 600 franès du nominal des actions opérée par l’annulation de 350 francs non appelés et un remboursement de 50 francs. Porté en 1940 à 8 millions par l’incorporation de réserves et l’élévation de 600 à 800 francs du nominal des actions; en 1942 à 10 millions (émission an Pair), puis à 20 millions (émission à 840 fr.) ; en 1943 à 24 millions (émission à 950 francs)."
    },
    {
      "amount": "30.000.000",
      "currency": "Franc",
      "infodate": "1949-01-01",
      "source": "annuaire_df_1953",
      "comments": "Ramené de 1936 à 1938 à 6 millions par la réduction de 1.000 à 600 fr. du nominal des actions opérée par l'annulation de 350 fr. non appelés et un remboursement de 50 fr. Porté en 1940 à 8 millions par l'incorporation de réserves et l'élévation de 600 à 800 fr. du nominal des actions; en 1942 à 10 millions (émission au pair), puis à 20 millions (émission à 840 fr).; en 1943- à 24 millions (émission à 950 fr.). Porté en 1949 à 30 millions par élévation du nominal de 800 à 1.000 fr., à 159 millions par émission d'actions d'apport, à 165 millions par distribution d'actions gratuites et enfin à 175 millions par émission au pair."
    },
    {
      "amount": "159.000.000",
      "currency": "Franc",
      "infodate": "1949-06-01",
      "source": "annuaire_df_1953",
      "comments": "Ramené de 1936 à 1938 à 6 millions par la réduction de 1.000 à 600 fr. du nominal des actions opérée par l'annulation de 350 fr. non appelés et un remboursement de 50 fr. Porté en 1940 à 8 millions par l'incorporation de réserves et l'élévation de 600 à 800 fr. du nominal des actions; en 1942 à 10 millions (émission au pair), puis à 20 millions (émission à 840 fr).; en 1943- à 24 millions (émission à 950 fr.). Porté en 1949 à 30 millions par élévation du nominal de 800 à 1.000 fr., à 159 millions par émission d'actions d'apport, à 165 millions par distribution d'actions gratuites et enfin à 175 millions par émission au pair."
    },
    {
      "amount": "165.000.000",
      "currency": "Franc",
      "infodate": "1949-06-02",
      "source": "annuaire_df_1953",
      "comments": "Ramené de 1936 à 1938 à 6 millions par la réduction de 1.000 à 600 fr. du nominal des actions opérée par l'annulation de 350 fr. non appelés et un remboursement de 50 fr. Porté en 1940 à 8 millions par l'incorporation de réserves et l'élévation de 600 à 800 fr. du nominal des actions; en 1942 à 10 millions (émission au pair), puis à 20 millions (émission à 840 fr).; en 1943- à 24 millions (émission à 950 fr.). Porté en 1949 à 30 millions par élévation du nominal de 800 à 1.000 fr., à 159 millions par émission d'actions d'apport, à 165 millions par distribution d'actions gratuites et enfin à 175 millions par émission au pair."
    },
    {
      "amount": "175.000.000",
      "currency": "Franc",
      "infodate": "1949-12-01",
      "source": "annuaire_df_1953",
      "comments": "175 millions de fr., en 175.000 actions de 1.000 fr. A l'origine, 10 millions de fr."
    }
  ],
  "profit_dividends": [
    {
      "first_date": "1939-12-31",
      "last_date": "1951-12-31",
      "obs_count": 60
    }
  ],
  "public_status": false
}