{
  "id": 10683,
  "names": [
    "CIE DES SOURCES RÉPUTÉES DU BASSIN DE VICHY ET DE VALS",
    "CIE DES SOURCES RÉPUTÉES DU BASSIN DE VICHY ET DE VALS (en liquidation)",
    "Cie des sources réputées du bassin de Vichy et de Vals"
  ],
  "name": "CIE DES SOURCES RÉPUTÉES DU BASSIN DE VICHY ET DE VALS",
  "balance_sheets": [
    {
      "start_date": "1923-12-31",
      "source": "Annuaire Desfossés 1925",
      "page": "622"
    },
    {
      "start_date": "1925-12-31",
      "source": "Annuaire Desfossés 1927",
      "page": "484"
    }
  ],
  "balance_sheets_stats": {
    "start_date": "1923-12-31",
    "end_date": "1925-12-31"
  },
  "locations_stats": {
    "start_date": "1924-01-01",
    "end_date": "1930-12-31"
  },
  "locations": {
    "Siège social": [
      {
        "location_types_id": 1,
        "location_type": "Siège social",
        "address": null,
        "city": "Saint Yorre",
        "district": "Allier",
        "country": "France",
        "in_yearbook_from": 1924,
        "in_yearbook_to": 1930
      }
    ],
    "Siège administratif / Bureaux": [
      {
        "location_types_id": 2,
        "location_type": "Siège administratif / Bureaux",
        "address": null,
        "city": "Varennes",
        "district": "Allier",
        "country": "France",
        "in_yearbook_from": 1927,
        "in_yearbook_to": 1927
      },
      {
        "location_types_id": 2,
        "location_type": "Siège administratif / Bureaux",
        "address": null,
        "city": "Varennes",
        "district": "Allier",
        "country": "France",
        "in_yearbook_from": 1930,
        "in_yearbook_to": 1930
      }
    ]
  },
  "persons": [
    {
      "persons_count": 7,
      "yearbook": "Annuaire Desfossés 1927",
      "source": "annuaire_df_1927",
      "page": "484"
    }
  ],
  "persons_stats": {
    "persons_count": 7,
    "start_date": "1927-01-01",
    "end_date": "1927-12-31"
  },
  "yearbooks_ocrs": [
    {
      "source": "annuaire_df_1925",
      "yearbook": "Annuaire Desfossés 1925",
      "page": "622"
    },
    {
      "source": "annuaire_df_1927",
      "yearbook": "Annuaire Desfossés 1927",
      "page": "484"
    },
    {
      "source": "annuaire_df_1929",
      "yearbook": "Annuaire Desfossés 1929",
      "page": "507"
    },
    {
      "source": "annuaire_df_1931",
      "yearbook": "Annuaire Desfossés 1931",
      "page": "515"
    }
  ],
  "juridical_status": [
    {
      "juridical_status": "Société Anonyme (Libre)",
      "start_date": "1908-05-31",
      "end_date": "2007-01-31",
      "comments": "Société anonyme française, constituée le 21 mai 1908, pour une durée de 99 an",
      "source": "annuaire_df_1927"
    }
  ],
  "equity_capital": [
    {
      "amount": "800.000",
      "currency": "Franc",
      "infodate": "1908-05-21",
      "source": "annuaire_df_1927",
      "comments": "800.000 francs, divisé en 4.000 actions de 200 francs. ^e_ étaient auparavant d’une valeur nominale de 250 francs ; il a été effectue t>ui titres, le 30 mai 1922, un premier remboursement de 50 francs."
    }
  ],
  "profit_dividends": [
    {
      "first_date": "1922-12-31",
      "last_date": "1926-12-31",
      "obs_count": 20
    }
  ],
  "public_status": false
}