{
  "id": 3839,
  "names": [
    "Société Industrielle et Agricole de la Somme et Raffinerie François \"SIAS-RF\""
  ],
  "name": "Société Industrielle et Agricole de la Somme et Raffinerie François \"SIAS-RF\"",
  "balance_sheets": [],
  "balance_sheets_stats": {
    "start_date": null,
    "end_date": null
  },
  "locations_stats": {
    "start_date": null,
    "end_date": null
  },
  "locations": {},
  "persons": [],
  "persons_stats": {
    "persons_count": 0,
    "start_date": null,
    "end_date": null
  },
  "yearbooks_ocrs": [],
  "juridical_status": [],
  "equity_capital": [],
  "profit_dividends": [],
  "public_status": false,
  "stock_exchanges": {
    "1": {
      "id": 1,
      "name": "Paris (Official List)",
      "listings_stats": {
        "start_date": "1962-01-02"
      },
      "spot_prices_stats": {
        "start_date": "1962-01-02",
        "end_date": "1976-12-31"
      }
    }
  },
  "securities": {
    "16543": {
      "id": 16543,
      "name": "S.I.A.S. (Industrielle et Agricole de la Somme), act. 70F (par 25 actions)",
      "share_type": {
        "id": 1,
        "name": "Stock (Action)"
      },
      "types": [
        {
          "start_date": "1962-01-02",
          "end_date": "3999-12-31",
          "id": 18,
          "name": "Action",
          "stock_group": "S"
        }
      ],
      "start_date": "1962-01-02",
      "end_date": "3999-12-31",
      "prices_from": null,
      "prices_to": null,
      "is_mainstock": 0,
      "prices_count": 0
    },
    "17400": {
      "id": 17400,
      "name": "S.I.A.S. - R.F (Industrielle et Agricole de la Somme Raffinerie François), act.",
      "share_type": {
        "id": 1,
        "name": "Stock (Action)"
      },
      "types": [
        {
          "start_date": "1962-01-02",
          "end_date": "3999-12-31",
          "id": 18,
          "name": "Action",
          "stock_group": "S"
        }
      ],
      "start_date": "1962-01-02",
      "end_date": "3999-12-31",
      "prices_from": "1962-01-02",
      "prices_to": "1973-09-17",
      "is_mainstock": 0,
      "prices_count": 236
    },
    "18270": {
      "id": 18270,
      "name": "S.I.A.S.-R.F. (Industr. Et Agricole de la Somme et Raffinerie François), Promesses (Jce 1/1/64)",
      "share_type": {
        "id": 1,
        "name": "Stock (Action)"
      },
      "types": [
        {
          "start_date": "1964-12-14",
          "end_date": "3999-12-31",
          "id": 27,
          "name": "Promesse d'action",
          "stock_group": "S"
        }
      ],
      "start_date": "1964-12-14",
      "end_date": "3999-12-31",
      "prices_from": "1964-12-14",
      "prices_to": "1976-12-31",
      "is_mainstock": 0,
      "prices_count": 178
    },
    "21484": {
      "id": 21484,
      "name": "S.I.A.S.",
      "share_type": {
        "id": 3,
        "name": "OPTIONS"
      },
      "types": [
        {
          "start_date": "1974-06-20",
          "end_date": "3999-12-31",
          "id": 2,
          "name": "Option",
          "stock_group": "M"
        }
      ],
      "start_date": "1974-06-20",
      "end_date": "3999-12-31",
      "prices_from": null,
      "prices_to": null,
      "is_mainstock": 0,
      "prices_count": 0
    },
    "21543": {
      "id": 21543,
      "name": "S.I.A.S.(Industrie et Agricole de la Somme) 9% 1974 de 300F, à option d'échange contre des actions Orsan (c.1/7/75 att.)(Série A à H, J, K, L remb. 303 à 333 F 1979-89",
      "share_type": {
        "id": 2,
        "name": "Bond (Obligation)"
      },
      "types": [
        {
          "start_date": "1975-04-16",
          "end_date": "3999-12-31",
          "id": 1001,
          "name": "Obligation ordinaire ou classique",
          "stock_group": "B"
        }
      ],
      "start_date": "1975-04-16",
      "end_date": "3999-12-31",
      "prices_from": "1975-04-16",
      "prices_to": "1976-12-31",
      "is_mainstock": 0,
      "prices_count": 43
    },
    "21594": {
      "id": 21594,
      "name": "S.I.A.S.",
      "share_type": {
        "id": 3,
        "name": "OPTIONS"
      },
      "types": [
        {
          "start_date": "1974-10-31",
          "end_date": "3999-12-31",
          "id": 2,
          "name": "Option",
          "stock_group": "M"
        }
      ],
      "start_date": "1974-10-31",
      "end_date": "3999-12-31",
      "prices_from": null,
      "prices_to": null,
      "is_mainstock": 0,
      "prices_count": 0
    },
    "21597": {
      "id": 21597,
      "name": "S.I.A.S.",
      "share_type": {
        "id": 3,
        "name": "OPTIONS"
      },
      "types": [
        {
          "start_date": "1975-01-30",
          "end_date": "3999-12-31",
          "id": 2,
          "name": "Option",
          "stock_group": "M"
        }
      ],
      "start_date": "1975-01-30",
      "end_date": "3999-12-31",
      "prices_from": null,
      "prices_to": null,
      "is_mainstock": 0,
      "prices_count": 0
    },
    "21613": {
      "id": 21613,
      "name": "S.I.A.S.",
      "share_type": {
        "id": 3,
        "name": "OPTIONS"
      },
      "types": [
        {
          "start_date": "1975-04-29",
          "end_date": "3999-12-31",
          "id": 2,
          "name": "Option",
          "stock_group": "M"
        }
      ],
      "start_date": "1975-04-29",
      "end_date": "3999-12-31",
      "prices_from": null,
      "prices_to": null,
      "is_mainstock": 0,
      "prices_count": 0
    },
    "21656": {
      "id": 21656,
      "name": "S.I.A.S",
      "share_type": {
        "id": 3,
        "name": "OPTIONS"
      },
      "types": [
        {
          "start_date": "1975-08-18",
          "end_date": "3999-12-31",
          "id": 2,
          "name": "Option",
          "stock_group": "M"
        }
      ],
      "start_date": "1975-08-18",
      "end_date": "3999-12-31",
      "prices_from": null,
      "prices_to": null,
      "is_mainstock": 0,
      "prices_count": 0
    },
    "21924": {
      "id": 21924,
      "name": "S.I.A.S.",
      "share_type": {
        "id": 3,
        "name": "OPTIONS"
      },
      "types": [
        {
          "start_date": "1975-10-31",
          "end_date": "3999-12-31",
          "id": 2,
          "name": "Option",
          "stock_group": "M"
        }
      ],
      "start_date": "1975-10-31",
      "end_date": "3999-12-31",
      "prices_from": null,
      "prices_to": null,
      "is_mainstock": 0,
      "prices_count": 0
    },
    "22201": {
      "id": 22201,
      "name": "LILLE_BOURSE_S.I.A.S. (Indust. Agricole de la Somme) 5% 1941 (Tir. 19/2/70) 1942-71",
      "share_type": {
        "id": 2,
        "name": "Bond (Obligation)"
      },
      "types": [
        {
          "start_date": "1967-05-02",
          "end_date": "3999-12-31",
          "id": 1001,
          "name": "Obligation ordinaire ou classique",
          "stock_group": "B"
        }
      ],
      "start_date": "1967-05-02",
      "end_date": "3999-12-31",
      "prices_from": "1967-05-16",
      "prices_to": "1971-03-31",
      "is_mainstock": 0,
      "prices_count": 94
    },
    "22202": {
      "id": 22202,
      "name": "Lille_Bourse S.I.A.S. (Indust. Agricole de la Somme) 4% 1946 de 50 F (Tir. 19/2/73). 1947-76",
      "share_type": {
        "id": 2,
        "name": "Bond (Obligation)"
      },
      "types": [
        {
          "start_date": "1967-05-02",
          "end_date": "3999-12-31",
          "id": 1001,
          "name": "Obligation ordinaire ou classique",
          "stock_group": "B"
        }
      ],
      "start_date": "1967-05-02",
      "end_date": "3999-12-31",
      "prices_from": "1967-05-09",
      "prices_to": "1973-08-31",
      "is_mainstock": 0,
      "prices_count": 153
    },
    "35341": {
      "id": 35341,
      "name": "S.I.A.S.",
      "share_type": {
        "id": 3,
        "name": "OPTIONS"
      },
      "types": [
        {
          "start_date": "1976-12-14",
          "end_date": "3999-12-31",
          "id": 2,
          "name": "Option",
          "stock_group": "M"
        }
      ],
      "start_date": "1976-12-14",
      "end_date": "3999-12-31",
      "prices_from": null,
      "prices_to": null,
      "is_mainstock": 0,
      "prices_count": 0
    }
  }
}