{
  "id": 10828,
  "names": [
    "France-mexique Pétroles",
    "PÉTROLES \" FRANCE-MEXIQUE \"",
    "PÉTROLES « FRANCE-MEXIQUE »"
  ],
  "name": "PÉTROLES \" FRANCE-MEXIQUE \"",
  "balance_sheets": [
    {
      "start_date": "1927-12-31",
      "source": "Annuaire Desfossés 1929",
      "page": "1178"
    },
    {
      "start_date": "1929-12-31",
      "source": "Annuaire Desfossés 1931",
      "page": "1211"
    }
  ],
  "balance_sheets_stats": {
    "start_date": "1927-12-31",
    "end_date": "1929-12-31"
  },
  "locations_stats": {
    "start_date": "1927-01-01",
    "end_date": "1930-12-31"
  },
  "locations": {
    "Siège social": [
      {
        "location_types_id": 1,
        "location_type": "Siège social",
        "address": "Rue laffitte, 27",
        "city": "Paris",
        "district": "Paris",
        "country": "France",
        "in_yearbook_from": 1927,
        "in_yearbook_to": 1930
      }
    ]
  },
  "persons": [
    {
      "persons_count": 5,
      "yearbook": "Annuaire Desfossés 1927",
      "source": "annuaire_df_1927",
      "page": "1093"
    }
  ],
  "persons_stats": {
    "persons_count": 5,
    "start_date": "1927-01-01",
    "end_date": "1927-12-31"
  },
  "yearbooks_ocrs": [
    {
      "source": "annuaire_df_1927",
      "yearbook": "Annuaire Desfossés 1927",
      "page": "1093"
    },
    {
      "source": "annuaire_df_1929",
      "yearbook": "Annuaire Desfossés 1929",
      "page": "1178"
    },
    {
      "source": "annuaire_df_1931",
      "yearbook": "Annuaire Desfossés 1931",
      "page": "1211"
    }
  ],
  "juridical_status": [
    {
      "juridical_status": "Société Anonyme (Libre)",
      "start_date": "1926-05-07",
      "end_date": "2025-05-07",
      "comments": "Société anonyme française, constituée le 7 mai 1926, pour une durée de 99 ans.",
      "source": "annuaire_df_1927"
    }
  ],
  "equity_capital": [
    {
      "amount": "12.000.000",
      "currency": "Franc",
      "infodate": "1926-05-07",
      "source": "annuaire_df_1927",
      "comments": "12 millions de francs, divisé en 120.000 actions de 100 francs. Par stipulation de l’article 7 des statuts, le Conseil est autorisé à élever le capital en une ou plusieurs fois jusqu’à concurrence de 60 millions."
    }
  ],
  "profit_dividends": [],
  "public_status": false
}