{
  "id": 487,
  "names": [
    "Eclairage par le Gaz de la Ville de Saint-Etienne"
  ],
  "name": "Eclairage par le Gaz de la Ville de Saint-Etienne",
  "balance_sheets": [],
  "balance_sheets_stats": {
    "start_date": null,
    "end_date": null
  },
  "locations_stats": {
    "start_date": "1856-01-01",
    "end_date": "1856-12-31"
  },
  "locations": {
    "Siège social": [
      {
        "location_types_id": 1,
        "location_type": "Siège social",
        "address": null,
        "city": "Etienne",
        "district": "Lot-et-Garonne",
        "country": "France",
        "in_yearbook_from": 1856,
        "in_yearbook_to": 1856
      }
    ]
  },
  "persons": [],
  "persons_stats": {
    "persons_count": 0,
    "start_date": null,
    "end_date": null
  },
  "yearbooks_ocrs": [],
  "juridical_status": [
    {
      "juridical_status": "Société Anonyme (Libre)",
      "start_date": "1845-07-11",
      "end_date": "1874-12-31",
      "comments": "Société anonyme française, autorisée par ordonnance royale du 11 juillet 1845, pour une durée de 30 ans.",
      "source": "Courtois 1856"
    }
  ],
  "equity_capital": [],
  "profit_dividends": [],
  "public_status": false
}