{
  "id": 12898,
  "names": [
    "BANQUE MARTIN MAUREL",
    "BANQUE MARTIN-MAUREL",
    "BANQUE MAUREL",
    "Banque Mobilière Marseillaise",
    "MAUREL FRERES & CIE",
    "Maurel frères et Cie (Banque mobilière marseillaise)"
  ],
  "name": "BANQUE MARTIN MAUREL",
  "balance_sheets": [],
  "balance_sheets_stats": {
    "start_date": null,
    "end_date": null
  },
  "locations_stats": {
    "start_date": null,
    "end_date": null
  },
  "locations": {},
  "persons": [],
  "persons_stats": {
    "persons_count": 0,
    "start_date": null,
    "end_date": null
  },
  "yearbooks_ocrs": [],
  "juridical_status": [],
  "equity_capital": [],
  "profit_dividends": [],
  "public_status": false
}