{
  "id": 3928,
  "names": [
    "CITROËN S.A (Automobiles Citroën, Berliet, Panhard)",
    "SOCIETE ANONYME ANDRE CITROEN",
    "SOCIETE ANONYME ANDRÉ CITROEN",
    "SOCIÉTÉ ANONYME ANDRÉ CITROEN",
    "Société Anonyme André Citroen"
  ],
  "name": "SOCIETE ANONYME ANDRÉ CITROEN",
  "balance_sheets": [
    {
      "start_date": "1927-12-31",
      "source": "Annuaire Desfossés 1929",
      "page": "1439"
    },
    {
      "start_date": "1930-06-30",
      "source": "Annuaire Desfossés 1931",
      "page": "1494"
    },
    {
      "start_date": "1931-06-30",
      "source": "Annuaire Desfossés 1932",
      "page": null
    },
    {
      "start_date": "1932-06-30",
      "source": "Annuaire Desfossés 1933",
      "page": "739"
    },
    {
      "start_date": "1936-06-30",
      "source": "Annuaire Desfossés 1937",
      "page": "833"
    },
    {
      "start_date": "1937-06-30",
      "source": "Annuaire Desfossés 1940",
      "page": null
    },
    {
      "start_date": "1938-06-30",
      "source": "Annuaire Desfossés 1940",
      "page": null
    },
    {
      "start_date": "1939-06-30",
      "source": "Annuaire Desfossés 1945",
      "page": "2298"
    },
    {
      "start_date": "1939-06-30",
      "source": "Annuaire Desfossés 1945",
      "page": "1172"
    },
    {
      "start_date": "1941-06-30",
      "source": "Annuaire Desfossés 1945",
      "page": "1172"
    },
    {
      "start_date": "1941-06-30",
      "source": "Annuaire Desfossés 1945",
      "page": "2298"
    },
    {
      "start_date": "1942-06-30",
      "source": "Annuaire Desfossés 1945",
      "page": "1172"
    },
    {
      "start_date": "1942-06-30",
      "source": "Annuaire Desfossés 1945",
      "page": "2298"
    },
    {
      "start_date": "1943-06-30",
      "source": "Annuaire Desfossés 1945",
      "page": "1172"
    },
    {
      "start_date": "1943-06-30",
      "source": "Annuaire Desfossés 1945",
      "page": "2298"
    },
    {
      "start_date": "1944-12-31",
      "source": "Annuaire Desfossés 1948",
      "page": "1273"
    },
    {
      "start_date": "1945-12-31",
      "source": "Annuaire Desfossés 1948",
      "page": "1273"
    },
    {
      "start_date": "1946-12-31",
      "source": "Annuaire Desfossés 1948",
      "page": "1273"
    },
    {
      "start_date": "1947-12-31",
      "source": "Annuaire Desfossés 1948",
      "page": "1273"
    },
    {
      "start_date": "1948-12-31",
      "source": "Annuaire Desfossés 1953",
      "page": "1094"
    },
    {
      "start_date": "1949-12-31",
      "source": "Annuaire Desfossés 1953",
      "page": "1094"
    },
    {
      "start_date": "1950-12-31",
      "source": "Annuaire Desfossés 1953",
      "page": "1094"
    },
    {
      "start_date": "1951-12-31",
      "source": "Annuaire Desfossés 1953",
      "page": "1094"
    }
  ],
  "balance_sheets_stats": {
    "start_date": "1927-12-31",
    "end_date": "1951-12-31"
  },
  "locations_stats": {
    "start_date": "1930-01-01",
    "end_date": "1953-12-31"
  },
  "locations": {
    "Siège social": [
      {
        "location_types_id": 1,
        "location_type": "Siège social",
        "address": "Rue de javel, 143",
        "city": "Paris",
        "district": "Paris",
        "country": "France",
        "in_yearbook_from": 1930,
        "in_yearbook_to": 1930
      },
      {
        "location_types_id": 1,
        "location_type": "Siège social",
        "address": "Quai de javel, 143",
        "city": "Paris",
        "district": "Paris",
        "country": "France",
        "in_yearbook_from": 1933,
        "in_yearbook_to": 1933
      },
      {
        "location_types_id": 1,
        "location_type": "Siège social",
        "address": "Quai de javel, 117 à 167",
        "city": "Paris",
        "district": "Paris",
        "country": "France",
        "in_yearbook_from": 1940,
        "in_yearbook_to": 1953
      }
    ],
    "Usines": [
      {
        "location_types_id": 3,
        "location_type": "Usines",
        "address": null,
        "city": "Clichy",
        "district": "Paris",
        "country": "France",
        "in_yearbook_from": 1940,
        "in_yearbook_to": 1940
      },
      {
        "location_types_id": 3,
        "location_type": "Usines",
        "address": null,
        "city": "Courbevoie",
        "district": "Paris",
        "country": "France",
        "in_yearbook_from": 1940,
        "in_yearbook_to": 1940
      },
      {
        "location_types_id": 3,
        "location_type": "Usines",
        "address": null,
        "city": "Levallois-Perret",
        "district": "Paris",
        "country": "France",
        "in_yearbook_from": 1940,
        "in_yearbook_to": 1940
      },
      {
        "location_types_id": 3,
        "location_type": "Usines",
        "address": null,
        "city": "Paris",
        "district": "Paris",
        "country": "France",
        "in_yearbook_from": 1940,
        "in_yearbook_to": 1940
      },
      {
        "location_types_id": 3,
        "location_type": "Usines",
        "address": null,
        "city": "Saint Ouen",
        "district": "Paris",
        "country": "France",
        "in_yearbook_from": 1940,
        "in_yearbook_to": 1940
      }
    ],
    "Agences / Succursales": [
      {
        "location_types_id": 4,
        "location_type": "Agences / Succursales",
        "address": null,
        "city": null,
        "district": null,
        "country": "France",
        "in_yearbook_from": 1940,
        "in_yearbook_to": 1940
      }
    ]
  },
  "persons": [
    {
      "persons_count": 7,
      "yearbook": "Annuaire Desfossés 1933",
      "source": "annuaire_df_1933",
      "page": "739"
    },
    {
      "persons_count": 2,
      "yearbook": "Annuaire Desfossés 1940",
      "source": "annuaire_df_1940",
      "page": null
    },
    {
      "persons_count": 3,
      "yearbook": "Annuaire Desfossés 1945",
      "source": "annuaire_df_1945",
      "page": "1172"
    },
    {
      "persons_count": 3,
      "yearbook": "Annuaire Desfossés 1945",
      "source": "annuaire_df_1945",
      "page": "2298"
    },
    {
      "persons_count": 5,
      "yearbook": "Annuaire Desfossés 1948",
      "source": "annuaire_df_1948",
      "page": "1273"
    },
    {
      "persons_count": 7,
      "yearbook": "Annuaire Desfossés 1953",
      "source": "annuaire_df_1953",
      "page": "1094"
    }
  ],
  "persons_stats": {
    "persons_count": 20,
    "start_date": "1933-01-01",
    "end_date": "1953-12-31"
  },
  "yearbooks_ocrs": [
    {
      "source": "annuaire_df_1929",
      "yearbook": "Annuaire Desfossés 1929",
      "page": "1439"
    },
    {
      "source": "annuaire_df_1931",
      "yearbook": "Annuaire Desfossés 1931",
      "page": "1494"
    },
    {
      "source": "annuaire_df_1933",
      "yearbook": "Annuaire Desfossés 1933",
      "page": "739"
    },
    {
      "source": "annuaire_df_1937",
      "yearbook": "Annuaire Desfossés 1937",
      "page": "833"
    },
    {
      "source": "annuaire_df_1940",
      "yearbook": "Annuaire Desfossés 1940",
      "page": null
    },
    {
      "source": "annuaire_df_1945",
      "yearbook": "Annuaire Desfossés 1945",
      "page": "2298"
    },
    {
      "source": "annuaire_df_1945",
      "yearbook": "Annuaire Desfossés 1945",
      "page": "1172"
    },
    {
      "source": "annuaire_df_1948",
      "yearbook": "Annuaire Desfossés 1948",
      "page": "1273"
    },
    {
      "source": "annuaire_df_1953",
      "yearbook": "Annuaire Desfossés 1953",
      "page": "1094"
    }
  ],
  "juridical_status": [
    {
      "juridical_status": "Société Anonyme (Libre)",
      "start_date": "1924-08-07",
      "end_date": "1934-12-20",
      "comments": "Société anonyme française, constituée le 7 août 1924, pour une durée de. 99 ans.",
      "source": "annuaire_df_1948"
    },
    {
      "juridical_status": "Mise en liquidation",
      "start_date": "1934-12-21",
      "end_date": "1935-07-07",
      "comments": "Cette Société a été admise au bénéfice de la liquidation judiciaire, suivant jugement du Tribunal de Commerce de là Seine, du 21 décembre 1934 ; . concordat homologué le 8 juillet 1935.",
      "source": "annuaire_df_1948"
    },
    {
      "juridical_status": "Concordat",
      "start_date": "1935-07-08",
      "end_date": "3999-12-31",
      "comments": "Cette Société a été admise au bénéfice de la liquidation judiciaire, suivant jugement du Tribunal de Commerce de là Seine, du 21 décembre 1934 ; . concordat homologué le 8 juillet 1935.",
      "source": "annuaire_df_1948"
    }
  ],
  "equity_capital": [
    {
      "amount": "50.000.000",
      "currency": "Franc",
      "infodate": "1924-08-07",
      "source": "annuaire_df_1933",
      "comments": "400 millions de trancs, divisé en 800.000 actions de 500 fr dont 200.000 actions A, dites ordinaires sur lesquelles 50.000 ont été attrihni ' M. Citroën en rémunération d’apports et 600.000 actions B, dont 104.000 ont également remises à M. A. Citroen en rémunération de ses apports, A IWL-50 millions, porté en 1925 à 100 millions, en 1927 à 300 millions, en septembre 1828 à 400 millions, chiffre actuel.\t\n"
    },
    {
      "amount": "100.000.000",
      "currency": "Franc",
      "infodate": "1925-01-01",
      "source": "annuaire_df_1933",
      "comments": "400 millions de trancs, divisé en 800.000 actions de 500 fr dont 200.000 actions A, dites ordinaires sur lesquelles 50.000 ont été attrihni ' M. Citroën en rémunération d’apports et 600.000 actions B, dont 104.000 ont également remises à M. A. Citroen en rémunération de ses apports, A IWL-50 millions, porté en 1925 à 100 millions, en 1927 à 300 millions, en septernh™ ioS? à 400 millions, chiffre actuel.\t1828"
    },
    {
      "amount": "300.000.000",
      "currency": "Franc",
      "infodate": "1927-01-01",
      "source": "annuaire_df_1933",
      "comments": "400 millions de trancs, divisé en 800.000 actions de 500 fr dont 200.000 actions A, dites ordinaires sur lesquelles 50.000 ont été attrihni ' M. Citroën en rémunération d’apports et 600.000 actions B, dont 104.000 ont également remises à M. A. Citroen en rémunération de ses apports, A IWL-50 millions, porté en 1925 à 100 millions, en 1927 à 300 millions, en septembre 1828 à 400 millions, chiffre actuel.\t"
    },
    {
      "amount": "400.000.000",
      "currency": "Franc",
      "infodate": "1928-09-01",
      "source": "annuaire_df_1933",
      "comments": "400 millions de trancs, divisé en 800.000 actions de 500 fr dont 200.000 actions A, dites ordinaires sur lesquelles 50.000 ont été attrihni ' M. Citroën en rémunération d’apports et 600.000 actions B, dont 104.000 ont également remises à M. A. Citroen en rémunération de ses apports, A IWL-50 millions, porté en 1925 à 100 millions, en 1927 à 300 millions, en septembre 1828 à 400 millions, chiffre actuel.\t\n"
    },
    {
      "amount": "75.000.000",
      "currency": "Franc",
      "infodate": "1935-07-01",
      "source": "annuaire_df_1940",
      "comments": "210 millions de francs, divisé en 420.000 actions de 500 franc», dont 50.000 actions\tA, 100.000 actions B et 270.000 actions\tN.\tA\tl’origine,\t50\tmillions, porté en 1925 à 100 millions ; en 1927 à 300 millions,\tet en\tseptembre\t1928 à 400 millions, divisé en^ 200.000 actions A et 600.000 actions B. Réduit à 75 million» en juillet 1935, par l’échange de 4 actions A anciennes contre 1 nouvelle, et 6 actions B anciennes\tcontre 1 nouvelle. Reporté à la même date\tà\t210 millions\tpar l’émission au pair\tde 270.000 actions de priorité dites N."
    },
    {
      "amount": "210.000.000",
      "currency": "Franc",
      "infodate": "1935-07-01",
      "source": "annuaire_df_1940",
      "comments": "210 millions de francs, divisé en 420.000 actions de 500 franc», dont 50.000 actions A, 100.000 actions B et 270.000 actions\tN. A l’origine, 50 millions, porté en 1925 à 100 millions ; en 1927 à 300 millions, et en septembre 1928 à 400 millions, divisé en^ 200.000 actions A et 600.000 actions B. Réduit à 75 million» en juillet 1935, par l’échange de 4 actions A anciennes contre 1 nouvelle, et 6 actions B anciennes contre 1 nouvelle. Reporté à la même date à 210 millions par l’émission au pair\tde 270.000 actions de priorité dites N."
    },
    {
      "amount": "420.000.000",
      "currency": "Franc",
      "infodate": "1946-01-01",
      "source": "annuaire_df_1948",
      "comments": "1.212.750.000 francs, divisé en '2.425.500 actions de 500 francs, dont 270.000 actions N, 50.000 actions A, 1.907.500 actions B et 198.000 actions O. A l'origine, 50 millions, porté en 1925 à 100 millions ; en 1927 à 300 millions, et en septembre 19.28 à 400 millions, divisé en 200.000 actions A et 600.000 actions B. Réduit à 75 millions en juillet 1935, par l'échange de 4 actions A anciennes contre 1 nouvelle, et 6 actions B anciennes contre 1 nouvelle. Reporté à la même date à 210 millions par l'émission au pair de 270.000 actions de priorité dites N. Porté en 1946 à 420 millions par l'émission à 600 fr. de 420.000 actions B de 500 fr. (une pour une sans distinction de catégorie). Porté en 1947 à 1.212.7,50.000 francs par création de 1 million 05Ô.000 actions B réparties gratuitement (5 nouv. pour 4 anc.,) ; par la création de 198.000 actions C attribuées gratuitement aux porteurs de parts bénéficiaires de 1er. rang en annulation de leurs titres (1 pour 2 parts), par la création de 337.500 actions B attribuées gratuitement (9 actions pour 8 parts) aux porteurs de parts bénéficiaires de 2« rang en annulation de leurs titres."
    },
    {
      "amount": "1.212.750.000",
      "currency": "Franc",
      "infodate": "1947-01-01",
      "source": "annuaire_df_1948",
      "comments": "1.212.750.000 francs, divisé en '2.425.500 actions de 500 francs, dont 270.000 actions N, 50.000 actions A, 1.907.500 actions B et 198.000 actions O. A l'origine, 50 millions, porté en 1925 à 100 millions ; en 1927 à 300 millions, et en septembre 19.28 à 400 millions, divisé en 200.000 actions A et 600.000 actions B. Réduit à 75 millions en juillet 1935, par l'échange de 4 actions A anciennes contre 1 nouvelle, et 6 actions B anciennes contre 1 nouvelle. Reporté à la même date à 210 millions par l'émission au pair de 270.000 actions de priorité dites N. Porté en 1946 à 420 millions par l'émission à 600 fr. de 420.000 actions B de 500 fr. (une pour une sans distinction de catégorie). Porté en 1947 à 1.212.7,50.000 francs par création de 1 million 05Ô.000 actions B réparties gratuitement (5 nouv. pour 4 anc.,) ; par la création de 198.000 actions C attribuées gratuitement aux porteurs de parts bénéficiaires de 1er. rang en annulation de leurs titres (1 pour 2 parts), par la création de 337.500 actions B attribuées gratuitement (9 actions pour 8 parts) aux porteurs de parts bénéficiaires de 2« rang en annulation de leurs titres."
    },
    {
      "amount": "3.050.000.000",
      "currency": "Franc",
      "infodate": "1949-01-01",
      "source": "annuaire_df_1953",
      "comments": "Porté en 1924 à 100 millions; en 1927 à 300 millions; en 1928 à 400 millions. En 1935, réduit à 75 millions, puis porté à 210 millions; en 1946 à 420 millions; en 1947 à 1.272.750.000 fr. (par incorporation de réserve, conversion des parts bénéficiaires en actions et distributions d'actions gratuites) ; en 1949 à 3.050 millions (par incorporation de provision et réserve et élévation du nominal des actions). Porté en 1951 à 4.270 millions par élévation du nominal à 1.750 fr. Regroupement en actions de 3.500 fr. à partir du 17 décembre 1951."
    },
    {
      "amount": "4.270.000.000",
      "currency": "Franc",
      "infodate": "1951-01-01",
      "source": "annuaire_df_1953",
      "comments": "Porté en 1924 à 100 millions; en 1927 à 300 millions; en 1928 à 400 millions. En 1935, réduit à 75 millions, puis porté à 210 millions; en 1946 à 420 millions; en 1947 à 1.272.750.000 fr. (par incorporation de réserve, conversion des parts bénéficiaires en actions et distributions d'actions gratuites) ; en 1949 à 3.050 millions (par incorporation de provision et réserve et élévation du nominal des actions). Porté en 1951 à 4.270 millions par élévation du nominal à 1.750 fr. Regroupement en actions de 3.500 fr. à partir du 17 décembre 1951."
    },
    {
      "amount": "4.270.000.000",
      "currency": "Franc",
      "infodate": "1951-12-17",
      "source": "annuaire_df_1953",
      "comments": "Split : Porté en 1924 à 100 millions; en 1927 à 300 millions; en 1928 à 400 millions. En 1935, réduit à 75 millions, puis porté à 210 millions; en 1946 à 420 millions; en 1947 à 1.272.750.000 fr. (par incorporation de réserve, conversion des parts bénéficiaires en actions et distributions d'actions gratuites) ; en 1949 à 3.050 millions (par incorporation de provision et réserve et élévation du nominal des actions). Porté en 1951 à 4.270 millions par élévation du nominal à 1.750 fr. Regroupement en actions de 3.500 fr. à partir du 17 décembre 1951."
    }
  ],
  "profit_dividends": [
    {
      "first_date": "1926-12-31",
      "last_date": "1951-12-31",
      "obs_count": 214
    }
  ],
  "public_status": false,
  "stock_exchanges": {
    "1": {
      "id": 1,
      "name": "Paris (Official List)",
      "listings_stats": {
        "start_date": "1927-12-01"
      },
      "spot_prices_stats": {
        "start_date": "1892-01-15",
        "end_date": "1976-12-31"
      },
      "forward_prices_stats": {
        "start_date": "1928-07-02",
        "end_date": "1968-12-06"
      },
      "options_prices_stats": {
        "start_date": "1928-07-02",
        "end_date": "1968-12-06"
      }
    }
  },
  "securities": {
    "8614": {
      "id": 8614,
      "name": "Citroën (André) 5,5% 1928, remb. à 1000 fr.",
      "share_type": {
        "id": 2,
        "name": "Bond (Obligation)"
      },
      "types": [
        {
          "start_date": "1928-09-06",
          "end_date": "3999-12-31",
          "id": 1001,
          "name": "Obligation ordinaire ou classique",
          "stock_group": "B"
        }
      ],
      "start_date": "1928-09-06",
      "end_date": "3999-12-31",
      "prices_from": "1928-09-06",
      "prices_to": "1935-12-31",
      "is_mainstock": 0,
      "prices_count": 217
    },
    "8826": {
      "id": 8826,
      "name": "Citroën (Sté André), act. B 500 fr., t. p. (n° 50001 à 150000)",
      "share_type": {
        "id": 1,
        "name": "Stock (Action)"
      },
      "types": [
        {
          "start_date": "1927-12-01",
          "end_date": "1952-01-02",
          "id": 18,
          "name": "Action",
          "stock_group": "S"
        }
      ],
      "start_date": "1927-12-01",
      "end_date": "3999-12-31",
      "prices_from": "1927-12-01",
      "prices_to": "1952-06-30",
      "is_mainstock": 1,
      "prices_count": 4490
    },
    "8827": {
      "id": 8827,
      "name": "Citroen (Ste André), parts bénef. anc. 2° rang",
      "share_type": {
        "id": 1,
        "name": "Stock (Action)"
      },
      "types": [
        {
          "start_date": "1927-12-01",
          "end_date": "3999-12-31",
          "id": 20,
          "name": "Part de bénéfice (part bénéficiaire)",
          "stock_group": "S"
        }
      ],
      "start_date": "1927-12-01",
      "end_date": "3999-12-31",
      "prices_from": "1927-12-01",
      "prices_to": "1939-05-31",
      "is_mainstock": 0,
      "prices_count": 969
    },
    "9679": {
      "id": 9679,
      "name": "Citroën (André) 5% 1930, remb. à 1000 fr.",
      "share_type": {
        "id": 2,
        "name": "Bond (Obligation)"
      },
      "types": [
        {
          "start_date": "1930-07-15",
          "end_date": "3999-12-31",
          "id": 1001,
          "name": "Obligation ordinaire ou classique",
          "stock_group": "B"
        }
      ],
      "start_date": "1930-07-15",
      "end_date": "3999-12-31",
      "prices_from": "1930-07-15",
      "prices_to": "1935-12-31",
      "is_mainstock": 0,
      "prices_count": 164
    },
    "10682": {
      "id": 10682,
      "name": "Citroën (Sté André) 3,5% 36 (n°s 1 à 370000 et 390001 à 410000) 1956-86",
      "share_type": {
        "id": 2,
        "name": "Bond (Obligation)"
      },
      "types": [
        {
          "start_date": "1936-03-23",
          "end_date": "3999-12-31",
          "id": 1001,
          "name": "Obligation ordinaire ou classique",
          "stock_group": "B"
        }
      ],
      "start_date": "1936-03-23",
      "end_date": "3999-12-31",
      "prices_from": "1936-03-31",
      "prices_to": "1965-06-30",
      "is_mainstock": 0,
      "prices_count": 722
    },
    "10910": {
      "id": 10910,
      "name": "Citroën (Sté André), act.de prior. N 500 fr., t. p. (n° 150001 à 420000)",
      "share_type": {
        "id": 1,
        "name": "Stock (Action)"
      },
      "types": [
        {
          "start_date": "1937-02-02",
          "end_date": "3999-12-31",
          "id": 14,
          "name": "Action prioritaire",
          "stock_group": "S"
        }
      ],
      "start_date": "1937-02-02",
      "end_date": "3999-12-31",
      "prices_from": "1937-02-02",
      "prices_to": "1949-12-30",
      "is_mainstock": 0,
      "prices_count": 528
    },
    "11054": {
      "id": 11054,
      "name": "Citroën (Sté André), parts bénéf. 1er rang",
      "share_type": {
        "id": 1,
        "name": "Stock (Action)"
      },
      "types": [
        {
          "start_date": "1937-07-05",
          "end_date": "3999-12-31",
          "id": 20,
          "name": "Part de bénéfice (part bénéficiaire)",
          "stock_group": "S"
        }
      ],
      "start_date": "1937-07-05",
      "end_date": "3999-12-31",
      "prices_from": "1937-07-05",
      "prices_to": "1949-12-30",
      "is_mainstock": 0,
      "prices_count": 303
    },
    "11129": {
      "id": 11129,
      "name": "Citroen (Ste André), parts bénef. 2° rang",
      "share_type": {
        "id": 1,
        "name": "Stock (Action)"
      },
      "types": [
        {
          "start_date": "1938-01-03",
          "end_date": "3999-12-31",
          "id": 20,
          "name": "Part de bénéfice (part bénéficiaire)",
          "stock_group": "S"
        }
      ],
      "start_date": "1938-01-03",
      "end_date": "3999-12-31",
      "prices_from": "1938-01-03",
      "prices_to": "1947-11-17",
      "is_mainstock": 0,
      "prices_count": 175
    },
    "12440": {
      "id": 12440,
      "name": "Citroën (Sté André), act. C 1250 fr., t. p. (n°s 2227501 à 2425500)",
      "share_type": {
        "id": 1,
        "name": "Stock (Action)"
      },
      "types": [
        {
          "start_date": "1947-11-24",
          "end_date": "3999-12-31",
          "id": 10,
          "name": "Action de capital",
          "stock_group": "S"
        }
      ],
      "start_date": "1947-11-24",
      "end_date": "3999-12-31",
      "prices_from": "1947-11-25",
      "prices_to": "1951-07-02",
      "is_mainstock": 0,
      "prices_count": 103
    },
    "12983": {
      "id": 12983,
      "name": "Citroën (Sté André) 5,25% janv. 48, r. à 10000 f. (Jce 15/1/48) 1949-78",
      "share_type": {
        "id": 2,
        "name": "Bond (Obligation)"
      },
      "types": [
        {
          "start_date": "1948-09-06",
          "end_date": "3999-12-31",
          "id": 1001,
          "name": "Obligation ordinaire ou classique",
          "stock_group": "B"
        }
      ],
      "start_date": "1948-09-06",
      "end_date": "3999-12-31",
      "prices_from": "1948-09-07",
      "prices_to": "1973-08-31",
      "is_mainstock": 0,
      "prices_count": 616
    },
    "13213": {
      "id": 13213,
      "name": "Citroën (Sté André) 5,75% Juillet 1948 (n°s 50001 à 80000) (Rach. Ou Tir.) 1949-78",
      "share_type": {
        "id": 2,
        "name": "Bond (Obligation)"
      },
      "types": [
        {
          "start_date": "1948-12-27",
          "end_date": "3999-12-31",
          "id": 1001,
          "name": "Obligation ordinaire ou classique",
          "stock_group": "B"
        }
      ],
      "start_date": "1948-12-27",
      "end_date": "3999-12-31",
      "prices_from": "1949-01-17",
      "prices_to": "1976-07-01",
      "is_mainstock": 0,
      "prices_count": 674
    },
    "14317": {
      "id": 14317,
      "name": "Citroen (Sté Andre) act. (n°s 1 à 4215662 et 4888431 à 4907960) (n°s 1 à 4032800 c. 21 nul et sans valeur) (c. 22 att.)",
      "share_type": {
        "id": 1,
        "name": "Stock (Action)"
      },
      "types": [
        {
          "start_date": "1951-12-17",
          "end_date": "3999-12-31",
          "id": 11,
          "name": "Action ordinaire",
          "stock_group": "S"
        }
      ],
      "start_date": "1951-12-17",
      "end_date": "3999-12-31",
      "prices_from": "1951-12-17",
      "prices_to": "1976-12-31",
      "is_mainstock": 0,
      "prices_count": 903
    },
    "14427": {
      "id": 14427,
      "name": "Citroën (Sté André), act. 3500 fr. (par 25 actions)",
      "share_type": {
        "id": 1,
        "name": "Stock (Action)"
      },
      "types": [
        {
          "start_date": "1952-03-24",
          "end_date": "3999-12-31",
          "id": 11,
          "name": "Action ordinaire",
          "stock_group": "S"
        }
      ],
      "start_date": "1952-03-24",
      "end_date": "3999-12-31",
      "prices_from": "1968-12-06",
      "prices_to": "1968-12-06",
      "is_mainstock": 0,
      "prices_count": 6
    },
    "14637": {
      "id": 14637,
      "name": "Citroën (Sté André), Act. 3500 fr., t. p. (n°122001 à 1830000) (c. 4 att.)",
      "share_type": {
        "id": 1,
        "name": "Stock (Action)"
      },
      "types": [
        {
          "start_date": "1953-05-04",
          "end_date": "3999-12-31",
          "id": 11,
          "name": "Action ordinaire",
          "stock_group": "S"
        }
      ],
      "start_date": "1953-05-04",
      "end_date": "3999-12-31",
      "prices_from": "1953-05-05",
      "prices_to": "1953-06-30",
      "is_mainstock": 0,
      "prices_count": 6
    },
    "14881": {
      "id": 14881,
      "name": "Citroën (Sté André) 6% minim. Fév. 1954, remb. À 10000 fr. minimum (T. 29/12/54) 1955-74",
      "share_type": {
        "id": 2,
        "name": "Bond (Obligation)"
      },
      "types": [
        {
          "start_date": "1954-05-28",
          "end_date": "3999-12-31",
          "id": 1001,
          "name": "Obligation ordinaire ou classique",
          "stock_group": "B"
        }
      ],
      "start_date": "1954-05-28",
      "end_date": "3999-12-31",
      "prices_from": "1954-05-28",
      "prices_to": "1974-01-31",
      "is_mainstock": 0,
      "prices_count": 491
    },
    "15025": {
      "id": 15025,
      "name": "Citroën (Sté André) 5,5% min. Fév. 1955, à int. Suppl. et prime de remb. Var. (c. 1/2/56 att.) 1956-75",
      "share_type": {
        "id": 2,
        "name": "Bond (Obligation)"
      },
      "types": [
        {
          "start_date": "1955-05-26",
          "end_date": "3999-12-31",
          "id": 1001,
          "name": "Obligation ordinaire ou classique",
          "stock_group": "B"
        }
      ],
      "start_date": "1955-05-26",
      "end_date": "3999-12-31",
      "prices_from": "1955-05-26",
      "prices_to": "1975-01-31",
      "is_mainstock": 0,
      "prices_count": 492
    },
    "15370": {
      "id": 15370,
      "name": "Citroën (Sté André) 5,5% min. avril 1956 à int. Sup. et prime de rembours. Variables (c. 15/4/57 att.) (Cf Avis n° 32736) 1957-81",
      "share_type": {
        "id": 2,
        "name": "Bond (Obligation)"
      },
      "types": [
        {
          "start_date": "1956-07-18",
          "end_date": "3999-12-31",
          "id": 1001,
          "name": "Obligation ordinaire ou classique",
          "stock_group": "B"
        }
      ],
      "start_date": "1956-07-18",
      "end_date": "3999-12-31",
      "prices_from": "1956-07-24",
      "prices_to": "1976-08-02",
      "is_mainstock": 0,
      "prices_count": 488
    },
    "16439": {
      "id": 16439,
      "name": "Citroën (sté andré) 5% septembre 1960, r à 210 NF min (c 15/9/61 att 1961-78",
      "share_type": {
        "id": 2,
        "name": "Bond (Obligation)"
      },
      "types": [
        {
          "start_date": "1961-01-10",
          "end_date": "3999-12-31",
          "id": 1001,
          "name": "Obligation ordinaire ou classique",
          "stock_group": "B"
        }
      ],
      "start_date": "1961-01-10",
      "end_date": "3999-12-31",
      "prices_from": "1961-01-11",
      "prices_to": "1976-12-31",
      "is_mainstock": 0,
      "prices_count": 385
    },
    "17748": {
      "id": 17748,
      "name": "CITROEN (Sté André), Promesses (Jce 1/1/62)",
      "share_type": {
        "id": 1,
        "name": "Stock (Action)"
      },
      "types": [
        {
          "start_date": "1962-06-12",
          "end_date": "3999-12-31",
          "id": 27,
          "name": "Promesse d'action",
          "stock_group": "S"
        }
      ],
      "start_date": "1962-06-12",
      "end_date": "3999-12-31",
      "prices_from": "1962-06-19",
      "prices_to": "1962-11-15",
      "is_mainstock": 0,
      "prices_count": 15
    },
    "17997": {
      "id": 17997,
      "name": "Citroën (Sté André) 5% novembre 1962, remb. à 215F minimum (c. 15/11/63 att.) 1963-80",
      "share_type": {
        "id": 2,
        "name": "Bond (Obligation)"
      },
      "types": [
        {
          "start_date": "1963-03-18",
          "end_date": "3999-12-31",
          "id": 1001,
          "name": "Obligation ordinaire ou classique",
          "stock_group": "B"
        }
      ],
      "start_date": "1963-03-18",
      "end_date": "3999-12-31",
      "prices_from": "1963-03-18",
      "prices_to": "1976-12-31",
      "is_mainstock": 0,
      "prices_count": 332
    },
    "18320": {
      "id": 18320,
      "name": "Citröen (Sté André) 3,5% 1936 regroup. En 1965 1957-86",
      "share_type": {
        "id": 2,
        "name": "Bond (Obligation)"
      },
      "types": [
        {
          "start_date": "1965-01-15",
          "end_date": "3999-12-31",
          "id": 1001,
          "name": "Obligation ordinaire ou classique",
          "stock_group": "B"
        }
      ],
      "start_date": "1965-01-15",
      "end_date": "3999-12-31",
      "prices_from": "1965-01-19",
      "prices_to": "1976-09-15",
      "is_mainstock": 0,
      "prices_count": 281
    },
    "19968": {
      "id": 19968,
      "name": "Citroen S.A. (Automobiles Citroen, Berliet, Panhard) Promesses (Jce 1/1/69)",
      "share_type": {
        "id": 1,
        "name": "Stock (Action)"
      },
      "types": [
        {
          "start_date": "1969-01-13",
          "end_date": "3999-12-31",
          "id": 27,
          "name": "Promesse d'action",
          "stock_group": "S"
        }
      ],
      "start_date": "1969-01-13",
      "end_date": "3999-12-31",
      "prices_from": "1969-01-14",
      "prices_to": "1969-04-30",
      "is_mainstock": 0,
      "prices_count": 12
    },
    "20306": {
      "id": 20306,
      "name": "Citroën (Sté André), act. 1750 fr., t.p. (par 100 actions)",
      "share_type": {
        "id": 1,
        "name": "Stock (Action)"
      },
      "types": [
        {
          "start_date": "1951-11-02",
          "end_date": "3999-12-31",
          "id": 18,
          "name": "Action",
          "stock_group": "S"
        }
      ],
      "start_date": "1951-11-02",
      "end_date": "3999-12-31",
      "prices_from": "1951-11-15",
      "prices_to": "1952-01-02",
      "is_mainstock": 0,
      "prices_count": 3
    },
    "20364": {
      "id": 20364,
      "name": "Citroen S. A., (Automobiles Citroen, Berliet, Panhard) Act. (n°s 4907961 à 6543946) (c. 2 att.)",
      "share_type": {
        "id": 1,
        "name": "Stock (Action)"
      },
      "types": [
        {
          "start_date": "1969-05-06",
          "end_date": "3999-12-31",
          "id": 11,
          "name": "Action ordinaire",
          "stock_group": "S"
        }
      ],
      "start_date": "1969-05-06",
      "end_date": "3999-12-31",
      "prices_from": "1969-05-06",
      "prices_to": "1969-06-30",
      "is_mainstock": 0,
      "prices_count": 5
    },
    "20368": {
      "id": 20368,
      "name": "CITROEN S.A., (Automobiles Citroen, Berliet, Panhard), actions (c. 23 nul et sans valeur) (ex-dr., ) - Promesses (Jce 1/1/70)",
      "share_type": {
        "id": 1,
        "name": "Stock (Action)"
      },
      "types": [
        {
          "start_date": "1970-02-20",
          "end_date": "3999-12-31",
          "id": 27,
          "name": "Promesse d'action",
          "stock_group": "S"
        }
      ],
      "start_date": "1970-02-20",
      "end_date": "3999-12-31",
      "prices_from": "1970-02-23",
      "prices_to": "1970-06-01",
      "is_mainstock": 0,
      "prices_count": 13
    },
    "20369": {
      "id": 20369,
      "name": "CITROEN S.A., (Automobiles Citroen, Berliet, Panhard), actions (c. 23 nul et sans valeur) (ex-dr., ) - Act. (nos 6543947 à 9161524) (c. 26 att.)",
      "share_type": {
        "id": 1,
        "name": "Stock (Action)"
      },
      "types": [
        {
          "start_date": "1970-06-12",
          "end_date": "3999-12-31",
          "id": 11,
          "name": "Action ordinaire",
          "stock_group": "S"
        }
      ],
      "start_date": "1970-06-12",
      "end_date": "3999-12-31",
      "prices_from": "1970-06-12",
      "prices_to": "1970-06-30",
      "is_mainstock": 0,
      "prices_count": 3
    },
    "21438": {
      "id": 21438,
      "name": "Citroën (auto) (ex Citroën André), 11% mars 1974 de 1000F (c. 11/3/75 att) (avis 74-661) 1980-89",
      "share_type": {
        "id": 2,
        "name": "Bond (Obligation)"
      },
      "types": [
        {
          "start_date": "1974-08-12",
          "end_date": "3999-12-31",
          "id": 1001,
          "name": "Obligation ordinaire ou classique",
          "stock_group": "B"
        }
      ],
      "start_date": "1974-08-12",
      "end_date": "3999-12-31",
      "prices_from": "1974-08-14",
      "prices_to": "1976-12-31",
      "is_mainstock": 0,
      "prices_count": 59
    },
    "21966": {
      "id": 21966,
      "name": "Citroën",
      "share_type": {
        "id": 3,
        "name": "OPTIONS"
      },
      "types": [
        {
          "start_date": "1976-03-30",
          "end_date": "3999-12-31",
          "id": 2,
          "name": "Option",
          "stock_group": "M"
        }
      ],
      "start_date": "1976-03-30",
      "end_date": "3999-12-31",
      "prices_from": null,
      "prices_to": null,
      "is_mainstock": 0,
      "prices_count": 0
    },
    "22008": {
      "id": 22008,
      "name": "Citroën (Sté André), act. Nouv. (Jce 1/1/57)",
      "share_type": {
        "id": 1,
        "name": "Stock (Action)"
      },
      "types": [
        {
          "start_date": "1957-01-14",
          "end_date": "3999-12-31",
          "id": 27,
          "name": "Promesse d'action",
          "stock_group": "S"
        }
      ],
      "start_date": "1957-01-14",
      "end_date": "3999-12-31",
      "prices_from": "1957-01-15",
      "prices_to": "1957-07-16",
      "is_mainstock": 0,
      "prices_count": 26
    },
    "22159": {
      "id": 22159,
      "name": "Citroën",
      "share_type": {
        "id": 3,
        "name": "OPTIONS"
      },
      "types": [
        {
          "start_date": "1965-09-23",
          "end_date": "3999-12-31",
          "id": 2,
          "name": "Option",
          "stock_group": "M"
        }
      ],
      "start_date": "1965-09-23",
      "end_date": "3999-12-31",
      "prices_from": null,
      "prices_to": null,
      "is_mainstock": 0,
      "prices_count": 0
    },
    "22295": {
      "id": 22295,
      "name": "Citroen (Sté Andre) Act. (n°s 4032801 à 4215662 et 4888431 à 4907960)",
      "share_type": {
        "id": 1,
        "name": "Stock (Action)"
      },
      "types": [
        {
          "start_date": "1968-05-07",
          "end_date": "3999-12-31",
          "id": 18,
          "name": "Action",
          "stock_group": "S"
        }
      ],
      "start_date": "1968-05-07",
      "end_date": "3999-12-31",
      "prices_from": "1968-06-17",
      "prices_to": "1968-09-02",
      "is_mainstock": 0,
      "prices_count": 6
    },
    "40027": {
      "id": 40027,
      "name": "Citroën (sté André), Parts bénéf nouv. 2ème rang (c. 1 att.)",
      "share_type": {
        "id": 1,
        "name": "Stock (Action)"
      },
      "types": [
        {
          "start_date": "1000-01-01",
          "end_date": "3999-12-31",
          "id": 20,
          "name": "Part de bénéfice (part bénéficiaire)",
          "stock_group": "S"
        }
      ],
      "start_date": "1938-01-28",
      "end_date": "1941-03-19",
      "prices_from": "1938-01-31",
      "prices_to": "1940-06-10",
      "is_mainstock": 0,
      "prices_count": 60
    },
    "100595": {
      "id": 100595,
      "name": "Act. B ou prior. N. Citroën (Sté André) (droit et coupon 9 ou bon de droit). 1 act. B émise à 600 f. pour 1 act. anc. B ou N",
      "share_type": {
        "id": 4,
        "name": "Rights (Droits)"
      },
      "types": [
        {
          "start_date": "1946-09-09",
          "end_date": "1946-10-07",
          "id": 501,
          "name": "Droit de souscription",
          "stock_group": "R"
        }
      ],
      "start_date": "1946-09-09",
      "end_date": "1946-10-07",
      "prices_from": "1946-09-09",
      "prices_to": "1946-09-30",
      "is_mainstock": 0,
      "prices_count": 4
    },
    "100830": {
      "id": 100830,
      "name": "Act. 500 f. B ou N. Citroën (Sté A. André) (dr. et c. 11) (5 act. B de 500 fr., jce 1/1/47, pour 4 act. B ou N anc.)",
      "share_type": {
        "id": 4,
        "name": "Rights (Droits)"
      },
      "types": [
        {
          "start_date": "1947-11-24",
          "end_date": "1950-06-13",
          "id": 502,
          "name": "Droit d'attribution",
          "stock_group": "R"
        }
      ],
      "start_date": "1947-11-24",
      "end_date": "1950-06-13",
      "prices_from": "1947-11-24",
      "prices_to": "1947-11-25",
      "is_mainstock": 0,
      "prices_count": 1
    },
    "101925": {
      "id": 101925,
      "name": "Act. B Société André Citroën (droit et coup. 2). Pour 8 actions B anc., 1 action B nouvelle émise à 700 francs.",
      "share_type": {
        "id": 4,
        "name": "Rights (Droits)"
      },
      "types": [
        {
          "start_date": "1928-09-06",
          "end_date": "1928-09-18",
          "id": 501,
          "name": "Droit de souscription",
          "stock_group": "R"
        }
      ],
      "start_date": "1928-09-06",
      "end_date": "1928-09-18",
      "prices_from": "1928-09-06",
      "prices_to": "1928-09-17",
      "is_mainstock": 0,
      "prices_count": 0
    },
    "101947": {
      "id": 101947,
      "name": "Act. B. Sté André Citroën (droit et c. 9). Pour 40 act. B anc., avant échange, 9 act. de priorité nouv., dites actions N, émises à 500 francs",
      "share_type": {
        "id": 4,
        "name": "Rights (Droits)"
      },
      "types": [
        {
          "start_date": "1935-10-02",
          "end_date": "1935-10-17",
          "id": 501,
          "name": "Droit de souscription",
          "stock_group": "R"
        }
      ],
      "start_date": "1935-10-02",
      "end_date": "1935-10-17",
      "prices_from": "1935-10-02",
      "prices_to": "1935-10-15",
      "is_mainstock": 0,
      "prices_count": 2
    },
    "103777": {
      "id": 103777,
      "name": "Parts bénéf., 2e rang Citroën (Sté A. André) (dr. et coup. 7). 1 actions B nouv. pour 8 parts",
      "share_type": {
        "id": 4,
        "name": "Rights (Droits)"
      },
      "types": [
        {
          "start_date": "1947-11-24",
          "end_date": "1951-06-13",
          "id": 502,
          "name": "Droit d'attribution",
          "stock_group": "R"
        }
      ],
      "start_date": "1947-11-24",
      "end_date": "1951-06-13",
      "prices_from": "1892-01-15",
      "prices_to": "1947-11-25",
      "is_mainstock": 0,
      "prices_count": 7
    },
    "104715": {
      "id": 104715,
      "name": "Act. 500 f. B ou N Citroën (Sté A. André) ( dr et c 11)",
      "share_type": {
        "id": 8,
        "name": "Droit d'attribution"
      },
      "types": [
        {
          "start_date": "1950-06-05",
          "end_date": "1950-12-25",
          "id": 502,
          "name": "Droit d'attribution",
          "stock_group": "R"
        }
      ],
      "start_date": "1950-06-05",
      "end_date": "1950-12-25",
      "prices_from": "1950-06-15",
      "prices_to": "1950-12-15",
      "is_mainstock": 0,
      "prices_count": 5
    },
    "105847": {
      "id": 105847,
      "name": "Citroën (Sté André), act. B 500 fr., t.p. (nos 200001 à 600000)",
      "share_type": {
        "id": 1,
        "name": "Stock (Action)"
      },
      "types": [
        {
          "start_date": "1936-04-30",
          "end_date": "3999-12-31",
          "id": 18,
          "name": "Action",
          "stock_group": "S"
        }
      ],
      "start_date": "1936-04-30",
      "end_date": "3999-12-31",
      "prices_from": "1936-04-30",
      "prices_to": "1936-11-30",
      "is_mainstock": 0,
      "prices_count": 23
    }
  }
}