{
  "id": 4387,
  "names": [
    "LE CONDUCTEUR ELECTRIQUE BLINDE INCOMBUSTIBLE",
    "LE CONDUCTEUR ELECTRIQUE BLINDÉ INCOMBUSTIBLE",
    "LE CONDUCTEUR ÉLECTRIQUE BLINDE INCOMBUSTIBLE",
    "Le Conducteur Electrique Blinde Incombustible"
  ],
  "name": "LE CONDUCTEUR ELECTRIQUE BLINDE INCOMBUSTIBLE",
  "balance_sheets": [
    {
      "start_date": "1936-12-31",
      "source": "Annuaire Desfossés 1940",
      "page": null
    },
    {
      "start_date": "1937-12-31",
      "source": "Annuaire Desfossés 1940",
      "page": null
    },
    {
      "start_date": "1938-12-31",
      "source": "Annuaire Desfossés 1945",
      "page": "1438"
    },
    {
      "start_date": "1941-12-31",
      "source": "Annuaire Desfossés 1945",
      "page": "1438"
    },
    {
      "start_date": "1942-12-31",
      "source": "Annuaire Desfossés 1945",
      "page": "1438"
    },
    {
      "start_date": "1943-12-31",
      "source": "Annuaire Desfossés 1945",
      "page": "1438"
    },
    {
      "start_date": "1944-12-31",
      "source": "Annuaire Desfossés 1948",
      "page": "1562"
    },
    {
      "start_date": "1945-12-31",
      "source": "Annuaire Desfossés 1948",
      "page": "1562"
    },
    {
      "start_date": "1946-12-31",
      "source": "Annuaire Desfossés 1948",
      "page": "1562"
    },
    {
      "start_date": "1947-12-31",
      "source": "Annuaire Desfossés 1948",
      "page": "1562"
    },
    {
      "start_date": "1949-12-31",
      "source": "Annuaire Desfossés 1953",
      "page": "1286"
    },
    {
      "start_date": "1950-12-31",
      "source": "Annuaire Desfossés 1953",
      "page": "1286"
    },
    {
      "start_date": "1951-12-31",
      "source": "Annuaire Desfossés 1953",
      "page": "1286"
    }
  ],
  "balance_sheets_stats": {
    "start_date": "1936-12-31",
    "end_date": "1951-12-31"
  },
  "locations_stats": {
    "start_date": "1940-01-01",
    "end_date": "1953-12-31"
  },
  "locations": {
    "Siège social": [
      {
        "location_types_id": 1,
        "location_type": "Siège social",
        "address": "Avenue marceau, 54",
        "city": "Paris",
        "district": "Paris",
        "country": "France",
        "in_yearbook_from": 1940,
        "in_yearbook_to": 1940
      },
      {
        "location_types_id": 1,
        "location_type": "Siège social",
        "address": "Rue quentin bauchard, 7",
        "city": "Paris",
        "district": "Paris",
        "country": "France",
        "in_yearbook_from": 1945,
        "in_yearbook_to": 1945
      },
      {
        "location_types_id": 1,
        "location_type": "Siège social",
        "address": "Rue quentin-bauchart, 7",
        "city": "Paris",
        "district": "Paris",
        "country": "France",
        "in_yearbook_from": 1948,
        "in_yearbook_to": 1953
      }
    ]
  },
  "persons": [
    {
      "persons_count": 6,
      "yearbook": "Annuaire Desfossés 1940",
      "source": "annuaire_df_1940",
      "page": null
    },
    {
      "persons_count": 4,
      "yearbook": "Annuaire Desfossés 1945",
      "source": "annuaire_df_1945",
      "page": "1438"
    },
    {
      "persons_count": 7,
      "yearbook": "Annuaire Desfossés 1948",
      "source": "annuaire_df_1948",
      "page": "1562"
    },
    {
      "persons_count": 11,
      "yearbook": "Annuaire Desfossés 1953",
      "source": "annuaire_df_1953",
      "page": "1286"
    }
  ],
  "persons_stats": {
    "persons_count": 23,
    "start_date": "1940-01-01",
    "end_date": "1953-12-31"
  },
  "yearbooks_ocrs": [
    {
      "source": "annuaire_df_1937",
      "yearbook": "Annuaire Desfossés 1937",
      "page": "814"
    },
    {
      "source": "annuaire_df_1940",
      "yearbook": "Annuaire Desfossés 1940",
      "page": null
    },
    {
      "source": "annuaire_df_1945",
      "yearbook": "Annuaire Desfossés 1945",
      "page": "1438"
    },
    {
      "source": "annuaire_df_1948",
      "yearbook": "Annuaire Desfossés 1948",
      "page": "1562"
    },
    {
      "source": "annuaire_df_1953",
      "yearbook": "Annuaire Desfossés 1953",
      "page": "1286"
    }
  ],
  "juridical_status": [
    {
      "juridical_status": "Société Anonyme (Libre)",
      "start_date": "1934-01-15",
      "end_date": "2033-01-15",
      "comments": "Société anonyme française constituée le 15 janvier 1934 pour une durée de 99 ans.",
      "source": "annuaire_df_1940"
    }
  ],
  "equity_capital": [
    {
      "amount": "1.500.000",
      "currency": "Franc",
      "infodate": "1934-01-15",
      "source": "annuaire_df_1940",
      "comments": "5 millions de francs divisé en 50.000 actions de 100 fr. A l’origine, 1.500.000 francs, porté en 1937 au chiffre actuel."
    },
    {
      "amount": "100.000",
      "currency": "Franc",
      "infodate": "1934-01-16",
      "source": "annuaire_df_1948",
      "comments": "A l'origine, 100.000 francs."
    },
    {
      "amount": "1.400.000",
      "currency": "Franc",
      "infodate": "1935-01-01",
      "source": "annuaire_df_1945",
      "comments": "5 millions de francs divisé en 50.000 actions de 100 fr. À l’origine, 100.000 francs, porté par des émissions au pair en 1935 à 1.400.000 francs; en 1936 à 1.500.000 francs ; en 1937 à 5 millions."
    },
    {
      "amount": "1.500.000",
      "currency": "Franc",
      "infodate": "1936-01-01",
      "source": "annuaire_df_1945",
      "comments": "5 millions de francs divisé en 50.000 actions de 100 fr. À l’origine, 100.000 francs, porté par des émissions au pair en 1935 à 1.400.000 francs; en 1936 à 1.500.000 francs ; en 1937 à 5 millions."
    },
    {
      "amount": "5.000.000",
      "currency": "Franc",
      "infodate": "1937-01-01",
      "source": "annuaire_df_1940",
      "comments": "5 millions de francs divisé en 50.000 actions de 100 fr. A l’origine, 1.500.000 francs, porté en 1937 au chiffre actuel."
    },
    {
      "amount": "20.000.000",
      "currency": "Franc",
      "infodate": "1945-01-01",
      "source": "annuaire_df_1948",
      "comments": "20 millions de francs divisé en 200.000 actions de 100 fr. A l'origine, 100.000 francs, porté par des émissions au pair en 1935 à 1.400.000 francs ; en 1936 à 1.500.000 francs ; en 1937 à 5 millions. Porté en 1945 au chiffre actuel par l'émission à 125 francs de 150.000 actions de 100 francs (3 nouvelles pour 1 ancienne)."
    }
  ],
  "profit_dividends": [
    {
      "first_date": "1936-12-31",
      "last_date": "1951-12-31",
      "obs_count": 162
    }
  ],
  "public_status": false,
  "stock_exchanges": {
    "1": {
      "id": 1,
      "name": "Paris (Official List)",
      "listings_stats": {
        "start_date": "1962-01-02"
      },
      "spot_prices_stats": {
        "start_date": "1962-01-02",
        "end_date": "1963-06-17"
      }
    }
  },
  "securities": {
    "16776": {
      "id": 16776,
      "name": "Conducteur-Electrique Blindé Incombustible (Le), act.",
      "share_type": {
        "id": 1,
        "name": "Stock (Action)"
      },
      "types": [
        {
          "start_date": "1962-01-02",
          "end_date": "3999-12-31",
          "id": 18,
          "name": "Action",
          "stock_group": "S"
        }
      ],
      "start_date": "1962-01-02",
      "end_date": "3999-12-31",
      "prices_from": "1962-01-02",
      "prices_to": "1963-06-17",
      "is_mainstock": 0,
      "prices_count": 38
    }
  }
}