{
  "id": 3331,
  "names": [
    "ETATS : SIAM",
    "ETATS : THAILANDE (before 1939: SIAM)",
    "SIAM"
  ],
  "name": "ETATS : SIAM",
  "balance_sheets": [],
  "balance_sheets_stats": {
    "start_date": null,
    "end_date": null
  },
  "locations_stats": {
    "start_date": null,
    "end_date": null
  },
  "locations": {},
  "persons": [],
  "persons_stats": {
    "persons_count": 0,
    "start_date": null,
    "end_date": null
  },
  "yearbooks_ocrs": [
    {
      "source": "annuaire_cac_1908",
      "yearbook": "Annuaire de la Compagnie des Agents de Change 1908",
      "page": "293"
    },
    {
      "source": "annuaire_df_1912",
      "yearbook": "Annuaire Desfossés 1912",
      "page": "81"
    },
    {
      "source": "annuaire_df_1917",
      "yearbook": "Annuaire Desfossés 1917",
      "page": null
    },
    {
      "source": "annuaire_df_1923",
      "yearbook": "Annuaire Desfossés 1923",
      "page": "88"
    },
    {
      "source": "annuaire_df_1927",
      "yearbook": "Annuaire Desfossés 1927",
      "page": "78"
    },
    {
      "source": "annuaire_df_1933",
      "yearbook": "Annuaire Desfossés 1933",
      "page": "89"
    },
    {
      "source": "annuaire_df_1940",
      "yearbook": "Annuaire Desfossés 1940",
      "page": null
    },
    {
      "source": "annuaire_df_1945",
      "yearbook": "Annuaire Desfossés 1945",
      "page": "181"
    },
    {
      "source": "annuaire_df_1948",
      "yearbook": "Annuaire Desfossés 1948",
      "page": "189"
    }
  ],
  "juridical_status": [],
  "equity_capital": [],
  "profit_dividends": [],
  "public_status": true,
  "stock_exchanges": {
    "1": {
      "id": 1,
      "name": "Paris (Official List)",
      "listings_stats": {
        "start_date": "1905-05-29"
      },
      "spot_prices_stats": {
        "start_date": "1905-05-29",
        "end_date": "1947-02-28"
      }
    }
  },
  "securities": {
    "4971": {
      "id": 4971,
      "name": "Siam. 4,5% or 1905, remb. au pair. T. 20 £",
      "share_type": {
        "id": 2,
        "name": "Bond (Obligation)"
      },
      "types": [
        {
          "start_date": "1905-05-29",
          "end_date": "3999-12-31",
          "id": 1001,
          "name": "Obligation ordinaire ou classique",
          "stock_group": "B"
        }
      ],
      "start_date": "1905-05-29",
      "end_date": "3999-12-31",
      "prices_from": "1905-05-29",
      "prices_to": "1938-08-31",
      "is_mainstock": 0,
      "prices_count": 414
    },
    "5054": {
      "id": 5054,
      "name": "Siam. 4,5% or 1907, remb. au pair. T. 20 £",
      "share_type": {
        "id": 2,
        "name": "Bond (Obligation)"
      },
      "types": [
        {
          "start_date": "1907-03-29",
          "end_date": "3999-12-31",
          "id": 1001,
          "name": "Obligation ordinaire ou classique",
          "stock_group": "B"
        }
      ],
      "start_date": "1907-03-29",
      "end_date": "3999-12-31",
      "prices_from": "1907-03-29",
      "prices_to": "1947-02-28",
      "is_mainstock": 0,
      "prices_count": 652
    },
    "9478": {
      "id": 9478,
      "name": "Siam. 4,5% or 1905, remb. au pair. T. 20 £. Jouiss. Courante",
      "share_type": {
        "id": 2,
        "name": "Bond (Obligation)"
      },
      "types": [
        {
          "start_date": "1932-03-01",
          "end_date": "3999-12-31",
          "id": 1001,
          "name": "Obligation ordinaire ou classique",
          "stock_group": "B"
        }
      ],
      "start_date": "1932-03-01",
      "end_date": "3999-12-31",
      "prices_from": "1932-03-15",
      "prices_to": "1938-08-31",
      "is_mainstock": 0,
      "prices_count": 55
    },
    "9481": {
      "id": 9481,
      "name": "Siam 4,5% or 1907, remb. au pair Jouiss. courante",
      "share_type": {
        "id": 2,
        "name": "Bond (Obligation)"
      },
      "types": [
        {
          "start_date": "1932-03-01",
          "end_date": "3999-12-31",
          "id": 1001,
          "name": "Obligation ordinaire ou classique",
          "stock_group": "B"
        }
      ],
      "start_date": "1932-03-01",
      "end_date": "3999-12-31",
      "prices_from": "1932-04-15",
      "prices_to": "1947-02-28",
      "is_mainstock": 0,
      "prices_count": 163
    },
    "10113": {
      "id": 10113,
      "name": "Siam. 4,5% or 1905, remb. au pair. T. 100 £",
      "share_type": {
        "id": 2,
        "name": "Bond (Obligation)"
      },
      "types": [
        {
          "start_date": "1934-01-02",
          "end_date": "3999-12-31",
          "id": 1001,
          "name": "Obligation ordinaire ou classique",
          "stock_group": "B"
        }
      ],
      "start_date": "1934-01-02",
      "end_date": "3999-12-31",
      "prices_from": "1938-05-02",
      "prices_to": "1938-08-31",
      "is_mainstock": 0,
      "prices_count": 9
    },
    "10114": {
      "id": 10114,
      "name": "Siam. 4,5% or 1905, remb. au pair. T. 100 £. Jouiss. Courante",
      "share_type": {
        "id": 2,
        "name": "Bond (Obligation)"
      },
      "types": [
        {
          "start_date": "1934-01-02",
          "end_date": "3999-12-31",
          "id": 1001,
          "name": "Obligation ordinaire ou classique",
          "stock_group": "B"
        }
      ],
      "start_date": "1934-01-02",
      "end_date": "3999-12-31",
      "prices_from": "1934-01-02",
      "prices_to": "1938-08-31",
      "is_mainstock": 0,
      "prices_count": 18
    },
    "10115": {
      "id": 10115,
      "name": "Siam. 4,5% or 1907, remb. au pair. T. 100 £",
      "share_type": {
        "id": 2,
        "name": "Bond (Obligation)"
      },
      "types": [
        {
          "start_date": "1934-01-02",
          "end_date": "3999-12-31",
          "id": 1001,
          "name": "Obligation ordinaire ou classique",
          "stock_group": "B"
        }
      ],
      "start_date": "1934-01-02",
      "end_date": "3999-12-31",
      "prices_from": "1938-05-02",
      "prices_to": "1947-02-28",
      "is_mainstock": 0,
      "prices_count": 96
    },
    "10116": {
      "id": 10116,
      "name": "Siam. 4,5% or 1907, remb. au pair. T. 100 £. Jouiss. Courante",
      "share_type": {
        "id": 2,
        "name": "Bond (Obligation)"
      },
      "types": [
        {
          "start_date": "1934-01-02",
          "end_date": "3999-12-31",
          "id": 1001,
          "name": "Obligation ordinaire ou classique",
          "stock_group": "B"
        }
      ],
      "start_date": "1934-01-02",
      "end_date": "3999-12-31",
      "prices_from": "1934-01-02",
      "prices_to": "1947-02-28",
      "is_mainstock": 0,
      "prices_count": 107
    }
  }
}