{
  "id": 1853,
  "names": [
    "Mines de Villeboeuf"
  ],
  "name": "Mines de Villeboeuf",
  "balance_sheets": [],
  "balance_sheets_stats": {
    "start_date": null,
    "end_date": null
  },
  "locations_stats": {
    "start_date": null,
    "end_date": null
  },
  "locations": {},
  "persons": [],
  "persons_stats": {
    "persons_count": 0,
    "start_date": null,
    "end_date": null
  },
  "yearbooks_ocrs": [],
  "juridical_status": [],
  "equity_capital": [],
  "profit_dividends": [],
  "public_status": false,
  "stock_exchanges": {
    "1": {
      "id": 1,
      "name": "Paris (Official List)",
      "listings_stats": {
        "start_date": "1866-05-14"
      },
      "spot_prices_stats": {
        "start_date": "1866-05-14",
        "end_date": "1866-05-15"
      }
    }
  },
  "securities": {
    "1496": {
      "id": 1496,
      "name": "Mines de Villeboeuf (par jugem.)",
      "share_type": {
        "id": 1,
        "name": "Stock (Action)"
      },
      "types": [
        {
          "start_date": "1866-05-14",
          "end_date": "3999-12-31",
          "id": 18,
          "name": "Action",
          "stock_group": "S"
        }
      ],
      "start_date": "1866-05-14",
      "end_date": "3999-12-31",
      "prices_from": "1866-05-14",
      "prices_to": "1866-05-15",
      "is_mainstock": 0,
      "prices_count": 2
    }
  }
}