{
  "id": 2977,
  "names": [
    "SOCIETE FRANÇAISE DE FABRICATION DE BEBES ET JOUETS",
    "SOCIÉTÉ FRANÇAISE DE FABRICATION DE BÉBÉS ET JOUETS",
    "Société Française DE FABRICATION DE BEBES ET JOUETS",
    "Société francaise de Fabrication de Bébés et Jouets",
    "Société française de fabrication de Bébés et Jouets"
  ],
  "name": "Société Française DE FABRICATION DE BEBES ET JOUETS",
  "balance_sheets": [
    {
      "start_date": "1910-12-31",
      "source": "Annuaire Desfossés 1912",
      "page": "992"
    },
    {
      "start_date": "1912-12-31",
      "source": "Annuaire Desfossés 1914",
      "page": "1038"
    },
    {
      "start_date": "1934-12-31",
      "source": "Annuaire Desfossés 1937",
      "page": "1986"
    },
    {
      "start_date": "1935-12-31",
      "source": "Annuaire Desfossés 1940",
      "page": null
    },
    {
      "start_date": "1936-12-31",
      "source": "Annuaire Desfossés 1940",
      "page": null
    },
    {
      "start_date": "1937-12-31",
      "source": "Annuaire Desfossés 1940",
      "page": null
    },
    {
      "start_date": "1938-12-31",
      "source": "Annuaire Desfossés 1945",
      "page": "2310"
    },
    {
      "start_date": "1938-12-31",
      "source": "Annuaire Desfossés 1945",
      "page": "2155"
    },
    {
      "start_date": "1941-12-31",
      "source": "Annuaire Desfossés 1945",
      "page": "2155"
    },
    {
      "start_date": "1941-12-31",
      "source": "Annuaire Desfossés 1945",
      "page": "2310"
    },
    {
      "start_date": "1942-12-31",
      "source": "Annuaire Desfossés 1945",
      "page": "2310"
    },
    {
      "start_date": "1942-12-31",
      "source": "Annuaire Desfossés 1945",
      "page": "2155"
    },
    {
      "start_date": "1943-12-31",
      "source": "Annuaire Desfossés 1948",
      "page": "2500"
    },
    {
      "start_date": "1944-12-31",
      "source": "Annuaire Desfossés 1948",
      "page": "2500"
    },
    {
      "start_date": "1945-12-31",
      "source": "Annuaire Desfossés 1948",
      "page": "2500"
    },
    {
      "start_date": "1946-12-31",
      "source": "Annuaire Desfossés 1948",
      "page": "2500"
    },
    {
      "start_date": "1951-01-31",
      "source": "Annuaire Desfossés 1953",
      "page": "2129"
    },
    {
      "start_date": "1951-12-31",
      "source": "Annuaire Desfossés 1953",
      "page": "2129"
    }
  ],
  "balance_sheets_stats": {
    "start_date": "1910-12-31",
    "end_date": "1951-12-31"
  },
  "locations_stats": {
    "start_date": "1908-01-01",
    "end_date": "1953-12-31"
  },
  "locations": {
    "Siège social": [
      {
        "location_types_id": 1,
        "location_type": "Siège social",
        "address": "Rue pastourelle, 8",
        "city": "Paris",
        "district": "Paris",
        "country": "France",
        "in_yearbook_from": 1908,
        "in_yearbook_to": 1912
      },
      {
        "location_types_id": 1,
        "location_type": "Siège social",
        "address": "Rue pastourelle, 8",
        "city": "Paris",
        "district": "Paris",
        "country": "France",
        "in_yearbook_from": 1937,
        "in_yearbook_to": 1945
      },
      {
        "location_types_id": 1,
        "location_type": "Siège social",
        "address": "Rue de picpus, 160",
        "city": "Paris",
        "district": "Paris",
        "country": "France",
        "in_yearbook_from": 1948,
        "in_yearbook_to": 1948
      },
      {
        "location_types_id": 1,
        "location_type": "Siège social",
        "address": "Rue de picpus, 162",
        "city": "Paris",
        "district": "Paris",
        "country": "France",
        "in_yearbook_from": 1953,
        "in_yearbook_to": 1953
      }
    ]
  },
  "persons": [
    {
      "persons_count": 7,
      "yearbook": "Annuaire de la Compagnie des Agents de Change 1908",
      "source": "annuaire_cac_1908",
      "page": "1830"
    },
    {
      "persons_count": 6,
      "yearbook": "Annuaire Desfossés 1912",
      "source": "annuaire_df_1912",
      "page": "992"
    },
    {
      "persons_count": 1,
      "yearbook": "Annuaire Desfossés 1914",
      "source": "annuaire_df_1914",
      "page": "1038"
    },
    {
      "persons_count": 8,
      "yearbook": "Annuaire Desfossés 1940",
      "source": "annuaire_df_1940",
      "page": null
    },
    {
      "persons_count": 2,
      "yearbook": "Annuaire Desfossés 1945",
      "source": "annuaire_df_1945",
      "page": "2310"
    },
    {
      "persons_count": 2,
      "yearbook": "Annuaire Desfossés 1945",
      "source": "annuaire_df_1945",
      "page": "2155"
    },
    {
      "persons_count": 3,
      "yearbook": "Annuaire Desfossés 1948",
      "source": "annuaire_df_1948",
      "page": "2500"
    },
    {
      "persons_count": 8,
      "yearbook": "Annuaire Desfossés 1953",
      "source": "annuaire_df_1953",
      "page": "2129"
    },
    {
      "persons_count": 2,
      "yearbook": null,
      "source": null,
      "page": null
    }
  ],
  "persons_stats": {
    "persons_count": 28,
    "start_date": "1907-01-01",
    "end_date": "1953-12-31"
  },
  "yearbooks_ocrs": [
    {
      "source": "annuaire_cac_1908",
      "yearbook": "Annuaire de la Compagnie des Agents de Change 1908",
      "page": "1830"
    },
    {
      "source": "annuaire_df_1912",
      "yearbook": "Annuaire Desfossés 1912",
      "page": "992"
    },
    {
      "source": "annuaire_df_1914",
      "yearbook": "Annuaire Desfossés 1914",
      "page": "1038"
    },
    {
      "source": "annuaire_df_1937",
      "yearbook": "Annuaire Desfossés 1937",
      "page": "1986"
    },
    {
      "source": "annuaire_df_1940",
      "yearbook": "Annuaire Desfossés 1940",
      "page": null
    },
    {
      "source": "annuaire_df_1945",
      "yearbook": "Annuaire Desfossés 1945",
      "page": "2155"
    },
    {
      "source": "annuaire_df_1945",
      "yearbook": "Annuaire Desfossés 1945",
      "page": "2310"
    },
    {
      "source": "annuaire_df_1948",
      "yearbook": "Annuaire Desfossés 1948",
      "page": "2500"
    },
    {
      "source": "annuaire_df_1953",
      "yearbook": "Annuaire Desfossés 1953",
      "page": "2129"
    }
  ],
  "juridical_status": [
    {
      "juridical_status": "Société Anonyme (Libre)",
      "start_date": "1899-03-29",
      "end_date": "1941-12-11",
      "comments": "Société anonyme formée par acte reçu par Me Bertrand, notaire a 1 ans, m 6.mass 1899, défuiitivennent constituée le 29 du même, mois, et modifiée par deu- sioni de l'assemblée générale du 29 mars 1904.",
      "source": "annuaire_cac_1908"
    },
    {
      "juridical_status": "Société Anonyme (Libre)",
      "start_date": "1941-12-12",
      "end_date": "2040-12-11",
      "comments": "CONSTITUTION : Société anonyme française, constituée en mars 1899, pour 75 ans, prorogée de 99 ans à partir du 12 décembre 1941.",
      "source": "annuaire_df_1953"
    }
  ],
  "equity_capital": [
    {
      "amount": "3.800.000",
      "currency": "Franc",
      "infodate": "1899-03-29",
      "source": "annuaire_cac_1908",
      "comments": "Fixé à 3.800.000 francs et divisé en 7.600 actions de 500 francs, libérées et au porteur, sur lesquelles 4.470 ont été attribuées aux apporteurs ci-dessus désignés, et 3,130 ont été souscrites en espèces et au pair. (Par décision des assemblées générales des 27 août et 7 septembre 1906, le capital a été porté à 4.180..000 francs au moyen de la création de 760 actions de 500 francs qui ont été attribuées à la Société Parisienne des Bébés en représentation de l’apport de son actif; ces actions doivent rester à la souche pendant le délai légal de deux ans)."
    },
    {
      "amount": "4.180.000",
      "currency": "Franc",
      "infodate": "1908-01-01",
      "source": "annuaire_df_1948",
      "comments": "Capital : 4.467.500, francs, divisé en 8.935 actions de 500 francs. A l'origine, 3 millions 800.000 francs, porté en 1908 à 4.180.000 francs, en 1912 à 4.280.000 francs et en 1917 à 4.4671500 francs."
    },
    {
      "amount": "4.280.000",
      "currency": "Franc",
      "infodate": "1912-01-01",
      "source": "annuaire_df_1940",
      "comments": "Capital : 4.467.500 francs, divisé en 8.935 actions de 500 francs. A l’origine, 3 millions 800.000 francs, porté en 1908 à 4.180.000 francs, en 1912 à 4.280.000 francs et en 1917 au chiffre actuel."
    },
    {
      "amount": "4.467.500",
      "currency": "Franc",
      "infodate": "1917-01-01",
      "source": "annuaire_df_1940",
      "comments": " Capital : 4.467.500 francs, divisé en 8.935 actions de 500 francs. A l’origine, 3 millions 800.000 francs, porté en 1908 à 4.180.000 francs, en 1912 à 4.280.000 francs et en 1917 au chiffre actuel."
    },
    {
      "amount": "14.296.000",
      "currency": "Franc",
      "infodate": "1949-01-01",
      "source": "annuaire_df_1953",
      "comments": " 49.142.500 fr., divisé en 19.657 actions de 2.500 fr. A l'origine, 3.800.000 fr. ; porté en 1908 à 4.180.000 fr., en 1912 à 4.280.000 fr., en 1917 à 4.467.500 fr., en 1949 à 14.296.000 fr. par élévation du nominal de 500 à 1.600 fr. et en 1950 à 18.763.500 fr. par élévation du nominal de 1.600 si 2.100 fr. Porté en 1952 à 44.675.000 fr, par création de-8.935 actions de 2.100 fr., puis élévation du nominal à 2.500 fr. Porté fin 1952 à 49.142.500 fr. par émission de 1.787 actions de 2.500 fr. (1 pour 10)."
    },
    {
      "amount": "18.763.500",
      "currency": "Franc",
      "infodate": "1950-01-01",
      "source": "annuaire_df_1953",
      "comments": "CAPITAL : 49.142.500 fr., divisé en 19.657 actions de 2.500 fr. A l'origine, 3.800.000 fr. ; porté en 1908 à 4.180.000 fr., en 1912 à 4.280.000 fr., en 1917 à 4.467.500 fr., en 1949 à 14.296.000 fr. par élévation du nominal de 500 à 1.600 fr. et en 1950 à 18.763.500 fr. par élévation du nominal de 1.600 si 2.100 fr. Porté en 1952 à 44.675.000 fr, par création de-8.935 actions de 2.100 fr., puis élévation du nominal à 2.500 fr. Porté fin 1952 à 49.142.500 fr. par émission de 1.787 actions de 2.500 fr. (1 pour 10)."
    },
    {
      "amount": "44.675.000",
      "currency": "Franc",
      "infodate": "1952-01-01",
      "source": "annuaire_df_1953",
      "comments": " 49.142.500 fr., divisé en 19.657 actions de 2.500 fr. A l'origine, 3.800.000 fr. ; porté en 1908 à 4.180.000 fr., en 1912 à 4.280.000 fr., en 1917 à 4.467.500 fr., en 1949 à 14.296.000 fr. par élévation du nominal de 500 à 1.600 fr. et en 1950 à 18.763.500 fr. par élévation du nominal de 1.600 si 2.100 fr. Porté en 1952 à 44.675.000 fr, par création de-8.935 actions de 2.100 fr., puis élévation du nominal à 2.500 fr. Porté fin 1952 à 49.142.500 fr. par émission de 1.787 actions de 2.500 fr. (1 pour 10)."
    },
    {
      "amount": "49.142.500",
      "currency": "Franc",
      "infodate": "1952-12-01",
      "source": "annuaire_df_1953",
      "comments": " 49.142.500 fr., divisé en 19.657 actions de 2.500 fr. A l'origine, 3.800.000 fr. ; porté en 1908 à 4.180.000 fr., en 1912 à 4.280.000 fr., en 1917 à 4.467.500 fr., en 1949 à 14.296.000 fr. par élévation du nominal de 500 à 1.600 fr. et en 1950 à 18.763.500 fr. par élévation du nominal de 1.600 si 2.100 fr. Porté en 1952 à 44.675.000 fr, par création de-8.935 actions de 2.100 fr., puis élévation du nominal à 2.500 fr. Porté fin 1952 à 49.142.500 fr. par émission de 1.787 actions de 2.500 fr. (1 pour 10)."
    }
  ],
  "profit_dividends": [
    {
      "first_date": "1899-12-31",
      "last_date": "1951-12-31",
      "obs_count": 138
    }
  ],
  "public_status": false,
  "stock_exchanges": {
    "1": {
      "id": 1,
      "name": "Paris (Official List)",
      "listings_stats": {
        "start_date": "1903-09-14"
      },
      "spot_prices_stats": {
        "start_date": "1903-11-16",
        "end_date": "1903-11-16"
      }
    }
  },
  "securities": {
    "40456": {
      "id": 40456,
      "name": "Bébés et Jouets (Soc. Française de Fabrication de)",
      "share_type": {
        "id": 1,
        "name": "Stock (Action)"
      },
      "types": [
        {
          "start_date": "1000-01-01",
          "end_date": "3999-12-31",
          "id": 1,
          "name": "UNKNOWN",
          "stock_group": "U"
        }
      ],
      "start_date": "1000-01-01",
      "end_date": "3999-12-31",
      "prices_from": "1903-11-16",
      "prices_to": "1903-11-16",
      "is_mainstock": 0,
      "prices_count": 1
    }
  }
}