{
  "id": 7099,
  "names": [
    "PRODUITS CHIMIQUES DE SAINT-DENIS",
    "PRODUITS CHIMIQUES DE SAINT-DENIS (En liquidation)",
    "Produits chimiques de Saint-Denis (Société anonyme de)",
    "SOCIÉTÉ ANONYME DE PRODUITS CHIMIQUES DE SAINT-DENIS",
    "Société anonyme de Produits chimiques de Saint Denis",
    "Société anonyme de Produits chimiques de Saint-Denis",
    "Société anonyme de produits chimiques de Saint-Denis"
  ],
  "name": "Société anonyme de Produits chimiques de Saint-Denis",
  "balance_sheets": [
    {
      "start_date": "1910-12-31",
      "source": "Annuaire Desfossés 1912",
      "page": "880"
    },
    {
      "start_date": "1912-12-31",
      "source": "Annuaire Desfossés 1914",
      "page": "940"
    },
    {
      "start_date": "1915-12-31",
      "source": "Annuaire Desfossés 1917",
      "page": "857"
    },
    {
      "start_date": "1919-12-31",
      "source": "Annuaire Desfossés 1920",
      "page": "930"
    },
    {
      "start_date": "1921-12-31",
      "source": "Annuaire Desfossés 1923",
      "page": "1042"
    },
    {
      "start_date": "1923-12-31",
      "source": "Annuaire Desfossés 1925",
      "page": "1216"
    },
    {
      "start_date": "1925-12-31",
      "source": "Annuaire Desfossés 1927",
      "page": "1005"
    },
    {
      "start_date": "1927-12-31",
      "source": "Annuaire Desfossés 1929",
      "page": "1064"
    },
    {
      "start_date": "1929-12-31",
      "source": "Annuaire Desfossés 1931",
      "page": "1083"
    },
    {
      "start_date": "1931-12-31",
      "source": "Annuaire Desfossés 1933",
      "page": "1151"
    },
    {
      "start_date": "1934-12-31",
      "source": "Annuaire Desfossés 1937",
      "page": "1267"
    },
    {
      "start_date": "1935-12-31",
      "source": "Annuaire Desfossés 1940",
      "page": null
    },
    {
      "start_date": "1936-12-31",
      "source": "Annuaire Desfossés 1940",
      "page": null
    },
    {
      "start_date": "1937-12-31",
      "source": "Annuaire Desfossés 1940",
      "page": null
    },
    {
      "start_date": "1938-12-31",
      "source": "Annuaire Desfossés 1940",
      "page": null
    }
  ],
  "balance_sheets_stats": {
    "start_date": "1910-12-31",
    "end_date": "1938-12-31"
  },
  "locations_stats": {
    "start_date": "1898-01-01",
    "end_date": "1948-12-31"
  },
  "locations": {
    "Siège social": [
      {
        "location_types_id": 1,
        "location_type": "Siège social",
        "address": "Rue de la victoire, 29",
        "city": "Paris",
        "district": "Paris",
        "country": "France",
        "in_yearbook_from": 1898,
        "in_yearbook_to": 1898
      },
      {
        "location_types_id": 1,
        "location_type": "Siège social",
        "address": "Rue des poissonniers, 67",
        "city": "Franciade",
        "district": "Paris",
        "country": "France",
        "in_yearbook_from": 1903,
        "in_yearbook_to": 1903
      },
      {
        "location_types_id": 1,
        "location_type": "Siège social",
        "address": "Rue des poissonniers, 97",
        "city": "Franciade",
        "district": "Paris",
        "country": "France",
        "in_yearbook_from": 1908,
        "in_yearbook_to": 1912
      },
      {
        "location_types_id": 1,
        "location_type": "Siège social",
        "address": "Rue des poissonniers, 97",
        "city": "Franciade",
        "district": "Paris",
        "country": "France",
        "in_yearbook_from": 1914,
        "in_yearbook_to": 1924
      },
      {
        "location_types_id": 1,
        "location_type": "Siège social",
        "address": "Rue des poissonniers, 97",
        "city": "Franciade",
        "district": "Paris",
        "country": "France",
        "in_yearbook_from": 1927,
        "in_yearbook_to": 1927
      },
      {
        "location_types_id": 1,
        "location_type": "Siège social",
        "address": "Rue des poissonniers, 97",
        "city": "Franciade",
        "district": "Paris",
        "country": "France",
        "in_yearbook_from": 1933,
        "in_yearbook_to": 1933
      },
      {
        "location_types_id": 1,
        "location_type": "Siège social",
        "address": "Rue des poissonniers, 97",
        "city": "Franciade",
        "district": "Paris",
        "country": "France",
        "in_yearbook_from": 1937,
        "in_yearbook_to": 1937
      },
      {
        "location_types_id": 1,
        "location_type": "Siège social",
        "address": "Rue des poissonniers, 97",
        "city": "Franciade",
        "district": "Paris",
        "country": "France",
        "in_yearbook_from": 1940,
        "in_yearbook_to": 1940
      },
      {
        "location_types_id": 1,
        "location_type": "Siège social",
        "address": "Rue des poissonniers, 97",
        "city": "Franciade",
        "district": "Paris",
        "country": "France",
        "in_yearbook_from": 1945,
        "in_yearbook_to": 1948
      }
    ]
  },
  "persons": [
    {
      "persons_count": 3,
      "yearbook": "Annuaire de la Compagnie des Agents de Change 1898",
      "source": "annuaire_cac_1898",
      "page": "2063"
    },
    {
      "persons_count": 3,
      "yearbook": "Annuaire de la Compagnie des Agents de Change 1903",
      "source": "annuaire_cac_1903",
      "page": "2038"
    },
    {
      "persons_count": 5,
      "yearbook": "Annuaire de la Compagnie des Agents de Change 1908",
      "source": "annuaire_cac_1908",
      "page": "1720"
    },
    {
      "persons_count": 2,
      "yearbook": "Annuaire Desfossés 1912",
      "source": "annuaire_df_1912",
      "page": "880"
    },
    {
      "persons_count": 1,
      "yearbook": "Annuaire Desfossés 1917",
      "source": "annuaire_df_1917",
      "page": "857"
    },
    {
      "persons_count": 2,
      "yearbook": "Annuaire Desfossés 1927",
      "source": "annuaire_df_1927",
      "page": "1005"
    },
    {
      "persons_count": 3,
      "yearbook": "Annuaire Desfossés 1933",
      "source": "annuaire_df_1933",
      "page": "1151"
    },
    {
      "persons_count": 6,
      "yearbook": "Annuaire Desfossés 1940",
      "source": "annuaire_df_1940",
      "page": null
    }
  ],
  "persons_stats": {
    "persons_count": 20,
    "start_date": "1898-01-01",
    "end_date": "1940-12-31"
  },
  "yearbooks_ocrs": [
    {
      "source": "annuaire_cac_1898",
      "yearbook": "Annuaire de la Compagnie des Agents de Change 1898",
      "page": "2063"
    },
    {
      "source": "annuaire_cac_1903",
      "yearbook": "Annuaire de la Compagnie des Agents de Change 1903",
      "page": "2038"
    },
    {
      "source": "annuaire_cac_1908",
      "yearbook": "Annuaire de la Compagnie des Agents de Change 1908",
      "page": "1720"
    },
    {
      "source": "annuaire_df_1912",
      "yearbook": "Annuaire Desfossés 1912",
      "page": "880"
    },
    {
      "source": "annuaire_df_1914",
      "yearbook": "Annuaire Desfossés 1914",
      "page": "940"
    },
    {
      "source": "annuaire_df_1917",
      "yearbook": "Annuaire Desfossés 1917",
      "page": "857"
    },
    {
      "source": "annuaire_df_1920",
      "yearbook": "Annuaire Desfossés 1920",
      "page": "930"
    },
    {
      "source": "annuaire_df_1923",
      "yearbook": "Annuaire Desfossés 1923",
      "page": "1042"
    },
    {
      "source": "annuaire_df_1925",
      "yearbook": "Annuaire Desfossés 1925",
      "page": "1216"
    },
    {
      "source": "annuaire_df_1927",
      "yearbook": "Annuaire Desfossés 1927",
      "page": "1005"
    },
    {
      "source": "annuaire_df_1929",
      "yearbook": "Annuaire Desfossés 1929",
      "page": "1064"
    },
    {
      "source": "annuaire_df_1931",
      "yearbook": "Annuaire Desfossés 1931",
      "page": "1083"
    },
    {
      "source": "annuaire_df_1933",
      "yearbook": "Annuaire Desfossés 1933",
      "page": "1151"
    },
    {
      "source": "annuaire_df_1937",
      "yearbook": "Annuaire Desfossés 1937",
      "page": "1267"
    },
    {
      "source": "annuaire_df_1940",
      "yearbook": "Annuaire Desfossés 1940",
      "page": null
    },
    {
      "source": "annuaire_df_1945",
      "yearbook": "Annuaire Desfossés 1945",
      "page": "1580"
    },
    {
      "source": "annuaire_df_1948",
      "yearbook": "Annuaire Desfossés 1948",
      "page": "1851"
    },
    {
      "source": "annuaire_df_1953",
      "yearbook": "Annuaire Desfossés 1953",
      "page": "2246"
    }
  ],
  "juridical_status": [
    {
      "juridical_status": "Société Anonyme (Libre)",
      "start_date": "1881-07-21",
      "end_date": "1921-07-21",
      "comments": "Société anonyme formée par acte passe devant Mc Aumont-Thiéville, notaire à Paris, le 21 juillet 1881, définitivement constituée le 9 août suivant, modifiée par décisions des assemblées générales des 7 avril 1885 et 16 mars 1897.  40 ans, soit du 21 juillet 1881 au 21 juillet 1921",
      "source": "annuaire_cac_1898"
    },
    {
      "juridical_status": "Société Anonyme (Libre)",
      "start_date": "1921-07-22",
      "end_date": "1940-08-09",
      "comments": "Société anonyme française, constituée le 9 août 1881, pour une durée expirant le 9 août 1940.",
      "source": "annuaire_df_1912"
    },
    {
      "juridical_status": "Mise en liquidation",
      "start_date": "1940-08-10",
      "end_date": "3999-12-31",
      "comments": "Cette Société a été absorbée en 1939 par Matières Colorantes et Produits Chimiques de Saint-Denis. Echange des titrés : 3. Produits Chimiques de St-Denis pour 1 Matières Colorantes et Produits Chimiques de Saint-Denis^",
      "source": "annuaire_df_1945"
    }
  ],
  "equity_capital": [
    {
      "amount": "1.400.000",
      "currency": "Franc",
      "infodate": "1881-07-21",
      "source": "annuaire_cac_1898",
      "comments": "Fixé a l’origine a 1.400.000 francs divisé en 2800 actions de 500 francs sur lesquelles 200 ont été souscrites en espèces et au pair, et 2600 ont été attribuées, entièrement libérées, à la Société des Etablissements Malétra en représentation de ses apports."
    },
    {
      "amount": "1.500.000",
      "currency": "Franc",
      "infodate": "1885-04-07",
      "source": "annuaire_cac_1898",
      "comments": " Fixé a l’origine a 1.400.000 francs divisé en 2800 actions de 500 francs sur lesquelles 200 ont été souscrites en espèces et au pair, et 2600 ont été attribuées, entièrement libérées, à la Société des Etablissements Malétra en représentation de ses apports.\n Par décision des Assemblées générales des 31 mars et 7 avril 1885, le capital sociala été augmenté de 100.000 francs aumoyen de la création de 200 actions nouvelles de 500 francs qui ont été attribuées à M> de Jean en représentation d’apports."
    },
    {
      "amount": "1.500.000",
      "currency": "Franc",
      "infodate": "1910-12-31",
      "source": "annuaire_df_1912",
      "comments": "1.500.000 francs, divisé en 15.000 actions de 100 francs. A l’origine 1.400.000 francs, représenté par 2.800 actions de 500 francs, porté en 1885 au chiffre actuel et divisé enl897 en actions de 100 francs. Au 31 décembre 1910, 7.850 actions étaient amorties et remplacées par des actions de jouissance."
    },
    {
      "amount": "3.000.000",
      "currency": "Franc",
      "infodate": "1930-01-01",
      "source": "annuaire_df_1945",
      "comments": "3.000.000 de francs, divisé en 30.000 actions de 100 francs, amorties et transformées en actions de jouissance. A .l’origine, 1.400.'00Q^francs en 2.800 actions-de 500 francs (2.600 remises aux Etablissements Maletra en représentation d’apports) porté en 1885 à 1.500.0.00 francs (200. actions d’apports) ; en 1897 les titres.ont été divisés en actions de 100 francs ; les•-actions ont été remboursées intégralement en 1924; porté en 1930 à 3 millions, cette tranche de 1.500.000 francs amortie par moitié en 1935 et 1936."
    },
    {
      "amount": "3.000.000",
      "currency": "Franc",
      "infodate": "1948-12-31",
      "source": "annuaire_df_1948",
      "comments": "3.000.000 de francs, divisé en 30.000 actions de 100 francs, amorties et transformées en actions de jouissance. A l'origine, 1.400.000 francs en 2.800 actions de 500 francs (2.600 remises aux Etablissements Maletra en représentation d'apports) ; Porté en 1885 à 1.500.000 francs (200 actions d'apports) ; en 1897 les titres ont été divisés en actions de 100 francs ; les actions ont été remboursées intégralement en 1924 ; porté en 1930 à 3 millions, cette tranche de 1.500.000 francs amortie par moitié en 1935 et 1936.Cette Société a été absorbée en 1939 par Matières Colorantes et Produits Chimiques de Saint-Denis. Echange des titres : 3 Produits Chimiques de St-Denis pour 1 Matières Colorantes et Produits Chimiques de Saint-Denis.\nEn 1939, les Matières Colorantes et Produits ■ Chimiques de Saint-Denis ayant augmenté leur capital par incorporation de réserves avant l'échange des titres, les actionnaires des Produits Chimiques de Saint-Denis ont reçu 1 act. nouvelle Matières Colorantes et Produits Chimiques pour 9 anciennes Produits Chimiques."
    }
  ],
  "profit_dividends": [
    {
      "first_date": "1881-12-31",
      "last_date": "1939-12-31",
      "obs_count": 220
    }
  ],
  "public_status": false,
  "stock_exchanges": {
    "1": {
      "id": 1,
      "name": "Paris (Official List)",
      "listings_stats": {
        "start_date": "1892-05-05"
      },
      "spot_prices_stats": {
        "start_date": "1897-11-30",
        "end_date": "1942-05-15"
      }
    },
    "2": {
      "id": 2,
      "name": "Paris OTC (Coulisse)",
      "listings_stats": {
        "start_date": "1897-09-30"
      },
      "spot_prices_stats": {
        "start_date": "1897-09-30",
        "end_date": "1898-12-31"
      }
    }
  },
  "securities": {
    "6855": {
      "id": 6855,
      "name": "Produits Chimiques de Saints-Denis (n°1 à 7150)",
      "share_type": {
        "id": 1,
        "name": "Stock (Action)"
      },
      "types": [
        {
          "start_date": "1897-09-30",
          "end_date": "3999-12-31",
          "id": 18,
          "name": "Action",
          "stock_group": "S"
        }
      ],
      "start_date": "1897-09-30",
      "end_date": "3999-12-31",
      "prices_from": "1897-09-30",
      "prices_to": "1924-12-31",
      "is_mainstock": 1,
      "prices_count": 342
    },
    "6856": {
      "id": 6856,
      "name": "Produits Chimiques de St-Denis (en liq.), act. de jouiss.",
      "share_type": {
        "id": 1,
        "name": "Stock (Action)"
      },
      "types": [
        {
          "start_date": "1897-12-15",
          "end_date": "3999-12-31",
          "id": 22,
          "name": "Action de jouissance",
          "stock_group": "S"
        }
      ],
      "start_date": "1897-11-29",
      "end_date": "3999-12-31",
      "prices_from": "1897-12-15",
      "prices_to": "1942-05-15",
      "is_mainstock": 1,
      "prices_count": 568
    },
    "6857": {
      "id": 6857,
      "name": "Produits Chimiques de Saints-Denis, Obligations 4%",
      "share_type": {
        "id": 2,
        "name": "Bond (Obligation)"
      },
      "types": [
        {
          "start_date": "1898-01-31",
          "end_date": "3999-12-31",
          "id": 1001,
          "name": "Obligation ordinaire ou classique",
          "stock_group": "B"
        }
      ],
      "start_date": "1898-01-31",
      "end_date": "3999-12-31",
      "prices_from": "1898-01-31",
      "prices_to": "1922-07-17",
      "is_mainstock": 0,
      "prices_count": 76
    },
    "9766": {
      "id": 9766,
      "name": "Produits Chimique de Saint-Denis. Act. 100 fr., 25 fr. p. (nos 15001 à 30000)(nom.)",
      "share_type": {
        "id": 1,
        "name": "Stock (Action)"
      },
      "types": [
        {
          "start_date": "1931-04-24",
          "end_date": "3999-12-31",
          "id": 11,
          "name": "Action ordinaire",
          "stock_group": "S"
        }
      ],
      "start_date": "1931-04-24",
      "end_date": "3999-12-31",
      "prices_from": "1931-04-24",
      "prices_to": "1936-09-15",
      "is_mainstock": 1,
      "prices_count": 39
    },
    "10953": {
      "id": 10953,
      "name": "Produits Chimiques de Saint-Denis, Act. de jouiss. (nos 15001 à 30000) (c. 38 att)",
      "share_type": {
        "id": 1,
        "name": "Stock (Action)"
      },
      "types": [
        {
          "start_date": "1936-10-05",
          "end_date": "3999-12-31",
          "id": 22,
          "name": "Action de jouissance",
          "stock_group": "S"
        }
      ],
      "start_date": "1936-10-05",
      "end_date": "3999-12-31",
      "prices_from": "1937-02-01",
      "prices_to": "1937-05-18",
      "is_mainstock": 0,
      "prices_count": 4
    },
    "11368": {
      "id": 11368,
      "name": "Produits Chimiques de St-Denis (en liquid.), act. De jouiss. (ex-dr., ).",
      "share_type": {
        "id": 1,
        "name": "Stock (Action)"
      },
      "types": [
        {
          "start_date": "1939-12-28",
          "end_date": "3999-12-31",
          "id": 22,
          "name": "Action de jouissance",
          "stock_group": "S"
        }
      ],
      "start_date": "1939-12-28",
      "end_date": "3999-12-31",
      "prices_from": null,
      "prices_to": null,
      "is_mainstock": 0,
      "prices_count": 0
    },
    "100059": {
      "id": 100059,
      "name": "Matières colorantes et Produits Chimiques de Saint-Denis (Etablissements A. Poirrier et G. Dalsace), act. 250 fr., (n°s 14050 à 20000), jouissance 2 Juin 1903 (ex-c. 22)",
      "share_type": {
        "id": 1,
        "name": "Stock (Action)"
      },
      "types": [
        {
          "start_date": "1892-05-05",
          "end_date": "1920-01-01",
          "id": 18,
          "name": "Action",
          "stock_group": "S"
        }
      ],
      "start_date": "1892-05-05",
      "end_date": "1920-01-01",
      "prices_from": "1903-09-30",
      "prices_to": "1904-01-15",
      "is_mainstock": 0,
      "prices_count": 4
    },
    "101474": {
      "id": 101474,
      "name": "Act. PRODUITS CHIMIQUES DE SAINT-DENIS (droit et coupon 41 ou bon de droit). Pour 9 act. Anc. De jouiss., 1 act. Nouvelle Matières Colorantes attribuée gratuitement contre paiement de 1 fr. 55 par droit.",
      "share_type": {
        "id": 4,
        "name": "Rights (Droits)"
      },
      "types": [
        {
          "start_date": "1939-12-28",
          "end_date": "1940-03-29",
          "id": 502,
          "name": "Droit d'attribution",
          "stock_group": "R"
        }
      ],
      "start_date": "1939-12-28",
      "end_date": "1940-03-29",
      "prices_from": "1940-01-15",
      "prices_to": "1940-03-15",
      "is_mainstock": 0,
      "prices_count": 5
    },
    "102891": {
      "id": 102891,
      "name": "Act. Produits Chimiques de Saint-Denis (droit et coupon 31). Pour 1 act. anc. de jouiss., 1 act. nouv. de 100 fr. émise à 100 francs",
      "share_type": {
        "id": 4,
        "name": "Rights (Droits)"
      },
      "types": [
        {
          "start_date": "1930-07-01",
          "end_date": "1930-07-24",
          "id": 501,
          "name": "Droit de souscription",
          "stock_group": "R"
        }
      ],
      "start_date": "1930-07-01",
      "end_date": "1930-07-24",
      "prices_from": "1930-07-01",
      "prices_to": "1930-07-15",
      "is_mainstock": 0,
      "prices_count": 3
    }
  }
}