{
  "id": 6278,
  "names": [
    "Créditel"
  ],
  "name": "Créditel",
  "balance_sheets": [],
  "balance_sheets_stats": {
    "start_date": null,
    "end_date": null
  },
  "locations_stats": {
    "start_date": null,
    "end_date": null
  },
  "locations": {},
  "persons": [],
  "persons_stats": {
    "persons_count": 0,
    "start_date": null,
    "end_date": null
  },
  "yearbooks_ocrs": [],
  "juridical_status": [],
  "equity_capital": [],
  "profit_dividends": [],
  "public_status": false,
  "stock_exchanges": {
    "1": {
      "id": 1,
      "name": "Paris (Official List)",
      "listings_stats": {
        "start_date": "1974-02-04"
      },
      "spot_prices_stats": {
        "start_date": "1974-02-04",
        "end_date": "1976-12-31"
      }
    }
  },
  "securities": {
    "21335": {
      "id": 21335,
      "name": "Créditel 9,50% nov 73 de 1000F (c.24/11/74 att.) (avis 74-69) 1975-89",
      "share_type": {
        "id": 2,
        "name": "Bond (Obligation)"
      },
      "types": [
        {
          "start_date": "1974-02-04",
          "end_date": "3999-12-31",
          "id": 1001,
          "name": "Obligation ordinaire ou classique",
          "stock_group": "B"
        }
      ],
      "start_date": "1974-02-04",
      "end_date": "3999-12-31",
      "prices_from": "1974-02-04",
      "prices_to": "1976-12-31",
      "is_mainstock": 0,
      "prices_count": 70
    },
    "21531": {
      "id": 21531,
      "name": "Créditel 12% 1975 de 1000 F (Sér.A à G)(c.19/3/76 att.)(Avis 75-219) 1984-90",
      "share_type": {
        "id": 2,
        "name": "Bond (Obligation)"
      },
      "types": [
        {
          "start_date": "1975-04-14",
          "end_date": "3999-12-31",
          "id": 1001,
          "name": "Obligation ordinaire ou classique",
          "stock_group": "B"
        }
      ],
      "start_date": "1975-04-14",
      "end_date": "3999-12-31",
      "prices_from": "1975-04-14",
      "prices_to": "1976-12-31",
      "is_mainstock": 0,
      "prices_count": 42
    },
    "21695": {
      "id": 21695,
      "name": "Créditel, act.",
      "share_type": {
        "id": 1,
        "name": "Stock (Action)"
      },
      "types": [
        {
          "start_date": "1975-10-07",
          "end_date": "3999-12-31",
          "id": 18,
          "name": "Action",
          "stock_group": "S"
        }
      ],
      "start_date": "1975-10-07",
      "end_date": "3999-12-31",
      "prices_from": "1975-10-07",
      "prices_to": "1976-12-31",
      "is_mainstock": 0,
      "prices_count": 31
    },
    "21696": {
      "id": 21696,
      "name": "Créditel, act. (n° 1000001 à 4000000) (c. 1 étoilé att.)",
      "share_type": {
        "id": 1,
        "name": "Stock (Action)"
      },
      "types": [
        {
          "start_date": "1975-10-07",
          "end_date": "3999-12-31",
          "id": 18,
          "name": "Action",
          "stock_group": "S"
        }
      ],
      "start_date": "1975-10-07",
      "end_date": "3999-12-31",
      "prices_from": "1975-10-07",
      "prices_to": "1976-04-30",
      "is_mainstock": 0,
      "prices_count": 15
    },
    "21836": {
      "id": 21836,
      "name": "Créditel 10,80% 75 de 1000 F (sér.A à G) (c.26/12/76 att.) (Avis 75-1045).1984-90",
      "share_type": {
        "id": 2,
        "name": "Bond (Obligation)"
      },
      "types": [
        {
          "start_date": "1976-01-05",
          "end_date": "3999-12-31",
          "id": 1001,
          "name": "Obligation ordinaire ou classique",
          "stock_group": "B"
        }
      ],
      "start_date": "1976-01-05",
      "end_date": "3999-12-31",
      "prices_from": "1976-01-05",
      "prices_to": "1976-12-31",
      "is_mainstock": 0,
      "prices_count": 25
    },
    "35264": {
      "id": 35264,
      "name": "Créditel 11% nov. 1976 de 1000F séries A à H, J et K (c. 3/12/77 att.) (Avis 76-1009) 1979-91",
      "share_type": {
        "id": 2,
        "name": "Bond (Obligation)"
      },
      "types": [
        {
          "start_date": "1976-12-08",
          "end_date": "3999-12-31",
          "id": 1001,
          "name": "Obligation ordinaire ou classique",
          "stock_group": "B"
        }
      ],
      "start_date": "1976-12-08",
      "end_date": "3999-12-31",
      "prices_from": "1976-12-08",
      "prices_to": "1976-12-31",
      "is_mainstock": 0,
      "prices_count": 3
    }
  }
}