{
  "id": 2961,
  "names": [
    "P R O W O D N I K Société des fabriques russes-françaises pour la production des articles",
    "PROWODNIK",
    "PROWODNIK (En liquidation)",
    "PROWODNIK Société des fabriques Russes-Françaises pour la production des articles de caoutchoux, de gutta-percha et de télégraphie",
    "PROWODWIK",
    "Société des Fabriques russo-francaises \"Prowodnik\""
  ],
  "name": "PROWODNIK (En liquidation)",
  "balance_sheets": [
    {
      "start_date": "1910-12-31",
      "source": "Annuaire Desfossés 1912",
      "page": "1079"
    },
    {
      "start_date": "1912-12-31",
      "source": "Annuaire Desfossés 1914",
      "page": "1134"
    },
    {
      "start_date": "1915-12-31",
      "source": "Annuaire Desfossés 1917",
      "page": "1059"
    },
    {
      "start_date": "1916-12-31",
      "source": "Annuaire Desfossés 1920",
      "page": "1138"
    },
    {
      "start_date": "1921-12-31",
      "source": "Annuaire Desfossés 1925",
      "page": "1623"
    }
  ],
  "balance_sheets_stats": {
    "start_date": "1910-12-31",
    "end_date": "1921-12-31"
  },
  "locations_stats": {
    "start_date": "1912-01-01",
    "end_date": "1930-12-31"
  },
  "locations": {
    "Siège social": [
      {
        "location_types_id": 1,
        "location_type": "Siège social",
        "address": null,
        "city": "Riga",
        "district": null,
        "country": "Union des républiques socialistes soviétiques",
        "in_yearbook_from": 1912,
        "in_yearbook_to": 1917
      },
      {
        "location_types_id": 1,
        "location_type": "Siège social",
        "address": null,
        "city": "Riga",
        "district": "District fictif",
        "country": "Lettonie",
        "in_yearbook_from": 1923,
        "in_yearbook_to": 1930
      }
    ],
    "Siège administratif / Bureaux": [
      {
        "location_types_id": 2,
        "location_type": "Siège administratif / Bureaux",
        "address": null,
        "city": "Paris",
        "district": "Paris",
        "country": "France",
        "in_yearbook_from": 1930,
        "in_yearbook_to": 1930
      }
    ]
  },
  "persons": [
    {
      "persons_count": 8,
      "yearbook": "Annuaire Desfossés 1912",
      "source": "annuaire_df_1912",
      "page": "1079"
    },
    {
      "persons_count": 14,
      "yearbook": "Annuaire Desfossés 1917",
      "source": "annuaire_df_1917",
      "page": "1059"
    },
    {
      "persons_count": 2,
      "yearbook": "Annuaire Desfossés 1923",
      "source": "annuaire_df_1923",
      "page": "1312"
    },
    {
      "persons_count": 13,
      "yearbook": "Annuaire Desfossés 1927",
      "source": "annuaire_df_1927",
      "page": "1414"
    }
  ],
  "persons_stats": {
    "persons_count": 24,
    "start_date": "1912-01-01",
    "end_date": "1927-12-31"
  },
  "yearbooks_ocrs": [
    {
      "source": "annuaire_df_1912",
      "yearbook": "Annuaire Desfossés 1912",
      "page": "1079"
    },
    {
      "source": "annuaire_df_1914",
      "yearbook": "Annuaire Desfossés 1914",
      "page": "1134"
    },
    {
      "source": "annuaire_df_1917",
      "yearbook": "Annuaire Desfossés 1917",
      "page": "1059"
    },
    {
      "source": "annuaire_df_1920",
      "yearbook": "Annuaire Desfossés 1920",
      "page": "1138"
    },
    {
      "source": "annuaire_df_1923",
      "yearbook": "Annuaire Desfossés 1923",
      "page": "1312"
    },
    {
      "source": "annuaire_df_1925",
      "yearbook": "Annuaire Desfossés 1925",
      "page": "1623"
    },
    {
      "source": "annuaire_df_1927",
      "yearbook": "Annuaire Desfossés 1927",
      "page": "1414"
    },
    {
      "source": "annuaire_df_1929",
      "yearbook": "Annuaire Desfossés 1929",
      "page": "1533"
    },
    {
      "source": "annuaire_df_1931",
      "yearbook": "Annuaire Desfossés 1931",
      "page": "1579"
    }
  ],
  "juridical_status": [
    {
      "juridical_status": "Société anonyme russe",
      "start_date": "1888-06-26",
      "end_date": "1928-07-13",
      "comments": "Société anonyme russe, constituée le 26 juin 1888 pour une durée illimitée. suivant décision de l'assemblée générale du 14 iuillet 1928, la Société a été mise en liquidation.",
      "source": "annuaire_df_1931"
    },
    {
      "juridical_status": "Mise en liquidation",
      "start_date": "1928-07-14",
      "end_date": "3999-12-31",
      "comments": "Société anonyme russe, constituée le 26 juin 1888 pour une durée illimitée. suivant décision de l'assemblée générale du 14 iuillet 1928, la Société a été mise en liquidation.",
      "source": "annuaire_df_1931"
    }
  ],
  "equity_capital": [
    {
      "amount": "700.000",
      "currency": "Rouble",
      "infodate": "1888-06-26",
      "source": "annuaire_df_1912",
      "comments": " 90.000.000 de roubles, divisé en 90.000 actions de 100 roubles. À l'origine 700.000 roubles, porté en 1890 à 1.050.000 roubles, en 1892 à 1.650.000 roubles, en 1895 à 2.500.000 roubles, en 1898 à 3.500.000 roubles, en 1906 à 7 millions de roubles et en 1908 au chiffre actuel."
    },
    {
      "amount": "1.050.000",
      "currency": "Rouble",
      "infodate": "1890-01-01",
      "source": "annuaire_df_1912",
      "comments": " 90.000.000 de roubles, divisé en 90.000 actions de 100 roubles. À l'origine 700.000 roubles, porté en 1890 à 1.050.000 roubles, en 1892 à 1.650.000 roubles, en 1895 à 2.500.000 roubles, en 1898 à 3.500.000 roubles, en 1906 à 7 millions de roubles et en 1908 au chiffre actuel."
    },
    {
      "amount": "1.650.000",
      "currency": "Rouble",
      "infodate": "1892-01-01",
      "source": "annuaire_df_1912",
      "comments": " 90.000.000 de roubles, divisé en 90.000 actions de 100 roubles. À l'origine 700.000 roubles, porté en 1890 à 1.050.000 roubles, en 1892 à 1.650.000 roubles, en 1895 à 2.500.000 roubles, en 1898 à 3.500.000 roubles, en 1906 à 7 millions de roubles et en 1908 au chiffre actuel."
    },
    {
      "amount": "2.500.000",
      "currency": "Rouble",
      "infodate": "1895-01-01",
      "source": "annuaire_df_1912",
      "comments": " 90.000.000 de roubles, divisé en 90.000 actions de 100 roubles. À l'origine 700.000 roubles, porté en 1890 à 1.050.000 roubles, en 1892 à 1.650.000 roubles, en 1895 à 2.500.000 roubles, en 1898 à 3.500.000 roubles, en 1906 à 7 millions de roubles et en 1908 au chiffre actuel."
    },
    {
      "amount": "3.500.000",
      "currency": "Rouble",
      "infodate": "1898-01-01",
      "source": "annuaire_df_1912",
      "comments": " 90.000.000 de roubles, divisé en 90.000 actions de 100 roubles. À l'origine 700.000 roubles, porté en 1890 à 1.050.000 roubles, en 1892 à 1.650.000 roubles, en 1895 à 2.500.000 roubles, en 1898 à 3.500.000 roubles, en 1906 à 7 millions de roubles et en 1908 au chiffre actuel."
    },
    {
      "amount": "7.000.000",
      "currency": "Rouble",
      "infodate": "1906-01-01",
      "source": "annuaire_df_1917",
      "comments": " en 1906 à 7 millions de roubles"
    },
    {
      "amount": "9.000.000",
      "currency": "Rouble",
      "infodate": "1908-01-01",
      "source": "annuaire_df_1917",
      "comments": " en 1908 à 9 millions de roubles,"
    },
    {
      "amount": "12.000.000",
      "currency": "Rouble",
      "infodate": "1912-01-01",
      "source": "annuaire_df_1917",
      "comments": " en 1912 à 12 millions de' roubles"
    },
    {
      "amount": "18.000.000",
      "currency": "Rouble",
      "infodate": "1913-01-31",
      "source": "annuaire_df_1917",
      "comments": " en 1913 à 18 millions de roubles,"
    },
    {
      "amount": "36.000.000",
      "currency": "Rouble",
      "infodate": "1917-01-01",
      "source": "annuaire_df_1917",
      "comments": "36.000.000 de roubles, divisé en 360.000iactions de 100 roubles en 1917 au chiffre actuel."
    }
  ],
  "profit_dividends": [
    {
      "first_date": "1906-12-31",
      "last_date": "1926-12-31",
      "obs_count": 87
    }
  ],
  "public_status": false,
  "stock_exchanges": {
    "1": {
      "id": 1,
      "name": "Paris (Official List)",
      "forward_prices_stats": {
        "start_date": "1909-02-06",
        "end_date": "1914-07-31"
      },
      "listings_stats": {
        "start_date": "1892-05-05"
      },
      "options_prices_stats": {
        "start_date": "1909-02-15",
        "end_date": "1914-04-15"
      },
      "spot_prices_stats": {
        "start_date": "1909-02-06",
        "end_date": "1931-12-31"
      }
    }
  },
  "securities": {
    "5487": {
      "id": 5487,
      "name": "Prowodnik (Fabriques russes-françaises de caoutchouc), act. 100 roubles, t.p.",
      "share_type": {
        "id": 1,
        "name": "Stock (Action)"
      },
      "types": [
        {
          "start_date": "1909-02-06",
          "end_date": "3999-12-31",
          "id": 18,
          "name": "Action",
          "stock_group": "S"
        }
      ],
      "start_date": "1909-02-06",
      "end_date": "3999-12-31",
      "prices_from": "1909-02-06",
      "prices_to": "1931-12-31",
      "is_mainstock": 1,
      "prices_count": 1454
    },
    "6561": {
      "id": 6561,
      "name": "Prowodnik (Fab.Russes-Françaises de caoutchouc, etc., act.100r., t.p., non est.",
      "share_type": {
        "id": 1,
        "name": "Stock (Action)"
      },
      "types": [
        {
          "start_date": "1919-08-01",
          "end_date": "3999-12-31",
          "id": 18,
          "name": "Action",
          "stock_group": "S"
        }
      ],
      "start_date": "1919-08-01",
      "end_date": "3999-12-31",
      "prices_from": null,
      "prices_to": null,
      "is_mainstock": 0,
      "prices_count": 0
    },
    "100073": {
      "id": 100073,
      "name": "Prowoddnik, act. 100 roubles",
      "share_type": {
        "id": 1,
        "name": "Stock (Action)"
      },
      "types": [
        {
          "start_date": "1892-05-05",
          "end_date": "1920-01-01",
          "id": 18,
          "name": "Action",
          "stock_group": "S"
        }
      ],
      "start_date": "1892-05-05",
      "end_date": "1920-01-01",
      "prices_from": null,
      "prices_to": null,
      "is_mainstock": 0,
      "prices_count": 0
    }
  }
}