{
  "id": 10326,
  "names": [
    "GAZ DE TURIN (SOCIÉTÉ ITALIENNE POUR LE GAZ)",
    "GAZ DE TURIN Société italienne pour le Gaz",
    "GAZ DE TURIN Société italienne pour le Gaz.",
    "Gaz de Turin"
  ],
  "name": "GAZ DE TURIN Société italienne pour le Gaz",
  "balance_sheets": [
    {
      "start_date": "1910-12-31",
      "source": "Annuaire Desfossés 1912",
      "page": "542"
    },
    {
      "start_date": "1912-12-31",
      "source": "Annuaire Desfossés 1914",
      "page": "590"
    },
    {
      "start_date": "1916-12-31",
      "source": "Annuaire Desfossés 1917",
      "page": "527"
    },
    {
      "start_date": "1919-12-31",
      "source": "Annuaire Desfossés 1925",
      "page": "654"
    }
  ],
  "balance_sheets_stats": {
    "start_date": "1910-12-31",
    "end_date": "1919-12-31"
  },
  "locations_stats": {
    "start_date": "1912-01-01",
    "end_date": "1925-12-31"
  },
  "locations": {
    "Siège social": [
      {
        "location_types_id": 1,
        "location_type": "Siège social",
        "address": "Via lagrange, 12",
        "city": "Turin",
        "district": null,
        "country": "Italie",
        "in_yearbook_from": 1912,
        "in_yearbook_to": 1925
      }
    ]
  },
  "persons": [
    {
      "persons_count": 3,
      "yearbook": "Annuaire Desfossés 1912",
      "source": "annuaire_df_1912",
      "page": "542"
    },
    {
      "persons_count": 1,
      "yearbook": "Annuaire Desfossés 1917",
      "source": "annuaire_df_1917",
      "page": "527"
    },
    {
      "persons_count": 9,
      "yearbook": "Annuaire Desfossés 1923",
      "source": "annuaire_df_1923",
      "page": "1350"
    }
  ],
  "persons_stats": {
    "persons_count": 13,
    "start_date": "1912-01-01",
    "end_date": "1923-12-31"
  },
  "yearbooks_ocrs": [
    {
      "source": "annuaire_df_1912",
      "yearbook": "Annuaire Desfossés 1912",
      "page": "542"
    },
    {
      "source": "annuaire_df_1914",
      "yearbook": "Annuaire Desfossés 1914",
      "page": "590"
    },
    {
      "source": "annuaire_df_1917",
      "yearbook": "Annuaire Desfossés 1917",
      "page": "527"
    },
    {
      "source": "annuaire_df_1920",
      "yearbook": "Annuaire Desfossés 1920",
      "page": "543"
    },
    {
      "source": "annuaire_df_1923",
      "yearbook": "Annuaire Desfossés 1923",
      "page": "1350"
    },
    {
      "source": "annuaire_df_1925",
      "yearbook": "Annuaire Desfossés 1925",
      "page": "654"
    }
  ],
  "juridical_status": [
    {
      "juridical_status": "Société anonyme italienne",
      "start_date": "1882-03-30",
      "end_date": "1932-03-30",
      "comments": "Société anonyme italienne, constituée le 30 mars 1882, pour une durée expirant le 30 mars 1932, par la fusion de la Société pour l’éclairage de Turin et de la Société Piémontaise pour l’éclairage au gaz dans Turin.",
      "source": "annuaire_df_1912"
    }
  ],
  "equity_capital": [
    {
      "amount": "3.500.000",
      "currency": "Lira",
      "infodate": "1882-03-30",
      "source": "annuaire_df_1923",
      "comments": " A l’origine, 3.500.000 lire, représenté par 10.500 actions de 250 lire"
    },
    {
      "amount": "10.000.000",
      "currency": "Lira",
      "infodate": "1899-01-01",
      "source": "annuaire_df_1923",
      "comments": " porté en 1899 à 10 millions de lire, "
    },
    {
      "amount": "8.000.000",
      "currency": "Franc",
      "infodate": "1905-01-01",
      "source": "annuaire_df_1923",
      "comments": " en 1905 à 8 millions"
    },
    {
      "amount": "4.000.000",
      "currency": "Lira",
      "infodate": "1907-01-01",
      "source": "annuaire_df_1923",
      "comments": " en 1907 à 4 millions au moyen de deux remboursements d’ensemble 150 lire par action."
    },
    {
      "amount": "10.000.000",
      "currency": "Lira",
      "infodate": "1918-01-01",
      "source": "annuaire_df_1923",
      "comments": "10 millions de lire, divisé en 40.000 actions de 250 lire: A l’origine, 3.500.000 lire, représenté par 10.500 actions de 250 lire, porté en 1899 à 10 millions de lire, réduit en 1905 à 8 millions et en 1907 à 4 millions au moyen de deux remboursements d’ensemble 150 lire par action. Porté au chiffre actuel en 1918 au moyen d’un prélèvement de 6 millions sur les réserves et de l’élévation de 100 à 250 lire de la valeur nominale des actions."
    }
  ],
  "profit_dividends": [
    {
      "first_date": "1895-12-31",
      "last_date": "1919-12-31",
      "obs_count": 68
    }
  ],
  "public_status": false
}