{
  "id": 2713,
  "names": [
    "CIE FRANÇAISE POUR (EXPLOITATION DES PROCÉDÉS THOMSON-HOUSTON)",
    "CIE FRANÇAISE POUR L'EXPLOITATION DES PROCÉDÉS THOMSON-HOUSTON",
    "COMPAGNIE FRANÇAISE POUR L'EXPLOITATION DES PROCÉDÉS THOMSON-HOUSTON",
    "COMPAGNIE FRANÇAISE THOMSON-HOUSTON",
    "Compagnie Française Thomson-Houston-Hotchkiss-Brandt",
    "Compagnie Française pour l'Exploitation des procédés Thomson-Houston",
    "Compagnie française pour l'exploitation des Procédés Thomson-Houston",
    "Compagnie française pour l'exploitation des procédés Thomson-Houston",
    "O FRANÇAISE POUR L'EXPLOITATION DES PROCÉDÉS THOMSON-HOUSTON",
    "Thomson-Brandt"
  ],
  "name": "CIE FRANÇAISE POUR L'EXPLOITATION DES PROCÉDÉS THOMSON-HOUSTON",
  "balance_sheets": [
    {
      "start_date": "1910-12-31",
      "source": "Annuaire Desfossés 1912",
      "page": "587"
    },
    {
      "start_date": "1912-12-31",
      "source": "Annuaire Desfossés 1914",
      "page": "644"
    },
    {
      "start_date": "1916-12-31",
      "source": "Annuaire Desfossés 1917",
      "page": "578"
    },
    {
      "start_date": "1919-12-31",
      "source": "Annuaire Desfossés 1920",
      "page": "599"
    },
    {
      "start_date": "1921-12-31",
      "source": "Annuaire Desfossés 1923",
      "page": "666"
    },
    {
      "start_date": "1923-12-31",
      "source": "Annuaire Desfossés 1925",
      "page": "732"
    },
    {
      "start_date": "1925-12-31",
      "source": "Annuaire Desfossés 1927",
      "page": "609"
    },
    {
      "start_date": "1927-12-31",
      "source": "Annuaire Desfossés 1929",
      "page": "649"
    },
    {
      "start_date": "1929-12-31",
      "source": "Annuaire Desfossés 1931",
      "page": "654"
    },
    {
      "start_date": "1930-12-31",
      "source": "Annuaire Desfossés 1932",
      "page": null
    },
    {
      "start_date": "1931-12-31",
      "source": "Annuaire Desfossés 1933",
      "page": "720"
    },
    {
      "start_date": "1932-12-31",
      "source": "Annuaire Desfossés 1936",
      "page": null
    },
    {
      "start_date": "1933-12-31",
      "source": "Annuaire Desfossés 1937",
      "page": "754"
    },
    {
      "start_date": "1934-12-31",
      "source": "Annuaire Desfossés 1937",
      "page": "754"
    },
    {
      "start_date": "1935-12-31",
      "source": "Annuaire Desfossés 1940",
      "page": null
    },
    {
      "start_date": "1936-12-31",
      "source": "Annuaire Desfossés 1940",
      "page": null
    },
    {
      "start_date": "1937-12-31",
      "source": "Annuaire Desfossés 1940",
      "page": null
    },
    {
      "start_date": "1938-12-31",
      "source": "Annuaire Desfossés 1945",
      "page": "1463"
    },
    {
      "start_date": "1938-12-31",
      "source": "Annuaire Desfossés 1945",
      "page": "2303"
    },
    {
      "start_date": "1941-12-31",
      "source": "Annuaire Desfossés 1945",
      "page": "2303"
    },
    {
      "start_date": "1941-12-31",
      "source": "Annuaire Desfossés 1945",
      "page": "1463"
    },
    {
      "start_date": "1942-12-31",
      "source": "Annuaire Desfossés 1945",
      "page": "2303"
    },
    {
      "start_date": "1942-12-31",
      "source": "Annuaire Desfossés 1945",
      "page": "1463"
    },
    {
      "start_date": "1943-12-31",
      "source": "Annuaire Desfossés 1945",
      "page": "1463"
    },
    {
      "start_date": "1943-12-31",
      "source": "Annuaire Desfossés 1945",
      "page": "2303"
    },
    {
      "start_date": "1944-12-31",
      "source": "Annuaire Desfossés 1948",
      "page": "1595"
    },
    {
      "start_date": "1945-12-31",
      "source": "Annuaire Desfossés 1948",
      "page": "1595"
    },
    {
      "start_date": "1946-12-31",
      "source": "Annuaire Desfossés 1948",
      "page": "1595"
    },
    {
      "start_date": "1947-12-31",
      "source": "Annuaire Desfossés 1948",
      "page": "1595"
    },
    {
      "start_date": "1948-12-31",
      "source": "Annuaire Desfossés 1953",
      "page": "1335"
    },
    {
      "start_date": "1949-12-31",
      "source": "Annuaire Desfossés 1953",
      "page": "1335"
    },
    {
      "start_date": "1950-12-31",
      "source": "Annuaire Desfossés 1953",
      "page": "1335"
    },
    {
      "start_date": "1951-12-31",
      "source": "Annuaire Desfossés 1953",
      "page": "1335"
    }
  ],
  "balance_sheets_stats": {
    "start_date": "1910-12-31",
    "end_date": "1951-12-31"
  },
  "locations_stats": {
    "start_date": "1898-01-01",
    "end_date": "1953-12-31"
  },
  "locations": {
    "Siège social": [
      {
        "location_types_id": 1,
        "location_type": "Siège social",
        "address": "Rue de londres, 27",
        "city": "Paris",
        "district": "Paris",
        "country": "France",
        "in_yearbook_from": 1898,
        "in_yearbook_to": 1898
      },
      {
        "location_types_id": 1,
        "location_type": "Siège social",
        "address": "Rue de londres, 10",
        "city": "Paris",
        "district": "Paris",
        "country": "France",
        "in_yearbook_from": 1903,
        "in_yearbook_to": 1923
      },
      {
        "location_types_id": 1,
        "location_type": "Siège social",
        "address": "Boulevard haussmann, 173",
        "city": "Paris",
        "district": "Paris",
        "country": "France",
        "in_yearbook_from": 1927,
        "in_yearbook_to": 1953
      }
    ],
    "Usines": [
      {
        "location_types_id": 3,
        "location_type": "Usines",
        "address": null,
        "city": "Asnieres sur Oise",
        "district": "Yvelines",
        "country": "France",
        "in_yearbook_from": 1945,
        "in_yearbook_to": 1945
      },
      {
        "location_types_id": 3,
        "location_type": "Usines",
        "address": null,
        "city": "Chauny",
        "district": "Paris",
        "country": "France",
        "in_yearbook_from": 1945,
        "in_yearbook_to": 1945
      },
      {
        "location_types_id": 3,
        "location_type": "Usines",
        "address": null,
        "city": "Neuilly",
        "district": "Paris",
        "country": "France",
        "in_yearbook_from": 1945,
        "in_yearbook_to": 1945
      },
      {
        "location_types_id": 3,
        "location_type": "Usines",
        "address": null,
        "city": "Nevers",
        "district": "Paris",
        "country": "France",
        "in_yearbook_from": 1945,
        "in_yearbook_to": 1945
      },
      {
        "location_types_id": 3,
        "location_type": "Usines",
        "address": null,
        "city": "Paris",
        "district": "Paris",
        "country": "France",
        "in_yearbook_from": 1945,
        "in_yearbook_to": 1945
      }
    ]
  },
  "persons": [
    {
      "persons_count": 6,
      "yearbook": "Annuaire de la Compagnie des Agents de Change 1898",
      "source": "annuaire_cac_1898",
      "page": "2050"
    },
    {
      "persons_count": 7,
      "yearbook": "Annuaire de la Compagnie des Agents de Change 1903",
      "source": "annuaire_cac_1903",
      "page": "1549"
    },
    {
      "persons_count": 9,
      "yearbook": "Annuaire de la Compagnie des Agents de Change 1908",
      "source": "annuaire_cac_1908",
      "page": "1346"
    },
    {
      "persons_count": 7,
      "yearbook": "Annuaire Desfossés 1912",
      "source": "annuaire_df_1912",
      "page": "587"
    },
    {
      "persons_count": 3,
      "yearbook": "Annuaire Desfossés 1917",
      "source": "annuaire_df_1917",
      "page": "578"
    },
    {
      "persons_count": 10,
      "yearbook": "Annuaire Desfossés 1923",
      "source": "annuaire_df_1923",
      "page": "666"
    },
    {
      "persons_count": 14,
      "yearbook": "Annuaire Desfossés 1927",
      "source": "annuaire_df_1927",
      "page": "609"
    },
    {
      "persons_count": 19,
      "yearbook": "Annuaire Desfossés 1933",
      "source": "annuaire_df_1933",
      "page": "720"
    },
    {
      "persons_count": 15,
      "yearbook": "Annuaire Desfossés 1940",
      "source": "annuaire_df_1940",
      "page": null
    },
    {
      "persons_count": 5,
      "yearbook": "Annuaire Desfossés 1945",
      "source": "annuaire_df_1945",
      "page": "1463"
    },
    {
      "persons_count": 5,
      "yearbook": "Annuaire Desfossés 1945",
      "source": "annuaire_df_1945",
      "page": "2303"
    },
    {
      "persons_count": 6,
      "yearbook": "Annuaire Desfossés 1948",
      "source": "annuaire_df_1948",
      "page": "1595"
    },
    {
      "persons_count": 13,
      "yearbook": "Annuaire Desfossés 1953",
      "source": "annuaire_df_1953",
      "page": "1335"
    }
  ],
  "persons_stats": {
    "persons_count": 75,
    "start_date": "1898-01-01",
    "end_date": "1953-12-31"
  },
  "yearbooks_ocrs": [
    {
      "source": "annuaire_cac_1898",
      "yearbook": "Annuaire de la Compagnie des Agents de Change 1898",
      "page": "2050"
    },
    {
      "source": "annuaire_cac_1903",
      "yearbook": "Annuaire de la Compagnie des Agents de Change 1903",
      "page": "1549"
    },
    {
      "source": "annuaire_cac_1908",
      "yearbook": "Annuaire de la Compagnie des Agents de Change 1908",
      "page": "1346"
    },
    {
      "source": "annuaire_df_1912",
      "yearbook": "Annuaire Desfossés 1912",
      "page": "587"
    },
    {
      "source": "annuaire_df_1914",
      "yearbook": "Annuaire Desfossés 1914",
      "page": "644"
    },
    {
      "source": "annuaire_df_1917",
      "yearbook": "Annuaire Desfossés 1917",
      "page": "578"
    },
    {
      "source": "annuaire_df_1920",
      "yearbook": "Annuaire Desfossés 1920",
      "page": "599"
    },
    {
      "source": "annuaire_df_1923",
      "yearbook": "Annuaire Desfossés 1923",
      "page": "666"
    },
    {
      "source": "annuaire_df_1925",
      "yearbook": "Annuaire Desfossés 1925",
      "page": "732"
    },
    {
      "source": "annuaire_df_1927",
      "yearbook": "Annuaire Desfossés 1927",
      "page": "609"
    },
    {
      "source": "annuaire_df_1929",
      "yearbook": "Annuaire Desfossés 1929",
      "page": "649"
    },
    {
      "source": "annuaire_df_1931",
      "yearbook": "Annuaire Desfossés 1931",
      "page": "654"
    },
    {
      "source": "annuaire_df_1933",
      "yearbook": "Annuaire Desfossés 1933",
      "page": "720"
    },
    {
      "source": "annuaire_df_1937",
      "yearbook": "Annuaire Desfossés 1937",
      "page": "754"
    },
    {
      "source": "annuaire_df_1940",
      "yearbook": "Annuaire Desfossés 1940",
      "page": null
    },
    {
      "source": "annuaire_df_1945",
      "yearbook": "Annuaire Desfossés 1945",
      "page": "2303"
    },
    {
      "source": "annuaire_df_1945",
      "yearbook": "Annuaire Desfossés 1945",
      "page": "1463"
    },
    {
      "source": "annuaire_df_1948",
      "yearbook": "Annuaire Desfossés 1948",
      "page": "1595"
    },
    {
      "source": "annuaire_df_1953",
      "yearbook": "Annuaire Desfossés 1953",
      "page": "1335"
    }
  ],
  "juridical_status": [
    {
      "juridical_status": "Société Anonyme (Libre)",
      "start_date": "1893-04-11",
      "end_date": "1983-04-11",
      "comments": "Société anonyme formée par acte reçu par Me Gherrier, notaire à Paris, le 27 février 1893, et définitivement constituée le 11 avril suivant ; modifiée par décisions des Assemblées générales des 12 avril, 9 juin et 11 juillet 1894, 14 septembre et 22 octobre 1896, 12 avril et 31 mai 1897, 22 octobre et 2 décembre 1898, et leI mai 1900.",
      "source": "annuaire_cac_1903"
    }
  ],
  "equity_capital": [
    {
      "amount": "1.000.000",
      "currency": "Franc",
      "infodate": "1893-04-11",
      "source": "annuaire_cac_1898",
      "comments": "Fixé primitivement à 1 million de francs divisé en 2,000 actions de 500 francs, sur lesquelles 1,800 ont été souscrites en espèces et au pair, et 200 ont été attribuées, entièrement libérées, à la Thomson-Houston International Electric C°, en représentation de ses apports et ce, indépendamment d’une redevance annuelle de 40 % sur les bénéfices nets après payement d’un intérêt de 5 »/„ aux actions.\n Il était stipulé que, au cas où le capital social serait porté à 5 millions de francs, cette redevance de 40 % serait rachetée au moyen de la remise à la Thomson-Houston C° de 4,000 actions de 500 francs, entièrement libérées."
    },
    {
      "amount": "5.000.000",
      "currency": "Franc",
      "infodate": "1894-06-09",
      "source": "annuaire_cac_1898",
      "comments": "Le capital social a été successivement porté : 1° A. 5 millions, par décision des Assemblées générales des 12 avril, 17 mai et 9 juin 1894, au moyen de la création de 8,000 actions de 500 fr., dont 4,000 ont été souscrites en espèces et au pair, et 4,000 ont été attribuées à la Thomson-Houston G° en échange de la redevance des 40 °/„, conformément aux stipulations rappelées ci-dessus ;"
    },
    {
      "amount": "15.000.000",
      "currency": "Franc",
      "infodate": "1896-10-22",
      "source": "annuaire_cac_1898",
      "comments": " 2° A 15 millions, par décision des Assemblées générales des 14 septembre et 22 octobre 1896, au moyen de la création de 20,000 actions de 500 francs, émises à 750 francs. "
    },
    {
      "amount": "25.000.000",
      "currency": "Franc",
      "infodate": "1897-05-31",
      "source": "annuaire_cac_1898",
      "comments": "3° Et à 25 millions, par décision des assemblées générales des 12 avril et 31 mai 1897, au moyen de la création cle 20,000 actions nouvelles de 500 fr., émises à 750 fr. dont 375 fr. à verser en souscrivant.\n"
    },
    {
      "amount": "40.000.000",
      "currency": "Franc",
      "infodate": "1898-12-02",
      "source": "annuaire_cac_1903",
      "comments": "4° Et à 40 millions de francs, par décision des Assemblées générales des 22 octobre et 2 décembre 1898, au moyen de la création de 30,000 actions nouvelles de 500 francs, émises à 1.000 francs."
    },
    {
      "amount": "60.000.000",
      "currency": "Franc",
      "infodate": "1909-01-01",
      "source": "annuaire_df_1912",
      "comments": " 60 millions de francs, divisé en 120.000 actions de 500 francs. A l’origine 1 million, porté en 1894 à 5 millions, en 1896 à 15 millions, en 1897 à 25 millions, en 1898 à 40 millions et en 1909 au chiffre actuel en vue de l’absorption des sociétés Thomson-Houston de la Méditerranée, Accumulateurs électriques * Union », et Ateliers Thomson-Houston."
    },
    {
      "amount": "120.000.000",
      "currency": "Franc",
      "infodate": "1918-01-01",
      "source": "annuaire_df_1953",
      "comments": " 2.316.825.000 fr., divisé en 661.950 actions de 3.500 fr. A l'origine, 1 million, porté • en 1894 à 5 millions, en 1896 à 15 millions, en 1897 à 25 millions, en 1898 à 40 millions, en 1909 à 60 millions, en\t1918 à\t120 millions, en\t1919 à 200 millions, à 250 millions en\t1923, à, 300 millions en 1924. En\t1929 à\t330 millions par\tl'émission à 120 fr. de 300.000 actions\tde 100 fr. à vote plural, enfin, en 1930, à 440 millions par l'émission à 650 fr. de 200.000 actions nouvelles A de 500 fr., et à 107 fr. 50 de 100.000 actions C nominatives (1 pour 3 anciennes, coupon n» 42. La souscription des actions C a été réservée aux porteurs d'actions B). A cette époque, le capital de 440 millions était représenté par 800.000 actions A, de 500 fr., 300.000 actions B, de 100 fr., à vote plural et 100.000 actions C de 100 fr. En 1935, les actions B ont été échangées contre 6.000 actions de 500 fr., sans désignation, et leur droit de vote plural a été supprimé, en même temps, les actions C ont été également échangées contre 20.000 actions de 500 fr., sans désignation, le tout, à. raison de 5 actions de l'une ou l'autre catégorie contre 1 action nouvelle de 500 fr. Le capital était ainsi de 440 millions, divisé en 880.000 actions de 500 fr. En décembre 1935, le capital a été ramené à 220 millions, par la réduction de la valeur nominale de chaque action de 500 fr. à 250 fr. Porté en 1946 à 440 millions par l'émission, à 295 fr., de 880.000 actions nouvelles de 250 fr. (1 nouvelle pour 1 ancienne). Porté en 1948 à 880 millions par l'émission à 300 fr. de 1.760.000 actions de 250 fr. (une pour une). Porté en 1949 à 882.600.000 fr. par création de 2.600 actions\tde 1.000 fr. (apports),\ten décembre 1949 à 1.103.250.000 fr.\tpar élévation du nominal de 250 à\t312 fr.\t50 et de 1.000 à\t1.250 fr. ; titres regroupés en 2.500 fr., puis en 1950 porté à 1.169.445.000 fr. par élévation du nominal à 2.650 fr.; enfin à 1.323.900.000 fr. par élévation du nominal à 3.000 fr. Porté en 1951 à 1.985.850.000 fr. par émission à 3.500 fr. de 220.650 actions de 3.000 fr. (1 pour 2). Porté fin 1952 à 2.316.825.000 fr. par élévation du nominal de 3.000 à"
    },
    {
      "amount": "200.000.000",
      "currency": "Franc",
      "infodate": "1920-02-01",
      "source": "annuaire_df_1923",
      "comments": "Y5U munons ae irancs,. cnvise en ouu.uuu acuons ue ouu irancs. A l’origine 1 million, porté en 1894 à 5 millions, en 1896 à 15 millions, en 1897 à 25 millions, en 1898 à 40 millions, en 1909 à 60 millions en vue de l’absorption des Sociétés Thomson-Houston de la Méditerrannée, Accumulateurs électriques ,« Union », et Ateliers Thomson-Houston. Porté ensuite à 120. millions par la création de 60.350 actions remises à la Société L’Eclairage Electrique, en rémunération d’apports et l’émission de 59.650 autres actions. Elevé à 200 millions par décisions des assemblées de novembre 1919 et février 1920 et au chiffre actuel en mars 1923."
    },
    {
      "amount": "250.000.000",
      "currency": "Franc",
      "infodate": "1923-01-01",
      "source": "annuaire_df_1923",
      "comments": "Y5U munons ae irancs,. cnvise en ouu.uuu acuons ue ouu irancs. A l’origine 1 million, porté en 1894 à 5 millions, en 1896 à 15 millions, en 1897 à 25 millions, en 1898 à 40 millions, en 1909 à 60 millions en vue de l’absorption des Sociétés Thomson-Houston de la Méditerrannée, Accumulateurs électriques ,« Union », et Ateliers Thomson-Houston. Porté ensuite à 120. millions par la création de 60.350 actions remises à la Société L’Eclairage Electrique, en rémunération d’apports et l’émission de 59.650 autres actions. Elevé à 200 millions par décisions des assemblées de novembre 1919 et février 1920 et au chiffre actuel en mars 1923."
    },
    {
      "amount": "300.000.000",
      "currency": "Franc",
      "infodate": "1924-01-01",
      "source": "annuaire_df_1927",
      "comments": "300 millions de francs, divisé en 600.000 actions de 500 francs. A l’origine 1 million, porté en 1894 à 5 millions, en 1896 à 15 millions, en 1897 à 25 millions, en 1898 à 40 millions, en 1909 à 60 millions en vue de l’absorption des Sociétés Tbomson-Houston de la Méditerrannée, Accumulateurs électriques « Union et Ateliers Tbomson-Houston. Porté ensuite à .120 millions par la création de 60.350 actions remises à la Société L’Eclairage Electrique, en rémunération d’apports et l’émission de 59.650 autres actions. Elevé à 200 millions par décisions des assemblées de novembre 1919 et février 19.20, h 250 millions en 1923 et au chiffre actuel en 1924, par émission de 100.000 actions nouvelles (1 pour 5 anciennes)."
    },
    {
      "amount": "330.000.000",
      "currency": "Franc",
      "infodate": "1929-01-01",
      "source": "annuaire_df_1933",
      "comments": "càoltal social i 440 millions de francs, divisé en 1.200.000 actions dont 800.000 , snn francs A, 300.000 de 100 francsàvote plural B, et 100.000 C de 100francs. ,i’nrielne 1 million, porté en 1894 à 5 millions, en 1896 à 15 millions, en 1897 à 25 mll-ns en 1898 à 40 millions, en 1909 à 60 millions en vue de l'absorption des Sociétés Thnmaon-Houston de ia Médlterrannée, Accumulateurs électriques « Union ., et iiriiers Thomson-Houston. Porté ensuite à 120 millions par la création de 60.350 ac-Mnns remises à la Société L’Eclairage Electrique, en rémunération d’apports et l’émis !.vin de 59.650 autres actions. Elevé à 200 millions par décisions des assemblées de novembre 1919 et février 1920, a 250 millions en 1923 à 300 millions en 1924, par émission de 100.000 actions nouvelles (1 pour 5 anciennes). En 1929 à 330 millions railn en 1930, à 440 millions par l’émission de 200.000 actions nouvelles A de 500 francs, et de 100.000 actions C nominatives (1 A pour 3 anciennes, coupon n° 42. La souscription des actions C a été réservée aux porteurs d’actions B)."
    },
    {
      "amount": "440.000.000",
      "currency": "Franc",
      "infodate": "1930-01-01",
      "source": "annuaire_df_1933",
      "comments": "càoltal social i 440 millions de francs, divisé en 1.200.000 actions dont 800.000 , snn francs A, 300.000 de 100 francsàvote plural B, et 100.000 C de 100francs. ,i’nrielne 1 million, porté en 1894 à 5 millions, en 1896 à 15 millions, en 1897 à 25 mll-ns en 1898 à 40 millions, en 1909 à 60 millions en vue de l'absorption des Sociétés Thnmaon-Houston de ia Médlterrannée, Accumulateurs électriques « Union ., et iiriiers Thomson-Houston. Porté ensuite à 120 millions par la création de 60.350 ac-Mnns remises à la Société L’Eclairage Electrique, en rémunération d’apports et l’émis !.vin de 59.650 autres actions. Elevé à 200 millions par décisions des assemblées de novembre 1919 et février 1920, a 250 millions en 1923 à 300 millions en 1924, par émission de 100.000 actions nouvelles (1 pour 5 anciennes). En 1929 à 330 millions railn en 1930, à 440 millions par l’émission de 200.000 actions nouvelles A de 500 francs, et de 100.000 actions C nominatives (1 A pour 3 anciennes, coupon n° 42. La souscription des actions C a été réservée aux porteurs d’actions B)."
    },
    {
      "amount": "220.000.000",
      "currency": "Franc",
      "infodate": "1935-12-01",
      "source": "annuaire_df_1940",
      "comments": "220 millions de francs, divisé en 880.000 actions de 250 francs A l’origine 1 million, porté en 1894 à 5 millions, en 1896 à 15 millions, en 1897 à 25 millions, en 1898 à 40 millions, en 1909 à 60 millions, en 1918 à 120 millions, en 1919 à 200 millions, à 250 millions en 1923, à 300 millions en 1924. En 1929 à 330 millions par l’émission à 120 francs de 300.000 actions de 100 francs à vote plural, enfin, en 1930, à 440 millions par l’émission à 650 francs de 200.000 actions nouvelles A de 500 francs, et à 107 fr. 50 de 100.000 actions C nominatives (1 pour 3 anciennes, coupon n*> 42. La souscription des actions C a été réservée aux porteurs d’actions B). A cette époque, le capital de 440 millions était représenté par 800.000 actions A, de 500 francs, 300.000 actions B, de 100 francs, à vote plural et 100.000 actions C de 100 francs. En 1935, les actions B ont été échangées contre 60.000 actions de 500 francs, sans désignation, et leur droit de vote plural a été supprimé, en même temps, les actions C ont été également échangées contre 20.000 actions de 500 francs, sans- désignation, le tout à raison de. 5 actions de l’une ou l’autre catégorie contre 1 action nouvelle de 500 francs. Le capital était ainsi de 440 millions, divisé en 880.000 actions de 500 francs. En décembre 1935, le capital a été ramené à 220 millions, par la réduction de la valeur nominale de chaque action de 500 francs à 250 francs."
    },
    {
      "amount": "440.000.000",
      "currency": "Franc",
      "infodate": "1946-01-01",
      "source": "annuaire_df_1948",
      "comments": "880 millions,\tde francs, divisé en 3.520.000\tactions de 250\tfrancs. A l'origine 1 million, porté en\t1894 à 5 millions, en\t1896 à\t15 millions, en\t1897 à 25. millions, en 1898 à 40 millions, en 1909 à 60 millions, en 1918 à 120 millions, en 1919 à 200 millions, à 250 millions en 1923, à 300\tmillions en 1924. En\t1929 à 330 millions par l'émission à\t120 francs de 300.000\tactions\tde 100 francs\tà vote plural, enfin, en 1930, à 440 millions par l'émission à 650 francs de 200.000 actions nouvelles A de 500 francs, et à 107 fr. 50 de 100.000 actions C nominatives (1 pour 3 anciennes, coupon' n'° 42. La souscription des actions C a été réservée aux porteurs d'actions B). A cette époque, le capital dë 440 millions était représenté par 800.000 actions A, de 500 francs, 300.000 actions B, de 100 francs, à vote plural et 100.000 actions C de 100 francs. En 1935, les actions B ont été échangées contre 60.000 actions de 500 francs, sans désignation, et leur droit de vote plural a été supprimé, en même temps, les actions C ont été également échangées contre 20.000 actions de 500 francs, sans désignation, le tout à raison de 5 actions de Tune ou l'autre catégorie contre 1 action nouvelle de 500 francs. Le capital était ainsi de 440 millions, divisé en 880.000 actions de 500 francs. En décembre 1935, le capital a été ramené à 220 millions, par la réduction de la valeur nominale de chaque action de 500 francs à 250 francs. Porté en 1946 à 440 millions par l'émission, à 295 francs, de 880.000 actions nouvelles de 250 francs (.1 nouvelle pour 1 ancienne). Porté en 1948 à 880 millions par l'émission à 300 fr. de 1.760.000 de .250 fr. (une pour une)."
    },
    {
      "amount": "880.000.000",
      "currency": "Franc",
      "infodate": "1948-01-01",
      "source": "annuaire_df_1948",
      "comments": "880 millions,\tde francs, divisé en 3.520.000\tactions de 250\tfrancs. A l'origine 1 million, porté en\t1894 à 5 millions, en\t1896 à\t15 millions, en\t1897 à 25. millions, en 1898 à 40 millions, en 1909 à 60 millions, en 1918 à 120 millions, en 1919 à 200 millions, à 250 millions en 1923, à 300\tmillions en 1924. En\t1929 à 330 millions par l'émission à\t120 francs de 300.000\tactions\tde 100 francs\tà vote plural, enfin, en 1930, à 440 millions par l'émission à 650 francs de 200.000 actions nouvelles A de 500 francs, et à 107 fr. 50 de 100.000 actions C nominatives (1 pour 3 anciennes, coupon' n'° 42. La souscription des actions C a été réservée aux porteurs d'actions B). A cette époque, le capital dë 440 millions était représenté par 800.000 actions A, de 500 francs, 300.000 actions B, de 100 francs, à vote plural et 100.000 actions C de 100 francs. En 1935, les actions B ont été échangées contre 60.000 actions de 500 francs, sans désignation, et leur droit de vote plural a été supprimé, en même temps, les actions C ont été également échangées contre 20.000 actions de 500 francs, sans désignation, le tout à raison de 5 actions de Tune ou l'autre catégorie contre 1 action nouvelle de 500 francs. Le capital était ainsi de 440 millions, divisé en 880.000 actions de 500 francs. En décembre 1935, le capital a été ramené à 220 millions, par la réduction de la valeur nominale de chaque action de 500 francs à 250 francs. Porté en 1946 à 440 millions par l'émission, à 295 francs, de 880.000 actions nouvelles de 250 francs (.1 nouvelle pour 1 ancienne). Porté en 1948 à 880 millions par l'émission à 300 fr. de 1.760.000 de .250 fr. (une pour une)."
    },
    {
      "amount": "882.600.000",
      "currency": "Franc",
      "infodate": "1949-01-01",
      "source": "annuaire_df_1953",
      "comments": " 2.316.825.000 fr., divisé en 661.950 actions de 3.500 fr. A l'origine, 1 million, porté • en 1894 à 5 millions, en 1896 à 15 millions, en 1897 à 25 millions, en 1898 à 40 millions, en 1909 à 60 millions, en\t1918 à\t120 millions, en\t1919 à 200 millions, à 250 millions en\t1923, à, 300 millions en 1924. En\t1929 à\t330 millions par\tl'émission à 120 fr. de 300.000 actions\tde 100 fr. à vote plural, enfin, en 1930, à 440 millions par l'émission à 650 fr. de 200.000 actions nouvelles A de 500 fr., et à 107 fr. 50 de 100.000 actions C nominatives (1 pour 3 anciennes, coupon n» 42. La souscription des actions C a été réservée aux porteurs d'actions B). A cette époque, le capital de 440 millions était représenté par 800.000 actions A, de 500 fr., 300.000 actions B, de 100 fr., à vote plural et 100.000 actions C de 100 fr. En 1935, les actions B ont été échangées contre 6.000 actions de 500 fr., sans désignation, et leur droit de vote plural a été supprimé, en même temps, les actions C ont été également échangées contre 20.000 actions de 500 fr., sans désignation, le tout, à. raison de 5 actions de l'une ou l'autre catégorie contre 1 action nouvelle de 500 fr. Le capital était ainsi de 440 millions, divisé en 880.000 actions de 500 fr. En décembre 1935, le capital a été ramené à 220 millions, par la réduction de la valeur nominale de chaque action de 500 fr. à 250 fr. Porté en 1946 à 440 millions par l'émission, à 295 fr., de 880.000 actions nouvelles de 250 fr. (1 nouvelle pour 1 ancienne). Porté en 1948 à 880 millions par l'émission à 300 fr. de 1.760.000 actions de 250 fr. (une pour une). Porté en 1949 à 882.600.000 fr. par création de 2.600 actions\tde 1.000 fr. (apports),\ten décembre 1949 à 1.103.250.000 fr.\tpar élévation du nominal de 250 à\t312 fr.\t50 et de 1.000 à\t1.250 fr. ; titres regroupés en 2.500 fr., puis en 1950 porté à 1.169.445.000 fr. par élévation du nominal à 2.650 fr.; enfin à 1.323.900.000 fr. par élévation du nominal à 3.000 fr. Porté en 1951 à 1.985.850.000 fr. par émission à 3.500 fr. de 220.650 actions de 3.000 fr. (1 pour 2). Porté fin 1952 à 2.316.825.000 fr. par élévation du nominal de 3.000 à"
    },
    {
      "amount": "1.103.250.000",
      "currency": "Franc",
      "infodate": "1949-12-01",
      "source": "annuaire_df_1953",
      "comments": " 2.316.825.000 fr., divisé en 661.950 actions de 3.500 fr. A l'origine, 1 million, porté • en 1894 à 5 millions, en 1896 à 15 millions, en 1897 à 25 millions, en 1898 à 40 millions, en 1909 à 60 millions, en\t1918 à\t120 millions, en\t1919 à 200 millions, à 250 millions en\t1923, à, 300 millions en 1924. En\t1929 à\t330 millions par\tl'émission à 120 fr. de 300.000 actions\tde 100 fr. à vote plural, enfin, en 1930, à 440 millions par l'émission à 650 fr. de 200.000 actions nouvelles A de 500 fr., et à 107 fr. 50 de 100.000 actions C nominatives (1 pour 3 anciennes, coupon n» 42. La souscription des actions C a été réservée aux porteurs d'actions B). A cette époque, le capital de 440 millions était représenté par 800.000 actions A, de 500 fr., 300.000 actions B, de 100 fr., à vote plural et 100.000 actions C de 100 fr. En 1935, les actions B ont été échangées contre 6.000 actions de 500 fr., sans désignation, et leur droit de vote plural a été supprimé, en même temps, les actions C ont été également échangées contre 20.000 actions de 500 fr., sans désignation, le tout, à. raison de 5 actions de l'une ou l'autre catégorie contre 1 action nouvelle de 500 fr. Le capital était ainsi de 440 millions, divisé en 880.000 actions de 500 fr. En décembre 1935, le capital a été ramené à 220 millions, par la réduction de la valeur nominale de chaque action de 500 fr. à 250 fr. Porté en 1946 à 440 millions par l'émission, à 295 fr., de 880.000 actions nouvelles de 250 fr. (1 nouvelle pour 1 ancienne). Porté en 1948 à 880 millions par l'émission à 300 fr. de 1.760.000 actions de 250 fr. (une pour une). Porté en 1949 à 882.600.000 fr. par création de 2.600 actions\tde 1.000 fr. (apports),\ten décembre 1949 à 1.103.250.000 fr.\tpar élévation du nominal de 250 à\t312 fr.\t50 et de 1.000 à\t1.250 fr. ; titres regroupés en 2.500 fr., puis en 1950 porté à 1.169.445.000 fr. par élévation du nominal à 2.650 fr.; enfin à 1.323.900.000 fr. par élévation du nominal à 3.000 fr. Porté en 1951 à 1.985.850.000 fr. par émission à 3.500 fr. de 220.650 actions de 3.000 fr. (1 pour 2). Porté fin 1952 à 2.316.825.000 fr. par élévation du nominal de 3.000 à"
    },
    {
      "amount": "1.169.445.000",
      "currency": "Franc",
      "infodate": "1950-01-01",
      "source": "annuaire_df_1953",
      "comments": "2.316.825.000 fr., divisé en 661.950 actions de 3.500 fr. A l'origine, 1 million, porté • en 1894 à 5 millions, en 1896 à 15 millions, en 1897 à 25 millions, en 1898 à 40 millions, en 1909 à 60 millions, en\t1918 à\t120 millions, en\t1919 à 200 millions, à 250 millions en\t1923, à, 300 millions en 1924. En\t1929 à\t330 millions par\tl'émission à 120 fr. de 300.000 actions\tde 100 fr. à vote plural, enfin, en 1930, à 440 millions par l'émission à 650 fr. de 200.000 actions nouvelles A de 500 fr., et à 107 fr. 50 de 100.000 actions C nominatives (1 pour 3 anciennes, coupon n» 42. La souscription des actions C a été réservée aux porteurs d'actions B). A cette époque, le capital de 440 millions était représenté par 800.000 actions A, de 500 fr., 300.000 actions B, de 100 fr., à vote plural et 100.000 actions C de 100 fr. En 1935, les actions B ont été échangées contre 6.000 actions de 500 fr., sans désignation, et leur droit de vote plural a été supprimé, en même temps, les actions C ont été également échangées contre 20.000 actions de 500 fr., sans désignation, le tout, à. raison de 5 actions de l'une ou l'autre catégorie contre 1 action nouvelle de 500 fr. Le capital était ainsi de 440 millions, divisé en 880.000 actions de 500 fr. En décembre 1935, le capital a été ramené à 220 millions, par la réduction de la valeur nominale de chaque action de 500 fr. à 250 fr. Porté en 1946 à 440 millions par l'émission, à 295 fr., de 880.000 actions nouvelles de 250 fr. (1 nouvelle pour 1 ancienne). Porté en 1948 à 880 millions par l'émission à 300 fr. de 1.760.000 actions de 250 fr. (une pour une). Porté en 1949 à 882.600.000 fr. par création de 2.600 actions\tde 1.000 fr. (apports),\ten décembre 1949 à 1.103.250.000 fr.\tpar élévation du nominal de 250 à\t312 fr.\t50 et de 1.000 à\t1.250 fr. ; titres regroupés en 2.500 fr., puis en 1950 porté à 1.169.445.000 fr. par élévation du nominal à 2.650 fr.; enfin à 1.323.900.000 fr. par élévation du nominal à 3.000 fr. Porté en 1951 à 1.985.850.000 fr. par émission à 3.500 fr. de 220.650 actions de 3.000 fr. (1 pour 2). Porté fin 1952 à 2.316.825.000 fr. par élévation du nominal de 3.000 à"
    },
    {
      "amount": "1.323.900.000",
      "currency": "Franc",
      "infodate": "1950-01-02",
      "source": "annuaire_df_1953",
      "comments": " 2.316.825.000 fr., divisé en 661.950 actions de 3.500 fr. A l'origine, 1 million, porté • en 1894 à 5 millions, en 1896 à 15 millions, en 1897 à 25 millions, en 1898 à 40 millions, en 1909 à 60 millions, en\t1918 à\t120 millions, en\t1919 à 200 millions, à 250 millions en\t1923, à, 300 millions en 1924. En\t1929 à\t330 millions par\tl'émission à 120 fr. de 300.000 actions\tde 100 fr. à vote plural, enfin, en 1930, à 440 millions par l'émission à 650 fr. de 200.000 actions nouvelles A de 500 fr., et à 107 fr. 50 de 100.000 actions C nominatives (1 pour 3 anciennes, coupon n» 42. La souscription des actions C a été réservée aux porteurs d'actions B). A cette époque, le capital de 440 millions était représenté par 800.000 actions A, de 500 fr., 300.000 actions B, de 100 fr., à vote plural et 100.000 actions C de 100 fr. En 1935, les actions B ont été échangées contre 6.000 actions de 500 fr., sans désignation, et leur droit de vote plural a été supprimé, en même temps, les actions C ont été également échangées contre 20.000 actions de 500 fr., sans désignation, le tout, à. raison de 5 actions de l'une ou l'autre catégorie contre 1 action nouvelle de 500 fr. Le capital était ainsi de 440 millions, divisé en 880.000 actions de 500 fr. En décembre 1935, le capital a été ramené à 220 millions, par la réduction de la valeur nominale de chaque action de 500 fr. à 250 fr. Porté en 1946 à 440 millions par l'émission, à 295 fr., de 880.000 actions nouvelles de 250 fr. (1 nouvelle pour 1 ancienne). Porté en 1948 à 880 millions par l'émission à 300 fr. de 1.760.000 actions de 250 fr. (une pour une). Porté en 1949 à 882.600.000 fr. par création de 2.600 actions\tde 1.000 fr. (apports),\ten décembre 1949 à 1.103.250.000 fr.\tpar élévation du nominal de 250 à\t312 fr.\t50 et de 1.000 à\t1.250 fr. ; titres regroupés en 2.500 fr., puis en 1950 porté à 1.169.445.000 fr. par élévation du nominal à 2.650 fr.; enfin à 1.323.900.000 fr. par élévation du nominal à 3.000 fr. Porté en 1951 à 1.985.850.000 fr. par émission à 3.500 fr. de 220.650 actions de 3.000 fr. (1 pour 2). Porté fin 1952 à 2.316.825.000 fr. par élévation du nominal de 3.000 à"
    },
    {
      "amount": "1.985.850.000",
      "currency": "Franc",
      "infodate": "1951-01-01",
      "source": "annuaire_df_1953",
      "comments": " 2.316.825.000 fr., divisé en 661.950 actions de 3.500 fr. A l'origine, 1 million, porté • en 1894 à 5 millions, en 1896 à 15 millions, en 1897 à 25 millions, en 1898 à 40 millions, en 1909 à 60 millions, en\t1918 à\t120 millions, en\t1919 à 200 millions, à 250 millions en\t1923, à, 300 millions en 1924. En\t1929 à\t330 millions par\tl'émission à 120 fr. de 300.000 actions\tde 100 fr. à vote plural, enfin, en 1930, à 440 millions par l'émission à 650 fr. de 200.000 actions nouvelles A de 500 fr., et à 107 fr. 50 de 100.000 actions C nominatives (1 pour 3 anciennes, coupon n» 42. La souscription des actions C a été réservée aux porteurs d'actions B). A cette époque, le capital de 440 millions était représenté par 800.000 actions A, de 500 fr., 300.000 actions B, de 100 fr., à vote plural et 100.000 actions C de 100 fr. En 1935, les actions B ont été échangées contre 6.000 actions de 500 fr., sans désignation, et leur droit de vote plural a été supprimé, en même temps, les actions C ont été également échangées contre 20.000 actions de 500 fr., sans désignation, le tout, à. raison de 5 actions de l'une ou l'autre catégorie contre 1 action nouvelle de 500 fr. Le capital était ainsi de 440 millions, divisé en 880.000 actions de 500 fr. En décembre 1935, le capital a été ramené à 220 millions, par la réduction de la valeur nominale de chaque action de 500 fr. à 250 fr. Porté en 1946 à 440 millions par l'émission, à 295 fr., de 880.000 actions nouvelles de 250 fr. (1 nouvelle pour 1 ancienne). Porté en 1948 à 880 millions par l'émission à 300 fr. de 1.760.000 actions de 250 fr. (une pour une). Porté en 1949 à 882.600.000 fr. par création de 2.600 actions\tde 1.000 fr. (apports),\ten décembre 1949 à 1.103.250.000 fr.\tpar élévation du nominal de 250 à\t312 fr.\t50 et de 1.000 à\t1.250 fr. ; titres regroupés en 2.500 fr., puis en 1950 porté à 1.169.445.000 fr. par élévation du nominal à 2.650 fr.; enfin à 1.323.900.000 fr. par élévation du nominal à 3.000 fr. Porté en 1951 à 1.985.850.000 fr. par émission à 3.500 fr. de 220.650 actions de 3.000 fr. (1 pour 2). Porté fin 1952 à 2.316.825.000 fr. par élévation du nominal de 3.000 à"
    },
    {
      "amount": "2.316.825.000",
      "currency": "Franc",
      "infodate": "1952-12-01",
      "source": "annuaire_df_1953",
      "comments": "2.316.825.000 fr., divisé en 661.950 actions de 3.500 fr. A l'origine, 1 million, porté • en 1894 à 5 millions, en 1896 à 15 millions, en 1897 à 25 millions, en 1898 à 40 millions, en 1909 à 60 millions, en\t1918 à\t120 millions, en\t1919 à 200 millions, à 250 millions en\t1923, à, 300 millions en 1924. En\t1929 à\t330 millions par\tl'émission à 120 fr. de 300.000 actions\tde 100 fr. à vote plural, enfin, en 1930, à 440 millions par l'émission à 650 fr. de 200.000 actions nouvelles A de 500 fr., et à 107 fr. 50 de 100.000 actions C nominatives (1 pour 3 anciennes, coupon n» 42. La souscription des actions C a été réservée aux porteurs d'actions B). A cette époque, le capital de 440 millions était représenté par 800.000 actions A, de 500 fr., 300.000 actions B, de 100 fr., à vote plural et 100.000 actions C de 100 fr. En 1935, les actions B ont été échangées contre 6.000 actions de 500 fr., sans désignation, et leur droit de vote plural a été supprimé, en même temps, les actions C ont été également échangées contre 20.000 actions de 500 fr., sans désignation, le tout, à. raison de 5 actions de l'une ou l'autre catégorie contre 1 action nouvelle de 500 fr. Le capital était ainsi de 440 millions, divisé en 880.000 actions de 500 fr. En décembre 1935, le capital a été ramené à 220 millions, par la réduction de la valeur nominale de chaque action de 500 fr. à 250 fr. Porté en 1946 à 440 millions par l'émission, à 295 fr., de 880.000 actions nouvelles de 250 fr. (1 nouvelle pour 1 ancienne). Porté en 1948 à 880 millions par l'émission à 300 fr. de 1.760.000 actions de 250 fr. (une pour une). Porté en 1949 à 882.600.000 fr. par création de 2.600 actions\tde 1.000 fr. (apports),\ten décembre 1949 à 1.103.250.000 fr.\tpar élévation du nominal de 250 à\t312 fr.\t50 et de 1.000 à\t1.250 fr. ; titres regroupés en 2.500 fr., puis en 1950 porté à 1.169.445.000 fr. par élévation du nominal à 2.650 fr.; enfin à 1.323.900.000 fr. par élévation du nominal à 3.000 fr. Porté en 1951 à 1.985.850.000 fr. par émission à 3.500 fr. de 220.650 actions de 3.000 fr. (1 pour 2). Porté fin 1952 à 2.316.825.000 fr. par élévation du nominal de 3.000 à 3.500 fr."
    }
  ],
  "profit_dividends": [
    {
      "first_date": "1893-12-31",
      "last_date": "1951-12-31",
      "obs_count": 467
    }
  ],
  "public_status": false,
  "stock_exchanges": {
    "1": {
      "id": 1,
      "name": "Paris (Official List)",
      "listings_stats": {
        "start_date": "1896-05-07"
      },
      "spot_prices_stats": {
        "start_date": "1896-05-07",
        "end_date": "1976-12-31"
      },
      "forward_prices_stats": {
        "start_date": "1897-08-31",
        "end_date": "1937-12-31"
      },
      "options_prices_stats": {
        "start_date": "1897-11-30",
        "end_date": "1937-12-31"
      }
    }
  },
  "securities": {
    "4437": {
      "id": 4437,
      "name": "Procédés Thomson-Houston (Cie française pour l'expl. Des), actions de 500 f. (nominatives), 250 fr. restant à verser",
      "share_type": {
        "id": 1,
        "name": "Stock (Action)"
      },
      "types": [
        {
          "start_date": "1896-11-30",
          "end_date": "3999-12-31",
          "id": 18,
          "name": "Action",
          "stock_group": "S"
        }
      ],
      "start_date": "1896-11-30",
      "end_date": "3999-12-31",
      "prices_from": "1896-11-30",
      "prices_to": "1896-12-15",
      "is_mainstock": 0,
      "prices_count": 3
    },
    "4442": {
      "id": 4442,
      "name": "Procédés Thomson-Houston (Cie française pour l'expl. Des), actions nouv. (nos 10001 à 30000)",
      "share_type": {
        "id": 1,
        "name": "Stock (Action)"
      },
      "types": [
        {
          "start_date": "1896-12-26",
          "end_date": "3999-12-31",
          "id": 18,
          "name": "Action",
          "stock_group": "S"
        }
      ],
      "start_date": "1896-12-26",
      "end_date": "3999-12-31",
      "prices_from": "1896-12-31",
      "prices_to": "1897-04-30",
      "is_mainstock": 0,
      "prices_count": 17
    },
    "4443": {
      "id": 4443,
      "name": "Procédés Thomson-Houston (Cie française pour l'expl. des), a. 500 fr., t. p. actions estampillées",
      "share_type": {
        "id": 1,
        "name": "Stock (Action)"
      },
      "types": [
        {
          "start_date": "1897-04-14",
          "end_date": "3999-12-31",
          "id": 18,
          "name": "Action",
          "stock_group": "S"
        }
      ],
      "start_date": "1897-04-14",
      "end_date": "3999-12-31",
      "prices_from": null,
      "prices_to": null,
      "is_mainstock": 0,
      "prices_count": 0
    },
    "4444": {
      "id": 4444,
      "name": "Procédés Thomson-Houston (Cie française pour l'expl. des), actions nouv. (nos 10001 à 30000), actions estampillées",
      "share_type": {
        "id": 1,
        "name": "Stock (Action)"
      },
      "types": [
        {
          "start_date": "1897-04-14",
          "end_date": "3999-12-31",
          "id": 18,
          "name": "Action",
          "stock_group": "S"
        }
      ],
      "start_date": "1897-04-14",
      "end_date": "3999-12-31",
      "prices_from": "1897-04-23",
      "prices_to": "1897-04-23",
      "is_mainstock": 0,
      "prices_count": 1
    },
    "4449": {
      "id": 4449,
      "name": "Procédés Thomson-Houston (Cie française pour l'expl. des), act. nouv. 500 f., 375 f. restant à verser, nomin. (nos 30001 à 50000)",
      "share_type": {
        "id": 1,
        "name": "Stock (Action)"
      },
      "types": [
        {
          "start_date": "1897-07-07",
          "end_date": "3999-12-31",
          "id": 18,
          "name": "Action",
          "stock_group": "S"
        }
      ],
      "start_date": "1897-07-07",
      "end_date": "3999-12-31",
      "prices_from": "1897-07-07",
      "prices_to": "1898-06-15",
      "is_mainstock": 0,
      "prices_count": 53
    },
    "4563": {
      "id": 4563,
      "name": "Procédés Thomson-Houston, 5%, r. à 500 f.",
      "share_type": {
        "id": 2,
        "name": "Bond (Obligation)"
      },
      "types": [
        {
          "start_date": "1896-05-07",
          "end_date": "3999-12-31",
          "id": 1001,
          "name": "Obligation ordinaire ou classique",
          "stock_group": "B"
        }
      ],
      "start_date": "1896-05-07",
      "end_date": "3999-12-31",
      "prices_from": "1896-05-07",
      "prices_to": "1906-03-15",
      "is_mainstock": 0,
      "prices_count": 233
    },
    "4777": {
      "id": 4777,
      "name": "Procédés Thomson-Houston 4%, remb. à 500 fr.",
      "share_type": {
        "id": 2,
        "name": "Bond (Obligation)"
      },
      "types": [
        {
          "start_date": "1899-10-03",
          "end_date": "3999-12-31",
          "id": 1001,
          "name": "Obligation ordinaire ou classique",
          "stock_group": "B"
        }
      ],
      "start_date": "1899-10-03",
      "end_date": "3999-12-31",
      "prices_from": "1899-10-03",
      "prices_to": "1948-06-30",
      "is_mainstock": 0,
      "prices_count": 1194
    },
    "6539": {
      "id": 6539,
      "name": "Procédés Thomson-Houston 6%, r. à 500 fr.",
      "share_type": {
        "id": 2,
        "name": "Bond (Obligation)"
      },
      "types": [
        {
          "start_date": "1916-09-14",
          "end_date": "3999-12-31",
          "id": 1001,
          "name": "Obligation ordinaire ou classique",
          "stock_group": "B"
        }
      ],
      "start_date": "1916-09-14",
      "end_date": "3999-12-31",
      "prices_from": "1916-09-21",
      "prices_to": "1935-12-16",
      "is_mainstock": 0,
      "prices_count": 475
    },
    "7083": {
      "id": 7083,
      "name": "Thomson-Houston (Cie Française des Procédés), act. 500 fr., t. p. (A TERME)",
      "share_type": {
        "id": 1,
        "name": "Stock (Action)"
      },
      "types": [
        {
          "start_date": "1920-01-02",
          "end_date": "3999-12-31",
          "id": 18,
          "name": "Action",
          "stock_group": "S"
        }
      ],
      "start_date": "1920-01-02",
      "end_date": "3999-12-31",
      "prices_from": "1920-01-15",
      "prices_to": "1925-04-30",
      "is_mainstock": 0,
      "prices_count": 725
    },
    "8468": {
      "id": 8468,
      "name": "Thomson-Houston (Procédés) 6% 1927, remb. à 500 fr.",
      "share_type": {
        "id": 2,
        "name": "Bond (Obligation)"
      },
      "types": [
        {
          "start_date": "1927-08-03",
          "end_date": "3999-12-31",
          "id": 1001,
          "name": "Obligation ordinaire ou classique",
          "stock_group": "B"
        }
      ],
      "start_date": "1927-08-03",
      "end_date": "3999-12-31",
      "prices_from": "1927-08-03",
      "prices_to": "1935-12-16",
      "is_mainstock": 0,
      "prices_count": 201
    },
    "8924": {
      "id": 8924,
      "name": "Thomson-Houston (Cie Française des Procédés), act. 500 fr., t.p. (droit et c. 40 att.)",
      "share_type": {
        "id": 1,
        "name": "Stock (Action)"
      },
      "types": [
        {
          "start_date": "1928-10-02",
          "end_date": "3999-12-31",
          "id": 11,
          "name": "Action ordinaire",
          "stock_group": "S"
        }
      ],
      "start_date": "1928-10-02",
      "end_date": "3999-12-31",
      "prices_from": "1928-10-02",
      "prices_to": "1928-10-02",
      "is_mainstock": 0,
      "prices_count": 7
    },
    "10541": {
      "id": 10541,
      "name": "Thomson-Houston (Cie Française des Procédés), Act. 500 fr., t. p. (nos 800001 à 880000). (au comptant seulement)",
      "share_type": {
        "id": 1,
        "name": "Stock (Action)"
      },
      "types": [
        {
          "start_date": "1935-10-24",
          "end_date": "3999-12-31",
          "id": 18,
          "name": "Action",
          "stock_group": "S"
        }
      ],
      "start_date": "1935-10-24",
      "end_date": "3999-12-31",
      "prices_from": "1935-10-31",
      "prices_to": "1940-06-10",
      "is_mainstock": 0,
      "prices_count": 276
    },
    "10749": {
      "id": 10749,
      "name": "Thomson-Houston (Cie Française des Procédés), act. 250 fr., tp",
      "share_type": {
        "id": 1,
        "name": "Stock (Action)"
      },
      "types": [
        {
          "start_date": "1896-05-07",
          "end_date": "3999-12-31",
          "id": 18,
          "name": "Action",
          "stock_group": "S"
        }
      ],
      "start_date": "1896-05-07",
      "end_date": "3999-12-31",
      "prices_from": "1896-05-07",
      "prices_to": "1951-06-15",
      "is_mainstock": 1,
      "prices_count": 9557
    },
    "11900": {
      "id": 11900,
      "name": "Thomson-Houston 4% 1942 (Tirage 17/1/66) 1943-72",
      "share_type": {
        "id": 2,
        "name": "Bond (Obligation)"
      },
      "types": [
        {
          "start_date": "1943-01-08",
          "end_date": "3999-12-31",
          "id": 1001,
          "name": "Obligation ordinaire ou classique",
          "stock_group": "B"
        }
      ],
      "start_date": "1943-01-08",
      "end_date": "3999-12-31",
      "prices_from": "1943-01-08",
      "prices_to": "1972-02-29",
      "is_mainstock": 0,
      "prices_count": 702
    },
    "12201": {
      "id": 12201,
      "name": "Thomson-Houston 3,75% 1945 (R. Ou T.) 1946-75",
      "share_type": {
        "id": 2,
        "name": "Bond (Obligation)"
      },
      "types": [
        {
          "start_date": "1945-07-16",
          "end_date": "3999-12-31",
          "id": 1001,
          "name": "Obligation ordinaire ou classique",
          "stock_group": "B"
        }
      ],
      "start_date": "1945-07-16",
      "end_date": "3999-12-31",
      "prices_from": "1945-07-16",
      "prices_to": "1973-08-31",
      "is_mainstock": 0,
      "prices_count": 688
    },
    "12217": {
      "id": 12217,
      "name": "Thomson-Houston 3,75% sept. 1945 (Rach. Ou Tir.) 1946-75",
      "share_type": {
        "id": 2,
        "name": "Bond (Obligation)"
      },
      "types": [
        {
          "start_date": "1946-05-16",
          "end_date": "3999-12-31",
          "id": 1001,
          "name": "Obligation ordinaire ou classique",
          "stock_group": "B"
        }
      ],
      "start_date": "1946-05-16",
      "end_date": "3999-12-31",
      "prices_from": "1946-05-16",
      "prices_to": "1973-08-31",
      "is_mainstock": 0,
      "prices_count": 668
    },
    "12422": {
      "id": 12422,
      "name": "Thomson-Houston (Cie Franç des Procédés), A. 250 f., t. p. (n°s 880001 à 1760000) (c. 52 att.)",
      "share_type": {
        "id": 1,
        "name": "Stock (Action)"
      },
      "types": [
        {
          "start_date": "1946-10-28",
          "end_date": "3999-12-31",
          "id": 18,
          "name": "Action",
          "stock_group": "S"
        }
      ],
      "start_date": "1946-10-28",
      "end_date": "3999-12-31",
      "prices_from": "1946-10-29",
      "prices_to": "1947-06-30",
      "is_mainstock": 0,
      "prices_count": 27
    },
    "12581": {
      "id": 12581,
      "name": "Thomson-Houston 4,25% 1946 (Tir. 1/10/65) 1947-76",
      "share_type": {
        "id": 2,
        "name": "Bond (Obligation)"
      },
      "types": [
        {
          "start_date": "1947-09-09",
          "end_date": "3999-12-31",
          "id": 1001,
          "name": "Obligation ordinaire ou classique",
          "stock_group": "B"
        }
      ],
      "start_date": "1947-09-09",
      "end_date": "3999-12-31",
      "prices_from": "1947-09-09",
      "prices_to": "1973-08-31",
      "is_mainstock": 0,
      "prices_count": 637
    },
    "12945": {
      "id": 12945,
      "name": "Thomson-Houston (Cie Française des Procédés), actions 250 fr., t.p. (n°s 1760001 à 3520000)",
      "share_type": {
        "id": 1,
        "name": "Stock (Action)"
      },
      "types": [
        {
          "start_date": "1948-08-17",
          "end_date": "3999-12-31",
          "id": 18,
          "name": "Action",
          "stock_group": "S"
        }
      ],
      "start_date": "1948-08-17",
      "end_date": "3999-12-31",
      "prices_from": "1948-08-17",
      "prices_to": "1949-06-30",
      "is_mainstock": 0,
      "prices_count": 27
    },
    "13437": {
      "id": 13437,
      "name": "Thomson-Houston 6,5% 1949 (Tir. 10/3/55) 1950-79",
      "share_type": {
        "id": 2,
        "name": "Bond (Obligation)"
      },
      "types": [
        {
          "start_date": "1949-10-28",
          "end_date": "3999-12-31",
          "id": 1001,
          "name": "Obligation ordinaire ou classique",
          "stock_group": "B"
        }
      ],
      "start_date": "1949-10-28",
      "end_date": "3999-12-31",
      "prices_from": "1949-10-28",
      "prices_to": "1965-02-15",
      "is_mainstock": 0,
      "prices_count": 385
    },
    "13592": {
      "id": 13592,
      "name": "Thomson-Houston (Cie Française), act. 3000 f., t. p.",
      "share_type": {
        "id": 1,
        "name": "Stock (Action)"
      },
      "types": [
        {
          "start_date": "1950-03-15",
          "end_date": "3999-12-31",
          "id": 18,
          "name": "Action",
          "stock_group": "S"
        }
      ],
      "start_date": "1950-03-15",
      "end_date": "3999-12-31",
      "prices_from": "1950-03-15",
      "prices_to": "1976-12-31",
      "is_mainstock": 0,
      "prices_count": 999
    },
    "13744": {
      "id": 13744,
      "name": "Thomson-Houston Bons 6,5% 1949 (Tir. 15/11/55) 1951-65",
      "share_type": {
        "id": 2,
        "name": "Bond (Obligation)"
      },
      "types": [
        {
          "start_date": "1950-07-21",
          "end_date": "3999-12-31",
          "id": 1001,
          "name": "Obligation ordinaire ou classique",
          "stock_group": "B"
        }
      ],
      "start_date": "1950-07-21",
      "end_date": "3999-12-31",
      "prices_from": "1950-07-21",
      "prices_to": "1964-12-31",
      "is_mainstock": 0,
      "prices_count": 363
    },
    "14844": {
      "id": 14844,
      "name": "Thomson-Houston Bons 6,5% 1953, remb. À 10500 fr. minim. (Tir. 30/9/55) 1954-65",
      "share_type": {
        "id": 2,
        "name": "Bond (Obligation)"
      },
      "types": [
        {
          "start_date": "1954-03-01",
          "end_date": "3999-12-31",
          "id": 1001,
          "name": "Obligation ordinaire ou classique",
          "stock_group": "B"
        }
      ],
      "start_date": "1954-03-01",
      "end_date": "3999-12-31",
      "prices_from": "1954-03-01",
      "prices_to": "1965-10-15",
      "is_mainstock": 0,
      "prices_count": 297
    },
    "14934": {
      "id": 14934,
      "name": "Thomson-Houston (Cie française), Actions 5000 fr., t. P. (n° 663361 à 995040) (c. 9 att.)",
      "share_type": {
        "id": 1,
        "name": "Stock (Action)"
      },
      "types": [
        {
          "start_date": "1955-03-16",
          "end_date": "3999-12-31",
          "id": 11,
          "name": "Action ordinaire",
          "stock_group": "S"
        }
      ],
      "start_date": "1955-03-16",
      "end_date": "3999-12-31",
      "prices_from": "1955-03-16",
      "prices_to": "1955-06-30",
      "is_mainstock": 0,
      "prices_count": 13
    },
    "15156": {
      "id": 15156,
      "name": "Thomson-Houston 6% 1955, rembours. à 105 F min. (Tir. 16/5/66) (Avis 32250) 1956-70",
      "share_type": {
        "id": 2,
        "name": "Bond (Obligation)"
      },
      "types": [
        {
          "start_date": "1955-12-19",
          "end_date": "3999-12-31",
          "id": 1001,
          "name": "Obligation ordinaire ou classique",
          "stock_group": "B"
        }
      ],
      "start_date": "1955-12-19",
      "end_date": "3999-12-31",
      "prices_from": "1955-12-19",
      "prices_to": "1970-07-15",
      "is_mainstock": 0,
      "prices_count": 368
    },
    "15484": {
      "id": 15484,
      "name": "Thomson-Houston (Cie Française), promesses (Jce 1/1/58)",
      "share_type": {
        "id": 1,
        "name": "Stock (Action)"
      },
      "types": [
        {
          "start_date": "1957-11-12",
          "end_date": "3999-12-31",
          "id": 27,
          "name": "Promesse d'action",
          "stock_group": "S"
        }
      ],
      "start_date": "1957-11-12",
      "end_date": "3999-12-31",
      "prices_from": "1957-11-12",
      "prices_to": "1958-07-15",
      "is_mainstock": 0,
      "prices_count": 22
    },
    "16078": {
      "id": 16078,
      "name": "Thomson-Houston 5,5% 1959, r. à 240 F (T. 16/5/66) 1960-77",
      "share_type": {
        "id": 2,
        "name": "Bond (Obligation)"
      },
      "types": [
        {
          "start_date": "1959-11-24",
          "end_date": "3999-12-31",
          "id": 1001,
          "name": "Obligation ordinaire ou classique",
          "stock_group": "B"
        }
      ],
      "start_date": "1959-11-24",
      "end_date": "3999-12-31",
      "prices_from": "1959-11-24",
      "prices_to": "1976-12-31",
      "is_mainstock": 0,
      "prices_count": 412
    },
    "16192": {
      "id": 16192,
      "name": "Thomson-Houston 5,5% 1960, r. à 110 F (T. 15/11/65) 1965-79",
      "share_type": {
        "id": 2,
        "name": "Bond (Obligation)"
      },
      "types": [
        {
          "start_date": "1960-05-24",
          "end_date": "3999-12-31",
          "id": 1001,
          "name": "Obligation ordinaire ou classique",
          "stock_group": "B"
        }
      ],
      "start_date": "1960-05-24",
      "end_date": "3999-12-31",
      "prices_from": "1960-05-24",
      "prices_to": "1973-08-31",
      "is_mainstock": 0,
      "prices_count": 334
    },
    "17201": {
      "id": 17201,
      "name": "Procédés Thomson-Houston (Cie française pour l'exploit. des), act nouv. Lib.et nom.(au compt seulement)",
      "share_type": {
        "id": 1,
        "name": "Stock (Action)"
      },
      "types": [
        {
          "start_date": "1899-01-23",
          "end_date": "3999-12-31",
          "id": 18,
          "name": "Action",
          "stock_group": "S"
        }
      ],
      "start_date": "1899-01-23",
      "end_date": "3999-12-31",
      "prices_from": "1899-01-31",
      "prices_to": "1899-06-15",
      "is_mainstock": 0,
      "prices_count": 21
    },
    "17202": {
      "id": 17202,
      "name": "Procédés Thomson-Houston (Cie française pour l'exploit. des), act nouv.125 fr.restant á verser",
      "share_type": {
        "id": 1,
        "name": "Stock (Action)"
      },
      "types": [
        {
          "start_date": "1899-01-23",
          "end_date": "3999-12-31",
          "id": 18,
          "name": "Action",
          "stock_group": "S"
        }
      ],
      "start_date": "1899-01-23",
      "end_date": "3999-12-31",
      "prices_from": "1899-01-31",
      "prices_to": "1899-03-31",
      "is_mainstock": 0,
      "prices_count": 12
    },
    "17981": {
      "id": 17981,
      "name": "Thomson-Houston (Cie Fse), act. nouv. (Jce 1/7/63)",
      "share_type": {
        "id": 1,
        "name": "Stock (Action)"
      },
      "types": [
        {
          "start_date": "1963-06-20",
          "end_date": "3999-12-31",
          "id": 18,
          "name": "Action",
          "stock_group": "S"
        }
      ],
      "start_date": "1963-06-20",
      "end_date": "3999-12-31",
      "prices_from": "1963-06-20",
      "prices_to": "1964-06-30",
      "is_mainstock": 0,
      "prices_count": 29
    },
    "18005": {
      "id": 18005,
      "name": "Thomson-Houston 5% 1962, remb. 215 à 240 F (Tir. 15/11/65) (Avis 37858) 1964-81",
      "share_type": {
        "id": 2,
        "name": "Bond (Obligation)"
      },
      "types": [
        {
          "start_date": "1963-04-30",
          "end_date": "3999-12-31",
          "id": 1001,
          "name": "Obligation ordinaire ou classique",
          "stock_group": "B"
        }
      ],
      "start_date": "1963-04-30",
      "end_date": "3999-12-31",
      "prices_from": "1963-04-30",
      "prices_to": "1976-12-31",
      "is_mainstock": 0,
      "prices_count": 330
    },
    "18211": {
      "id": 18211,
      "name": "Thomson-Houston, Promesses (Jce 1/7/64)",
      "share_type": {
        "id": 1,
        "name": "Stock (Action)"
      },
      "types": [
        {
          "start_date": "1964-05-08",
          "end_date": "3999-12-31",
          "id": 27,
          "name": "Promesse d'action",
          "stock_group": "S"
        }
      ],
      "start_date": "1964-05-08",
      "end_date": "3999-12-31",
      "prices_from": "1964-05-08",
      "prices_to": "1965-06-30",
      "is_mainstock": 0,
      "prices_count": 34
    },
    "18511": {
      "id": 18511,
      "name": "Thomson-Houston 6% 1966, remb. 408 à 448 F (c. 10/2/67 att.) (Avis 66-307) 1967-81",
      "share_type": {
        "id": 2,
        "name": "Bond (Obligation)"
      },
      "types": [
        {
          "start_date": "1966-06-08",
          "end_date": "3999-12-31",
          "id": 1001,
          "name": "Obligation ordinaire ou classique",
          "stock_group": "B"
        }
      ],
      "start_date": "1966-06-08",
      "end_date": "3999-12-31",
      "prices_from": "1966-06-09",
      "prices_to": "1976-12-31",
      "is_mainstock": 0,
      "prices_count": 256
    },
    "20296": {
      "id": 20296,
      "name": "Thomson-Houston (Cie Française), act. 3500 fr., t.p. (par 25 actions)",
      "share_type": {
        "id": 1,
        "name": "Stock (Action)"
      },
      "types": [
        {
          "start_date": "1951-11-02",
          "end_date": "3999-12-31",
          "id": 18,
          "name": "Action",
          "stock_group": "S"
        }
      ],
      "start_date": "1951-11-02",
      "end_date": "3999-12-31",
      "prices_from": "1951-11-15",
      "prices_to": "1952-01-02",
      "is_mainstock": 0,
      "prices_count": 3
    },
    "21811": {
      "id": 21811,
      "name": "Thomson-Brandt, act. Nouv. (Jce 1/1/76)",
      "share_type": {
        "id": 1,
        "name": "Stock (Action)"
      },
      "types": [
        {
          "start_date": "1976-02-25",
          "end_date": "3999-12-31",
          "id": 11,
          "name": "Action ordinaire",
          "stock_group": "S"
        }
      ],
      "start_date": "1976-02-25",
      "end_date": "3999-12-31",
      "prices_from": "1976-02-25",
      "prices_to": "1976-07-01",
      "is_mainstock": 0,
      "prices_count": 10
    },
    "21907": {
      "id": 21907,
      "name": "Thomson-Brandt 7,75% 1975 de 190 F, conv.en act.à tout moment à partir du 1/1/76 (1 act.pour 1 oblig.) (sér.A à I et K) (Avis 75-905) (par 25 obligations)",
      "share_type": {
        "id": 2,
        "name": "Bond (Obligation)"
      },
      "types": [
        {
          "start_date": "1975-11-24",
          "end_date": "3999-12-31",
          "id": 1001,
          "name": "Obligation ordinaire ou classique",
          "stock_group": "B"
        }
      ],
      "start_date": "1975-11-24",
      "end_date": "3999-12-31",
      "prices_from": null,
      "prices_to": null,
      "is_mainstock": 0,
      "prices_count": 0
    },
    "21952": {
      "id": 21952,
      "name": "Thomson-Brandt",
      "share_type": {
        "id": 3,
        "name": "OPTIONS"
      },
      "types": [
        {
          "start_date": "1976-01-30",
          "end_date": "3999-12-31",
          "id": 2,
          "name": "Option",
          "stock_group": "M"
        }
      ],
      "start_date": "1976-01-30",
      "end_date": "3999-12-31",
      "prices_from": null,
      "prices_to": null,
      "is_mainstock": 0,
      "prices_count": 0
    },
    "22187": {
      "id": 22187,
      "name": "Thomson-Brandt",
      "share_type": {
        "id": 3,
        "name": "OPTIONS"
      },
      "types": [
        {
          "start_date": "1966-03-24",
          "end_date": "3999-12-31",
          "id": 2,
          "name": "Option",
          "stock_group": "M"
        }
      ],
      "start_date": "1966-03-24",
      "end_date": "3999-12-31",
      "prices_from": null,
      "prices_to": null,
      "is_mainstock": 0,
      "prices_count": 0
    },
    "25273": {
      "id": 25273,
      "name": "Procédés Thomson-Houston (Cie française pour l'exploit. des), act 500 tout paye estampillées",
      "share_type": {
        "id": 1,
        "name": "Stock (Action)"
      },
      "types": [
        {
          "start_date": "1000-01-01",
          "end_date": "3999-12-31",
          "id": 18,
          "name": "Action",
          "stock_group": "S"
        }
      ],
      "start_date": "1909-05-25",
      "end_date": "3999-12-31",
      "prices_from": "1909-06-01",
      "prices_to": "1909-06-01",
      "is_mainstock": 0,
      "prices_count": 1
    },
    "35430": {
      "id": 35430,
      "name": "Thomson-Brandt 7,75% 1975 de 190 F, conv.en act.à tout moment à partir du 1/1/76 sér.A à I et K(1 act. pour 1 obl.) remb. F 227,5 à 335,40 (c.1/1/76 att.)(Avis 75-905)",
      "share_type": {
        "id": 2,
        "name": "Bond (Obligation)"
      },
      "types": [
        {
          "start_date": "1975-11-21",
          "end_date": "3999-12-31",
          "id": 1001,
          "name": "Obligation ordinaire ou classique",
          "stock_group": "B"
        }
      ],
      "start_date": "1975-11-21",
      "end_date": "3999-12-31",
      "prices_from": "1975-11-21",
      "prices_to": "1976-12-31",
      "is_mainstock": 0,
      "prices_count": 38
    },
    "100525": {
      "id": 100525,
      "name": "Act. Thomson-Houston (Cie Française des Procédés) (dr. et c. 50 ou bon de droit)",
      "share_type": {
        "id": 4,
        "name": "Rights (Droits)"
      },
      "types": [
        {
          "start_date": "1946-03-04",
          "end_date": "1946-04-01",
          "id": 501,
          "name": "Droit de souscription",
          "stock_group": "R"
        }
      ],
      "start_date": "1946-03-04",
      "end_date": "1946-04-01",
      "prices_from": "1946-03-04",
      "prices_to": "1946-04-01",
      "is_mainstock": 0,
      "prices_count": 6
    },
    "100862": {
      "id": 100862,
      "name": "Thomson-Houston (Cie Franç.) (dr. et coup. 53). 1 act. nouv. émise à 300 fr. pour 1 act. Anc.",
      "share_type": {
        "id": 4,
        "name": "Rights (Droits)"
      },
      "types": [
        {
          "start_date": "1948-01-20",
          "end_date": "3999-12-31",
          "id": 501,
          "name": "Droit de souscription",
          "stock_group": "R"
        }
      ],
      "start_date": "1948-01-20",
      "end_date": "3999-12-31",
      "prices_from": "1948-01-20",
      "prices_to": "1948-01-20",
      "is_mainstock": 0,
      "prices_count": 2
    },
    "102129": {
      "id": 102129,
      "name": "Act. Cie Française pour l'Exploitation des Procédés Thomson-Houston (droit et c. 37)",
      "share_type": {
        "id": 4,
        "name": "Rights (Droits)"
      },
      "types": [
        {
          "start_date": "1924-07-16",
          "end_date": "1924-08-06",
          "id": 501,
          "name": "Droit de souscription",
          "stock_group": "R"
        }
      ],
      "start_date": "1924-07-16",
      "end_date": "1924-08-06",
      "prices_from": "1924-07-16",
      "prices_to": "1924-07-31",
      "is_mainstock": 0,
      "prices_count": 0
    },
    "102131": {
      "id": 102131,
      "name": "Act. Cie Frse pr l'Exploitation des Procédés Thomson-Houston (droit et coupon 42). Pour 3 actions anc., 1 action A nouvelle émise à 650 francs",
      "share_type": {
        "id": 4,
        "name": "Rights (Droits)"
      },
      "types": [
        {
          "start_date": "1930-05-21",
          "end_date": "1930-06-05",
          "id": 501,
          "name": "Droit de souscription",
          "stock_group": "R"
        }
      ],
      "start_date": "1930-05-21",
      "end_date": "1930-06-05",
      "prices_from": "1930-05-21",
      "prices_to": "1930-06-02",
      "is_mainstock": 0,
      "prices_count": 13
    },
    "103145": {
      "id": 103145,
      "name": "Act. Thomson-Houston (droit et coupon 40). Pour 8 actions, 1 actions O Sté Générale de Constructions Electriques et Mécaniques émise à 1095 francs.",
      "share_type": {
        "id": 4,
        "name": "Rights (Droits)"
      },
      "types": [
        {
          "start_date": "1000-01-01",
          "end_date": "1928-10-25",
          "id": 501,
          "name": "Droit de souscription",
          "stock_group": "R"
        }
      ],
      "start_date": "1000-01-01",
      "end_date": "1928-10-25",
      "prices_from": "1928-10-10",
      "prices_to": "1928-10-10",
      "is_mainstock": 0,
      "prices_count": 0
    },
    "103360": {
      "id": 103360,
      "name": "Actions Cie Française des Procédés Thomson-Houston (droit et coupon n° 34)",
      "share_type": {
        "id": 4,
        "name": "Rights (Droits)"
      },
      "types": [
        {
          "start_date": "1923-03-07",
          "end_date": "1923-03-26",
          "id": 501,
          "name": "Droit de souscription",
          "stock_group": "R"
        }
      ],
      "start_date": "1923-03-07",
      "end_date": "1923-03-26",
      "prices_from": "1923-03-07",
      "prices_to": "1923-03-15",
      "is_mainstock": 0,
      "prices_count": 0
    },
    "105737": {
      "id": 105737,
      "name": "Thomson-Houston (Cie Française) (dr. et coup. 3) (1 action nouvelle émise à 3500 fr., jce 1/1/51, pour 2 actions anciennes)",
      "share_type": {
        "id": 5,
        "name": "Droits de souscription"
      },
      "types": [
        {
          "start_date": "1951-10-11",
          "end_date": "1952-02-15",
          "id": 501,
          "name": "Droit de souscription",
          "stock_group": "R"
        }
      ],
      "start_date": "1951-10-11",
      "end_date": "1952-02-15",
      "prices_from": null,
      "prices_to": null,
      "is_mainstock": 0,
      "prices_count": 0
    }
  }
}