{
  "id": 2993,
  "names": [
    "SOCIETE DES CIMENTS PORTLAND ARTIFICIELS DE L'INDOCHINE",
    "SOCIÉTÉ DES CIMENTS PORTLAND ARTIFICIELS DE L'INDO-CHINE",
    "STE DES CIMENTS PORTLAND ARTIFICIELS DE L'INDO CHINE",
    "STE DES CIMENTS PORTLAND ARTIFICIELS DE L'INDO-CHINE",
    "STE DES CIMENTS PORTLAND ARTIFICIELS DE L'INDOCHINE",
    "STÉ DES CIMENTS PORTLAND ARTIFICIELS DE L'INDO-CHINE",
    "STÉ DES CIMENTS PORTLAND ARTIFICIELS DE L'INDOCHINE",
    "Société des Ciments Portland artificiels de l'Indo-Chine",
    "Société des Ciments Portland artificiels de l'Indochine",
    "Société des Ciments Portland artificiels de l’Indo-Chine",
    "Sté DES CIMENTS PORTLAND ARTIFICIELS DE L'INDOCHINE"
  ],
  "name": "STE DES CIMENTS PORTLAND ARTIFICIELS DE L'INDOCHINE",
  "balance_sheets": [
    {
      "start_date": "1910-12-31",
      "source": "Annuaire Desfossés 1912",
      "page": "1014"
    },
    {
      "start_date": "1912-12-31",
      "source": "Annuaire Desfossés 1914",
      "page": "1065"
    },
    {
      "start_date": "1915-12-31",
      "source": "Annuaire Desfossés 1917",
      "page": "1008"
    },
    {
      "start_date": "1919-12-31",
      "source": "Annuaire Desfossés 1920",
      "page": "1091"
    },
    {
      "start_date": "1921-12-31",
      "source": "Annuaire Desfossés 1923",
      "page": "1239"
    },
    {
      "start_date": "1923-12-31",
      "source": "Annuaire Desfossés 1925",
      "page": "1176"
    },
    {
      "start_date": "1925-12-31",
      "source": "Annuaire Desfossés 1927",
      "page": "948"
    },
    {
      "start_date": "1926-12-31",
      "source": "Annuaire Desfossés 1929",
      "page": "998"
    },
    {
      "start_date": "1929-12-31",
      "source": "Annuaire Desfossés 1931",
      "page": "1018"
    },
    {
      "start_date": "1931-12-31",
      "source": "Annuaire Desfossés 1933",
      "page": "1075"
    },
    {
      "start_date": "1932-12-31",
      "source": "Annuaire Desfossés 1936",
      "page": null
    },
    {
      "start_date": "1933-12-31",
      "source": "Annuaire Desfossés 1937",
      "page": "1206"
    },
    {
      "start_date": "1934-12-31",
      "source": "Annuaire Desfossés 1937",
      "page": "1206"
    },
    {
      "start_date": "1935-12-31",
      "source": "Annuaire Desfossés 1940",
      "page": null
    },
    {
      "start_date": "1936-12-31",
      "source": "Annuaire Desfossés 1940",
      "page": null
    },
    {
      "start_date": "1937-12-31",
      "source": "Annuaire Desfossés 1940",
      "page": null
    },
    {
      "start_date": "1938-12-31",
      "source": "Annuaire Desfossés 1945",
      "page": "1702"
    },
    {
      "start_date": "1941-12-31",
      "source": "Annuaire Desfossés 1945",
      "page": "1702"
    },
    {
      "start_date": "1942-12-31",
      "source": "Annuaire Desfossés 1945",
      "page": "1702"
    },
    {
      "start_date": "1943-12-31",
      "source": "Annuaire Desfossés 1945",
      "page": "1702"
    },
    {
      "start_date": "1944-12-31",
      "source": "Annuaire Desfossés 1948",
      "page": "1986"
    },
    {
      "start_date": "1945-12-31",
      "source": "Annuaire Desfossés 1948",
      "page": "1986"
    },
    {
      "start_date": "1946-12-31",
      "source": "Annuaire Desfossés 1948",
      "page": "1986"
    },
    {
      "start_date": "1947-12-31",
      "source": "Annuaire Desfossés 1948",
      "page": "1986"
    },
    {
      "start_date": "1948-12-31",
      "source": "Annuaire Desfossés 1953",
      "page": "1587"
    },
    {
      "start_date": "1949-12-31",
      "source": "Annuaire Desfossés 1953",
      "page": "1587"
    },
    {
      "start_date": "1950-12-31",
      "source": "Annuaire Desfossés 1953",
      "page": "1587"
    },
    {
      "start_date": "1951-12-31",
      "source": "Annuaire Desfossés 1953",
      "page": "1587"
    }
  ],
  "balance_sheets_stats": {
    "start_date": "1910-12-31",
    "end_date": "1951-12-31"
  },
  "locations_stats": {
    "start_date": "1908-01-01",
    "end_date": "1953-12-31"
  },
  "locations": {
    "Siège social": [
      {
        "location_types_id": 1,
        "location_type": "Siège social",
        "address": "Rue de stockholm, 1",
        "city": "Paris",
        "district": "Paris",
        "country": "France",
        "in_yearbook_from": 1908,
        "in_yearbook_to": 1953
      }
    ],
    "Usines": [
      {
        "location_types_id": 3,
        "location_type": "Usines",
        "address": null,
        "city": "Haïphong",
        "district": null,
        "country": "Indochine",
        "in_yearbook_from": 1908,
        "in_yearbook_to": 1908
      },
      {
        "location_types_id": 3,
        "location_type": "Usines",
        "address": null,
        "city": "Haïphong",
        "district": null,
        "country": "Indochine",
        "in_yearbook_from": 1940,
        "in_yearbook_to": 1940
      }
    ],
    "Siège d'exploitation": [
      {
        "location_types_id": 15,
        "location_type": "Siège d'exploitation",
        "address": null,
        "city": "Haïphong",
        "district": null,
        "country": "Indochine",
        "in_yearbook_from": 1908,
        "in_yearbook_to": 1912
      },
      {
        "location_types_id": 15,
        "location_type": "Siège d'exploitation",
        "address": null,
        "city": "Haïphong",
        "district": null,
        "country": "Viet Nam",
        "in_yearbook_from": 1953,
        "in_yearbook_to": 1953
      }
    ]
  },
  "persons": [
    {
      "persons_count": 8,
      "yearbook": "Annuaire de la Compagnie des Agents de Change 1908",
      "source": "annuaire_cac_1908",
      "page": "1861"
    },
    {
      "persons_count": 3,
      "yearbook": "Annuaire Desfossés 1912",
      "source": "annuaire_df_1912",
      "page": "1014"
    },
    {
      "persons_count": 5,
      "yearbook": "Annuaire Desfossés 1917",
      "source": "annuaire_df_1917",
      "page": "1008"
    },
    {
      "persons_count": 1,
      "yearbook": "Annuaire Desfossés 1923",
      "source": "annuaire_df_1923",
      "page": "1239"
    },
    {
      "persons_count": 2,
      "yearbook": "Annuaire Desfossés 1927",
      "source": "annuaire_df_1927",
      "page": "948"
    },
    {
      "persons_count": 8,
      "yearbook": "Annuaire Desfossés 1933",
      "source": "annuaire_df_1933",
      "page": "1075"
    },
    {
      "persons_count": 7,
      "yearbook": "Annuaire Desfossés 1940",
      "source": "annuaire_df_1940",
      "page": null
    },
    {
      "persons_count": 4,
      "yearbook": "Annuaire Desfossés 1945",
      "source": "annuaire_df_1945",
      "page": "1702"
    },
    {
      "persons_count": 5,
      "yearbook": "Annuaire Desfossés 1948",
      "source": "annuaire_df_1948",
      "page": "1986"
    },
    {
      "persons_count": 9,
      "yearbook": "Annuaire Desfossés 1953",
      "source": "annuaire_df_1953",
      "page": "1587"
    }
  ],
  "persons_stats": {
    "persons_count": 31,
    "start_date": "1908-01-01",
    "end_date": "1953-12-31"
  },
  "yearbooks_ocrs": [
    {
      "source": "annuaire_cac_1908",
      "yearbook": "Annuaire de la Compagnie des Agents de Change 1908",
      "page": "1861"
    },
    {
      "source": "annuaire_df_1912",
      "yearbook": "Annuaire Desfossés 1912",
      "page": "1014"
    },
    {
      "source": "annuaire_df_1914",
      "yearbook": "Annuaire Desfossés 1914",
      "page": "1065"
    },
    {
      "source": "annuaire_df_1917",
      "yearbook": "Annuaire Desfossés 1917",
      "page": "1008"
    },
    {
      "source": "annuaire_df_1920",
      "yearbook": "Annuaire Desfossés 1920",
      "page": "1091"
    },
    {
      "source": "annuaire_df_1923",
      "yearbook": "Annuaire Desfossés 1923",
      "page": "1239"
    },
    {
      "source": "annuaire_df_1925",
      "yearbook": "Annuaire Desfossés 1925",
      "page": "1176"
    },
    {
      "source": "annuaire_df_1927",
      "yearbook": "Annuaire Desfossés 1927",
      "page": "948"
    },
    {
      "source": "annuaire_df_1929",
      "yearbook": "Annuaire Desfossés 1929",
      "page": "998"
    },
    {
      "source": "annuaire_df_1931",
      "yearbook": "Annuaire Desfossés 1931",
      "page": "1018"
    },
    {
      "source": "annuaire_df_1933",
      "yearbook": "Annuaire Desfossés 1933",
      "page": "1075"
    },
    {
      "source": "annuaire_df_1937",
      "yearbook": "Annuaire Desfossés 1937",
      "page": "1206"
    },
    {
      "source": "annuaire_df_1940",
      "yearbook": "Annuaire Desfossés 1940",
      "page": null
    },
    {
      "source": "annuaire_df_1945",
      "yearbook": "Annuaire Desfossés 1945",
      "page": "1702"
    },
    {
      "source": "annuaire_df_1948",
      "yearbook": "Annuaire Desfossés 1948",
      "page": "1986"
    },
    {
      "source": "annuaire_df_1953",
      "yearbook": "Annuaire Desfossés 1953",
      "page": "1587"
    }
  ],
  "juridical_status": [
    {
      "juridical_status": "Société Anonyme (Libre)",
      "start_date": "1899-07-10",
      "end_date": "1949-07-10",
      "comments": "Société anonyme formée suivant acte passé devant M6 Civier, notaire à Condrieu (Rhône), le 19 juin 1899, et définitivement constituée le 10 juillet suivant Statuts modifiés par décisions des Assemblées générales des 5 mars 1902 et",
      "source": "annuaire_cac_1908"
    }
  ],
  "equity_capital": [
    {
      "amount": "1.500.000",
      "currency": "Franc",
      "infodate": "1899-07-10",
      "source": "annuaire_cac_1908",
      "comments": "Fixé à l’origine à 1.500.000 francs et divisé en 3,000 actions de 500 francs souscrites en numéraire, "
    },
    {
      "amount": "2.000.000",
      "currency": "Franc",
      "infodate": "1902-03-05",
      "source": "annuaire_cac_1908",
      "comments": "le capital a été porté à 2 millions, au moyen le l’émission de 1,000 actions nouvelles de 500 francs autorisée et approuvée par des Assemblées générales des 28 mai 1901 et 5 mars 1902.\n"
    },
    {
      "amount": "2.000.000",
      "currency": "Franc",
      "infodate": "1919-11-01",
      "source": "annuaire_df_1923",
      "comments": "2 millions de francs, divisé en 20.000 actions de 100 francs. A l’origine, 1.500.000 francs en actions de 500 francs, porté en 1902 au chiffre actuel. Les actions ont été divisées en cinquièmes en novembre 1919."
    },
    {
      "amount": "8.000.000",
      "currency": "Franc",
      "infodate": "1925-03-01",
      "source": "annuaire_df_1927",
      "comments": "12 millions de francs, divisé en 120.000 actions de 100 fr. A l’origine, 1.500.000 francs en actions de 500 francs ; porté en 1902 à 2 millions, en mars 1925 à 8 millions parla création de 60.000 actions nouvelles (3 pour 1 ancienne; et en juin 1926 à 12 millions par la création de 40.000 actions.nouvelles (1 nouvelle pour 2 anciennes). Les actions ont été divisées en cinquièmes en novembre 1919."
    },
    {
      "amount": "12.000.000",
      "currency": "Franc",
      "infodate": "1926-06-01",
      "source": "annuaire_df_1927",
      "comments": "12 millions de francs, divisé en 120.000 actions de 100 fr. A l’origine, 1.500.000 francs en actions de 500 francs ; porté en 1902 à 2 millions, en mars 1925 à 8 millions parla création de 60.000 actions nouvelles (3 pour 1 ancienne; et en juin 1926 à 12 millions par la création de 40.000 actions.nouvelles (1 nouvelle pour 2 anciennes). Les actions ont été divisées en cinquièmes en novembre 1919."
    },
    {
      "amount": "24.000.000",
      "currency": "Franc",
      "infodate": "1930-05-01",
      "source": "annuaire_df_1933",
      "comments": "gin» < a social : 24 millions de francs, divisé en 240.000 actions de 100 fr. A 1 ori-‘-500.000 francs ; porté en 1902 à 2 millions en mars 1925 à 8 millions par la tnnnn® !'e 60.000 actions nouvelles, en juin 1926 à 12 millions parla création de arfiA aeti°ns nouvelles et à 24 millions en mai 1930 par création de 120.000 ™ns nouvelles ce 100 francs."
    },
    {
      "amount": "34.200.000",
      "currency": "Franc",
      "infodate": "1938-01-01",
      "source": "annuaire_df_1940",
      "comments": "42.750.000 francs, divisé en 427.500 actions de 100 francs. A l’orijri 1.500.000 fr. élevé progressivement jusqu’à 24 millions en 1930. En 1938, porté'’ 34.200.000 fr. par incorporation de réserves et création de 102.000 actions dont 48 0fift ont été réparties aux actionnaires (une nouvelle pour cinq anciennes) et 54,000 écha ° gées contre les anciennes parts, qui se sont ainsi trouvées annulées (3 actions nouvelle pour 2 dixièmes de parts). En 1939, porté à 42.750.000 fr. par une nouvelle incorpora tion de réserves (une action gratuite pour quatre anciennes)."
    },
    {
      "amount": "42.750.000",
      "currency": "Franc",
      "infodate": "1939-01-01",
      "source": "annuaire_df_1940",
      "comments": "42.750.000 francs, divisé en 427.500 actions de 100 francs. A l’orijri 1.500.000 fr. élevé progressivement jusqu’à 24 millions en 1930. En 1938, porté'’ 34.200.000 fr. par incorporation de réserves et création de 102.000 actions dont 48 0fift ont été réparties aux actionnaires (une nouvelle pour cinq anciennes) et 54,000 écha ° gées contre les anciennes parts, qui se sont ainsi trouvées annulées (3 actions nouvelle pour 2 dixièmes de parts). En 1939, porté à 42.750.000 fr. par une nouvelle incorpora tion de réserves (une action gratuite pour quatre anciennes)."
    },
    {
      "amount": "114.000.000",
      "currency": "Franc",
      "infodate": "1946-01-01",
      "source": "annuaire_df_1948",
      "comments": "114 millions de francs. A l'origine, 1.500.000 fr. élevé progressivement jusqu'à 24 millions en 1930. En 1938, porté à 34.200.000 fr. par incorporation de réserves et création de 102.000 actions dont 48.000 ont été réparties aux actionnaires (une nouvelle pour cinq anciennes) et 54.000 échangées contre les anciennes parts, qui se sont ainsi trouvées annulées (3 actions nouvelles pour 2 dixièmes de parts). En 1939, porté à 42.750.000 fr. par une nouvelle incorporation de réserves (une action gratuite pour quatre anciennes). Porté en 1946au chiffre actuel par l'émission à 185 fr. de 712.500 actions nouvelles de 100 fr. (5 nouvelles pour 3 anciennes)."
    },
    {
      "amount": "342.000.000",
      "currency": "Franc",
      "infodate": "1948-01-01",
      "source": "annuaire_df_1948",
      "comments": "342 millions de francs, divisé en 342.000 act. de 1.000 fr. A l'origine, 1.500.000 fr. élevé progressivement jusqu'à 24 millions en 1930. En 1938, porté à 34.200.000 fr. par incorporation de réserves et création de 102.000 actions dont 48.000 ont été réparties aux actionnaires (une nouvelle pour cinq anciennes) et 54.000 échangées contre les anciennes parts, qui se sont ainsi trouvées annulées (3 actions nouvelles pour 2 dixièmes de parts). En 1939, porté à 42.750.000 fr. par une nouvelle incorporation de réserves (une action gratuite pour quatre anciennes). Porté en 1946 à 114 millions par l'émission à 185 fr. de 712.500 actions nouvelles de 100 fr. (5 nouvelles pour 3 anciennes). Porté en 1948 au chiffre actuel par l'émission à 1.100 francs de 228.000 actions de 1.000 fr. (1 nouvelle de 1.000 fr. pour .5 anciennes de 100 fr.) les actions anciennes ont été groupées en titres de 1.000 fr."
    },
    {
      "amount": "427.500.000",
      "currency": "Franc",
      "infodate": "1950-01-01",
      "source": "annuaire_df_1953",
      "comments": "427.500.000 fr., divisé en 171.000 act. de 2.500 fr. A l'origine, 1.500.000 fr. élevé progressivement jusqU'â 24 millions en 1930. En 1938, porté à 34.200.000 fr. par incorporation de .réserves et création de 102.000 actions dont 48.000 ont été réparties aux actionnaires (une-nouvelle pour cinq anciennes) et 54.000 échangées contre les anciennes parts, qui se sont ainsi trouvées annulées (3 actions nouvelles pour 2 dixièmes de parts). En 1939, porté à 42.750.000 fr. par une nouvelle incorporation de réserves (une action gratuite pour quatre anciennes). Porté en 1946 à 114 millions par l'émission à 185 fr. de 712.500 actions nouvelles de 100 fr. (5 nouvelles pour . ■ \" 3 âricienriës). Porté en 1948 à 342 millions par l'émission à 1.100 fr. de 228.000 actions de 1.000 fr. (1 nouvelle de 1.000 fr. pour 5 anciennes de 100 fr.) les actions anciennes ont été groupées en titres de 1.000 fr. Porté' en 1950 à 427.500.000 fr. par élévation du nominal de 1.000 à 1.250 fr. Regroupement en actions de 2.500 fr. depuis le 2 janvier 1951."
    },
    {
      "amount": "427.500.000",
      "currency": "Franc",
      "infodate": "1951-01-02",
      "source": "annuaire_df_1953",
      "comments": "Split : 427.500.000 fr., divisé en 171.000 act. de 2.500 fr. A l'origine, 1.500.000 fr. élevé progressivement jusqU'â 24 millions en 1930. En 1938, porté à 34.200.000 fr. par incorporation de .réserves et création de 102.000 actions dont 48.000 ont été réparties aux actionnaires (une-nouvelle pour cinq anciennes) et 54.000 échangées contre les anciennes parts, qui se sont ainsi trouvées annulées (3 actions nouvelles pour 2 dixièmes de parts). En 1939, porté à 42.750.000 fr. par une nouvelle incorporation de réserves (une action gratuite pour quatre anciennes). Porté en 1946 à 114 millions par l'émission à 185 fr. de 712.500 actions nouvelles de 100 fr. (5 nouvelles pour . ■ \" 3 âricienriës). Porté en 1948 à 342 millions par l'émission à 1.100 fr. de 228.000 actions de 1.000 fr. (1 nouvelle de 1.000 fr. pour 5 anciennes de 100 fr.) les actions anciennes ont été groupées en titres de 1.000 fr. Porté' en 1950 à 427.500.000 fr. par élévation du nominal de 1.000 à 1.250 fr. Regroupement en actions de 2.500 fr. depuis le 2 janvier 1951."
    }
  ],
  "profit_dividends": [
    {
      "first_date": "1900-12-31",
      "last_date": "1951-12-31",
      "obs_count": 411
    }
  ],
  "public_status": false,
  "stock_exchanges": {
    "1": {
      "id": 1,
      "name": "Paris (Official List)",
      "listings_stats": {
        "start_date": "1905-04-17"
      },
      "spot_prices_stats": {
        "start_date": "1905-05-31",
        "end_date": "1957-01-31"
      }
    }
  },
  "securities": {
    "7038": {
      "id": 7038,
      "name": "Ciments Portland artificiels de L'Indo-Chine, Parts de fondateur",
      "share_type": {
        "id": 1,
        "name": "Stock (Action)"
      },
      "types": [
        {
          "start_date": "1910-06-30",
          "end_date": "3999-12-31",
          "id": 21,
          "name": "Part de fondateur",
          "stock_group": "S"
        }
      ],
      "start_date": "1905-04-17",
      "end_date": "3999-12-31",
      "prices_from": "1910-06-30",
      "prices_to": "1939-01-31",
      "is_mainstock": 1,
      "prices_count": 880
    },
    "7143": {
      "id": 7143,
      "name": "Ciments Portland Artificiels de l'Indo-Chine, a. 100 f., t.p. (ex-dr., )",
      "share_type": {
        "id": 1,
        "name": "Stock (Action)"
      },
      "types": [
        {
          "start_date": "1920-07-01",
          "end_date": "1950-12-15",
          "id": 18,
          "name": "Action",
          "stock_group": "S"
        }
      ],
      "start_date": "1600-01-01",
      "end_date": "3999-12-31",
      "prices_from": "1920-07-01",
      "prices_to": "1950-12-15",
      "is_mainstock": 1,
      "prices_count": 1358
    },
    "10156": {
      "id": 10156,
      "name": "Ciments Portland Artificiel de l'Indochine 4,5% 1931, remb. À 1000 fr. 1932-61",
      "share_type": {
        "id": 2,
        "name": "Bond (Obligation)"
      },
      "types": [
        {
          "start_date": "1931-12-07",
          "end_date": "3999-12-31",
          "id": 1001,
          "name": "Obligation ordinaire ou classique",
          "stock_group": "B"
        }
      ],
      "start_date": "1931-12-07",
      "end_date": "3999-12-31",
      "prices_from": "1931-12-07",
      "prices_to": "1941-06-30",
      "is_mainstock": 0,
      "prices_count": 204
    },
    "12821": {
      "id": 12821,
      "name": "Ciments Portland Artificiels de l'Indo-Chine, a. 1250 f., t. p.",
      "share_type": {
        "id": 1,
        "name": "Stock (Action)"
      },
      "types": [
        {
          "start_date": "1948-06-16",
          "end_date": "3999-12-31",
          "id": 18,
          "name": "Action",
          "stock_group": "S"
        }
      ],
      "start_date": "1948-06-16",
      "end_date": "3999-12-31",
      "prices_from": "1948-06-16",
      "prices_to": "1951-10-01",
      "is_mainstock": 0,
      "prices_count": 86
    },
    "13849": {
      "id": 13849,
      "name": "Ciments Portland Artificiels de l'Indo-Chine, act.",
      "share_type": {
        "id": 1,
        "name": "Stock (Action)"
      },
      "types": [
        {
          "start_date": "1951-01-02",
          "end_date": "3999-12-31",
          "id": 11,
          "name": "Action ordinaire",
          "stock_group": "S"
        }
      ],
      "start_date": "1951-01-02",
      "end_date": "3999-12-31",
      "prices_from": "1951-01-10",
      "prices_to": "1957-01-31",
      "is_mainstock": 0,
      "prices_count": 210
    },
    "25224": {
      "id": 25224,
      "name": "Ciments Portland artificiels de l'Indo-Chine act 500 fr., .p.",
      "share_type": {
        "id": 1,
        "name": "Stock (Action)"
      },
      "types": [
        {
          "start_date": "1000-01-01",
          "end_date": "3999-12-31",
          "id": 18,
          "name": "Action",
          "stock_group": "S"
        }
      ],
      "start_date": "1920-01-02",
      "end_date": "3999-12-31",
      "prices_from": "1920-01-15",
      "prices_to": "1920-09-15",
      "is_mainstock": 0,
      "prices_count": 10
    },
    "40026": {
      "id": 40026,
      "name": "Ciments Portland Artificiels de l'Indo-Chine, act. 100 fr (n° 4275501 à 1140000)(c. 68)",
      "share_type": {
        "id": 1,
        "name": "Stock (Action)"
      },
      "types": [
        {
          "start_date": "1000-01-01",
          "end_date": "3999-12-31",
          "id": 18,
          "name": "Action",
          "stock_group": "S"
        }
      ],
      "start_date": "1947-02-17",
      "end_date": "1947-07-15",
      "prices_from": "1947-03-17",
      "prices_to": "1947-06-30",
      "is_mainstock": 0,
      "prices_count": 10
    },
    "40460": {
      "id": 40460,
      "name": "Ciments Portland artificiels de L'Indo-Chine",
      "share_type": {
        "id": 1,
        "name": "Stock (Action)"
      },
      "types": [
        {
          "start_date": "1000-01-01",
          "end_date": "3999-12-31",
          "id": 1,
          "name": "UNKNOWN",
          "stock_group": "U"
        }
      ],
      "start_date": "1000-01-01",
      "end_date": "3999-12-31",
      "prices_from": "1905-05-31",
      "prices_to": "1919-12-31",
      "is_mainstock": 0,
      "prices_count": 174
    },
    "100551": {
      "id": 100551,
      "name": "Act. Ciments Portland Artificiels de l'Indochine (dr. et coup. 67 ou bon de droit)",
      "share_type": {
        "id": 4,
        "name": "Rights (Droits)"
      },
      "types": [
        {
          "start_date": "1946-05-08",
          "end_date": "1947-06-11",
          "id": 501,
          "name": "Droit de souscription",
          "stock_group": "R"
        }
      ],
      "start_date": "1946-05-08",
      "end_date": "1947-06-11",
      "prices_from": "1946-05-08",
      "prices_to": "1946-05-31",
      "is_mainstock": 0,
      "prices_count": 5
    },
    "101348": {
      "id": 101348,
      "name": "Act. CIMENTS PORTLAND ARTIFICIELS DE L'INDOCHINE (droit à répart. Coup. 58 ou bon de droit). Pour 4 act. Anciennes, 1 action nouvelle attribuée gratuitement.",
      "share_type": {
        "id": 4,
        "name": "Rights (Droits)"
      },
      "types": [
        {
          "start_date": "1939-07-17",
          "end_date": "1939-12-29",
          "id": 502,
          "name": "Droit d'attribution",
          "stock_group": "R"
        }
      ],
      "start_date": "1939-07-17",
      "end_date": "1939-12-29",
      "prices_from": "1939-07-17",
      "prices_to": "1939-12-15",
      "is_mainstock": 0,
      "prices_count": 14
    },
    "101349": {
      "id": 101349,
      "name": "Act. CIMENTS PORTLAND ARTIFICIELS DE L'INDO-CHINE (droit et coupon 55 ou bon de droit). Pour 5 actions anc., 1 action nouv. Attribuée gratuitement.",
      "share_type": {
        "id": 4,
        "name": "Rights (Droits)"
      },
      "types": [
        {
          "start_date": "1938-06-15",
          "end_date": "1938-09-23",
          "id": 502,
          "name": "Droit d'attribution",
          "stock_group": "R"
        }
      ],
      "start_date": "1938-06-15",
      "end_date": "1938-09-23",
      "prices_from": "1938-06-15",
      "prices_to": "1938-09-15",
      "is_mainstock": 0,
      "prices_count": 9
    },
    "102186": {
      "id": 102186,
      "name": "Act. Ciments de Portland Artificiels de l'Indo-Chine (droit et coupon 40). Pour 1 act. ancienne, 1 action nouvelle émise à 250 francs",
      "share_type": {
        "id": 4,
        "name": "Rights (Droits)"
      },
      "types": [
        {
          "start_date": "1930-03-10",
          "end_date": "1930-04-05",
          "id": 501,
          "name": "Droit de souscription",
          "stock_group": "R"
        }
      ],
      "start_date": "1930-03-10",
      "end_date": "1930-04-05",
      "prices_from": "1930-03-10",
      "prices_to": "1930-03-31",
      "is_mainstock": 0,
      "prices_count": 27
    },
    "102189": {
      "id": 102189,
      "name": "Act. Ciments Portland Artificiels de l'Indo-chine (droit et coupon 28)",
      "share_type": {
        "id": 4,
        "name": "Rights (Droits)"
      },
      "types": [
        {
          "start_date": "1925-03-09",
          "end_date": "1925-03-31",
          "id": 501,
          "name": "Droit de souscription",
          "stock_group": "R"
        }
      ],
      "start_date": "1925-03-09",
      "end_date": "1925-03-31",
      "prices_from": "1925-03-10",
      "prices_to": "1925-03-10",
      "is_mainstock": 0,
      "prices_count": 0
    },
    "102190": {
      "id": 102190,
      "name": "Act. Ciments Portland Artificiels de l'Indo-Chine (droit et coupon 32).",
      "share_type": {
        "id": 4,
        "name": "Rights (Droits)"
      },
      "types": [
        {
          "start_date": "1926-07-05",
          "end_date": "1926-08-02",
          "id": 501,
          "name": "Droit de souscription",
          "stock_group": "R"
        }
      ],
      "start_date": "1926-07-05",
      "end_date": "1926-08-02",
      "prices_from": "1926-07-06",
      "prices_to": "1926-07-15",
      "is_mainstock": 0,
      "prices_count": 0
    },
    "102191": {
      "id": 102191,
      "name": "Act. Ciments Portland Artificiels de l'Indochine. 5 act. nouv. mai 1946 émises à 185 fr. pour 3 bons",
      "share_type": {
        "id": 4,
        "name": "Rights (Droits)"
      },
      "types": [
        {
          "start_date": "1947-03-28",
          "end_date": "3999-12-31",
          "id": 501,
          "name": "Droit de souscription",
          "stock_group": "R"
        }
      ],
      "start_date": "1947-03-28",
      "end_date": "3999-12-31",
      "prices_from": "1947-04-10",
      "prices_to": "1947-04-10",
      "is_mainstock": 0,
      "prices_count": 0
    },
    "103926": {
      "id": 103926,
      "name": "Ciments Portland Artificiels de l'Indo-Chine, act 100fr, t.p (dr. et c. 58 att.)",
      "share_type": {
        "id": 1,
        "name": "Stock (Action)"
      },
      "types": [
        {
          "start_date": "1939-07-17",
          "end_date": "1939-08-01",
          "id": 18,
          "name": "Action",
          "stock_group": "S"
        }
      ],
      "start_date": "1939-07-17",
      "end_date": "1939-08-01",
      "prices_from": "1939-07-17",
      "prices_to": "1939-07-31",
      "is_mainstock": 0,
      "prices_count": 6
    },
    "104632": {
      "id": 104632,
      "name": "Ciments Indochine, c. 67",
      "share_type": {
        "id": 5,
        "name": "Droits de souscription"
      },
      "types": [
        {
          "start_date": "1946-06-07",
          "end_date": "1946-07-11",
          "id": 501,
          "name": "Droit de souscription",
          "stock_group": "R"
        }
      ],
      "start_date": "1946-06-07",
      "end_date": "1946-07-11",
      "prices_from": "1946-06-17",
      "prices_to": "1946-07-01",
      "is_mainstock": 0,
      "prices_count": 3
    }
  }
}