{
  "id": 4267,
  "names": [
    "ARJOMARI"
  ],
  "name": "ARJOMARI",
  "balance_sheets": [],
  "balance_sheets_stats": {
    "start_date": null,
    "end_date": null
  },
  "locations_stats": {
    "start_date": null,
    "end_date": null
  },
  "locations": {},
  "persons": [],
  "persons_stats": {
    "persons_count": 0,
    "start_date": null,
    "end_date": null
  },
  "yearbooks_ocrs": [],
  "juridical_status": [],
  "equity_capital": [],
  "profit_dividends": [],
  "public_status": false,
  "stock_exchanges": {
    "1": {
      "id": 1,
      "name": "Paris (Official List)",
      "forward_prices_stats": {
        "start_date": "1968-12-02",
        "end_date": "1968-12-02"
      },
      "listings_stats": {
        "start_date": "1962-01-02"
      },
      "spot_prices_stats": {
        "start_date": "1962-01-02",
        "end_date": "1976-12-31"
      }
    }
  },
  "securities": {
    "16521": {
      "id": 16521,
      "name": "Arjomari, act. 50F (par 25 actions)",
      "share_type": {
        "id": 1,
        "name": "Stock (Action)"
      },
      "types": [
        {
          "start_date": "1962-01-02",
          "end_date": "3999-12-31",
          "id": 18,
          "name": "Action",
          "stock_group": "S"
        }
      ],
      "start_date": "1962-01-02",
      "end_date": "3999-12-31",
      "prices_from": "1968-12-02",
      "prices_to": "1968-12-02",
      "is_mainstock": 0,
      "prices_count": 1
    },
    "16717": {
      "id": 16717,
      "name": "Arjomari, act.",
      "share_type": {
        "id": 1,
        "name": "Stock (Action)"
      },
      "types": [
        {
          "start_date": "1962-01-02",
          "end_date": "3999-12-31",
          "id": 18,
          "name": "Action",
          "stock_group": "S"
        }
      ],
      "start_date": "1962-01-02",
      "end_date": "3999-12-31",
      "prices_from": "1962-01-02",
      "prices_to": "1976-12-31",
      "is_mainstock": 0,
      "prices_count": 391
    },
    "17105": {
      "id": 17105,
      "name": "Arjomari, 4,5 % 1942 1941-72",
      "share_type": {
        "id": 2,
        "name": "Bond (Obligation)"
      },
      "types": [
        {
          "start_date": "1962-01-02",
          "end_date": "3999-12-31",
          "id": 1001,
          "name": "Obligation ordinaire ou classique",
          "stock_group": "B"
        }
      ],
      "start_date": "1962-01-02",
      "end_date": "3999-12-31",
      "prices_from": "1962-01-02",
      "prices_to": "1962-12-17",
      "is_mainstock": 0,
      "prices_count": 24
    },
    "17106": {
      "id": 17106,
      "name": "Arjomari-Prioux 4,75% 1947 (Tir. 12/2/68) 1948-77",
      "share_type": {
        "id": 2,
        "name": "Bond (Obligation)"
      },
      "types": [
        {
          "start_date": "1962-01-02",
          "end_date": "3999-12-31",
          "id": 1001,
          "name": "Obligation ordinaire ou classique",
          "stock_group": "B"
        }
      ],
      "start_date": "1962-01-02",
      "end_date": "3999-12-31",
      "prices_from": "1962-01-02",
      "prices_to": "1969-03-17",
      "is_mainstock": 0,
      "prices_count": 175
    },
    "17107": {
      "id": 17107,
      "name": "Arjomari-Prioux 6,75% 1949 (Tir. 31/7/68) 1950-79",
      "share_type": {
        "id": 2,
        "name": "Bond (Obligation)"
      },
      "types": [
        {
          "start_date": "1962-01-02",
          "end_date": "3999-12-31",
          "id": 1001,
          "name": "Obligation ordinaire ou classique",
          "stock_group": "B"
        }
      ],
      "start_date": "1962-01-02",
      "end_date": "3999-12-31",
      "prices_from": "1962-01-02",
      "prices_to": "1973-08-31",
      "is_mainstock": 0,
      "prices_count": 283
    },
    "17108": {
      "id": 17108,
      "name": "Arjomari-Prioux 6% 1955, remb. à 105 F (Tir. 12/2/68) 1956-70",
      "share_type": {
        "id": 2,
        "name": "Bond (Obligation)"
      },
      "types": [
        {
          "start_date": "1962-01-02",
          "end_date": "3999-12-31",
          "id": 1001,
          "name": "Obligation ordinaire ou classique",
          "stock_group": "B"
        }
      ],
      "start_date": "1962-01-02",
      "end_date": "3999-12-31",
      "prices_from": "1962-01-02",
      "prices_to": "1970-03-31",
      "is_mainstock": 0,
      "prices_count": 200
    },
    "17109": {
      "id": 17109,
      "name": "Arjomari-Prioux 6,5% 1957, r. à 105 F min (T. 5/11/68) 1958-69",
      "share_type": {
        "id": 2,
        "name": "Bond (Obligation)"
      },
      "types": [
        {
          "start_date": "1962-01-02",
          "end_date": "3999-12-31",
          "id": 1001,
          "name": "Obligation ordinaire ou classique",
          "stock_group": "B"
        }
      ],
      "start_date": "1962-01-02",
      "end_date": "3999-12-31",
      "prices_from": "1962-01-02",
      "prices_to": "1969-12-01",
      "is_mainstock": 0,
      "prices_count": 192
    },
    "17110": {
      "id": 17110,
      "name": "Arjomari 5% r. à 215 F min (T. 11/10/67) 1961-78",
      "share_type": {
        "id": 2,
        "name": "Bond (Obligation)"
      },
      "types": [
        {
          "start_date": "1962-01-02",
          "end_date": "3999-12-31",
          "id": 1001,
          "name": "Obligation ordinaire ou classique",
          "stock_group": "B"
        }
      ],
      "start_date": "1962-01-02",
      "end_date": "3999-12-31",
      "prices_from": "1962-01-02",
      "prices_to": "1976-12-31",
      "is_mainstock": 0,
      "prices_count": 361
    },
    "17790": {
      "id": 17790,
      "name": "ARJOMARI, Promesses (Jce 1/1/62)",
      "share_type": {
        "id": 1,
        "name": "Stock (Action)"
      },
      "types": [
        {
          "start_date": "1962-07-09",
          "end_date": "3999-12-31",
          "id": 27,
          "name": "Promesse d'action",
          "stock_group": "S"
        }
      ],
      "start_date": "1962-07-09",
      "end_date": "3999-12-31",
      "prices_from": "1962-07-12",
      "prices_to": "1963-01-15",
      "is_mainstock": 0,
      "prices_count": 15
    },
    "19563": {
      "id": 19563,
      "name": "LYON_BOURSE Arjomari (ex-Papeteries V. Montgolfier) 6% 1948 1949-73",
      "share_type": {
        "id": 2,
        "name": "Bond (Obligation)"
      },
      "types": [
        {
          "start_date": "1967-05-02",
          "end_date": "3999-12-31",
          "id": 1001,
          "name": "Obligation ordinaire ou classique",
          "stock_group": "B"
        }
      ],
      "start_date": "1967-05-02",
      "end_date": "3999-12-31",
      "prices_from": "1967-05-16",
      "prices_to": "1972-09-15",
      "is_mainstock": 0,
      "prices_count": 129
    },
    "20661": {
      "id": 20661,
      "name": "Arjomari-Prioux 7% mai 1970 à int.crois.et convert.en act.à partir du 1er janv. 1972, remb. 210 à F 251,50 (c. 1/1/71 att.) (Avis 70-694) 1973-85",
      "share_type": {
        "id": 2,
        "name": "Bond (Obligation)"
      },
      "types": [
        {
          "start_date": "1970-09-24",
          "end_date": "3999-12-31",
          "id": 1001,
          "name": "Obligation ordinaire ou classique",
          "stock_group": "B"
        }
      ],
      "start_date": "1970-09-24",
      "end_date": "3999-12-31",
      "prices_from": "1970-09-24",
      "prices_to": "1976-12-31",
      "is_mainstock": 0,
      "prices_count": 154
    },
    "21513": {
      "id": 21513,
      "name": "ARJOMARI-PRIOUX, act.(n° 802366 à 803280)(c.31 att.)",
      "share_type": {
        "id": 1,
        "name": "Stock (Action)"
      },
      "types": [
        {
          "start_date": "1975-05-16",
          "end_date": "3999-12-31",
          "id": 18,
          "name": "Action",
          "stock_group": "S"
        }
      ],
      "start_date": "1975-05-16",
      "end_date": "3999-12-31",
      "prices_from": null,
      "prices_to": null,
      "is_mainstock": 0,
      "prices_count": 0
    }
  }
}