{
  "id": 5111,
  "names": [
    "Caisse d'équipement pour le développement de l'Algérie"
  ],
  "name": "Caisse d'équipement pour le développement de l'Algérie",
  "balance_sheets": [],
  "balance_sheets_stats": {
    "start_date": null,
    "end_date": null
  },
  "locations_stats": {
    "start_date": null,
    "end_date": null
  },
  "locations": {},
  "persons": [],
  "persons_stats": {
    "persons_count": 0,
    "start_date": null,
    "end_date": null
  },
  "yearbooks_ocrs": [],
  "juridical_status": [],
  "equity_capital": [],
  "profit_dividends": [],
  "public_status": false,
  "stock_exchanges": {
    "1": {
      "id": 1,
      "name": "Paris (Official List)",
      "listings_stats": {
        "start_date": "1960-06-24"
      },
      "spot_prices_stats": {
        "start_date": "1960-06-24",
        "end_date": "1976-12-31"
      }
    }
  },
  "securities": {
    "16218": {
      "id": 16218,
      "name": "Bons d'équipement 5% 1959 à primes progressives, (cf avis n 35363) A à H, J à N, , R à W (c 15/12/60 att) 1960-79 (garantie par l'Etat et l'algérie)",
      "share_type": {
        "id": 2,
        "name": "Bond (Obligation)"
      },
      "types": [
        {
          "start_date": "1960-06-24",
          "end_date": "3999-12-31",
          "id": 1001,
          "name": "Obligation ordinaire ou classique",
          "stock_group": "B"
        }
      ],
      "start_date": "1960-06-24",
      "end_date": "3999-12-31",
      "prices_from": "1960-06-24",
      "prices_to": "1976-12-31",
      "is_mainstock": 0,
      "prices_count": 398
    },
    "16530": {
      "id": 16530,
      "name": "Bons d'Equipement 5% mars 1961 à primes progressives (Avis 36499), A à H, J à N, P, R, à W, remb. à 210 NF min. (c. 15/3/62 att.) 1962-81",
      "share_type": {
        "id": 2,
        "name": "Bond (Obligation)"
      },
      "types": [
        {
          "start_date": "1962-01-10",
          "end_date": "3999-12-31",
          "id": 1009,
          "name": "Bons",
          "stock_group": "B"
        }
      ],
      "start_date": "1962-01-10",
      "end_date": "3999-12-31",
      "prices_from": "1962-01-10",
      "prices_to": "1976-12-31",
      "is_mainstock": 0,
      "prices_count": 361
    }
  }
}