{
  "id": 931,
  "names": [
    "Le Phoenix, métallurgique"
  ],
  "name": "Le Phoenix, métallurgique",
  "balance_sheets": [],
  "balance_sheets_stats": {
    "start_date": null,
    "end_date": null
  },
  "locations_stats": {
    "start_date": null,
    "end_date": null
  },
  "locations": {},
  "persons": [],
  "persons_stats": {
    "persons_count": 0,
    "start_date": null,
    "end_date": null
  },
  "yearbooks_ocrs": [],
  "juridical_status": [],
  "equity_capital": [],
  "profit_dividends": [],
  "public_status": false,
  "stock_exchanges": {
    "1": {
      "id": 1,
      "name": "Paris (Official List)",
      "listings_stats": {
        "start_date": "1853-12-07"
      },
      "spot_prices_stats": {
        "start_date": "1853-12-07",
        "end_date": "1854-08-16"
      }
    }
  },
  "securities": {
    "842": {
      "id": 842,
      "name": "Le Phoenix, métallurg., j jet (Act de 750 f., 200 thalers)",
      "share_type": {
        "id": 1,
        "name": "Stock (Action)"
      },
      "types": [
        {
          "start_date": "1853-12-07",
          "end_date": "3999-12-31",
          "id": 18,
          "name": "Action",
          "stock_group": "S"
        }
      ],
      "start_date": "1853-12-07",
      "end_date": "3999-12-31",
      "prices_from": "1853-12-07",
      "prices_to": "1854-08-16",
      "is_mainstock": 0,
      "prices_count": 7
    },
    "1133": {
      "id": 1133,
      "name": "Phoenix métallurgique (Act, de 100 thalers, tout payé).",
      "share_type": {
        "id": 1,
        "name": "Stock (Action)"
      },
      "types": [
        {
          "start_date": "1856-02-29",
          "end_date": "3999-12-31",
          "id": 18,
          "name": "Action",
          "stock_group": "S"
        }
      ],
      "start_date": "1856-02-29",
      "end_date": "3999-12-31",
      "prices_from": null,
      "prices_to": null,
      "is_mainstock": 1,
      "prices_count": 0
    }
  }
}