{
  "id": 4715,
  "names": [
    "SOCIETE TECHNIQUE DE PARFUMERIE",
    "Société Technique de Parfumerie \"F. Millot\""
  ],
  "name": "SOCIETE TECHNIQUE DE PARFUMERIE",
  "balance_sheets": [
    {
      "start_date": "1948-12-31",
      "source": "Annuaire Desfossés 1953",
      "page": "1485"
    },
    {
      "start_date": "1949-12-31",
      "source": "Annuaire Desfossés 1953",
      "page": "1485"
    },
    {
      "start_date": "1950-12-31",
      "source": "Annuaire Desfossés 1953",
      "page": "1485"
    },
    {
      "start_date": "1951-12-31",
      "source": "Annuaire Desfossés 1953",
      "page": "1485"
    }
  ],
  "balance_sheets_stats": {
    "start_date": "1948-12-31",
    "end_date": "1951-12-31"
  },
  "locations_stats": {
    "start_date": "1953-01-01",
    "end_date": "1953-12-31"
  },
  "locations": {
    "Siège social": [
      {
        "location_types_id": 1,
        "location_type": "Siège social",
        "address": "Avenue franklin-d-roosevelt, 57",
        "city": "Paris",
        "district": "Paris",
        "country": "France",
        "in_yearbook_from": 1953,
        "in_yearbook_to": 1953
      }
    ],
    "Siège administratif / Bureaux": [
      {
        "location_types_id": 2,
        "location_type": "Siège administratif / Bureaux",
        "address": "Avenue de solférino, 2",
        "city": "Asnières-sur-Seine",
        "district": "Paris",
        "country": "France",
        "in_yearbook_from": 1953,
        "in_yearbook_to": 1953
      }
    ]
  },
  "persons": [
    {
      "persons_count": 9,
      "yearbook": "Annuaire Desfossés 1953",
      "source": "annuaire_df_1953",
      "page": "1485"
    }
  ],
  "persons_stats": {
    "persons_count": 9,
    "start_date": "1953-01-01",
    "end_date": "1953-12-31"
  },
  "yearbooks_ocrs": [
    {
      "source": "annuaire_df_1953",
      "yearbook": "Annuaire Desfossés 1953",
      "page": "1485"
    }
  ],
  "juridical_status": [
    {
      "juridical_status": "Société Anonyme (Libre)",
      "start_date": "1933-01-01",
      "end_date": "2032-01-01",
      "comments": "CONSTITUTION : Société anonyme française constituée en 1933 pour une durée de 99 ans.",
      "source": "annuaire_df_1953"
    }
  ],
  "equity_capital": [
    {
      "amount": "70.000",
      "currency": "Franc",
      "infodate": "1933-01-01",
      "source": "annuaire_df_1953",
      "comments": "49 millions, divisé en 19.600 actions de 2.500 fr. A l'origine 70.000 fr., porté par étapes successives à 49 millions."
    },
    {
      "amount": "49.000.000",
      "currency": "Franc",
      "infodate": "1953-01-01",
      "source": "annuaire_df_1953",
      "comments": "49 millions, divisé en 19.600 actions de 2.500 fr. A l'origine 70.000 fr., porté par étapes successives à 49 millions."
    }
  ],
  "profit_dividends": [
    {
      "first_date": "1948-12-31",
      "last_date": "1951-12-31",
      "obs_count": 20
    }
  ],
  "public_status": false
}