{
  "id": 10753,
  "names": [
    "COMPAGNIE GÉNÉRALE D'OUTRE-MER",
    "Compagnie générale d'Outre-Mer"
  ],
  "name": "COMPAGNIE GÉNÉRALE D'OUTRE-MER",
  "balance_sheets": [
    {
      "start_date": "1925-12-31",
      "source": "Annuaire Desfossés 1927",
      "page": "1068"
    },
    {
      "start_date": "1926-12-31",
      "source": "Annuaire Desfossés 1929",
      "page": "1148"
    }
  ],
  "balance_sheets_stats": {
    "start_date": "1925-12-31",
    "end_date": "1926-12-31"
  },
  "locations_stats": {
    "start_date": "1927-01-01",
    "end_date": "1928-12-31"
  },
  "locations": {
    "Siège social": [
      {
        "location_types_id": 1,
        "location_type": "Siège social",
        "address": "Rue de la victoire, 83",
        "city": "Paris",
        "district": "Paris",
        "country": "France",
        "in_yearbook_from": 1927,
        "in_yearbook_to": 1928
      }
    ]
  },
  "persons": [],
  "persons_stats": {
    "persons_count": 0,
    "start_date": null,
    "end_date": null
  },
  "yearbooks_ocrs": [
    {
      "source": "annuaire_df_1927",
      "yearbook": "Annuaire Desfossés 1927",
      "page": "1068"
    },
    {
      "source": "annuaire_df_1929",
      "yearbook": "Annuaire Desfossés 1929",
      "page": "1148"
    },
    {
      "source": "annuaire_df_1931",
      "yearbook": "Annuaire Desfossés 1931",
      "page": "1168"
    }
  ],
  "juridical_status": [
    {
      "juridical_status": "Société Anonyme (Libre)",
      "start_date": "1908-01-01",
      "end_date": "3999-12-31",
      "comments": "Société anonyme française, constituée en 1908.",
      "source": "annuaire_df_1927"
    }
  ],
  "equity_capital": [
    {
      "amount": "1.000.000",
      "currency": "Franc",
      "infodate": "1908-01-01",
      "source": "annuaire_df_1927",
      "comments": " A l’origine 1 million de francs en 4.000 actions de 250 francs dont 1.400 ont été attribuées en rémunération d’apports"
    },
    {
      "amount": "500.000",
      "currency": "Franc",
      "infodate": "1920-01-01",
      "source": "annuaire_df_1927",
      "comments": "6 millions de francs, divisé en 4.800 actions ordinaires de 100 fr. et 22.080 actions privilégiées de 250 francs. A l’origine 1 million de francs en 4.000 actions de 250 francs dont 1.400 ont été attribuées en rémunération d’apports ; ramené en 1920 à 500.000 francs par réduction de la moitié du nominal des actions; porté la même année à 1.600.000 francs par la création de 4.400 actions de priorité, réduit en 1923 à 480.000 francs par échange de 10 actions ordinaires de 125 francs contre 1 nouvelle de 100 francs et échange d’une action de priorité de 250 francs contre 1 action ordinaire de 100 francs ; reporté à 1 million par la création de 2.080 actions de priorité de 250 francs et à 2.500.000 francs en juin 1925 par la création de 6.000 actions de.priorité de 250 francs ,* élevé en avril 1926 à 6 millions par la création de 14.000 actions nouvelles de priorité (1 nouvelle pour 1 priorité ancienne et 2 nouvelles pour 5 ordinaires anciennes)."
    },
    {
      "amount": "1.600.000",
      "currency": "Franc",
      "infodate": "1920-06-01",
      "source": "annuaire_df_1927",
      "comments": "6 millions de francs, divisé en 4.800 actions ordinaires de 100 fr. et 22.080 actions privilégiées de 250 francs. A l’origine 1 million de francs en 4.000 actions de 250 francs dont 1.400 ont été attribuées en rémunération d’apports ; ramené en 1920 à 500.000 francs par réduction de la moitié du nominal des actions; porté la même année à 1.600.000 francs par la création de 4.400 actions de priorité, réduit en 1923 à 480.000 francs par échange de 10 actions ordinaires de 125 francs contre 1 nouvelle de 100 francs et échange d’une action de priorité de 250 francs contre 1 action ordinaire de 100 francs ; reporté à 1 million par la création de 2.080 actions de priorité de 250 francs et à 2.500.000 francs en juin 1925 par la création de 6.000 actions de.priorité de 250 francs ,* élevé en avril 1926 à 6 millions par la création de 14.000 actions nouvelles de priorité (1 nouvelle pour 1 priorité ancienne et 2 nouvelles pour 5 ordinaires anciennes)."
    },
    {
      "amount": "480.000",
      "currency": "Franc",
      "infodate": "1923-01-01",
      "source": "annuaire_df_1927",
      "comments": "6 millions de francs, divisé en 4.800 actions ordinaires de 100 fr. et 22.080 actions privilégiées de 250 francs. A l’origine 1 million de francs en 4.000 actions de 250 francs dont 1.400 ont été attribuées en rémunération d’apports ; ramené en 1920 à 500.000 francs par réduction de la moitié du nominal des actions; porté la même année à 1.600.000 francs par la création de 4.400 actions de priorité, réduit en 1923 à 480.000 francs par échange de 10 actions ordinaires de 125 francs contre 1 nouvelle de 100 francs et échange d’une action de priorité de 250 francs contre 1 action ordinaire de 100 francs ; reporté à 1 million par la création de 2.080 actions de priorité de 250 francs et à 2.500.000 francs en juin 1925 par la création de 6.000 actions de.priorité de 250 francs ,* élevé en avril 1926 à 6 millions par la création de 14.000 actions nouvelles de priorité (1 nouvelle pour 1 priorité ancienne et 2 nouvelles pour 5 ordinaires anciennes)."
    },
    {
      "amount": "1.000.000",
      "currency": "Franc",
      "infodate": "1925-01-01",
      "source": "annuaire_df_1927",
      "comments": "6 millions de francs, divisé en 4.800 actions ordinaires de 100 fr. et 22.080 actions privilégiées de 250 francs. A l’origine 1 million de francs en 4.000 actions de 250 francs dont 1.400 ont été attribuées en rémunération d’apports ; ramené en 1920 à 500.000 francs par réduction de la moitié du nominal des actions; porté la même année à 1.600.000 francs par la création de 4.400 actions de priorité, réduit en 1923 à 480.000 francs par échange de 10 actions ordinaires de 125 francs contre 1 nouvelle de 100 francs et échange d’une action de priorité de 250 francs contre 1 action ordinaire de 100 francs ; reporté à 1 million par la création de 2.080 actions de priorité de 250 francs et à 2.500.000 francs en juin 1925 par la création de 6.000 actions de.priorité de 250 francs ,* élevé en avril 1926 à 6 millions par la création de 14.000 actions nouvelles de priorité (1 nouvelle pour 1 priorité ancienne et 2 nouvelles pour 5 ordinaires anciennes)."
    },
    {
      "amount": "2.500.000",
      "currency": "Franc",
      "infodate": "1925-01-01",
      "source": "annuaire_df_1927",
      "comments": "6 millions de francs, divisé en 4.800 actions ordinaires de 100 fr. et 22.080 actions privilégiées de 250 francs. A l’origine 1 million de francs en 4.000 actions de 250 francs dont 1.400 ont été attribuées en rémunération d’apports ; ramené en 1920 à 500.000 francs par réduction de la moitié du nominal des actions; porté la même année à 1.600.000 francs par la création de 4.400 actions de priorité, réduit en 1923 à 480.000 francs par échange de 10 actions ordinaires de 125 francs contre 1 nouvelle de 100 francs et échange d’une action de priorité de 250 francs contre 1 action ordinaire de 100 francs ; reporté à 1 million par la création de 2.080 actions de priorité de 250 francs et à 2.500.000 francs en juin 1925 par la création de 6.000 actions de.priorité de 250 francs ,* élevé en avril 1926 à 6 millions par la création de 14.000 actions nouvelles de priorité (1 nouvelle pour 1 priorité ancienne et 2 nouvelles pour 5 ordinaires anciennes)."
    },
    {
      "amount": "6.000.000",
      "currency": "Franc",
      "infodate": "1926-04-01",
      "source": "annuaire_df_1927",
      "comments": "6 millions de francs, divisé en 4.800 actions ordinaires de 100 fr. et 22.080 actions privilégiées de 250 francs. A l’origine 1 million de francs en 4.000 actions de 250 francs dont 1.400 ont été attribuées en rémunération d’apports ; ramené en 1920 à 500.000 francs par réduction de la moitié du nominal des actions; porté la même année à 1.600.000 francs par la création de 4.400 actions de priorité, réduit en 1923 à 480.000 francs par échange de 10 actions ordinaires de 125 francs contre 1 nouvelle de 100 francs et échange d’une action de priorité de 250 francs contre 1 action ordinaire de 100 francs ; reporté à 1 million par la création de 2.080 actions de priorité de 250 francs et à 2.500.000 francs en juin 1925 par la création de 6.000 actions de.priorité de 250 francs ,* élevé en avril 1926 à 6 millions par la création de 14.000 actions nouvelles de priorité (1 nouvelle pour 1 priorité ancienne et 2 nouvelles pour 5 ordinaires anciennes)."
    }
  ],
  "profit_dividends": [
    {
      "first_date": "1921-12-31",
      "last_date": "1926-12-31",
      "obs_count": 18
    }
  ],
  "public_status": false
}