{
  "id": 3153,
  "names": [
    "SOCIETE RUSSE DES USINES DE CONSTRUCTION DE MACHINES HARTMANN",
    "SOCIÉTÉ RUSSE DES USINES DE CONSTRUCTION DE MACHINES HARTMANN",
    "Société Russe de Construction de Machines Hartmann"
  ],
  "name": "SOCIETE RUSSE DES USINES DE CONSTRUCTION DE MACHINES HARTMANN",
  "balance_sheets": [
    {
      "start_date": "1911-06-30",
      "source": "Annuaire Desfossés 1912",
      "page": "638"
    },
    {
      "start_date": "1913-06-30",
      "source": "Annuaire Desfossés 1914",
      "page": "699"
    },
    {
      "start_date": "1915-06-30",
      "source": "Annuaire Desfossés 1925",
      "page": "873"
    }
  ],
  "balance_sheets_stats": {
    "start_date": "1911-06-30",
    "end_date": "1915-06-30"
  },
  "locations_stats": {
    "start_date": "1912-01-01",
    "end_date": "1930-12-31"
  },
  "locations": {
    "Siège social": [
      {
        "location_types_id": 1,
        "location_type": "Siège social",
        "address": null,
        "city": "Loughansk",
        "district": null,
        "country": "Union des républiques socialistes soviétiques",
        "in_yearbook_from": 1912,
        "in_yearbook_to": 1930
      }
    ],
    "Usines": [
      {
        "location_types_id": 3,
        "location_type": "Usines",
        "address": null,
        "city": "Loughansk",
        "district": null,
        "country": "Union des républiques socialistes soviétiques",
        "in_yearbook_from": 1917,
        "in_yearbook_to": 1917
      }
    ]
  },
  "persons": [
    {
      "persons_count": 2,
      "yearbook": "Annuaire Desfossés 1912",
      "source": "annuaire_df_1912",
      "page": "638"
    },
    {
      "persons_count": 2,
      "yearbook": "Annuaire Desfossés 1917",
      "source": "annuaire_df_1917",
      "page": "636"
    },
    {
      "persons_count": 6,
      "yearbook": "Annuaire Desfossés 1927",
      "source": "annuaire_df_1927",
      "page": "697"
    }
  ],
  "persons_stats": {
    "persons_count": 8,
    "start_date": "1912-01-01",
    "end_date": "1927-12-31"
  },
  "yearbooks_ocrs": [
    {
      "source": "annuaire_df_1912",
      "yearbook": "Annuaire Desfossés 1912",
      "page": "638"
    },
    {
      "source": "annuaire_df_1914",
      "yearbook": "Annuaire Desfossés 1914",
      "page": "699"
    },
    {
      "source": "annuaire_df_1917",
      "yearbook": "Annuaire Desfossés 1917",
      "page": "636"
    },
    {
      "source": "annuaire_df_1920",
      "yearbook": "Annuaire Desfossés 1920",
      "page": "687"
    },
    {
      "source": "annuaire_df_1923",
      "yearbook": "Annuaire Desfossés 1923",
      "page": "763"
    },
    {
      "source": "annuaire_df_1925",
      "yearbook": "Annuaire Desfossés 1925",
      "page": "873"
    },
    {
      "source": "annuaire_df_1927",
      "yearbook": "Annuaire Desfossés 1927",
      "page": "697"
    },
    {
      "source": "annuaire_df_1929",
      "yearbook": "Annuaire Desfossés 1929",
      "page": "745"
    },
    {
      "source": "annuaire_df_1931",
      "yearbook": "Annuaire Desfossés 1931",
      "page": "748"
    }
  ],
  "juridical_status": [
    {
      "juridical_status": "Société anonyme russe",
      "start_date": "1896-06-18",
      "end_date": "3999-12-31",
      "comments": "Société anonyme russe, constituée le 18 juin 1896.",
      "source": "annuaire_df_1912"
    }
  ],
  "equity_capital": [
    {
      "amount": "4.000.000",
      "currency": "Rouble",
      "infodate": "1896-06-18",
      "source": "annuaire_df_1912",
      "comments": " 9 millions de roubles papier, divisé en 60.000 actions de 150 roubles papier; ou 400 francs. A l’origine 4 millions de roubles, porté en 1898 au chiffre actuel."
    },
    {
      "amount": "9.000.000",
      "currency": "Rouble",
      "infodate": "1898-01-01",
      "source": "annuaire_df_1917",
      "comments": "9 millions de roubles papier, divisé en 60.000 actions de 150 roubles papier, ou 400 francs. A l’origine 4 millions de roubles, porté en 1898 au chiffre actuel."
    }
  ],
  "profit_dividends": [
    {
      "first_date": "1906-06-30",
      "last_date": "1922-06-30",
      "obs_count": 87
    }
  ],
  "public_status": false
}