{
  "id": 12243,
  "names": [
    "Ghauras (fer et cuivre)"
  ],
  "name": "Ghauras (fer et cuivre)",
  "balance_sheets": [],
  "balance_sheets_stats": {
    "start_date": null,
    "end_date": null
  },
  "locations_stats": {
    "start_date": null,
    "end_date": null
  },
  "locations": {},
  "persons": [],
  "persons_stats": {
    "persons_count": 0,
    "start_date": null,
    "end_date": null
  },
  "yearbooks_ocrs": [],
  "juridical_status": [],
  "equity_capital": [],
  "profit_dividends": [],
  "public_status": false,
  "stock_exchanges": {
    "2": {
      "id": 2,
      "name": "Paris OTC (Coulisse)",
      "listings_stats": {
        "start_date": "1887-12-15"
      }
    }
  },
  "securities": {
    "105053": {
      "id": 105053,
      "name": "Ghauras (fer et cuivre) act. de 500 fr.",
      "share_type": {
        "id": 1,
        "name": "Stock (Action)"
      },
      "types": [
        {
          "start_date": "1887-12-15",
          "end_date": "1888-10-15",
          "id": 18,
          "name": "Action",
          "stock_group": "S"
        }
      ],
      "start_date": "1887-12-15",
      "end_date": "1888-10-15",
      "prices_from": null,
      "prices_to": null,
      "is_mainstock": 1,
      "prices_count": 0
    }
  }
}