{
  "id": 10664,
  "names": [
    "SOCIÉTÉ ANONYME JETLAC (Anciens Établissements Noël et Cie)",
    "SOCIÉTÉ ANONYME JETLAC Fabrique Française de Vernis et de Couleurs métalliques",
    "SOCIÉTÉ ANONYME JETLAG (Anciens Établissements Noël et Cie)",
    "Société Anonyme JETLAC (Anciens Etablissements Noel et Cie)"
  ],
  "name": "SOCIÉTÉ ANONYME JETLAC (Anciens Établissements Noël et Cie)",
  "balance_sheets": [
    {
      "start_date": "1926-12-31",
      "source": "Annuaire Desfossés 1927",
      "page": "1375"
    },
    {
      "start_date": "1927-12-31",
      "source": "Annuaire Desfossés 1929",
      "page": "1488"
    },
    {
      "start_date": "1929-12-31",
      "source": "Annuaire Desfossés 1931",
      "page": "1541"
    },
    {
      "start_date": "1931-12-31",
      "source": "Annuaire Desfossés 1933",
      "page": "1596"
    }
  ],
  "balance_sheets_stats": {
    "start_date": "1926-12-31",
    "end_date": "1931-12-31"
  },
  "locations_stats": {
    "start_date": "1927-01-01",
    "end_date": "1933-12-31"
  },
  "locations": {
    "Siège social": [
      {
        "location_types_id": 1,
        "location_type": "Siège social",
        "address": "Rue chaptal, 36",
        "city": "Levallois-Perret",
        "district": "Paris",
        "country": "France",
        "in_yearbook_from": 1927,
        "in_yearbook_to": 1933
      }
    ]
  },
  "persons": [
    {
      "persons_count": 4,
      "yearbook": "Annuaire Desfossés 1927",
      "source": "annuaire_df_1927",
      "page": "1375"
    },
    {
      "persons_count": 7,
      "yearbook": "Annuaire Desfossés 1933",
      "source": "annuaire_df_1933",
      "page": "1596"
    }
  ],
  "persons_stats": {
    "persons_count": 10,
    "start_date": "1927-01-01",
    "end_date": "1933-12-31"
  },
  "yearbooks_ocrs": [
    {
      "source": "annuaire_df_1927",
      "yearbook": "Annuaire Desfossés 1927",
      "page": "1375"
    },
    {
      "source": "annuaire_df_1929",
      "yearbook": "Annuaire Desfossés 1929",
      "page": "1488"
    },
    {
      "source": "annuaire_df_1931",
      "yearbook": "Annuaire Desfossés 1931",
      "page": "1541"
    },
    {
      "source": "annuaire_df_1933",
      "yearbook": "Annuaire Desfossés 1933",
      "page": "1596"
    }
  ],
  "juridical_status": [
    {
      "juridical_status": "Société Anonyme (Libre)",
      "start_date": "1924-03-22",
      "end_date": "2023-03-22",
      "comments": "Société anonyme française, constituée le 22 mars 1924, .pour une durée de 99 ans.",
      "source": "annuaire_df_1927"
    }
  ],
  "equity_capital": [
    {
      "amount": "950.000",
      "currency": "Franc",
      "infodate": "1924-03-22",
      "source": "annuaire_df_1927",
      "comments": " A l’origine 950.000 francs en 9.500 actions de 100 francs sur lesquelles 3.000 ont été remises en rémunération d’apports;"
    },
    {
      "amount": "1.330.000",
      "currency": "Franc",
      "infodate": "1925-07-01",
      "source": "annuaire_df_1927",
      "comments": "2 millions de francs, divisé en 20.000 actions de 100 francs. A l’origine 950.000 francs en 9.500 actions de 100 francs sur lesquelles 3.000 ont été remises en rémunération d’apports; porté, en juillet 1925 à 1.330.000 francs par la création de 3.800 actions nouvelles, et en juin 1926 à 2 millions par la création de 6.700 actions nouvelles."
    },
    {
      "amount": "2.000.000",
      "currency": "Franc",
      "infodate": "1926-06-01",
      "source": "annuaire_df_1927",
      "comments": "2 millions de francs, divisé en 20.000 actions de 100 francs. A l’origine 950.000 francs en 9.500 actions de 100 francs sur lesquelles 3.000 ont été remises en rémunération d’apports; porté, en juillet 1925 à 1.330.000 francs par la création de 3.800 actions nouvelles, et en juin 1926 à 2 millions par la création de 6.700 actions nouvelles."
    },
    {
      "amount": "2.250.000",
      "currency": "Franc",
      "infodate": "1932-01-01",
      "source": "annuaire_df_1933",
      "comments": " en janvier 1932 à 2.250.000 francs par la création de 2.500 actions de 100 francs et également en janvier 1932 à 2.670.000 francs, par a création de 4.200 actions, remises en rémunération de ses apports à la société ; Fabrique française de couleurs métalliques, Etablissements A. Larive fils."
    },
    {
      "amount": "2.670.000",
      "currency": "Franc",
      "infodate": "1932-01-01",
      "source": "annuaire_df_1933",
      "comments": " en janvier 1932 à 2.250.000 francs par la création de 2.500 actions de 100 francs et également en janvier 1932 à 2.670.000 francs, par a création de 4.200 actions, remises en rémunération de ses apports à la société ; Fabrique française de couleurs métalliques, Etablissements A. Larive fils."
    }
  ],
  "profit_dividends": [
    {
      "first_date": "1924-12-31",
      "last_date": "1932-12-31",
      "obs_count": 53
    }
  ],
  "public_status": false
}