{
  "id": 11157,
  "names": [
    "Banque fédérale de l'alimentation"
  ],
  "name": "Banque fédérale de l'alimentation",
  "balance_sheets": [],
  "balance_sheets_stats": {
    "start_date": "1912-12-31",
    "end_date": "1914-12-31"
  },
  "locations_stats": {
    "start_date": null,
    "end_date": null
  },
  "locations": {},
  "persons": [],
  "persons_stats": {
    "persons_count": 0,
    "start_date": null,
    "end_date": null
  },
  "yearbooks_ocrs": [],
  "juridical_status": [],
  "equity_capital": [],
  "profit_dividends": [
    {
      "first_date": "1912-12-31",
      "last_date": "1915-12-31",
      "obs_count": 16
    }
  ],
  "public_status": false
}