{
  "id": 5553,
  "names": [
    "Vendôme Équipement Transéco"
  ],
  "name": "Vendôme Équipement Transéco",
  "balance_sheets": [],
  "balance_sheets_stats": {
    "start_date": null,
    "end_date": null
  },
  "locations_stats": {
    "start_date": null,
    "end_date": null
  },
  "locations": {},
  "persons": [],
  "persons_stats": {
    "persons_count": 0,
    "start_date": null,
    "end_date": null
  },
  "yearbooks_ocrs": [],
  "juridical_status": [],
  "equity_capital": [],
  "profit_dividends": [],
  "public_status": false,
  "stock_exchanges": {
    "1": {
      "id": 1,
      "name": "Paris (Official List)",
      "listings_stats": {
        "start_date": "1970-12-21"
      },
      "spot_prices_stats": {
        "start_date": "1970-12-21",
        "end_date": "1976-12-31"
      }
    }
  },
  "securities": {
    "20155": {
      "id": 20155,
      "name": "BAIL-EQUIPEMENT, act.",
      "share_type": {
        "id": 1,
        "name": "Stock (Action)"
      },
      "types": [
        {
          "start_date": "1970-12-21",
          "end_date": "3999-12-31",
          "id": 11,
          "name": "Action ordinaire",
          "stock_group": "S"
        }
      ],
      "start_date": "1970-12-21",
      "end_date": "3999-12-31",
      "prices_from": "1970-12-21",
      "prices_to": "1976-12-31",
      "is_mainstock": 0,
      "prices_count": 153
    },
    "20940": {
      "id": 20940,
      "name": "Bail-Equipement, promesses (Jce 1/1/72)",
      "share_type": {
        "id": 1,
        "name": "Stock (Action)"
      },
      "types": [
        {
          "start_date": "1972-06-12",
          "end_date": "3999-12-31",
          "id": 27,
          "name": "Promesse d'action",
          "stock_group": "S"
        }
      ],
      "start_date": "1972-06-12",
      "end_date": "3999-12-31",
      "prices_from": "1972-06-13",
      "prices_to": "1972-08-16",
      "is_mainstock": 0,
      "prices_count": 6
    }
  }
}