{
  "id": 4447,
  "names": [
    "SOCIETE USINOR",
    "UNION SIDERURGIQUE DU NORD DE LA FRANCE USINOR",
    "Union Siderurgique du Nord de la France Usinor"
  ],
  "name": "UNION SIDERURGIQUE DU NORD DE LA FRANCE USINOR",
  "balance_sheets": [
    {
      "start_date": "1948-12-31",
      "source": "Annuaire Desfossés 1953",
      "page": "851"
    },
    {
      "start_date": "1949-12-31",
      "source": "Annuaire Desfossés 1953",
      "page": "851"
    },
    {
      "start_date": "1950-12-31",
      "source": "Annuaire Desfossés 1953",
      "page": "851"
    },
    {
      "start_date": "1951-12-31",
      "source": "Annuaire Desfossés 1953",
      "page": "851"
    }
  ],
  "balance_sheets_stats": {
    "start_date": "1948-12-31",
    "end_date": "1951-12-31"
  },
  "locations_stats": {
    "start_date": "1953-01-01",
    "end_date": "1953-12-31"
  },
  "locations": {
    "Siège social": [
      {
        "location_types_id": 1,
        "location_type": "Siège social",
        "address": "Rue d'athènes, 14",
        "city": "Paris",
        "district": "Paris",
        "country": "France",
        "in_yearbook_from": 1953,
        "in_yearbook_to": 1953
      }
    ]
  },
  "persons": [
    {
      "persons_count": 8,
      "yearbook": "Annuaire Desfossés 1949",
      "source": "annuaire_df_1949",
      "page": null
    },
    {
      "persons_count": 12,
      "yearbook": "Annuaire Desfossés 1953",
      "source": "annuaire_df_1953",
      "page": "851"
    }
  ],
  "persons_stats": {
    "persons_count": 17,
    "start_date": "1949-01-01",
    "end_date": "1953-12-31"
  },
  "yearbooks_ocrs": [
    {
      "source": "annuaire_df_1949",
      "yearbook": "Annuaire Desfossés 1949",
      "page": null
    },
    {
      "source": "annuaire_df_1953",
      "yearbook": "Annuaire Desfossés 1953",
      "page": "851"
    }
  ],
  "juridical_status": [
    {
      "juridical_status": "Société Anonyme (Libre)",
      "start_date": "1948-07-01",
      "end_date": "2047-07-01",
      "comments": "CONSTITUTION : Société anonyme constituée le 1er juillet 1948, pour une durée de 99 ans.",
      "source": "annuaire_df_1953"
    }
  ],
  "equity_capital": [
    {
      "amount": "12.000.000",
      "currency": "Franc",
      "infodate": "1947-01-01",
      "source": "annuaire_df_1949",
      "comments": "Le capital social a été fixé à 12.000.000.000 de fr., dont 11.600.000.000 de fr. représentant les apports en nature faits à ila nouvelle société par la Société des Hauts Fourneaux, Forges et Aciéries de Denain et d'Anzin et par la -Société des Forges et Aciéries du Nord et de l'Est, de leurs usines situées à Denain, Valenciennes, Loùv-roil, Hautmont, Montataire et Anzin, et 400.000.000 de fr. représentant les apports en numéraire effectués principalement par les deux sociétés."
    }
  ],
  "profit_dividends": [
    {
      "first_date": "1948-12-31",
      "last_date": "1951-12-31",
      "obs_count": 20
    }
  ],
  "public_status": false,
  "stock_exchanges": {
    "1": {
      "id": 1,
      "name": "Paris (Official List)",
      "listings_stats": {
        "start_date": "1955-11-10"
      },
      "spot_prices_stats": {
        "start_date": "1955-11-15",
        "end_date": "1976-12-31"
      },
      "forward_prices_stats": {
        "start_date": "1958-11-12",
        "end_date": "1958-11-12"
      },
      "options_prices_stats": {
        "start_date": "1958-11-12",
        "end_date": "1958-11-12"
      }
    }
  },
  "securities": {
    "15130": {
      "id": 15130,
      "name": "Union Sidérurgique du Nord de la France \"Usinor\" 6% juin 1955. à 10500 fr. minimum (c. 15/6/56 att.) 1956-70",
      "share_type": {
        "id": 2,
        "name": "Bond (Obligation)"
      },
      "types": [
        {
          "start_date": "1955-11-10",
          "end_date": "3999-12-31",
          "id": 1001,
          "name": "Obligation ordinaire ou classique",
          "stock_group": "B"
        }
      ],
      "start_date": "1955-11-10",
      "end_date": "3999-12-31",
      "prices_from": "1955-11-15",
      "prices_to": "1970-06-01",
      "is_mainstock": 0,
      "prices_count": 368
    },
    "15499": {
      "id": 15499,
      "name": "Union Sidérurgique du Nord de la France \"Usinor\", act. (ex-dr., )",
      "share_type": {
        "id": 1,
        "name": "Stock (Action)"
      },
      "types": [
        {
          "start_date": "1957-11-05",
          "end_date": "3999-12-31",
          "id": 18,
          "name": "Action",
          "stock_group": "S"
        }
      ],
      "start_date": "1957-11-05",
      "end_date": "3999-12-31",
      "prices_from": "1958-06-02",
      "prices_to": "1958-10-31",
      "is_mainstock": 0,
      "prices_count": 14
    },
    "15500": {
      "id": 15500,
      "name": "Union Sidérurgique du Nord de la France \"Usinor\", promesses (Jce 1/1/58)",
      "share_type": {
        "id": 1,
        "name": "Stock (Action)"
      },
      "types": [
        {
          "start_date": "1957-11-20",
          "end_date": "3999-12-31",
          "id": 27,
          "name": "Promesse d'action",
          "stock_group": "S"
        }
      ],
      "start_date": "1957-11-20",
      "end_date": "3999-12-31",
      "prices_from": "1957-12-02",
      "prices_to": "1958-02-17",
      "is_mainstock": 0,
      "prices_count": 8
    },
    "15731": {
      "id": 15731,
      "name": "Usinor (Union Sidérurgique du Nord et de l'Est de la France), act,",
      "share_type": {
        "id": 1,
        "name": "Stock (Action)"
      },
      "types": [
        {
          "start_date": "1958-11-12",
          "end_date": "3999-12-31",
          "id": 18,
          "name": "Action",
          "stock_group": "S"
        }
      ],
      "start_date": "1958-11-12",
      "end_date": "3999-12-31",
      "prices_from": "1958-11-12",
      "prices_to": "1976-12-31",
      "is_mainstock": 0,
      "prices_count": 520
    },
    "15755": {
      "id": 15755,
      "name": "Union Sidérurgique du Nord de la France \"Usinor\", act 6250 fr (ex-c 2 sans valeur)(par actions)",
      "share_type": {
        "id": 1,
        "name": "Stock (Action)"
      },
      "types": [
        {
          "start_date": "1958-11-12",
          "end_date": "3999-12-31",
          "id": 18,
          "name": "Action",
          "stock_group": "S"
        }
      ],
      "start_date": "1958-11-12",
      "end_date": "3999-12-31",
      "prices_from": "1958-11-12",
      "prices_to": "1958-11-12",
      "is_mainstock": 0,
      "prices_count": 2
    },
    "15913": {
      "id": 15913,
      "name": "Union siderurgique de nord de la France, act nouv (jce 1/1/59)",
      "share_type": {
        "id": 1,
        "name": "Stock (Action)"
      },
      "types": [
        {
          "start_date": "1959-07-09",
          "end_date": "3999-12-31",
          "id": 27,
          "name": "Promesse d'action",
          "stock_group": "S"
        }
      ],
      "start_date": "1959-07-09",
      "end_date": "3999-12-31",
      "prices_from": "1959-07-09",
      "prices_to": "1959-11-03",
      "is_mainstock": 0,
      "prices_count": 11
    },
    "16453": {
      "id": 16453,
      "name": "Union sidérurgique du nord de la France (usinor), 5% 1960, r à NF 232,50 (c 25/12/61 att) 1961-80",
      "share_type": {
        "id": 2,
        "name": "Bond (Obligation)"
      },
      "types": [
        {
          "start_date": "1961-04-10",
          "end_date": "3999-12-31",
          "id": 1001,
          "name": "Obligation ordinaire ou classique",
          "stock_group": "B"
        }
      ],
      "start_date": "1961-04-10",
      "end_date": "3999-12-31",
      "prices_from": "1961-04-12",
      "prices_to": "1976-12-31",
      "is_mainstock": 0,
      "prices_count": 381
    },
    "16537": {
      "id": 16537,
      "name": "Union Sidérurgique du Nord de la France \"Usinor\", promesses (Jce 1/1/61)",
      "share_type": {
        "id": 1,
        "name": "Stock (Action)"
      },
      "types": [
        {
          "start_date": "1961-06-16",
          "end_date": "3999-12-31",
          "id": 27,
          "name": "Promesse d'action",
          "stock_group": "S"
        }
      ],
      "start_date": "1961-06-16",
      "end_date": "3999-12-31",
      "prices_from": "1961-06-20",
      "prices_to": "1961-10-02",
      "is_mainstock": 0,
      "prices_count": 8
    },
    "17769": {
      "id": 17769,
      "name": "Union Sidérurgique du Nord de la France \"Usinor\" 5% 1962, remboursables à 220 NF min. (c. 5/2/63 att.) 1963-82",
      "share_type": {
        "id": 2,
        "name": "Bond (Obligation)"
      },
      "types": [
        {
          "start_date": "1962-06-05",
          "end_date": "3999-12-31",
          "id": 1001,
          "name": "Obligation ordinaire ou classique",
          "stock_group": "B"
        }
      ],
      "start_date": "1962-06-05",
      "end_date": "3999-12-31",
      "prices_from": "1962-06-05",
      "prices_to": "1976-12-31",
      "is_mainstock": 0,
      "prices_count": 351
    },
    "17882": {
      "id": 17882,
      "name": "Union SIDERURGIQUE DU NORD DE LA FRANCE, Promesses (Jce1/1/63)",
      "share_type": {
        "id": 1,
        "name": "Stock (Action)"
      },
      "types": [
        {
          "start_date": "1962-12-10",
          "end_date": "3999-12-31",
          "id": 27,
          "name": "Promesse d'action",
          "stock_group": "S"
        }
      ],
      "start_date": "1962-12-10",
      "end_date": "3999-12-31",
      "prices_from": "1962-12-11",
      "prices_to": "1963-05-15",
      "is_mainstock": 0,
      "prices_count": 14
    },
    "20480": {
      "id": 20480,
      "name": "Usinor (Union Sidérurgique du Nord et de l'Est de la France) Promesses (Jce 1/1/69)",
      "share_type": {
        "id": 1,
        "name": "Stock (Action)"
      },
      "types": [
        {
          "start_date": "1969-06-23",
          "end_date": "3999-12-31",
          "id": 27,
          "name": "Promesse d'action",
          "stock_group": "S"
        }
      ],
      "start_date": "1969-06-23",
      "end_date": "3999-12-31",
      "prices_from": "1969-06-23",
      "prices_to": "1969-10-15",
      "is_mainstock": 0,
      "prices_count": 11
    },
    "20847": {
      "id": 20847,
      "name": "Usinor (Union Sidérurgique du Nord et de l'Est de la France) 8,75% 1972 (séries A à I et K) (c. 10/1/73 att.) (Avis 72-198)…1983-92",
      "share_type": {
        "id": 2,
        "name": "Bond (Obligation)"
      },
      "types": [
        {
          "start_date": "1972-03-30",
          "end_date": "3999-12-31",
          "id": 1001,
          "name": "Obligation ordinaire ou classique",
          "stock_group": "B"
        }
      ],
      "start_date": "1972-03-30",
      "end_date": "3999-12-31",
      "prices_from": "1972-03-30",
      "prices_to": "1976-12-31",
      "is_mainstock": 0,
      "prices_count": 116
    },
    "20867": {
      "id": 20867,
      "name": "Usinor",
      "share_type": {
        "id": 3,
        "name": "OPTIONS"
      },
      "types": [
        {
          "start_date": "1969-05-30",
          "end_date": "3999-12-31",
          "id": 2,
          "name": "Option",
          "stock_group": "M"
        }
      ],
      "start_date": "1969-05-30",
      "end_date": "3999-12-31",
      "prices_from": null,
      "prices_to": null,
      "is_mainstock": 0,
      "prices_count": 0
    },
    "20870": {
      "id": 20870,
      "name": "Usinor",
      "share_type": {
        "id": 3,
        "name": "OPTIONS"
      },
      "types": [
        {
          "start_date": "1969-08-13",
          "end_date": "3999-12-31",
          "id": 2,
          "name": "Option",
          "stock_group": "M"
        }
      ],
      "start_date": "1969-08-13",
      "end_date": "3999-12-31",
      "prices_from": null,
      "prices_to": null,
      "is_mainstock": 0,
      "prices_count": 0
    },
    "20872": {
      "id": 20872,
      "name": "Usinor",
      "share_type": {
        "id": 3,
        "name": "OPTIONS"
      },
      "types": [
        {
          "start_date": "1969-09-19",
          "end_date": "3999-12-31",
          "id": 2,
          "name": "Option",
          "stock_group": "M"
        }
      ],
      "start_date": "1969-09-19",
      "end_date": "3999-12-31",
      "prices_from": null,
      "prices_to": null,
      "is_mainstock": 0,
      "prices_count": 0
    },
    "21167": {
      "id": 21167,
      "name": "Usinor (Union Sidérurgique du Nord et de l'Est de la France) 7,5% 1972 convert en act à tout moment à partir du 1/1/73 (séries A à I et K) (c.1/1/74 att.) (Avis 72-951)…1984-93",
      "share_type": {
        "id": 2,
        "name": "Bond (Obligation)"
      },
      "types": [
        {
          "start_date": "1972-12-14",
          "end_date": "3999-12-31",
          "id": 1001,
          "name": "Obligation ordinaire ou classique",
          "stock_group": "B"
        }
      ],
      "start_date": "1972-12-14",
      "end_date": "3999-12-31",
      "prices_from": "1972-12-14",
      "prices_to": "1976-12-31",
      "is_mainstock": 0,
      "prices_count": 104
    },
    "22248": {
      "id": 22248,
      "name": "Usinor",
      "share_type": {
        "id": 3,
        "name": "OPTIONS"
      },
      "types": [
        {
          "start_date": "1968-11-14",
          "end_date": "3999-12-31",
          "id": 2,
          "name": "Option",
          "stock_group": "M"
        }
      ],
      "start_date": "1968-11-14",
      "end_date": "3999-12-31",
      "prices_from": null,
      "prices_to": null,
      "is_mainstock": 0,
      "prices_count": 0
    },
    "35121": {
      "id": 35121,
      "name": "Usinor (Union sidérurgique du Nord et de l'Est de la France) 7,50% 1972 de 150 F, conv. En act. À tout moment (sér. A à I et K) (c. 1/1/74 att.) (Avis 73-144) (par 25 actions)",
      "share_type": {
        "id": 2,
        "name": "Bond (Obligation)"
      },
      "types": [
        {
          "start_date": "1973-02-21",
          "end_date": "3999-12-31",
          "id": 1002,
          "name": "Obligation convertible",
          "stock_group": "B"
        }
      ],
      "start_date": "1973-02-21",
      "end_date": "3999-12-31",
      "prices_from": null,
      "prices_to": null,
      "is_mainstock": 0,
      "prices_count": 0
    },
    "106096": {
      "id": 106096,
      "name": "Union Sidérurgique du Nord de la France \"Usinor\", Act. (n°s 4000001 a 4400000) (c. 3 att)",
      "share_type": {
        "id": 1,
        "name": "Stock (Action)"
      },
      "types": [
        {
          "start_date": "1958-02-28",
          "end_date": "1958-05-16",
          "id": 18,
          "name": "Action",
          "stock_group": "S"
        }
      ],
      "start_date": "1958-02-28",
      "end_date": "1958-05-16",
      "prices_from": "1958-02-28",
      "prices_to": "1958-05-16",
      "is_mainstock": 0,
      "prices_count": 9
    },
    "106493": {
      "id": 106493,
      "name": "Union Sidérurgique du Nord de la France \"Usinor\", act,Promesses (Jce 1/1/71).",
      "share_type": {
        "id": 1,
        "name": "Stock (Action)"
      },
      "types": [
        {
          "start_date": "1971-02-15",
          "end_date": "1971-04-15",
          "id": 27,
          "name": "Promesse d'action",
          "stock_group": "S"
        }
      ],
      "start_date": "1971-02-15",
      "end_date": "1971-04-15",
      "prices_from": "1971-02-15",
      "prices_to": "1971-04-15",
      "is_mainstock": 0,
      "prices_count": 6
    },
    "106494": {
      "id": 106494,
      "name": "Union Sidérurgique du Nord de la France \"Usinor\", Act, (n 15244501 a 19055625) (c. 25 att.)",
      "share_type": {
        "id": 1,
        "name": "Stock (Action)"
      },
      "types": [
        {
          "start_date": "1971-04-30",
          "end_date": "1971-05-17",
          "id": 18,
          "name": "Action",
          "stock_group": "S"
        }
      ],
      "start_date": "1971-04-30",
      "end_date": "1971-05-17",
      "prices_from": "1971-04-30",
      "prices_to": "1971-05-17",
      "is_mainstock": 0,
      "prices_count": 2
    }
  }
}