{
  "id": 1942,
  "names": [
    "Banque hongroise d'escompte et de change (Ungarische escompte und Wechsler bank)"
  ],
  "name": "Banque hongroise d'escompte et de change (Ungarische escompte und Wechsler bank)",
  "balance_sheets": [],
  "balance_sheets_stats": {
    "start_date": null,
    "end_date": null
  },
  "locations_stats": {
    "start_date": null,
    "end_date": null
  },
  "locations": {},
  "persons": [],
  "persons_stats": {
    "persons_count": 0,
    "start_date": null,
    "end_date": null
  },
  "yearbooks_ocrs": [],
  "juridical_status": [],
  "equity_capital": [],
  "profit_dividends": [],
  "public_status": false
}