{
  "id": 2592,
  "names": [
    "CHEMIN DE FER D'INTÉRÊT LOCAL DE SOUSTONS A LÉON",
    "SOCIETE ANONYME DU CHEMIN DE FER D'INTÉRÊT LOCAL DE SOUSTONS A LÉON",
    "SOCIÉTÉ ANONYME DU CHEMIN DE FER D'INTÉRÊT LOCAL DE SOUSTONS A LÉON",
    "Société anonyme du chemin de fer d'intérêt local de Soustons à Léon",
    "Société du chemin de fer de Soustons a Léon"
  ],
  "name": "SOCIETE ANONYME DU CHEMIN DE FER D'INTÉRÊT LOCAL DE SOUSTONS A LÉON",
  "balance_sheets": [
    {
      "start_date": "1910-12-31",
      "source": "Annuaire Desfossés 1912",
      "page": "336"
    },
    {
      "start_date": "1912-12-31",
      "source": "Annuaire Desfossés 1914",
      "page": "373"
    },
    {
      "start_date": "1915-12-31",
      "source": "Annuaire Desfossés 1917",
      "page": "324"
    }
  ],
  "balance_sheets_stats": {
    "start_date": "1910-12-31",
    "end_date": "1915-12-31"
  },
  "locations_stats": {
    "start_date": "1908-01-01",
    "end_date": "1917-12-31"
  },
  "locations": {
    "Siège social": [
      {
        "location_types_id": 1,
        "location_type": "Siège social",
        "address": "Boulevard haussmann, 54",
        "city": "Paris",
        "district": "Paris",
        "country": "France",
        "in_yearbook_from": 1908,
        "in_yearbook_to": 1917
      }
    ]
  },
  "persons": [
    {
      "persons_count": 5,
      "yearbook": "Annuaire de la Compagnie des Agents de Change 1908",
      "source": "annuaire_cac_1908",
      "page": "1004"
    },
    {
      "persons_count": 5,
      "yearbook": "Annuaire Desfossés 1917",
      "source": "annuaire_df_1917",
      "page": "324"
    }
  ],
  "persons_stats": {
    "persons_count": 10,
    "start_date": "1908-01-01",
    "end_date": "1917-12-31"
  },
  "yearbooks_ocrs": [
    {
      "source": "annuaire_cac_1908",
      "yearbook": "Annuaire de la Compagnie des Agents de Change 1908",
      "page": "1004"
    },
    {
      "source": "annuaire_df_1912",
      "yearbook": "Annuaire Desfossés 1912",
      "page": "336"
    },
    {
      "source": "annuaire_df_1914",
      "yearbook": "Annuaire Desfossés 1914",
      "page": "373"
    },
    {
      "source": "annuaire_df_1917",
      "yearbook": "Annuaire Desfossés 1917",
      "page": "324"
    }
  ],
  "juridical_status": [
    {
      "juridical_status": "Société Anonyme (Libre)",
      "start_date": "1902-01-17",
      "end_date": "1960-12-31",
      "comments": "Société anonyme formée suivant acte reçu par Me Grange, notaire a Paris, Je 24 décembre 1901, et définitivement constituée le 17 janvier 1902.  La Société prendra fin avec la concession, soit le 31 décembre 1960.",
      "source": "annuaire_cac_1908"
    }
  ],
  "equity_capital": [
    {
      "amount": "675.000",
      "currency": "Franc",
      "infodate": "1902-01-17",
      "source": "annuaire_cac_1908",
      "comments": "675.000 francs divisé en 6.750 actions de 100 francs, émises en espèces et au pair, entièrement libérées et au porteur."
    },
    {
      "amount": "800.000",
      "currency": "Franc",
      "infodate": "1907-01-01",
      "source": "annuaire_df_1912",
      "comments": "760.000 francs, divise en 7.600 actions de 100 francs. A l'origine, 675.000 francs. L’assemblée générale du 4 mai 1907 a autorisé l’augmentation du capital à 800.000 francs, par la création de 1.250 actions nouvelles, sur lesquelles 850 ont été émises en 1909."
    },
    {
      "amount": "760.000",
      "currency": "Franc",
      "infodate": "1909-01-01",
      "source": "annuaire_df_1917",
      "comments": "760.000 francs, divise en 7.600 actions de 100 francs. A l'origine, 675.000 francs. L’assemblée générale du 4 mai 1907 a autorisé l’augmentation du capital à 800.000 francs, par la création de 1.250 actions nouvelles, sur lesquelles 850 ont été émises en 1909.\n[SOURCE ANNUAIRE DF 1912]\n"
    }
  ],
  "profit_dividends": [
    {
      "first_date": "1904-12-31",
      "last_date": "1916-12-31",
      "obs_count": 62
    }
  ],
  "public_status": false,
  "stock_exchanges": {
    "1": {
      "id": 1,
      "name": "Paris (Official List)",
      "listings_stats": {
        "start_date": "1904-07-15"
      }
    }
  },
  "securities": {
    "40409": {
      "id": 40409,
      "name": "Soustons à Léon (Chemin de fer d'interet local de)",
      "share_type": {
        "id": 1,
        "name": "Stock (Action)"
      },
      "types": [
        {
          "start_date": "1000-01-01",
          "end_date": "3999-12-31",
          "id": 1,
          "name": "UNKNOWN",
          "stock_group": "U"
        }
      ],
      "start_date": "1000-01-01",
      "end_date": "3999-12-31",
      "prices_from": null,
      "prices_to": null,
      "is_mainstock": 0,
      "prices_count": 0
    }
  }
}