{
  "id": 3676,
  "names": [
    "SOCIETE D'APPLICATIONS HYDRAULIQUES",
    "SOCIETE D’APPLICATIONS HYDRAULIQUES",
    "SOCIÉTÉ D'APPLICATIONS HYDRAULIQUES",
    "Société d'Applications Hydrauliques"
  ],
  "name": "SOCIETE D'APPLICATIONS HYDRAULIQUES",
  "balance_sheets": [
    {
      "start_date": "1937-06-30",
      "source": "Annuaire Desfossés 1940",
      "page": null
    },
    {
      "start_date": "1938-06-30",
      "source": "Annuaire Desfossés 1940",
      "page": null
    },
    {
      "start_date": "1939-06-30",
      "source": "Annuaire Desfossés 1945",
      "page": "1536"
    },
    {
      "start_date": "1939-06-30",
      "source": "Annuaire Desfossés 1945",
      "page": "2305"
    },
    {
      "start_date": "1942-06-30",
      "source": "Annuaire Desfossés 1945",
      "page": "2305"
    },
    {
      "start_date": "1942-06-30",
      "source": "Annuaire Desfossés 1945",
      "page": "1536"
    },
    {
      "start_date": "1943-06-30",
      "source": "Annuaire Desfossés 1945",
      "page": "1536"
    },
    {
      "start_date": "1943-06-30",
      "source": "Annuaire Desfossés 1945",
      "page": "2305"
    },
    {
      "start_date": "1944-06-30",
      "source": "Annuaire Desfossés 1948",
      "page": "1675"
    },
    {
      "start_date": "1945-06-30",
      "source": "Annuaire Desfossés 1948",
      "page": "1675"
    },
    {
      "start_date": "1946-06-30",
      "source": "Annuaire Desfossés 1948",
      "page": "1675"
    },
    {
      "start_date": "1947-06-30",
      "source": "Annuaire Desfossés 1948",
      "page": "1675"
    },
    {
      "start_date": "1949-06-30",
      "source": "Annuaire Desfossés 1953",
      "page": "1621"
    },
    {
      "start_date": "1950-06-30",
      "source": "Annuaire Desfossés 1953",
      "page": "1621"
    },
    {
      "start_date": "1951-06-30",
      "source": "Annuaire Desfossés 1953",
      "page": "1621"
    },
    {
      "start_date": "1952-06-30",
      "source": "Annuaire Desfossés 1953",
      "page": "1621"
    }
  ],
  "balance_sheets_stats": {
    "start_date": "1937-06-30",
    "end_date": "1952-06-30"
  },
  "locations_stats": {
    "start_date": "1940-01-01",
    "end_date": "1953-12-31"
  },
  "locations": {
    "Siège social": [
      {
        "location_types_id": 1,
        "location_type": "Siège social",
        "address": "Rue d'anjou, 52",
        "city": "Paris",
        "district": "Paris",
        "country": "France",
        "in_yearbook_from": 1940,
        "in_yearbook_to": 1948
      },
      {
        "location_types_id": 1,
        "location_type": "Siège social",
        "address": "Rue de la baume, 28",
        "city": "Paris",
        "district": "Paris",
        "country": "France",
        "in_yearbook_from": 1953,
        "in_yearbook_to": 1953
      }
    ]
  },
  "persons": [
    {
      "persons_count": 10,
      "yearbook": "Annuaire Desfossés 1940",
      "source": "annuaire_df_1940",
      "page": null
    },
    {
      "persons_count": 2,
      "yearbook": "Annuaire Desfossés 1945",
      "source": "annuaire_df_1945",
      "page": "1536"
    },
    {
      "persons_count": 2,
      "yearbook": "Annuaire Desfossés 1945",
      "source": "annuaire_df_1945",
      "page": "2305"
    },
    {
      "persons_count": 6,
      "yearbook": "Annuaire Desfossés 1948",
      "source": "annuaire_df_1948",
      "page": "1675"
    },
    {
      "persons_count": 12,
      "yearbook": "Annuaire Desfossés 1953",
      "source": "annuaire_df_1953",
      "page": "1621"
    }
  ],
  "persons_stats": {
    "persons_count": 26,
    "start_date": "1940-01-01",
    "end_date": "1953-12-31"
  },
  "yearbooks_ocrs": [
    {
      "source": "annuaire_df_1940",
      "yearbook": "Annuaire Desfossés 1940",
      "page": null
    },
    {
      "source": "annuaire_df_1945",
      "yearbook": "Annuaire Desfossés 1945",
      "page": "2305"
    },
    {
      "source": "annuaire_df_1945",
      "yearbook": "Annuaire Desfossés 1945",
      "page": "1536"
    },
    {
      "source": "annuaire_df_1948",
      "yearbook": "Annuaire Desfossés 1948",
      "page": "1675"
    },
    {
      "source": "annuaire_df_1953",
      "yearbook": "Annuaire Desfossés 1953",
      "page": "1621"
    }
  ],
  "juridical_status": [
    {
      "juridical_status": "Société Anonyme (Libre)",
      "start_date": "1929-01-01",
      "end_date": "2028-03-15",
      "comments": "société constituée en 1929 pour 99 ans",
      "source": "annuaire_df_1940"
    }
  ],
  "equity_capital": [
    {
      "amount": "2.000.000",
      "currency": "Franc",
      "infodate": "1929-01-01",
      "source": "annuaire_df_1940",
      "comments": " A l’origine 2 millions"
    },
    {
      "amount": "28.500.000",
      "currency": "Franc",
      "infodate": "1936-01-01",
      "source": "annuaire_df_1940",
      "comments": "28.500.000 francs divisé en 114.000 actions de 250 francs, dont 56.000 étions A et 58.000 actions B. A l’origine 2 millions, porté en 1936 à 28.500.000 francs >ar l’émission de 106.000 actions nouvelles dont 48.000 actions A et 58.000 actions B. oétions anciennes ont été dénommées actions A)."
    },
    {
      "amount": "57.000.000",
      "currency": "Franc",
      "infodate": "1946-01-01",
      "source": "annuaire_df_1948",
      "comments": "150 millions de francs divisé en 600.000 actions de 250 fr. A l'origine 2 millions, porté en 1936 à 28.500.000 fr. par l'émission de 106.000 actions nouvelles dont 48.000 actions A et 58.000 actions B. (Les actions anciennes ont été dénommées actions A). Porté en 1946 à 57 millions par l'émission à 438 fr. de 114.000 actions B de 250 fi'ancs. Ramené en 1946 à 50 millions par unification des actions. Porté en 1948 à 150 millions par l'émission à 3Ô0 fr. de 400.000 actions nouvelles de 250 fr. (2 nouv. pour 1 âne.)."
    },
    {
      "amount": "50.000.000",
      "currency": "Franc",
      "infodate": "1946-01-01",
      "source": "annuaire_df_1948",
      "comments": "150 millions de francs divisé en 600.000 actions de 250 fr. A l'origine 2 millions, porté en 1936 à 28.500.000 fr. par l'émission de 106.000 actions nouvelles dont 48.000 actions A et 58.000 actions B. (Les actions anciennes ont été dénommées actions A). Porté en 1946 à 57 millions par l'émission à 438 fr. de 114.000 actions B de 250 fi'ancs. Ramené en 1946 à 50 millions par unification des actions. Porté en 1948 à 150 millions par l'émission à 3Ô0 fr. de 400.000 actions nouvelles de 250 fr. (2 nouv. pour 1 âne.)."
    },
    {
      "amount": "150.000.000",
      "currency": "Franc",
      "infodate": "1948-01-01",
      "source": "annuaire_df_1948",
      "comments": "150 millions de francs divisé en 600.000 actions de 250 fr. A l'origine 2 millions, porté en 1936 à 28.500.000 fr. par l'émission de 106.000 actions nouvelles dont 48.000 actions A et 58.000 actions B. (Les actions anciennes ont été dénommées actions A). Porté en 1946 à 57 millions par l'émission à 438 fr. de 114.000 actions B de 250 fi'ancs. Ramené en 1946 à 50 millions par unification des actions. Porté en 1948 à 150 millions par l'émission à 3Ô0 fr. de 400.000 actions nouvelles de 250 fr. (2 nouv. pour 1 âne.)."
    },
    {
      "amount": "300.000.000",
      "currency": "Franc",
      "infodate": "1949-01-01",
      "source": "annuaire_df_1953",
      "comments": "300 millions de fr., divisé en 60.000 actions de 5.000 fr. "
    },
    {
      "amount": "300.000.000",
      "currency": "Franc",
      "infodate": "1952-03-03",
      "source": "annuaire_df_1953",
      "comments": "Split : Porté en 1936 à 2.500.000 fr. par l'émission de 106.000 actions nouvelles, dont 4S.000 actions A et 58.000 actions B. (Les actions anciennes ont été dénommées actions A.) Porté en 1946 à 57 millions par l'émission à 438 fr. de 114.000 actions B dè 250 fr. Ramené en 1946 à 50 millions par unification des actions. Porté en 1948 à 150 millions par l'émission à 300 fr. de 400.000 actions nouvelles\tde 250\tfr. (2 nouv. pour 1 anc. ). Porté\ten 1949 à 300 millions par élévation du\tnominal de 250 à\t500 fr.\tRegroupement en titres de 5.000\tfr. à partir- du 3 mars 1952."
    }
  ],
  "profit_dividends": [
    {
      "first_date": "1936-06-30",
      "last_date": "1952-06-30",
      "obs_count": 144
    }
  ],
  "public_status": false,
  "stock_exchanges": {
    "1": {
      "id": 1,
      "name": "Paris (Official List)",
      "listings_stats": {
        "start_date": "1937-11-29"
      },
      "spot_prices_stats": {
        "start_date": "1937-11-29",
        "end_date": "1976-12-31"
      }
    }
  },
  "securities": {
    "11125": {
      "id": 11125,
      "name": "Applications Hydrauliques, actions 250 fr., tout payé",
      "share_type": {
        "id": 1,
        "name": "Stock (Action)"
      },
      "types": [
        {
          "start_date": "1937-11-29",
          "end_date": "3999-12-31",
          "id": 34,
          "name": "Action B",
          "stock_group": "S"
        }
      ],
      "start_date": "1937-11-29",
      "end_date": "3999-12-31",
      "prices_from": "1937-11-29",
      "prices_to": "1952-08-18",
      "is_mainstock": 1,
      "prices_count": 334
    },
    "12298": {
      "id": 12298,
      "name": "Applications Hydrauliques 3,75% 1945, remboursables à 5000 fr. 1946-75",
      "share_type": {
        "id": 2,
        "name": "Bond (Obligation)"
      },
      "types": [
        {
          "start_date": "1946-03-29",
          "end_date": "3999-12-31",
          "id": 1001,
          "name": "Obligation ordinaire ou classique",
          "stock_group": "B"
        }
      ],
      "start_date": "1946-03-29",
      "end_date": "3999-12-31",
      "prices_from": "1946-04-05",
      "prices_to": "1969-03-17",
      "is_mainstock": 0,
      "prices_count": 562
    },
    "12722": {
      "id": 12722,
      "name": "Applications Hydrauliques 4,5%, remb. À 5000 fr. 1948-77",
      "share_type": {
        "id": 2,
        "name": "Bond (Obligation)"
      },
      "types": [
        {
          "start_date": "1947-09-25",
          "end_date": "3999-12-31",
          "id": 1001,
          "name": "Obligation ordinaire ou classique",
          "stock_group": "B"
        }
      ],
      "start_date": "1947-09-25",
      "end_date": "3999-12-31",
      "prices_from": "1947-09-30",
      "prices_to": "1969-03-17",
      "is_mainstock": 0,
      "prices_count": 529
    },
    "14419": {
      "id": 14419,
      "name": "Applications Hydrauliques, act.",
      "share_type": {
        "id": 1,
        "name": "Stock (Action)"
      },
      "types": [
        {
          "start_date": "1952-03-03",
          "end_date": "3999-12-31",
          "id": 11,
          "name": "Action ordinaire",
          "stock_group": "S"
        }
      ],
      "start_date": "1952-03-03",
      "end_date": "3999-12-31",
      "prices_from": "1952-03-03",
      "prices_to": "1976-12-31",
      "is_mainstock": 0,
      "prices_count": 632
    },
    "15334": {
      "id": 15334,
      "name": "Applications Hydrauliques, Promesses, (Jce 1/7/56)",
      "share_type": {
        "id": 1,
        "name": "Stock (Action)"
      },
      "types": [
        {
          "start_date": "1956-10-22",
          "end_date": "3999-12-31",
          "id": 27,
          "name": "Promesse d'action",
          "stock_group": "S"
        }
      ],
      "start_date": "1956-10-22",
      "end_date": "3999-12-31",
      "prices_from": "1956-10-22",
      "prices_to": "1957-01-31",
      "is_mainstock": 0,
      "prices_count": 8
    },
    "100504": {
      "id": 100504,
      "name": "Act. Applications Hydrauliques (droit et coupon 10 ou bon de droit)",
      "share_type": {
        "id": 4,
        "name": "Rights (Droits)"
      },
      "types": [
        {
          "start_date": "1945-12-28",
          "end_date": "1946-01-25",
          "id": 501,
          "name": "Droit de souscription",
          "stock_group": "R"
        }
      ],
      "start_date": "1945-12-28",
      "end_date": "1946-01-25",
      "prices_from": "1945-12-28",
      "prices_to": "1946-01-15",
      "is_mainstock": 0,
      "prices_count": 2
    },
    "100857": {
      "id": 100857,
      "name": "Applications Hydrauliques (droit et coupon 13). 2 act. nouv. émises à 300 fr. pour 1 act. Anc.",
      "share_type": {
        "id": 4,
        "name": "Rights (Droits)"
      },
      "types": [
        {
          "start_date": "1948-01-15",
          "end_date": "3999-12-31",
          "id": 501,
          "name": "Droit de souscription",
          "stock_group": "R"
        }
      ],
      "start_date": "1948-01-15",
      "end_date": "3999-12-31",
      "prices_from": "1948-01-16",
      "prices_to": "1948-01-16",
      "is_mainstock": 0,
      "prices_count": 1
    },
    "104675": {
      "id": 104675,
      "name": "Act. Application Hydrauliques ( droit et coupon 10 ou bon de droit)",
      "share_type": {
        "id": 5,
        "name": "Droits de souscription"
      },
      "types": [
        {
          "start_date": "1946-01-21",
          "end_date": "1946-02-10",
          "id": 501,
          "name": "Droit de souscription",
          "stock_group": "R"
        }
      ],
      "start_date": "1946-01-21",
      "end_date": "1946-02-10",
      "prices_from": "1946-01-31",
      "prices_to": "1946-01-31",
      "is_mainstock": 0,
      "prices_count": 1
    },
    "104676": {
      "id": 104676,
      "name": "Applicat. Hydraul. C. 10.",
      "share_type": {
        "id": 8,
        "name": "Droit d'attribution"
      },
      "types": [
        {
          "start_date": "1946-02-05",
          "end_date": "1946-03-11",
          "id": 502,
          "name": "Droit d'attribution",
          "stock_group": "R"
        }
      ],
      "start_date": "1946-02-05",
      "end_date": "1946-03-11",
      "prices_from": "1946-02-15",
      "prices_to": "1946-03-01",
      "is_mainstock": 0,
      "prices_count": 2
    },
    "106158": {
      "id": 106158,
      "name": "Applications Hydrauliques, Promesses (Jce 1/7/58)",
      "share_type": {
        "id": 1,
        "name": "Stock (Action)"
      },
      "types": [
        {
          "start_date": "1959-02-16",
          "end_date": "1959-04-15",
          "id": 27,
          "name": "Promesse d'action",
          "stock_group": "S"
        }
      ],
      "start_date": "1959-02-16",
      "end_date": "1959-04-15",
      "prices_from": "1959-03-02",
      "prices_to": "1959-04-15",
      "is_mainstock": 0,
      "prices_count": 4
    },
    "106159": {
      "id": 106159,
      "name": "Auxiliaire de Navigation, act. Promesses (Jce 1/1/59)",
      "share_type": {
        "id": 1,
        "name": "Stock (Action)"
      },
      "types": [
        {
          "start_date": "1959-03-31",
          "end_date": "1959-06-15",
          "id": 27,
          "name": "Promesse d'action",
          "stock_group": "S"
        }
      ],
      "start_date": "1959-03-31",
      "end_date": "1959-06-15",
      "prices_from": "1959-02-16",
      "prices_to": "1959-06-15",
      "is_mainstock": 0,
      "prices_count": 7
    }
  }
}