{
  "id": 13187,
  "names": [
    "Caisse de prets pour les chefs d'ateliers et les fabricants d'étoffes de soie",
    "Caisse de prets pour les chefs d'étoffes de soie"
  ],
  "name": "Caisse de prets pour les chefs d'étoffes de soie",
  "balance_sheets": [],
  "balance_sheets_stats": {
    "start_date": null,
    "end_date": null
  },
  "locations_stats": {
    "start_date": null,
    "end_date": null
  },
  "locations": {},
  "persons": [],
  "persons_stats": {
    "persons_count": 0,
    "start_date": null,
    "end_date": null
  },
  "yearbooks_ocrs": [],
  "juridical_status": [],
  "equity_capital": [],
  "profit_dividends": [],
  "public_status": false
}