{
  "id": 2871,
  "names": [
    "COMPAGNIE DES PHOSPHATES DU DYR",
    "COMPAGNIE DU DYR (Produits Chimiques et Mines)",
    "Compagnie des Phosphates du Dyr"
  ],
  "name": "COMPAGNIE DES PHOSPHATES DU DYR",
  "balance_sheets": [
    {
      "start_date": "1910-12-31",
      "source": "Annuaire Desfossés 1912",
      "page": "877"
    },
    {
      "start_date": "1912-12-31",
      "source": "Annuaire Desfossés 1914",
      "page": "936"
    },
    {
      "start_date": "1915-12-31",
      "source": "Annuaire Desfossés 1917",
      "page": "854"
    },
    {
      "start_date": "1919-12-31",
      "source": "Annuaire Desfossés 1920",
      "page": "927"
    },
    {
      "start_date": "1921-12-31",
      "source": "Annuaire Desfossés 1923",
      "page": "1036"
    },
    {
      "start_date": "1923-12-31",
      "source": "Annuaire Desfossés 1925",
      "page": "1233"
    },
    {
      "start_date": "1925-12-31",
      "source": "Annuaire Desfossés 1927",
      "page": "998"
    },
    {
      "start_date": "1927-12-31",
      "source": "Annuaire Desfossés 1929",
      "page": "1055"
    },
    {
      "start_date": "1929-12-31",
      "source": "Annuaire Desfossés 1931",
      "page": "1079"
    },
    {
      "start_date": "1931-12-31",
      "source": "Annuaire Desfossés 1933",
      "page": "1118"
    },
    {
      "start_date": "1935-12-31",
      "source": "Annuaire Desfossés 1940",
      "page": null
    },
    {
      "start_date": "1936-12-31",
      "source": "Annuaire Desfossés 1945",
      "page": "1593"
    },
    {
      "start_date": "1937-12-31",
      "source": "Annuaire Desfossés 1945",
      "page": "1593"
    },
    {
      "start_date": "1941-12-31",
      "source": "Annuaire Desfossés 1945",
      "page": "1593"
    },
    {
      "start_date": "1942-12-31",
      "source": "Annuaire Desfossés 1945",
      "page": "1593"
    },
    {
      "start_date": "1944-12-31",
      "source": "Annuaire Desfossés 1948",
      "page": "1861"
    },
    {
      "start_date": "1945-12-31",
      "source": "Annuaire Desfossés 1948",
      "page": "1861"
    },
    {
      "start_date": "1946-12-31",
      "source": "Annuaire Desfossés 1948",
      "page": "1861"
    },
    {
      "start_date": "1947-12-31",
      "source": "Annuaire Desfossés 1948",
      "page": "1861"
    },
    {
      "start_date": "1948-12-31",
      "source": "Annuaire Desfossés 1953",
      "page": "1454"
    },
    {
      "start_date": "1949-12-31",
      "source": "Annuaire Desfossés 1953",
      "page": "1454"
    },
    {
      "start_date": "1950-12-31",
      "source": "Annuaire Desfossés 1953",
      "page": "1454"
    }
  ],
  "balance_sheets_stats": {
    "start_date": "1910-12-31",
    "end_date": "1950-12-31"
  },
  "locations_stats": {
    "start_date": "1903-01-01",
    "end_date": "1953-12-31"
  },
  "locations": {
    "Siège social": [
      {
        "location_types_id": 1,
        "location_type": "Siège social",
        "address": "Rue des capucines, 11",
        "city": "Paris",
        "district": "Paris",
        "country": "France",
        "in_yearbook_from": 1903,
        "in_yearbook_to": 1908
      },
      {
        "location_types_id": 1,
        "location_type": "Siège social",
        "address": "Rue louis-le-grand, 22",
        "city": "Paris",
        "district": "Paris",
        "country": "France",
        "in_yearbook_from": 1912,
        "in_yearbook_to": 1914
      },
      {
        "location_types_id": 1,
        "location_type": "Siège social",
        "address": "Rue d'anjou, 50",
        "city": "Paris",
        "district": "Paris",
        "country": "France",
        "in_yearbook_from": 1917,
        "in_yearbook_to": 1937
      },
      {
        "location_types_id": 1,
        "location_type": "Siège social",
        "address": "Rue de la chaise, 10",
        "city": "Paris",
        "district": "Paris",
        "country": "France",
        "in_yearbook_from": 1940,
        "in_yearbook_to": 1953
      }
    ],
    "Mines / Carrières / Pétrole / Gaz": [
      {
        "location_types_id": 7,
        "location_type": "Mines / Carrières / Pétrole / Gaz",
        "address": "Tebessa",
        "city": "Tebessa",
        "district": null,
        "country": "Algérie",
        "in_yearbook_from": 1912,
        "in_yearbook_to": 1912
      },
      {
        "location_types_id": 7,
        "location_type": "Mines / Carrières / Pétrole / Gaz",
        "address": null,
        "city": "Kalaa-es-Senam",
        "district": null,
        "country": "Tunisie",
        "in_yearbook_from": 1912,
        "in_yearbook_to": 1912
      }
    ]
  },
  "persons": [
    {
      "persons_count": 2,
      "yearbook": "Annuaire de la Compagnie des Agents de Change 1903",
      "source": "annuaire_cac_1903",
      "page": "2007"
    },
    {
      "persons_count": 6,
      "yearbook": "Annuaire de la Compagnie des Agents de Change 1908",
      "source": "annuaire_cac_1908",
      "page": "1697"
    },
    {
      "persons_count": 2,
      "yearbook": "Annuaire Desfossés 1917",
      "source": "annuaire_df_1917",
      "page": "854"
    },
    {
      "persons_count": 6,
      "yearbook": "Annuaire Desfossés 1927",
      "source": "annuaire_df_1927",
      "page": "998"
    },
    {
      "persons_count": 4,
      "yearbook": "Annuaire Desfossés 1933",
      "source": "annuaire_df_1933",
      "page": "1118"
    },
    {
      "persons_count": 7,
      "yearbook": "Annuaire Desfossés 1940",
      "source": "annuaire_df_1940",
      "page": null
    },
    {
      "persons_count": 3,
      "yearbook": "Annuaire Desfossés 1945",
      "source": "annuaire_df_1945",
      "page": "1593"
    },
    {
      "persons_count": 8,
      "yearbook": "Annuaire Desfossés 1948",
      "source": "annuaire_df_1948",
      "page": "1861"
    },
    {
      "persons_count": 7,
      "yearbook": "Annuaire Desfossés 1953",
      "source": "annuaire_df_1953",
      "page": "1454"
    }
  ],
  "persons_stats": {
    "persons_count": 36,
    "start_date": "1903-01-01",
    "end_date": "1953-12-31"
  },
  "yearbooks_ocrs": [
    {
      "source": "annuaire_cac_1903",
      "yearbook": "Annuaire de la Compagnie des Agents de Change 1903",
      "page": "2007"
    },
    {
      "source": "annuaire_cac_1908",
      "yearbook": "Annuaire de la Compagnie des Agents de Change 1908",
      "page": "1697"
    },
    {
      "source": "annuaire_df_1912",
      "yearbook": "Annuaire Desfossés 1912",
      "page": "877"
    },
    {
      "source": "annuaire_df_1914",
      "yearbook": "Annuaire Desfossés 1914",
      "page": "936"
    },
    {
      "source": "annuaire_df_1917",
      "yearbook": "Annuaire Desfossés 1917",
      "page": "854"
    },
    {
      "source": "annuaire_df_1920",
      "yearbook": "Annuaire Desfossés 1920",
      "page": "927"
    },
    {
      "source": "annuaire_df_1923",
      "yearbook": "Annuaire Desfossés 1923",
      "page": "1036"
    },
    {
      "source": "annuaire_df_1925",
      "yearbook": "Annuaire Desfossés 1925",
      "page": "1233"
    },
    {
      "source": "annuaire_df_1927",
      "yearbook": "Annuaire Desfossés 1927",
      "page": "998"
    },
    {
      "source": "annuaire_df_1929",
      "yearbook": "Annuaire Desfossés 1929",
      "page": "1055"
    },
    {
      "source": "annuaire_df_1931",
      "yearbook": "Annuaire Desfossés 1931",
      "page": "1079"
    },
    {
      "source": "annuaire_df_1933",
      "yearbook": "Annuaire Desfossés 1933",
      "page": "1118"
    },
    {
      "source": "annuaire_df_1937",
      "yearbook": "Annuaire Desfossés 1937",
      "page": "1263"
    },
    {
      "source": "annuaire_df_1940",
      "yearbook": "Annuaire Desfossés 1940",
      "page": null
    },
    {
      "source": "annuaire_df_1945",
      "yearbook": "Annuaire Desfossés 1945",
      "page": "1593"
    },
    {
      "source": "annuaire_df_1948",
      "yearbook": "Annuaire Desfossés 1948",
      "page": "1861"
    },
    {
      "source": "annuaire_df_1953",
      "yearbook": "Annuaire Desfossés 1953",
      "page": "1454"
    }
  ],
  "juridical_status": [
    {
      "juridical_status": "Société Anonyme (Libre)",
      "start_date": "1899-06-27",
      "end_date": "1949-06-27",
      "comments": "Sociétéanonyme formée suivant acte reçu par Me Dufour, notaire à  Paris le 21 juin 1899, et définitivement constituée le 27 du même mois,",
      "source": "annuaire_cac_1903"
    },
    {
      "juridical_status": "Société Anonyme (Libre)",
      "start_date": "1949-06-28",
      "end_date": "2042-06-26",
      "comments": "Société anonyme française, constituée Je. 27 juin 1899, pour une durée de 50 ans, prorogée jusqu'au 26 juin 2042.",
      "source": "annuaire_df_1948"
    }
  ],
  "equity_capital": [
    {
      "amount": "5.000.000",
      "currency": "Franc",
      "infodate": "1899-06-27",
      "source": "annuaire_cac_1903",
      "comments": "5 millions de francs divisé en 50,000 actions de !(r., émises au pair, entièrement libérées et au porteur. Le dividende se paye en une seule fois, le lor août."
    },
    {
      "amount": "7.500.000",
      "currency": "Franc",
      "infodate": "1926-09-01",
      "source": "annuaire_df_1927",
      "comments": "7.500.000 francs, divisé en 75.000 actions de 100 francs. A l’origine, 5 millions en 50.000 actions de 100 francs; porté à 7.500.000 francs en septembre 1926 par la création de 25.000 actions nouvelles (1 nouvelle pour 2 anciennes)."
    },
    {
      "amount": "2.500.000",
      "currency": "Franc",
      "infodate": "1937-07-01",
      "source": "annuaire_df_1940",
      "comments": "2.500.000 francs, divisé en 25.000 actions de 100 francs. A l’origine 5 millions en 50.000 actions de 100 francs; porté à 7.500.000 francs en sep. tembre 1926. Réduit à 2.500.000 en juillet 1937 par l’échange de 3 actions anciennes de 100 francs contre un nouvelle de même nominal. Autorisation d’augmentation jusqu’à 25.000.000.\tif!"
    },
    {
      "amount": "10.000.000",
      "currency": "Franc",
      "infodate": "1943-01-01",
      "source": "annuaire_df_1945",
      "comments": "30 millions de francs, divisé en 300.000 actions de 100 fr. A l’origine 5 millions, en 50.000 actions de 100 fr..; porté à 7.500.000 fr. en septembre 1926.; réduit à 2.500.000 fr. en juillet 1937. Porté à 10 millions en 1943 par l’émission au .pair, de 75.000 actions de 100, fr. (3 nuouvelles pour une ancienne) ; porté à 30 millions en 1944 par l’émission à 105 fr. de 200.000 actions de 100 fr. (2 nouvelles pour une ancienne)."
    },
    {
      "amount": "30.000.000",
      "currency": "Franc",
      "infodate": "1944-01-01",
      "source": "annuaire_df_1945",
      "comments": " 30 millions de francs, divisé en 300.000 actions de 100 fr. A l’origine 5 millions, en 50.000 actions de 100 fr..; porté à 7.500.000 fr. en septembre 1926.; réduit à 2.500.000 fr. en juillet 1937. Porté à 10 millions en 1943 par l’émission au .pair, de 75.000 actions de 100, fr. (3 nuouvelles pour une ancienne) ; porté à 30 millions en 1944 par l’émission à 105 fr. de 200.000 actions de 100 fr. (2 nouvelles pour une ancienne)"
    },
    {
      "amount": "31.578.900",
      "currency": "Franc",
      "infodate": "1946-01-01",
      "source": "annuaire_df_1948",
      "comments": " Porté en 1946 à 31.578.900 fr. pour le règlement de l'impôt de solidarité nationale, puis à 40.229.500 fr. par émission d'actions réservées aux actionnaires empêchés.."
    },
    {
      "amount": "40.229.500",
      "currency": "Franc",
      "infodate": "1946-01-02",
      "source": "annuaire_df_1948",
      "comments": " Porté en 1946 à 31.578.900 fr. pour le règlement de l'impôt de solidarité nationale, puis à 40.229.500 fr. par émission d'actions réservées aux actionnaires empêchés.."
    },
    {
      "amount": "42.500.000",
      "currency": "Franc",
      "infodate": "1947-01-01",
      "source": "annuaire_df_1948",
      "comments": "67.500.000 francs, divisé en 475.000 actions dont 425.000 de 100 fr. et 50.000 de 500 fr. A l'origine 5 millions en -50.000 actions de 100 fr. ; porté à 7.500.000 fr. en septembre 1926 ; réduit à 2.500.000 fr. en juillet 1937. Porté à 10 millions en 1943 par l'émission au pair de 75.000 actions de 100.fr. (3 nouvelles pour une ancienne) ; porté à 30 millions en 1944 par l'émission à 105 fr. de 200.000 actions de 100 fr. (2 nouvelles pour 1 ancienne).' Porté en 1946 à 31.578.900 fr. pour le règlement de l'impôt de solidarité nationale, puis à 40.229.500 fr. par émission d'actions réservées aux actionnaires empêchés.. Porté en 1947 à 42.500.000 (actionnaires empêchés) puis en 1948 à 67.500.000 fr. par l'émission de 50.000 actions nouvelles de 500 fr. (2 nouvelles de 500 fr. pour 17 anciennes de 100 fr.) ."
    },
    {
      "amount": "67.500.000",
      "currency": "Franc",
      "infodate": "1948-01-01",
      "source": "annuaire_df_1948",
      "comments": "67.500.000 francs, divisé en 475.000 actions dont 425.000 de 100 fr. et 50.000 de 500 fr. A l'origine 5 millions en -50.000 actions de 100 fr. ; porté à 7.500.000 fr. en septembre 1926 ; réduit à 2.500.000 fr. en juillet 1937. Porté à 10 millions en 1943 par l'émission au pair de 75.000 actions de 100.fr. (3 nouvelles pour une ancienne) ; porté à 30 millions en 1944 par l'émission à 105 fr. de 200.000 actions de 100 fr. (2 nouvelles pour 1 ancienne).' Porté en 1946 à 31.578.900 fr. pour le règlement de l'impôt de solidarité nationale, puis à 40.229.500 fr. par émission d'actions réservées aux actionnaires empêchés.. Porté en 1947 à 42.500.000 (actionnaires empêchés) puis en 1948 à 67.500.000 fr. par l'émission de 50.000 actions nouvelles de 500 fr. (2 nouvelles de 500 fr. pour 17 anciennes de 100 fr.) ."
    },
    {
      "amount": "236.250.000",
      "currency": "Franc",
      "infodate": "1948-01-02",
      "source": "annuaire_df_1953",
      "comments": "236.250.000 fr., divisé en 94.500 actions de 2.500 fr. A l'origine, 5 millions en 50.000 actions de 100 fr. ; porté à 7.500.000 fr.\ten septembre 1926 ;\tréduit à 2.500.000\tfr,\ten juillet 1937. Porté d 10 millions en 1943 par l'émission au pair de 75.000\tactions de 100 fr.\t(3\tnouvelles pour une anoienne) ; porté à 30 millions en 1944 par l'émission à 105 fr. de 200.000 . actions de 100 fr. (2 nouvelles pour 1 ancienne). Porté en 1946 à 31.578,900 fr. pour le règlement de l'impôt de solidarité nationale, puis à 40.229.500 fr. par émission d'actions réservées aux actionnaires empêchés. Porté en 1947 à 42.500.000 (actionnaires empêchés) puis en 1948 à 67.500.00Q fr. par l'émission de 50.000 actions nouvelles de 500 fr. (2\tnouvelles de 500 fr.\tpour 17 anciennes\tde\t100 fr.). Porté en 1948 à 236.250.000 fr. par l'émission\tà 525 fr. de 337.5Q0\tactions de 500 fr,\t(5\tnouvelles pour 2 anciennes de 500 fr. ou 10 de 100 fr.). En 1949, le capital a été porté à 500 millions, puis les actions ont été regroupées en 2.500 fr. à partir du 24 avril 1950. L'augmentation de capital de 263.750,000 fr. a été annulée par 'jugement du 17 janvier 1951,"
    },
    {
      "amount": "500.000.000",
      "currency": "Franc",
      "infodate": "1949-01-01",
      "source": "annuaire_df_1953",
      "comments": "236.250.000 fr., divisé en 94.500 actions de 2.500 fr. A l'origine, 5 millions en 50.000 actions de 100 fr. ; porté à 7.500.000 fr.\ten septembre 1926 ;\tréduit à 2.500.000\tfr,\ten juillet 1937. Porté d 10 millions en 1943 par l'émission au pair de 75.000\tactions de 100 fr.\t(3\tnouvelles pour une anoienne) ; porté à 30 millions en 1944 par l'émission à 105 fr. de 200.000 . actions de 100 fr. (2 nouvelles pour 1 ancienne). Porté en 1946 à 31.578,900 fr. pour le règlement de l'impôt de solidarité nationale, puis à 40.229.500 fr. par émission d'actions réservées aux actionnaires empêchés. Porté en 1947 à 42.500.000 (actionnaires empêchés) puis en 1948 à 67.500.00Q fr. par l'émission de 50.000 actions nouvelles de 500 fr. (2\tnouvelles de 500 fr.\tpour 17 anciennes\tde\t100 fr.). Porté en 1948 à 236.250.000 fr. par l'émission\tà 525 fr. de 337.5Q0\tactions de 500 fr,\t(5\tnouvelles pour 2 anciennes de 500 fr. ou 10 de 100 fr.). En 1949, le capital a été porté à 500 millions, puis les actions ont été regroupées en 2.500 fr. à partir du 24 avril 1950. L'augmentation de capital de 263.750,000 fr. a été annulée par 'jugement du 17 janvier 1951,"
    }
  ],
  "profit_dividends": [
    {
      "first_date": "1899-12-31",
      "last_date": "1951-12-31",
      "obs_count": 272
    }
  ],
  "public_status": false,
  "stock_exchanges": {
    "1": {
      "id": 1,
      "name": "Paris (Official List)",
      "listings_stats": {
        "start_date": "1900-03-26"
      },
      "spot_prices_stats": {
        "start_date": "1900-03-26",
        "end_date": "1953-11-30"
      }
    }
  },
  "securities": {
    "4894": {
      "id": 4894,
      "name": "Phosphates du Dyr, act. 100 fr., tout payé",
      "share_type": {
        "id": 1,
        "name": "Stock (Action)"
      },
      "types": [
        {
          "start_date": "1900-03-26",
          "end_date": "3999-12-31",
          "id": 18,
          "name": "Action",
          "stock_group": "S"
        }
      ],
      "start_date": "1900-03-26",
      "end_date": "3999-12-31",
      "prices_from": "1900-03-26",
      "prices_to": "1952-02-29",
      "is_mainstock": 1,
      "prices_count": 1550
    },
    "5003": {
      "id": 5003,
      "name": "Phosphates du Dyr 4,5%, remb. à 500 fr.",
      "share_type": {
        "id": 2,
        "name": "Bond (Obligation)"
      },
      "types": [
        {
          "start_date": "1900-03-26",
          "end_date": "3999-12-31",
          "id": 1001,
          "name": "Obligation ordinaire ou classique",
          "stock_group": "B"
        }
      ],
      "start_date": "1900-03-26",
      "end_date": "3999-12-31",
      "prices_from": "1900-03-26",
      "prices_to": "1910-12-15",
      "is_mainstock": 0,
      "prices_count": 57
    },
    "12910": {
      "id": 12910,
      "name": "Phosphates du Dyr, A. 100 f., t.p. (n°s 322144 à 425000)",
      "share_type": {
        "id": 1,
        "name": "Stock (Action)"
      },
      "types": [
        {
          "start_date": "1948-05-25",
          "end_date": "3999-12-31",
          "id": 18,
          "name": "Action",
          "stock_group": "S"
        }
      ],
      "start_date": "1948-05-25",
      "end_date": "3999-12-31",
      "prices_from": "1948-05-28",
      "prices_to": "1948-07-30",
      "is_mainstock": 0,
      "prices_count": 8
    },
    "12957": {
      "id": 12957,
      "name": "Dyr, Produits Chimiques et Mines (Cie du), Actions 500 fr., tout payé (n°s 425001 à 685169)",
      "share_type": {
        "id": 1,
        "name": "Stock (Action)"
      },
      "types": [
        {
          "start_date": "1948-09-30",
          "end_date": "3999-12-31",
          "id": 18,
          "name": "Action",
          "stock_group": "S"
        }
      ],
      "start_date": "1948-09-30",
      "end_date": "3999-12-31",
      "prices_from": "1948-09-30",
      "prices_to": "1952-02-29",
      "is_mainstock": 0,
      "prices_count": 94
    },
    "13710": {
      "id": 13710,
      "name": "Dyr, Produits Chimiques et Mines (Cie du), Act. 500 fr. (n°s 685170 à 812500) lib. Sur appel en avril 1949",
      "share_type": {
        "id": 1,
        "name": "Stock (Action)"
      },
      "types": [
        {
          "start_date": "1950-06-09",
          "end_date": "3999-12-31",
          "id": 18,
          "name": "Action",
          "stock_group": "S"
        }
      ],
      "start_date": "1950-06-09",
      "end_date": "3999-12-31",
      "prices_from": "1950-06-12",
      "prices_to": "1951-06-15",
      "is_mainstock": 0,
      "prices_count": 22
    },
    "14234": {
      "id": 14234,
      "name": "Dyr, Produits Chimiques et Mines (Cie du), act. 2500 fr., t. p. (c. 12 att.)",
      "share_type": {
        "id": 1,
        "name": "Stock (Action)"
      },
      "types": [
        {
          "start_date": "1951-06-18",
          "end_date": "3999-12-31",
          "id": 11,
          "name": "Action ordinaire",
          "stock_group": "S"
        }
      ],
      "start_date": "1951-06-18",
      "end_date": "3999-12-31",
      "prices_from": "1951-06-18",
      "prices_to": "1953-11-30",
      "is_mainstock": 0,
      "prices_count": 63
    },
    "100880": {
      "id": 100880,
      "name": "Phosphates du Dyr (Cie des) (droit et coupon 10). 2 a. nouv. 500 f. émises à 500 f. pr 17 a. anc. 100 f.",
      "share_type": {
        "id": 4,
        "name": "Rights (Droits)"
      },
      "types": [
        {
          "start_date": "1948-02-26",
          "end_date": "3999-12-31",
          "id": 501,
          "name": "Droit de souscription",
          "stock_group": "R"
        }
      ],
      "start_date": "1948-02-26",
      "end_date": "3999-12-31",
      "prices_from": "1948-02-26",
      "prices_to": "1948-02-26",
      "is_mainstock": 0,
      "prices_count": 1
    },
    "100999": {
      "id": 100999,
      "name": "Act. 100 f. Phosphates du Dyr (dr. et c. 11) (5 a. nouv. de 500 fr. émises à 525 fr. pour 10 act. anc.)",
      "share_type": {
        "id": 4,
        "name": "Rights (Droits)"
      },
      "types": [
        {
          "start_date": "1948-11-24",
          "end_date": "3999-12-31",
          "id": 501,
          "name": "Droit de souscription",
          "stock_group": "R"
        }
      ],
      "start_date": "1948-11-24",
      "end_date": "3999-12-31",
      "prices_from": "1948-11-25",
      "prices_to": "1948-12-01",
      "is_mainstock": 0,
      "prices_count": 1
    },
    "101000": {
      "id": 101000,
      "name": "Act. 500 f. Phosphates du Dyr (dr. et c. 11) (5 a. nouv. de 500 fr. émises à 525 fr. pour 2 act. anc.)",
      "share_type": {
        "id": 4,
        "name": "Rights (Droits)"
      },
      "types": [
        {
          "start_date": "1948-11-24",
          "end_date": "3999-12-31",
          "id": 501,
          "name": "Droit de souscription",
          "stock_group": "R"
        }
      ],
      "start_date": "1948-11-24",
      "end_date": "3999-12-31",
      "prices_from": "1948-11-25",
      "prices_to": "1948-12-01",
      "is_mainstock": 0,
      "prices_count": 1
    },
    "101644": {
      "id": 101644,
      "name": "Act. PHOSPHATES DU DYR (dr. et coup. 8). Pour 1 action ancienne, 3 actions nouvelles émises à 100 francs",
      "share_type": {
        "id": 4,
        "name": "Rights (Droits)"
      },
      "types": [
        {
          "start_date": "1942-11-11",
          "end_date": "1943-12-11",
          "id": 501,
          "name": "Droit de souscription",
          "stock_group": "R"
        }
      ],
      "start_date": "1942-11-11",
      "end_date": "1943-12-11",
      "prices_from": "1942-11-12",
      "prices_to": "1942-12-15",
      "is_mainstock": 0,
      "prices_count": 3
    },
    "102862": {
      "id": 102862,
      "name": "Act. 1 à 100000. PHOSPHATES DU DYR (droit et coupon 9 ou bon de droit). Pour 1 act. ancienne, 2 actions nouvelles émises à 105 francs",
      "share_type": {
        "id": 4,
        "name": "Rights (Droits)"
      },
      "types": [
        {
          "start_date": "1944-01-26",
          "end_date": "1945-03-01",
          "id": 501,
          "name": "Droit de souscription",
          "stock_group": "R"
        }
      ],
      "start_date": "1944-01-26",
      "end_date": "1945-03-01",
      "prices_from": "1944-01-26",
      "prices_to": "1944-03-15",
      "is_mainstock": 0,
      "prices_count": 3
    },
    "102863": {
      "id": 102863,
      "name": "Act. Phosphates du Dyr (droit et coupon 5).",
      "share_type": {
        "id": 4,
        "name": "Rights (Droits)"
      },
      "types": [
        {
          "start_date": "1926-08-23",
          "end_date": "1926-09-22",
          "id": 501,
          "name": "Droit de souscription",
          "stock_group": "R"
        }
      ],
      "start_date": "1926-08-23",
      "end_date": "1926-09-22",
      "prices_from": "1926-08-24",
      "prices_to": "1926-09-15",
      "is_mainstock": 0,
      "prices_count": 0
    },
    "103901": {
      "id": 103901,
      "name": "Phosphates du Dyr, act. 100 fr., tout payé (c. 8 att.)",
      "share_type": {
        "id": 1,
        "name": "Stock (Action)"
      },
      "types": [
        {
          "start_date": "1938-02-17",
          "end_date": "1938-08-01",
          "id": 18,
          "name": "Action",
          "stock_group": "S"
        }
      ],
      "start_date": "1938-02-17",
      "end_date": "1938-08-01",
      "prices_from": "1938-02-28",
      "prices_to": "1938-07-15",
      "is_mainstock": 0,
      "prices_count": 10
    }
  }
}