{
  "id": 10271,
  "names": [
    "THE MEXICAN UNION RAILWAY, LIMITED",
    "The Mexican Union Railway, Limited"
  ],
  "name": "THE MEXICAN UNION RAILWAY, LIMITED",
  "balance_sheets": [],
  "balance_sheets_stats": {
    "start_date": null,
    "end_date": null
  },
  "locations_stats": {
    "start_date": "1912-01-01",
    "end_date": "1912-12-31"
  },
  "locations": {
    "Siège social": [
      {
        "location_types_id": 1,
        "location_type": "Siège social",
        "address": "Dashwood house new broad street, 130",
        "city": "Londres",
        "district": "Angleterre",
        "country": "Grande Bretagne et Irlande du Nord",
        "in_yearbook_from": 1912,
        "in_yearbook_to": 1912
      }
    ]
  },
  "persons": [
    {
      "persons_count": 4,
      "yearbook": "Annuaire Desfossés 1912",
      "source": "annuaire_df_1912",
      "page": "381"
    }
  ],
  "persons_stats": {
    "persons_count": 4,
    "start_date": "1912-01-01",
    "end_date": "1912-12-31"
  },
  "yearbooks_ocrs": [
    {
      "source": "annuaire_df_1912",
      "yearbook": "Annuaire Desfossés 1912",
      "page": "381"
    }
  ],
  "juridical_status": [
    {
      "juridical_status": "Société anonyme anglaise",
      "start_date": "1910-02-12",
      "end_date": "3999-12-31",
      "comments": "Société anglaise, constituée le 12 février 1910.",
      "source": "annuaire_df_1912"
    }
  ],
  "equity_capital": [
    {
      "amount": "130.000",
      "currency": "Livre Sterling (Pound)",
      "infodate": "1910-02-12",
      "source": "annuaire_df_1912",
      "comments": " £ 130.000, divisé en 130.000 actions de £ 1 chacune."
    }
  ],
  "profit_dividends": [],
  "public_status": false
}