{
  "id": 4014,
  "names": [
    "SOCIETE NOUVELLE DE CONSTRUCTIONS ET DE TRAVAUX",
    "Société Nouvelle de Constructions et de Travaux",
    "Sté NOUVELLE DE CONSTRUCTIONS ET DE TRAVAUX"
  ],
  "name": "Sté NOUVELLE DE CONSTRUCTIONS ET DE TRAVAUX",
  "balance_sheets": [
    {
      "start_date": "1945-12-31",
      "source": "Annuaire Desfossés 1948",
      "page": "2008"
    },
    {
      "start_date": "1946-12-31",
      "source": "Annuaire Desfossés 1948",
      "page": "2008"
    },
    {
      "start_date": "1947-12-31",
      "source": "Annuaire Desfossés 1953",
      "page": "1619"
    },
    {
      "start_date": "1948-12-31",
      "source": "Annuaire Desfossés 1953",
      "page": "1619"
    },
    {
      "start_date": "1949-12-31",
      "source": "Annuaire Desfossés 1953",
      "page": "1619"
    },
    {
      "start_date": "1950-12-31",
      "source": "Annuaire Desfossés 1953",
      "page": "1619"
    },
    {
      "start_date": "1951-12-31",
      "source": "Annuaire Desfossés 1953",
      "page": "1619"
    }
  ],
  "balance_sheets_stats": {
    "start_date": "1945-12-31",
    "end_date": "1951-12-31"
  },
  "locations_stats": {
    "start_date": "1948-01-01",
    "end_date": "1953-12-31"
  },
  "locations": {
    "Siège social": [
      {
        "location_types_id": 1,
        "location_type": "Siège social",
        "address": "Boulevard saint-germain, 282",
        "city": "Paris",
        "district": "Paris",
        "country": "France",
        "in_yearbook_from": 1948,
        "in_yearbook_to": 1953
      }
    ]
  },
  "persons": [
    {
      "persons_count": 4,
      "yearbook": "Annuaire Desfossés 1948",
      "source": "annuaire_df_1948",
      "page": "2008"
    },
    {
      "persons_count": 13,
      "yearbook": "Annuaire Desfossés 1953",
      "source": "annuaire_df_1953",
      "page": "1619"
    }
  ],
  "persons_stats": {
    "persons_count": 17,
    "start_date": "1948-01-01",
    "end_date": "1953-12-31"
  },
  "yearbooks_ocrs": [
    {
      "source": "annuaire_df_1948",
      "yearbook": "Annuaire Desfossés 1948",
      "page": "2008"
    },
    {
      "source": "annuaire_df_1953",
      "yearbook": "Annuaire Desfossés 1953",
      "page": "1619"
    }
  ],
  "juridical_status": [
    {
      "juridical_status": "Société Anonyme (Libre)",
      "start_date": "1920-08-01",
      "end_date": "2019-08-01",
      "comments": "Société anonyme constituée en août 1920 pour une duree de 99 ans.",
      "source": "annuaire_df_1948"
    }
  ],
  "equity_capital": [
    {
      "amount": "6.000.000",
      "currency": "Franc",
      "infodate": "1920-08-01",
      "source": "annuaire_df_1948",
      "comments": " A l'origine 6 millions en 12.000 actions de 500 francs,"
    },
    {
      "amount": "8.000.000",
      "currency": "Franc",
      "infodate": "1922-01-01",
      "source": "annuaire_df_1948",
      "comments": " porté en 1922 à 8 millions"
    },
    {
      "amount": "4.800.000",
      "currency": "Franc",
      "infodate": "1935-01-01",
      "source": "annuaire_df_1948",
      "comments": "Capital : 30 millions de francs, divisé en 100.000 actions de 300. francs. A l'origine. 6 millions en 12.000 actions de 500 francs, porté en 1922 à'8 millions, réduit en 1935 à 4.800.000 francs par remboursement en espèces de 200 francs par action, porté en 1942 à 12 millions et en 1945 à 18 millions par la création de 20.000 actions nouvelles de 300 francs. Porté en 1946 à 30 millions par l'émission à 330 francs de 40.000 actions nouvelles de 300 francs (2 nouvelles pour 3 anciennes)."
    },
    {
      "amount": "12.000.000",
      "currency": "Franc",
      "infodate": "1942-01-01",
      "source": "annuaire_df_1948",
      "comments": "Capital : 30 millions de francs, divisé en 100.000 actions de 300. francs. A l'origine. 6 millions en 12.000 actions de 500 francs, porté en 1922 à'8 millions, réduit en 1935 à 4.800.000 francs par remboursement en espèces de 200 francs par action, porté en 1942 à 12 millions et en 1945 à 18 millions par la création de 20.000 actions nouvelles de 300 francs. Porté en 1946 à 30 millions par l'émission à 330 francs de 40.000 actions nouvelles de 300 francs (2 nouvelles pour 3 anciennes)."
    },
    {
      "amount": "18.000.000",
      "currency": "Franc",
      "infodate": "1945-01-01",
      "source": "annuaire_df_1948",
      "comments": "Capital : 30 millions de francs, divisé en 100.000 actions de 300. francs. A l'origine. 6 millions en 12.000 actions de 500 francs, porté en 1922 à'8 millions, réduit en 1935 à 4.800.000 francs par remboursement en espèces de 200 francs par action, porté en 1942 à 12 millions et en 1945 à 18 millions par la création de 20.000 actions nouvelles de 300 francs. Porté en 1946 à 30 millions par l'émission à 330 francs de 40.000 actions nouvelles de 300 francs (2 nouvelles pour 3 anciennes)."
    },
    {
      "amount": "30.000.000",
      "currency": "Franc",
      "infodate": "1946-01-01",
      "source": "annuaire_df_1948",
      "comments": "Capital : 30 millions de francs, divisé en 100.000 actions de 300. francs. A l'origine. 6 millions en 12.000 actions de 500 francs, porté en 1922 à'8 millions, réduit en 1935 à 4.800.000 francs par remboursement en espèces de 200 francs par action, porté en 1942 à 12 millions et en 1945 à 18 millions par la création de 20.000 actions nouvelles de 300 francs. Porté en 1946 à 30 millions par l'émission à 330 francs de 40.000 actions nouvelles de 300 francs (2 nouvelles pour 3 anciennes)."
    },
    {
      "amount": "29.998.500",
      "currency": "Franc",
      "infodate": "1951-01-01",
      "source": "annuaire_df_1953",
      "comments": "CAPITAL : 60 millions de fr., divisé en 24.000 actions de 2.500 fr. A l'origine 6 millions en 12.000 actions de 500 fr., porté en 1922 à 8 millions, réduit en 1935 à 4.800.000 fr. par remboursement en espèces de 200 fr. par action,\tporté en 1942 à\t12\tmillions et en 1945 à\t18 millions par la création de 20.000 actions nouvelles de 300 fr. Porté\ten\t1946 à 30 millions par\tl'émission à 330 fr. de 40.000 actions nouvelles de 300\tfr. (2 nouvelles pour\t3 anciennes). Ramené\ten 1951 à 29.998.500 fr. par annulation de 5 actions.\tPorté à 50.400.000\tfr.\tpar l'émission au pair\tde 9.715 actions de 2.100 fr., puis à 60 millions par l'élévation du nominal de 300 fr. à 357 fr. 1/7 et de 2.100 fr. à 2.500 fr. Enfin, regroupement des actions de 357 fr. 1/7 en titres de 2.500 fr. à partir du 5 novembre 1951."
    },
    {
      "amount": "50.400.000",
      "currency": "Franc",
      "infodate": "1951-01-02",
      "source": "annuaire_df_1953",
      "comments": "CAPITAL : 60 millions de fr., divisé en 24.000 actions de 2.500 fr. A l'origine 6 millions en 12.000 actions de 500 fr., porté en 1922 à 8 millions, réduit en 1935 à 4.800.000 fr. par remboursement en espèces de 200 fr. par action,\tporté en 1942 à\t12\tmillions et en 1945 à\t18 millions par la création de 20.000 actions nouvelles de 300 fr. Porté\ten\t1946 à 30 millions par\tl'émission à 330 fr. de 40.000 actions nouvelles de 300\tfr. (2 nouvelles pour\t3 anciennes). Ramené\ten 1951 à 29.998.500 fr. par annulation de 5 actions.\tPorté à 50.400.000\tfr.\tpar l'émission au pair\tde 9.715 actions de 2.100 fr., puis à 60 millions par l'élévation du nominal de 300 fr. à 357 fr. 1/7 et de 2.100 fr. à 2.500 fr. Enfin, regroupement des actions de 357 fr. 1/7 en titres de 2.500 fr. à partir du 5 novembre 1951."
    },
    {
      "amount": "60.000.000",
      "currency": "Franc",
      "infodate": "1951-01-03",
      "source": "annuaire_df_1953",
      "comments": "CAPITAL : 60 millions de fr., divisé en 24.000 actions de 2.500 fr. A l'origine 6 millions en 12.000 actions de 500 fr., porté en 1922 à 8 millions, réduit en 1935 à 4.800.000 fr. par remboursement en espèces de 200 fr. par action,\tporté en 1942 à\t12\tmillions et en 1945 à\t18 millions par la création de 20.000 actions nouvelles de 300 fr. Porté\ten\t1946 à 30 millions par\tl'émission à 330 fr. de 40.000 actions nouvelles de 300\tfr. (2 nouvelles pour\t3 anciennes). Ramené\ten 1951 à 29.998.500 fr. par annulation de 5 actions.\tPorté à 50.400.000\tfr.\tpar l'émission au pair\tde 9.715 actions de 2.100 fr., puis à 60 millions par l'élévation du nominal de 300 fr. à 357 fr. 1/7 et de 2.100 fr. à 2.500 fr. Enfin, regroupement des actions de 357 fr. 1/7 en titres de 2.500 fr. à partir du 5 novembre 1951."
    }
  ],
  "profit_dividends": [
    {
      "first_date": "1943-12-31",
      "last_date": "1951-12-31",
      "obs_count": 36
    }
  ],
  "public_status": false,
  "stock_exchanges": {
    "1": {
      "id": 1,
      "name": "Paris (Official List)",
      "listings_stats": {
        "start_date": "1962-01-02"
      },
      "spot_prices_stats": {
        "start_date": "1962-01-02",
        "end_date": "1975-12-01"
      }
    }
  },
  "securities": {
    "16595": {
      "id": 16595,
      "name": "Construction et de Travaux (S.N.C.T), actions (ex-dr., )",
      "share_type": {
        "id": 1,
        "name": "Stock (Action)"
      },
      "types": [
        {
          "start_date": "1962-01-02",
          "end_date": "3999-12-31",
          "id": 18,
          "name": "Action",
          "stock_group": "S"
        }
      ],
      "start_date": "1962-01-02",
      "end_date": "3999-12-31",
      "prices_from": "1962-01-02",
      "prices_to": "1970-11-30",
      "is_mainstock": 0,
      "prices_count": 213
    },
    "16596": {
      "id": 16596,
      "name": "Constructions et de Travaux (Sté Nouvelles), Act.nouv.(Jce 1/7/61).",
      "share_type": {
        "id": 1,
        "name": "Stock (Action)"
      },
      "types": [
        {
          "start_date": "1962-01-02",
          "end_date": "3999-12-31",
          "id": 18,
          "name": "Action",
          "stock_group": "S"
        }
      ],
      "start_date": "1962-01-02",
      "end_date": "3999-12-31",
      "prices_from": "1962-01-15",
      "prices_to": "1962-07-02",
      "is_mainstock": 0,
      "prices_count": 12
    },
    "18041": {
      "id": 18041,
      "name": "Constructions et de Travaux (Sté Nouvelle), Promesses (Jce 1/7/63)",
      "share_type": {
        "id": 1,
        "name": "Stock (Action)"
      },
      "types": [
        {
          "start_date": "1963-07-11",
          "end_date": "3999-12-31",
          "id": 27,
          "name": "Promesse d'action",
          "stock_group": "S"
        }
      ],
      "start_date": "1963-07-11",
      "end_date": "3999-12-31",
      "prices_from": "1963-09-30",
      "prices_to": "1964-10-15",
      "is_mainstock": 0,
      "prices_count": 26
    },
    "18417": {
      "id": 18417,
      "name": "Construction et de Travaux (Sté Nouvelle), act. (n° 216001 à 324000) (c. 48 special att.)",
      "share_type": {
        "id": 1,
        "name": "Stock (Action)"
      },
      "types": [
        {
          "start_date": "1966-10-21",
          "end_date": "3999-12-31",
          "id": 18,
          "name": "Action",
          "stock_group": "S"
        }
      ],
      "start_date": "1966-10-21",
      "end_date": "3999-12-31",
      "prices_from": null,
      "prices_to": null,
      "is_mainstock": 0,
      "prices_count": 0
    },
    "19969": {
      "id": 19969,
      "name": "Construction et de Travaux, Promesses (Jce 1/1/68)",
      "share_type": {
        "id": 1,
        "name": "Stock (Action)"
      },
      "types": [
        {
          "start_date": "1968-07-29",
          "end_date": "3999-12-31",
          "id": 27,
          "name": "Promesse d'action",
          "stock_group": "S"
        }
      ],
      "start_date": "1968-07-29",
      "end_date": "3999-12-31",
      "prices_from": null,
      "prices_to": null,
      "is_mainstock": 0,
      "prices_count": 0
    },
    "19970": {
      "id": 19970,
      "name": "Construction et de Travaux Act. (n°s 180001 à 240000) (c. 51 att.)",
      "share_type": {
        "id": 1,
        "name": "Stock (Action)"
      },
      "types": [
        {
          "start_date": "1968-11-25",
          "end_date": "3999-12-31",
          "id": 18,
          "name": "Action",
          "stock_group": "S"
        }
      ],
      "start_date": "1968-11-25",
      "end_date": "3999-12-31",
      "prices_from": "1968-12-16",
      "prices_to": "1973-01-02",
      "is_mainstock": 0,
      "prices_count": 98
    },
    "19971": {
      "id": 19971,
      "name": "Construction et de Travaux (S.N.C.T) (act. De 50 F, n°s 180001 à 240000) (c. 51)",
      "share_type": {
        "id": 1,
        "name": "Stock (Action)"
      },
      "types": [
        {
          "start_date": "1968-12-09",
          "end_date": "3999-12-31",
          "id": 18,
          "name": "Action",
          "stock_group": "S"
        }
      ],
      "start_date": "1968-12-09",
      "end_date": "3999-12-31",
      "prices_from": "1968-12-11",
      "prices_to": "1975-12-01",
      "is_mainstock": 0,
      "prices_count": 82
    },
    "19972": {
      "id": 19972,
      "name": "Construction et de Travaux (S.N.C.T) (act. Anc. De 25 F, ns 1 360000) (c. 51)",
      "share_type": {
        "id": 1,
        "name": "Stock (Action)"
      },
      "types": [
        {
          "start_date": "1968-12-09",
          "end_date": "3999-12-31",
          "id": 18,
          "name": "Action",
          "stock_group": "S"
        }
      ],
      "start_date": "1968-12-09",
      "end_date": "3999-12-31",
      "prices_from": "1968-12-11",
      "prices_to": "1970-03-31",
      "is_mainstock": 0,
      "prices_count": 11
    },
    "20390": {
      "id": 20390,
      "name": "Constructions et de Travaux (S.N.C.T.), actions (ex-dr., ) - Promesses (Jce 1/1/71)",
      "share_type": {
        "id": 1,
        "name": "Stock (Action)"
      },
      "types": [
        {
          "start_date": "1970-11-13",
          "end_date": "3999-12-31",
          "id": 27,
          "name": "Promesse d'action",
          "stock_group": "S"
        }
      ],
      "start_date": "1970-11-13",
      "end_date": "3999-12-31",
      "prices_from": "1970-12-15",
      "prices_to": "1971-06-30",
      "is_mainstock": 0,
      "prices_count": 14
    }
  }
}