{
  "id": 6269,
  "names": [
    "Caisse Centrale de Coopération Economique"
  ],
  "name": "Caisse Centrale de Coopération Economique",
  "balance_sheets": [],
  "balance_sheets_stats": {
    "start_date": null,
    "end_date": null
  },
  "locations_stats": {
    "start_date": null,
    "end_date": null
  },
  "locations": {},
  "persons": [],
  "persons_stats": {
    "persons_count": 0,
    "start_date": null,
    "end_date": null
  },
  "yearbooks_ocrs": [],
  "juridical_status": [],
  "equity_capital": [],
  "profit_dividends": [],
  "public_status": false,
  "stock_exchanges": {
    "1": {
      "id": 1,
      "name": "Paris (Official List)",
      "listings_stats": {
        "start_date": "1974-01-31"
      },
      "spot_prices_stats": {
        "start_date": "1974-01-31",
        "end_date": "1976-12-31"
      }
    }
  },
  "securities": {
    "21305": {
      "id": 21305,
      "name": "Caisse Centrale de Coopération Economique, 9,30% oct. 1973 de 1000F, séries A, B et C (c. 2/9/74 att.) (avis 74-59) 1981-88",
      "share_type": {
        "id": 2,
        "name": "Bond (Obligation)"
      },
      "types": [
        {
          "start_date": "1974-02-01",
          "end_date": "3999-12-31",
          "id": 1001,
          "name": "Obligation ordinaire ou classique",
          "stock_group": "B"
        }
      ],
      "start_date": "1974-01-31",
      "end_date": "3999-12-31",
      "prices_from": "1974-01-31",
      "prices_to": "1976-12-31",
      "is_mainstock": 0,
      "prices_count": 71
    },
    "21676": {
      "id": 21676,
      "name": "Caisse Centrale de Coopération Economique 10,20% 75 de 1000 F (sér.A à F) (c.20/11/76 att.) (Avis 76-78).1985-95",
      "share_type": {
        "id": 2,
        "name": "Bond (Obligation)"
      },
      "types": [
        {
          "start_date": "1976-02-09",
          "end_date": "3999-12-31",
          "id": 1001,
          "name": "Obligation ordinaire ou classique",
          "stock_group": "B"
        }
      ],
      "start_date": "1976-02-09",
      "end_date": "3999-12-31",
      "prices_from": "1976-02-10",
      "prices_to": "1976-12-31",
      "is_mainstock": 0,
      "prices_count": 23
    },
    "21677": {
      "id": 21677,
      "name": "Caisse Centrale de Coopération Economique 10,20% 1976 de 1000 F (séries A à G) (c.20/3/77 att.) (Avis 76-485).1980-92",
      "share_type": {
        "id": 2,
        "name": "Bond (Obligation)"
      },
      "types": [
        {
          "start_date": "1976-06-21",
          "end_date": "3999-12-31",
          "id": 1001,
          "name": "Obligation ordinaire ou classique",
          "stock_group": "B"
        }
      ],
      "start_date": "1976-06-21",
      "end_date": "3999-12-31",
      "prices_from": "1976-06-21",
      "prices_to": "1976-12-31",
      "is_mainstock": 0,
      "prices_count": 14
    }
  }
}