{
  "id": 4149,
  "names": [
    "ATELIERS G. S. P. (Guillemin, Sergot et Pegard)",
    "ATELIERS GSP (Guillemin, Sergot et Pegard)",
    "Ateliers G.S.P. (Guillemin, Sergot et Pégard)"
  ],
  "name": "ATELIERS G. S. P. (Guillemin, Sergot et Pegard)",
  "balance_sheets": [
    {
      "start_date": "1945-09-30",
      "source": "Annuaire Desfossés 1948",
      "page": "1204"
    },
    {
      "start_date": "1946-09-30",
      "source": "Annuaire Desfossés 1948",
      "page": "1204"
    },
    {
      "start_date": "1947-09-30",
      "source": "Annuaire Desfossés 1948",
      "page": "1204"
    },
    {
      "start_date": "1948-09-30",
      "source": "Annuaire Desfossés 1953",
      "page": "1025"
    },
    {
      "start_date": "1949-09-30",
      "source": "Annuaire Desfossés 1953",
      "page": "1025"
    },
    {
      "start_date": "1950-09-30",
      "source": "Annuaire Desfossés 1953",
      "page": "1025"
    },
    {
      "start_date": "1951-09-30",
      "source": "Annuaire Desfossés 1953",
      "page": "1025"
    }
  ],
  "balance_sheets_stats": {
    "start_date": "1945-09-30",
    "end_date": "1951-09-30"
  },
  "locations_stats": {
    "start_date": "1948-01-01",
    "end_date": "1953-12-31"
  },
  "locations": {
    "Siège social": [
      {
        "location_types_id": 1,
        "location_type": "Siège social",
        "address": "Boulevard de verdun, 138",
        "city": "Courbevoie",
        "district": "Paris",
        "country": "France",
        "in_yearbook_from": 1948,
        "in_yearbook_to": 1953
      }
    ],
    "Siège administratif / Bureaux": [
      {
        "location_types_id": 2,
        "location_type": "Siège administratif / Bureaux",
        "address": "Rue yvon-villarceau, 8",
        "city": "Paris",
        "district": "Paris",
        "country": "France",
        "in_yearbook_from": 1948,
        "in_yearbook_to": 1948
      }
    ],
    "Dépôts de vente / Magasins": [
      {
        "location_types_id": 10,
        "location_type": "Dépôts de vente / Magasins",
        "address": "Boulevard flandrin, 16",
        "city": "Paris",
        "district": "Paris",
        "country": "France",
        "in_yearbook_from": 1953,
        "in_yearbook_to": 1953
      }
    ]
  },
  "persons": [
    {
      "persons_count": 3,
      "yearbook": "Annuaire Desfossés 1948",
      "source": "annuaire_df_1948",
      "page": "1204"
    },
    {
      "persons_count": 12,
      "yearbook": "Annuaire Desfossés 1953",
      "source": "annuaire_df_1953",
      "page": "1025"
    }
  ],
  "persons_stats": {
    "persons_count": 12,
    "start_date": "1948-01-01",
    "end_date": "1953-12-31"
  },
  "yearbooks_ocrs": [
    {
      "source": "annuaire_df_1948",
      "yearbook": "Annuaire Desfossés 1948",
      "page": "1204"
    },
    {
      "source": "annuaire_df_1953",
      "yearbook": "Annuaire Desfossés 1953",
      "page": "1025"
    }
  ],
  "juridical_status": [
    {
      "juridical_status": "Société Anonyme (Libre)",
      "start_date": "1913-09-01",
      "end_date": "1963-09-01",
      "comments": "Société anonyme- constituée en septembre 1913, pour une duree de 50 ans.",
      "source": "annuaire_df_1948"
    }
  ],
  "equity_capital": [
    {
      "amount": "800.000",
      "currency": "Franc",
      "infodate": "1913-09-01",
      "source": "annuaire_df_1948",
      "comments": "104 millions de francs, divisé en 104.000 actions de 1.000 francs. A l'origine, 800.000 francs en 1.600 actions de 500 francs. Porté par paliers successifs à 62.400.000 francs. Porté en 1947 à 104 millions par l'émission à 1.100 francs de 41.600' actions nouvelles de 1.000 francs. (2 nouv. pour 3 anc.)."
    },
    {
      "amount": "104.000.000",
      "currency": "Franc",
      "infodate": "1947-01-01",
      "source": "annuaire_df_1948",
      "comments": "104 millions de francs, divisé en 104.000 actions de 1.000 francs. A l'origine, 800.000 francs en 1.600 actions de 500 francs. Porté par paliers successifs à 62.400.000 francs. Porté en 1947 à 104 millions par l'émission à 1.100 francs de 41.600' actions nouvelles de 1.000 francs. (2 nouv. pour 3 anc.)."
    },
    {
      "amount": "110.000.000",
      "currency": "Franc",
      "infodate": "1948-01-01",
      "source": "annuaire_df_1953",
      "comments": "440 millions de fr., divisé en 88.000 actions de 5.000 fr. A l'origine, 800.000 fr., en 1.600 actions de 500 fr. Porté par paliers successifs à 62.400.000 fr. Porté en 1947 à 104 millions par l'émission à 1.100.fr. de 41.600 actions nouvelles de 1.000 fr. (2 nouv. pour 3 anc.). Porté en 194S à 110 millions par création de 6.000 actions en représentation d'apports, puis à 165 millions par l'émission à 1.640 fr. de 55.000 actions de 1.000 fr. Porté en 1949 à 247.500.000 fr. par élévation du nominal de 1.000 à 1.500 fr. Regroupement en titres de 5.000 fr. à partir du 26 septembre 1951. Capital porté ensuite à 330 millions par création de 16.500 actions nouvelles réparties gratuitement (1 pour 3). Porté en 1952 à 440 millions par création de 22.000 actions attribuées gratuitement (1 pour 3)."
    },
    {
      "amount": "165.000.000",
      "currency": "Franc",
      "infodate": "1948-01-02",
      "source": "annuaire_df_1953",
      "comments": "440 millions de fr., divisé en 88.000 actions de 5.000 fr. A l'origine, 800.000 fr., en 1.600 actions de 500 fr. Porté par paliers successifs à 62.400.000 fr. Porté en 1947 à 104 millions par l'émission à 1.100.fr. de 41.600 actions nouvelles de 1.000 fr. (2 nouv. pour 3 anc.). Porté en 194S à 110 millions par création de 6.000 actions en représentation d'apports, puis à 165 millions par l'émission à 1.640 fr. de 55.000 actions de 1.000 fr. Porté en 1949 à 247.500.000 fr. par élévation du nominal de 1.000 à 1.500 fr. Regroupement en titres de 5.000 fr. à partir du 26 septembre 1951. Capital porté ensuite à 330 millions par création de 16.500 actions nouvelles réparties gratuitement (1 pour 3). Porté en 1952 à 440 millions par création de 22.000 actions attribuées gratuitement (1 pour 3)."
    },
    {
      "amount": "247.500.000",
      "currency": "Franc",
      "infodate": "1949-01-01",
      "source": "annuaire_df_1953",
      "comments": "440 millions de fr., divisé en 88.000 actions de 5.000 fr. A l'origine, 800.000 fr., en 1.600 actions de 500 fr. Porté par paliers successifs à 62.400.000 fr. Porté en 1947 à 104 millions par l'émission à 1.100.fr. de 41.600 actions nouvelles de 1.000 fr. (2 nouv. pour 3 anc.). Porté en 194S à 110 millions par création de 6.000 actions en représentation d'apports, puis à 165 millions par l'émission à 1.640 fr. de 55.000 actions de 1.000 fr. Porté en 1949 à 247.500.000 fr. par élévation du nominal de 1.000 à 1.500 fr. Regroupement en titres de 5.000 fr. à partir du 26 septembre 1951. Capital porté ensuite à 330 millions par création de 16.500 actions nouvelles réparties gratuitement (1 pour 3). Porté en 1952 à 440 millions par création de 22.000 actions attribuées gratuitement (1 pour 3)."
    },
    {
      "amount": "330.000.000",
      "currency": "Franc",
      "infodate": "1951-01-01",
      "source": "annuaire_df_1953",
      "comments": "440 millions de fr., divisé en 88.000 actions de 5.000 fr. A l'origine, 800.000 fr., en 1.600 actions de 500 fr. Porté par paliers successifs à 62.400.000 fr. Porté en 1947 à 104 millions par l'émission à 1.100.fr. de 41.600 actions nouvelles de 1.000 fr. (2 nouv. pour 3 anc.). Porté en 194S à 110 millions par création de 6.000 actions en représentation d'apports, puis à 165 millions par l'émission à 1.640 fr. de 55.000 actions de 1.000 fr. Porté en 1949 à 247.500.000 fr. par élévation du nominal de 1.000 à 1.500 fr. Regroupement en titres de 5.000 fr. à partir du 26 septembre 1951. Capital porté ensuite à 330 millions par création de 16.500 actions nouvelles réparties gratuitement (1 pour 3). Porté en 1952 à 440 millions par création de 22.000 actions attribuées gratuitement (1 pour 3)."
    },
    {
      "amount": "440.000.000",
      "currency": "Franc",
      "infodate": "1952-01-01",
      "source": "annuaire_df_1953",
      "comments": "440 millions de fr., divisé en 88.000 actions de 5.000 fr. A l'origine, 800.000 fr., en 1.600 actions de 500 fr. Porté par paliers successifs à 62.400.000 fr. Porté en 1947 à 104 millions par l'émission à 1.100.fr. de 41.600 actions nouvelles de 1.000 fr. (2 nouv. pour 3 anc.). Porté en 194S à 110 millions par création de 6.000 actions en représentation d'apports, puis à 165 millions par l'émission à 1.640 fr. de 55.000 actions de 1.000 fr. Porté en 1949 à 247.500.000 fr. par élévation du nominal de 1.000 à 1.500 fr. Regroupement en titres de 5.000 fr. à partir du 26 septembre 1951. Capital porté ensuite à 330 millions par création de 16.500 actions nouvelles réparties gratuitement (1 pour 3). Porté en 1952 à 440 millions par création de 22.000 actions attribuées gratuitement (1 pour 3)."
    }
  ],
  "profit_dividends": [
    {
      "first_date": "1945-09-30",
      "last_date": "1951-09-30",
      "obs_count": 52
    }
  ],
  "public_status": false,
  "stock_exchanges": {
    "1": {
      "id": 1,
      "name": "Paris (Official List)",
      "listings_stats": {
        "start_date": "1962-01-02"
      },
      "spot_prices_stats": {
        "start_date": "1962-01-02",
        "end_date": "1971-03-31"
      }
    }
  },
  "securities": {
    "16558": {
      "id": 16558,
      "name": "Ateliers G.S.P., act. 50F (nos 1 à 156067) (par 25 actions)",
      "share_type": {
        "id": 1,
        "name": "Stock (Action)"
      },
      "types": [
        {
          "start_date": "1962-01-02",
          "end_date": "3999-12-31",
          "id": 18,
          "name": "Action",
          "stock_group": "S"
        }
      ],
      "start_date": "1962-01-02",
      "end_date": "3999-12-31",
      "prices_from": null,
      "prices_to": null,
      "is_mainstock": 0,
      "prices_count": 0
    },
    "17065": {
      "id": 17065,
      "name": "Ateliers G.S.P. bons 6,5 % 1954, remboursables à 105 NF 1955-66",
      "share_type": {
        "id": 2,
        "name": "Bond (Obligation)"
      },
      "types": [
        {
          "start_date": "1962-01-02",
          "end_date": "3999-12-31",
          "id": 1009,
          "name": "Bons",
          "stock_group": "B"
        }
      ],
      "start_date": "1962-01-02",
      "end_date": "3999-12-31",
      "prices_from": "1962-01-02",
      "prices_to": "1966-01-31",
      "is_mainstock": 0,
      "prices_count": 99
    },
    "17066": {
      "id": 17066,
      "name": "Ateliers G.S.P. bons 6% 1959 1960-71",
      "share_type": {
        "id": 2,
        "name": "Bond (Obligation)"
      },
      "types": [
        {
          "start_date": "1962-01-02",
          "end_date": "3999-12-31",
          "id": 1009,
          "name": "Bons",
          "stock_group": "B"
        }
      ],
      "start_date": "1962-01-02",
      "end_date": "3999-12-31",
      "prices_from": "1962-01-02",
      "prices_to": "1971-03-31",
      "is_mainstock": 0,
      "prices_count": 223
    }
  }
}