{
  "id": 993,
  "names": [
    "Caisse d'escompte d'Agen, Condom et Nérac (Raison sociale Conche et Cie)"
  ],
  "name": "Caisse d'escompte d'Agen, Condom et Nérac (Raison sociale Conche et Cie)",
  "balance_sheets": [],
  "balance_sheets_stats": {
    "start_date": null,
    "end_date": null
  },
  "locations_stats": {
    "start_date": null,
    "end_date": null
  },
  "locations": {},
  "persons": [],
  "persons_stats": {
    "persons_count": 0,
    "start_date": null,
    "end_date": null
  },
  "yearbooks_ocrs": [],
  "juridical_status": [],
  "equity_capital": [],
  "profit_dividends": [],
  "public_status": false
}