{
  "id": 15591,
  "names": [
    "Voitures Electromobiles"
  ],
  "name": "Voitures Electromobiles",
  "balance_sheets": [],
  "balance_sheets_stats": {
    "start_date": null,
    "end_date": null
  },
  "locations_stats": {
    "start_date": null,
    "end_date": null
  },
  "locations": {},
  "persons": [],
  "persons_stats": {
    "persons_count": 0,
    "start_date": null,
    "end_date": null
  },
  "yearbooks_ocrs": [],
  "juridical_status": [],
  "equity_capital": [],
  "profit_dividends": [],
  "public_status": false,
  "stock_exchanges": {
    "2": {
      "id": 2,
      "name": "Paris OTC (Coulisse)",
      "listings_stats": {
        "start_date": "1899-03-20"
      }
    }
  },
  "securities": {
    "106641": {
      "id": 106641,
      "name": "Voitures Electromobiles, actions",
      "share_type": {
        "id": 1,
        "name": "Stock (Action)"
      },
      "types": [
        {
          "start_date": "1899-03-20",
          "end_date": "1899-03-20",
          "id": 18,
          "name": "Action",
          "stock_group": "S"
        }
      ],
      "start_date": "1899-03-20",
      "end_date": "1899-03-20",
      "prices_from": null,
      "prices_to": null,
      "is_mainstock": 0,
      "prices_count": 0
    },
    "106642": {
      "id": 106642,
      "name": "Voitures Electromobiles, parts fondateurs",
      "share_type": {
        "id": 1,
        "name": "Stock (Action)"
      },
      "types": [
        {
          "start_date": "1899-03-20",
          "end_date": "1899-03-20",
          "id": 21,
          "name": "Part de fondateur",
          "stock_group": "S"
        }
      ],
      "start_date": "1899-03-20",
      "end_date": "1899-03-20",
      "prices_from": null,
      "prices_to": null,
      "is_mainstock": 0,
      "prices_count": 0
    }
  }
}