{
  "id": 4161,
  "names": [
    "ANCIENS ETABLISSEMENTS CHAVANNE-BRUN",
    "Anciens Etablissements Chavanne-Brun"
  ],
  "name": "ANCIENS ETABLISSEMENTS CHAVANNE-BRUN",
  "balance_sheets": [
    {
      "start_date": "1944-12-31",
      "source": "Annuaire Desfossés 1948",
      "page": "1145"
    },
    {
      "start_date": "1945-12-31",
      "source": "Annuaire Desfossés 1948",
      "page": "1145"
    },
    {
      "start_date": "1946-12-31",
      "source": "Annuaire Desfossés 1948",
      "page": "1145"
    },
    {
      "start_date": "1947-12-31",
      "source": "Annuaire Desfossés 1953",
      "page": "955"
    },
    {
      "start_date": "1948-12-31",
      "source": "Annuaire Desfossés 1953",
      "page": "955"
    },
    {
      "start_date": "1949-12-31",
      "source": "Annuaire Desfossés 1953",
      "page": "955"
    },
    {
      "start_date": "1950-12-31",
      "source": "Annuaire Desfossés 1953",
      "page": "955"
    },
    {
      "start_date": "1951-12-31",
      "source": "Annuaire Desfossés 1953",
      "page": "955"
    }
  ],
  "balance_sheets_stats": {
    "start_date": "1944-12-31",
    "end_date": "1951-12-31"
  },
  "locations_stats": {
    "start_date": "1948-01-01",
    "end_date": "1953-12-31"
  },
  "locations": {
    "Siège social": [
      {
        "location_types_id": 1,
        "location_type": "Siège social",
        "address": "Rue jeanne-d'arc, 10",
        "city": "Saint Chamond",
        "district": "Loire",
        "country": "France",
        "in_yearbook_from": 1948,
        "in_yearbook_to": 1948
      },
      {
        "location_types_id": 1,
        "location_type": "Siège social",
        "address": "Rue jeanne-d'arc, 10",
        "city": "Saint Chamond",
        "district": "Loire",
        "country": "France",
        "in_yearbook_from": 1953,
        "in_yearbook_to": 1953
      }
    ]
  },
  "persons": [
    {
      "persons_count": 3,
      "yearbook": "Annuaire Desfossés 1948",
      "source": "annuaire_df_1948",
      "page": "1145"
    },
    {
      "persons_count": 14,
      "yearbook": "Annuaire Desfossés 1953",
      "source": "annuaire_df_1953",
      "page": "955"
    }
  ],
  "persons_stats": {
    "persons_count": 15,
    "start_date": "1948-01-01",
    "end_date": "1953-12-31"
  },
  "yearbooks_ocrs": [
    {
      "source": "annuaire_df_1948",
      "yearbook": "Annuaire Desfossés 1948",
      "page": "1145"
    },
    {
      "source": "annuaire_df_1953",
      "yearbook": "Annuaire Desfossés 1953",
      "page": "955"
    }
  ],
  "juridical_status": [
    {
      "juridical_status": "Société Anonyme (Libre)",
      "start_date": "1913-01-07",
      "end_date": "1963-01-07",
      "comments": "Société anonyme constituée le 7 janvier 1913 pour une durée de 50 ans.",
      "source": "annuaire_df_1948"
    },
    {
      "juridical_status": "Société Anonyme (Libre)",
      "start_date": "1963-01-08",
      "end_date": "2062-01-06",
      "comments": "Société anonyme, constituée le 7 janvier 1913, pour une durée expirant le 6 janvier 2062.",
      "source": "annuaire_df_1953"
    }
  ],
  "equity_capital": [
    {
      "amount": "60.000.000",
      "currency": "Franc",
      "infodate": "1948-01-01",
      "source": "annuaire_df_1948",
      "comments": "60 millions de francs divisé en 30.000 actions de 2.000 francs."
    },
    {
      "amount": "225.000.000",
      "currency": "Franc",
      "infodate": "1950-01-01",
      "source": "annuaire_df_1953",
      "comments": "225 millions de fr., divisé en 15.000 actions de 15.000 fr. (source bilan) "
    }
  ],
  "profit_dividends": [
    {
      "first_date": "1945-12-31",
      "last_date": "1951-12-31",
      "obs_count": 40
    }
  ],
  "public_status": false,
  "stock_exchanges": {
    "1": {
      "id": 1,
      "name": "Paris (Official List)",
      "listings_stats": {
        "start_date": "1962-01-02"
      },
      "spot_prices_stats": {
        "start_date": "1962-01-02",
        "end_date": "1973-08-31"
      }
    }
  },
  "securities": {
    "17071": {
      "id": 17071,
      "name": "Chavanne-Brun Frères (Etabl.) 4% 1945 1946-65",
      "share_type": {
        "id": 2,
        "name": "Bond (Obligation)"
      },
      "types": [
        {
          "start_date": "1962-01-02",
          "end_date": "3999-12-31",
          "id": 1001,
          "name": "Obligation ordinaire ou classique",
          "stock_group": "B"
        }
      ],
      "start_date": "1962-01-02",
      "end_date": "3999-12-31",
      "prices_from": "1962-01-02",
      "prices_to": "1962-06-15",
      "is_mainstock": 0,
      "prices_count": 12
    },
    "17072": {
      "id": 17072,
      "name": "Chavanne-Brun Frères (Etabl.) bons 6,5 % 1954, remb. à 105 NF 1955-66",
      "share_type": {
        "id": 2,
        "name": "Bond (Obligation)"
      },
      "types": [
        {
          "start_date": "1962-01-02",
          "end_date": "3999-12-31",
          "id": 1009,
          "name": "Bons",
          "stock_group": "B"
        }
      ],
      "start_date": "1962-01-02",
      "end_date": "3999-12-31",
      "prices_from": "1962-01-02",
      "prices_to": "1962-06-15",
      "is_mainstock": 0,
      "prices_count": 12
    },
    "19529": {
      "id": 19529,
      "name": "Lyon_Bourse Chavanne, Brun Frères (S. A.) 4% 1945 (Tirage 18/5/67) 1946-75",
      "share_type": {
        "id": 2,
        "name": "Bond (Obligation)"
      },
      "types": [
        {
          "start_date": "1967-05-02",
          "end_date": "3999-12-31",
          "id": 1001,
          "name": "Obligation ordinaire ou classique",
          "stock_group": "B"
        }
      ],
      "start_date": "1967-05-02",
      "end_date": "3999-12-31",
      "prices_from": "1967-05-16",
      "prices_to": "1973-08-31",
      "is_mainstock": 0,
      "prices_count": 152
    }
  }
}