{
  "id": 4239,
  "names": [
    "HOTEL MAJESTIC PARIS",
    "HOTEL MAJESTIC, PARIS",
    "HOTEL MÀJESTIC PARIS",
    "Hotel Majestic Paris",
    "HÔTEL MAJESTIC PARIS"
  ],
  "name": "HOTEL MAJESTIC PARIS",
  "balance_sheets": [
    {
      "start_date": "1911-06-30",
      "source": "Annuaire Desfossés 1912",
      "page": "942"
    },
    {
      "start_date": "1913-06-30",
      "source": "Annuaire Desfossés 1914",
      "page": "1100"
    },
    {
      "start_date": "1916-06-30",
      "source": "Annuaire Desfossés 1917",
      "page": "968"
    },
    {
      "start_date": "1919-06-30",
      "source": "Annuaire Desfossés 1920",
      "page": "1050"
    },
    {
      "start_date": "1922-06-30",
      "source": "Annuaire Desfossés 1923",
      "page": "1175"
    },
    {
      "start_date": "1924-06-30",
      "source": "Annuaire Desfossés 1925",
      "page": "1427"
    },
    {
      "start_date": "1926-06-30",
      "source": "Annuaire Desfossés 1927",
      "page": "1222"
    },
    {
      "start_date": "1928-06-30",
      "source": "Annuaire Desfossés 1929",
      "page": "1318"
    },
    {
      "start_date": "1930-06-30",
      "source": "Annuaire Desfossés 1931",
      "page": "1355"
    },
    {
      "start_date": "1932-06-30",
      "source": "Annuaire Desfossés 1933",
      "page": "1384"
    },
    {
      "start_date": "1934-06-30",
      "source": "Annuaire Desfossés 1937",
      "page": "1582"
    },
    {
      "start_date": "1935-06-30",
      "source": "Annuaire Desfossés 1937",
      "page": "1582"
    },
    {
      "start_date": "1936-06-30",
      "source": "Annuaire Desfossés 1940",
      "page": null
    },
    {
      "start_date": "1937-06-30",
      "source": "Annuaire Desfossés 1940",
      "page": null
    },
    {
      "start_date": "1938-06-30",
      "source": "Annuaire Desfossés 1940",
      "page": null
    },
    {
      "start_date": "1939-06-30",
      "source": "Annuaire Desfossés 1945",
      "page": "2077"
    },
    {
      "start_date": "1942-06-30",
      "source": "Annuaire Desfossés 1945",
      "page": "2077"
    },
    {
      "start_date": "1943-06-30",
      "source": "Annuaire Desfossés 1945",
      "page": "2077"
    },
    {
      "start_date": "1944-06-30",
      "source": "Annuaire Desfossés 1948",
      "page": "2403"
    },
    {
      "start_date": "1945-06-30",
      "source": "Annuaire Desfossés 1948",
      "page": "2403"
    },
    {
      "start_date": "1946-06-30",
      "source": "Annuaire Desfossés 1948",
      "page": "2403"
    },
    {
      "start_date": "1947-06-30",
      "source": "Annuaire Desfossés 1948",
      "page": "2403"
    },
    {
      "start_date": "1948-06-30",
      "source": "Annuaire Desfossés 1953",
      "page": "2021"
    },
    {
      "start_date": "1949-12-31",
      "source": "Annuaire Desfossés 1953",
      "page": "2021"
    },
    {
      "start_date": "1950-12-31",
      "source": "Annuaire Desfossés 1953",
      "page": "2021"
    },
    {
      "start_date": "1951-12-31",
      "source": "Annuaire Desfossés 1953",
      "page": "2021"
    }
  ],
  "balance_sheets_stats": {
    "start_date": "1911-06-30",
    "end_date": "1951-12-31"
  },
  "locations_stats": {
    "start_date": "1912-01-01",
    "end_date": "1953-12-31"
  },
  "locations": {
    "Siège social": [
      {
        "location_types_id": 1,
        "location_type": "Siège social",
        "address": "Avenue kléber, 19",
        "city": "Paris",
        "district": "Paris",
        "country": "France",
        "in_yearbook_from": 1912,
        "in_yearbook_to": 1933
      },
      {
        "location_types_id": 1,
        "location_type": "Siège social",
        "address": "Rue la pérouse, 36",
        "city": "Paris",
        "district": "Paris",
        "country": "France",
        "in_yearbook_from": 1937,
        "in_yearbook_to": 1948
      },
      {
        "location_types_id": 1,
        "location_type": "Siège social",
        "address": "Avenue kléber, 17",
        "city": "Paris",
        "district": "Paris",
        "country": "France",
        "in_yearbook_from": 1953,
        "in_yearbook_to": 1953
      }
    ],
    "Siège administratif / Bureaux": [
      {
        "location_types_id": 2,
        "location_type": "Siège administratif / Bureaux",
        "address": "Avenue kléber, 17",
        "city": "Paris",
        "district": "Paris",
        "country": "France",
        "in_yearbook_from": 1948,
        "in_yearbook_to": 1948
      }
    ],
    "Immobilier / Hôtellerie / Tourisme": [
      {
        "location_types_id": 19,
        "location_type": "Immobilier / Hôtellerie / Tourisme",
        "address": null,
        "city": "Paris",
        "district": "Paris",
        "country": "France",
        "in_yearbook_from": 1940,
        "in_yearbook_to": 1940
      }
    ]
  },
  "persons": [
    {
      "persons_count": 2,
      "yearbook": "Annuaire Desfossés 1912",
      "source": "annuaire_df_1912",
      "page": "942"
    },
    {
      "persons_count": 1,
      "yearbook": "Annuaire Desfossés 1917",
      "source": "annuaire_df_1917",
      "page": "968"
    },
    {
      "persons_count": 4,
      "yearbook": "Annuaire Desfossés 1927",
      "source": "annuaire_df_1927",
      "page": "1222"
    },
    {
      "persons_count": 6,
      "yearbook": "Annuaire Desfossés 1933",
      "source": "annuaire_df_1933",
      "page": "1384"
    },
    {
      "persons_count": 5,
      "yearbook": "Annuaire Desfossés 1940",
      "source": "annuaire_df_1940",
      "page": null
    },
    {
      "persons_count": 3,
      "yearbook": "Annuaire Desfossés 1945",
      "source": "annuaire_df_1945",
      "page": "2077"
    },
    {
      "persons_count": 4,
      "yearbook": "Annuaire Desfossés 1948",
      "source": "annuaire_df_1948",
      "page": "2403"
    },
    {
      "persons_count": 6,
      "yearbook": "Annuaire Desfossés 1953",
      "source": "annuaire_df_1953",
      "page": "2021"
    }
  ],
  "persons_stats": {
    "persons_count": 18,
    "start_date": "1912-01-01",
    "end_date": "1953-12-31"
  },
  "yearbooks_ocrs": [
    {
      "source": "annuaire_df_1912",
      "yearbook": "Annuaire Desfossés 1912",
      "page": "942"
    },
    {
      "source": "annuaire_df_1914",
      "yearbook": "Annuaire Desfossés 1914",
      "page": "1100"
    },
    {
      "source": "annuaire_df_1917",
      "yearbook": "Annuaire Desfossés 1917",
      "page": "968"
    },
    {
      "source": "annuaire_df_1920",
      "yearbook": "Annuaire Desfossés 1920",
      "page": "1050"
    },
    {
      "source": "annuaire_df_1923",
      "yearbook": "Annuaire Desfossés 1923",
      "page": "1175"
    },
    {
      "source": "annuaire_df_1925",
      "yearbook": "Annuaire Desfossés 1925",
      "page": "1427"
    },
    {
      "source": "annuaire_df_1927",
      "yearbook": "Annuaire Desfossés 1927",
      "page": "1222"
    },
    {
      "source": "annuaire_df_1929",
      "yearbook": "Annuaire Desfossés 1929",
      "page": "1318"
    },
    {
      "source": "annuaire_df_1931",
      "yearbook": "Annuaire Desfossés 1931",
      "page": "1355"
    },
    {
      "source": "annuaire_df_1933",
      "yearbook": "Annuaire Desfossés 1933",
      "page": "1384"
    },
    {
      "source": "annuaire_df_1937",
      "yearbook": "Annuaire Desfossés 1937",
      "page": "1582"
    },
    {
      "source": "annuaire_df_1940",
      "yearbook": "Annuaire Desfossés 1940",
      "page": null
    },
    {
      "source": "annuaire_df_1945",
      "yearbook": "Annuaire Desfossés 1945",
      "page": "2077"
    },
    {
      "source": "annuaire_df_1948",
      "yearbook": "Annuaire Desfossés 1948",
      "page": "2403"
    },
    {
      "source": "annuaire_df_1953",
      "yearbook": "Annuaire Desfossés 1953",
      "page": "2021"
    }
  ],
  "juridical_status": [
    {
      "juridical_status": "Société Anonyme (Libre)",
      "start_date": "1905-09-28",
      "end_date": "2004-09-28",
      "comments": "Société anonyme française, constituée le 28 septembre 1905, pour une durée de 99 ans.",
      "source": "annuaire_df_1912"
    }
  ],
  "equity_capital": [
    {
      "amount": "4.000.000",
      "currency": "Franc",
      "infodate": "1905-09-28",
      "source": "annuaire_df_1912",
      "comments": "4 millions de francs, divisé en 40.000 actions de 100 francs."
    },
    {
      "amount": "8.000.000",
      "currency": "Franc",
      "infodate": "1912-01-01",
      "source": "annuaire_df_1917",
      "comments": "8 millions de francs, divisé en 80.000 actions de 100 francs. A l’origine 4 millions, porté en 1912 au chiffre actuel."
    },
    {
      "amount": "10.000.000",
      "currency": "Franc",
      "infodate": "1923-01-01",
      "source": "annuaire_df_1927",
      "comments": "10 millions de francs, divisé en 100.000 actions de 100 francs. A l’origine 4 millions, porté en 1912 à 8 millions et en 1923 au chiffre actuel."
    },
    {
      "amount": "12.000.000",
      "currency": "Franc",
      "infodate": "1927-10-01",
      "source": "annuaire_df_1933",
      "comments": " en octobre 1927 à 12 millions, par la création de 20.000 actions à vote plural."
    },
    {
      "amount": "6.000.000",
      "currency": "Franc",
      "infodate": "1937-09-01",
      "source": "annuaire_df_1940",
      "comments": "6 millions de francs, divisé en 60.000 actions de 100 francs. A l’origine 4 millions, porté en 1912 à 8 millions, en 1923 à 10 millions, en septembre 1927 à 12 millions. Réduit en septembre 1937 à 6 millions par échange de 2 actions anciennes ^nntre 1 nouvelle, et remboursement en espèces d’une somme de 100 francs."
    },
    {
      "amount": "24.000.000",
      "currency": "Franc",
      "infodate": "1947-01-01",
      "source": "annuaire_df_1948",
      "comments": "24 millions de francs, divisé en 120.000 actions de 200 francs. A l'origine 4 millions, porté en 1912 à 8 millions, en 1923 à 10 millions, en septembre 1927 à 12 millions. Réduit en septembre 1937 à 6 millions par échange de 2 actions anciennes contre 1 nouvelle, et remboursement en espèces d'une somme de 100 francs. Porté en 1947 au chiffre actuel par élévation du nominal de 100 à 200 francs et création de 60.000 actions nouvelles de 200 francs réparties gratuitement (1 nouv. pour 1 anc.)."
    },
    {
      "amount": "24.000.000",
      "currency": "Franc",
      "infodate": "1951-07-03",
      "source": "annuaire_df_1953",
      "comments": "Split : 24 millions de fr., divisé en 8.000 actions de 3.000 fr. A l'origine, 4 millions. Porté en 1932 à .8 millions; en 1923 à 10 millions; en septembre 1927 à 12 millions. Réduit en septembre 1937 à 6 millions par échange de 2 actions anciennes contre 1 nouvelle, et remboursement en espèces d'une somme de 100 fr. Porté en 1947 à 24 millions par élévation du nominal de 100 fr. à 200 fr. et création de 60.000 actions nouvelles de 200 fr. réparties gratuitement (1 nouv. pour 1 anc.). Titres regroupés à partir du 3 juillet 1951 en 8.000 actions de 3.000 francs."
    }
  ],
  "profit_dividends": [
    {
      "first_date": "1908-06-30",
      "last_date": "1951-12-31",
      "obs_count": 405
    }
  ],
  "public_status": false,
  "stock_exchanges": {
    "1": {
      "id": 1,
      "name": "Paris (Official List)",
      "listings_stats": {
        "start_date": "1962-01-02"
      },
      "spot_prices_stats": {
        "start_date": "1962-01-02",
        "end_date": "1965-05-31"
      }
    }
  },
  "securities": {
    "16712": {
      "id": 16712,
      "name": "Hôtel Majestic Paris, act.",
      "share_type": {
        "id": 1,
        "name": "Stock (Action)"
      },
      "types": [
        {
          "start_date": "1962-01-02",
          "end_date": "3999-12-31",
          "id": 18,
          "name": "Action",
          "stock_group": "S"
        }
      ],
      "start_date": "1962-01-02",
      "end_date": "3999-12-31",
      "prices_from": "1962-01-02",
      "prices_to": "1965-05-31",
      "is_mainstock": 0,
      "prices_count": 83
    }
  }
}