{
  "id": 4854,
  "names": [
    "S. A. F. I. C. S.A. Française pour l'Importation du Caoutchouc (Alcan et Cie)",
    "S.A.F.I.C. (Alcan et Cie)",
    "S.A.F.I.C. (S.A. Française pour l'Importation du Caoutchouc) (Alcan et Cie)"
  ],
  "name": "S.A.F.I.C. (S.A. Française pour l'Importation du Caoutchouc) (Alcan et Cie)",
  "balance_sheets": [
    {
      "start_date": "1947-03-31",
      "source": "Annuaire Desfossés 1948",
      "page": "2221"
    },
    {
      "start_date": "1948-03-31",
      "source": "Annuaire Desfossés 1953",
      "page": "1840"
    },
    {
      "start_date": "1949-03-31",
      "source": "Annuaire Desfossés 1953",
      "page": "1840"
    },
    {
      "start_date": "1950-03-31",
      "source": "Annuaire Desfossés 1953",
      "page": "1840"
    },
    {
      "start_date": "1951-03-31",
      "source": "Annuaire Desfossés 1953",
      "page": "1840"
    },
    {
      "start_date": "1951-12-31",
      "source": "Annuaire Desfossés 1953",
      "page": "1840"
    }
  ],
  "balance_sheets_stats": {
    "start_date": "1947-03-31",
    "end_date": "1951-12-31"
  },
  "locations_stats": {
    "start_date": "1948-01-01",
    "end_date": "1953-12-31"
  },
  "locations": {
    "Siège social": [
      {
        "location_types_id": 1,
        "location_type": "Siège social",
        "address": "Rue saint-lazare, 87",
        "city": "Paris",
        "district": "Paris",
        "country": "France",
        "in_yearbook_from": 1948,
        "in_yearbook_to": 1948
      },
      {
        "location_types_id": 1,
        "location_type": "Siège social",
        "address": "Avenue kléber, 11",
        "city": "Paris",
        "district": "Paris",
        "country": "France",
        "in_yearbook_from": 1953,
        "in_yearbook_to": 1953
      }
    ]
  },
  "persons": [
    {
      "persons_count": 2,
      "yearbook": "Annuaire Desfossés 1948",
      "source": "annuaire_df_1948",
      "page": "2221"
    },
    {
      "persons_count": 8,
      "yearbook": "Annuaire Desfossés 1953",
      "source": "annuaire_df_1953",
      "page": "1840"
    }
  ],
  "persons_stats": {
    "persons_count": 9,
    "start_date": "1948-01-01",
    "end_date": "1953-12-31"
  },
  "yearbooks_ocrs": [
    {
      "source": "annuaire_df_1948",
      "yearbook": "Annuaire Desfossés 1948",
      "page": "2221"
    },
    {
      "source": "annuaire_df_1953",
      "yearbook": "Annuaire Desfossés 1953",
      "page": "1840"
    }
  ],
  "juridical_status": [
    {
      "juridical_status": "Société Anonyme (Libre)",
      "start_date": "1938-01-01",
      "end_date": "2024-12-31",
      "comments": "Société anonyme constituée en 1938 pour une durée expirant le 31 décembre 2024.",
      "source": "annuaire_df_1948"
    }
  ],
  "equity_capital": [
    {
      "amount": "8.000.000",
      "currency": "Franc",
      "infodate": "1938-01-01",
      "source": "annuaire_df_1948",
      "comments": "34 millions divisé en 68.000 actions de 500 fr. A l'origine, 8 millions, porté en 1939 à 12 millions par' incorporation de réserves puis à. 17 millions par souscription en espèces, puis en 1947 à 34 millions."
    },
    {
      "amount": "12.000.000",
      "currency": "Franc",
      "infodate": "1939-01-01",
      "source": "annuaire_df_1948",
      "comments": "34 millions divisé en 68.000 actions de 500 fr. A l'origine, 8 millions, porté en 1939 à 12 millions par' incorporation de réserves puis à. 17 millions par souscription en espèces, puis en 1947 à 34 millions."
    },
    {
      "amount": "17.000.000",
      "currency": "Franc",
      "infodate": "1939-01-02",
      "source": "annuaire_df_1948",
      "comments": "34 millions divisé en 68.000 actions de 500 fr. A l'origine, 8 millions, porté en 1939 à 12 millions par' incorporation de réserves puis à. 17 millions par souscription en espèces, puis en 1947 à 34 millions."
    },
    {
      "amount": "34.000.000",
      "currency": "Franc",
      "infodate": "1947-01-01",
      "source": "annuaire_df_1948",
      "comments": "34 millions divisé en 68.000 actions de 500 fr. A l'origine, 8 millions, porté en 1939 à 12 millions par' incorporation de réserves puis à. 17 millions par souscription en espèces, puis en 1947 à 34 millions."
    },
    {
      "amount": "68.000.000",
      "currency": "Franc",
      "infodate": "1948-01-01",
      "source": "annuaire_df_1953",
      "comments": "Porté en 1939 à 12 millions par incorporation de réserves, puis à 17 millions par souscription en espèces; puis en 1947 à 34 millions. Porté en 1948 à 68 millions par l'émission à 525 fr. de 68.000 actions de 500 fr. (1 pour 1), puis en 1949 à 85 millions par élévation du nominal à 625 fr. (jouissance l*r avril 1949). Porté en 1950 à 102 millions par élévation du nominal à 750 fr.. nuis en 1951 à 204 millions par élévation du nominal à 1.500 fr. Regroupement en 6.000 fr. à partir du 15 septembre 1952."
    },
    {
      "amount": "85.000.000",
      "currency": "Franc",
      "infodate": "1949-01-01",
      "source": "annuaire_df_1953",
      "comments": "Porté en 1939 à 12 millions par incorporation de réserves, puis à 17 millions par souscription en espèces; puis en 1947 à 34 millions. Porté en 1948 à 68 millions par l'émission à 525 fr. de 68.000 actions de 500 fr. (1 pour 1), puis en 1949 à 85 millions par élévation du nominal à 625 fr. (jouissance l*r avril 1949). Porté en 1950 à 102 millions par élévation du nominal à 750 fr.. nuis en 1951 à 204 millions par élévation du nominal à 1.500 fr. Regroupement en 6.000 fr. à partir du 15 septembre 1952."
    },
    {
      "amount": "102.000.000",
      "currency": "Franc",
      "infodate": "1950-01-01",
      "source": "annuaire_df_1953",
      "comments": "Porté en 1939 à 12 millions par incorporation de réserves, puis à 17 millions par souscription en espèces; puis en 1947 à 34 millions. Porté en 1948 à 68 millions par l'émission à 525 fr. de 68.000 actions de 500 fr. (1 pour 1), puis en 1949 à 85 millions par élévation du nominal à 625 fr. (jouissance l*r avril 1949). Porté en 1950 à 102 millions par élévation du nominal à 750 fr.. nuis en 1951 à 204 millions par élévation du nominal à 1.500 fr. Regroupement en 6.000 fr. à partir du 15 septembre 1952."
    },
    {
      "amount": "204.000.000",
      "currency": "Franc",
      "infodate": "1951-01-01",
      "source": "annuaire_df_1953",
      "comments": "Porté en 1939 à 12 millions par incorporation de réserves, puis à 17 millions par souscription en espèces; puis en 1947 à 34 millions. Porté en 1948 à 68 millions par l'émission à 525 fr. de 68.000 actions de 500 fr. (1 pour 1), puis en 1949 à 85 millions par élévation du nominal à 625 fr. (jouissance l*r avril 1949). Porté en 1950 à 102 millions par élévation du nominal à 750 fr.. nuis en 1951 à 204 millions par élévation du nominal à 1.500 fr. Regroupement en 6.000 fr. à partir du 15 septembre 1952."
    }
  ],
  "profit_dividends": [
    {
      "first_date": "1945-03-31",
      "last_date": "1951-12-31",
      "obs_count": 57
    }
  ],
  "public_status": false,
  "stock_exchanges": {
    "1": {
      "id": 1,
      "name": "Paris (Official List)",
      "listings_stats": {
        "start_date": "1962-01-02"
      },
      "spot_prices_stats": {
        "start_date": "1962-01-02",
        "end_date": "1976-12-31"
      }
    }
  },
  "securities": {
    "16548": {
      "id": 16548,
      "name": "Safic (Alean et Cie), act. 60 NF (ex-dr., )",
      "share_type": {
        "id": 1,
        "name": "Stock (Action)"
      },
      "types": [
        {
          "start_date": "1962-01-02",
          "end_date": "3999-12-31",
          "id": 18,
          "name": "Action",
          "stock_group": "S"
        }
      ],
      "start_date": "1962-01-02",
      "end_date": "3999-12-31",
      "prices_from": null,
      "prices_to": null,
      "is_mainstock": 0,
      "prices_count": 0
    },
    "16625": {
      "id": 16625,
      "name": "S.a.f.i.c. (Alcan et Cie), act. (ex-dr., )",
      "share_type": {
        "id": 1,
        "name": "Stock (Action)"
      },
      "types": [
        {
          "start_date": "1962-01-02",
          "end_date": "3999-12-31",
          "id": 18,
          "name": "Action",
          "stock_group": "S"
        }
      ],
      "start_date": "1962-01-02",
      "end_date": "3999-12-31",
      "prices_from": "1962-01-02",
      "prices_to": "1976-12-31",
      "is_mainstock": 0,
      "prices_count": 370
    },
    "18610": {
      "id": 18610,
      "name": "S.A.F.I.C. (Alcan et Cie), act. (n° 250001 à 275000) (c. 34 att.)",
      "share_type": {
        "id": 1,
        "name": "Stock (Action)"
      },
      "types": [
        {
          "start_date": "1966-11-21",
          "end_date": "3999-12-31",
          "id": 18,
          "name": "Action",
          "stock_group": "S"
        }
      ],
      "start_date": "1966-11-21",
      "end_date": "3999-12-31",
      "prices_from": "1966-11-21",
      "prices_to": "1967-09-15",
      "is_mainstock": 0,
      "prices_count": 21
    },
    "18611": {
      "id": 18611,
      "name": "S.A.F.I.C. (Alcan et Cie), Promesses (Jce 1/1/67)",
      "share_type": {
        "id": 1,
        "name": "Stock (Action)"
      },
      "types": [
        {
          "start_date": "1966-12-29",
          "end_date": "3999-12-31",
          "id": 27,
          "name": "Promesse d'action",
          "stock_group": "S"
        }
      ],
      "start_date": "1966-12-29",
      "end_date": "3999-12-31",
      "prices_from": "1967-01-06",
      "prices_to": "1967-03-15",
      "is_mainstock": 0,
      "prices_count": 6
    },
    "20406": {
      "id": 20406,
      "name": "S.A.F.I.C Alcan et Cie, promesses (Jce 1/7/69)",
      "share_type": {
        "id": 1,
        "name": "Stock (Action)"
      },
      "types": [
        {
          "start_date": "1969-11-03",
          "end_date": "3999-12-31",
          "id": 27,
          "name": "Promesse d'action",
          "stock_group": "S"
        }
      ],
      "start_date": "1969-11-03",
      "end_date": "3999-12-31",
      "prices_from": "1969-11-04",
      "prices_to": "1970-01-15",
      "is_mainstock": 0,
      "prices_count": 6
    },
    "20410": {
      "id": 20410,
      "name": "S.A.F.I.C. Alcan et Cie, act (nos 1 à 150000 titres nouv.) - Act (nos 325001 à 400000) (c. 38 étoilé att.)",
      "share_type": {
        "id": 1,
        "name": "Stock (Action)"
      },
      "types": [
        {
          "start_date": "1970-01-27",
          "end_date": "3999-12-31",
          "id": 11,
          "name": "Action ordinaire",
          "stock_group": "S"
        }
      ],
      "start_date": "1970-01-27",
      "end_date": "3999-12-31",
      "prices_from": "1970-01-27",
      "prices_to": "1970-06-15",
      "is_mainstock": 0,
      "prices_count": 11
    },
    "106217": {
      "id": 106217,
      "name": "S.a.f.i.c. (Alcan et Cie), Promesses (Jce 1/1/62)",
      "share_type": {
        "id": 1,
        "name": "Stock (Action)"
      },
      "types": [
        {
          "start_date": "1962-07-16",
          "end_date": "1962-10-01",
          "id": 27,
          "name": "Promesse d'action",
          "stock_group": "S"
        }
      ],
      "start_date": "1962-07-16",
      "end_date": "1962-10-01",
      "prices_from": "1962-08-31",
      "prices_to": "1962-10-01",
      "is_mainstock": 0,
      "prices_count": 3
    }
  }
}