{
  "id": 2777,
  "names": [
    "ETATS : FINLANDE (Grand Duché de)",
    "GRAND DUCHE DE FINLANDE",
    "GRAND DUCHÉ DE FINLANDE",
    "GRAND-DUCHE DE FINLANDE",
    "GRAND-DUCHÉ DE FINLANDE"
  ],
  "name": "GRAND DUCHE DE FINLANDE",
  "balance_sheets": [],
  "balance_sheets_stats": {
    "start_date": null,
    "end_date": null
  },
  "locations_stats": {
    "start_date": null,
    "end_date": null
  },
  "locations": {},
  "persons": [],
  "persons_stats": {
    "persons_count": 0,
    "start_date": null,
    "end_date": null
  },
  "yearbooks_ocrs": [
    {
      "source": "annuaire_cac_1893",
      "yearbook": "Annuaire de la Compagnie des Agents de Change 1893",
      "page": "155"
    },
    {
      "source": "annuaire_cac_1898",
      "yearbook": "Annuaire de la Compagnie des Agents de Change 1898",
      "page": "202"
    },
    {
      "source": "annuaire_cac_1903",
      "yearbook": "Annuaire de la Compagnie des Agents de Change 1903",
      "page": "208"
    },
    {
      "source": "annuaire_cac_1908",
      "yearbook": "Annuaire de la Compagnie des Agents de Change 1908",
      "page": "175"
    },
    {
      "source": "annuaire_df_1912",
      "yearbook": "Annuaire Desfossés 1912",
      "page": "44"
    },
    {
      "source": "annuaire_df_1917",
      "yearbook": "Annuaire Desfossés 1917",
      "page": "42"
    },
    {
      "source": "annuaire_df_1923",
      "yearbook": "Annuaire Desfossés 1923",
      "page": "58"
    },
    {
      "source": "annuaire_df_1927",
      "yearbook": "Annuaire Desfossés 1927",
      "page": "51"
    },
    {
      "source": "annuaire_df_1933",
      "yearbook": "Annuaire Desfossés 1933",
      "page": "65"
    }
  ],
  "juridical_status": [],
  "equity_capital": [],
  "profit_dividends": [],
  "public_status": true,
  "stock_exchanges": {
    "1": {
      "id": 1,
      "name": "Paris (Official List)",
      "forward_prices_stats": {
        "start_date": "1890-02-15",
        "end_date": "1890-12-31"
      },
      "listings_stats": {
        "start_date": "1890-02-11"
      },
      "spot_prices_stats": {
        "start_date": "1890-02-11",
        "end_date": "1938-11-30"
      }
    }
  },
  "securities": {
    "3557": {
      "id": 3557,
      "name": "Finlande 3,5% 1889 T. 617 fr. capital",
      "share_type": {
        "id": 2,
        "name": "Bond (Obligation)"
      },
      "types": [
        {
          "start_date": "1890-02-11",
          "end_date": "3999-12-31",
          "id": 1001,
          "name": "Obligation ordinaire ou classique",
          "stock_group": "B"
        }
      ],
      "start_date": "1890-02-11",
      "end_date": "3999-12-31",
      "prices_from": "1890-02-11",
      "prices_to": "1938-11-30",
      "is_mainstock": 0,
      "prices_count": 368
    },
    "3558": {
      "id": 3558,
      "name": "Finlande 3,5% 1889 T. 2468 fr. capital",
      "share_type": {
        "id": 2,
        "name": "Bond (Obligation)"
      },
      "types": [
        {
          "start_date": "1890-02-11",
          "end_date": "3999-12-31",
          "id": 1001,
          "name": "Obligation ordinaire ou classique",
          "stock_group": "B"
        }
      ],
      "start_date": "1890-02-11",
      "end_date": "3999-12-31",
      "prices_from": "1890-02-12",
      "prices_to": "1938-11-30",
      "is_mainstock": 0,
      "prices_count": 222
    },
    "3560": {
      "id": 3560,
      "name": "Finlande 3,5% 1889 T. 6170 fr. capital",
      "share_type": {
        "id": 2,
        "name": "Bond (Obligation)"
      },
      "types": [
        {
          "start_date": "1890-02-11",
          "end_date": "3999-12-31",
          "id": 1001,
          "name": "Obligation ordinaire ou classique",
          "stock_group": "B"
        }
      ],
      "start_date": "1890-02-11",
      "end_date": "3999-12-31",
      "prices_from": "1890-02-12",
      "prices_to": "1938-11-30",
      "is_mainstock": 0,
      "prices_count": 156
    },
    "4355": {
      "id": 4355,
      "name": "Etat Finlandais 3,5% 1895",
      "share_type": {
        "id": 2,
        "name": "Bond (Obligation)"
      },
      "types": [
        {
          "start_date": "1895-07-30",
          "end_date": "3999-12-31",
          "id": 1001,
          "name": "Obligation ordinaire ou classique",
          "stock_group": "B"
        }
      ],
      "start_date": "1895-07-30",
      "end_date": "3999-12-31",
      "prices_from": "1895-07-30",
      "prices_to": "1919-04-30",
      "is_mainstock": 0,
      "prices_count": 306
    },
    "4540": {
      "id": 4540,
      "name": "Finlande (Grand-Duché de) 3% amortissable 1898",
      "share_type": {
        "id": 2,
        "name": "Bond (Obligation)"
      },
      "types": [
        {
          "start_date": "1899-03-07",
          "end_date": "3999-12-31",
          "id": 1001,
          "name": "Obligation ordinaire ou classique",
          "stock_group": "B"
        }
      ],
      "start_date": "1899-03-07",
      "end_date": "3999-12-31",
      "prices_from": "1899-03-07",
      "prices_to": "1900-02-15",
      "is_mainstock": 0,
      "prices_count": 32
    },
    "4542": {
      "id": 4542,
      "name": "Finlande 3% amortiss. 1898. Oblig. 500 fr. capital.",
      "share_type": {
        "id": 2,
        "name": "Bond (Obligation)"
      },
      "types": [
        {
          "start_date": "1899-03-07",
          "end_date": "3999-12-31",
          "id": 1001,
          "name": "Obligation ordinaire ou classique",
          "stock_group": "B"
        }
      ],
      "start_date": "1899-03-07",
      "end_date": "3999-12-31",
      "prices_from": "1899-03-08",
      "prices_to": "1938-09-30",
      "is_mainstock": 0,
      "prices_count": 643
    },
    "4543": {
      "id": 4543,
      "name": "Finlande 3% amortiss. 1898. Oblig. 1000 fr. capital",
      "share_type": {
        "id": 2,
        "name": "Bond (Obligation)"
      },
      "types": [
        {
          "start_date": "1899-03-07",
          "end_date": "3999-12-31",
          "id": 1001,
          "name": "Obligation ordinaire ou classique",
          "stock_group": "B"
        }
      ],
      "start_date": "1899-03-07",
      "end_date": "3999-12-31",
      "prices_from": "1899-03-08",
      "prices_to": "1938-09-30",
      "is_mainstock": 0,
      "prices_count": 568
    },
    "4544": {
      "id": 4544,
      "name": "Finlande 3% amortiss. 1898. Oblig. 5000 fr. capital.",
      "share_type": {
        "id": 2,
        "name": "Bond (Obligation)"
      },
      "types": [
        {
          "start_date": "1899-03-07",
          "end_date": "3999-12-31",
          "id": 1001,
          "name": "Obligation ordinaire ou classique",
          "stock_group": "B"
        }
      ],
      "start_date": "1899-03-07",
      "end_date": "3999-12-31",
      "prices_from": "1899-03-08",
      "prices_to": "1938-09-30",
      "is_mainstock": 0,
      "prices_count": 414
    },
    "4564": {
      "id": 4564,
      "name": "Etat Finlandais 3,5% 1895. Gr. C.",
      "share_type": {
        "id": 2,
        "name": "Bond (Obligation)"
      },
      "types": [
        {
          "start_date": "1899-09-19",
          "end_date": "3999-12-31",
          "id": 1001,
          "name": "Obligation ordinaire ou classique",
          "stock_group": "B"
        }
      ],
      "start_date": "1899-09-19",
      "end_date": "3999-12-31",
      "prices_from": "1899-10-31",
      "prices_to": "1919-04-30",
      "is_mainstock": 0,
      "prices_count": 115
    },
    "4616": {
      "id": 4616,
      "name": "Finlande 3,5% amortiss. 1901. Oblig. 500 fr. capital",
      "share_type": {
        "id": 2,
        "name": "Bond (Obligation)"
      },
      "types": [
        {
          "start_date": "1901-11-26",
          "end_date": "3999-12-31",
          "id": 1001,
          "name": "Obligation ordinaire ou classique",
          "stock_group": "B"
        }
      ],
      "start_date": "1901-11-26",
      "end_date": "3999-12-31",
      "prices_from": "1901-11-26",
      "prices_to": "1938-11-15",
      "is_mainstock": 0,
      "prices_count": 532
    },
    "4617": {
      "id": 4617,
      "name": "Finlande 3,5% amortiss. 1901. Oblig. 5000 fr. capital",
      "share_type": {
        "id": 2,
        "name": "Bond (Obligation)"
      },
      "types": [
        {
          "start_date": "1901-11-26",
          "end_date": "3999-12-31",
          "id": 1001,
          "name": "Obligation ordinaire ou classique",
          "stock_group": "B"
        }
      ],
      "start_date": "1901-11-26",
      "end_date": "3999-12-31",
      "prices_from": "1901-11-26",
      "prices_to": "1938-11-15",
      "is_mainstock": 0,
      "prices_count": 315
    },
    "4834": {
      "id": 4834,
      "name": "Finlande 3.5% amortissable 1903",
      "share_type": {
        "id": 2,
        "name": "Bond (Obligation)"
      },
      "types": [
        {
          "start_date": "1904-02-13",
          "end_date": "3999-12-31",
          "id": 1001,
          "name": "Obligation ordinaire ou classique",
          "stock_group": "B"
        }
      ],
      "start_date": "1904-02-13",
      "end_date": "3999-12-31",
      "prices_from": "1904-02-17",
      "prices_to": "1920-06-15",
      "is_mainstock": 0,
      "prices_count": 191
    },
    "5770": {
      "id": 5770,
      "name": "Finlande 3,5% 1889. Titres de 617fr.capital, non est.",
      "share_type": {
        "id": 2,
        "name": "Bond (Obligation)"
      },
      "types": [
        {
          "start_date": "1919-08-13",
          "end_date": "3999-12-31",
          "id": 1001,
          "name": "Obligation ordinaire ou classique",
          "stock_group": "B"
        }
      ],
      "start_date": "1919-08-13",
      "end_date": "3999-12-31",
      "prices_from": null,
      "prices_to": null,
      "is_mainstock": 0,
      "prices_count": 0
    },
    "5771": {
      "id": 5771,
      "name": "Finlande 3,5% 1889. Titres de 2468fr.capital, non est.",
      "share_type": {
        "id": 2,
        "name": "Bond (Obligation)"
      },
      "types": [
        {
          "start_date": "1919-08-13",
          "end_date": "3999-12-31",
          "id": 1001,
          "name": "Obligation ordinaire ou classique",
          "stock_group": "B"
        }
      ],
      "start_date": "1919-08-13",
      "end_date": "3999-12-31",
      "prices_from": null,
      "prices_to": null,
      "is_mainstock": 0,
      "prices_count": 0
    },
    "5772": {
      "id": 5772,
      "name": "Finlande 3,5% 1889. Titres de 6170fr.capital, non est.",
      "share_type": {
        "id": 2,
        "name": "Bond (Obligation)"
      },
      "types": [
        {
          "start_date": "1919-08-13",
          "end_date": "3999-12-31",
          "id": 1001,
          "name": "Obligation ordinaire ou classique",
          "stock_group": "B"
        }
      ],
      "start_date": "1919-08-13",
      "end_date": "3999-12-31",
      "prices_from": null,
      "prices_to": null,
      "is_mainstock": 0,
      "prices_count": 0
    },
    "5773": {
      "id": 5773,
      "name": "Finlande 3% amortiss. 1898. Obl. 15fr.rente, non est.",
      "share_type": {
        "id": 2,
        "name": "Bond (Obligation)"
      },
      "types": [
        {
          "start_date": "1919-08-13",
          "end_date": "3999-12-31",
          "id": 1001,
          "name": "Obligation ordinaire ou classique",
          "stock_group": "B"
        }
      ],
      "start_date": "1919-08-13",
      "end_date": "3999-12-31",
      "prices_from": null,
      "prices_to": null,
      "is_mainstock": 0,
      "prices_count": 0
    },
    "5775": {
      "id": 5775,
      "name": "Finlande 3% amortiss. 1898. Obl. 30fr.rente, non est.",
      "share_type": {
        "id": 2,
        "name": "Bond (Obligation)"
      },
      "types": [
        {
          "start_date": "1919-08-13",
          "end_date": "3999-12-31",
          "id": 1001,
          "name": "Obligation ordinaire ou classique",
          "stock_group": "B"
        }
      ],
      "start_date": "1919-08-13",
      "end_date": "3999-12-31",
      "prices_from": null,
      "prices_to": null,
      "is_mainstock": 0,
      "prices_count": 0
    },
    "5776": {
      "id": 5776,
      "name": "Finlande 3% amortiss. 1898. Obl. 150fr.rente, non est.",
      "share_type": {
        "id": 2,
        "name": "Bond (Obligation)"
      },
      "types": [
        {
          "start_date": "1919-08-13",
          "end_date": "3999-12-31",
          "id": 1001,
          "name": "Obligation ordinaire ou classique",
          "stock_group": "B"
        }
      ],
      "start_date": "1919-08-13",
      "end_date": "3999-12-31",
      "prices_from": null,
      "prices_to": null,
      "is_mainstock": 0,
      "prices_count": 0
    },
    "5777": {
      "id": 5777,
      "name": "Finlande 3,5% amortiss. 1901. Obl. 17f50.rente, non est.",
      "share_type": {
        "id": 2,
        "name": "Bond (Obligation)"
      },
      "types": [
        {
          "start_date": "1919-08-13",
          "end_date": "3999-12-31",
          "id": 1001,
          "name": "Obligation ordinaire ou classique",
          "stock_group": "B"
        }
      ],
      "start_date": "1919-08-13",
      "end_date": "3999-12-31",
      "prices_from": null,
      "prices_to": null,
      "is_mainstock": 0,
      "prices_count": 0
    },
    "5778": {
      "id": 5778,
      "name": "Finlande 3,5% amortiss. 1901. Obl. 175fr.rente, non est.",
      "share_type": {
        "id": 2,
        "name": "Bond (Obligation)"
      },
      "types": [
        {
          "start_date": "1919-08-13",
          "end_date": "3999-12-31",
          "id": 1001,
          "name": "Obligation ordinaire ou classique",
          "stock_group": "B"
        }
      ],
      "start_date": "1919-08-13",
      "end_date": "3999-12-31",
      "prices_from": null,
      "prices_to": null,
      "is_mainstock": 0,
      "prices_count": 0
    },
    "5901": {
      "id": 5901,
      "name": "Finlande 3,5% amort.1895, unités, non est.",
      "share_type": {
        "id": 2,
        "name": "Bond (Obligation)"
      },
      "types": [
        {
          "start_date": "1919-08-13",
          "end_date": "3999-12-31",
          "id": 1001,
          "name": "Obligation ordinaire ou classique",
          "stock_group": "B"
        }
      ],
      "start_date": "1919-08-13",
      "end_date": "3999-12-31",
      "prices_from": "1920-08-17",
      "prices_to": "1920-08-17",
      "is_mainstock": 0,
      "prices_count": 1
    },
    "5903": {
      "id": 5903,
      "name": "Finlande 3,5% amort.1895, unités, r.coup. non est.",
      "share_type": {
        "id": 2,
        "name": "Bond (Obligation)"
      },
      "types": [
        {
          "start_date": "1919-08-13",
          "end_date": "3999-12-31",
          "id": 1001,
          "name": "Obligation ordinaire ou classique",
          "stock_group": "B"
        }
      ],
      "start_date": "1919-08-13",
      "end_date": "3999-12-31",
      "prices_from": null,
      "prices_to": null,
      "is_mainstock": 0,
      "prices_count": 0
    },
    "5904": {
      "id": 5904,
      "name": "Finlande 3,5% amort.1903, unités, non est.",
      "share_type": {
        "id": 2,
        "name": "Bond (Obligation)"
      },
      "types": [
        {
          "start_date": "1919-08-13",
          "end_date": "3999-12-31",
          "id": 1001,
          "name": "Obligation ordinaire ou classique",
          "stock_group": "B"
        }
      ],
      "start_date": "1919-08-13",
      "end_date": "3999-12-31",
      "prices_from": null,
      "prices_to": null,
      "is_mainstock": 0,
      "prices_count": 0
    },
    "6376": {
      "id": 6376,
      "name": "Finlande, 3,5% amortissable 1895, obl 17 fr. 50 de rente non estamp",
      "share_type": {
        "id": 2,
        "name": "Bond (Obligation)"
      },
      "types": [
        {
          "start_date": "1920-09-24",
          "end_date": "3999-12-31",
          "id": 1001,
          "name": "Obligation ordinaire ou classique",
          "stock_group": "B"
        }
      ],
      "start_date": "1920-09-24",
      "end_date": "3999-12-31",
      "prices_from": "1920-09-24",
      "prices_to": "1920-09-24",
      "is_mainstock": 0,
      "prices_count": 1
    },
    "6377": {
      "id": 6377,
      "name": "Finlande, 3,5% amortissable 1895, obl 35 fr. de rente non estamp",
      "share_type": {
        "id": 2,
        "name": "Bond (Obligation)"
      },
      "types": [
        {
          "start_date": "1920-09-24",
          "end_date": "3999-12-31",
          "id": 1001,
          "name": "Obligation ordinaire ou classique",
          "stock_group": "B"
        }
      ],
      "start_date": "1920-09-24",
      "end_date": "3999-12-31",
      "prices_from": "1920-09-24",
      "prices_to": "1920-09-24",
      "is_mainstock": 0,
      "prices_count": 1
    },
    "6378": {
      "id": 6378,
      "name": "Finlande, 3,5% amortissable 1895, obl 175 de rente non estamp",
      "share_type": {
        "id": 2,
        "name": "Bond (Obligation)"
      },
      "types": [
        {
          "start_date": "1920-09-24",
          "end_date": "3999-12-31",
          "id": 1001,
          "name": "Obligation ordinaire ou classique",
          "stock_group": "B"
        }
      ],
      "start_date": "1920-09-24",
      "end_date": "3999-12-31",
      "prices_from": "1920-09-24",
      "prices_to": "1920-09-24",
      "is_mainstock": 0,
      "prices_count": 1
    },
    "6379": {
      "id": 6379,
      "name": "Finlande 3,5% amortiss. 1903. T. 500 fr. capital.",
      "share_type": {
        "id": 2,
        "name": "Bond (Obligation)"
      },
      "types": [
        {
          "start_date": "1920-09-24",
          "end_date": "3999-12-31",
          "id": 1001,
          "name": "Obligation ordinaire ou classique",
          "stock_group": "B"
        }
      ],
      "start_date": "1920-09-24",
      "end_date": "3999-12-31",
      "prices_from": "1920-09-24",
      "prices_to": "1938-11-15",
      "is_mainstock": 0,
      "prices_count": 149
    },
    "6380": {
      "id": 6380,
      "name": "Finlande 3,5% amortiss. 1903. T. 5000 fr. capital.",
      "share_type": {
        "id": 2,
        "name": "Bond (Obligation)"
      },
      "types": [
        {
          "start_date": "1920-09-24",
          "end_date": "3999-12-31",
          "id": 1001,
          "name": "Obligation ordinaire ou classique",
          "stock_group": "B"
        }
      ],
      "start_date": "1920-09-24",
      "end_date": "3999-12-31",
      "prices_from": "1920-11-03",
      "prices_to": "1938-11-15",
      "is_mainstock": 0,
      "prices_count": 132
    },
    "22136": {
      "id": 22136,
      "name": "Finlande 3,5% amortiss. 1895. Oblig. 500 fr. capital",
      "share_type": {
        "id": 2,
        "name": "Bond (Obligation)"
      },
      "types": [
        {
          "start_date": "1920-09-24",
          "end_date": "3999-12-31",
          "id": 1001,
          "name": "Obligation ordinaire ou classique",
          "stock_group": "B"
        }
      ],
      "start_date": "1920-09-24",
      "end_date": "3999-12-31",
      "prices_from": "1920-09-30",
      "prices_to": "1938-08-01",
      "is_mainstock": 0,
      "prices_count": 210
    },
    "22137": {
      "id": 22137,
      "name": "Finlande 3,5% amortiss. 1895. Oblig. 1000 fr. capital.",
      "share_type": {
        "id": 2,
        "name": "Bond (Obligation)"
      },
      "types": [
        {
          "start_date": "1920-09-21",
          "end_date": "3999-12-31",
          "id": 1001,
          "name": "Obligation ordinaire ou classique",
          "stock_group": "B"
        }
      ],
      "start_date": "1920-09-21",
      "end_date": "3999-12-31",
      "prices_from": "1920-09-30",
      "prices_to": "1938-08-01",
      "is_mainstock": 0,
      "prices_count": 207
    },
    "22138": {
      "id": 22138,
      "name": "Finlande 3,5% amortiss. 1895. Oblig. 5000 fr. capital.",
      "share_type": {
        "id": 2,
        "name": "Bond (Obligation)"
      },
      "types": [
        {
          "start_date": "1920-09-27",
          "end_date": "3999-12-31",
          "id": 1001,
          "name": "Obligation ordinaire ou classique",
          "stock_group": "B"
        }
      ],
      "start_date": "1920-09-27",
      "end_date": "3999-12-31",
      "prices_from": "1920-09-30",
      "prices_to": "1938-08-01",
      "is_mainstock": 0,
      "prices_count": 190
    },
    "25378": {
      "id": 25378,
      "name": "Finlande 3.5% amortissable 1895 coup de 35",
      "share_type": {
        "id": 2,
        "name": "Bond (Obligation)"
      },
      "types": [
        {
          "start_date": "1000-01-01",
          "end_date": "3999-12-31",
          "id": 1001,
          "name": "Obligation ordinaire ou classique",
          "stock_group": "B"
        }
      ],
      "start_date": "1913-03-29",
      "end_date": "3999-12-31",
      "prices_from": "1913-03-31",
      "prices_to": "1913-03-31",
      "is_mainstock": 0,
      "prices_count": 1
    }
  }
}