{
  "id": 2264,
  "names": [
    "COMPAGNIE D AGUILAS",
    "COMPAGNIE D'AGUILAS",
    "Compagnie d'Aguilas",
    "Compagnie d’Aguilas"
  ],
  "name": "COMPAGNIE D'AGUILAS",
  "balance_sheets": [
    {
      "start_date": "1910-12-31",
      "source": "Annuaire Desfossés 1912",
      "page": "729"
    },
    {
      "start_date": "1912-12-31",
      "source": "Annuaire Desfossés 1914",
      "page": "795"
    },
    {
      "start_date": "1916-12-31",
      "source": "Annuaire Desfossés 1917",
      "page": "725"
    },
    {
      "start_date": "1919-12-31",
      "source": "Annuaire Desfossés 1920",
      "page": "795"
    },
    {
      "start_date": "1921-12-31",
      "source": "Annuaire Desfossés 1923",
      "page": "887"
    },
    {
      "start_date": "1923-12-31",
      "source": "Annuaire Desfossés 1925",
      "page": "1017"
    },
    {
      "start_date": "1925-12-31",
      "source": "Annuaire Desfossés 1927",
      "page": "1458"
    },
    {
      "start_date": "1925-12-31",
      "source": "Annuaire Desfossés 1927",
      "page": "816"
    },
    {
      "start_date": "1927-12-31",
      "source": "Annuaire Desfossés 1929",
      "page": "868"
    },
    {
      "start_date": "1929-12-31",
      "source": "Annuaire Desfossés 1931",
      "page": "890"
    },
    {
      "start_date": "1931-12-31",
      "source": "Annuaire Desfossés 1933",
      "page": "947"
    },
    {
      "start_date": "1934-12-31",
      "source": "Annuaire Desfossés 1937",
      "page": "1115"
    },
    {
      "start_date": "1935-12-31",
      "source": "Annuaire Desfossés 1940",
      "page": null
    },
    {
      "start_date": "1936-12-31",
      "source": "Annuaire Desfossés 1940",
      "page": null
    },
    {
      "start_date": "1937-12-31",
      "source": "Annuaire Desfossés 1940",
      "page": null
    },
    {
      "start_date": "1938-12-31",
      "source": "Annuaire Desfossés 1945",
      "page": "831"
    },
    {
      "start_date": "1941-12-31",
      "source": "Annuaire Desfossés 1945",
      "page": "831"
    },
    {
      "start_date": "1942-12-31",
      "source": "Annuaire Desfossés 1945",
      "page": "831"
    },
    {
      "start_date": "1943-12-31",
      "source": "Annuaire Desfossés 1948",
      "page": "888"
    },
    {
      "start_date": "1944-12-31",
      "source": "Annuaire Desfossés 1948",
      "page": "888"
    },
    {
      "start_date": "1945-12-31",
      "source": "Annuaire Desfossés 1953",
      "page": "686"
    },
    {
      "start_date": "1946-12-31",
      "source": "Annuaire Desfossés 1953",
      "page": "686"
    },
    {
      "start_date": "1947-12-31",
      "source": "Annuaire Desfossés 1953",
      "page": "686"
    },
    {
      "start_date": "1948-12-31",
      "source": "Annuaire Desfossés 1953",
      "page": "686"
    },
    {
      "start_date": "1949-12-31",
      "source": "Annuaire Desfossés 1953",
      "page": "686"
    }
  ],
  "balance_sheets_stats": {
    "start_date": "1910-12-31",
    "end_date": "1949-12-31"
  },
  "locations_stats": {
    "start_date": "1884-01-01",
    "end_date": "1953-12-31"
  },
  "locations": {
    "Siège social": [
      {
        "location_types_id": 1,
        "location_type": "Siège social",
        "address": "Rue de la victoire, 64",
        "city": "Paris",
        "district": "Paris",
        "country": "France",
        "in_yearbook_from": 1884,
        "in_yearbook_to": 1893
      },
      {
        "location_types_id": 1,
        "location_type": "Siège social",
        "address": "Rue des mathurins, 32",
        "city": "Paris",
        "district": "Paris",
        "country": "France",
        "in_yearbook_from": 1898,
        "in_yearbook_to": 1917
      },
      {
        "location_types_id": 1,
        "location_type": "Siège social",
        "address": "Rue jules-lefebvre, 5",
        "city": "Paris",
        "district": "Paris",
        "country": "France",
        "in_yearbook_from": 1923,
        "in_yearbook_to": 1937
      },
      {
        "location_types_id": 1,
        "location_type": "Siège social",
        "address": "Avenue de friedland, 39",
        "city": "Paris",
        "district": "Paris",
        "country": "France",
        "in_yearbook_from": 1940,
        "in_yearbook_to": 1953
      }
    ],
    "Siège d'exploitation": [
      {
        "location_types_id": 15,
        "location_type": "Siège d'exploitation",
        "address": null,
        "city": null,
        "district": null,
        "country": "Algérie",
        "in_yearbook_from": 1945,
        "in_yearbook_to": 1945
      },
      {
        "location_types_id": 15,
        "location_type": "Siège d'exploitation",
        "address": null,
        "city": null,
        "district": null,
        "country": "Espagne",
        "in_yearbook_from": 1945,
        "in_yearbook_to": 1945
      }
    ]
  },
  "persons": [
    {
      "persons_count": 5,
      "yearbook": "Annuaire de la Compagnie des Agents de Change 1883",
      "source": "annuaire_cac_1883",
      "page": "1218"
    },
    {
      "persons_count": 2,
      "yearbook": "Annuaire de la Compagnie des Agents de Change 1888",
      "source": "annuaire_cac_1888",
      "page": "1315"
    },
    {
      "persons_count": 3,
      "yearbook": "Annuaire de la Compagnie des Agents de Change 1893",
      "source": "annuaire_cac_1893",
      "page": "1428"
    },
    {
      "persons_count": 4,
      "yearbook": "Annuaire de la Compagnie des Agents de Change 1898",
      "source": "annuaire_cac_1898",
      "page": "1661"
    },
    {
      "persons_count": 3,
      "yearbook": "Annuaire de la Compagnie des Agents de Change 1903",
      "source": "annuaire_cac_1903",
      "page": "1945"
    },
    {
      "persons_count": 6,
      "yearbook": "Annuaire de la Compagnie des Agents de Change 1908",
      "source": "annuaire_cac_1908",
      "page": "1638"
    },
    {
      "persons_count": 4,
      "yearbook": "Annuaire Desfossés 1912",
      "source": "annuaire_df_1912",
      "page": "729"
    },
    {
      "persons_count": 2,
      "yearbook": "Annuaire Desfossés 1917",
      "source": "annuaire_df_1917",
      "page": "725"
    },
    {
      "persons_count": 2,
      "yearbook": "Annuaire Desfossés 1923",
      "source": "annuaire_df_1923",
      "page": "887"
    },
    {
      "persons_count": 4,
      "yearbook": "Annuaire Desfossés 1927",
      "source": "annuaire_df_1927",
      "page": "816"
    },
    {
      "persons_count": 4,
      "yearbook": "Annuaire Desfossés 1927",
      "source": "annuaire_df_1927",
      "page": "1458"
    },
    {
      "persons_count": 8,
      "yearbook": "Annuaire Desfossés 1933",
      "source": "annuaire_df_1933",
      "page": "947"
    },
    {
      "persons_count": 3,
      "yearbook": "Annuaire Desfossés 1940",
      "source": "annuaire_df_1940",
      "page": null
    },
    {
      "persons_count": 6,
      "yearbook": "Annuaire Desfossés 1945",
      "source": "annuaire_df_1945",
      "page": "831"
    },
    {
      "persons_count": 5,
      "yearbook": "Annuaire Desfossés 1948",
      "source": "annuaire_df_1948",
      "page": "888"
    },
    {
      "persons_count": 8,
      "yearbook": "Annuaire Desfossés 1953",
      "source": "annuaire_df_1953",
      "page": "686"
    }
  ],
  "persons_stats": {
    "persons_count": 42,
    "start_date": "1883-01-01",
    "end_date": "1953-12-31"
  },
  "yearbooks_ocrs": [
    {
      "source": "annuaire_cac_1883",
      "yearbook": "Annuaire de la Compagnie des Agents de Change 1883",
      "page": "1218"
    },
    {
      "source": "annuaire_cac_1888",
      "yearbook": "Annuaire de la Compagnie des Agents de Change 1888",
      "page": "1315"
    },
    {
      "source": "annuaire_cac_1893",
      "yearbook": "Annuaire de la Compagnie des Agents de Change 1893",
      "page": "1428"
    },
    {
      "source": "annuaire_cac_1898",
      "yearbook": "Annuaire de la Compagnie des Agents de Change 1898",
      "page": "1661"
    },
    {
      "source": "annuaire_cac_1903",
      "yearbook": "Annuaire de la Compagnie des Agents de Change 1903",
      "page": "1945"
    },
    {
      "source": "annuaire_cac_1908",
      "yearbook": "Annuaire de la Compagnie des Agents de Change 1908",
      "page": "1638"
    },
    {
      "source": "annuaire_df_1912",
      "yearbook": "Annuaire Desfossés 1912",
      "page": "729"
    },
    {
      "source": "annuaire_df_1914",
      "yearbook": "Annuaire Desfossés 1914",
      "page": "795"
    },
    {
      "source": "annuaire_df_1917",
      "yearbook": "Annuaire Desfossés 1917",
      "page": "725"
    },
    {
      "source": "annuaire_df_1920",
      "yearbook": "Annuaire Desfossés 1920",
      "page": "795"
    },
    {
      "source": "annuaire_df_1923",
      "yearbook": "Annuaire Desfossés 1923",
      "page": "887"
    },
    {
      "source": "annuaire_df_1925",
      "yearbook": "Annuaire Desfossés 1925",
      "page": "1017"
    },
    {
      "source": "annuaire_df_1927",
      "yearbook": "Annuaire Desfossés 1927",
      "page": "816"
    },
    {
      "source": "annuaire_df_1927",
      "yearbook": "Annuaire Desfossés 1927",
      "page": "1458"
    },
    {
      "source": "annuaire_df_1929",
      "yearbook": "Annuaire Desfossés 1929",
      "page": "868"
    },
    {
      "source": "annuaire_df_1931",
      "yearbook": "Annuaire Desfossés 1931",
      "page": "890"
    },
    {
      "source": "annuaire_df_1933",
      "yearbook": "Annuaire Desfossés 1933",
      "page": "947"
    },
    {
      "source": "annuaire_df_1937",
      "yearbook": "Annuaire Desfossés 1937",
      "page": "1115"
    },
    {
      "source": "annuaire_df_1940",
      "yearbook": "Annuaire Desfossés 1940",
      "page": null
    },
    {
      "source": "annuaire_df_1945",
      "yearbook": "Annuaire Desfossés 1945",
      "page": "831"
    },
    {
      "source": "annuaire_df_1948",
      "yearbook": "Annuaire Desfossés 1948",
      "page": "888"
    },
    {
      "source": "annuaire_df_1953",
      "yearbook": "Annuaire Desfossés 1953",
      "page": "686"
    }
  ],
  "juridical_status": [
    {
      "juridical_status": "Société Anonyme (Libre)",
      "start_date": "1881-06-30",
      "end_date": "1931-06-30",
      "comments": "Société anonyme formée par acte passé devant Me Dufour, notaire à Paris, le 31 mai 1881, définitivement constituée le 30 juin suivant, modifiée par décision de l’Assemblée générale du 4 décembre 1888.",
      "source": "annuaire_cac_1893"
    },
    {
      "juridical_status": "Société Anonyme (Libre)",
      "start_date": "1931-07-01",
      "end_date": "2020-06-30",
      "comments": "par décision de rassemblée extraordinairejlu 28 avril 1925 cette durée a été prorogée jusqu’au 30 juin 2020.",
      "source": "annuaire_df_1927"
    }
  ],
  "equity_capital": [
    {
      "amount": "30.000.000",
      "currency": null,
      "infodate": "1881-06-30",
      "source": "annuaire_cac_1883",
      "comments": " 30,000,000 de francs ; divisé en 60,000 actions de 500 francs, au porteur, entièrement libérées.\n Le payement des intérêts et dividendes se fait aux époques fixées par le Conseil d’administration."
    },
    {
      "amount": "15.000.000",
      "currency": "Franc",
      "infodate": "1888-12-04",
      "source": "annuaire_cac_1888",
      "comments": "Par décision de l’Assemblée générale du 4 décembre 1888, le capital a été réduit à 15 millions au moyen de l’échange de deux actions anciennes contre une nouvelle, ce qui ramènerait le nombre des actions à 30,000.\n L’échange des actions ne paraît pas encore avoir été effectué; et il n’y a toujours de négociables que les 60,000 actions anciennes nos 1 à 60000."
    },
    {
      "amount": "7.500.000",
      "currency": "Franc",
      "infodate": "1899-01-10",
      "source": "annuaire_cac_1908",
      "comments": "Par décisions des assemblées générales des 10 janvier et 2 février 1899, le capital social a été d’abord réduit à 7.500.000 francs au moyen de la réduction de 500 fr. à 250 francs du capital nominal de chacune des 30,000 actions, puis porté à nouveau à 15 millions de francs par l’émission au pair de 30,000 actions nouvelles de 250 francs destinées à rembourser une partie de la dette sociale."
    },
    {
      "amount": "15.000.000",
      "currency": "Franc",
      "infodate": "1899-02-02",
      "source": "annuaire_cac_1908",
      "comments": " Fixé primitivement à 30 millions, divisé en 60,000 actions de 500 fr. libérées, le capital social a été, par décision de l’Assemblée générale du 4 décembre 1888, réduit à 15 millions au moyen de l’échange des 60,000 actions anciennes libérées contre 30,000 actions également libérées (deux contre une).\n Par décisions des assemblées générales des 10 janvier et 2 février 1899, le capital social a été d’abord réduit à 7.500.000 francs au moyen de la réduction de 500 fr. à 250 francs du capital nominal de chacune des 30,000 actions, puis porté à nouveau à 15 millions de francs par l’émission au pair de 30,000 actions nouvelles de 250 francs destinées à rembourser une partie de la dette sociale.\n Enfin, l’assemblée générale du 10 mai 1904 a décidé de réduire à nouveau le capital social de 15 millions à 7.500.000 francs par la réduction de 250 à 125 francs Idu nominal de chacune des 60,000 actions anciennes. Le capital se trouve donc représenté par 60,000 actions de 125 francs, libérées et au porteur.\n Le dividende se paye annuellement, en mai."
    },
    {
      "amount": "7.500.000",
      "currency": "Franc",
      "infodate": "1904-05-10",
      "source": "annuaire_cac_1908",
      "comments": "Enfin, l’assemblée générale du 10 mai 1904 a décidé de réduire à nouveau le capital social de 15 millions à 7.500.000 francs par la réduction de 250 à 125 francs Idu nominal de chacune des 60,000 actions anciennes. Le capital se trouve donc représenté par 60,000 actions de 125 francs, libérées et au porteur."
    },
    {
      "amount": "10.000.000",
      "currency": "Franc",
      "infodate": "1925-01-01",
      "source": "annuaire_df_1927",
      "comments": " 10 millions de francs, divisé en 80.000 actions de 125 francs.^A l’origine 30 millions, représenté par 60.000 actions de 500 francs, réduit à 15 millions en 1888 par l'échange de 2 actions anciennes contre une nouvelle, à 7.500.000 francs en 1899 par la réduction de 500 à 250 francs de la valeur nominale des actions, puis porté à 15 millions et enfin ramené à 7.500.000 francs en 1904 par la réduction de 250 à 125 francs de la valeur nominale des actions ; porté au chiffre actuel en 1925 par émission de 20.000 actions nouvelles (1 nouvelle pour 3 anciennes)."
    },
    {
      "amount": "20.000.000",
      "currency": "Franc",
      "infodate": "1927-11-01",
      "source": "annuaire_df_1933",
      "comments": ",, Capital social : 27.500.000 francs, divisé en 220.000 actions de 125 francs. A * °ngine 30 millions, représenté par 60.000 actions de 500 francs, réduit à 15 millions 1888 par l’échange de 2 actions anciennes contre une nouvelle, à 7.500.000 francs en 1899 par la réduction de 500 à 250 francs de la valeur nominale des actions, puis porté à 15 millions et enfin ramené à 7.500.000 francs en 1904 par la réduction a 250 à 125 francs de la valeur nominale des actions ; porté en 1925 à 10 millions na. émission de 20.000 actions nouvelles (1 nouvelle pour 3 anciennes); en mars 1927 4 12.500.000 francs par la création de 20.000 actions nouvelles (1 nouvelle pour 4 an ciennes', en novembre 1927 ft 20 millions nsr la création dp oo.noo actions nouvelle <3 nouvelles pour 5 anciennes) et à 27.500.000 francs en 1930.\t”"
    },
    {
      "amount": "27.500.000",
      "currency": "Franc",
      "infodate": "1930-06-01",
      "source": "annuaire_df_1933",
      "comments": ",, Capital social : 27.500.000 francs, divisé en 220.000 actions de 125 francs. A * °ngine 30 millions, représenté par 60.000 actions de 500 francs, réduit à 15 millions 1888 par l’échange de 2 actions anciennes contre une nouvelle, à 7.500.000 francs en 1899 par la réduction de 500 à 250 francs de la valeur nominale des actions, puis porté à 15 millions et enfin ramené à 7.500.000 francs en 1904 par la réduction a 250 à 125 francs de la valeur nominale des actions ; porté en 1925 à 10 millions na. émission de 20.000 actions nouvelles (1 nouvelle pour 3 anciennes); en mars 1927 4 12.500.000 francs par la création de 20.000 actions nouvelles (1 nouvelle pour 4 an ciennes', en novembre 1927 ft 20 millions nsr la création dp oo.noo actions nouvelle <3 nouvelles pour 5 anciennes) et à 27.500.000 francs en 1930.\t”"
    },
    {
      "amount": "11.000.000",
      "currency": "Franc",
      "infodate": "1937-01-01",
      "source": "annuaire_df_1940",
      "comments": "11 millions de francs, divisé en 88.000 actions de 125 francs. A l’origine 30 millions, représenté par 60.000 actions de 500 francs, réduit à 15 millions en 1888, à 7.500.000 francs en 1899 par la réduction de 500 à 250 francs de la valeur nominale des actions, puis porté à 15 millions et enfin ramené à 7.500.000 francs en 1904 par la réduction de 250 à 125 francs de la valeur nominale des actions; porté en 1925 à 10 millions; en mars 1927 à 12.500.000 francs; en novembre 1927 à 20 millions par la création de 60*.000 actions nouvelles (3 nouvelles pour 5 anciennes), et en juin 1930 à 27.500.000 francs; réduit à 7.500.000 francs en décembre 1933 par l’échange de 3 actions nouvelles contre 11 anciennes, et reporté au chiffre actuel en juillet 1934, par l’émission au pair de 28.000 actions nouvelles de 125 francs."
    },
    {
      "amount": "15.000.000",
      "currency": "Franc",
      "infodate": "1942-03-01",
      "source": "annuaire_df_1945",
      "comments": "15 millions de francs, divisé en 120 000 actions de 125 francs. A l’origine 30 millons représenté par 60 000 actions de 500 francs, ramené à 15 millions en i888. à 7.500.000 francs en 1899 par la réduction de 500 à 250 francs de la valeur nominale des actions, puis porté à 15 millions et enfin ramené à 7.500.000 francs en 1904 par. la réduction de 250 à 125 francs .de la valeur nominale des actions: porté en 1925 à 10 millions ; en mars 1927 à 12.500.000 francs: en novembre 1927 à 20 millions et en juin 1930 à 27.500.000 francs; réduit à 7.500.000 francs en décembre 1933 par l’échange de 3 actions nouvelles contre 11 anciennes ; reporté par des émissions au pair à 11 millions en 1937 et 15 millions en mars 1942."
    },
    {
      "amount": "30.000.000",
      "currency": "Franc",
      "infodate": "1945-12-01",
      "source": "annuaire_df_1948",
      "comments": " Porté fin 1945 à 30 millions, par l'émission à 150 francs de 120.000 actions nouvelles de 125 francs (1 nouv. pour 1 anc.)."
    },
    {
      "amount": "50.000.000",
      "currency": "Franc",
      "infodate": "1947-01-01",
      "source": "annuaire_df_1948",
      "comments": " Porté en 1947 à 50 millions par l'émission , à 150 fr. de 160.000 actions nouvelles de 125 francs (2 nouv. pour 3 onc.)."
    },
    {
      "amount": "57.357.000",
      "currency": "Franc",
      "infodate": "1948-01-01",
      "source": "annuaire_df_1948",
      "comments": " Porté en 1948 à 60.250.000 fr. par l'émission de 82.000 actions nouvelles de 125. fr. (actoinnaires empêchés). 60.250.000 francs, divise en 482.000 actions de 125 francs."
    },
    {
      "amount": "100.000.000",
      "currency": "Franc",
      "infodate": "1949-01-01",
      "source": "annuaire_df_1953",
      "comments": "100 millions de fr.. divisé en 800.000 actions de 125 fr. A l'origine, 30 millions, représenté par 60.000 actions de 500 fr. Ramené à 15 millions en 1888, à 7.500.000 fr. en 1899 par la réduction de 500 à 250 fr. de la valeur nominale des actions, puis porté à 15 millions et ramené à 7.500.000 fr. en 1904 par ià réduction de 250 à 125 fr. de la valèür nominale dés actions. Porté en 1925 à 10 fiiiiiiôns; en mars 1927 à 12.500.000 fr. ; eh novembre 1927 à 20 miiiicSnS et en juin 1930 â 27.5O0.OO0 fr. Réduit à Y.500.000 fr. en décembre 1933 par l'échahge de 3 actions nouvelles contre 11 anciennes; reporté par des émissions au pair à 11 millions en 193? et 15 millions en mars 1942. Pôi'tê fin 1945 à 30 millions par l'émission à i50 fr. de 12Ô.00Ô actions nouvelles de 125 fr. (1 nouv. pour 1 anc.). Porté en 1947 à 50 millions par l'émission à 150 fr. de Ï60.Ô00 àetiôns hOÜVellës dë 125 fr. (2 nouv. pour 3 ânfc.). Porté en 1948 à 57.35Y.00Ô fr. pâr l'émission dictions nouvelles de 125 fr. (actionnaires empêchés). Porté en 1949 à 100 millions par l'émiSSiôri à 150 fr. de 341.144 actions de 125 fr."
    }
  ],
  "profit_dividends": [
    {
      "first_date": "1882-12-31",
      "last_date": "1951-12-31",
      "obs_count": 385
    }
  ],
  "public_status": false,
  "stock_exchanges": {
    "1": {
      "id": 1,
      "name": "Paris (Official List)",
      "listings_stats": {
        "start_date": "1881-11-02"
      },
      "spot_prices_stats": {
        "start_date": "1881-11-02",
        "end_date": "1953-07-15"
      },
      "forward_prices_stats": {
        "start_date": "1899-02-16",
        "end_date": "1914-07-15"
      },
      "options_prices_stats": {
        "start_date": "1899-03-15",
        "end_date": "1913-04-15"
      }
    },
    "2": {
      "id": 2,
      "name": "Paris OTC (Coulisse)",
      "listings_stats": {
        "start_date": "1887-02-28"
      },
      "spot_prices_stats": {
        "start_date": "1887-03-31",
        "end_date": "1887-04-30"
      }
    }
  },
  "securities": {
    "3293": {
      "id": 3293,
      "name": "Compagnie d'Aguilas 6%, r.à 500f.",
      "share_type": {
        "id": 2,
        "name": "Bond (Obligation)"
      },
      "types": [
        {
          "start_date": "1881-11-14",
          "end_date": "3999-12-31",
          "id": 1001,
          "name": "Obligation ordinaire ou classique",
          "stock_group": "B"
        }
      ],
      "start_date": "1881-11-14",
      "end_date": "3999-12-31",
      "prices_from": "1881-11-14",
      "prices_to": "1887-09-30",
      "is_mainstock": 0,
      "prices_count": 94
    },
    "3370": {
      "id": 3370,
      "name": "Compagnie d'Aguilas à revenu éventuel, r.à 500f.",
      "share_type": {
        "id": 2,
        "name": "Bond (Obligation)"
      },
      "types": [
        {
          "start_date": "1887-09-01",
          "end_date": "3999-12-31",
          "id": 1001,
          "name": "Obligation ordinaire ou classique",
          "stock_group": "B"
        }
      ],
      "start_date": "1887-09-01",
      "end_date": "3999-12-31",
      "prices_from": "1887-09-05",
      "prices_to": "1898-02-15",
      "is_mainstock": 0,
      "prices_count": 33
    },
    "4534": {
      "id": 4534,
      "name": "Cie d'Aguilas, act. 500 fr., t. p. act. estamp.",
      "share_type": {
        "id": 1,
        "name": "Stock (Action)"
      },
      "types": [
        {
          "start_date": "1899-01-13",
          "end_date": "3999-12-31",
          "id": 18,
          "name": "Action",
          "stock_group": "S"
        }
      ],
      "start_date": "1899-01-13",
      "end_date": "3999-12-31",
      "prices_from": null,
      "prices_to": null,
      "is_mainstock": 0,
      "prices_count": 0
    },
    "4595": {
      "id": 4595,
      "name": "Cie Aguilas, Bons Hypothécaires 4%, r. à 100 fr.",
      "share_type": {
        "id": 2,
        "name": "Bond (Obligation)"
      },
      "types": [
        {
          "start_date": "1898-08-22",
          "end_date": "3999-12-31",
          "id": 1009,
          "name": "Bons",
          "stock_group": "B"
        }
      ],
      "start_date": "1898-08-22",
      "end_date": "3999-12-31",
      "prices_from": "1898-08-22",
      "prices_to": "1904-07-15",
      "is_mainstock": 0,
      "prices_count": 33
    },
    "4659": {
      "id": 4659,
      "name": "Aguilas (Cie d'), act. 125 fr., t. p.",
      "share_type": {
        "id": 1,
        "name": "Stock (Action)"
      },
      "types": [
        {
          "start_date": "1881-11-02",
          "end_date": "3999-12-31",
          "id": 18,
          "name": "Action",
          "stock_group": "S"
        }
      ],
      "start_date": "1600-01-01",
      "end_date": "3999-12-31",
      "prices_from": "1881-11-02",
      "prices_to": "1953-07-15",
      "is_mainstock": 1,
      "prices_count": 4040
    },
    "8588": {
      "id": 8588,
      "name": "Aguilas (Cie d'), act. 125 fr., t. p. (dr. et c. 2 att.)",
      "share_type": {
        "id": 1,
        "name": "Stock (Action)"
      },
      "types": [
        {
          "start_date": "1927-02-08",
          "end_date": "3999-12-31",
          "id": 18,
          "name": "Action",
          "stock_group": "S"
        }
      ],
      "start_date": "1927-02-08",
      "end_date": "3999-12-31",
      "prices_from": "1927-02-08",
      "prices_to": "1927-02-15",
      "is_mainstock": 0,
      "prices_count": 4
    },
    "8700": {
      "id": 8700,
      "name": "Aguilas, act. 125 fr., t.p. (nos 80001 à 100000)",
      "share_type": {
        "id": 1,
        "name": "Stock (Action)"
      },
      "types": [
        {
          "start_date": "1927-05-18",
          "end_date": "3999-12-31",
          "id": 18,
          "name": "Action",
          "stock_group": "S"
        }
      ],
      "start_date": "1927-05-18",
      "end_date": "3999-12-31",
      "prices_from": "1927-05-18",
      "prices_to": "1927-06-30",
      "is_mainstock": 0,
      "prices_count": 4
    },
    "9118": {
      "id": 9118,
      "name": "Aguilas (Cie d'), Act. 125 fr., t.p. (nos 100001 à 160000)",
      "share_type": {
        "id": 1,
        "name": "Stock (Action)"
      },
      "types": [
        {
          "start_date": "1928-03-01",
          "end_date": "3999-12-31",
          "id": 11,
          "name": "Action ordinaire",
          "stock_group": "S"
        }
      ],
      "start_date": "1928-03-01",
      "end_date": "3999-12-31",
      "prices_from": "1928-03-01",
      "prices_to": "1929-07-16",
      "is_mainstock": 0,
      "prices_count": 55
    },
    "11575": {
      "id": 11575,
      "name": "Aguilas (Cie d'), parts bénéf. (c. 1 att.)",
      "share_type": {
        "id": 1,
        "name": "Stock (Action)"
      },
      "types": [
        {
          "start_date": "1941-12-12",
          "end_date": "3999-12-31",
          "id": 20,
          "name": "Part de bénéfice (part bénéficiaire)",
          "stock_group": "S"
        }
      ],
      "start_date": "1941-12-12",
      "end_date": "3999-12-31",
      "prices_from": "1941-12-12",
      "prices_to": "1953-07-15",
      "is_mainstock": 0,
      "prices_count": 274
    },
    "11579": {
      "id": 11579,
      "name": "Aguilas (Cie d'), act. 125 fr., t. p. (dr. Et c. 10 att.)",
      "share_type": {
        "id": 1,
        "name": "Stock (Action)"
      },
      "types": [
        {
          "start_date": "1942-02-16",
          "end_date": "3999-12-31",
          "id": 18,
          "name": "Action",
          "stock_group": "S"
        }
      ],
      "start_date": "1942-02-16",
      "end_date": "3999-12-31",
      "prices_from": "1942-02-16",
      "prices_to": "1942-03-02",
      "is_mainstock": 0,
      "prices_count": 3
    },
    "11764": {
      "id": 11764,
      "name": "Aguilas (Cie d'), act. 125 fr., t. p. (n°s 88001 à 120000) (c. 11 att.)",
      "share_type": {
        "id": 1,
        "name": "Stock (Action)"
      },
      "types": [
        {
          "start_date": "1943-05-31",
          "end_date": "3999-12-31",
          "id": 18,
          "name": "Action",
          "stock_group": "S"
        }
      ],
      "start_date": "1943-05-31",
      "end_date": "3999-12-31",
      "prices_from": "1943-06-01",
      "prices_to": "1944-07-17",
      "is_mainstock": 0,
      "prices_count": 25
    },
    "12311": {
      "id": 12311,
      "name": "Aguilas (Cie d'), Act. 125 fr., t.p. (n°s 120001 à 240000)",
      "share_type": {
        "id": 1,
        "name": "Stock (Action)"
      },
      "types": [
        {
          "start_date": "1946-07-22",
          "end_date": "3999-12-31",
          "id": 18,
          "name": "Action",
          "stock_group": "S"
        }
      ],
      "start_date": "1946-07-22",
      "end_date": "3999-12-31",
      "prices_from": "1946-07-24",
      "prices_to": "1947-11-28",
      "is_mainstock": 0,
      "prices_count": 35
    },
    "12841": {
      "id": 12841,
      "name": "Aguilas (Cie de), act. 125 fr. t.p. (nos 60001 à 80000)",
      "share_type": {
        "id": 1,
        "name": "Stock (Action)"
      },
      "types": [
        {
          "start_date": "1926-02-24",
          "end_date": "3999-12-31",
          "id": 18,
          "name": "Action",
          "stock_group": "S"
        }
      ],
      "start_date": "1926-02-24",
      "end_date": "3999-12-31",
      "prices_from": "1926-02-25",
      "prices_to": "1926-05-31",
      "is_mainstock": 0,
      "prices_count": 15
    },
    "13287": {
      "id": 13287,
      "name": "Aguilas (Cie d'), Act. 125 fr., t. p. (n°s 400001 à 458856) (ex-dr., )",
      "share_type": {
        "id": 1,
        "name": "Stock (Action)"
      },
      "types": [
        {
          "start_date": "1949-03-16",
          "end_date": "3999-12-31",
          "id": 18,
          "name": "Action",
          "stock_group": "S"
        }
      ],
      "start_date": "1949-03-16",
      "end_date": "3999-12-31",
      "prices_from": "1949-05-31",
      "prices_to": "1949-10-28",
      "is_mainstock": 0,
      "prices_count": 11
    },
    "100499": {
      "id": 100499,
      "name": "Act. Cie d'Aguilas (droit et coupon 11 ou bon de droit)",
      "share_type": {
        "id": 4,
        "name": "Rights (Droits)"
      },
      "types": [
        {
          "start_date": "1945-12-17",
          "end_date": "1946-01-30",
          "id": 501,
          "name": "Droit de souscription",
          "stock_group": "R"
        }
      ],
      "start_date": "1945-12-17",
      "end_date": "1946-01-30",
      "prices_from": "1945-12-17",
      "prices_to": "1946-01-15",
      "is_mainstock": 0,
      "prices_count": 4
    },
    "100723": {
      "id": 100723,
      "name": "Act. 1 à 240000. Aguilas (Cie) (droit et coup. 12). 2 act. nouv. émise à 150 fr. pour 3 act. Anc.",
      "share_type": {
        "id": 4,
        "name": "Rights (Droits)"
      },
      "types": [
        {
          "start_date": "1947-02-14",
          "end_date": "1948-03-25",
          "id": 501,
          "name": "Droit de souscription",
          "stock_group": "R"
        }
      ],
      "start_date": "1947-02-14",
      "end_date": "1948-03-25",
      "prices_from": null,
      "prices_to": null,
      "is_mainstock": 0,
      "prices_count": 0
    },
    "101041": {
      "id": 101041,
      "name": "Aguilas (Cie de) (droit et coupon 14) (7 act. nouv. émises à 150 fr. pour 10 actions anciennes)",
      "share_type": {
        "id": 4,
        "name": "Rights (Droits)"
      },
      "types": [
        {
          "start_date": "1949-02-15",
          "end_date": "3999-12-31",
          "id": 501,
          "name": "Droit de souscription",
          "stock_group": "R"
        }
      ],
      "start_date": "1949-02-15",
      "end_date": "3999-12-31",
      "prices_from": "1949-02-15",
      "prices_to": "1949-02-15",
      "is_mainstock": 0,
      "prices_count": 1
    },
    "102045": {
      "id": 102045,
      "name": "Act. Cie Aguilas (droit et coupon 7). Pour 4 actions anciennes, 1 action nouvelle émise à 175 francs",
      "share_type": {
        "id": 4,
        "name": "Rights (Droits)"
      },
      "types": [
        {
          "start_date": "1930-04-07",
          "end_date": "1930-04-24",
          "id": 501,
          "name": "Droit de souscription",
          "stock_group": "R"
        }
      ],
      "start_date": "1930-04-07",
      "end_date": "1930-04-24",
      "prices_from": "1930-04-07",
      "prices_to": "1930-04-15",
      "is_mainstock": 0,
      "prices_count": 2
    },
    "102054": {
      "id": 102054,
      "name": "Act. CIE D'AGUILAS (droit et coupon 10). Pour 11 actions anc., 4 actions nouvelles émises à 125 francs + 1 part bénéf. pour 3 act. nouv.souscrites et attribuées",
      "share_type": {
        "id": 4,
        "name": "Rights (Droits)"
      },
      "types": [
        {
          "start_date": "1942-02-16",
          "end_date": "1942-03-30",
          "id": 501,
          "name": "Droit de souscription",
          "stock_group": "R"
        }
      ],
      "start_date": "1942-02-16",
      "end_date": "1942-03-30",
      "prices_from": "1942-02-17",
      "prices_to": "1942-03-16",
      "is_mainstock": 0,
      "prices_count": 3
    },
    "102055": {
      "id": 102055,
      "name": "Act. Cie d'Aguilas (droit et coupon 2)",
      "share_type": {
        "id": 4,
        "name": "Rights (Droits)"
      },
      "types": [
        {
          "start_date": "1927-02-08",
          "end_date": "1927-02-28",
          "id": 501,
          "name": "Droit de souscription",
          "stock_group": "R"
        }
      ],
      "start_date": "1927-02-08",
      "end_date": "1927-02-28",
      "prices_from": "1927-02-08",
      "prices_to": "1927-02-15",
      "is_mainstock": 0,
      "prices_count": 0
    },
    "102056": {
      "id": 102056,
      "name": "Act. Cie d'Aguilas (droit et coupon 23)",
      "share_type": {
        "id": 4,
        "name": "Rights (Droits)"
      },
      "types": [
        {
          "start_date": "1925-10-27",
          "end_date": "1925-11-14",
          "id": 501,
          "name": "Droit de souscription",
          "stock_group": "R"
        }
      ],
      "start_date": "1925-10-27",
      "end_date": "1925-11-14",
      "prices_from": "1925-10-27",
      "prices_to": "1925-10-27",
      "is_mainstock": 0,
      "prices_count": 0
    },
    "102057": {
      "id": 102057,
      "name": "Act. Cie d'Aguilas (droit et coupon 4). Pour 5 actions anciennes, 3 actions nouvelles émises à 165 francs.",
      "share_type": {
        "id": 4,
        "name": "Rights (Droits)"
      },
      "types": [
        {
          "start_date": "1927-11-16",
          "end_date": "1927-12-03",
          "id": 501,
          "name": "Droit de souscription",
          "stock_group": "R"
        }
      ],
      "start_date": "1927-11-16",
      "end_date": "1927-12-03",
      "prices_from": "1927-11-17",
      "prices_to": "1927-11-30",
      "is_mainstock": 0,
      "prices_count": 0
    },
    "102058": {
      "id": 102058,
      "name": "Act. Cie d'Aguilas (droit et coupon 9). Pour 15 act. anc. (teinte bleue), 7 actions nouvelles émises à 125 francs",
      "share_type": {
        "id": 4,
        "name": "Rights (Droits)"
      },
      "types": [
        {
          "start_date": "1934-07-02",
          "end_date": "1934-07-19",
          "id": 501,
          "name": "Droit de souscription",
          "stock_group": "R"
        }
      ],
      "start_date": "1934-07-02",
      "end_date": "1934-07-19",
      "prices_from": null,
      "prices_to": null,
      "is_mainstock": 0,
      "prices_count": 0
    },
    "103602": {
      "id": 103602,
      "name": "Aguilas (Cie d') (bon 1942). 4 actions nouvelles émises à 125 fr. pour 11 bons",
      "share_type": {
        "id": 4,
        "name": "Rights (Droits)"
      },
      "types": [
        {
          "start_date": "1948-03-09",
          "end_date": "3999-12-31",
          "id": 501,
          "name": "Droit de souscription",
          "stock_group": "R"
        }
      ],
      "start_date": "1948-03-09",
      "end_date": "3999-12-31",
      "prices_from": "1948-03-09",
      "prices_to": "1948-03-19",
      "is_mainstock": 0,
      "prices_count": 1
    },
    "103603": {
      "id": 103603,
      "name": "Aguilas (Cie d') (bon 1945-1946). 1 action nouvelle émise à 150 fr. pour 1 bon",
      "share_type": {
        "id": 4,
        "name": "Rights (Droits)"
      },
      "types": [
        {
          "start_date": "1948-03-09",
          "end_date": "3999-12-31",
          "id": 501,
          "name": "Droit de souscription",
          "stock_group": "R"
        }
      ],
      "start_date": "1948-03-09",
      "end_date": "3999-12-31",
      "prices_from": "1948-03-09",
      "prices_to": "1948-03-19",
      "is_mainstock": 0,
      "prices_count": 1
    },
    "103604": {
      "id": 103604,
      "name": "Aguilas (Cie d') (bon 1947). 2 actions nouvelles émises à 150 fr. pour 3 bons",
      "share_type": {
        "id": 4,
        "name": "Rights (Droits)"
      },
      "types": [
        {
          "start_date": "1948-03-09",
          "end_date": "3999-12-31",
          "id": 501,
          "name": "Droit de souscription",
          "stock_group": "R"
        }
      ],
      "start_date": "1948-03-09",
      "end_date": "3999-12-31",
      "prices_from": "1948-03-09",
      "prices_to": "1948-03-09",
      "is_mainstock": 0,
      "prices_count": 0
    },
    "104579": {
      "id": 104579,
      "name": "A. 1 à 240000. Aguilas ( Cie ) ( droit et coupon 12)",
      "share_type": {
        "id": 5,
        "name": "Droits de souscription"
      },
      "types": [
        {
          "start_date": "1947-03-21",
          "end_date": "1947-04-25",
          "id": 501,
          "name": "Droit de souscription",
          "stock_group": "R"
        }
      ],
      "start_date": "1947-03-21",
      "end_date": "1947-04-25",
      "prices_from": "1947-03-31",
      "prices_to": "1947-04-15",
      "is_mainstock": 0,
      "prices_count": 2
    },
    "105273": {
      "id": 105273,
      "name": "Aguilas (Cie d'), act. Anc. 125 fr., t. p.",
      "share_type": {
        "id": 1,
        "name": "Stock (Action)"
      },
      "types": [
        {
          "start_date": "1934-04-16",
          "end_date": "1934-07-05",
          "id": 18,
          "name": "Action",
          "stock_group": "S"
        }
      ],
      "start_date": "1934-04-16",
      "end_date": "1934-07-05",
      "prices_from": "1934-05-15",
      "prices_to": "1934-07-02",
      "is_mainstock": 0,
      "prices_count": 14
    }
  }
}