{
  "id": 2666,
  "names": [
    "C1E DES DOCKS ET ENTREPOTS DE ROUEN",
    "CIE DES DOCKS ET ENTREPOTS DE ROUEN",
    "COMPAGNIE DES DOCKS ET ENTREPOTS DE ROUEN",
    "Cie DES DOCKS ET ENTREPOTS DE ROUEN",
    "Cie des DOCKS ET ENTREPOTS DE ROUEN",
    "Compagnie des Docks et Entrepots de Rouen",
    "Compagnie des Docks et Entrepôts de Rouen",
    "Compagnie des docks et entrepôts de Rouen"
  ],
  "name": "Cie DES DOCKS ET ENTREPOTS DE ROUEN",
  "balance_sheets": [
    {
      "start_date": "1915-12-31",
      "source": "Annuaire Desfossés 1925",
      "page": "599"
    },
    {
      "start_date": "1944-12-31",
      "source": "Annuaire Desfossés 1948",
      "page": "696"
    },
    {
      "start_date": "1946-12-31",
      "source": "Annuaire Desfossés 1953",
      "page": "517"
    },
    {
      "start_date": "1946-12-31",
      "source": "Annuaire Desfossés 1953",
      "page": "2255"
    },
    {
      "start_date": "1948-12-31",
      "source": "Annuaire Desfossés 1953",
      "page": "2255"
    },
    {
      "start_date": "1948-12-31",
      "source": "Annuaire Desfossés 1953",
      "page": "517"
    },
    {
      "start_date": "1949-12-31",
      "source": "Annuaire Desfossés 1953",
      "page": "2255"
    },
    {
      "start_date": "1949-12-31",
      "source": "Annuaire Desfossés 1953",
      "page": "517"
    },
    {
      "start_date": "1950-12-31",
      "source": "Annuaire Desfossés 1953",
      "page": "2255"
    },
    {
      "start_date": "1950-12-31",
      "source": "Annuaire Desfossés 1953",
      "page": "517"
    },
    {
      "start_date": "1951-12-31",
      "source": "Annuaire Desfossés 1953",
      "page": "517"
    },
    {
      "start_date": "1951-12-31",
      "source": "Annuaire Desfossés 1953",
      "page": "2255"
    }
  ],
  "balance_sheets_stats": {
    "start_date": "1915-12-31",
    "end_date": "1951-12-31"
  },
  "locations_stats": {
    "start_date": "1880-01-01",
    "end_date": "1953-12-31"
  },
  "locations": {
    "Siège social": [
      {
        "location_types_id": 1,
        "location_type": "Siège social",
        "address": null,
        "city": "Rouen",
        "district": "Seine-Maritime",
        "country": "France",
        "in_yearbook_from": 1880,
        "in_yearbook_to": 1884
      },
      {
        "location_types_id": 1,
        "location_type": "Siège social",
        "address": "Rue richebourg, 17",
        "city": "Rouen",
        "district": "Seine-Maritime",
        "country": "France",
        "in_yearbook_from": 1889,
        "in_yearbook_to": 1889
      },
      {
        "location_types_id": 1,
        "location_type": "Siège social",
        "address": "Rue edouard-lavoinne, 17",
        "city": "Rouen",
        "district": "Seine-Maritime",
        "country": "France",
        "in_yearbook_from": 1893,
        "in_yearbook_to": 1953
      }
    ],
    "Siège administratif / Bureaux": [
      {
        "location_types_id": 2,
        "location_type": "Siège administratif / Bureaux",
        "address": null,
        "city": "Paris",
        "district": "Paris",
        "country": "France",
        "in_yearbook_from": 1880,
        "in_yearbook_to": 1880
      },
      {
        "location_types_id": 2,
        "location_type": "Siège administratif / Bureaux",
        "address": "Rue du louvre, 62",
        "city": "Paris",
        "district": "Paris",
        "country": "France",
        "in_yearbook_from": 1953,
        "in_yearbook_to": 1953
      }
    ]
  },
  "persons": [
    {
      "persons_count": 6,
      "yearbook": "Annuaire de la Compagnie des Agents de Change 1880",
      "source": "annuaire_cac_1880",
      "page": "859"
    },
    {
      "persons_count": 4,
      "yearbook": "Annuaire de la Compagnie des Agents de Change 1883",
      "source": "annuaire_cac_1883",
      "page": "1012"
    },
    {
      "persons_count": 4,
      "yearbook": "Annuaire de la Compagnie des Agents de Change 1888",
      "source": "annuaire_cac_1888",
      "page": "1089"
    },
    {
      "persons_count": 4,
      "yearbook": "Annuaire de la Compagnie des Agents de Change 1893",
      "source": "annuaire_cac_1893",
      "page": "1161"
    },
    {
      "persons_count": 1,
      "yearbook": "Annuaire de la Compagnie des Agents de Change 1898",
      "source": "annuaire_cac_1898",
      "page": "1332"
    },
    {
      "persons_count": 4,
      "yearbook": "Annuaire de la Compagnie des Agents de Change 1903",
      "source": "annuaire_cac_1903",
      "page": "1415"
    },
    {
      "persons_count": 7,
      "yearbook": "Annuaire de la Compagnie des Agents de Change 1908",
      "source": "annuaire_cac_1908",
      "page": "1233"
    },
    {
      "persons_count": 4,
      "yearbook": "Annuaire Desfossés 1912",
      "source": "annuaire_df_1912",
      "page": "498"
    },
    {
      "persons_count": 2,
      "yearbook": "Annuaire Desfossés 1917",
      "source": "annuaire_df_1917",
      "page": "484"
    },
    {
      "persons_count": 1,
      "yearbook": "Annuaire Desfossés 1923",
      "source": "annuaire_df_1923",
      "page": "548"
    },
    {
      "persons_count": 1,
      "yearbook": "Annuaire Desfossés 1927",
      "source": "annuaire_df_1927",
      "page": "472"
    },
    {
      "persons_count": 5,
      "yearbook": "Annuaire Desfossés 1933",
      "source": "annuaire_df_1933",
      "page": "516"
    },
    {
      "persons_count": 6,
      "yearbook": "Annuaire Desfossés 1940",
      "source": "annuaire_df_1940",
      "page": null
    },
    {
      "persons_count": 2,
      "yearbook": "Annuaire Desfossés 1945",
      "source": "annuaire_df_1945",
      "page": "655"
    },
    {
      "persons_count": 5,
      "yearbook": "Annuaire Desfossés 1948",
      "source": "annuaire_df_1948",
      "page": "696"
    },
    {
      "persons_count": 7,
      "yearbook": "Annuaire Desfossés 1953",
      "source": "annuaire_df_1953",
      "page": "517"
    },
    {
      "persons_count": 7,
      "yearbook": "Annuaire Desfossés 1953",
      "source": "annuaire_df_1953",
      "page": "2255"
    }
  ],
  "persons_stats": {
    "persons_count": 44,
    "start_date": "1880-01-01",
    "end_date": "1953-12-31"
  },
  "yearbooks_ocrs": [
    {
      "source": "annuaire_cac_1880",
      "yearbook": "Annuaire de la Compagnie des Agents de Change 1880",
      "page": "859"
    },
    {
      "source": "annuaire_cac_1883",
      "yearbook": "Annuaire de la Compagnie des Agents de Change 1883",
      "page": "1012"
    },
    {
      "source": "annuaire_cac_1888",
      "yearbook": "Annuaire de la Compagnie des Agents de Change 1888",
      "page": "1089"
    },
    {
      "source": "annuaire_cac_1893",
      "yearbook": "Annuaire de la Compagnie des Agents de Change 1893",
      "page": "1161"
    },
    {
      "source": "annuaire_cac_1898",
      "yearbook": "Annuaire de la Compagnie des Agents de Change 1898",
      "page": "1332"
    },
    {
      "source": "annuaire_cac_1903",
      "yearbook": "Annuaire de la Compagnie des Agents de Change 1903",
      "page": "1415"
    },
    {
      "source": "annuaire_cac_1908",
      "yearbook": "Annuaire de la Compagnie des Agents de Change 1908",
      "page": "1233"
    },
    {
      "source": "annuaire_df_1912",
      "yearbook": "Annuaire Desfossés 1912",
      "page": "498"
    },
    {
      "source": "annuaire_df_1914",
      "yearbook": "Annuaire Desfossés 1914",
      "page": "544"
    },
    {
      "source": "annuaire_df_1917",
      "yearbook": "Annuaire Desfossés 1917",
      "page": "484"
    },
    {
      "source": "annuaire_df_1920",
      "yearbook": "Annuaire Desfossés 1920",
      "page": "500"
    },
    {
      "source": "annuaire_df_1923",
      "yearbook": "Annuaire Desfossés 1923",
      "page": "548"
    },
    {
      "source": "annuaire_df_1925",
      "yearbook": "Annuaire Desfossés 1925",
      "page": "599"
    },
    {
      "source": "annuaire_df_1927",
      "yearbook": "Annuaire Desfossés 1927",
      "page": "472"
    },
    {
      "source": "annuaire_df_1929",
      "yearbook": "Annuaire Desfossés 1929",
      "page": "495"
    },
    {
      "source": "annuaire_df_1931",
      "yearbook": "Annuaire Desfossés 1931",
      "page": "502"
    },
    {
      "source": "annuaire_df_1933",
      "yearbook": "Annuaire Desfossés 1933",
      "page": "516"
    },
    {
      "source": "annuaire_df_1937",
      "yearbook": "Annuaire Desfossés 1937",
      "page": "564"
    },
    {
      "source": "annuaire_df_1940",
      "yearbook": "Annuaire Desfossés 1940",
      "page": null
    },
    {
      "source": "annuaire_df_1945",
      "yearbook": "Annuaire Desfossés 1945",
      "page": "655"
    },
    {
      "source": "annuaire_df_1948",
      "yearbook": "Annuaire Desfossés 1948",
      "page": "696"
    },
    {
      "source": "annuaire_df_1953",
      "yearbook": "Annuaire Desfossés 1953",
      "page": "517"
    },
    {
      "source": "annuaire_df_1953",
      "yearbook": "Annuaire Desfossés 1953",
      "page": "2255"
    }
  ],
  "juridical_status": [
    {
      "juridical_status": "Société Anonyme (Libre)",
      "start_date": "1878-07-10",
      "end_date": "1977-01-01",
      "comments": "Société anonyme formée par statuts déposés à Me Carre, notaire a Rouen, le 27 juin 1878, définitivement constituée le 10 juillet suivant. Modifiée par décision de l’assemblée générale du 11 octobre 1881.",
      "source": "annuaire_cac_1883"
    }
  ],
  "equity_capital": [
    {
      "amount": "2.000.000",
      "currency": null,
      "infodate": "1878-07-10",
      "source": "annuaire_cac_1883",
      "comments": "Deux millions de francs; divisé en 4,000 actions de 500 fr., sur lesquelles 3,400 ont été attribuées, libérées de 250 fr., à M. Harding, en représentation de ses apports, et 600 ont été souscrites au pair. Ces 4,000 actions sont libérées de 300 fr. et au porteur."
    },
    {
      "amount": "5.000.000",
      "currency": "Franc",
      "infodate": "1884-01-01",
      "source": "annuaire_df_1912",
      "comments": "5 millions de francs, divisé en 10.000 actions de 500 francs libérées de 250 francs. A l’origine 2 millions, divisé en 4.000 actions de 500 francs libérées de 300 francs, porté en 1884 au chiffre actuel parla création de 6.000 actions de 500 francs libérées de 250 francs. A cette époque il a été remboursé 50 francs par titre aux porteurs des actions anciennes libérées de 300 francs."
    },
    {
      "amount": "2.500.000",
      "currency": "Franc",
      "infodate": "1933-01-01",
      "source": "annuaire_df_1940",
      "comments": "2.500.000 francs, divisé en 10.000 actions de 250 francs amorties de 125 francs. A l’origine, 2 millions, divisé en 4.000 actions de 500 francs libérées de 300 francs, porté en 1884 à 5 millions par la création de 6.000 actions de 500 francs libérées de 250 francs, ramené en 1933 à 2.500.000 francs, par la réduction de la valeur nominale de chaque action de 500 francs à 250 francs ; en même temps il a été procédé à un amortissement de 125 francs par action au moyen d’un prélèvement sur la réserve."
    },
    {
      "amount": "2.500.000",
      "currency": "Franc",
      "infodate": "1952-06-09",
      "source": "annuaire_df_1953",
      "comments": "split: 2.500.000 fr., divisé en 1.000 actions de 2.500 fr., amorties de 1.250 fr. A l'origine, 2 millions, divisé en 4.000 actions de 500 fr. libérées de 300 fr. ; porté en 1884 à 5 millions par la création de 6.000 actions de 500 fr. libérées de 250 fr. ; ramené en 1933 à 2.500.000 fr. par la réduction de la valeur nominale de chaque action de 500 fr. à 250 fr. ; en même temps il' a été procédé à un amortissement de 125 fr. par action au moyen d'un prélèvement sur la réserve. Regroupement en actions de 2.500 fr. à partir du 9 juin 1952."
    }
  ],
  "profit_dividends": [
    {
      "first_date": "1878-12-31",
      "last_date": "1951-12-31",
      "obs_count": 268
    }
  ],
  "public_status": false,
  "stock_exchanges": {
    "1": {
      "id": 1,
      "name": "Paris (Official List)",
      "listings_stats": {
        "start_date": "1879-07-14"
      },
      "spot_prices_stats": {
        "start_date": "1879-09-30",
        "end_date": "1951-12-17"
      }
    }
  },
  "securities": {
    "3251": {
      "id": 3251,
      "name": "Docks de Rouen, 5%, r.à 500f.",
      "share_type": {
        "id": 2,
        "name": "Bond (Obligation)"
      },
      "types": [
        {
          "start_date": "1879-07-14",
          "end_date": "3999-12-31",
          "id": 1001,
          "name": "Obligation ordinaire ou classique",
          "stock_group": "B"
        }
      ],
      "start_date": "1879-07-14",
      "end_date": "3999-12-31",
      "prices_from": "1880-02-16",
      "prices_to": "1894-05-31",
      "is_mainstock": 0,
      "prices_count": 47
    },
    "7004": {
      "id": 7004,
      "name": "Docks et Entrepôts de Rouen, act 500 fr., 250 fr. payés",
      "share_type": {
        "id": 1,
        "name": "Stock (Action)"
      },
      "types": [
        {
          "start_date": "1879-07-14",
          "end_date": "3999-12-31",
          "id": 18,
          "name": "Action",
          "stock_group": "S"
        }
      ],
      "start_date": "1879-07-14",
      "end_date": "3999-12-31",
      "prices_from": "1879-09-30",
      "prices_to": "1951-12-17",
      "is_mainstock": 1,
      "prices_count": 406
    },
    "10341": {
      "id": 10341,
      "name": "Docks de Rouen 4%, remb. À 500 fr. 1895-1961",
      "share_type": {
        "id": 2,
        "name": "Bond (Obligation)"
      },
      "types": [
        {
          "start_date": "1894-10-01",
          "end_date": "3999-12-31",
          "id": 1001,
          "name": "Obligation ordinaire ou classique",
          "stock_group": "B"
        }
      ],
      "start_date": "1894-10-01",
      "end_date": "3999-12-31",
      "prices_from": "1894-10-05",
      "prices_to": "1951-12-17",
      "is_mainstock": 0,
      "prices_count": 613
    }
  }
}