{
  "id": 12405,
  "names": [
    "Ensign Gold Mining (The)"
  ],
  "name": "Ensign Gold Mining (The)",
  "balance_sheets": [],
  "balance_sheets_stats": {
    "start_date": null,
    "end_date": null
  },
  "locations_stats": {
    "start_date": null,
    "end_date": null
  },
  "locations": {},
  "persons": [],
  "persons_stats": {
    "persons_count": 0,
    "start_date": null,
    "end_date": null
  },
  "yearbooks_ocrs": [],
  "juridical_status": [],
  "equity_capital": [],
  "profit_dividends": [],
  "public_status": false,
  "stock_exchanges": {
    "2": {
      "id": 2,
      "name": "Paris OTC (Coulisse)",
      "listings_stats": {
        "start_date": "1895-12-16"
      },
      "spot_prices_stats": {
        "start_date": "1895-12-16",
        "end_date": "1896-12-01"
      }
    }
  },
  "securities": {
    "105380": {
      "id": 105380,
      "name": "Ensign Gold Mining (The)",
      "share_type": {
        "id": 1,
        "name": "Stock (Action)"
      },
      "types": [
        {
          "start_date": "1895-12-16",
          "end_date": "1897-01-15",
          "id": 18,
          "name": "Action",
          "stock_group": "S"
        }
      ],
      "start_date": "1895-12-16",
      "end_date": "1897-01-15",
      "prices_from": "1895-12-16",
      "prices_to": "1896-12-01",
      "is_mainstock": 1,
      "prices_count": 27
    }
  }
}