{
  "id": 3270,
  "names": [
    "FORGES ET ACIERIES DU DONETZ",
    "FORGES ET ACIÉRIES DU DONETZ",
    "SOCIÉTÉ DES FORGES ET ACIÉRIES DU DONETZ",
    "Société des Forges et Aciéries du Donetz, a Droujkowka"
  ],
  "name": "FORGES ET ACIÉRIES DU DONETZ",
  "balance_sheets": [
    {
      "start_date": "1911-05-31",
      "source": "Annuaire Desfossés 1912",
      "page": "632"
    },
    {
      "start_date": "1911-05-31",
      "source": "Annuaire Desfossés 1912",
      "page": "1120"
    },
    {
      "start_date": "1912-01-31",
      "source": "Annuaire Desfossés 1912",
      "page": "1120"
    },
    {
      "start_date": "1912-01-31",
      "source": "Annuaire Desfossés 1912",
      "page": "632"
    },
    {
      "start_date": "1913-05-31",
      "source": "Annuaire Desfossés 1925",
      "page": "854"
    }
  ],
  "balance_sheets_stats": {
    "start_date": "1911-05-31",
    "end_date": "1913-05-31"
  },
  "locations_stats": {
    "start_date": "1912-01-01",
    "end_date": "1940-12-31"
  },
  "locations": {
    "Siège social": [
      {
        "location_types_id": 1,
        "location_type": "Siège social",
        "address": null,
        "city": "Droujkowka",
        "district": null,
        "country": "Union des républiques socialistes soviétiques",
        "in_yearbook_from": 1912,
        "in_yearbook_to": 1912
      },
      {
        "location_types_id": 1,
        "location_type": "Siège social",
        "address": null,
        "city": "Varsovie",
        "district": "District fictif",
        "country": "Union des républiques socialistes soviétiques",
        "in_yearbook_from": 1917,
        "in_yearbook_to": 1917
      },
      {
        "location_types_id": 1,
        "location_type": "Siège social",
        "address": null,
        "city": "Varsovie",
        "district": "District fictif",
        "country": "Pologne",
        "in_yearbook_from": 1923,
        "in_yearbook_to": 1940
      }
    ],
    "Siège administratif / Bureaux": [
      {
        "location_types_id": 2,
        "location_type": "Siège administratif / Bureaux",
        "address": "Rue de surène, 5",
        "city": "Paris",
        "district": "Paris",
        "country": "France",
        "in_yearbook_from": 1912,
        "in_yearbook_to": 1912
      },
      {
        "location_types_id": 2,
        "location_type": "Siège administratif / Bureaux",
        "address": "Rue saint-lazare, 91",
        "city": "Paris",
        "district": "Paris",
        "country": "France",
        "in_yearbook_from": 1917,
        "in_yearbook_to": 1933
      }
    ]
  },
  "persons": [
    {
      "persons_count": 6,
      "yearbook": "Annuaire Desfossés 1912",
      "source": "annuaire_df_1912",
      "page": "632"
    },
    {
      "persons_count": 6,
      "yearbook": "Annuaire Desfossés 1912",
      "source": "annuaire_df_1912",
      "page": "1120"
    },
    {
      "persons_count": 1,
      "yearbook": "Annuaire Desfossés 1917",
      "source": "annuaire_df_1917",
      "page": "628"
    },
    {
      "persons_count": 2,
      "yearbook": "Annuaire Desfossés 1923",
      "source": "annuaire_df_1923",
      "page": "749"
    },
    {
      "persons_count": 1,
      "yearbook": "Annuaire Desfossés 1927",
      "source": "annuaire_df_1927",
      "page": "681"
    },
    {
      "persons_count": 12,
      "yearbook": "Annuaire Desfossés 1933",
      "source": "annuaire_df_1933",
      "page": "1664"
    }
  ],
  "persons_stats": {
    "persons_count": 15,
    "start_date": "1912-01-01",
    "end_date": "1933-12-31"
  },
  "yearbooks_ocrs": [
    {
      "source": "annuaire_df_1912",
      "yearbook": "Annuaire Desfossés 1912",
      "page": "632"
    },
    {
      "source": "annuaire_df_1912",
      "yearbook": "Annuaire Desfossés 1912",
      "page": "1120"
    },
    {
      "source": "annuaire_df_1914",
      "yearbook": "Annuaire Desfossés 1914",
      "page": "691"
    },
    {
      "source": "annuaire_df_1917",
      "yearbook": "Annuaire Desfossés 1917",
      "page": "628"
    },
    {
      "source": "annuaire_df_1920",
      "yearbook": "Annuaire Desfossés 1920",
      "page": "674"
    },
    {
      "source": "annuaire_df_1923",
      "yearbook": "Annuaire Desfossés 1923",
      "page": "749"
    },
    {
      "source": "annuaire_df_1925",
      "yearbook": "Annuaire Desfossés 1925",
      "page": "854"
    },
    {
      "source": "annuaire_df_1927",
      "yearbook": "Annuaire Desfossés 1927",
      "page": "681"
    },
    {
      "source": "annuaire_df_1929",
      "yearbook": "Annuaire Desfossés 1929",
      "page": "726"
    },
    {
      "source": "annuaire_df_1931",
      "yearbook": "Annuaire Desfossés 1931",
      "page": "731"
    },
    {
      "source": "annuaire_df_1933",
      "yearbook": "Annuaire Desfossés 1933",
      "page": "1664"
    },
    {
      "source": "annuaire_df_1937",
      "yearbook": "Annuaire Desfossés 1937",
      "page": "878"
    },
    {
      "source": "annuaire_df_1940",
      "yearbook": "Annuaire Desfossés 1940",
      "page": null
    },
    {
      "source": "annuaire_df_1945",
      "yearbook": "Annuaire Desfossés 1945",
      "page": "2316"
    },
    {
      "source": "annuaire_df_1949",
      "yearbook": "Annuaire Desfossés 1949",
      "page": null
    },
    {
      "source": "annuaire_df_1953",
      "yearbook": "Annuaire Desfossés 1953",
      "page": "2244"
    }
  ],
  "juridical_status": [
    {
      "juridical_status": "Société anonyme polonaise",
      "start_date": "1891-07-05",
      "end_date": "1939-12-31",
      "comments": "Société anonyme russe, constituée Je 5 juillet 1891.",
      "source": "annuaire_df_1937"
    },
    {
      "juridical_status": "Société anonyme russe",
      "start_date": "1940-01-01",
      "end_date": "3999-12-31",
      "comments": "Les installations métallurgiques ont été, nationalisées et là Société ne publie plus ses comptes. Les Obligations, qui étaient négociées \"en coulisse, ne' sont plus cotées",
      "source": "annuaire_df_1949"
    }
  ],
  "equity_capital": [
    {
      "amount": "1.500.000",
      "currency": "Rouble",
      "infodate": "1891-07-05",
      "source": "annuaire_df_1912",
      "comments": " 7.687.500 roubles, divisé en 41.000 actions de 187 roubles, 50 ou 500 francs. A l'origine 1.500.000 roubles or, porté en 1894' à 2.500.‘000 roubles or en 1895 à 3.000.000 roubles or ou 4.500.000 roubles papier (monnaie actuelle) et en 1911 au chiffre actuel."
    },
    {
      "amount": "2.500.000",
      "currency": "Rouble",
      "infodate": "1894-01-01",
      "source": "annuaire_df_1912",
      "comments": " 7.687.500 roubles, divisé en 41.000 actions de 187 roubles, 50 ou 500 francs. A l'origine 1.500.000 roubles or, porté en 1894' à 2.500.‘000 roubles or en 1895 à 3.000.000 roubles or ou 4.500.000 roubles papier (monnaie actuelle) et en 1911 au chiffre actuel."
    },
    {
      "amount": "3.000.000",
      "currency": "Rouble",
      "infodate": "1895-01-01",
      "source": "annuaire_df_1912",
      "comments": " 7.687.500 roubles, divisé en 41.000 actions de 187 roubles, 50 ou 500 francs. A l'origine 1.500.000 roubles or, porté en 1894' à 2.500.‘000 roubles or en 1895 à 3.000.000 roubles or ou 4.500.000 roubles papier (monnaie actuelle) et en 1911 au chiffre actuel."
    },
    {
      "amount": "7.687.500",
      "currency": "Rouble",
      "infodate": "1911-01-01",
      "source": "annuaire_df_1912",
      "comments": " 7.687.500 roubles, divisé en 41.000 actions de 187 roubles, 50 ou 500 francs. A l'origine 1.500.000 roubles or, porté en 1894' à 2.500.‘000 roubles or en 1895 à 3.000.000 roubles or ou 4.500.000 roubles papier (monnaie actuelle) et en 1911 au chiffre actuel."
    }
  ],
  "profit_dividends": [
    {
      "first_date": "1906-12-31",
      "last_date": "1926-12-31",
      "obs_count": 107
    }
  ],
  "public_status": false,
  "stock_exchanges": {
    "2": {
      "id": 2,
      "name": "Paris OTC (Coulisse)",
      "listings_stats": {
        "start_date": "1894-08-31"
      },
      "spot_prices_stats": {
        "start_date": "1894-08-31",
        "end_date": "1898-12-31"
      }
    }
  },
  "securities": {
    "105341": {
      "id": 105341,
      "name": "DONETZ (Forges et Aciéries)",
      "share_type": {
        "id": 1,
        "name": "Stock (Action)"
      },
      "types": [
        {
          "start_date": "1894-08-31",
          "end_date": "1898-12-31",
          "id": 18,
          "name": "Action",
          "stock_group": "S"
        }
      ],
      "start_date": "1894-08-31",
      "end_date": "1898-12-31",
      "prices_from": "1894-08-31",
      "prices_to": "1898-12-31",
      "is_mainstock": 0,
      "prices_count": 136
    },
    "105342": {
      "id": 105342,
      "name": "Donetz (Forges et acieries du) (nouv.) nomin",
      "share_type": {
        "id": 1,
        "name": "Stock (Action)"
      },
      "types": [
        {
          "start_date": "1894-11-28",
          "end_date": "1898-12-31",
          "id": 18,
          "name": "Action",
          "stock_group": "S"
        }
      ],
      "start_date": "1894-11-28",
      "end_date": "1898-12-31",
      "prices_from": "1894-11-28",
      "prices_to": "1898-12-31",
      "is_mainstock": 0,
      "prices_count": 70
    },
    "106036": {
      "id": 106036,
      "name": "DONETZ (Forges et Aciéries du), 4 1/2 %",
      "share_type": {
        "id": 2,
        "name": "Bond (Obligation)"
      },
      "types": [
        {
          "start_date": "1897-01-15",
          "end_date": "1898-12-31",
          "id": 1001,
          "name": "Obligation ordinaire ou classique",
          "stock_group": "B"
        }
      ],
      "start_date": "1897-01-15",
      "end_date": "1898-12-31",
      "prices_from": null,
      "prices_to": null,
      "is_mainstock": 0,
      "prices_count": 0
    }
  }
}