{
  "id": 12103,
  "names": [
    "Carrières du Pas-de-Calais"
  ],
  "name": "Carrières du Pas-de-Calais",
  "balance_sheets": [],
  "balance_sheets_stats": {
    "start_date": null,
    "end_date": null
  },
  "locations_stats": {
    "start_date": null,
    "end_date": null
  },
  "locations": {},
  "persons": [],
  "persons_stats": {
    "persons_count": 0,
    "start_date": null,
    "end_date": null
  },
  "yearbooks_ocrs": [],
  "juridical_status": [],
  "equity_capital": [],
  "profit_dividends": [],
  "public_status": false,
  "stock_exchanges": {
    "2": {
      "id": 2,
      "name": "Paris OTC (Coulisse)",
      "listings_stats": {
        "start_date": "1882-01-01"
      },
      "spot_prices_stats": {
        "start_date": "1882-09-30",
        "end_date": "1887-02-15"
      }
    }
  },
  "securities": {
    "104864": {
      "id": 104864,
      "name": "Obl. Carr, Pas-d.-Calais. At 82",
      "share_type": {
        "id": 2,
        "name": "Bond (Obligation)"
      },
      "types": [
        {
          "start_date": "1882-01-01",
          "end_date": "1887-12-31",
          "id": 1001,
          "name": "Obligation ordinaire ou classique",
          "stock_group": "B"
        }
      ],
      "start_date": "1882-01-01",
      "end_date": "1887-12-31",
      "prices_from": "1882-09-30",
      "prices_to": "1887-02-15",
      "is_mainstock": 0,
      "prices_count": 120
    }
  }
}