{
  "id": 15894,
  "names": [
    "BANK POLSKA KASA OPIEKI",
    "BANK POLSKA KASA OPIEKI SA",
    "BANK POLSKA KASA OPIEKI SA - GRUPA PEKAO SA",
    "BANK POLSKA KASA OPIEKI SPOLKA AKCYJNA",
    "Bank polska Kasa Opieki"
  ],
  "name": "BANK POLSKA KASA OPIEKI SA",
  "balance_sheets": [],
  "balance_sheets_stats": {
    "start_date": null,
    "end_date": null
  },
  "locations_stats": {
    "start_date": null,
    "end_date": null
  },
  "locations": {},
  "persons": [],
  "persons_stats": {
    "persons_count": 0,
    "start_date": null,
    "end_date": null
  },
  "yearbooks_ocrs": [],
  "juridical_status": [],
  "equity_capital": [],
  "profit_dividends": [],
  "public_status": false
}