{
  "id": 5388,
  "names": [
    "Garantie La Foncière",
    "LA GARANTIE FONCIERE",
    "LA GARANTIE FONCIÈRE"
  ],
  "name": "LA GARANTIE FONCIERE",
  "balance_sheets": [
    {
      "start_date": "1927-12-31",
      "source": "Annuaire Desfossés 1929",
      "page": "270"
    },
    {
      "start_date": "1929-12-31",
      "source": "Annuaire Desfossés 1931",
      "page": "275"
    },
    {
      "start_date": "1930-12-31",
      "source": "Annuaire Desfossés 1932",
      "page": null
    },
    {
      "start_date": "1931-12-31",
      "source": "Annuaire Desfossés 1933",
      "page": "286"
    }
  ],
  "balance_sheets_stats": {
    "start_date": "1927-12-31",
    "end_date": "1931-12-31"
  },
  "locations_stats": {
    "start_date": "1928-01-01",
    "end_date": "1933-12-31"
  },
  "locations": {
    "Siège social": [
      {
        "location_types_id": 1,
        "location_type": "Siège social",
        "address": "Rue ferrandière, 31",
        "city": "Lyon",
        "district": "Rhône",
        "country": "France",
        "in_yearbook_from": 1928,
        "in_yearbook_to": 1933
      }
    ],
    "Siège administratif / Bureaux": [
      {
        "location_types_id": 2,
        "location_type": "Siège administratif / Bureaux",
        "address": "Rue marbeuf, 6",
        "city": "Paris",
        "district": "Paris",
        "country": "France",
        "in_yearbook_from": 1933,
        "in_yearbook_to": 1933
      }
    ]
  },
  "persons": [
    {
      "persons_count": 8,
      "yearbook": "Annuaire Desfossés 1933",
      "source": "annuaire_df_1933",
      "page": "286"
    }
  ],
  "persons_stats": {
    "persons_count": 8,
    "start_date": "1933-01-01",
    "end_date": "1933-12-31"
  },
  "yearbooks_ocrs": [
    {
      "source": "annuaire_df_1929",
      "yearbook": "Annuaire Desfossés 1929",
      "page": "270"
    },
    {
      "source": "annuaire_df_1931",
      "yearbook": "Annuaire Desfossés 1931",
      "page": "275"
    },
    {
      "source": "annuaire_df_1933",
      "yearbook": "Annuaire Desfossés 1933",
      "page": "286"
    }
  ],
  "juridical_status": [
    {
      "juridical_status": "Société Anonyme (Libre)",
      "start_date": "1926-05-14",
      "end_date": "2001-05-14",
      "comments": "Société anonyme française, constituée le 14 mai 1926, pour une durée de 75 ans.",
      "source": "annuaire_df_1933"
    }
  ],
  "equity_capital": [
    {
      "amount": "2.000.000",
      "currency": "Franc",
      "infodate": "1926-05-14",
      "source": "annuaire_df_1933",
      "comments": "20.000.000 francs, divisé en 200.000 actions de 100 francs. A l’origine 2.000.000 francs, divisé en actions de 1.000 francs, porté en novembre 1926 à 8 millions, en mars 1927 à 10 millions, divisé en actions de 1.000 francs et en mars 1929 à 20 millions. En même temps les actions ont été divisées en dixièmes."
    },
    {
      "amount": "8.000.000",
      "currency": "Franc",
      "infodate": "1926-11-01",
      "source": "annuaire_df_1933",
      "comments": "20.000.000 francs, divisé en 200.000 actions de 100 francs. A l’origine 2.000.000 francs, divisé en actions de 1.000 francs, porté en novembre 1926 à 8 millions, en mars 1927 à 10 millions, divisé en actions de 1.000 francs et en mars 1929 à 20 millions. En même temps les actions ont été divisées en dixièmes."
    },
    {
      "amount": "10.000.000",
      "currency": "Franc",
      "infodate": "1927-03-01",
      "source": "annuaire_df_1933",
      "comments": "20.000.000 francs, divisé en 200.000 actions de 100 francs. A l’origine 2.000.000 francs, divisé en actions de 1.000 francs, porté en novembre 1926 à 8 millions, en mars 1927 à 10 millions, divisé en actions de 1.000 francs et en mars 1929 à 20 millions. En même temps les actions ont été divisées en dixièmes."
    },
    {
      "amount": "20.000.000",
      "currency": "Franc",
      "infodate": "1929-03-01",
      "source": "annuaire_df_1933",
      "comments": "20.000.000 francs, divisé en 200.000 actions de 100 francs. A l’origine 2.000.000 francs, divisé en actions de 1.000 francs, porté en novembre 1926 à 8 millions, en mars 1927 à 10 millions, divisé en actions de 1.000 francs et en mars 1929 à 20 millions. En même temps les actions ont été divisées en dixièmes."
    }
  ],
  "profit_dividends": [
    {
      "first_date": "1927-12-31",
      "last_date": "1932-12-31",
      "obs_count": 28
    }
  ],
  "public_status": false,
  "stock_exchanges": {
    "1": {
      "id": 1,
      "name": "Paris (Official List)",
      "listings_stats": {
        "start_date": "1892-07-11"
      },
      "spot_prices_stats": {
        "start_date": "1892-09-15",
        "end_date": "1935-11-30"
      }
    }
  },
  "securities": {
    "9307": {
      "id": 9307,
      "name": "Garantie Foncière (La) act. 100 fr., t.p. (c. 3 att.)",
      "share_type": {
        "id": 1,
        "name": "Stock (Action)"
      },
      "types": [
        {
          "start_date": "1929-10-24",
          "end_date": "3999-12-31",
          "id": 11,
          "name": "Action ordinaire",
          "stock_group": "S"
        }
      ],
      "start_date": "1929-10-24",
      "end_date": "3999-12-31",
      "prices_from": "1929-10-24",
      "prices_to": "1935-11-15",
      "is_mainstock": 1,
      "prices_count": 119
    },
    "9961": {
      "id": 9961,
      "name": "Garantie Foncière (La) 5% 1931, remb. à 1000 fr.",
      "share_type": {
        "id": 2,
        "name": "Bond (Obligation)"
      },
      "types": [
        {
          "start_date": "1931-11-26",
          "end_date": "3999-12-31",
          "id": 1001,
          "name": "Obligation ordinaire ou classique",
          "stock_group": "B"
        }
      ],
      "start_date": "1931-11-26",
      "end_date": "3999-12-31",
      "prices_from": "1931-11-26",
      "prices_to": "1935-11-30",
      "is_mainstock": 0,
      "prices_count": 43
    },
    "40543": {
      "id": 40543,
      "name": "La Garantie Foncière, obl. hypothécaires",
      "share_type": {
        "id": 2,
        "name": "Bond (Obligation)"
      },
      "types": [
        {
          "start_date": "1000-01-01",
          "end_date": "3999-12-31",
          "id": 1001,
          "name": "Obligation ordinaire ou classique",
          "stock_group": "B"
        }
      ],
      "start_date": "1000-01-01",
      "end_date": "3999-12-31",
      "prices_from": "1892-09-15",
      "prices_to": "1892-10-31",
      "is_mainstock": 0,
      "prices_count": 9
    }
  }
}