{
  "id": 2064,
  "names": [
    "Océan (Compagnie d'assurance maritimes)"
  ],
  "name": "Océan (Compagnie d'assurance maritimes)",
  "balance_sheets": [],
  "balance_sheets_stats": {
    "start_date": null,
    "end_date": null
  },
  "locations_stats": {
    "start_date": null,
    "end_date": null
  },
  "locations": {},
  "persons": [],
  "persons_stats": {
    "persons_count": 0,
    "start_date": null,
    "end_date": null
  },
  "yearbooks_ocrs": [],
  "juridical_status": [],
  "equity_capital": [],
  "profit_dividends": [],
  "public_status": false,
  "stock_exchanges": {
    "1": {
      "id": 1,
      "name": "Paris (Official List)",
      "listings_stats": {
        "start_date": "1968-07-29"
      },
      "spot_prices_stats": {
        "start_date": "1968-07-29",
        "end_date": "1976-12-31"
      }
    },
    "2": {
      "id": 2,
      "name": "Paris OTC (Coulisse)",
      "listings_stats": {
        "start_date": "1881-01-15"
      },
      "spot_prices_stats": {
        "start_date": "1881-01-17",
        "end_date": "1881-09-30"
      }
    }
  },
  "securities": {
    "20007": {
      "id": 20007,
      "name": "Bordeaux_Bourse Pyrenees-Languedoc 6,5% 1968, remb. À 550 F (c. 29/4/69 att.) (Avis 68-446) 1969-83",
      "share_type": {
        "id": 2,
        "name": "Bond (Obligation)"
      },
      "types": [
        {
          "start_date": "1968-07-29",
          "end_date": "3999-12-31",
          "id": 1001,
          "name": "Obligation ordinaire ou classique",
          "stock_group": "B"
        }
      ],
      "start_date": "1968-07-29",
      "end_date": "3999-12-31",
      "prices_from": "1968-07-29",
      "prices_to": "1976-12-31",
      "is_mainstock": 0,
      "prices_count": 204
    },
    "20597": {
      "id": 20597,
      "name": "Bordeaux_Bourse Pyrénées-Languedoc 8,50% 1970 (c. 24/3/71 att.) 1971-85",
      "share_type": {
        "id": 2,
        "name": "Bond (Obligation)"
      },
      "types": [
        {
          "start_date": "1970-06-29",
          "end_date": "3999-12-31",
          "id": 1001,
          "name": "Obligation ordinaire ou classique",
          "stock_group": "B"
        }
      ],
      "start_date": "1970-06-29",
      "end_date": "3999-12-31",
      "prices_from": "1970-06-30",
      "prices_to": "1976-12-31",
      "is_mainstock": 0,
      "prices_count": 158
    },
    "104985": {
      "id": 104985,
      "name": "L'Ocean (Diverses) Maritimes",
      "share_type": {
        "id": 1,
        "name": "Stock (Action)"
      },
      "types": [
        {
          "start_date": "1881-01-15",
          "end_date": "1881-09-30",
          "id": 1,
          "name": "UNKNOWN",
          "stock_group": "U"
        }
      ],
      "start_date": "1881-01-15",
      "end_date": "1881-09-30",
      "prices_from": "1881-01-17",
      "prices_to": "1881-09-30",
      "is_mainstock": 0,
      "prices_count": 18
    }
  }
}