{
  "id": 6156,
  "names": [
    "Locindus"
  ],
  "name": "Locindus",
  "balance_sheets": [],
  "balance_sheets_stats": {
    "start_date": null,
    "end_date": null
  },
  "locations_stats": {
    "start_date": null,
    "end_date": null
  },
  "locations": {},
  "persons": [],
  "persons_stats": {
    "persons_count": 0,
    "start_date": null,
    "end_date": null
  },
  "yearbooks_ocrs": [],
  "juridical_status": [],
  "equity_capital": [],
  "profit_dividends": [],
  "public_status": false,
  "stock_exchanges": {
    "1": {
      "id": 1,
      "name": "Paris (Official List)",
      "listings_stats": {
        "start_date": "1970-11-17"
      },
      "spot_prices_stats": {
        "start_date": "1970-11-17",
        "end_date": "1976-12-31"
      }
    }
  },
  "securities": {
    "20163": {
      "id": 20163,
      "name": "Locindus, act.",
      "share_type": {
        "id": 1,
        "name": "Stock (Action)"
      },
      "types": [
        {
          "start_date": "1970-11-17",
          "end_date": "3999-12-31",
          "id": 11,
          "name": "Action ordinaire",
          "stock_group": "S"
        }
      ],
      "start_date": "1970-11-17",
      "end_date": "3999-12-31",
      "prices_from": "1970-11-17",
      "prices_to": "1976-12-31",
      "is_mainstock": 0,
      "prices_count": 161
    },
    "20164": {
      "id": 20164,
      "name": "Locindus, act. (nos 480001 à 1440000) (c. 4 étoilé att.)",
      "share_type": {
        "id": 1,
        "name": "Stock (Action)"
      },
      "types": [
        {
          "start_date": "1970-12-01",
          "end_date": "3999-12-31",
          "id": 11,
          "name": "Action ordinaire",
          "stock_group": "S"
        }
      ],
      "start_date": "1970-12-01",
      "end_date": "3999-12-31",
      "prices_from": "1970-12-01",
      "prices_to": "1971-04-30",
      "is_mainstock": 0,
      "prices_count": 11
    },
    "20576": {
      "id": 20576,
      "name": "Locindus 8,25% nov. 1969 (c. 29/10/71 att.) 1971-84",
      "share_type": {
        "id": 2,
        "name": "Bond (Obligation)"
      },
      "types": [
        {
          "start_date": "1970-12-14",
          "end_date": "3999-12-31",
          "id": 1001,
          "name": "Obligation ordinaire ou classique",
          "stock_group": "B"
        }
      ],
      "start_date": "1970-12-14",
      "end_date": "3999-12-31",
      "prices_from": "1970-12-14",
      "prices_to": "1976-12-31",
      "is_mainstock": 0,
      "prices_count": 147
    },
    "20824": {
      "id": 20824,
      "name": "Locindus 8,75% mars 1971-72 de 1000 F (Avis 71-984) 1972-89",
      "share_type": {
        "id": 2,
        "name": "Bond (Obligation)"
      },
      "types": [
        {
          "start_date": "1971-12-23",
          "end_date": "3999-12-31",
          "id": 1001,
          "name": "Obligation ordinaire ou classique",
          "stock_group": "B"
        }
      ],
      "start_date": "1971-12-23",
      "end_date": "3999-12-31",
      "prices_from": "1971-12-23",
      "prices_to": "1976-12-31",
      "is_mainstock": 0,
      "prices_count": 122
    },
    "21337": {
      "id": 21337,
      "name": "Locindus 7% 1974 de 280F (8% à partir de 1979 et 9% à partir de 1984) conv. En act. À tout moment à partir du 1/1/75) (1 act. Pour 1 obl.) remb. 315 à 417F (c. 1/1/75 att.) (avis 74-253) 1980-89",
      "share_type": {
        "id": 2,
        "name": "Bond (Obligation)"
      },
      "types": [
        {
          "start_date": "1974-03-26",
          "end_date": "3999-12-31",
          "id": 1001,
          "name": "Obligation ordinaire ou classique",
          "stock_group": "B"
        }
      ],
      "start_date": "1974-03-26",
      "end_date": "3999-12-31",
      "prices_from": "1974-03-26",
      "prices_to": "1976-12-31",
      "is_mainstock": 0,
      "prices_count": 70
    },
    "35078": {
      "id": 35078,
      "name": "Locindus, act. 100 F",
      "share_type": {
        "id": 1,
        "name": "Stock (Action)"
      },
      "types": [
        {
          "start_date": "1972-05-24",
          "end_date": "3999-12-31",
          "id": 18,
          "name": "Action",
          "stock_group": "S"
        }
      ],
      "start_date": "1972-05-24",
      "end_date": "3999-12-31",
      "prices_from": null,
      "prices_to": null,
      "is_mainstock": 0,
      "prices_count": 0
    }
  }
}