{
  "id": 6146,
  "names": [
    "Groupement des Industries de Matériaux de Construction (G.I.M.A.T.)"
  ],
  "name": "Groupement des Industries de Matériaux de Construction (G.I.M.A.T.)",
  "balance_sheets": [],
  "balance_sheets_stats": {
    "start_date": null,
    "end_date": null
  },
  "locations_stats": {
    "start_date": null,
    "end_date": null
  },
  "locations": {},
  "persons": [],
  "persons_stats": {
    "persons_count": 0,
    "start_date": null,
    "end_date": null
  },
  "yearbooks_ocrs": [],
  "juridical_status": [],
  "equity_capital": [],
  "profit_dividends": [],
  "public_status": false,
  "stock_exchanges": {
    "1": {
      "id": 1,
      "name": "Paris (Official List)",
      "listings_stats": {
        "start_date": "1967-11-09"
      },
      "spot_prices_stats": {
        "start_date": "1967-11-09",
        "end_date": "1976-12-31"
      }
    }
  },
  "securities": {
    "19516": {
      "id": 19516,
      "name": "Groupement des Industries de Matériaux de Construction (G.I.M.A.T.) 6,5 mai 1967. r. 412 à 448 F (c.1/5/68 att.)(Avis 67-578) 1968-82",
      "share_type": {
        "id": 2,
        "name": "Bond (Obligation)"
      },
      "types": [
        {
          "start_date": "1967-11-09",
          "end_date": "3999-12-31",
          "id": 1001,
          "name": "Obligation ordinaire ou classique",
          "stock_group": "B"
        }
      ],
      "start_date": "1967-11-09",
      "end_date": "3999-12-31",
      "prices_from": "1967-11-09",
      "prices_to": "1976-12-31",
      "is_mainstock": 0,
      "prices_count": 222
    },
    "20009": {
      "id": 20009,
      "name": "Groupement des Industries de Matériaux de Construction (G.I.M.A.T.) 6,75% juillet 1968, remboursables 520 à 560 F (c. 15/7/69 att.) (Avis 68-656) 1969-83",
      "share_type": {
        "id": 2,
        "name": "Bond (Obligation)"
      },
      "types": [
        {
          "start_date": "1968-10-31",
          "end_date": "3999-12-31",
          "id": 1001,
          "name": "Obligation ordinaire ou classique",
          "stock_group": "B"
        }
      ],
      "start_date": "1968-10-31",
      "end_date": "3999-12-31",
      "prices_from": "1968-10-31",
      "prices_to": "1976-12-31",
      "is_mainstock": 0,
      "prices_count": 198
    },
    "20632": {
      "id": 20632,
      "name": "Groupement des Industries de Matériaux de Construction (G.I.M.A.T.) 7,25% janvier 1969, rembours. 530 à 590 F (c. 31/1/70 att.)(Avis 69-399)",
      "share_type": {
        "id": 2,
        "name": "Bond (Obligation)"
      },
      "types": [
        {
          "start_date": "1969-06-19",
          "end_date": "3999-12-31",
          "id": 1001,
          "name": "Obligation ordinaire ou classique",
          "stock_group": "B"
        }
      ],
      "start_date": "1969-06-19",
      "end_date": "3999-12-31",
      "prices_from": "1969-06-19",
      "prices_to": "1976-12-31",
      "is_mainstock": 0,
      "prices_count": 182
    },
    "20637": {
      "id": 20637,
      "name": "Groupement des Industries de Matériaux de Construction (G.I.M.A.T.) 8,75% mars 1970 (c. 30/3/71 att.) 1972-85",
      "share_type": {
        "id": 2,
        "name": "Bond (Obligation)"
      },
      "types": [
        {
          "start_date": "1970-10-27",
          "end_date": "3999-12-31",
          "id": 1001,
          "name": "Obligation ordinaire ou classique",
          "stock_group": "B"
        }
      ],
      "start_date": "1970-10-27",
      "end_date": "3999-12-31",
      "prices_from": "1970-10-27",
      "prices_to": "1976-12-31",
      "is_mainstock": 0,
      "prices_count": 150
    },
    "20641": {
      "id": 20641,
      "name": "Groupement des Industries de Matérieux de Construction (G.I.M.A.T.) 8,75% février 1971 (c. 1/2/72 att.) 1975-89",
      "share_type": {
        "id": 2,
        "name": "Bond (Obligation)"
      },
      "types": [
        {
          "start_date": "1971-05-26",
          "end_date": "3999-12-31",
          "id": 1001,
          "name": "Obligation ordinaire ou classique",
          "stock_group": "B"
        }
      ],
      "start_date": "1971-05-26",
      "end_date": "3999-12-31",
      "prices_from": "1971-05-26",
      "prices_to": "1976-12-31",
      "is_mainstock": 0,
      "prices_count": 136
    },
    "21008": {
      "id": 21008,
      "name": "Groupement des Industries de Matériaux de Construction (G.I.M.A.T) 8,75% novembre 1971 (c. 15/11/72 att.) (Avis 72-425)…1975-89",
      "share_type": {
        "id": 2,
        "name": "Bond (Obligation)"
      },
      "types": [
        {
          "start_date": "1972-06-21",
          "end_date": "3999-12-31",
          "id": 1001,
          "name": "Obligation ordinaire ou classique",
          "stock_group": "B"
        }
      ],
      "start_date": "1972-06-21",
      "end_date": "3999-12-31",
      "prices_from": "1972-06-23",
      "prices_to": "1976-12-31",
      "is_mainstock": 0,
      "prices_count": 110
    },
    "21159": {
      "id": 21159,
      "name": "Groupement des Industries de Matériaux de Construction (G.I.M.A.T.) 8,25% décembre 1972 de 1000 F (c. 18/12/73 att.) (Avis 73-657) 1981-92",
      "share_type": {
        "id": 2,
        "name": "Bond (Obligation)"
      },
      "types": [
        {
          "start_date": "1973-07-25",
          "end_date": "3999-12-31",
          "id": 1001,
          "name": "Obligation ordinaire ou classique",
          "stock_group": "B"
        }
      ],
      "start_date": "1973-07-25",
      "end_date": "3999-12-31",
      "prices_from": "1973-07-31",
      "prices_to": "1976-12-31",
      "is_mainstock": 0,
      "prices_count": 83
    },
    "21160": {
      "id": 21160,
      "name": "Groupement des Industries de Matériaux de Construction (G.I.M.A.T.) 8,25% sept 1972 (c. 21/12/73 att.) (Avis 73-103) 1976-92",
      "share_type": {
        "id": 2,
        "name": "Bond (Obligation)"
      },
      "types": [
        {
          "start_date": "1973-02-06",
          "end_date": "3999-12-31",
          "id": 1001,
          "name": "Obligation ordinaire ou classique",
          "stock_group": "B"
        }
      ],
      "start_date": "1973-02-06",
      "end_date": "3999-12-31",
      "prices_from": "1973-02-06",
      "prices_to": "1976-12-31",
      "is_mainstock": 0,
      "prices_count": 95
    },
    "21342": {
      "id": 21342,
      "name": "Groupement des Industries de Matériaux de Construction (GIMAT) 9,50% nov 1973 de 1000F (c. 4/10/74) (avis 74-210) 1984-93",
      "share_type": {
        "id": 2,
        "name": "Bond (Obligation)"
      },
      "types": [
        {
          "start_date": "1974-03-18",
          "end_date": "3999-12-31",
          "id": 1001,
          "name": "Obligation ordinaire ou classique",
          "stock_group": "B"
        }
      ],
      "start_date": "1974-03-18",
      "end_date": "3999-12-31",
      "prices_from": "1974-04-02",
      "prices_to": "1976-12-31",
      "is_mainstock": 0,
      "prices_count": 68
    },
    "21547": {
      "id": 21547,
      "name": "Groupement des Industries de Matériaux de Construction (G.I.M.A.T.) 12% sept.1974 de 1000F (c.30/9/75 att.)(Avis 75-179) 1985-94",
      "share_type": {
        "id": 2,
        "name": "Bond (Obligation)"
      },
      "types": [
        {
          "start_date": "1975-02-10",
          "end_date": "3999-12-31",
          "id": 1001,
          "name": "Obligation ordinaire ou classique",
          "stock_group": "B"
        }
      ],
      "start_date": "1975-02-10",
      "end_date": "3999-12-31",
      "prices_from": "1975-03-24",
      "prices_to": "1976-12-31",
      "is_mainstock": 0,
      "prices_count": 44
    },
    "21857": {
      "id": 21857,
      "name": "Groupement des Industries de Matériaux de Construction (G.I.M.A.T.) 11,10% juillet 1975 de 1000 F (c.2/8/76 att.) (Avis 75-1046).1981-90",
      "share_type": {
        "id": 2,
        "name": "Bond (Obligation)"
      },
      "types": [
        {
          "start_date": "1976-01-05",
          "end_date": "3999-12-31",
          "id": 1001,
          "name": "Obligation ordinaire ou classique",
          "stock_group": "B"
        }
      ],
      "start_date": "1976-01-05",
      "end_date": "3999-12-31",
      "prices_from": "1976-01-05",
      "prices_to": "1976-12-31",
      "is_mainstock": 0,
      "prices_count": 25
    }
  }
}