{
  "id": 10975,
  "names": [
    "MINES DE CESSOUS",
    "Mines de Cessous"
  ],
  "name": "MINES DE CESSOUS",
  "balance_sheets": [
    {
      "start_date": "1929-12-31",
      "source": "Annuaire Desfossés 1931",
      "page": "854"
    },
    {
      "start_date": "1931-12-31",
      "source": "Annuaire Desfossés 1933",
      "page": "909"
    },
    {
      "start_date": "1932-12-31",
      "source": "Annuaire Desfossés 1936",
      "page": null
    },
    {
      "start_date": "1933-12-31",
      "source": "Annuaire Desfossés 1937",
      "page": "1001"
    },
    {
      "start_date": "1934-12-31",
      "source": "Annuaire Desfossés 1937",
      "page": "1001"
    },
    {
      "start_date": "1935-12-31",
      "source": "Annuaire Desfossés 1940",
      "page": null
    },
    {
      "start_date": "1936-12-31",
      "source": "Annuaire Desfossés 1940",
      "page": null
    },
    {
      "start_date": "1937-12-31",
      "source": "Annuaire Desfossés 1940",
      "page": null
    },
    {
      "start_date": "1938-12-31",
      "source": "Annuaire Desfossés 1945",
      "page": "704"
    },
    {
      "start_date": "1941-12-31",
      "source": "Annuaire Desfossés 1945",
      "page": "704"
    },
    {
      "start_date": "1942-12-31",
      "source": "Annuaire Desfossés 1948",
      "page": "746"
    },
    {
      "start_date": "1943-12-31",
      "source": "Annuaire Desfossés 1948",
      "page": "746"
    },
    {
      "start_date": "1944-12-31",
      "source": "Annuaire Desfossés 1948",
      "page": "746"
    },
    {
      "start_date": "1945-12-31",
      "source": "Annuaire Desfossés 1948",
      "page": "746"
    }
  ],
  "balance_sheets_stats": {
    "start_date": "1929-12-31",
    "end_date": "1945-12-31"
  },
  "locations_stats": {
    "start_date": "1931-01-01",
    "end_date": "1953-12-31"
  },
  "locations": {
    "Siège social": [
      {
        "location_types_id": 1,
        "location_type": "Siège social",
        "address": "Avenue alsace-lorraine, 32",
        "city": "Grenoble",
        "district": "Isère",
        "country": "France",
        "in_yearbook_from": 1931,
        "in_yearbook_to": 1948
      }
    ],
    "Mines / Carrières / Pétrole / Gaz": [
      {
        "location_types_id": 7,
        "location_type": "Mines / Carrières / Pétrole / Gaz",
        "address": null,
        "city": "Alès",
        "district": "Gard",
        "country": "France",
        "in_yearbook_from": 1933,
        "in_yearbook_to": 1933
      }
    ],
    "Siège de liquidation": [
      {
        "location_types_id": 17,
        "location_type": "Siège de liquidation",
        "address": "Avenue felix-viallet, 29",
        "city": "Grenoble",
        "district": "Isère",
        "country": "France",
        "in_yearbook_from": 1953,
        "in_yearbook_to": 1953
      }
    ]
  },
  "persons": [
    {
      "persons_count": 4,
      "yearbook": "Annuaire Desfossés 1933",
      "source": "annuaire_df_1933",
      "page": "909"
    },
    {
      "persons_count": 7,
      "yearbook": "Annuaire Desfossés 1940",
      "source": "annuaire_df_1940",
      "page": null
    },
    {
      "persons_count": 6,
      "yearbook": "Annuaire Desfossés 1945",
      "source": "annuaire_df_1945",
      "page": "704"
    },
    {
      "persons_count": 1,
      "yearbook": "Annuaire Desfossés 1953",
      "source": "annuaire_df_1953",
      "page": "549"
    },
    {
      "persons_count": 1,
      "yearbook": "Annuaire Desfossés 1953",
      "source": "annuaire_df_1953",
      "page": "2256"
    }
  ],
  "persons_stats": {
    "persons_count": 11,
    "start_date": "1933-01-01",
    "end_date": "1953-12-31"
  },
  "yearbooks_ocrs": [
    {
      "source": "annuaire_df_1931",
      "yearbook": "Annuaire Desfossés 1931",
      "page": "854"
    },
    {
      "source": "annuaire_df_1933",
      "yearbook": "Annuaire Desfossés 1933",
      "page": "909"
    },
    {
      "source": "annuaire_df_1937",
      "yearbook": "Annuaire Desfossés 1937",
      "page": "1001"
    },
    {
      "source": "annuaire_df_1940",
      "yearbook": "Annuaire Desfossés 1940",
      "page": null
    },
    {
      "source": "annuaire_df_1945",
      "yearbook": "Annuaire Desfossés 1945",
      "page": "704"
    },
    {
      "source": "annuaire_df_1948",
      "yearbook": "Annuaire Desfossés 1948",
      "page": "746"
    },
    {
      "source": "annuaire_df_1953",
      "yearbook": "Annuaire Desfossés 1953",
      "page": "549"
    },
    {
      "source": "annuaire_df_1953",
      "yearbook": "Annuaire Desfossés 1953",
      "page": "2256"
    }
  ],
  "juridical_status": [
    {
      "juridical_status": "Société Anonyme (Libre)",
      "start_date": "1922-12-31",
      "end_date": "1946-04-30",
      "comments": "ociété anonyme française, constituée le 31 mars 1922, pour une durée de 99 ans.",
      "source": "annuaire_df_1948"
    },
    {
      "juridical_status": "Etablissement public",
      "start_date": "1946-05-01",
      "end_date": "3999-12-31",
      "comments": "Société anonyme française, constituée le 31 mars 1922, pour une durée de 99 ans.",
      "source": "annuaire_df_1948"
    }
  ],
  "equity_capital": [
    {
      "amount": "4.500.000",
      "currency": "Franc",
      "infodate": "1922-03-31",
      "source": "annuaire_df_1933",
      "comments": "6.500.000 francs, divisé en 13.000 actions de 500 francs. A l'origine, 4.500.000 francs en 9.000 actions, sur lesquelles 4.000 ont été attribuées pour apports. Porté en décembre 1928 à 6.490.000 francs et en janvier 1929 au chiffre actuel.\n"
    },
    {
      "amount": "6.490.000",
      "currency": "Franc",
      "infodate": "1928-12-01",
      "source": "annuaire_df_1940",
      "comments": "3.250.000 francs, divisé en 13.000 actions de 250 francs. A l’origine 4.500.000 francs en 9.000 actions, sur lesquelles 4.000 ont été attribuées pour apports’ Porté en décembre 1928 à 6.490.000 francs et en janvier 1929 à 6.500.000 francs, divisé en 13.000 actions de 500 francs. Ramené en 1934 à 3.250.000 francs par la réduction de la valeur nominale de chaque action de 500 francs à 250 francs à la suite d’un rem-boursement de 250 francs par action."
    },
    {
      "amount": "6.500.000",
      "currency": "Franc",
      "infodate": "1929-01-01",
      "source": "annuaire_df_1953",
      "comments": "6.250.000 fr., divisé en 25.000 actions de 250 fr. A l'origine, 4.500.000 fr. esn 9.000 actions, sur lesquelles 4.000 ont été attribuées, pour apports. Porté en décembre 1928 à 6.490.000 fr. et en janvier 1929 à 6.500.000 fr., divisé en 13.000 actions de 500 fr. RamenS en 1934 à 3.250.000 fr. par la réduction de- la valeur nominale de chaque action de 500 fr. à 250 fr. à la suite d'un remboursement de 250 fr. par action, et porté à 6.250.000 fr. en 194L par distribution de réserves et attribution d'actions gratuites (1 pour 2 anciennes, 4 pour 5 parts?."
    },
    {
      "amount": "3.250.000",
      "currency": "Franc",
      "infodate": "1934-01-01",
      "source": "annuaire_df_1940",
      "comments": "3.250.000 francs, divisé en 13.000 actions de 250 francs. A l’origine 4.500.000 francs en 9.000 actions, sur lesquelles 4.000 ont été attribuées pour apports’ Porté en décembre 1928 à 6.490.000 francs et en janvier 1929 à 6.500.000 francs, divisé en 13.000 actions de 500 francs. Ramené en 1934 à 3.250.000 francs par la réduction de la valeur nominale de chaque action de 500 francs à 250 francs à la suite d’un rem-boursement de 250 francs par action."
    },
    {
      "amount": "6.250.000",
      "currency": "Franc",
      "infodate": "1941-01-01",
      "source": "annuaire_df_1945",
      "comments": "6.250 000 francs, divisé en 25.000 actions de 250 francs. A-l’origine, 4.500.000 francs en 9.000 actions, sur lesquelles 4.000 ont été attribuées pour apports, Porté en décembre 1928 à 6.490.000 francs e+ en janvier 1929 à 6.500.000 francs, divisé en 13.000 actions de 500 francs. Ramené en 1934 à 3.250.000 francs par la réduction de la valeur nominale de chaque action de 500 -francs à 250 francs à la suite d’un remboursement. de 250 francs par action et porté à son chiffre actuel en 1941, .par distribution de réserves et attribution d’actions gratuites (1 pour 2 anciennes, 4 pour 5 parts)."
    }
  ],
  "profit_dividends": [
    {
      "first_date": "1926-12-31",
      "last_date": "1944-12-31",
      "obs_count": 175
    }
  ],
  "public_status": false
}