{
  "id": 10457,
  "names": [
    "SOCIÉTÉ D'ENTREPRISES DE CONSTRUCTIONS ET DE TRAVAUX PUBLICS D'ARRAS",
    "Société d'entreprises de constructions et de travaux publics d'Arras"
  ],
  "name": "SOCIÉTÉ D'ENTREPRISES DE CONSTRUCTIONS ET DE TRAVAUX PUBLICS D'ARRAS",
  "balance_sheets": [
    {
      "start_date": "1919-06-30",
      "source": "Annuaire Desfossés 1920",
      "page": "1153"
    },
    {
      "start_date": "1921-12-31",
      "source": "Annuaire Desfossés 1923",
      "page": "1207"
    },
    {
      "start_date": "1923-12-31",
      "source": "Annuaire Desfossés 1925",
      "page": "1520"
    },
    {
      "start_date": "1925-12-31",
      "source": "Annuaire Desfossés 1927",
      "page": "1348"
    }
  ],
  "balance_sheets_stats": {
    "start_date": "1919-06-30",
    "end_date": "1925-12-31"
  },
  "locations_stats": {
    "start_date": "1920-01-01",
    "end_date": "1929-12-31"
  },
  "locations": {
    "Siège social": [
      {
        "location_types_id": 1,
        "location_type": "Siège social",
        "address": "Rue jeanne-d'arc, 14 et 16",
        "city": "Arras",
        "district": "Pas-de-Calais",
        "country": "France",
        "in_yearbook_from": 1920,
        "in_yearbook_to": 1929
      }
    ],
    "Siège administratif / Bureaux": [
      {
        "location_types_id": 2,
        "location_type": "Siège administratif / Bureaux",
        "address": "Rue de pontbieu, 21",
        "city": "Paris",
        "district": "Paris",
        "country": "France",
        "in_yearbook_from": 1927,
        "in_yearbook_to": 1927
      }
    ]
  },
  "persons": [
    {
      "persons_count": 1,
      "yearbook": "Annuaire Desfossés 1923",
      "source": "annuaire_df_1923",
      "page": "1207"
    },
    {
      "persons_count": 7,
      "yearbook": "Annuaire Desfossés 1927",
      "source": "annuaire_df_1927",
      "page": "1348"
    }
  ],
  "persons_stats": {
    "persons_count": 8,
    "start_date": "1923-01-01",
    "end_date": "1927-12-31"
  },
  "yearbooks_ocrs": [
    {
      "source": "annuaire_df_1920",
      "yearbook": "Annuaire Desfossés 1920",
      "page": "1153"
    },
    {
      "source": "annuaire_df_1923",
      "yearbook": "Annuaire Desfossés 1923",
      "page": "1207"
    },
    {
      "source": "annuaire_df_1925",
      "yearbook": "Annuaire Desfossés 1925",
      "page": "1520"
    },
    {
      "source": "annuaire_df_1927",
      "yearbook": "Annuaire Desfossés 1927",
      "page": "1348"
    },
    {
      "source": "annuaire_df_1929",
      "yearbook": "Annuaire Desfossés 1929",
      "page": "1453"
    }
  ],
  "juridical_status": [
    {
      "juridical_status": "Société Anonyme (Libre)",
      "start_date": "1918-02-19",
      "end_date": "1948-02-19",
      "comments": "Société anonyme française, constituée le 19 février 1918, pour une durée de 30 ans.",
      "source": "annuaire_df_1923"
    }
  ],
  "equity_capital": [
    {
      "amount": "3.000.000",
      "currency": "Franc",
      "infodate": "1918-02-19",
      "source": "annuaire_df_1927",
      "comments": "A l'origine 3 millions de francs, en 12.000 actions dont 2.000 attribuées aux apporteur*"
    },
    {
      "amount": "8.000.000",
      "currency": "Franc",
      "infodate": "1919-01-01",
      "source": "annuaire_df_1927",
      "comments": " porté à 8 millions en décembre 1919"
    },
    {
      "amount": "10.000.000",
      "currency": "Franc",
      "infodate": "1921-01-31",
      "source": "annuaire_df_1927",
      "comments": " en 1921, au chiffre actuel 10 millions de francs divisé en 40000 action de 250 francs "
    }
  ],
  "profit_dividends": [
    {
      "first_date": "1919-12-31",
      "last_date": "1926-12-31",
      "obs_count": 28
    }
  ],
  "public_status": false
}