{
  "id": 915,
  "names": [
    "Société de la manufacture de Glaces d'Aix-la-Chapelle (Aktien-Gesellschaft der Aachener Spiegel-Manufaktur)"
  ],
  "name": "Société de la manufacture de Glaces d'Aix-la-Chapelle (Aktien-Gesellschaft der Aachener Spiegel-Manufaktur)",
  "balance_sheets": [],
  "balance_sheets_stats": {
    "start_date": null,
    "end_date": null
  },
  "locations_stats": {
    "start_date": "1857-01-01",
    "end_date": "1857-12-31"
  },
  "locations": {
    "Siège social": [
      {
        "location_types_id": 1,
        "location_type": "Siège social",
        "address": null,
        "city": "Aix-la-Chapelle",
        "district": "District fictif",
        "country": "République fédérale d'Allemagne",
        "in_yearbook_from": 1857,
        "in_yearbook_to": 1857
      }
    ]
  },
  "persons": [],
  "persons_stats": {
    "persons_count": 0,
    "start_date": null,
    "end_date": null
  },
  "yearbooks_ocrs": [],
  "juridical_status": [
    {
      "juridical_status": "Société anonyme allemande",
      "start_date": "1853-01-21",
      "end_date": "1857-10-06",
      "comments": "Société anonyme autorisée par ordonnance du roi de Prusse du 21 janvier 1853. ",
      "source": "Birieux 1857"
    }
  ],
  "equity_capital": [],
  "profit_dividends": [],
  "public_status": false,
  "stock_exchanges": {
    "1": {
      "id": 1,
      "name": "Paris (Official List)",
      "listings_stats": {
        "start_date": "1853-02-24"
      },
      "spot_prices_stats": {
        "start_date": "1853-02-24",
        "end_date": "1857-09-30"
      }
    }
  },
  "securities": {
    "788": {
      "id": 788,
      "name": "Glaces d'Aix-la-Chapelle",
      "share_type": {
        "id": 6,
        "name": "UNKNOWN"
      },
      "types": [
        {
          "start_date": "1853-02-24",
          "end_date": "3999-12-31",
          "id": 1,
          "name": "UNKNOWN",
          "stock_group": "U"
        }
      ],
      "start_date": "1853-02-24",
      "end_date": "3999-12-31",
      "prices_from": "1853-02-24",
      "prices_to": "1857-09-30",
      "is_mainstock": 0,
      "prices_count": 61
    }
  }
}