{
  "id": 10476,
  "names": [
    "SOCIETE DES CINÉMAS MODERNES",
    "SOCIÉTÉ DES CINÉMAS MODERNES",
    "Société des cinémas modernes"
  ],
  "name": "SOCIETE DES CINÉMAS MODERNES",
  "balance_sheets": [
    {
      "start_date": "1919-06-30",
      "source": "Annuaire Desfossés 1920",
      "page": "1159"
    },
    {
      "start_date": "1922-06-30",
      "source": "Annuaire Desfossés 1923",
      "page": "1241"
    },
    {
      "start_date": "1923-06-30",
      "source": "Annuaire Desfossés 1925",
      "page": "1494"
    }
  ],
  "balance_sheets_stats": {
    "start_date": "1919-06-30",
    "end_date": "1923-06-30"
  },
  "locations_stats": {
    "start_date": "1920-01-01",
    "end_date": "1931-12-31"
  },
  "locations": {
    "Siège social": [
      {
        "location_types_id": 1,
        "location_type": "Siège social",
        "address": "Rue de la chaussée d'antin, 68",
        "city": "Paris",
        "district": "Paris",
        "country": "France",
        "in_yearbook_from": 1920,
        "in_yearbook_to": 1920
      },
      {
        "location_types_id": 1,
        "location_type": "Siège social",
        "address": "Rue des italiens, 2",
        "city": "Paris",
        "district": "Paris",
        "country": "France",
        "in_yearbook_from": 1923,
        "in_yearbook_to": 1923
      },
      {
        "location_types_id": 1,
        "location_type": "Siège social",
        "address": "Rue des italiens, 7",
        "city": "Paris",
        "district": "Paris",
        "country": "France",
        "in_yearbook_from": 1925,
        "in_yearbook_to": 1929
      },
      {
        "location_types_id": 1,
        "location_type": "Siège social",
        "address": "Rue des italiens, 2",
        "city": "Paris",
        "district": null,
        "country": "France",
        "in_yearbook_from": 1931,
        "in_yearbook_to": 1931
      }
    ]
  },
  "persons": [
    {
      "persons_count": 7,
      "yearbook": "Annuaire Desfossés 1927",
      "source": "annuaire_df_1927",
      "page": "1285"
    }
  ],
  "persons_stats": {
    "persons_count": 7,
    "start_date": "1923-01-01",
    "end_date": "1927-12-31"
  },
  "yearbooks_ocrs": [
    {
      "source": "annuaire_df_1920",
      "yearbook": "Annuaire Desfossés 1920",
      "page": "1159"
    },
    {
      "source": "annuaire_df_1923",
      "yearbook": "Annuaire Desfossés 1923",
      "page": "1241"
    },
    {
      "source": "annuaire_df_1925",
      "yearbook": "Annuaire Desfossés 1925",
      "page": "1494"
    },
    {
      "source": "annuaire_df_1927",
      "yearbook": "Annuaire Desfossés 1927",
      "page": "1285"
    },
    {
      "source": "annuaire_df_1929",
      "yearbook": "Annuaire Desfossés 1929",
      "page": "1388"
    },
    {
      "source": "annuaire_df_1931",
      "yearbook": "Annuaire Desfossés 1931",
      "page": "1431"
    }
  ],
  "juridical_status": [
    {
      "juridical_status": "Société Anonyme (Libre)",
      "start_date": "1910-06-07",
      "end_date": "1960-06-07",
      "comments": "Société anonyme française, constituée le 7 juin 1910, pour une durée de 50 ans.",
      "source": "annuaire_df_1923"
    }
  ],
  "equity_capital": [
    {
      "amount": "500.000",
      "currency": "Franc",
      "infodate": "1910-06-07",
      "source": "annuaire_df_1923",
      "comments": " A L'origine, 500.000 francs, en 5.000 actions de 100 francs, dont 2.000 actions attribuées aux apporteurs, "
    },
    {
      "amount": "1.000.000",
      "currency": "Franc",
      "infodate": "1913-01-01",
      "source": "annuaire_df_1923",
      "comments": "1 million de francs, divisé en 10.000 actions de 100 francs. A 1 origine, 500.000 francs, en 5.000 actions de 100 francs, dont 2.000 actions attribuées aux apporteurs, porté au chiffre actuel en 1913."
    }
  ],
  "profit_dividends": [
    {
      "first_date": "1915-06-30",
      "last_date": "1926-06-30",
      "obs_count": 29
    }
  ],
  "public_status": false
}