{
  "id": 5165,
  "names": [
    "ANCIENS ÉTABLISSEMENTS LESAGE SOCIÉTÉ ANONYME HOTELIERE ET IMMOBILIÈRE",
    "ANCIENS ÉTABLISSEMENTS LESAGE SOCIÉTÉ ANONYME HÔTELIÈRE ET IMMOBILIÈRE",
    "Anciens Etablissements Lesage, Société anonyme Hôtelière et Immobilière",
    "SOCIÉTÉ HOTELIERE ET IMMOBILIÈRE (Anciens Établissements Lesage)"
  ],
  "name": "ANCIENS ÉTABLISSEMENTS LESAGE SOCIÉTÉ ANONYME HOTELIERE ET IMMOBILIÈRE",
  "balance_sheets": [
    {
      "start_date": "1923-12-31",
      "source": "Annuaire Desfossés 1925",
      "page": "1432"
    },
    {
      "start_date": "1926-12-31",
      "source": "Annuaire Desfossés 1927",
      "page": "1229"
    },
    {
      "start_date": "1927-12-31",
      "source": "Annuaire Desfossés 1929",
      "page": "1325"
    },
    {
      "start_date": "1929-12-31",
      "source": "Annuaire Desfossés 1931",
      "page": "1362"
    },
    {
      "start_date": "1931-12-31",
      "source": "Annuaire Desfossés 1933",
      "page": "1380"
    }
  ],
  "balance_sheets_stats": {
    "start_date": "1923-12-31",
    "end_date": "1931-12-31"
  },
  "locations_stats": {
    "start_date": "1924-01-01",
    "end_date": "1933-12-31"
  },
  "locations": {
    "Siège social": [
      {
        "location_types_id": 1,
        "location_type": "Siège social",
        "address": "Avenue des champs-elysées, 118",
        "city": "Paris",
        "district": "Paris",
        "country": "France",
        "in_yearbook_from": 1924,
        "in_yearbook_to": 1927
      },
      {
        "location_types_id": 1,
        "location_type": "Siège social",
        "address": "Rue christophe-colomb, 11",
        "city": "Paris",
        "district": "Paris",
        "country": "France",
        "in_yearbook_from": 1928,
        "in_yearbook_to": 1933
      }
    ]
  },
  "persons": [
    {
      "persons_count": 5,
      "yearbook": "Annuaire Desfossés 1927",
      "source": "annuaire_df_1927",
      "page": "1229"
    },
    {
      "persons_count": 5,
      "yearbook": "Annuaire Desfossés 1933",
      "source": "annuaire_df_1933",
      "page": "1380"
    }
  ],
  "persons_stats": {
    "persons_count": 7,
    "start_date": "1927-01-01",
    "end_date": "1933-12-31"
  },
  "yearbooks_ocrs": [
    {
      "source": "annuaire_df_1925",
      "yearbook": "Annuaire Desfossés 1925",
      "page": "1432"
    },
    {
      "source": "annuaire_df_1927",
      "yearbook": "Annuaire Desfossés 1927",
      "page": "1229"
    },
    {
      "source": "annuaire_df_1929",
      "yearbook": "Annuaire Desfossés 1929",
      "page": "1325"
    },
    {
      "source": "annuaire_df_1931",
      "yearbook": "Annuaire Desfossés 1931",
      "page": "1362"
    },
    {
      "source": "annuaire_df_1933",
      "yearbook": "Annuaire Desfossés 1933",
      "page": "1380"
    }
  ],
  "juridical_status": [
    {
      "juridical_status": "Société Anonyme (Libre)",
      "start_date": "1922-12-28",
      "end_date": "1972-12-27",
      "comments": " Société anonyme française; constituée le 28 décembre 1922, pour une durée de 50 ans. ",
      "source": "annuaire_df_1927"
    }
  ],
  "equity_capital": [
    {
      "amount": "10.000.000",
      "currency": "Franc",
      "infodate": "1922-12-28",
      "source": "annuaire_df_1927",
      "comments": "A l’origine, 10 millions"
    },
    {
      "amount": "15.000.000",
      "currency": "Franc",
      "infodate": "1924-01-01",
      "source": "annuaire_df_1927",
      "comments": "porté en 1924 à 15 millions"
    },
    {
      "amount": "20.000.000",
      "currency": "Franc",
      "infodate": "1925-04-01",
      "source": "annuaire_df_1927",
      "comments": "porté en 1924 à 15 millions et en avril 1925 au chiffre actuel par la création de 10.000 nouvelles actions (1 nouvelle pour 3 anciennes)."
    },
    {
      "amount": "21.806.000",
      "currency": "Franc",
      "infodate": "1931-01-01",
      "source": "annuaire_df_1927",
      "comments": "Ramené en 1931 à 21.806.000 francs, par suite du rachat d'une partie des actions à vote plural. En même temps, les actions à vote plural, restant ont été assimilées aux autres actions"
    }
  ],
  "profit_dividends": [
    {
      "first_date": "1923-12-31",
      "last_date": "1932-12-31",
      "obs_count": 45
    }
  ],
  "public_status": false,
  "stock_exchanges": {
    "1": {
      "id": 1,
      "name": "Paris (Official List)",
      "listings_stats": {
        "start_date": "1925-01-03"
      },
      "spot_prices_stats": {
        "start_date": "1925-01-03",
        "end_date": "1933-12-15"
      }
    }
  },
  "securities": {
    "7942": {
      "id": 7942,
      "name": "Lesage (Anc. Etablis.) Sté Anonyme Hôtelière et Immobilière, a. 500 f., t. p.",
      "share_type": {
        "id": 1,
        "name": "Stock (Action)"
      },
      "types": [
        {
          "start_date": "1925-01-03",
          "end_date": "3999-12-31",
          "id": 18,
          "name": "Action",
          "stock_group": "S"
        }
      ],
      "start_date": "1925-01-03",
      "end_date": "3999-12-31",
      "prices_from": "1925-01-03",
      "prices_to": "1933-12-15",
      "is_mainstock": 1,
      "prices_count": 222
    },
    "9654": {
      "id": 9654,
      "name": "Hôtelière et Immobilière 6%, r. à 1000 f. estamp.",
      "share_type": {
        "id": 2,
        "name": "Bond (Obligation)"
      },
      "types": [
        {
          "start_date": "1930-08-20",
          "end_date": "3999-12-31",
          "id": 1001,
          "name": "Obligation ordinaire ou classique",
          "stock_group": "B"
        }
      ],
      "start_date": "1930-08-20",
      "end_date": "3999-12-31",
      "prices_from": "1930-08-20",
      "prices_to": "1933-12-15",
      "is_mainstock": 0,
      "prices_count": 67
    },
    "101884": {
      "id": 101884,
      "name": "Act. Anciens Etablissements Lesage (Société Hôtelière et immobilière) (droit et coupon 8)",
      "share_type": {
        "id": 4,
        "name": "Rights (Droits)"
      },
      "types": [
        {
          "start_date": "1925-03-21",
          "end_date": "1925-04-17",
          "id": 501,
          "name": "Droit de souscription",
          "stock_group": "R"
        }
      ],
      "start_date": "1925-03-21",
      "end_date": "1925-04-17",
      "prices_from": null,
      "prices_to": null,
      "is_mainstock": 0,
      "prices_count": 0
    }
  }
}