{
  "id": 2421,
  "names": [
    "CIE DES MINES DE HOUILLE DE LIGNY-LEZ AIRE",
    "CIE DES MINES DE HOUILLE DE LIGNY-LEZ-AIRE",
    "CIE DES MINES DE HOUILLE DE LIGNY-LEZ-AiRE",
    "CIE DES MINES DE HOUILLE DE LIGNY-LEZAIRE",
    "COMPAGNIE DES MINES DE HOUILLE DE LIGNY-LEZ-AIRE",
    "COMPAGNIE DES MINES DE HOUILLE DE LIGNY-LEZ-AIRE (Pas-de-Calais)",
    "COMPAGNIE DES MINES DE HOUILLE DE LIGNY-LEZ-AIRE (en liquidation)",
    "COMPAGNIE DES MINES DE HOUILLE DE LIGNY-LEZ-AIRË",
    "COMPAGNIE DES MINES DE HOUILLE DE Ll GNY-LEZ-AIRE (Pas-de-Calais)",
    "COMPAGNIE DES MSNES DE HOUILLE DE LIGNY-LES-ÀIRE",
    "Compagnie des Mines de Houille de Ligny lez-Aire (P.-D.-C.)",
    "Compagnie des mines de houille de Ligny-Iez-Aire",
    "Compagnie des mines de houille de Ligny-les-Aire (Pas-de-Calais)"
  ],
  "name": "COMPAGNIE DES MINES DE HOUILLE DE LIGNY-LEZ-AIRE",
  "balance_sheets": [
    {
      "start_date": "1910-12-31",
      "source": "Annuaire Desfossés 1912",
      "page": "711"
    },
    {
      "start_date": "1912-12-31",
      "source": "Annuaire Desfossés 1914",
      "page": "776"
    },
    {
      "start_date": "1914-12-31",
      "source": "Annuaire Desfossés 1917",
      "page": "709"
    },
    {
      "start_date": "1919-12-31",
      "source": "Annuaire Desfossés 1920",
      "page": "778"
    },
    {
      "start_date": "1921-12-31",
      "source": "Annuaire Desfossés 1923",
      "page": "866"
    },
    {
      "start_date": "1923-12-31",
      "source": "Annuaire Desfossés 1925",
      "page": "995"
    },
    {
      "start_date": "1925-12-31",
      "source": "Annuaire Desfossés 1927",
      "page": "799"
    },
    {
      "start_date": "1927-12-31",
      "source": "Annuaire Desfossés 1929",
      "page": "849"
    },
    {
      "start_date": "1929-12-31",
      "source": "Annuaire Desfossés 1931",
      "page": "872"
    },
    {
      "start_date": "1930-12-31",
      "source": "Annuaire Desfossés 1932",
      "page": null
    },
    {
      "start_date": "1932-12-31",
      "source": "Annuaire Desfossés 1936",
      "page": null
    },
    {
      "start_date": "1933-12-31",
      "source": "Annuaire Desfossés 1937",
      "page": "1021"
    },
    {
      "start_date": "1934-12-31",
      "source": "Annuaire Desfossés 1937",
      "page": "1021"
    },
    {
      "start_date": "1935-12-31",
      "source": "Annuaire Desfossés 1940",
      "page": null
    },
    {
      "start_date": "1936-12-31",
      "source": "Annuaire Desfossés 1940",
      "page": null
    },
    {
      "start_date": "1937-12-31",
      "source": "Annuaire Desfossés 1940",
      "page": null
    },
    {
      "start_date": "1938-12-31",
      "source": "Annuaire Desfossés 1945",
      "page": "676"
    },
    {
      "start_date": "1941-12-31",
      "source": "Annuaire Desfossés 1945",
      "page": "676"
    },
    {
      "start_date": "1942-12-31",
      "source": "Annuaire Desfossés 1948",
      "page": "718"
    },
    {
      "start_date": "1943-12-31",
      "source": "Annuaire Desfossés 1948",
      "page": "718"
    },
    {
      "start_date": "1944-10-15",
      "source": "Annuaire Desfossés 1948",
      "page": "718"
    },
    {
      "start_date": "1945-12-31",
      "source": "Annuaire Desfossés 1948",
      "page": "718"
    }
  ],
  "balance_sheets_stats": {
    "start_date": "1910-12-31",
    "end_date": "1945-12-31"
  },
  "locations_stats": {
    "start_date": "1903-01-01",
    "end_date": "1953-12-31"
  },
  "locations": {
    "Siège social": [
      {
        "location_types_id": 1,
        "location_type": "Siège social",
        "address": null,
        "city": "Bethune",
        "district": "Pas-de-Calais",
        "country": "France",
        "in_yearbook_from": 1903,
        "in_yearbook_to": 1917
      },
      {
        "location_types_id": 1,
        "location_type": "Siège social",
        "address": null,
        "city": "Estrée-Blanche",
        "district": "Pas-de-Calais",
        "country": "France",
        "in_yearbook_from": 1923,
        "in_yearbook_to": 1924
      },
      {
        "location_types_id": 1,
        "location_type": "Siège social",
        "address": null,
        "city": "Lambres",
        "district": "Pas-de-Calais",
        "country": "France",
        "in_yearbook_from": 1927,
        "in_yearbook_to": 1927
      },
      {
        "location_types_id": 1,
        "location_type": "Siège social",
        "address": null,
        "city": "Lambres",
        "district": "Pas-de-Calais",
        "country": "France",
        "in_yearbook_from": 1933,
        "in_yearbook_to": 1933
      },
      {
        "location_types_id": 1,
        "location_type": "Siège social",
        "address": null,
        "city": "Lambres",
        "district": "Pas-de-Calais",
        "country": "France",
        "in_yearbook_from": 1937,
        "in_yearbook_to": 1945
      },
      {
        "location_types_id": 1,
        "location_type": "Siège social",
        "address": "Avenue marceau, 54",
        "city": "Paris",
        "district": "Paris",
        "country": "France",
        "in_yearbook_from": 1948,
        "in_yearbook_to": 1953
      }
    ],
    "Mines / Carrières / Pétrole / Gaz": [
      {
        "location_types_id": 7,
        "location_type": "Mines / Carrières / Pétrole / Gaz",
        "address": null,
        "city": "Auchy au Bois",
        "district": "Pas-de-Calais",
        "country": "France",
        "in_yearbook_from": 1940,
        "in_yearbook_to": 1940
      },
      {
        "location_types_id": 7,
        "location_type": "Mines / Carrières / Pétrole / Gaz",
        "address": null,
        "city": "Flechinel",
        "district": "Pas-de-Calais",
        "country": "France",
        "in_yearbook_from": 1940,
        "in_yearbook_to": 1940
      },
      {
        "location_types_id": 7,
        "location_type": "Mines / Carrières / Pétrole / Gaz",
        "address": null,
        "city": "Lieres",
        "district": "Pas-de-Calais",
        "country": "France",
        "in_yearbook_from": 1940,
        "in_yearbook_to": 1940
      }
    ]
  },
  "persons": [
    {
      "persons_count": 6,
      "yearbook": "Annuaire de la Compagnie des Agents de Change 1903",
      "source": "annuaire_cac_1903",
      "page": "1902"
    },
    {
      "persons_count": 6,
      "yearbook": "Annuaire de la Compagnie des Agents de Change 1908",
      "source": "annuaire_cac_1908",
      "page": "1604"
    },
    {
      "persons_count": 3,
      "yearbook": "Annuaire Desfossés 1912",
      "source": "annuaire_df_1912",
      "page": "711"
    },
    {
      "persons_count": 4,
      "yearbook": "Annuaire Desfossés 1923",
      "source": "annuaire_df_1923",
      "page": "866"
    },
    {
      "persons_count": 4,
      "yearbook": "Annuaire Desfossés 1927",
      "source": "annuaire_df_1927",
      "page": "799"
    },
    {
      "persons_count": 5,
      "yearbook": "Annuaire Desfossés 1933",
      "source": "annuaire_df_1933",
      "page": "928"
    },
    {
      "persons_count": 1,
      "yearbook": "Annuaire Desfossés 1940",
      "source": "annuaire_df_1940",
      "page": null
    },
    {
      "persons_count": 7,
      "yearbook": "Annuaire Desfossés 1945",
      "source": "annuaire_df_1945",
      "page": "676"
    }
  ],
  "persons_stats": {
    "persons_count": 28,
    "start_date": "1903-01-01",
    "end_date": "1945-12-31"
  },
  "yearbooks_ocrs": [
    {
      "source": "annuaire_cac_1903",
      "yearbook": "Annuaire de la Compagnie des Agents de Change 1903",
      "page": "1902"
    },
    {
      "source": "annuaire_cac_1908",
      "yearbook": "Annuaire de la Compagnie des Agents de Change 1908",
      "page": "1604"
    },
    {
      "source": "annuaire_df_1912",
      "yearbook": "Annuaire Desfossés 1912",
      "page": "711"
    },
    {
      "source": "annuaire_df_1914",
      "yearbook": "Annuaire Desfossés 1914",
      "page": "776"
    },
    {
      "source": "annuaire_df_1917",
      "yearbook": "Annuaire Desfossés 1917",
      "page": "709"
    },
    {
      "source": "annuaire_df_1920",
      "yearbook": "Annuaire Desfossés 1920",
      "page": "778"
    },
    {
      "source": "annuaire_df_1923",
      "yearbook": "Annuaire Desfossés 1923",
      "page": "866"
    },
    {
      "source": "annuaire_df_1925",
      "yearbook": "Annuaire Desfossés 1925",
      "page": "995"
    },
    {
      "source": "annuaire_df_1927",
      "yearbook": "Annuaire Desfossés 1927",
      "page": "799"
    },
    {
      "source": "annuaire_df_1929",
      "yearbook": "Annuaire Desfossés 1929",
      "page": "849"
    },
    {
      "source": "annuaire_df_1931",
      "yearbook": "Annuaire Desfossés 1931",
      "page": "872"
    },
    {
      "source": "annuaire_df_1933",
      "yearbook": "Annuaire Desfossés 1933",
      "page": "928"
    },
    {
      "source": "annuaire_df_1937",
      "yearbook": "Annuaire Desfossés 1937",
      "page": "1021"
    },
    {
      "source": "annuaire_df_1940",
      "yearbook": "Annuaire Desfossés 1940",
      "page": null
    },
    {
      "source": "annuaire_df_1945",
      "yearbook": "Annuaire Desfossés 1945",
      "page": "676"
    },
    {
      "source": "annuaire_df_1948",
      "yearbook": "Annuaire Desfossés 1948",
      "page": "718"
    },
    {
      "source": "annuaire_df_1953",
      "yearbook": "Annuaire Desfossés 1953",
      "page": "538"
    }
  ],
  "juridical_status": [
    {
      "juridical_status": "Société Anonyme (Libre)",
      "start_date": "1894-09-01",
      "end_date": "3999-12-31",
      "comments": "Société anonyme formée par acte sous seings privés déposés a Me Alfred Duquesne, notaire à La Ventie (Pas-de-Calais), le 18 août 1891 définitivement constituée le 1er septembre suivant, et modifiée par décision de l’Assemblée générale du 17 mai 1900.  La durée sera du temps voulu pour l’épuisement des cor cessions, à partir du 1er septembre 1894.",
      "source": "annuaire_cac_1903"
    }
  ],
  "equity_capital": [
    {
      "amount": "2.500.000",
      "currency": "Franc",
      "infodate": "1894-09-01",
      "source": "annuaire_cac_1903",
      "comments": "Fixé originairement à 2,500,000 francs et divise en 5,000 actions de 500 francs SUT lesquelles 3,500 ont été souscrites-en espèces  gau pair et 1,500 ont été attribuées aux fondateurs, en représentation de leurs apports. par décision des Assemblées générales des 20‘ février et fl mai 198Ô, le capital a été porté à 4,590,000' francs au moyen de l;a création ©freleFê-mission à 600 francs de 4.000 actions nouvelles de 500 francs. -Ui total : 9000' actions de 500 francs libérées, et au porteur. Le dividende se paye ordinairement en juin."
    },
    {
      "amount": "4.500.000",
      "currency": "Franc",
      "infodate": "1900-05-17",
      "source": "annuaire_cac_1903",
      "comments": "Par décision des Assemblées générales des 20‘ février et fl mai 198Ô, le capital a été porté à 4,590,000' francs au moyen de l;a création ©freleFê-mission à 600 francs de 4.000 actions nouvelles de 500 francs. -Ui total : 9000' actions de 500 francs libérées, et au porteur. Le dividende se paye ordinairement en juin."
    },
    {
      "amount": "6.000.000",
      "currency": "Franc",
      "infodate": "1903-07-28",
      "source": "annuaire_cac_1908",
      "comments": "Au total : 9,000 actions de 500 francs libérées et au porteur, seules admises à la cote. (Suivant décisions des assemblées générales des 28 mai et 28 juillet 1903, le capital social a été porté à 6 millions au moyen de la création de 3,000 actions nouvelles de 500 francs, réservées de préférence aux anciens actionnaires, et émises au prix de 525 francs."
    },
    {
      "amount": "12.000.000",
      "currency": "Franc",
      "infodate": "1924-01-01",
      "source": "annuaire_df_1927",
      "comments": "12 millions, divisé en 24.000 actions de 500 francs. A l’origine, 2.500.000 francs, porté en 1900 à 4.500.000 francs, en 1903 à 6 millions et en 1924 au chiffre actuel."
    },
    {
      "amount": "18.000.000",
      "currency": "Franc",
      "infodate": "1927-10-01",
      "source": "annuaire_df_1933",
      "comments": "18 millions, divisé en 36.000 actions de 500 francs. A l’origine, 2.500.000 francs, porté en 1900 à 4.500.000 francs, en 1903 à 6 millions, en 1924 a 12 millions, en octobre 1927 au chiffre actuel."
    },
    {
      "amount": "18.000.000",
      "currency": "Franc",
      "infodate": "1953-01-31",
      "source": "annuaire_df_1953",
      "comments": "18 millions, divisé en 36.000 actions de 500 fr."
    }
  ],
  "profit_dividends": [
    {
      "first_date": "1894-12-31",
      "last_date": "1947-12-31",
      "obs_count": 262
    }
  ],
  "public_status": false,
  "stock_exchanges": {
    "1": {
      "id": 1,
      "name": "Paris (Official List)",
      "listings_stats": {
        "start_date": "1901-03-15"
      },
      "spot_prices_stats": {
        "start_date": "1901-03-15",
        "end_date": "1949-04-29"
      }
    }
  },
  "securities": {
    "4925": {
      "id": 4925,
      "name": "Mines de Ligny-lez-Aire, act. 500 fr., t.p.",
      "share_type": {
        "id": 1,
        "name": "Stock (Action)"
      },
      "types": [
        {
          "start_date": "1901-03-15",
          "end_date": "3999-12-31",
          "id": 18,
          "name": "Action",
          "stock_group": "S"
        }
      ],
      "start_date": "1901-03-15",
      "end_date": "3999-12-31",
      "prices_from": "1901-03-15",
      "prices_to": "1949-04-29",
      "is_mainstock": 1,
      "prices_count": 770
    },
    "4926": {
      "id": 4926,
      "name": "Mines [de houille] de Ligny-lez-Aire, act. 500fr.,250fr. restant à verser (nom.)",
      "share_type": {
        "id": 1,
        "name": "Stock (Action)"
      },
      "types": [
        {
          "start_date": "1901-03-15",
          "end_date": "3999-12-31",
          "id": 18,
          "name": "Action",
          "stock_group": "S"
        }
      ],
      "start_date": "1901-03-15",
      "end_date": "3999-12-31",
      "prices_from": "1901-03-15",
      "prices_to": "1901-03-15",
      "is_mainstock": 0,
      "prices_count": 2
    },
    "8792": {
      "id": 8792,
      "name": "Mines de Ligny-lez-Aire, act. 500 fr., t.p. (dr. et c. 21 att.)",
      "share_type": {
        "id": 1,
        "name": "Stock (Action)"
      },
      "types": [
        {
          "start_date": "1927-09-26",
          "end_date": "3999-12-31",
          "id": 18,
          "name": "Action",
          "stock_group": "S"
        }
      ],
      "start_date": "1927-09-26",
      "end_date": "3999-12-31",
      "prices_from": "1927-09-27",
      "prices_to": "1927-09-30",
      "is_mainstock": 0,
      "prices_count": 2
    },
    "9112": {
      "id": 9112,
      "name": "Mines de Ligny-lez-Aire, Act. 500 fr., t.p. (nos 24001 à 36000)",
      "share_type": {
        "id": 1,
        "name": "Stock (Action)"
      },
      "types": [
        {
          "start_date": "1928-02-27",
          "end_date": "3999-12-31",
          "id": 11,
          "name": "Action ordinaire",
          "stock_group": "S"
        }
      ],
      "start_date": "1928-02-27",
      "end_date": "3999-12-31",
      "prices_from": "1928-02-27",
      "prices_to": "1949-04-29",
      "is_mainstock": 0,
      "prices_count": 319
    },
    "102709": {
      "id": 102709,
      "name": "Act. Mines de Houille de Ligny-lez-Aire (droit et c. 19)",
      "share_type": {
        "id": 4,
        "name": "Rights (Droits)"
      },
      "types": [
        {
          "start_date": "1924-07-07",
          "end_date": "1924-07-29",
          "id": 501,
          "name": "Droit de souscription",
          "stock_group": "R"
        }
      ],
      "start_date": "1924-07-07",
      "end_date": "1924-07-29",
      "prices_from": "1924-07-07",
      "prices_to": "1924-07-07",
      "is_mainstock": 0,
      "prices_count": 0
    },
    "102710": {
      "id": 102710,
      "name": "Act. Mines de Houille de Ligny-lez-Aire (droit et c. 21). Pour 2 actions anciennes, 1 action nouvelle émise à 670 francs.",
      "share_type": {
        "id": 4,
        "name": "Rights (Droits)"
      },
      "types": [
        {
          "start_date": "1927-09-26",
          "end_date": "1927-10-19",
          "id": 501,
          "name": "Droit de souscription",
          "stock_group": "R"
        }
      ],
      "start_date": "1927-09-26",
      "end_date": "1927-10-19",
      "prices_from": "1927-10-05",
      "prices_to": "1927-10-17",
      "is_mainstock": 0,
      "prices_count": 0
    }
  }
}