{
  "id": 11605,
  "names": [
    "PRODUITS ALIMENTAIRES LOUIT FRERES ET Cie",
    "Produits Alimentaires Louit Freres et cie"
  ],
  "name": "PRODUITS ALIMENTAIRES LOUIT FRERES ET Cie",
  "balance_sheets": [
    {
      "start_date": "1948-12-31",
      "source": "Annuaire Desfossés 1953",
      "page": "2015"
    },
    {
      "start_date": "1949-10-31",
      "source": "Annuaire Desfossés 1953",
      "page": "2015"
    },
    {
      "start_date": "1950-12-31",
      "source": "Annuaire Desfossés 1953",
      "page": "2015"
    },
    {
      "start_date": "1951-12-31",
      "source": "Annuaire Desfossés 1953",
      "page": "2015"
    }
  ],
  "balance_sheets_stats": {
    "start_date": "1948-12-31",
    "end_date": "1951-12-31"
  },
  "locations_stats": {
    "start_date": "1953-01-01",
    "end_date": "1953-12-31"
  },
  "locations": {
    "Siège social": [
      {
        "location_types_id": 1,
        "location_type": "Siège social",
        "address": "Rue ulysse-gayon, 24",
        "city": "Bordeaux",
        "district": "Gironde",
        "country": "France",
        "in_yearbook_from": 1953,
        "in_yearbook_to": 1953
      }
    ]
  },
  "persons": [
    {
      "persons_count": 15,
      "yearbook": "Annuaire Desfossés 1953",
      "source": "annuaire_df_1953",
      "page": "2015"
    }
  ],
  "persons_stats": {
    "persons_count": 15,
    "start_date": "1953-01-01",
    "end_date": "1953-12-31"
  },
  "yearbooks_ocrs": [
    {
      "source": "annuaire_df_1953",
      "yearbook": "Annuaire Desfossés 1953",
      "page": "2015"
    }
  ],
  "juridical_status": [
    {
      "juridical_status": "Société Anonyme (Libre)",
      "start_date": "1925-03-23",
      "end_date": "2020-12-31",
      "comments": "CONSTITUTION : Société anonyme, constituée le 23 mars 1925 (fondée en 1825, en commandite en 1889) et devant expirer le 31 décembre 2020.",
      "source": "annuaire_df_1953"
    }
  ],
  "equity_capital": [
    {
      "amount": "70.200.000",
      "currency": "Franc",
      "infodate": "1925-02-23",
      "source": "annuaire_df_1953",
      "comments": "202.117.500 fr., divisé en 62.1S0 actions de 3.250 fr. Antérieurement de 70.200.000 fr., a été réduit à 7.020.000 fr. et porté à 87.750.000 fr. en vertu des délibérations des assemblées générales des 14 décembre 1949 et 4 janvier 1950. Regroupement des actions « A » en titres de 3.250 fr. à partir du 3 septembre 1951. Porté en 1951 à 114.725.000 fr. par émission de 8.300 actions de 3.250 fr. dites actions « C » dont 1.550 réservées aux créanciers et 6.750 aux actionnaires (1 pour 13.000 fr. de capital). Porté en 1952 à 172.087.500 fr. par émission au pair de 17.650 actions nouvelles de 3.250 fr. (1 pour 2). Porté en 1952 à 202.117.500 fr. par création de 9.240 actions de 3.250 fr. (apport Mnreuil)."
    },
    {
      "amount": "7.020.000",
      "currency": "Franc",
      "infodate": "1949-01-01",
      "source": "annuaire_df_1953",
      "comments": "202.117.500 fr., divisé en 62.1S0 actions de 3.250 fr. Antérieurement de 70.200.000 fr., a été réduit à 7.020.000 fr. et porté à 87.750.000 fr. en vertu des délibérations des assemblées générales des 14 décembre 1949 et 4 janvier 1950. Regroupement des actions « A » en titres de 3.250 fr. à partir du 3 septembre 1951. Porté en 1951 à 114.725.000 fr. par émission de 8.300 actions de 3.250 fr. dites actions « C » dont 1.550 réservées aux créanciers et 6.750 aux actionnaires (1 pour 13.000 fr. de capital). Porté en 1952 à 172.087.500 fr. par émission au pair de 17.650 actions nouvelles de 3.250 fr. (1 pour 2). Porté en 1952 à 202.117.500 fr. par création de 9.240 actions de 3.250 fr. (apport Mnreuil)."
    },
    {
      "amount": "87.750.000",
      "currency": "Franc",
      "infodate": "1949-02-02",
      "source": "annuaire_df_1953",
      "comments": "202.117.500 fr., divisé en 62.1S0 actions de 3.250 fr. Antérieurement de 70.200.000 fr., a été réduit à 7.020.000 fr. et porté à 87.750.000 fr. en vertu des délibérations des assemblées générales des 14 décembre 1949 et 4 janvier 1950. Regroupement des actions « A » en titres de 3.250 fr. à partir du 3 septembre 1951. Porté en 1951 à 114.725.000 fr. par émission de 8.300 actions de 3.250 fr. dites actions « C » dont 1.550 réservées aux créanciers et 6.750 aux actionnaires (1 pour 13.000 fr. de capital). Porté en 1952 à 172.087.500 fr. par émission au pair de 17.650 actions nouvelles de 3.250 fr. (1 pour 2). Porté en 1952 à 202.117.500 fr. par création de 9.240 actions de 3.250 fr. (apport Mnreuil)."
    },
    {
      "amount": "114.725.000",
      "currency": "Franc",
      "infodate": "1951-01-01",
      "source": "annuaire_df_1953",
      "comments": "202.117.500 fr., divisé en 62.1S0 actions de 3.250 fr. Antérieurement de 70.200.000 fr., a été réduit à 7.020.000 fr. et porté à 87.750.000 fr. en vertu des délibérations des assemblées générales des 14 décembre 1949 et 4 janvier 1950. Regroupement des actions « A » en titres de 3.250 fr. à partir du 3 septembre 1951. Porté en 1951 à 114.725.000 fr. par émission de 8.300 actions de 3.250 fr. dites actions « C » dont 1.550 réservées aux créanciers et 6.750 aux actionnaires (1 pour 13.000 fr. de capital). Porté en 1952 à 172.087.500 fr. par émission au pair de 17.650 actions nouvelles de 3.250 fr. (1 pour 2). Porté en 1952 à 202.117.500 fr. par création de 9.240 actions de 3.250 fr. (apport Mnreuil)."
    },
    {
      "amount": "172.087.500",
      "currency": "Franc",
      "infodate": "1952-01-01",
      "source": "annuaire_df_1953",
      "comments": "202.117.500 fr., divisé en 62.1S0 actions de 3.250 fr. Antérieurement de 70.200.000 fr., a été réduit à 7.020.000 fr. et porté à 87.750.000 fr. en vertu des délibérations des assemblées générales des 14 décembre 1949 et 4 janvier 1950. Regroupement des actions « A » en titres de 3.250 fr. à partir du 3 septembre 1951. Porté en 1951 à 114.725.000 fr. par émission de 8.300 actions de 3.250 fr. dites actions « C » dont 1.550 réservées aux créanciers et 6.750 aux actionnaires (1 pour 13.000 fr. de capital). Porté en 1952 à 172.087.500 fr. par émission au pair de 17.650 actions nouvelles de 3.250 fr. (1 pour 2). Porté en 1952 à 202.117.500 fr. par création de 9.240 actions de 3.250 fr. (apport Mnreuil)."
    },
    {
      "amount": "202.117.500",
      "currency": "Franc",
      "infodate": "1952-01-02",
      "source": "annuaire_df_1953",
      "comments": "202.117.500 fr., divisé en 62.1S0 actions de 3.250 fr. Antérieurement de 70.200.000 fr., a été réduit à 7.020.000 fr. et porté à 87.750.000 fr. en vertu des délibérations des assemblées générales des 14 décembre 1949 et 4 janvier 1950. Regroupement des actions « A » en titres de 3.250 fr. à partir du 3 septembre 1951. Porté en 1951 à 114.725.000 fr. par émission de 8.300 actions de 3.250 fr. dites actions « C » dont 1.550 réservées aux créanciers et 6.750 aux actionnaires (1 pour 13.000 fr. de capital). Porté en 1952 à 172.087.500 fr. par émission au pair de 17.650 actions nouvelles de 3.250 fr. (1 pour 2). Porté en 1952 à 202.117.500 fr. par création de 9.240 actions de 3.250 fr. (apport Mnreuil)."
    }
  ],
  "profit_dividends": [
    {
      "first_date": "1945-12-31",
      "last_date": "1951-12-31",
      "obs_count": 23
    }
  ],
  "public_status": false
}