{
  "id": 3532,
  "names": [
    "Electric and Musical Industries Ltd"
  ],
  "name": "Electric and Musical Industries Ltd",
  "balance_sheets": [],
  "balance_sheets_stats": {
    "start_date": null,
    "end_date": null
  },
  "locations_stats": {
    "start_date": null,
    "end_date": null
  },
  "locations": {},
  "persons": [],
  "persons_stats": {
    "persons_count": 0,
    "start_date": null,
    "end_date": null
  },
  "yearbooks_ocrs": [],
  "juridical_status": [],
  "equity_capital": [],
  "profit_dividends": [],
  "public_status": false,
  "stock_exchanges": {
    "1": {
      "id": 1,
      "name": "Paris (Official List)",
      "listings_stats": {
        "start_date": "1962-07-31"
      },
      "spot_prices_stats": {
        "start_date": "1962-07-31",
        "end_date": "1976-12-31"
      },
      "forward_prices_stats": {
        "start_date": "1962-07-31",
        "end_date": "1962-07-31"
      }
    }
  },
  "securities": {
    "17013": {
      "id": 17013,
      "name": "Electric and Musical Industries, Ltd (E.M.I.), act. Ord. Unités de stock de 50 P (nom.) (Livraison en crédit SICOVAM)",
      "share_type": {
        "id": 1,
        "name": "Stock (Action)"
      },
      "types": [
        {
          "start_date": "1962-07-31",
          "end_date": "3999-12-31",
          "id": 11,
          "name": "Action ordinaire",
          "stock_group": "S"
        }
      ],
      "start_date": "1962-07-31",
      "end_date": "3999-12-31",
      "prices_from": "1962-07-31",
      "prices_to": "1976-12-31",
      "is_mainstock": 0,
      "prices_count": 351
    },
    "17048": {
      "id": 17048,
      "name": "Electric and Musical Industries, Ltd (E.M.I.), act. ord. unités de stock de £0:10:0 (nom.) (Livraison en crédit SICOVAM) (par 100 actions)",
      "share_type": {
        "id": 1,
        "name": "Stock (Action)"
      },
      "types": [
        {
          "start_date": "1962-07-31",
          "end_date": "3999-12-31",
          "id": 11,
          "name": "Action ordinaire",
          "stock_group": "S"
        }
      ],
      "start_date": "1962-07-31",
      "end_date": "3999-12-31",
      "prices_from": "1962-07-31",
      "prices_to": "1962-07-31",
      "is_mainstock": 0,
      "prices_count": 4
    }
  }
}