{
  "id": 2392,
  "names": [
    "BANQUE DE CRÉDIT FONCIER CENTRAL D'AUTRICHE",
    "BANQUE DE CRÉDIT FONCIER CENTRAL D'AUTRICHE (Osterreichischen Central-Boden-Crédit-Bank)",
    "Banque de Crédit foncier central d Autriche",
    "Banque de Crédit foncier central d'Autriche",
    "Osterreichischen Central-Boden-Crédit-Bank (Banque de Crédit foncier central d'Autriche)"
  ],
  "name": "Banque de Crédit foncier central d'Autriche",
  "balance_sheets": [
    {
      "start_date": "1901-12-31",
      "source": "Annuaire de la Compagnie des Agents de Change 1903",
      "page": "734"
    },
    {
      "start_date": "1906-12-31",
      "source": "Annuaire de la Compagnie des Agents de Change 1908",
      "page": "627"
    },
    {
      "start_date": "1910-12-31",
      "source": "Annuaire Desfossés 1912",
      "page": "233"
    },
    {
      "start_date": "1911-12-31",
      "source": "Annuaire de la Compagnie des Agents de Change 1913",
      "page": null
    },
    {
      "start_date": "1923-12-31",
      "source": "Annuaire Desfossés 1925",
      "page": "283"
    }
  ],
  "balance_sheets_stats": {
    "start_date": "1901-12-31",
    "end_date": "1923-12-31"
  },
  "locations_stats": {
    "start_date": "1898-01-01",
    "end_date": "1924-12-31"
  },
  "locations": {
    "Siège social": [
      {
        "location_types_id": 1,
        "location_type": "Siège social",
        "address": null,
        "city": "Vienne",
        "district": "District fictif",
        "country": "Autriche",
        "in_yearbook_from": 1898,
        "in_yearbook_to": 1912
      },
      {
        "location_types_id": 1,
        "location_type": "Siège social",
        "address": "Kohlmark i, 8",
        "city": "Vienne",
        "district": "District fictif",
        "country": "Autriche",
        "in_yearbook_from": 1924,
        "in_yearbook_to": 1924
      }
    ]
  },
  "persons": [
    {
      "persons_count": 2,
      "yearbook": "Annuaire de la Compagnie des Agents de Change 1898",
      "source": "annuaire_cac_1898",
      "page": "704"
    },
    {
      "persons_count": 5,
      "yearbook": "Annuaire de la Compagnie des Agents de Change 1903",
      "source": "annuaire_cac_1903",
      "page": "734"
    },
    {
      "persons_count": 4,
      "yearbook": "Annuaire de la Compagnie des Agents de Change 1908",
      "source": "annuaire_cac_1908",
      "page": "627"
    },
    {
      "persons_count": 7,
      "yearbook": "Annuaire Desfossés 1912",
      "source": "annuaire_df_1912",
      "page": "233"
    }
  ],
  "persons_stats": {
    "persons_count": 16,
    "start_date": "1898-01-01",
    "end_date": "1912-12-31"
  },
  "yearbooks_ocrs": [
    {
      "source": "annuaire_cac_1898",
      "yearbook": "Annuaire de la Compagnie des Agents de Change 1898",
      "page": "704"
    },
    {
      "source": "annuaire_cac_1903",
      "yearbook": "Annuaire de la Compagnie des Agents de Change 1903",
      "page": "734"
    },
    {
      "source": "annuaire_cac_1908",
      "yearbook": "Annuaire de la Compagnie des Agents de Change 1908",
      "page": "627"
    },
    {
      "source": "annuaire_df_1912",
      "yearbook": "Annuaire Desfossés 1912",
      "page": "233"
    },
    {
      "source": "annuaire_df_1925",
      "yearbook": "Annuaire Desfossés 1925",
      "page": "283"
    }
  ],
  "juridical_status": [
    {
      "juridical_status": "Société anonyme autrichienne",
      "start_date": "1871-01-01",
      "end_date": "3999-12-31",
      "comments": "Société anonyme autrichienne constituée en 1871, modifiée par diverses assemblées générales ultérieures.   La durée n’est pas limitée",
      "source": "annuaire_cac_1898"
    }
  ],
  "equity_capital": [
    {
      "amount": "1.600.000",
      "currency": "Couronne austro-hongroise",
      "infodate": "1871-01-01",
      "source": "annuaire_cac_1898",
      "comments": " Fixé à l’origine à 1,600,000 florins, valeur autrichienne, le capital social a été porté en 1878 à 4,000,000 de florins valeur autrichienne divisé en 20,000 actions de 200 florins valeur autrichienne chèrement libérées et au porteur."
    },
    {
      "amount": "4.000.000",
      "currency": "Couronne austro-hongroise",
      "infodate": "1878-01-01",
      "source": "annuaire_cac_1898",
      "comments": " Fixé à l’origine à 1,600,000 florins, valeur autrichienne, le capital social a été porté en 1878 à 4,000,000 de florins valeur autrichienne divisé en 20,000 actions de 200 florins valeur autrichienne chèrement libérées et au porteur."
    }
  ],
  "profit_dividends": [
    {
      "first_date": "1871-12-31",
      "last_date": "1910-12-31",
      "obs_count": 81
    }
  ],
  "public_status": false,
  "stock_exchanges": {
    "1": {
      "id": 1,
      "name": "Paris (Official List)",
      "listings_stats": {
        "start_date": "1895-07-04"
      },
      "spot_prices_stats": {
        "start_date": "1895-07-05",
        "end_date": "1926-05-31"
      }
    }
  },
  "securities": {
    "4267": {
      "id": 4267,
      "name": "Banque de Crédit foncier central d'Autriche, act. 200 fl. t. p.",
      "share_type": {
        "id": 1,
        "name": "Stock (Action)"
      },
      "types": [
        {
          "start_date": "1895-07-04",
          "end_date": "3999-12-31",
          "id": 18,
          "name": "Action",
          "stock_group": "S"
        }
      ],
      "start_date": "1895-07-04",
      "end_date": "3999-12-31",
      "prices_from": "1895-07-05",
      "prices_to": "1913-05-31",
      "is_mainstock": 1,
      "prices_count": 71
    },
    "4607": {
      "id": 4607,
      "name": "Banque de Crédit foncier central d'Autriche, act. 200 fl. t. p. Gr. coup.",
      "share_type": {
        "id": 1,
        "name": "Stock (Action)"
      },
      "types": [
        {
          "start_date": "1896-09-18",
          "end_date": "3999-12-31",
          "id": 18,
          "name": "Action",
          "stock_group": "S"
        }
      ],
      "start_date": "1896-09-18",
      "end_date": "3999-12-31",
      "prices_from": "1897-06-30",
      "prices_to": "1909-04-30",
      "is_mainstock": 0,
      "prices_count": 20
    },
    "5209": {
      "id": 5209,
      "name": "Banque de Crédit foncier central d'Autriche, act. 200 fl. t. p. (C.5)",
      "share_type": {
        "id": 1,
        "name": "Stock (Action)"
      },
      "types": [
        {
          "start_date": "1903-06-01",
          "end_date": "3999-12-31",
          "id": 18,
          "name": "Action",
          "stock_group": "S"
        }
      ],
      "start_date": "1903-06-01",
      "end_date": "3999-12-31",
      "prices_from": "1911-03-15",
      "prices_to": "1911-03-15",
      "is_mainstock": 0,
      "prices_count": 1
    },
    "7603": {
      "id": 7603,
      "name": "Banque de Crédit Foncier Central d'Autriche, a. 400 c., t. p. (nos 1 à 20000)",
      "share_type": {
        "id": 1,
        "name": "Stock (Action)"
      },
      "types": [
        {
          "start_date": "1923-09-28",
          "end_date": "3999-12-31",
          "id": 18,
          "name": "Action",
          "stock_group": "S"
        }
      ],
      "start_date": "1923-09-28",
      "end_date": "3999-12-31",
      "prices_from": "1923-10-01",
      "prices_to": "1925-11-16",
      "is_mainstock": 1,
      "prices_count": 61
    },
    "7604": {
      "id": 7604,
      "name": "Banque de Crédit Foncier Central d'Autriche, a. 400 c., t. p. (nos 1 à 20000) non estamp.",
      "share_type": {
        "id": 1,
        "name": "Stock (Action)"
      },
      "types": [
        {
          "start_date": "1923-10-16",
          "end_date": "3999-12-31",
          "id": 18,
          "name": "Action",
          "stock_group": "S"
        }
      ],
      "start_date": "1923-10-16",
      "end_date": "3999-12-31",
      "prices_from": "1923-10-16",
      "prices_to": "1923-10-31",
      "is_mainstock": 0,
      "prices_count": 2
    },
    "7723": {
      "id": 7723,
      "name": "Banque de Crédit Foncier Central d'Autriche, act. 3000 cour, t. p. C. de 5 (nos 5001 à 12500 - 21001 à 37500 - 210001 à 250000)",
      "share_type": {
        "id": 1,
        "name": "Stock (Action)"
      },
      "types": [
        {
          "start_date": "1924-01-16",
          "end_date": "3999-12-31",
          "id": 18,
          "name": "Action",
          "stock_group": "S"
        }
      ],
      "start_date": "1924-01-16",
      "end_date": "3999-12-31",
      "prices_from": "1924-01-16",
      "prices_to": "1925-11-16",
      "is_mainstock": 0,
      "prices_count": 38
    },
    "7724": {
      "id": 7724,
      "name": "Banque de Crédit Foncier Central d'Autriche, act. 3000 cour, t. p. C. de 25 (nos 12501 à 15500 - 17501 à 20000 - 37501 à 210000 - 250001 à 490000)",
      "share_type": {
        "id": 1,
        "name": "Stock (Action)"
      },
      "types": [
        {
          "start_date": "1924-01-16",
          "end_date": "3999-12-31",
          "id": 18,
          "name": "Action",
          "stock_group": "S"
        }
      ],
      "start_date": "1924-01-16",
      "end_date": "3999-12-31",
      "prices_from": "1924-01-16",
      "prices_to": "1926-05-31",
      "is_mainstock": 0,
      "prices_count": 77
    },
    "101964": {
      "id": 101964,
      "name": "Act. Banque de Crédit Foncier Central d'Autriche.",
      "share_type": {
        "id": 4,
        "name": "Rights (Droits)"
      },
      "types": [
        {
          "start_date": "1924-03-18",
          "end_date": "1924-04-08",
          "id": 501,
          "name": "Droit de souscription",
          "stock_group": "R"
        }
      ],
      "start_date": "1924-03-18",
      "end_date": "1924-04-08",
      "prices_from": "1924-03-18",
      "prices_to": "1924-03-31",
      "is_mainstock": 0,
      "prices_count": 0
    },
    "104593": {
      "id": 104593,
      "name": "Act. Banque de Crédit Foncier Central d'Autriche",
      "share_type": {
        "id": 5,
        "name": "Droits de souscription"
      },
      "types": [
        {
          "start_date": "1923-10-21",
          "end_date": "1923-11-10",
          "id": 501,
          "name": "Droit de souscription",
          "stock_group": "R"
        }
      ],
      "start_date": "1923-10-21",
      "end_date": "1923-11-10",
      "prices_from": null,
      "prices_to": null,
      "is_mainstock": 0,
      "prices_count": 0
    }
  }
}