{
  "id": 12185,
  "names": [
    "Compagnie Générale des Transports"
  ],
  "name": "Compagnie Générale des Transports",
  "balance_sheets": [],
  "balance_sheets_stats": {
    "start_date": null,
    "end_date": null
  },
  "locations_stats": {
    "start_date": null,
    "end_date": null
  },
  "locations": {},
  "persons": [],
  "persons_stats": {
    "persons_count": 0,
    "start_date": null,
    "end_date": null
  },
  "yearbooks_ocrs": [],
  "juridical_status": [],
  "equity_capital": [],
  "profit_dividends": [],
  "public_status": false,
  "stock_exchanges": {
    "2": {
      "id": 2,
      "name": "Paris OTC (Coulisse)",
      "listings_stats": {
        "start_date": "1886-06-30"
      },
      "spot_prices_stats": {
        "start_date": "1886-06-30",
        "end_date": "1891-03-03"
      }
    }
  },
  "securities": {
    "105040": {
      "id": 105040,
      "name": "Cie Gle Transports, janv. 85",
      "share_type": {
        "id": 2,
        "name": "Bond (Obligation)"
      },
      "types": [
        {
          "start_date": "1886-06-30",
          "end_date": "1891-03-03",
          "id": 1001,
          "name": "Obligation ordinaire ou classique",
          "stock_group": "B"
        }
      ],
      "start_date": "1886-06-30",
      "end_date": "1887-12-31",
      "prices_from": "1886-06-30",
      "prices_to": "1891-03-03",
      "is_mainstock": 0,
      "prices_count": 98
    }
  }
}