{
  "id": 10811,
  "names": [
    "SIDI-BOU-AOUANE Société Anonyme d'Exploitations Minières",
    "SIDI-BOU-AOUANE Société anonyme d'exploitations minières",
    "SOCIÉTÉ D'EXPLOITATIONS MINIÈRES DE SIDI-BOU-AOUANE (anciennement Société Fermière des Mines de Sidi Bou Aouane)",
    "SOCIÉTÉ FERMIÈRE DES MINES DE SIDI - BOU-AOUANE",
    "SOCIÉTÉ FERMIÈRE DES MINES DE SIDI-BOU-AOUANE",
    "SOCIÉTÉ FERMIÈRE DES MINES DE SIDI-BOUAOUANE",
    "Société fermière des mines de Sidi-Bou-Aouane",
    "Sté D'EXPLOITATIONS MINIERES DE SIDI-BOU-AOUANE (Anciennement Sté Fermière des Mines de Sidi-Bou-Aouane)"
  ],
  "name": "SOCIÉTÉ FERMIÈRE DES MINES DE SIDI-BOU-AOUANE",
  "balance_sheets": [
    {
      "start_date": "1925-12-31",
      "source": "Annuaire Desfossés 1927",
      "page": "875"
    },
    {
      "start_date": "1927-12-31",
      "source": "Annuaire Desfossés 1929",
      "page": "929"
    },
    {
      "start_date": "1929-12-31",
      "source": "Annuaire Desfossés 1931",
      "page": "948"
    },
    {
      "start_date": "1931-12-31",
      "source": "Annuaire Desfossés 1933",
      "page": "1006"
    },
    {
      "start_date": "1934-12-31",
      "source": "Annuaire Desfossés 1937",
      "page": "1104"
    },
    {
      "start_date": "1935-12-31",
      "source": "Annuaire Desfossés 1940",
      "page": null
    },
    {
      "start_date": "1936-12-31",
      "source": "Annuaire Desfossés 1940",
      "page": null
    },
    {
      "start_date": "1937-12-31",
      "source": "Annuaire Desfossés 1940",
      "page": null
    },
    {
      "start_date": "1938-12-31",
      "source": "Annuaire Desfossés 1945",
      "page": "820"
    },
    {
      "start_date": "1939-12-31",
      "source": "Annuaire Desfossés 1945",
      "page": "820"
    },
    {
      "start_date": "1940-12-31",
      "source": "Annuaire Desfossés 1945",
      "page": "820"
    },
    {
      "start_date": "1941-12-31",
      "source": "Annuaire Desfossés 1945",
      "page": "820"
    },
    {
      "start_date": "1944-12-31",
      "source": "Annuaire Desfossés 1948",
      "page": "875"
    },
    {
      "start_date": "1945-12-31",
      "source": "Annuaire Desfossés 1948",
      "page": "875"
    },
    {
      "start_date": "1946-12-31",
      "source": "Annuaire Desfossés 1948",
      "page": "875"
    },
    {
      "start_date": "1947-12-31",
      "source": "Annuaire Desfossés 1948",
      "page": "875"
    },
    {
      "start_date": "1948-12-31",
      "source": "Annuaire Desfossés 1953",
      "page": "2240"
    },
    {
      "start_date": "1948-12-31",
      "source": "Annuaire Desfossés 1953",
      "page": "673"
    },
    {
      "start_date": "1949-12-31",
      "source": "Annuaire Desfossés 1953",
      "page": "2240"
    },
    {
      "start_date": "1949-12-31",
      "source": "Annuaire Desfossés 1953",
      "page": "673"
    },
    {
      "start_date": "1950-12-31",
      "source": "Annuaire Desfossés 1953",
      "page": "2240"
    },
    {
      "start_date": "1950-12-31",
      "source": "Annuaire Desfossés 1953",
      "page": "673"
    },
    {
      "start_date": "1951-12-31",
      "source": "Annuaire Desfossés 1953",
      "page": "673"
    },
    {
      "start_date": "1951-12-31",
      "source": "Annuaire Desfossés 1953",
      "page": "2240"
    }
  ],
  "balance_sheets_stats": {
    "start_date": "1925-12-31",
    "end_date": "1951-12-31"
  },
  "locations_stats": {
    "start_date": "1927-01-01",
    "end_date": "1953-12-31"
  },
  "locations": {
    "Siège social": [
      {
        "location_types_id": 1,
        "location_type": "Siège social",
        "address": "Rue saint-dominique, 35",
        "city": "Paris",
        "district": "Paris",
        "country": "France",
        "in_yearbook_from": 1927,
        "in_yearbook_to": 1933
      },
      {
        "location_types_id": 1,
        "location_type": "Siège social",
        "address": "Rue marceschau, 40",
        "city": "Tunis",
        "district": "District fictif",
        "country": "Tunisie",
        "in_yearbook_from": 1937,
        "in_yearbook_to": 1953
      }
    ],
    "Mines / Carrières / Pétrole / Gaz": [
      {
        "location_types_id": 7,
        "location_type": "Mines / Carrières / Pétrole / Gaz",
        "address": null,
        "city": null,
        "district": "District fictif",
        "country": "Tunisie",
        "in_yearbook_from": 1927,
        "in_yearbook_to": 1927
      }
    ]
  },
  "persons": [
    {
      "persons_count": 6,
      "yearbook": "Annuaire Desfossés 1927",
      "source": "annuaire_df_1927",
      "page": "875"
    },
    {
      "persons_count": 3,
      "yearbook": "Annuaire Desfossés 1933",
      "source": "annuaire_df_1933",
      "page": "1006"
    },
    {
      "persons_count": 5,
      "yearbook": "Annuaire Desfossés 1940",
      "source": "annuaire_df_1940",
      "page": null
    },
    {
      "persons_count": 5,
      "yearbook": "Annuaire Desfossés 1945",
      "source": "annuaire_df_1945",
      "page": "820"
    },
    {
      "persons_count": 6,
      "yearbook": "Annuaire Desfossés 1948",
      "source": "annuaire_df_1948",
      "page": "875"
    },
    {
      "persons_count": 8,
      "yearbook": "Annuaire Desfossés 1953",
      "source": "annuaire_df_1953",
      "page": "2240"
    },
    {
      "persons_count": 8,
      "yearbook": "Annuaire Desfossés 1953",
      "source": "annuaire_df_1953",
      "page": "673"
    }
  ],
  "persons_stats": {
    "persons_count": 16,
    "start_date": "1927-01-01",
    "end_date": "1953-12-31"
  },
  "yearbooks_ocrs": [
    {
      "source": "annuaire_df_1927",
      "yearbook": "Annuaire Desfossés 1927",
      "page": "875"
    },
    {
      "source": "annuaire_df_1929",
      "yearbook": "Annuaire Desfossés 1929",
      "page": "929"
    },
    {
      "source": "annuaire_df_1931",
      "yearbook": "Annuaire Desfossés 1931",
      "page": "948"
    },
    {
      "source": "annuaire_df_1933",
      "yearbook": "Annuaire Desfossés 1933",
      "page": "1006"
    },
    {
      "source": "annuaire_df_1937",
      "yearbook": "Annuaire Desfossés 1937",
      "page": "1104"
    },
    {
      "source": "annuaire_df_1940",
      "yearbook": "Annuaire Desfossés 1940",
      "page": null
    },
    {
      "source": "annuaire_df_1945",
      "yearbook": "Annuaire Desfossés 1945",
      "page": "820"
    },
    {
      "source": "annuaire_df_1948",
      "yearbook": "Annuaire Desfossés 1948",
      "page": "875"
    },
    {
      "source": "annuaire_df_1953",
      "yearbook": "Annuaire Desfossés 1953",
      "page": "2240"
    },
    {
      "source": "annuaire_df_1953",
      "yearbook": "Annuaire Desfossés 1953",
      "page": "673"
    }
  ],
  "juridical_status": [
    {
      "juridical_status": "Société Anonyme (Libre)",
      "start_date": "1925-05-26",
      "end_date": "2024-05-25",
      "comments": "Société anonyme française, constituée le 26 mai 1925, pour une durée de 99 ans.",
      "source": "annuaire_df_1927"
    }
  ],
  "equity_capital": [
    {
      "amount": "32.000",
      "currency": "Franc",
      "infodate": "1925-05-26",
      "source": "annuaire_df_1927",
      "comments": " À l'origine, .32.000 francs en 320 actions de 100 francs"
    },
    {
      "amount": "2.750.000",
      "currency": "Franc",
      "infodate": "1925-07-01",
      "source": "annuaire_df_1927",
      "comments": " porté en juillet 1925; au chiffre actuel  par émission de 27.180 actions nouvelles. 2 750 000 francs  par émission de 27.180 actions nouvelles."
    },
    {
      "amount": "3.000.000",
      "currency": "Franc",
      "infodate": "1927-01-01",
      "source": "annuaire_df_1933",
      "comments": "Canital social : 5.000.000 francs, divisé en 50.000 actions de 100 francs dont 47.500 actions A et 2.500 dites B à vote privilégié. A l’origine, 32.000 francs en 320 actions de 100 francs; porté, en juillet 1925, à 2.750.000 francs par émission de 27.180 actions nouvelles, en janvier 1927 à 3 millions par la création de 2.500 actions à vote privilégié dites B et en juillet 1929 à 5 millions."
    },
    {
      "amount": "5.000.000",
      "currency": "Franc",
      "infodate": "1929-07-01",
      "source": "annuaire_df_1933",
      "comments": "Canital social : 5.000.000 francs, divisé en 50.000 actions de 100 francs dont 47.500 actions A et 2.500 dites B à vote privilégié. A l’origine, 32.000 francs en 320 actions de 100 francs; porté, en juillet 1925, à 2.750.000 francs par émission de 27.180 actions nouvelles, en janvier 1927 à 3 millions par la création de 2.500 actions à vote privilégié dites B et en juillet 1929 à 5 millions."
    },
    {
      "amount": "4.812.500",
      "currency": "Franc",
      "infodate": "1934-09-01",
      "source": "annuaire_df_1940",
      "comments": "5.112.500 francs, divisé en 51.125 actions de 100 francs, entièrement libérées, dont 50.500 actions première série et 625 seconde série. A l’origine, 32.000 francs en 320 actions de 100 francs; porté, en juillet 1925, à 2.750.000 francs pai émission de 27.180 actions nouvelles, en janvier 1927 à 3 millions par la création de 2.500 actions à vote privilégiée dites B et en juillet 1929 à 5 millions. Réduit à 4.812.500 francs en septembre 1934 par l’échange des 2.500 actions B à vote plural contre 625 actions nouvelles de seconde série (1 pour 4). Porté à 5.112.500 francs en décembre 1936 par la création de 3.000 actions nouvelles de lre série pour rémunérer l'apport-fusion des mines de Sidi-Bou-Aouane. Le capital peut être porté à 10 millions."
    },
    {
      "amount": "5.112.500",
      "currency": "Franc",
      "infodate": "1936-12-01",
      "source": "annuaire_df_1940",
      "comments": "5.112.500 francs, divisé en 51.125 actions de 100 francs, entièrement libérées, dont 50.500 actions première série et 625 seconde série. A l’origine, 32.000 francs en 320 actions de 100 francs; porté, en juillet 1925, à 2.750.000 francs pai émission de 27.180 actions nouvelles, en janvier 1927 à 3 millions par la création de 2.500 actions à vote privilégiée dites B et en juillet 1929 à 5 millions. Réduit à 4.812.500 francs en septembre 1934 par l’échange des 2.500 actions B à vote plural contre 625 actions nouvelles de seconde série (1 pour 4). Porté à 5.112.500 francs en décembre 1936 par la création de 3.000 actions nouvelles de lre série pour rémunérer l'apport-fusion des mines de Sidi-Bou-Aouane. Le capital peut être porté à 10 millions."
    },
    {
      "amount": "5.050.000",
      "currency": "Franc",
      "infodate": "1947-01-01",
      "source": "annuaire_df_1948",
      "comments": "Selon l'autorisation qu'il tenait de l'article 8 des statuts, le Conseil a décidé, le 17 mai 1940, le rachat des 625 actions 2e série. Ce rachat est en cours. Depuis 1940, ces actions ne participent plus aux bénéfices. iLe capital a été réduit en 1947 à 5.050.000 francs par suite du rachat des 625 actions de seconde série, puis porté à 25.250.000 fr. : ,l°- par l'émission à 125 francs de 50.500 actions nouvelles de 100 francs (1 nouvelle pour 1 ancienne) ; 2° par la création de 151.500 gratuites attribuées à raison de 3 nouvelles pour 1 ancienne."
    },
    {
      "amount": "25.250.000",
      "currency": "Franc",
      "infodate": "1947-01-02",
      "source": "annuaire_df_1953",
      "comments": "63.125.000 fr., divisé en 252.500 actions de 250 fr. A l'origine, 32.000 fr., en 320 actions de 100 fr. Porté en juillet 1925 à 2.750.000 fr. par émission de 27.180 actions nouvelles; en janvier 1927 à 3 millions par la création de 2.500 actions à vote privilégié dites B, et en juillet; 1929 à-5 millions. Réduit à 4.812.500 fr. en septembre 1934 par l'échange des 2.500 actions B à vote plural contre 625 actions- nouvelles de seconde série (1 pour 4). Porté à 5.112.500 fr. en décembre 1936 par la création de 3.000 actions nouvelles de Ire série pour rémunérer l'apport-fusion des Mines de Sidi-Bou-Aouane. Selon l'autorisation qu'il tenait de l'article 8 des statuts, le Conseil a décidé, le 17 mai 1940, le rachat des 625 actions 2e série. Le capital a été réduit en 1947 à 5.050.000 fr. par suite du rachat des 625 actions de 2e série, puis porté à 25.250.000 fr. : 1° par l'émission à 125 fr. de 50.500 actions nouvelles de 100 fr. (1 nouv. pour 1 anc.) ; 2° par la création de 151.500 actions gratuites attribuées à raison de 3 nouvelles pour 1 ancienne. Porté en 1949 à 63.125.000 fr. par élévation du nominal de 100 à 250 fr."
    },
    {
      "amount": "63.125.000",
      "currency": "Franc",
      "infodate": "1949-01-01",
      "source": "annuaire_df_1953",
      "comments": "63.125.000 fr., divisé en 252.500 actions de 250 fr. A l'origine, 32.000 fr., en 320 actions de 100 fr. Porté en juillet 1925 à 2.750.000 fr. par émission de 27.180 actions nouvelles; en janvier 1927 à 3 millions par la création de 2.500 actions à vote privilégié dites B, et en juillet; 1929 à-5 millions. Réduit à 4.812.500 fr. en septembre 1934 par l'échange des 2.500 actions B à vote plural contre 625 actions- nouvelles de seconde série (1 pour 4). Porté à 5.112.500 fr. en décembre 1936 par la création de 3.000 actions nouvelles de Ire série pour rémunérer l'apport-fusion des Mines de Sidi-Bou-Aouane. Selon l'autorisation qu'il tenait de l'article 8 des statuts, le Conseil a décidé, le 17 mai 1940, le rachat des 625 actions 2e série. Le capital a été réduit en 1947 à 5.050.000 fr. par suite du rachat des 625 actions de 2e série, puis porté à 25.250.000 fr. : 1° par l'émission à 125 fr. de 50.500 actions nouvelles de 100 fr. (1 nouv. pour 1 anc.) ; 2° par la création de 151.500 actions gratuites attribuées à raison de 3 nouvelles pour 1 ancienne. Porté en 1949 à 63.125.000 fr. par élévation du nominal de 100 à 250 fr."
    }
  ],
  "profit_dividends": [
    {
      "first_date": "1925-12-31",
      "last_date": "1951-12-31",
      "obs_count": 139
    }
  ],
  "public_status": false
}