{
  "id": 3378,
  "names": [
    "SAINT-LOUIS AND SAN-FRANCISCO RAILWAY COMPANY",
    "ST-LOUIS AND SAN-FRANCISCO RAILROAD CY",
    "Saint-Louis and San Francisco Railroad Cy",
    "St-LOUIS AND SAN-FRANCISCO RAILROAD COMPANY"
  ],
  "name": "ST-LOUIS AND SAN-FRANCISCO RAILROAD CY",
  "balance_sheets": [
    {
      "start_date": "1910-06-30",
      "source": "Annuaire Desfossés 1912",
      "page": "409"
    },
    {
      "start_date": "1912-06-30",
      "source": "Annuaire Desfossés 1914",
      "page": "447"
    },
    {
      "start_date": "1916-06-30",
      "source": "Annuaire Desfossés 1917",
      "page": "394"
    }
  ],
  "balance_sheets_stats": {
    "start_date": "1910-06-30",
    "end_date": "1916-06-30"
  },
  "locations_stats": {
    "start_date": "1912-01-01",
    "end_date": "1917-12-31"
  },
  "locations": {
    "Siège social": [
      {
        "location_types_id": 1,
        "location_type": "Siège social",
        "address": null,
        "city": "Saint-Louis",
        "district": "Missouri",
        "country": "Etats-Unis d'Amérique",
        "in_yearbook_from": 1912,
        "in_yearbook_to": 1912
      },
      {
        "location_types_id": 1,
        "location_type": "Siège social",
        "address": null,
        "city": "Saint-Louis",
        "district": "Missouri",
        "country": "Etats-Unis d'Amérique",
        "in_yearbook_from": 1917,
        "in_yearbook_to": 1917
      }
    ]
  },
  "persons": [
    {
      "persons_count": 5,
      "yearbook": "Annuaire Desfossés 1912",
      "source": "annuaire_df_1912",
      "page": "409"
    },
    {
      "persons_count": 13,
      "yearbook": "Annuaire Desfossés 1917",
      "source": "annuaire_df_1917",
      "page": "394"
    }
  ],
  "persons_stats": {
    "persons_count": 18,
    "start_date": "1912-01-01",
    "end_date": "1917-12-31"
  },
  "yearbooks_ocrs": [
    {
      "source": "annuaire_df_1912",
      "yearbook": "Annuaire Desfossés 1912",
      "page": "409"
    },
    {
      "source": "annuaire_df_1914",
      "yearbook": "Annuaire Desfossés 1914",
      "page": "447"
    },
    {
      "source": "annuaire_df_1917",
      "yearbook": "Annuaire Desfossés 1917",
      "page": "394"
    }
  ],
  "juridical_status": [
    {
      "juridical_status": "Société anonyme américaine",
      "start_date": "1896-06-29",
      "end_date": "1996-06-25",
      "comments": " Société anonyme américaine, constituée le 29 juin 1896, sous la législation de l’Etat de Missouri, pour une durée de 100 ans. ",
      "source": "annuaire_df_1917"
    }
  ],
  "equity_capital": [
    {
      "amount": "200.000.000",
      "currency": "Dollar US",
      "infodate": "1912-01-31",
      "source": "annuaire_df_1912",
      "comments": " autorisé : $ 200.000.000, émis à concurrence d’un montant de $ 50 millions, divisé en 50.000 actions de lre préférence, 160.000 actions de 2e préférence et 290.000 actions ordinaires de 100 dollars chacune."
    }
  ],
  "profit_dividends": [
    {
      "first_date": "1906-06-30",
      "last_date": "1916-06-30",
      "obs_count": 108
    }
  ],
  "public_status": false,
  "stock_exchanges": {
    "1": {
      "id": 1,
      "name": "Paris (Official List)",
      "forward_prices_stats": {
        "start_date": "1910-12-27",
        "end_date": "1914-07-15"
      },
      "listings_stats": {
        "start_date": "1910-12-27"
      },
      "spot_prices_stats": {
        "start_date": "1910-12-27",
        "end_date": "1915-12-31"
      }
    }
  },
  "securities": {
    "5751": {
      "id": 5751,
      "name": "Saint-Louis and San Francisco Railroad Cy 5% or 1910-1927, obl. 516 fr., t.p",
      "share_type": {
        "id": 2,
        "name": "Bond (Obligation)"
      },
      "types": [
        {
          "start_date": "1910-12-27",
          "end_date": "3999-12-31",
          "id": 1001,
          "name": "Obligation ordinaire ou classique",
          "stock_group": "B"
        }
      ],
      "start_date": "1910-12-27",
      "end_date": "3999-12-31",
      "prices_from": "1910-12-27",
      "prices_to": "1915-06-30",
      "is_mainstock": 0,
      "prices_count": 262
    },
    "5998": {
      "id": 5998,
      "name": "Saint-Louis and San Francisco Railroad Cy 4.5% or 1910-1940, obl. 516 fr., t.p",
      "share_type": {
        "id": 2,
        "name": "Bond (Obligation)"
      },
      "types": [
        {
          "start_date": "1911-01-13",
          "end_date": "3999-12-31",
          "id": 1001,
          "name": "Obligation ordinaire ou classique",
          "stock_group": "B"
        }
      ],
      "start_date": "1911-01-13",
      "end_date": "3999-12-31",
      "prices_from": "1911-01-13",
      "prices_to": "1915-12-31",
      "is_mainstock": 0,
      "prices_count": 85
    }
  }
}