{
  "id": 4376,
  "names": [
    "COMPAGNIE RADIO-MARITIME",
    "Compagnie Radio-Maritime"
  ],
  "name": "COMPAGNIE RADIO-MARITIME",
  "balance_sheets": [
    {
      "start_date": "1921-12-31",
      "source": "Annuaire Desfossés 1923",
      "page": "657"
    },
    {
      "start_date": "1923-12-31",
      "source": "Annuaire Desfossés 1925",
      "page": "722"
    },
    {
      "start_date": "1925-12-31",
      "source": "Annuaire Desfossés 1927",
      "page": "597"
    },
    {
      "start_date": "1927-12-31",
      "source": "Annuaire Desfossés 1929",
      "page": "636"
    },
    {
      "start_date": "1929-12-31",
      "source": "Annuaire Desfossés 1931",
      "page": "642"
    },
    {
      "start_date": "1931-12-31",
      "source": "Annuaire Desfossés 1933",
      "page": "708"
    },
    {
      "start_date": "1932-12-31",
      "source": "Annuaire Desfossés 1936",
      "page": null
    },
    {
      "start_date": "1933-12-31",
      "source": "Annuaire Desfossés 1937",
      "page": "744"
    },
    {
      "start_date": "1934-12-31",
      "source": "Annuaire Desfossés 1937",
      "page": "744"
    },
    {
      "start_date": "1935-12-31",
      "source": "Annuaire Desfossés 1940",
      "page": null
    },
    {
      "start_date": "1936-12-31",
      "source": "Annuaire Desfossés 1940",
      "page": null
    },
    {
      "start_date": "1937-12-31",
      "source": "Annuaire Desfossés 1940",
      "page": null
    },
    {
      "start_date": "1938-12-31",
      "source": "Annuaire Desfossés 1945",
      "page": "2301"
    },
    {
      "start_date": "1938-12-31",
      "source": "Annuaire Desfossés 1945",
      "page": "1416"
    },
    {
      "start_date": "1941-12-31",
      "source": "Annuaire Desfossés 1945",
      "page": "2301"
    },
    {
      "start_date": "1941-12-31",
      "source": "Annuaire Desfossés 1945",
      "page": "1416"
    },
    {
      "start_date": "1942-12-31",
      "source": "Annuaire Desfossés 1945",
      "page": "2301"
    },
    {
      "start_date": "1942-12-31",
      "source": "Annuaire Desfossés 1945",
      "page": "1416"
    },
    {
      "start_date": "1943-12-31",
      "source": "Annuaire Desfossés 1945",
      "page": "1416"
    },
    {
      "start_date": "1943-12-31",
      "source": "Annuaire Desfossés 1945",
      "page": "2301"
    },
    {
      "start_date": "1944-12-31",
      "source": "Annuaire Desfossés 1948",
      "page": "1533"
    },
    {
      "start_date": "1945-12-31",
      "source": "Annuaire Desfossés 1948",
      "page": "1533"
    },
    {
      "start_date": "1946-12-31",
      "source": "Annuaire Desfossés 1948",
      "page": "1533"
    },
    {
      "start_date": "1947-12-31",
      "source": "Annuaire Desfossés 1953",
      "page": "1269"
    },
    {
      "start_date": "1948-12-31",
      "source": "Annuaire Desfossés 1953",
      "page": "1269"
    },
    {
      "start_date": "1949-12-31",
      "source": "Annuaire Desfossés 1953",
      "page": "1269"
    },
    {
      "start_date": "1950-12-31",
      "source": "Annuaire Desfossés 1953",
      "page": "1269"
    },
    {
      "start_date": "1951-12-31",
      "source": "Annuaire Desfossés 1953",
      "page": "1269"
    }
  ],
  "balance_sheets_stats": {
    "start_date": "1921-12-31",
    "end_date": "1951-12-31"
  },
  "locations_stats": {
    "start_date": "1923-01-01",
    "end_date": "1953-12-31"
  },
  "locations": {
    "Siège social": [
      {
        "location_types_id": 1,
        "location_type": "Siège social",
        "address": "Boulevard haussmann, 79",
        "city": "Paris",
        "district": "Paris",
        "country": "France",
        "in_yearbook_from": 1923,
        "in_yearbook_to": 1953
      }
    ],
    "Siège administratif / Bureaux": [
      {
        "location_types_id": 2,
        "location_type": "Siège administratif / Bureaux",
        "address": "Rue de la bienfaisance, 29",
        "city": "Paris",
        "district": "Paris",
        "country": "France",
        "in_yearbook_from": 1953,
        "in_yearbook_to": 1953
      }
    ],
    "Agences / Succursales": [
      {
        "location_types_id": 4,
        "location_type": "Agences / Succursales",
        "address": null,
        "city": "Alger",
        "district": null,
        "country": "Algérie",
        "in_yearbook_from": 1940,
        "in_yearbook_to": 1940
      },
      {
        "location_types_id": 4,
        "location_type": "Agences / Succursales",
        "address": null,
        "city": "Arcachon",
        "district": "Gironde",
        "country": "France",
        "in_yearbook_from": 1940,
        "in_yearbook_to": 1940
      },
      {
        "location_types_id": 4,
        "location_type": "Agences / Succursales",
        "address": null,
        "city": "Bordeaux",
        "district": "Gironde",
        "country": "France",
        "in_yearbook_from": 1940,
        "in_yearbook_to": 1940
      },
      {
        "location_types_id": 4,
        "location_type": "Agences / Succursales",
        "address": null,
        "city": "Boulogne",
        "district": "Pas-de-Calais",
        "country": "France",
        "in_yearbook_from": 1940,
        "in_yearbook_to": 1940
      },
      {
        "location_types_id": 4,
        "location_type": "Agences / Succursales",
        "address": null,
        "city": "Dunkerque",
        "district": "Pas-de-Calais",
        "country": "France",
        "in_yearbook_from": 1940,
        "in_yearbook_to": 1940
      },
      {
        "location_types_id": 4,
        "location_type": "Agences / Succursales",
        "address": null,
        "city": "Fecamp",
        "district": "Seine-Maritime",
        "country": "France",
        "in_yearbook_from": 1940,
        "in_yearbook_to": 1940
      },
      {
        "location_types_id": 4,
        "location_type": "Agences / Succursales",
        "address": null,
        "city": "Havre",
        "district": "Seine-Maritime",
        "country": "France",
        "in_yearbook_from": 1940,
        "in_yearbook_to": 1940
      },
      {
        "location_types_id": 4,
        "location_type": "Agences / Succursales",
        "address": null,
        "city": "La Rochelle",
        "district": "Haute-Saône",
        "country": "France",
        "in_yearbook_from": 1940,
        "in_yearbook_to": 1940
      },
      {
        "location_types_id": 4,
        "location_type": "Agences / Succursales",
        "address": null,
        "city": "Lorient",
        "district": "Morbihan",
        "country": "France",
        "in_yearbook_from": 1940,
        "in_yearbook_to": 1940
      },
      {
        "location_types_id": 4,
        "location_type": "Agences / Succursales",
        "address": null,
        "city": "Marseille",
        "district": "Bouches-du-Rhône",
        "country": "France",
        "in_yearbook_from": 1940,
        "in_yearbook_to": 1940
      },
      {
        "location_types_id": 4,
        "location_type": "Agences / Succursales",
        "address": null,
        "city": "Miquelon",
        "district": null,
        "country": "Saint-Pierre et Miquelon",
        "in_yearbook_from": 1940,
        "in_yearbook_to": 1940
      },
      {
        "location_types_id": 4,
        "location_type": "Agences / Succursales",
        "address": null,
        "city": "Rouen",
        "district": "Seine-Maritime",
        "country": "France",
        "in_yearbook_from": 1940,
        "in_yearbook_to": 1940
      },
      {
        "location_types_id": 4,
        "location_type": "Agences / Succursales",
        "address": null,
        "city": "Saint Nazaire",
        "district": "Loire-Atlantique",
        "country": "France",
        "in_yearbook_from": 1940,
        "in_yearbook_to": 1940
      },
      {
        "location_types_id": 4,
        "location_type": "Agences / Succursales",
        "address": null,
        "city": "Saïgon",
        "district": null,
        "country": "Indochine",
        "in_yearbook_from": 1940,
        "in_yearbook_to": 1940
      }
    ]
  },
  "persons": [
    {
      "persons_count": 2,
      "yearbook": "Annuaire Desfossés 1923",
      "source": "annuaire_df_1923",
      "page": "657"
    },
    {
      "persons_count": 6,
      "yearbook": "Annuaire Desfossés 1927",
      "source": "annuaire_df_1927",
      "page": "597"
    },
    {
      "persons_count": 12,
      "yearbook": "Annuaire Desfossés 1933",
      "source": "annuaire_df_1933",
      "page": "708"
    },
    {
      "persons_count": 9,
      "yearbook": "Annuaire Desfossés 1940",
      "source": "annuaire_df_1940",
      "page": null
    },
    {
      "persons_count": 8,
      "yearbook": "Annuaire Desfossés 1945",
      "source": "annuaire_df_1945",
      "page": "1416"
    },
    {
      "persons_count": 8,
      "yearbook": "Annuaire Desfossés 1945",
      "source": "annuaire_df_1945",
      "page": "2301"
    },
    {
      "persons_count": 6,
      "yearbook": "Annuaire Desfossés 1948",
      "source": "annuaire_df_1948",
      "page": "1533"
    },
    {
      "persons_count": 12,
      "yearbook": "Annuaire Desfossés 1953",
      "source": "annuaire_df_1953",
      "page": "1269"
    }
  ],
  "persons_stats": {
    "persons_count": 36,
    "start_date": "1923-01-01",
    "end_date": "1953-12-31"
  },
  "yearbooks_ocrs": [
    {
      "source": "annuaire_df_1923",
      "yearbook": "Annuaire Desfossés 1923",
      "page": "657"
    },
    {
      "source": "annuaire_df_1925",
      "yearbook": "Annuaire Desfossés 1925",
      "page": "722"
    },
    {
      "source": "annuaire_df_1927",
      "yearbook": "Annuaire Desfossés 1927",
      "page": "597"
    },
    {
      "source": "annuaire_df_1929",
      "yearbook": "Annuaire Desfossés 1929",
      "page": "636"
    },
    {
      "source": "annuaire_df_1931",
      "yearbook": "Annuaire Desfossés 1931",
      "page": "642"
    },
    {
      "source": "annuaire_df_1933",
      "yearbook": "Annuaire Desfossés 1933",
      "page": "708"
    },
    {
      "source": "annuaire_df_1937",
      "yearbook": "Annuaire Desfossés 1937",
      "page": "744"
    },
    {
      "source": "annuaire_df_1940",
      "yearbook": "Annuaire Desfossés 1940",
      "page": null
    },
    {
      "source": "annuaire_df_1945",
      "yearbook": "Annuaire Desfossés 1945",
      "page": "1416"
    },
    {
      "source": "annuaire_df_1945",
      "yearbook": "Annuaire Desfossés 1945",
      "page": "2301"
    },
    {
      "source": "annuaire_df_1948",
      "yearbook": "Annuaire Desfossés 1948",
      "page": "1533"
    },
    {
      "source": "annuaire_df_1953",
      "yearbook": "Annuaire Desfossés 1953",
      "page": "1269"
    }
  ],
  "juridical_status": [
    {
      "juridical_status": "Société Anonyme (Libre)",
      "start_date": "1919-04-24",
      "end_date": "2018-01-31",
      "comments": "Société anonyme française, constituée le 24 avril 1919, sous, la dénomination de Compagnie d’Exploitation Radio-Electrique, changée le 23 novembre 1921, pour une durée de 99 ans.",
      "source": "annuaire_df_1923"
    }
  ],
  "equity_capital": [
    {
      "amount": "2.500.000",
      "currency": "Franc",
      "infodate": "1919-04-24",
      "source": "annuaire_df_1923",
      "comments": " A rongine 2.500.000\tfrancs représentés par 25.000 actions dont 3000 ont été remises en rémunération des apports delà Compagnie maritime et coloniale de télégraphie sans fil"
    },
    {
      "amount": "5.000.000",
      "currency": "Franc",
      "infodate": "1921-06-01",
      "source": "annuaire_df_1923",
      "comments": "porté en juin 1921 au chiffre actuel   5.000 000  francs, divise en  50 000 actions ae 100 francs"
    },
    {
      "amount": "7.000.000",
      "currency": "Franc",
      "infodate": "1923-01-01",
      "source": "annuaire_df_1927",
      "comments": "7 millions de francs, divisé en 70.000 actions de 100 francs. A l’origine, 2.500.000 francs, représentés par 35.000 actions dont 30.000 ont été remises en rémunération des apports de la Compagnie maritime et coloniale de télégraphie sans fil, porté en juin 1921 à 5 millions et, en 1923, au chiffre actuel."
    },
    {
      "amount": "12.000.000",
      "currency": "Franc",
      "infodate": "1930-01-01",
      "source": "annuaire_df_1933",
      "comments": "12 millions de francs, divisé en 120.000 actions de 100 francs A l’origine 2.500.000 francs, représentés par 35.000 actions dont 30.000 ont été remises en rémunération des apports de la Compagnie maritime et coloniale de télégraphie sans fil, porté en juin 1921 à 5 millions, en 1923 à 7 millions, enfin en 1930 4 19 millions par l’émission à 250 francs de 50.000 actions nouvelles de 100 francs, jouissance janvier 1930 (4 nouvelles pour 7 anciennes, coupon n° 13)."
    },
    {
      "amount": "24.000.000",
      "currency": "Franc",
      "infodate": "1944-01-01",
      "source": "annuaire_df_1945",
      "comments": "24 millions de francs, divisé en 240.000 actions de 100 francs.-'A-l’origine 2.500.000 francs, porté en juin 1921 à 5 millions, en 1923 à 7 millions, en 1930 à 12 millions (émission à 25.0 francs) ; en 1944 à 24 millions (émission à 120 francs)."
    },
    {
      "amount": "48.000.000",
      "currency": "Franc",
      "infodate": "1946-01-01",
      "source": "annuaire_df_1948",
      "comments": "127.'485.000 'fat., divisé en 1.274.850 actions de 100 fr. A l'origine 2.500.000 francs, porté en juin 1921 à 5 millions ,en 192'3 à 7 millions, en 1930 à 12 millions (émission à 250 francs) ; en 1944 à 24 millions (émission à 120 francs). Porté en 1946 à 48 millions par l'émission à 155 francs, de 240.000 actions de 100 fr. (1 nouvelle pour 1 ancienne). Porté en 1947 à 50.994.000 francs par création de 29.940 actions nouvelles réservées aux actionnaires empêchés, puis à 127.485.000 francs 'par émission à 120 fr. de 764.910 actions nouvelles de 100 fr. (3 nouv. pour 2 anc.)."
    },
    {
      "amount": "50.994.000",
      "currency": "Franc",
      "infodate": "1947-01-01",
      "source": "annuaire_df_1948",
      "comments": "127.'485.000 'fat., divisé en 1.274.850 actions de 100 fr. A l'origine 2.500.000 francs, porté en juin 1921 à 5 millions ,en 192'3 à 7 millions, en 1930 à 12 millions (émission à 250 francs) ; en 1944 à 24 millions (émission à 120 francs). Porté en 1946 à 48 millions par l'émission à 155 francs, de 240.000 actions de 100 fr. (1 nouvelle pour 1 ancienne). Porté en 1947 à 50.994.000 francs par création de 29.940 actions nouvelles réservées aux actionnaires empêchés, puis à 127.485.000 francs 'par émission à 120 fr. de 764.910 actions nouvelles de 100 fr. (3 nouv. pour 2 anc.)."
    },
    {
      "amount": "127.485.000",
      "currency": "Franc",
      "infodate": "1947-01-02",
      "source": "annuaire_df_1948",
      "comments": "127.'485.000 'fat., divisé en 1.274.850 actions de 100 fr. A l'origine 2.500.000 francs, porté en juin 1921 à 5 millions ,en 192'3 à 7 millions, en 1930 à 12 millions (émission à 250 francs) ; en 1944 à 24 millions (émission à 120 francs). Porté en 1946 à 48 millions par l'émission à 155 francs, de 240.000 actions de 100 fr. (1 nouvelle pour 1 ancienne). Porté en 1947 à 50.994.000 francs par création de 29.940 actions nouvelles réservées aux actionnaires empêchés, puis à 127.485.000 francs 'par émission à 120 fr. de 764.910 actions nouvelles de 100 fr. (3 nouv. pour 2 anc.)."
    },
    {
      "amount": "382.455.000",
      "currency": "Franc",
      "infodate": "1950-01-01",
      "source": "annuaire_df_1953",
      "comments": " 637.425.000 fr., divisé en 254.970 actions de 2.500 fr. A l'origine, 2.500.000 fr., porté en juin 1921 à 5 millions, en 1923 à 7 millions, en 1930 à 12 millions (émission à 250 fr.); en 1944 à 24 millions (émission à 120 fr.). Porté en 1946 à 48 millions' par l'émission à 115 fr. de 240.000 actions de 100 fr. (1 nouvelle pour 1 ancienne). Porté en 1947 à 50.994.000 fr. par création de 29.940 actions nouvelles réservées aux actionnaires empêchés, puis à 127.485.000 francs par émission à 120 fr. de 764.910 actions nouvelles de 100 fr. (3 nouv. pour 2 anc.). Titres regroupés en 2.500 fr. en 1949. Porté ensuite à 382.455.000 fr. par émission à 2.750 fr. de 101.988 actions nouvelles de 2.500 fr. (2 pour 1). Porté en 1951 à 637.425.000 fr. par émission à 2.800 fr. de 101.988 actions de 2.500 fr. (2 pour\t3)."
    },
    {
      "amount": "637.425.000",
      "currency": "Franc",
      "infodate": "1951-01-01",
      "source": "annuaire_df_1953",
      "comments": "637.425.000 fr., divisé en 254.970 actions de 2.500 fr. A l'origine, 2.500.000 fr., porté en juin 1921 à 5 millions, en 1923 à 7\tmillions,\ten 1930 à\t12 millions (émission\tà 250 fr.); en 1944 à 24 millions (émission à 120 fr.).\tPorté\ten\t1946 à 48\tmillions' par l'émission à 115 fr. de 240.000 actions de 100 fr. (1 nouvelle pour 1 ancienne). Porté en 1947 à 50.994.000 fr. par création de 29.940 actions nouvelles réservées aux actionnaires empêchés, puis à 127.485.000 francs par émission à 120 fr. de 764.910 actions nouvelles de 100 fr. (3 nouv. pour 2 anc.). Titres regroupés en 2.500 fr. en 1949. Porté ensuite à 382.455.000 fr. par émission à 2.750 fr. de 101.988 actions nouvelles de 2.500 fr. (2 pour 1).\tPorté en 1951\tà 637.425.000 fr. par\témission à 2.800 fr. de 101.988 actions de 2.500 fr. (2\tpour\t3)."
    }
  ],
  "profit_dividends": [
    {
      "first_date": "1920-12-31",
      "last_date": "1951-12-31",
      "obs_count": 274
    }
  ],
  "public_status": false,
  "stock_exchanges": {
    "1": {
      "id": 1,
      "name": "Paris (Official List)",
      "listings_stats": {
        "start_date": "1921-12-15"
      },
      "spot_prices_stats": {
        "start_date": "1921-12-15",
        "end_date": "1976-12-31"
      }
    }
  },
  "securities": {
    "7495": {
      "id": 7495,
      "name": "Radio-Maritime (Cie), act. 100 fr., t. p.",
      "share_type": {
        "id": 1,
        "name": "Stock (Action)"
      },
      "types": [
        {
          "start_date": "1921-12-15",
          "end_date": "3999-12-31",
          "id": 18,
          "name": "Action",
          "stock_group": "S"
        }
      ],
      "start_date": "1921-12-15",
      "end_date": "3999-12-31",
      "prices_from": "1921-12-15",
      "prices_to": "1951-05-31",
      "is_mainstock": 1,
      "prices_count": 745
    },
    "13272": {
      "id": 13272,
      "name": "Radio-Maritime, act. 2500 f., t.p.",
      "share_type": {
        "id": 1,
        "name": "Stock (Action)"
      },
      "types": [
        {
          "start_date": "1949-03-22",
          "end_date": "3999-12-31",
          "id": 18,
          "name": "Action",
          "stock_group": "S"
        }
      ],
      "start_date": "1949-03-22",
      "end_date": "3999-12-31",
      "prices_from": "1949-03-22",
      "prices_to": "1976-12-31",
      "is_mainstock": 0,
      "prices_count": 701
    },
    "13499": {
      "id": 13499,
      "name": "Radio-Maritime, A. 100 f., t. p. (n°s 509941 à 1274850)",
      "share_type": {
        "id": 1,
        "name": "Stock (Action)"
      },
      "types": [
        {
          "start_date": "1948-05-27",
          "end_date": "3999-12-31",
          "id": 18,
          "name": "Action",
          "stock_group": "S"
        }
      ],
      "start_date": "1948-05-27",
      "end_date": "3999-12-31",
      "prices_from": "1948-05-27",
      "prices_to": "1948-07-15",
      "is_mainstock": 0,
      "prices_count": 6
    },
    "13749": {
      "id": 13749,
      "name": "Radio-Maritime (Cie), bons sexennaux 6% 1949, remb. À 10000 fr. (Jce 1/12/49) 1950-55",
      "share_type": {
        "id": 2,
        "name": "Bond (Obligation)"
      },
      "types": [
        {
          "start_date": "1950-05-05",
          "end_date": "3999-12-31",
          "id": 1001,
          "name": "Obligation ordinaire ou classique",
          "stock_group": "B"
        }
      ],
      "start_date": "1950-05-05",
      "end_date": "3999-12-31",
      "prices_from": "1950-05-12",
      "prices_to": "1955-11-30",
      "is_mainstock": 0,
      "prices_count": 136
    },
    "14024": {
      "id": 14024,
      "name": "Radio-Maritime (Cie), bons sexennaux 6% 1950 (Tir. 30/9/55) 1951-56",
      "share_type": {
        "id": 2,
        "name": "Bond (Obligation)"
      },
      "types": [
        {
          "start_date": "1951-04-13",
          "end_date": "3999-12-31",
          "id": 1001,
          "name": "Obligation ordinaire ou classique",
          "stock_group": "B"
        }
      ],
      "start_date": "1951-04-13",
      "end_date": "3999-12-31",
      "prices_from": "1951-04-16",
      "prices_to": "1956-10-31",
      "is_mainstock": 0,
      "prices_count": 149
    },
    "14327": {
      "id": 14327,
      "name": "Radio-Maritime, act. 2500 f., t. p. (n° 152983 à 254970) (c. 38 att.)",
      "share_type": {
        "id": 1,
        "name": "Stock (Action)"
      },
      "types": [
        {
          "start_date": "1952-01-09",
          "end_date": "3999-12-31",
          "id": 11,
          "name": "Action ordinaire",
          "stock_group": "S"
        }
      ],
      "start_date": "1952-01-09",
      "end_date": "3999-12-31",
      "prices_from": "1952-01-15",
      "prices_to": "1952-06-30",
      "is_mainstock": 0,
      "prices_count": 12
    },
    "14764": {
      "id": 14764,
      "name": "Radio-Maritime, act. 2500 fr., tout payé (n° 254971 à 382455) (c. 41 spéc. Att.)",
      "share_type": {
        "id": 1,
        "name": "Stock (Action)"
      },
      "types": [
        {
          "start_date": "1954-03-16",
          "end_date": "3999-12-31",
          "id": 11,
          "name": "Action ordinaire",
          "stock_group": "S"
        }
      ],
      "start_date": "1954-03-16",
      "end_date": "3999-12-31",
      "prices_from": "1954-03-19",
      "prices_to": "1954-06-30",
      "is_mainstock": 0,
      "prices_count": 8
    },
    "14861": {
      "id": 14861,
      "name": "Radio-Maritime (Cie), Bons sexennaux 6% 1953 (Tir. 17/6/55) 1954-59",
      "share_type": {
        "id": 2,
        "name": "Bond (Obligation)"
      },
      "types": [
        {
          "start_date": "1953-12-14",
          "end_date": "3999-12-31",
          "id": 1001,
          "name": "Obligation ordinaire ou classique",
          "stock_group": "B"
        }
      ],
      "start_date": "1953-12-14",
      "end_date": "3999-12-31",
      "prices_from": "1953-12-15",
      "prices_to": "1959-07-31",
      "is_mainstock": 0,
      "prices_count": 154
    },
    "15541": {
      "id": 15541,
      "name": "Radio-Maritime (Cie), 6% min. mars 57, à int. Sup. et pr. De r. var. (c. 1/3/58 att.) (Cf avis n° 33446) 1958-69",
      "share_type": {
        "id": 2,
        "name": "Bond (Obligation)"
      },
      "types": [
        {
          "start_date": "1957-09-24",
          "end_date": "3999-12-31",
          "id": 1001,
          "name": "Obligation ordinaire ou classique",
          "stock_group": "B"
        }
      ],
      "start_date": "1957-09-24",
      "end_date": "3999-12-31",
      "prices_from": "1957-09-30",
      "prices_to": "1969-02-28",
      "is_mainstock": 0,
      "prices_count": 278
    },
    "16222": {
      "id": 16222,
      "name": "Radio-maritime cie), promesses (jce 1/1/60)",
      "share_type": {
        "id": 1,
        "name": "Stock (Action)"
      },
      "types": [
        {
          "start_date": "1960-07-01",
          "end_date": "3999-12-31",
          "id": 27,
          "name": "Promesse d'action",
          "stock_group": "S"
        }
      ],
      "start_date": "1960-07-01",
      "end_date": "3999-12-31",
      "prices_from": "1960-07-01",
      "prices_to": "1960-09-15",
      "is_mainstock": 0,
      "prices_count": 7
    },
    "18210": {
      "id": 18210,
      "name": "Radio Maritime - C.R.M. (Cie), Promesses (Jce 1/1/64)",
      "share_type": {
        "id": 1,
        "name": "Stock (Action)"
      },
      "types": [
        {
          "start_date": "1964-02-03",
          "end_date": "3999-12-31",
          "id": 27,
          "name": "Promesse d'action",
          "stock_group": "S"
        }
      ],
      "start_date": "1964-02-03",
      "end_date": "3999-12-31",
      "prices_from": "1964-02-05",
      "prices_to": "1964-06-30",
      "is_mainstock": 0,
      "prices_count": 11
    },
    "40082": {
      "id": 40082,
      "name": "Radio-Maritime (Cie), act. 100 fr., t.p. (n° 120001 à 240000)(c. 29 att.)",
      "share_type": {
        "id": 1,
        "name": "Stock (Action)"
      },
      "types": [
        {
          "start_date": "1000-01-01",
          "end_date": "3999-12-31",
          "id": 18,
          "name": "Action",
          "stock_group": "S"
        }
      ],
      "start_date": "1945-01-25",
      "end_date": "1945-07-13",
      "prices_from": "1945-02-28",
      "prices_to": "1945-06-29",
      "is_mainstock": 0,
      "prices_count": 4
    },
    "100408": {
      "id": 100408,
      "name": "Act. CIE RADIO-MARITIME (dr. et coup. 27 ou bon de droit). Pour 1 act. ancienne, 1 action nouvelle émise à 120 francs",
      "share_type": {
        "id": 4,
        "name": "Rights (Droits)"
      },
      "types": [
        {
          "start_date": "1944-03-09",
          "end_date": "1944-04-12",
          "id": 501,
          "name": "Droit de souscription",
          "stock_group": "R"
        }
      ],
      "start_date": "1944-03-09",
      "end_date": "1944-04-12",
      "prices_from": "1944-03-09",
      "prices_to": "1944-03-31",
      "is_mainstock": 0,
      "prices_count": 4
    },
    "100535": {
      "id": 100535,
      "name": "Act. Radio-Maritime (droit et coupon 29 ou bon de droit)",
      "share_type": {
        "id": 4,
        "name": "Rights (Droits)"
      },
      "types": [
        {
          "start_date": "1946-03-28",
          "end_date": "1947-04-29",
          "id": 501,
          "name": "Droit de souscription",
          "stock_group": "R"
        }
      ],
      "start_date": "1946-03-28",
      "end_date": "1947-04-29",
      "prices_from": "1946-03-28",
      "prices_to": "1946-04-01",
      "is_mainstock": 0,
      "prices_count": 2
    },
    "100798": {
      "id": 100798,
      "name": "Radio-Maritime (droit et coupon 31). 3 act. nouv. émises à 120 fr. pour 2 act. Anc.",
      "share_type": {
        "id": 4,
        "name": "Rights (Droits)"
      },
      "types": [
        {
          "start_date": "1947-09-15",
          "end_date": "3999-12-31",
          "id": 501,
          "name": "Droit de souscription",
          "stock_group": "R"
        }
      ],
      "start_date": "1947-09-15",
      "end_date": "3999-12-31",
      "prices_from": "1947-09-15",
      "prices_to": "1947-09-15",
      "is_mainstock": 0,
      "prices_count": 1
    },
    "101095": {
      "id": 101095,
      "name": "Act. 100 fr. Radio-Maritime (dr. et coup. 34) (2 act. nouv. de 2500 fr. pour 25 act. anc. de 100 fr.)",
      "share_type": {
        "id": 4,
        "name": "Rights (Droits)"
      },
      "types": [
        {
          "start_date": "1949-08-29",
          "end_date": "3999-12-31",
          "id": 501,
          "name": "Droit de souscription",
          "stock_group": "R"
        }
      ],
      "start_date": "1949-08-29",
      "end_date": "3999-12-31",
      "prices_from": "1949-08-31",
      "prices_to": "1951-08-30",
      "is_mainstock": 0,
      "prices_count": 1
    },
    "101096": {
      "id": 101096,
      "name": "Act. 2500 fr. Radio Maritime (droit et coupon 34) (2 act. nouv. émises à 2750 fr. pour 1 act. anc.)",
      "share_type": {
        "id": 4,
        "name": "Rights (Droits)"
      },
      "types": [
        {
          "start_date": "1949-08-29",
          "end_date": "3999-12-31",
          "id": 501,
          "name": "Droit de souscription",
          "stock_group": "R"
        }
      ],
      "start_date": "1949-08-29",
      "end_date": "3999-12-31",
      "prices_from": "1949-08-31",
      "prices_to": "1950-08-30",
      "is_mainstock": 0,
      "prices_count": 1
    },
    "101737": {
      "id": 101737,
      "name": "Act. 1 à 120000. Radio-Maritime (bon rouge 1944). 1 action nouvelle émise à 120 fr. pour 1 bon",
      "share_type": {
        "id": 4,
        "name": "Rights (Droits)"
      },
      "types": [
        {
          "start_date": "1947-10-28",
          "end_date": "3999-12-31",
          "id": 501,
          "name": "Droit de souscription",
          "stock_group": "R"
        }
      ],
      "start_date": "1947-10-28",
      "end_date": "3999-12-31",
      "prices_from": null,
      "prices_to": null,
      "is_mainstock": 0,
      "prices_count": 0
    },
    "101747": {
      "id": 101747,
      "name": "Act. 1 à 240000. Radio-Maritime (bon vert 1946). 1 action nouvelle émise à 115 fr. pour 1 bon",
      "share_type": {
        "id": 4,
        "name": "Rights (Droits)"
      },
      "types": [
        {
          "start_date": "1947-10-28",
          "end_date": "3999-12-31",
          "id": 501,
          "name": "Droit de souscription",
          "stock_group": "R"
        }
      ],
      "start_date": "1947-10-28",
      "end_date": "3999-12-31",
      "prices_from": null,
      "prices_to": null,
      "is_mainstock": 0,
      "prices_count": 0
    },
    "102900": {
      "id": 102900,
      "name": "Act. Radio-Maritime (droit et coup. 13). Pour 7 actions anciennes, 4 actions nouvelles émises à 250 francs",
      "share_type": {
        "id": 4,
        "name": "Rights (Droits)"
      },
      "types": [
        {
          "start_date": "1930-05-22",
          "end_date": "1930-06-17",
          "id": 501,
          "name": "Droit de souscription",
          "stock_group": "R"
        }
      ],
      "start_date": "1930-05-22",
      "end_date": "1930-06-17",
      "prices_from": "1930-05-22",
      "prices_to": "1930-06-02",
      "is_mainstock": 0,
      "prices_count": 2
    },
    "103377": {
      "id": 103377,
      "name": "Actions Cie Radio-Maritime (droit et coupon n° 4)",
      "share_type": {
        "id": 4,
        "name": "Rights (Droits)"
      },
      "types": [
        {
          "start_date": "1923-04-23",
          "end_date": "1923-05-08",
          "id": 501,
          "name": "Droit de souscription",
          "stock_group": "R"
        }
      ],
      "start_date": "1923-04-23",
      "end_date": "1923-05-08",
      "prices_from": "1923-04-23",
      "prices_to": "1923-04-30",
      "is_mainstock": 0,
      "prices_count": 0
    },
    "104219": {
      "id": 104219,
      "name": "Radio-Maritime, act. 2500 f., t. p. (nos 50995 a 152982) (ex-c. 34)",
      "share_type": {
        "id": 2,
        "name": "Bond (Obligation)"
      },
      "types": [
        {
          "start_date": "1950-04-17",
          "end_date": "1950-07-17",
          "id": 18,
          "name": "Action",
          "stock_group": "S"
        }
      ],
      "start_date": "1950-04-17",
      "end_date": "1950-07-17",
      "prices_from": "1950-04-17",
      "prices_to": "1950-06-30",
      "is_mainstock": 0,
      "prices_count": 7
    },
    "104786": {
      "id": 104786,
      "name": "Act. Radio-Maritime ( dr. Et coup. 29 ou bon de droit ).",
      "share_type": {
        "id": 5,
        "name": "Droits de souscription"
      },
      "types": [
        {
          "start_date": "1946-04-20",
          "end_date": "1946-05-10",
          "id": 501,
          "name": "Droit de souscription",
          "stock_group": "R"
        }
      ],
      "start_date": "1946-04-20",
      "end_date": "1946-05-10",
      "prices_from": "1946-04-30",
      "prices_to": "1946-04-30",
      "is_mainstock": 0,
      "prices_count": 1
    },
    "105732": {
      "id": 105732,
      "name": "Radio-Maritime (dr. et c. 37) (2 act. nouv. 2500 fr. émises à 2800 fr., jce 1/7/51, pour 3 act. anc.)",
      "share_type": {
        "id": 5,
        "name": "Droits de souscription"
      },
      "types": [
        {
          "start_date": "1951-07-16",
          "end_date": "1951-11-15",
          "id": 501,
          "name": "Droit de souscription",
          "stock_group": "R"
        }
      ],
      "start_date": "1951-07-16",
      "end_date": "1951-11-15",
      "prices_from": null,
      "prices_to": null,
      "is_mainstock": 0,
      "prices_count": 0
    }
  }
}