{
  "id": 697,
  "names": [
    "La Flotte, Assurances Maritimes"
  ],
  "name": "La Flotte, Assurances Maritimes",
  "balance_sheets": [],
  "balance_sheets_stats": {
    "start_date": null,
    "end_date": null
  },
  "locations_stats": {
    "start_date": "1863-01-01",
    "end_date": "1863-12-31"
  },
  "locations": {
    "Siège social": [
      {
        "location_types_id": 1,
        "location_type": "Siège social",
        "address": null,
        "city": "Paris",
        "district": "Paris",
        "country": "France",
        "in_yearbook_from": 1863,
        "in_yearbook_to": 1863
      }
    ]
  },
  "persons": [],
  "persons_stats": {
    "persons_count": 0,
    "start_date": null,
    "end_date": null
  },
  "yearbooks_ocrs": [],
  "juridical_status": [
    {
      "juridical_status": "Société Anonyme (Libre)",
      "start_date": "1861-10-01",
      "end_date": "3999-12-31",
      "comments": "S.A. franc",
      "source": "COURTOIS 1863 341"
    }
  ],
  "equity_capital": [],
  "profit_dividends": [],
  "public_status": false
}