{
  "id": 10540,
  "names": [
    "SOCIÉTÉ DES STEEPLE-CHASES DE FRANCE",
    "Société des steeple-chases de France"
  ],
  "name": "SOCIÉTÉ DES STEEPLE-CHASES DE FRANCE",
  "balance_sheets": [],
  "balance_sheets_stats": {
    "start_date": null,
    "end_date": null
  },
  "locations_stats": {
    "start_date": "1923-01-01",
    "end_date": "1927-12-31"
  },
  "locations": {
    "Siège social": [
      {
        "location_types_id": 1,
        "location_type": "Siège social",
        "address": "Rue treilhard, 10",
        "city": "Paris",
        "district": "Paris",
        "country": "France",
        "in_yearbook_from": 1923,
        "in_yearbook_to": 1927
      }
    ]
  },
  "persons": [
    {
      "persons_count": 7,
      "yearbook": "Annuaire Desfossés 1927",
      "source": "annuaire_df_1927",
      "page": "1426"
    }
  ],
  "persons_stats": {
    "persons_count": 7,
    "start_date": "1923-01-01",
    "end_date": "1927-12-31"
  },
  "yearbooks_ocrs": [
    {
      "source": "annuaire_df_1923",
      "yearbook": "Annuaire Desfossés 1923",
      "page": "1342"
    },
    {
      "source": "annuaire_df_1925",
      "yearbook": "Annuaire Desfossés 1925",
      "page": "1611"
    },
    {
      "source": "annuaire_df_1927",
      "yearbook": "Annuaire Desfossés 1927",
      "page": "1426"
    }
  ],
  "juridical_status": [
    {
      "juridical_status": "Société Anonyme (Libre)",
      "start_date": "1873-01-01",
      "end_date": "1973-01-01",
      "comments": "Société anonyme française, constituée en 1873, pour une durée expirant en 1973.",
      "source": "annuaire_df_1923"
    }
  ],
  "equity_capital": [
    {
      "amount": "100.000",
      "currency": "Franc",
      "infodate": "1873-01-01",
      "source": "annuaire_df_1923",
      "comments": "100.000 francs, divisé en 20 parts de. 5.000 francs, entièrement remboursées et devenues des parts de jouissance."
    }
  ],
  "profit_dividends": [],
  "public_status": false
}