{
  "id": 3127,
  "names": [
    "SOCIETE ANONYME DES TUBES DE VALENCIENNES ET DENAIN",
    "SOCiETE ANONYME DES TUBES DE VALENCIENNES ET DENA1N",
    "Tubes de Valenciennes et Denain"
  ],
  "name": "SOCIETE ANONYME DES TUBES DE VALENCIENNES ET DENAIN",
  "balance_sheets": [
    {
      "start_date": "1937-06-30",
      "source": "Annuaire Desfossés 1940",
      "page": null
    },
    {
      "start_date": "1938-06-30",
      "source": "Annuaire Desfossés 1940",
      "page": null
    },
    {
      "start_date": "1939-06-30",
      "source": "Annuaire Desfossés 1945",
      "page": "1055"
    },
    {
      "start_date": "1942-12-31",
      "source": "Annuaire Desfossés 1945",
      "page": "1055"
    },
    {
      "start_date": "1943-12-31",
      "source": "Annuaire Desfossés 1945",
      "page": "1055"
    },
    {
      "start_date": "1944-12-31",
      "source": "Annuaire Desfossés 1948",
      "page": "1125"
    },
    {
      "start_date": "1945-12-31",
      "source": "Annuaire Desfossés 1948",
      "page": "1125"
    },
    {
      "start_date": "1946-12-31",
      "source": "Annuaire Desfossés 1948",
      "page": "1125"
    },
    {
      "start_date": "1947-12-31",
      "source": "Annuaire Desfossés 1948",
      "page": "1125"
    },
    {
      "start_date": "1948-12-31",
      "source": "Annuaire Desfossés 1953",
      "page": "933"
    },
    {
      "start_date": "1949-12-31",
      "source": "Annuaire Desfossés 1953",
      "page": "933"
    },
    {
      "start_date": "1950-12-31",
      "source": "Annuaire Desfossés 1953",
      "page": "933"
    },
    {
      "start_date": "1951-12-31",
      "source": "Annuaire Desfossés 1953",
      "page": "933"
    }
  ],
  "balance_sheets_stats": {
    "start_date": "1937-06-30",
    "end_date": "1951-12-31"
  },
  "locations_stats": {
    "start_date": "1940-01-01",
    "end_date": "1953-12-31"
  },
  "locations": {
    "Siège social": [
      {
        "location_types_id": 1,
        "location_type": "Siège social",
        "address": null,
        "city": "Valenciennes",
        "district": "Nord",
        "country": "France",
        "in_yearbook_from": 1940,
        "in_yearbook_to": 1940
      },
      {
        "location_types_id": 1,
        "location_type": "Siège social",
        "address": "Rue daru, 6",
        "city": "Paris",
        "district": "Paris",
        "country": "France",
        "in_yearbook_from": 1945,
        "in_yearbook_to": 1953
      }
    ]
  },
  "persons": [
    {
      "persons_count": 5,
      "yearbook": "Annuaire Desfossés 1940",
      "source": "annuaire_df_1940",
      "page": null
    },
    {
      "persons_count": 3,
      "yearbook": "Annuaire Desfossés 1945",
      "source": "annuaire_df_1945",
      "page": "1055"
    },
    {
      "persons_count": 2,
      "yearbook": "Annuaire Desfossés 1948",
      "source": "annuaire_df_1948",
      "page": "1125"
    },
    {
      "persons_count": 12,
      "yearbook": "Annuaire Desfossés 1953",
      "source": "annuaire_df_1953",
      "page": "933"
    }
  ],
  "persons_stats": {
    "persons_count": 20,
    "start_date": "1940-01-01",
    "end_date": "1953-12-31"
  },
  "yearbooks_ocrs": [
    {
      "source": "annuaire_df_1940",
      "yearbook": "Annuaire Desfossés 1940",
      "page": null
    },
    {
      "source": "annuaire_df_1945",
      "yearbook": "Annuaire Desfossés 1945",
      "page": "1055"
    },
    {
      "source": "annuaire_df_1948",
      "yearbook": "Annuaire Desfossés 1948",
      "page": "1125"
    },
    {
      "source": "annuaire_df_1953",
      "yearbook": "Annuaire Desfossés 1953",
      "page": "933"
    }
  ],
  "juridical_status": [
    {
      "juridical_status": "Société Anonyme (Libre)",
      "start_date": "1913-01-01",
      "end_date": "2012-01-01",
      "comments": "Société anonyme française constituée en 1913 pour une durée de 99 ans",
      "source": "annuaire_df_1940"
    }
  ],
  "equity_capital": [
    {
      "amount": "3.500.000",
      "currency": "Franc",
      "infodate": "1913-01-01",
      "source": "annuaire_df_1940",
      "comments": " 20.625.000 fr. divisé en 165.000 actions de 125 fr. A l’origine 3 500 000 f porté en 1920 à 5.500.000 fr. et en 1929 à 13.750.000 fr. En octobre 1938 les*55.000 Jt* de 250 fr. ont été échangées contre 110.000 act. de 125 fr. Porté en décembre *1938 a, chiffre actuel par l’émission au pair de 55.000 act. de 125 fr. (1 act. nouv. de 125 fr pour 1 anc. de 250 fr. Coupons n° 32). Le Conseil est autorisé à porter le capital à 33 millions."
    },
    {
      "amount": "5.500.000",
      "currency": "Franc",
      "infodate": "1920-01-01",
      "source": "annuaire_df_1940",
      "comments": "Capital : 20.625.000 fr. divisé en 165.000 actions de 125 fr. A l’origine 3 500 000 f porté en 1920 à 5.500.000 fr. et en 1929 à 13.750.000 fr. En octobre 1938 les*55.000 Jt* de 250 fr. ont été échangées contre 110.000 act. de 125 fr. Porté en décembre *1938 a, chiffre actuel par l’émission au pair de 55.000 act. de 125 fr. (1 act. nouv. de 125 fr pour 1 anc. de 250 fr. Coupons n° 32). Le Conseil est autorisé à porter le capital à 33 millions.\td"
    },
    {
      "amount": "13.750.000",
      "currency": "Franc",
      "infodate": "1929-01-01",
      "source": "annuaire_df_1940",
      "comments": "Capital : 20.625.000 fr. divisé en 165.000 actions de 125 fr. A l’origine 3 500 000 f porté en 1920 à 5.500.000 fr. et en 1929 à 13.750.000 fr. En octobre 1938 les*55.000 Jt* de 250 fr. ont été échangées contre 110.000 act. de 125 fr. Porté en décembre *1938 a, chiffre actuel par l’émission au pair de 55.000 act. de 125 fr. (1 act. nouv. de 125 fr pour 1 anc. de 250 fr. Coupons n° 32). Le Conseil est autorisé à porter le capital à 33 millions.\td"
    },
    {
      "amount": "20.625.000",
      "currency": "Franc",
      "infodate": "1938-10-01",
      "source": "annuaire_df_1940",
      "comments": "Capital : 20.625.000 fr. divisé en 165.000 actions de 125 fr. A l’origine 3 500 000 f porté en 1920 à 5.500.000 fr. et en 1929 à 13.750.000 fr. En octobre 1938 les*55.000 Jt* de 250 fr. ont été échangées contre 110.000 act. de 125 fr. Porté en décembre *1938 a, chiffre actuel par l’émission au pair de 55.000 act. de 125 fr. (1 act. nouv. de 125 fr pour 1 anc. de 250 fr. Coupons n° 32). Le Conseil est autorisé à porter le capital à 33 millions.\td"
    },
    {
      "amount": "41.250.000",
      "currency": "Franc",
      "infodate": "1941-01-01",
      "source": "annuaire_df_1945",
      "comments": "Capital : 41.250.000 fr. divisé en 330.000 actions de 125 fr. A l’origine 3.500.000 fr. porté en 1920. à 5.500.000 fr. et en 1929 à 13.750.000 fr. En octobre 1938 les 55.000 act. de 250 fr. ont été échangées contré 110.000 act. de 125 fr. Porté en décembre 1938 au chiffre actuel par l’émission au pair de 55.000. àct. de 125 fr. (1 act. nouv. de 125 fr. pour 1 anc. de 250 fr. Coupons n° 32). Porté à 41.250.000 fr. en 1941 par l’émission au pair de 165.000 actions de 125 francs."
    },
    {
      "amount": "43.410.000",
      "currency": "Franc",
      "infodate": "1946-01-01",
      "source": "annuaire_df_1948",
      "comments": "Capital : 208.368.000 fr. divisé en 1.041.840 actions de 200 fr. A l'origine 3.500.000 fr. porté en 1920 à 5.500.000 fr. et en 1929. à 13.|750.000 fr. En octobre 19S8 les 55.000 act. de 250 fr. ont été échangées contre 110.000 act. de 125 fr. Porté en décembre 1938 à 20.625.000 fr. par l'émission au pair de 55.000 act. de 125 fr. (1 àct. nouv. de 125 fr. pour 1 anc. de 250 fr. Coupons n° 32). Porté à 41.250.000 fr. en 1941 par l'émission au pair de 165.000 actions de 125 fr. Porté en 1946 à 43.410.000 fr. pour règlement de l'impôt de solidarité, puis ensuite à 86.820.000 fr. par prélèvement sur la réserve de réévaluation ét création' de 347.280 actions attribuées gratuitement à raison d'une pour une. Porté ensuite à 130.230.000 fr. par l'émission à 140 fr. de 347.280 actions de 125 fr. (1 nouv. pour 1 anc.),. Porté en 1948 à 208.368.000 francs par élévation nu nominal des actions de 125 à 200 francs."
    },
    {
      "amount": "86.820.000",
      "currency": "Franc",
      "infodate": "1946-06-01",
      "source": "annuaire_df_1948",
      "comments": "Capital : 208.368.000 fr. divisé en 1.041.840 actions de 200 fr. A l'origine 3.500.000 fr. porté en 1920 à 5.500.000 fr. et en 1929. à 13.|750.000 fr. En octobre 19S8 les 55.000 act. de 250 fr. ont été échangées contre 110.000 act. de 125 fr. Porté en décembre 1938 à 20.625.000 fr. par l'émission au pair de 55.000 act. de 125 fr. (1 àct. nouv. de 125 fr. pour 1 anc. de 250 fr. Coupons n° 32). Porté à 41.250.000 fr. en 1941 par l'émission au pair de 165.000 actions de 125 fr. Porté en 1946 à 43.410.000 fr. pour règlement de l'impôt de solidarité, puis ensuite à 86.820.000 fr. par prélèvement sur la réserve de réévaluation ét création' de 347.280 actions attribuées gratuitement à raison d'une pour une. Porté ensuite à 130.230.000 fr. par l'émission à 140 fr. de 347.280 actions de 125 fr. (1 nouv. pour 1 anc.),. Porté en 1948 à 208.368.000 francs par élévation nu nominal des actions de 125 à 200 francs."
    },
    {
      "amount": "130.230.000",
      "currency": "Franc",
      "infodate": "1946-09-01",
      "source": "annuaire_df_1948",
      "comments": "Capital : 208.368.000 fr. divisé en 1.041.840 actions de 200 fr. A l'origine 3.500.000 fr. porté en 1920 à 5.500.000 fr. et en 1929. à 13.|750.000 fr. En octobre 19S8 les 55.000 act. de 250 fr. ont été échangées contre 110.000 act. de 125 fr. Porté en décembre 1938 à 20.625.000 fr. par l'émission au pair de 55.000 act. de 125 fr. (1 àct. nouv. de 125 fr. pour 1 anc. de 250 fr. Coupons n° 32). Porté à 41.250.000 fr. en 1941 par l'émission au pair de 165.000 actions de 125 fr. Porté en 1946 à 43.410.000 fr. pour règlement de l'impôt de solidarité, puis ensuite à 86.820.000 fr. par prélèvement sur la réserve de réévaluation ét création' de 347.280 actions attribuées gratuitement à raison d'une pour une. Porté ensuite à 130.230.000 fr. par l'émission à 140 fr. de 347.280 actions de 125 fr. (1 nouv. pour 1 anc.),. Porté en 1948 à 208.368.000 francs par élévation nu nominal des actions de 125 à 200 francs."
    },
    {
      "amount": "208.368.000",
      "currency": "Franc",
      "infodate": "1948-01-01",
      "source": "annuaire_df_1948",
      "comments": "Capital : 208.368.000 fr. divisé en 1.041.840 actions de 200 fr. A l'origine 3.500.000 fr. porté en 1920 à 5.500.000 fr. et en 1929. à 13.|750.000 fr. En octobre 19S8 les 55.000 act. de 250 fr. ont été échangées contre 110.000 act. de 125 fr. Porté en décembre 1938 à 20.625.000 fr. par l'émission au pair de 55.000 act. de 125 fr. (1 àct. nouv. de 125 fr. pour 1 anc. de 250 fr. Coupons n° 32). Porté à 41.250.000 fr. en 1941 par l'émission au pair de 165.000 actions de 125 fr. Porté en 1946 à 43.410.000 fr. pour règlement de l'impôt de solidarité, puis ensuite à 86.820.000 fr. par prélèvement sur la réserve de réévaluation ét création' de 347.280 actions attribuées gratuitement à raison d'une pour une. Porté ensuite à 130.230.000 fr. par l'émission à 140 fr. de 347.280 actions de 125 fr. (1 nouv. pour 1 anc.),. Porté en 1948 à 208.368.000 francs par élévation nu nominal des actions de 125 à 200 francs."
    },
    {
      "amount": "781.380.000",
      "currency": "Franc",
      "infodate": "1952-01-01",
      "source": "annuaire_df_1953",
      "comments": "CAPITAL : 780.000.000 fr., divisé en 156.000 actions de 5.000 fr. A l'origine 3.500.000 fr. porté en 1920 à 5.500.000 fr. en 1929 à 13.750.000 fr. En octobre 1938 les 55.000 actions de 250 fr. ont été échangées contre 110.000 actions de 125 fr. Porté en décembre 1938 à 20.625.000 fr. par l'émission au pair de 55.000 actions de 125 fr. (1 act. nouv. de 125 fr. pour 1 anc. de 250 fr. Coupons n° 32). Porté à 41.250.000 fr. en 1941 par l'émission au pair de 165.000 actions de 125 fr. Porté en 1946 à 4^.410.000 fr. pour règlement de l'impôt de solidarité, puis ensuite à 86.820.000 fr. par prélèvement sur la réserve de réévaluation et création de 347.280 actions attribuées gratuitement à raison d'une pour une. Porté ensuite à 130.230.000 fr. par l'émission à 140 fr. de 347.280 actions de 125 fr. (1 nouv. pour 1 anc.). Porté en 1948 à 208.368.000 fr. par élévation du nominal des actions de l**j à 200 fr., puis en 1949 à 625.104.000 fr. par éléva-tion du nominal de 200 à 600 fr. et à 651.150.000 fr. par élévation du nominal à 625 fr. Titres regroupés en 2.500 fr. à partir du 1er mai 1950. Porté en 1952 à 781.380.000 fr. par élévation du nominal à 3.000 fr. Ramené à 780 millions par annulation de 460 actions de 3.000 fr. Regroupement en actions de 5.Ô00 fx*. à partir du 3 novembre 1952."
    },
    {
      "amount": "780.000.000",
      "currency": "Franc",
      "infodate": "1953-01-01",
      "source": "annuaire_df_1953",
      "comments": "CAPITAL : 780.000.000 fr., divisé en 156.000 actions de 5.000 fr. A l'origine 3.500.000 fr. porté en 1920 à 5.500.000 fr. en 1929 à 13.750.000 fr. En octobre 1938 les 55.000 actions de 250 fr. ont été échangées contre 110.000 actions de 125 fr. Porté en décembre 1938 à 20.625.000 fr. par l'émission au pair de 55.000 actions de 125 fr. (1 act. nouv. de 125 fr. pour 1 anc. de 250 fr. Coupons n° 32). Porté à 41.250.000 fr. en 1941 par l'émission au pair de 165.000 actions de 125 fr. Porté en 1946 à 4^.410.000 fr. pour règlement de l'impôt de solidarité, puis ensuite à 86.820.000 fr. par prélèvement sur la réserve de réévaluation et création de 347.280 actions attribuées gratuitement à raison d'une pour une. Porté ensuite à 130.230.000 fr. par l'émission à 140 fr. de 347.280 actions de 125 fr. (1 nouv. pour 1 anc.). Porté en 1948 à 208.368.000 fr. par élévation du nominal des actions de l**j à 200 fr., puis en 1949 à 625.104.000 fr. par éléva-tion du nominal de 200 à 600 fr. et à 651.150.000 fr. par élévation du nominal à 625 fr. Titres regroupés en 2.500 fr. à partir du 1er mai 1950. Porté en 1952 à 781.380.000 fr. par élévation du nominal à 3.000 fr. Ramené à 780 millions par annulation de 460 actions de 3.000 fr. Regroupement en actions de 5.Ô00 fx*. à partir du 3 novembre 1952."
    }
  ],
  "profit_dividends": [
    {
      "first_date": "1932-06-30",
      "last_date": "1951-12-31",
      "obs_count": 111
    }
  ],
  "public_status": false,
  "stock_exchanges": {
    "1": {
      "id": 1,
      "name": "Paris (Official List)",
      "listings_stats": {
        "start_date": "1939-04-03"
      },
      "spot_prices_stats": {
        "start_date": "1939-04-03",
        "end_date": "1959-09-30"
      }
    }
  },
  "securities": {
    "11254": {
      "id": 11254,
      "name": "Tubes de Valenciennes et Denain, act. 625 fr., t. p.",
      "share_type": {
        "id": 1,
        "name": "Stock (Action)"
      },
      "types": [
        {
          "start_date": "1939-04-03",
          "end_date": "3999-12-31",
          "id": 18,
          "name": "Action",
          "stock_group": "S"
        }
      ],
      "start_date": "1939-04-03",
      "end_date": "3999-12-31",
      "prices_from": "1939-04-03",
      "prices_to": "1951-08-31",
      "is_mainstock": 1,
      "prices_count": 274
    },
    "11964": {
      "id": 11964,
      "name": "Denain-Anzin (ex-Valenciennes et Denain) 4% (n° 10001 à 17000) (Rachats ou Tirages) (Cf avis n° 33397) 1944-73",
      "share_type": {
        "id": 2,
        "name": "Bond (Obligation)"
      },
      "types": [
        {
          "start_date": "1943-08-05",
          "end_date": "3999-12-31",
          "id": 1001,
          "name": "Obligation ordinaire ou classique",
          "stock_group": "B"
        }
      ],
      "start_date": "1943-08-05",
      "end_date": "3999-12-31",
      "prices_from": "1943-08-05",
      "prices_to": "1958-12-31",
      "is_mainstock": 0,
      "prices_count": 371
    },
    "12341": {
      "id": 12341,
      "name": "Tubes Valenciennes et Denain 3,75% 1945, remb. À 5000 fr. (Jce 1/10/45) 1946-75",
      "share_type": {
        "id": 2,
        "name": "Bond (Obligation)"
      },
      "types": [
        {
          "start_date": "1946-06-24",
          "end_date": "3999-12-31",
          "id": 1001,
          "name": "Obligation ordinaire ou classique",
          "stock_group": "B"
        }
      ],
      "start_date": "1946-06-24",
      "end_date": "3999-12-31",
      "prices_from": "1946-06-24",
      "prices_to": "1959-09-30",
      "is_mainstock": 0,
      "prices_count": 331
    },
    "13703": {
      "id": 13703,
      "name": "Tubes Valenciennes Denain, act. Anc. 3000 f., t.p.",
      "share_type": {
        "id": 1,
        "name": "Stock (Action)"
      },
      "types": [
        {
          "start_date": "1950-05-19",
          "end_date": "3999-12-31",
          "id": 18,
          "name": "Action",
          "stock_group": "S"
        }
      ],
      "start_date": "1950-05-19",
      "end_date": "3999-12-31",
      "prices_from": "1950-05-25",
      "prices_to": "1953-10-15",
      "is_mainstock": 0,
      "prices_count": 90
    },
    "14564": {
      "id": 14564,
      "name": "Valenciennes et Denain (Tubes de), act.",
      "share_type": {
        "id": 1,
        "name": "Stock (Action)"
      },
      "types": [
        {
          "start_date": "1952-11-03",
          "end_date": "3999-12-31",
          "id": 11,
          "name": "Action ordinaire",
          "stock_group": "S"
        }
      ],
      "start_date": "1952-11-03",
      "end_date": "3999-12-31",
      "prices_from": "1952-11-03",
      "prices_to": "1957-10-31",
      "is_mainstock": 0,
      "prices_count": 156
    },
    "100643": {
      "id": 100643,
      "name": "Act. 1 à 347280.Tubes de Valenciennes et Denain (dr. et coup. 14). 1 action nouv. pour 1 action anc.",
      "share_type": {
        "id": 4,
        "name": "Rights (Droits)"
      },
      "types": [
        {
          "start_date": "1946-12-05",
          "end_date": "3999-12-31",
          "id": 502,
          "name": "Droit d'attribution",
          "stock_group": "R"
        }
      ],
      "start_date": "1946-12-05",
      "end_date": "3999-12-31",
      "prices_from": "1946-12-05",
      "prices_to": "1946-12-12",
      "is_mainstock": 0,
      "prices_count": 1
    },
    "100644": {
      "id": 100644,
      "name": "A. 1 à 347280. Tubes de Valenciennes et Denain (dr. et coup. 15). 1 a. émise à 140 fr. pour 1 act. Anc.",
      "share_type": {
        "id": 4,
        "name": "Rights (Droits)"
      },
      "types": [
        {
          "start_date": "1946-12-05",
          "end_date": "1947-01-06",
          "id": 501,
          "name": "Droit de souscription",
          "stock_group": "R"
        }
      ],
      "start_date": "1946-12-05",
      "end_date": "1947-01-06",
      "prices_from": "1946-12-05",
      "prices_to": "1947-01-02",
      "is_mainstock": 0,
      "prices_count": 1
    },
    "103283": {
      "id": 103283,
      "name": "Act.TUBES DE VALENCIENNES ET DENAIN (droit et coupon 7).Pour 1 action ancienne, 1 action nouvelle émise à 125 francs",
      "share_type": {
        "id": 4,
        "name": "Rights (Droits)"
      },
      "types": [
        {
          "start_date": "1941-10-31",
          "end_date": "1941-11-20",
          "id": 501,
          "name": "Droit de souscription",
          "stock_group": "R"
        }
      ],
      "start_date": "1941-10-31",
      "end_date": "1941-11-20",
      "prices_from": "1941-10-31",
      "prices_to": "1941-11-17",
      "is_mainstock": 0,
      "prices_count": 1
    },
    "104010": {
      "id": 104010,
      "name": "Tubes de Valenciennes et Denain, a. 125 f., t.p (dr. et c. 7 att.)",
      "share_type": {
        "id": 1,
        "name": "Stock (Action)"
      },
      "types": [
        {
          "start_date": "1000-01-01",
          "end_date": "0399-12-31",
          "id": 18,
          "name": "Action",
          "stock_group": "S"
        }
      ],
      "start_date": "1941-10-21",
      "end_date": "1941-11-01",
      "prices_from": "1941-10-31",
      "prices_to": "1941-10-31",
      "is_mainstock": 0,
      "prices_count": 1
    }
  }
}