{
  "id": 6238,
  "names": [
    "Groupement de Banques Privées \"G.B.P.\""
  ],
  "name": "Groupement de Banques Privées \"G.B.P.\"",
  "balance_sheets": [],
  "balance_sheets_stats": {
    "start_date": null,
    "end_date": null
  },
  "locations_stats": {
    "start_date": null,
    "end_date": null
  },
  "locations": {},
  "persons": [],
  "persons_stats": {
    "persons_count": 0,
    "start_date": null,
    "end_date": null
  },
  "yearbooks_ocrs": [],
  "juridical_status": [],
  "equity_capital": [],
  "profit_dividends": [],
  "public_status": false,
  "stock_exchanges": {
    "1": {
      "id": 1,
      "name": "Paris (Official List)",
      "listings_stats": {
        "start_date": "1973-06-18"
      },
      "spot_prices_stats": {
        "start_date": "1973-06-18",
        "end_date": "1976-12-31"
      }
    }
  },
  "securities": {
    "21145": {
      "id": 21145,
      "name": "NANTES_BOURSE_Groupement de Banques Privées \"G.B.P.\", 8,80% mai 1973 de 500 F (c. 15/5/74 att.) (Avis 73-481) 1974-85",
      "share_type": {
        "id": 2,
        "name": "Bond (Obligation)"
      },
      "types": [
        {
          "start_date": "1973-06-18",
          "end_date": "3999-12-31",
          "id": 1001,
          "name": "Obligation ordinaire ou classique",
          "stock_group": "B"
        }
      ],
      "start_date": "1973-06-18",
      "end_date": "3999-12-31",
      "prices_from": "1973-06-18",
      "prices_to": "1976-12-31",
      "is_mainstock": 0,
      "prices_count": 86
    }
  }
}