{
  "id": 3566,
  "names": [
    "BANQUE DE LA HENIN",
    "BANQUE LA HENIN",
    "BANQUE LA HENIN (LA HENIN EPARGNE CREDIT)",
    "IMMOBILIA",
    "IMMOBILIA (Etablissement Financier)",
    "IMMOBILIA (Etablissement financier)",
    "Immobilia",
    "Immobilia \"Banque de crédit à long et moyen terme\"",
    "Immobilia, banque de crédit à long et moyen terme"
  ],
  "name": "BANQUE LA HENIN",
  "balance_sheets": [
    {
      "start_date": "1923-12-31",
      "source": "Annuaire Desfossés 1925",
      "page": "330"
    },
    {
      "start_date": "1926-12-31",
      "source": "Annuaire Desfossés 1927",
      "page": null
    },
    {
      "start_date": "1927-12-31",
      "source": "Annuaire Desfossés 1929",
      "page": "275"
    },
    {
      "start_date": "1929-12-31",
      "source": "Annuaire Desfossés 1931",
      "page": "288"
    },
    {
      "start_date": "1931-12-31",
      "source": "Annuaire Desfossés 1933",
      "page": "309"
    },
    {
      "start_date": "1932-12-31",
      "source": "Annuaire Desfossés 1936",
      "page": null
    },
    {
      "start_date": "1933-12-31",
      "source": "Annuaire Desfossés 1937",
      "page": "310"
    },
    {
      "start_date": "1934-12-31",
      "source": "Annuaire Desfossés 1937",
      "page": "310"
    },
    {
      "start_date": "1935-12-31",
      "source": "Annuaire Desfossés 1940",
      "page": null
    },
    {
      "start_date": "1936-12-31",
      "source": "Annuaire Desfossés 1940",
      "page": null
    },
    {
      "start_date": "1937-12-31",
      "source": "Annuaire Desfossés 1940",
      "page": null
    },
    {
      "start_date": "1938-12-31",
      "source": "Annuaire Desfossés 1945",
      "page": "397"
    },
    {
      "start_date": "1938-12-31",
      "source": "Annuaire Desfossés 1945",
      "page": "2290"
    },
    {
      "start_date": "1941-12-31",
      "source": "Annuaire Desfossés 1945",
      "page": "2290"
    },
    {
      "start_date": "1941-12-31",
      "source": "Annuaire Desfossés 1945",
      "page": "397"
    },
    {
      "start_date": "1942-12-31",
      "source": "Annuaire Desfossés 1945",
      "page": "397"
    },
    {
      "start_date": "1942-12-31",
      "source": "Annuaire Desfossés 1945",
      "page": "2290"
    },
    {
      "start_date": "1943-12-31",
      "source": "Annuaire Desfossés 1945",
      "page": "2290"
    },
    {
      "start_date": "1943-12-31",
      "source": "Annuaire Desfossés 1945",
      "page": "397"
    },
    {
      "start_date": "1944-12-31",
      "source": "Annuaire Desfossés 1948",
      "page": "429"
    },
    {
      "start_date": "1945-12-31",
      "source": "Annuaire Desfossés 1948",
      "page": "429"
    },
    {
      "start_date": "1946-12-31",
      "source": "Annuaire Desfossés 1948",
      "page": "429"
    },
    {
      "start_date": "1947-12-31",
      "source": "Annuaire Desfossés 1953",
      "page": "262"
    },
    {
      "start_date": "1948-12-31",
      "source": "Annuaire Desfossés 1953",
      "page": "262"
    },
    {
      "start_date": "1949-12-31",
      "source": "Annuaire Desfossés 1953",
      "page": "262"
    },
    {
      "start_date": "1950-12-31",
      "source": "Annuaire Desfossés 1953",
      "page": "262"
    },
    {
      "start_date": "1951-12-31",
      "source": "Annuaire Desfossés 1953",
      "page": "262"
    }
  ],
  "balance_sheets_stats": {
    "start_date": "1923-12-31",
    "end_date": "1951-12-31"
  },
  "locations_stats": {
    "start_date": "1924-01-01",
    "end_date": "1953-12-31"
  },
  "locations": {
    "Siège social": [
      {
        "location_types_id": 1,
        "location_type": "Siège social",
        "address": "Rue de richelieu, 104",
        "city": "Paris",
        "district": "Paris",
        "country": "France",
        "in_yearbook_from": 1924,
        "in_yearbook_to": 1933
      },
      {
        "location_types_id": 1,
        "location_type": "Siège social",
        "address": "Rue meyerbeer, 3",
        "city": "Paris",
        "district": "Paris",
        "country": "France",
        "in_yearbook_from": 1940,
        "in_yearbook_to": 1940
      },
      {
        "location_types_id": 1,
        "location_type": "Siège social",
        "address": "Place vendôme, 16",
        "city": "Paris",
        "district": "Paris",
        "country": "France",
        "in_yearbook_from": 1945,
        "in_yearbook_to": 1953
      }
    ]
  },
  "persons": [
    {
      "persons_count": 8,
      "yearbook": "Annuaire Desfossés 1927",
      "source": "annuaire_df_1927",
      "page": null
    },
    {
      "persons_count": 8,
      "yearbook": "Annuaire Desfossés 1933",
      "source": "annuaire_df_1933",
      "page": "309"
    },
    {
      "persons_count": 4,
      "yearbook": "Annuaire Desfossés 1940",
      "source": "annuaire_df_1940",
      "page": null
    },
    {
      "persons_count": 3,
      "yearbook": "Annuaire Desfossés 1945",
      "source": "annuaire_df_1945",
      "page": "2290"
    },
    {
      "persons_count": 3,
      "yearbook": "Annuaire Desfossés 1945",
      "source": "annuaire_df_1945",
      "page": "397"
    },
    {
      "persons_count": 7,
      "yearbook": "Annuaire Desfossés 1948",
      "source": "annuaire_df_1948",
      "page": "429"
    },
    {
      "persons_count": 10,
      "yearbook": "Annuaire Desfossés 1953",
      "source": "annuaire_df_1953",
      "page": "262"
    }
  ],
  "persons_stats": {
    "persons_count": 24,
    "start_date": "1927-01-01",
    "end_date": "1953-12-31"
  },
  "yearbooks_ocrs": [
    {
      "source": "annuaire_df_1925",
      "yearbook": "Annuaire Desfossés 1925",
      "page": "330"
    },
    {
      "source": "annuaire_df_1927",
      "yearbook": "Annuaire Desfossés 1927",
      "page": null
    },
    {
      "source": "annuaire_df_1929",
      "yearbook": "Annuaire Desfossés 1929",
      "page": "275"
    },
    {
      "source": "annuaire_df_1931",
      "yearbook": "Annuaire Desfossés 1931",
      "page": "288"
    },
    {
      "source": "annuaire_df_1933",
      "yearbook": "Annuaire Desfossés 1933",
      "page": "309"
    },
    {
      "source": "annuaire_df_1937",
      "yearbook": "Annuaire Desfossés 1937",
      "page": "310"
    },
    {
      "source": "annuaire_df_1940",
      "yearbook": "Annuaire Desfossés 1940",
      "page": null
    },
    {
      "source": "annuaire_df_1945",
      "yearbook": "Annuaire Desfossés 1945",
      "page": "2290"
    },
    {
      "source": "annuaire_df_1945",
      "yearbook": "Annuaire Desfossés 1945",
      "page": "397"
    },
    {
      "source": "annuaire_df_1948",
      "yearbook": "Annuaire Desfossés 1948",
      "page": "429"
    },
    {
      "source": "annuaire_df_1953",
      "yearbook": "Annuaire Desfossés 1953",
      "page": "262"
    }
  ],
  "juridical_status": [
    {
      "juridical_status": "Société Anonyme (Libre)",
      "start_date": "1920-04-24",
      "end_date": "2019-03-15",
      "comments": "Société anonyme française, constituée le 24 avril 1920, pour une durée de 99 ans.",
      "source": "annuaire_df_1937"
    }
  ],
  "equity_capital": [
    {
      "amount": "10.000.000",
      "currency": "Franc",
      "infodate": "1920-04-24",
      "source": "annuaire_df_1933",
      "comments": "42 millions de rrancs, divise en 84.000 actions de 5UU rrancs. A l’origine, 10 millions, porté en mai 1924, à 20 millions, en 1928 à 40 millions. En même temps les actions ont été divisées en titres de 500 francs. En 1929, le capital a été porté à 42 millions.\n"
    },
    {
      "amount": "20.000.000",
      "currency": "Franc",
      "infodate": "1924-05-01",
      "source": "annuaire_df_1927",
      "comments": "20 millions de francs, divisé en 20.000 actions de 1.000 francs. A l’origine, 10 millions, porté au chiffre actuel en mai 1924."
    },
    {
      "amount": "40.000.000",
      "currency": "Franc",
      "infodate": "1928-01-01",
      "source": "annuaire_df_1933",
      "comments": "42 mimons de rrancs, divise en 84.UUU actions de 5UU rrancs. A l’origine, 10 millions, porté en mai 1924, à 20 millions, en 1928 à 40 millions. En même temps les actions ont été divisées en titres de 500 francs. En 1929, le capital a été porté à 42 millions."
    },
    {
      "amount": "42.000.000",
      "currency": "Franc",
      "infodate": "1929-01-01",
      "source": "annuaire_df_1933",
      "comments": "42 mimons de rrancs, divise en 84.UUU actions de 5UU rrancs. A l’origine, 10 millions, porté en mai 1924, à 20 millions, en 1928 à 40 millions. En même temps les actions ont été divisées en titres de 500 francs. En 1929, le capital a été porté à 42 millions."
    },
    {
      "amount": "68.000.000",
      "currency": "Franc",
      "infodate": "1932-01-01",
      "source": "annuaire_df_1940",
      "comments": "faDital social 21.900.000 francs, divise en <3.000 actions de ouu lianes. l'nriffine 10 millions en 10.000 actions de 1.000 francs, porté en juillet 1924 à 20 mil-inns par l’émission à 1.125 de 10.000 actions de 1.000 francs. En 1928, les actions de \\ AQQ francs ont été divisées en titres de 500 francs et le capital a été. porté à 49 millions par la création de 44-000 actions de 500 francs dont 4.000 remises pour apport et 40.000 émises à 575 francs. En 1932, le capital a été porté à 68 millions par la création de 52.000 actions de 500 francs remises à la Société Terrains et Immeubles en rémunération de son apport-fusion. Ramené en 1935 à 65 millions par. Je rachat en Bourse et l’annulation de 6.000 actions de 500 francs, ensuite à 39 millions par la réduction de 500 francs à 300 francs de la valeur nominale des 130.000 actions restant, puis en février 1936 à 37.200.000, par le rachat et l’annulation de 6.000 actions, et en avril 1936 à 36 millions par le rachat et l’annulation de 4.000 actions de 300 fr., puis en décembre 1937 à 30 millions par le rachat et l’annulation de 20.000 actions. En février 1938, à 21.900.000 par rachat et annulation de 27.000 actions."
    },
    {
      "amount": "65.000.000",
      "currency": "Franc",
      "infodate": "1935-01-01",
      "source": "annuaire_df_1940",
      "comments": "faDital social 21.900.000 francs, divise en <3.000 actions de ouu lianes. l'nriffine 10 millions en 10.000 actions de 1.000 francs, porté en juillet 1924 à 20 mil-inns par l’émission à 1.125 de 10.000 actions de 1.000 francs. En 1928, les actions de \\ AQQ francs ont été divisées en titres de 500 francs et le capital a été. porté à 49 millions par la création de 44-000 actions de 500 francs dont 4.000 remises pour apport et 40.000 émises à 575 francs. En 1932, le capital a été porté à 68 millions par la création de 52.000 actions de 500 francs remises à la Société Terrains et Immeubles en rémunération de son apport-fusion. Ramené en 1935 à 65 millions par. Je rachat en Bourse et l’annulation de 6.000 actions de 500 francs, ensuite à 39 millions par la réduction de 500 francs à 300 francs de la valeur nominale des 130.000 actions restant, puis en février 1936 à 37.200.000, par le rachat et l’annulation de 6.000 actions, et en avril 1936 à 36 millions par le rachat et l’annulation de 4.000 actions de 300 fr., puis en décembre 1937 à 30 millions par le rachat et l’annulation de 20.000 actions. En février 1938, à 21.900.000 par rachat et annulation de 27.000 actions."
    },
    {
      "amount": "39.000.000",
      "currency": "Franc",
      "infodate": "1935-01-02",
      "source": "annuaire_df_1940",
      "comments": "faDital social 21.900.000 francs, divise en <3.000 actions de ouu lianes. l'nriffine 10 millions en 10.000 actions de 1.000 francs, porté en juillet 1924 à 20 mil-inns par l’émission à 1.125 de 10.000 actions de 1.000 francs. En 1928, les actions de \\ AQQ francs ont été divisées en titres de 500 francs et le capital a été. porté à 49 millions par la création de 44-000 actions de 500 francs dont 4.000 remises pour apport et 40.000 émises à 575 francs. En 1932, le capital a été porté à 68 millions par la création de 52.000 actions de 500 francs remises à la Société Terrains et Immeubles en rémunération de son apport-fusion. Ramené en 1935 à 65 millions par. Je rachat en Bourse et l’annulation de 6.000 actions de 500 francs, ensuite à 39 millions par la réduction de 500 francs à 300 francs de la valeur nominale des 130.000 actions restant, puis en février 1936 à 37.200.000, par le rachat et l’annulation de 6.000 actions, et en avril 1936 à 36 millions par le rachat et l’annulation de 4.000 actions de 300 fr., puis en décembre 1937 à 30 millions par le rachat et l’annulation de 20.000 actions. En février 1938, à 21.900.000 par rachat et annulation de 27.000 actions."
    },
    {
      "amount": "37.200.000",
      "currency": "Franc",
      "infodate": "1936-02-01",
      "source": "annuaire_df_1940",
      "comments": "faDital social 21.900.000 francs, divise en <3.000 actions de ouu lianes. l'nriffine 10 millions en 10.000 actions de 1.000 francs, porté en juillet 1924 à 20 mil-inns par l’émission à 1.125 de 10.000 actions de 1.000 francs. En 1928, les actions de \\ AQQ francs ont été divisées en titres de 500 francs et le capital a été. porté à 49 millions par la création de 44-000 actions de 500 francs dont 4.000 remises pour apport et 40.000 émises à 575 francs. En 1932, le capital a été porté à 68 millions par la création de 52.000 actions de 500 francs remises à la Société Terrains et Immeubles en rémunération de son apport-fusion. Ramené en 1935 à 65 millions par. Je rachat en Bourse et l’annulation de 6.000 actions de 500 francs, ensuite à 39 millions par la réduction de 500 francs à 300 francs de la valeur nominale des 130.000 actions restant, puis en février 1936 à 37.200.000, par le rachat et l’annulation de 6.000 actions, et en avril 1936 à 36 millions par le rachat et l’annulation de 4.000 actions de 300 fr., puis en décembre 1937 à 30 millions par le rachat et l’annulation de 20.000 actions. En février 1938, à 21.900.000 par rachat et annulation de 27.000 actions."
    },
    {
      "amount": "36.000.000",
      "currency": "Franc",
      "infodate": "1936-04-01",
      "source": "annuaire_df_1940",
      "comments": "faDital social 21.900.000 francs, divise en <3.000 actions de ouu lianes. l'nriffine 10 millions en 10.000 actions de 1.000 francs, porté en juillet 1924 à 20 mil-inns par l’émission à 1.125 de 10.000 actions de 1.000 francs. En 1928, les actions de \\ AQQ francs ont été divisées en titres de 500 francs et le capital a été. porté à 49 millions par la création de 44-000 actions de 500 francs dont 4.000 remises pour apport et 40.000 émises à 575 francs. En 1932, le capital a été porté à 68 millions par la création de 52.000 actions de 500 francs remises à la Société Terrains et Immeubles en rémunération de son apport-fusion. Ramené en 1935 à 65 millions par. Je rachat en Bourse et l’annulation de 6.000 actions de 500 francs, ensuite à 39 millions par la réduction de 500 francs à 300 francs de la valeur nominale des 130.000 actions restant, puis en février 1936 à 37.200.000, par le rachat et l’annulation de 6.000 actions, et en avril 1936 à 36 millions par le rachat et l’annulation de 4.000 actions de 300 fr., puis en décembre 1937 à 30 millions par le rachat et l’annulation de 20.000 actions. En février 1938, à 21.900.000 par rachat et annulation de 27.000 actions."
    },
    {
      "amount": "30.000.000",
      "currency": "Franc",
      "infodate": "1937-12-01",
      "source": "annuaire_df_1940",
      "comments": "faDital social 21.900.000 francs, divise en <3.000 actions de ouu lianes. l'nriffine 10 millions en 10.000 actions de 1.000 francs, porté en juillet 1924 à 20 mil-inns par l’émission à 1.125 de 10.000 actions de 1.000 francs. En 1928, les actions de \\ AQQ francs ont été divisées en titres de 500 francs et le capital a été. porté à 49 millions par la création de 44-000 actions de 500 francs dont 4.000 remises pour apport et 40.000 émises à 575 francs. En 1932, le capital a été porté à 68 millions par la création de 52.000 actions de 500 francs remises à la Société Terrains et Immeubles en rémunération de son apport-fusion. Ramené en 1935 à 65 millions par. Je rachat en Bourse et l’annulation de 6.000 actions de 500 francs, ensuite à 39 millions par la réduction de 500 francs à 300 francs de la valeur nominale des 130.000 actions restant, puis en février 1936 à 37.200.000, par le rachat et l’annulation de 6.000 actions, et en avril 1936 à 36 millions par le rachat et l’annulation de 4.000 actions de 300 fr., puis en décembre 1937 à 30 millions par le rachat et l’annulation de 20.000 actions. En février 1938, à 21.900.000 par rachat et annulation de 27.000 actions."
    },
    {
      "amount": "21.900.000",
      "currency": "Franc",
      "infodate": "1938-02-01",
      "source": "annuaire_df_1940",
      "comments": "faDital social 21.900.000 francs, divise en <3.000 actions de ouu lianes. l'nriffine 10 millions en 10.000 actions de 1.000 francs, porté en juillet 1924 à 20 mil-inns par l’émission à 1.125 de 10.000 actions de 1.000 francs. En 1928, les actions de \\ AQQ francs ont été divisées en titres de 500 francs et le capital a été. porté à 49 millions par la création de 44-000 actions de 500 francs dont 4.000 remises pour apport et 40.000 émises à 575 francs. En 1932, le capital a été porté à 68 millions par la création de 52.000 actions de 500 francs remises à la Société Terrains et Immeubles en rémunération de son apport-fusion. Ramené en 1935 à 65 millions par. Je rachat en Bourse et l’annulation de 6.000 actions de 500 francs, ensuite à 39 millions par la réduction de 500 francs à 300 francs de la valeur nominale des 130.000 actions restant, puis en février 1936 à 37.200.000, par le rachat et l’annulation de 6.000 actions, et en avril 1936 à 36 millions par le rachat et l’annulation de 4.000 actions de 300 fr., puis en décembre 1937 à 30 millions par le rachat et l’annulation de 20.000 actions. En février 1938, à 21.900.000 par rachat et annulation de 27.000 actions."
    },
    {
      "amount": "51.100.000",
      "currency": "Franc",
      "infodate": "1949-11-29",
      "source": "annuaire_df_1953",
      "comments": "72 millions de fr., divisé en 18.000 actions de 4.000 fr. A l'origine, 10 millions, en 10:000 actions de 1.000 fr. Porté en juillet 1924 à 20 millions par l'émission à 1.125 fr. de 10.000 actions de 1.000 fr. En 1928, les actions de 1.000 fr. ont été divisées en titres de 500 fr. et le capital a été porté à 42 millions par la création de 44.000 actions de 500 fr. dont 4.000 remises pour apport et 40.000 émises à 575 fr. En 1932, le capital a été porté à 68 millions par la création de 52.000 actions de 500 fr. remises à la Société Terrains et Immeubles en rémunération de son apport-fusion. Ramené en 1935 à 65 millions par le rachat en Bourse et l'annulation de 6.000 actions i de 500 fr. ; ensuite à 39 millions par la réduction de 500 fr. à 300 fr. de la valeur nominale des actions; puis par le rachat et l'annulation d'actions à 36 millions en 1936; à 30 millions en 1937 et à, 21.900.000 fr. en 1938. Porté le 29 novembre 1949 à 51.100:000 fr. par élévation du nominal de 300 à 700 fr. Ramené en 1950 à 47.450.000 fr. par remboursement de 50 fr. par action. Titres regroupés à partir du 16 avril 1951. Réduit en 1952 à 46.800.000 fr. par annulation de .250 actions de 2.600 fr., puis porté à 72 millions par élévation du nominal à 4.000 fr. Une Assemblée extraordinaire du 30 décembre 1941 a créé 73.000 bons de remboursement conditionnel, représentant les 200 fr. par action dont le capital a été. amputé en 1935, attribués à raison d'un bon par action et faisant bloc avec les actions. Ces bons ont été intégralement remboursés."
    },
    {
      "amount": "47.450.000",
      "currency": "Franc",
      "infodate": "1950-01-01",
      "source": "annuaire_df_1953",
      "comments": "72 millions de fr., divisé en 18.000 actions de 4.000 fr. A l'origine, 10 millions, en 10:000 actions de 1.000 fr. Porté en juillet 1924 à 20 millions par l'émission à 1.125 fr. de 10.000 actions de 1.000 fr. En 1928, les actions de 1.000 fr. ont été divisées en titres de 500 fr. et le capital a été porté à 42 millions par la création de 44.000 actions de 500 fr. dont 4.000 remises pour apport et 40.000 émises à 575 fr. En 1932, le capital a été porté à 68 millions par la création de 52.000 actions de 500 fr. remises à la Société Terrains et Immeubles en rémunération de son apport-fusion. Ramené en 1935 à 65 millions par le rachat en Bourse et l'annulation de 6.000 actions i de 500 fr. ; ensuite à 39 millions par la réduction de 500 fr. à 300 fr. de la valeur nominale des actions; puis par le rachat et l'annulation d'actions à 36 millions en 1936; à 30 millions en 1937 et à, 21.900.000 fr. en 1938. Porté le 29 novembre 1949 à 51.100:000 fr. par élévation du nominal de 300 à 700 fr. Ramené en 1950 à 47.450.000 fr. par remboursement de 50 fr. par action. Titres regroupés à partir du 16 avril 1951. Réduit en 1952 à 46.800.000 fr. par annulation de .250 actions de 2.600 fr., puis porté à 72 millions par élévation du nominal à 4.000 fr. Une Assemblée extraordinaire du 30 décembre 1941 a créé 73.000 bons de remboursement conditionnel, représentant les 200 fr. par action dont le capital a été. amputé en 1935, attribués à raison d'un bon par action et faisant bloc avec les actions. Ces bons ont été intégralement remboursés."
    },
    {
      "amount": "46.800.000",
      "currency": "Franc",
      "infodate": "1952-01-01",
      "source": "annuaire_df_1953",
      "comments": "72 millions de fr., divisé en 18.000 actions de 4.000 fr. A l'origine, 10 millions, en 10:000 actions de 1.000 fr. Porté en juillet 1924 à 20 millions par l'émission à 1.125 fr. de 10.000 actions de 1.000 fr. En 1928, les actions de 1.000 fr. ont été divisées en titres de 500 fr. et le capital a été porté à 42 millions par la création de 44.000 actions de 500 fr. dont 4.000 remises pour apport et 40.000 émises à 575 fr. En 1932, le capital a été porté à 68 millions par la création de 52.000 actions de 500 fr. remises à la Société Terrains et Immeubles en rémunération de son apport-fusion. Ramené en 1935 à 65 millions par le rachat en Bourse et l'annulation de 6.000 actions i de 500 fr. ; ensuite à 39 millions par la réduction de 500 fr. à 300 fr. de la valeur nominale des actions; puis par le rachat et l'annulation d'actions à 36 millions en 1936; à 30 millions en 1937 et à, 21.900.000 fr. en 1938. Porté le 29 novembre 1949 à 51.100:000 fr. par élévation du nominal de 300 à 700 fr. Ramené en 1950 à 47.450.000 fr. par remboursement de 50 fr. par action. Titres regroupés à partir du 16 avril 1951. Réduit en 1952 à 46.800.000 fr. par annulation de .250 actions de 2.600 fr., puis porté à 72 millions par élévation du nominal à 4.000 fr. Une Assemblée extraordinaire du 30 décembre 1941 a créé 73.000 bons de remboursement conditionnel, représentant les 200 fr. par action dont le capital a été. amputé en 1935, attribués à raison d'un bon par action et faisant bloc avec les actions. Ces bons ont été intégralement remboursés."
    },
    {
      "amount": "72.000.000",
      "currency": "Franc",
      "infodate": "1952-01-02",
      "source": "annuaire_df_1953",
      "comments": "72 millions de fr., divisé en 18.000 actions de 4.000 fr. A l'origine, 10 millions, en 10:000 actions de 1.000 fr. Porté en juillet 1924 à 20 millions par l'émission à 1.125 fr. de 10.000 actions de 1.000 fr. En 1928, les actions de 1.000 fr. ont été divisées en titres de 500 fr. et le capital a été porté à 42 millions par la création de 44.000 actions de 500 fr. dont 4.000 remises pour apport et 40.000 émises à 575 fr. En 1932, le capital a été porté à 68 millions par la création de 52.000 actions de 500 fr. remises à la Société Terrains et Immeubles en rémunération de son apport-fusion. Ramené en 1935 à 65 millions par le rachat en Bourse et l'annulation de 6.000 actions i de 500 fr. ; ensuite à 39 millions par la réduction de 500 fr. à 300 fr. de la valeur nominale des actions; puis par le rachat et l'annulation d'actions à 36 millions en 1936; à 30 millions en 1937 et à, 21.900.000 fr. en 1938. Porté le 29 novembre 1949 à 51.100:000 fr. par élévation du nominal de 300 à 700 fr. Ramené en 1950 à 47.450.000 fr. par remboursement de 50 fr. par action. Titres regroupés à partir du 16 avril 1951. Réduit en 1952 à 46.800.000 fr. par annulation de .250 actions de 2.600 fr., puis porté à 72 millions par élévation du nominal à 4.000 fr. Une Assemblée extraordinaire du 30 décembre 1941 a créé 73.000 bons de remboursement conditionnel, représentant les 200 fr. par action dont le capital a été. amputé en 1935, attribués à raison d'un bon par action et faisant bloc avec les actions. Ces bons ont été intégralement remboursés."
    }
  ],
  "profit_dividends": [
    {
      "first_date": "1924-12-31",
      "last_date": "1951-12-31",
      "obs_count": 187
    }
  ],
  "public_status": false,
  "stock_exchanges": {
    "1": {
      "id": 1,
      "name": "Paris (Official List)",
      "listings_stats": {
        "start_date": "1924-10-16"
      },
      "spot_prices_stats": {
        "start_date": "1924-10-16",
        "end_date": "1967-10-16"
      }
    }
  },
  "securities": {
    "7834": {
      "id": 7834,
      "name": "Immobilia, act. 300 fr., t. p. (n° 1 à 134000)",
      "share_type": {
        "id": 1,
        "name": "Stock (Action)"
      },
      "types": [
        {
          "start_date": "1924-10-16",
          "end_date": "3999-12-31",
          "id": 18,
          "name": "Action",
          "stock_group": "S"
        }
      ],
      "start_date": "1924-10-16",
      "end_date": "3999-12-31",
      "prices_from": "1924-10-16",
      "prices_to": "1946-12-16",
      "is_mainstock": 1,
      "prices_count": 551
    },
    "8986": {
      "id": 8986,
      "name": "Immobilia, act. de 1000 fr., t.p. (droit et c. 6 att.)",
      "share_type": {
        "id": 1,
        "name": "Stock (Action)"
      },
      "types": [
        {
          "start_date": "1928-04-10",
          "end_date": "3999-12-31",
          "id": 11,
          "name": "Action ordinaire",
          "stock_group": "S"
        }
      ],
      "start_date": "1928-04-10",
      "end_date": "3999-12-31",
      "prices_from": "1928-04-10",
      "prices_to": "1928-04-16",
      "is_mainstock": 0,
      "prices_count": 2
    },
    "12380": {
      "id": 12380,
      "name": "Immobilia (Etabl. Financier), act. 700 f., t. p.",
      "share_type": {
        "id": 1,
        "name": "Stock (Action)"
      },
      "types": [
        {
          "start_date": "1946-12-30",
          "end_date": "3999-12-31",
          "id": 18,
          "name": "Action",
          "stock_group": "S"
        }
      ],
      "start_date": "1946-12-30",
      "end_date": "3999-12-31",
      "prices_from": "1946-12-30",
      "prices_to": "1951-10-31",
      "is_mainstock": 0,
      "prices_count": 114
    },
    "13840": {
      "id": 13840,
      "name": "Immobilia (Etabl. Financier), act. 4000 fr., t.p.",
      "share_type": {
        "id": 1,
        "name": "Stock (Action)"
      },
      "types": [
        {
          "start_date": "1951-04-16",
          "end_date": "3999-12-31",
          "id": 11,
          "name": "Action ordinaire",
          "stock_group": "S"
        }
      ],
      "start_date": "1951-04-16",
      "end_date": "3999-12-31",
      "prices_from": "1951-04-16",
      "prices_to": "1967-10-16",
      "is_mainstock": 0,
      "prices_count": 419
    },
    "15211": {
      "id": 15211,
      "name": "Immobilia (Etabliss. Financier), act. (nos 24001 à 39400)(c. 7 att.)",
      "share_type": {
        "id": 1,
        "name": "Stock (Action)"
      },
      "types": [
        {
          "start_date": "1956-04-09",
          "end_date": "3999-12-31",
          "id": 11,
          "name": "Action ordinaire",
          "stock_group": "S"
        }
      ],
      "start_date": "1956-04-09",
      "end_date": "3999-12-31",
      "prices_from": "1956-04-09",
      "prices_to": "1956-10-31",
      "is_mainstock": 0,
      "prices_count": 26
    },
    "15934": {
      "id": 15934,
      "name": "Immobilia (Banque de Crédit à long et moyen terme), 1959 à intérêt crois. et convertible (en act. du 1er janvier au 31 mars 1963 (Avis 34704) 1964-78",
      "share_type": {
        "id": 2,
        "name": "Bond (Obligation)"
      },
      "types": [
        {
          "start_date": "1959-08-14",
          "end_date": "3999-12-31",
          "id": 1001,
          "name": "Obligation ordinaire ou classique",
          "stock_group": "B"
        }
      ],
      "start_date": "1959-08-14",
      "end_date": "3999-12-31",
      "prices_from": "1959-08-14",
      "prices_to": "1963-03-15",
      "is_mainstock": 0,
      "prices_count": 89
    },
    "17939": {
      "id": 17939,
      "name": "Immobilia (Banque de Crédit à long et moyen terme), Act. nouv. (Jce 1/1/63)",
      "share_type": {
        "id": 1,
        "name": "Stock (Action)"
      },
      "types": [
        {
          "start_date": "1963-04-01",
          "end_date": "3999-12-31",
          "id": 18,
          "name": "Action",
          "stock_group": "S"
        }
      ],
      "start_date": "1963-04-01",
      "end_date": "3999-12-31",
      "prices_from": "1963-04-30",
      "prices_to": "1963-06-17",
      "is_mainstock": 0,
      "prices_count": 4
    },
    "102979": {
      "id": 102979,
      "name": "Act. Société Immobilia (droit et coupon 6). Pour 1 action anc. De 1000 fr., 2 act. Nouvelles de 500 francs émises à 575 francs.",
      "share_type": {
        "id": 4,
        "name": "Rights (Droits)"
      },
      "types": [
        {
          "start_date": "1000-01-01",
          "end_date": "1928-04-27",
          "id": 501,
          "name": "Droit de souscription",
          "stock_group": "R"
        }
      ],
      "start_date": "1000-01-01",
      "end_date": "1928-04-27",
      "prices_from": "1928-04-11",
      "prices_to": "1928-04-11",
      "is_mainstock": 0,
      "prices_count": 0
    }
  }
}