{
  "id": 2426,
  "names": [
    "\" LA HENIN \" COMPAGNIE FINANCIERE INDUSTRIELLE ET IMMOBILIERE (En Liquidation)",
    "\" LA HENIN\" Compagnie FINANCIERE INDUSTRIELLE ET IMMOBILIERE",
    "\"LA HENIN\" COMPAGNIE FINANCIÈRE INDUSTRIELLE ET IMMOBILIÈRE",
    "Hénin (La) (Cie financière, Industrielle et Immobilière)",
    "« LA HENIN » COMPAGNIE FINANCIÈRE INDUSTRIELLE ET IMMOBILIÈRE"
  ],
  "name": "\"LA HENIN\" COMPAGNIE FINANCIÈRE INDUSTRIELLE ET IMMOBILIÈRE",
  "balance_sheets": [
    {
      "start_date": "1930-12-31",
      "source": "Annuaire Desfossés 1932",
      "page": null
    },
    {
      "start_date": "1932-12-31",
      "source": "Annuaire Desfossés 1936",
      "page": null
    },
    {
      "start_date": "1933-12-31",
      "source": "Annuaire Desfossés 1937",
      "page": "1751"
    },
    {
      "start_date": "1934-12-31",
      "source": "Annuaire Desfossés 1937",
      "page": "1751"
    },
    {
      "start_date": "1935-12-31",
      "source": "Annuaire Desfossés 1940",
      "page": null
    },
    {
      "start_date": "1936-12-31",
      "source": "Annuaire Desfossés 1940",
      "page": null
    },
    {
      "start_date": "1937-12-31",
      "source": "Annuaire Desfossés 1940",
      "page": null
    },
    {
      "start_date": "1938-12-31",
      "source": "Annuaire Desfossés 1945",
      "page": "441"
    },
    {
      "start_date": "1942-12-31",
      "source": "Annuaire Desfossés 1945",
      "page": "441"
    },
    {
      "start_date": "1943-12-31",
      "source": "Annuaire Desfossés 1945",
      "page": "441"
    },
    {
      "start_date": "1944-12-31",
      "source": "Annuaire Desfossés 1948",
      "page": "474"
    },
    {
      "start_date": "1945-12-31",
      "source": "Annuaire Desfossés 1948",
      "page": "474"
    },
    {
      "start_date": "1946-12-31",
      "source": "Annuaire Desfossés 1948",
      "page": "474"
    },
    {
      "start_date": "1947-12-31",
      "source": "Annuaire Desfossés 1953",
      "page": "303"
    },
    {
      "start_date": "1948-12-31",
      "source": "Annuaire Desfossés 1953",
      "page": "303"
    },
    {
      "start_date": "1949-12-31",
      "source": "Annuaire Desfossés 1953",
      "page": "303"
    },
    {
      "start_date": "1950-12-31",
      "source": "Annuaire Desfossés 1953",
      "page": "303"
    },
    {
      "start_date": "1951-12-31",
      "source": "Annuaire Desfossés 1953",
      "page": "303"
    }
  ],
  "balance_sheets_stats": {
    "start_date": "1930-12-31",
    "end_date": "1951-12-31"
  },
  "locations_stats": {
    "start_date": "1940-01-01",
    "end_date": "1953-12-31"
  },
  "locations": {
    "Siège social": [
      {
        "location_types_id": 1,
        "location_type": "Siège social",
        "address": "Rue saint-dominique, 35",
        "city": "Paris",
        "district": "Paris",
        "country": "France",
        "in_yearbook_from": 1940,
        "in_yearbook_to": 1953
      }
    ]
  },
  "persons": [
    {
      "persons_count": 8,
      "yearbook": "Annuaire Desfossés 1940",
      "source": "annuaire_df_1940",
      "page": null
    },
    {
      "persons_count": 2,
      "yearbook": "Annuaire Desfossés 1945",
      "source": "annuaire_df_1945",
      "page": "441"
    },
    {
      "persons_count": 6,
      "yearbook": "Annuaire Desfossés 1948",
      "source": "annuaire_df_1948",
      "page": "474"
    },
    {
      "persons_count": 10,
      "yearbook": "Annuaire Desfossés 1953",
      "source": "annuaire_df_1953",
      "page": "303"
    }
  ],
  "persons_stats": {
    "persons_count": 20,
    "start_date": "1940-01-01",
    "end_date": "1953-12-31"
  },
  "yearbooks_ocrs": [
    {
      "source": "annuaire_df_1937",
      "yearbook": "Annuaire Desfossés 1937",
      "page": "1751"
    },
    {
      "source": "annuaire_df_1940",
      "yearbook": "Annuaire Desfossés 1940",
      "page": null
    },
    {
      "source": "annuaire_df_1945",
      "yearbook": "Annuaire Desfossés 1945",
      "page": "441"
    },
    {
      "source": "annuaire_df_1948",
      "yearbook": "Annuaire Desfossés 1948",
      "page": "474"
    },
    {
      "source": "annuaire_df_1953",
      "yearbook": "Annuaire Desfossés 1953",
      "page": "303"
    }
  ],
  "juridical_status": [
    {
      "juridical_status": "Société Anonyme (Libre)",
      "start_date": "1930-01-01",
      "end_date": "2020-01-01",
      "comments": "Société anonyme française constituée en 1930 pour une duree de 90 ans.",
      "source": "annuaire_df_1940"
    }
  ],
  "equity_capital": [
    {
      "amount": "38.000.000",
      "currency": "Franc",
      "infodate": "1930-01-01",
      "source": "annuaire_df_1940",
      "comments": "38.000.000 de francs, divisé en 380.000 actions de 100 francs dont 38.000 non libérées et 342.000 entièrement libérées."
    },
    {
      "amount": "61.560.000",
      "currency": "Franc",
      "infodate": "1948-01-01",
      "source": "annuaire_df_1948",
      "comments": "61.560.000 francs, divisé en 615.600 actions de 100 francs entièrement libérées."
    },
    {
      "amount": "361.000.000",
      "currency": "Franc",
      "infodate": "1953-01-01",
      "source": "annuaire_df_1953",
      "comments": "361 millions de fr., divisé en 72.200 actions de 5.000 fr."
    }
  ],
  "profit_dividends": [
    {
      "first_date": "1931-12-31",
      "last_date": "1951-12-31",
      "obs_count": 154
    }
  ],
  "public_status": false,
  "stock_exchanges": {
    "1": {
      "id": 1,
      "name": "Paris (Official List)",
      "listings_stats": {
        "start_date": "1933-03-03"
      },
      "spot_prices_stats": {
        "start_date": "1933-03-03",
        "end_date": "1953-01-15"
      }
    }
  },
  "securities": {
    "10327": {
      "id": 10327,
      "name": "Hénin (La) (Cie Financière, Industrielle et Immobil.), act. 100 fr., t. p.",
      "share_type": {
        "id": 1,
        "name": "Stock (Action)"
      },
      "types": [
        {
          "start_date": "1933-03-03",
          "end_date": "3999-12-31",
          "id": 18,
          "name": "Action",
          "stock_group": "S"
        }
      ],
      "start_date": "1933-03-03",
      "end_date": "3999-12-31",
      "prices_from": "1933-03-03",
      "prices_to": "1951-08-31",
      "is_mainstock": 1,
      "prices_count": 487
    },
    "13532": {
      "id": 13532,
      "name": "Hénin (La) (Cie Financière, industrielle et Immobil.), act. 2500 fr., t.p. (n° 722001 à 794200)",
      "share_type": {
        "id": 1,
        "name": "Stock (Action)"
      },
      "types": [
        {
          "start_date": "1950-02-14",
          "end_date": "3999-12-31",
          "id": 18,
          "name": "Action",
          "stock_group": "S"
        }
      ],
      "start_date": "1950-02-14",
      "end_date": "3999-12-31",
      "prices_from": "1950-02-14",
      "prices_to": "1953-01-15",
      "is_mainstock": 0,
      "prices_count": 74
    },
    "100548": {
      "id": 100548,
      "name": "Act. Hénin (La) (Cie Fin. Indust. et Imm.) (droit et coupon 16 ou bon de droit)",
      "share_type": {
        "id": 4,
        "name": "Rights (Droits)"
      },
      "types": [
        {
          "start_date": "1946-05-10",
          "end_date": "1947-06-11",
          "id": 501,
          "name": "Droit de souscription",
          "stock_group": "R"
        }
      ],
      "start_date": "1946-05-10",
      "end_date": "1947-06-11",
      "prices_from": "1946-05-10",
      "prices_to": "1946-05-31",
      "is_mainstock": 0,
      "prices_count": 3
    },
    "104594": {
      "id": 104594,
      "name": "Hénin ( La), coupon 16",
      "share_type": {
        "id": 5,
        "name": "Droits de souscription"
      },
      "types": [
        {
          "start_date": "1946-06-07",
          "end_date": "1946-06-27",
          "id": 501,
          "name": "Droit de souscription",
          "stock_group": "R"
        }
      ],
      "start_date": "1946-06-07",
      "end_date": "1946-06-27",
      "prices_from": "1946-06-17",
      "prices_to": "1946-06-17",
      "is_mainstock": 0,
      "prices_count": 1
    }
  }
}