{
  "id": 12112,
  "names": [
    "THE RUSSO-ROUMANIAN OIL COMPANY, LIMITED",
    "The Russo-Roumanian Oil Company Limited"
  ],
  "name": "The Russo-Roumanian Oil Company Limited",
  "balance_sheets": [],
  "balance_sheets_stats": {
    "start_date": null,
    "end_date": null
  },
  "locations_stats": {
    "start_date": "1914-01-01",
    "end_date": "1914-12-31"
  },
  "locations": {
    "Siège social": [
      {
        "location_types_id": 1,
        "location_type": "Siège social",
        "address": "Trafalgar buildings, trafalgar square",
        "city": "Londres",
        "district": "Angleterre",
        "country": "Grande Bretagne et Irlande du Nord",
        "in_yearbook_from": 1914,
        "in_yearbook_to": 1914
      }
    ]
  },
  "persons": [],
  "persons_stats": {
    "persons_count": 0,
    "start_date": null,
    "end_date": null
  },
  "yearbooks_ocrs": [
    {
      "source": "annuaire_df_1914",
      "yearbook": "Annuaire Desfossés 1914",
      "page": "994"
    }
  ],
  "juridical_status": [
    {
      "juridical_status": "Société Anonyme (Libre)",
      "start_date": "1912-10-18",
      "end_date": "3999-12-31",
      "comments": "Société anonyme anglaise, constituée le 18 octobre 1912.",
      "source": "annuaire_df_1914"
    }
  ],
  "equity_capital": [],
  "profit_dividends": [],
  "public_status": false
}