{
  "id": 843,
  "names": [
    "Gaz Anglo-Français"
  ],
  "name": "Gaz Anglo-Français",
  "balance_sheets": [],
  "balance_sheets_stats": {
    "start_date": null,
    "end_date": null
  },
  "locations_stats": {
    "start_date": null,
    "end_date": null
  },
  "locations": {},
  "persons": [],
  "persons_stats": {
    "persons_count": 0,
    "start_date": null,
    "end_date": null
  },
  "yearbooks_ocrs": [],
  "juridical_status": [],
  "equity_capital": [],
  "profit_dividends": [],
  "public_status": false,
  "stock_exchanges": {
    "1": {
      "id": 1,
      "name": "Paris (Official List)",
      "listings_stats": {
        "start_date": "1846-12-24"
      },
      "spot_prices_stats": {
        "start_date": "1846-12-24",
        "end_date": "1846-12-24"
      }
    }
  },
  "securities": {
    "498": {
      "id": 498,
      "name": "Gaz Anglo-Français",
      "share_type": {
        "id": 6,
        "name": "UNKNOWN"
      },
      "types": [
        {
          "start_date": "1846-12-24",
          "end_date": "3999-12-31",
          "id": 1,
          "name": "UNKNOWN",
          "stock_group": "U"
        }
      ],
      "start_date": "1846-12-24",
      "end_date": "3999-12-31",
      "prices_from": "1846-12-24",
      "prices_to": "1846-12-24",
      "is_mainstock": 0,
      "prices_count": 1
    }
  }
}