{
  "id": 4709,
  "names": [
    "SOCIETE DE VERRERIES Paul LAURENT ET DE L'ANJOU",
    "Société de Verreries Paul Laurent et de l'Anjou"
  ],
  "name": "SOCIETE DE VERRERIES Paul LAURENT ET DE L'ANJOU",
  "balance_sheets": [
    {
      "start_date": "1942-12-31",
      "source": "Annuaire Desfossés 1945",
      "page": "1614"
    },
    {
      "start_date": "1943-12-31",
      "source": "Annuaire Desfossés 1945",
      "page": "1614"
    },
    {
      "start_date": "1944-12-31",
      "source": "Annuaire Desfossés 1948",
      "page": "1882"
    },
    {
      "start_date": "1945-12-31",
      "source": "Annuaire Desfossés 1948",
      "page": "1882"
    },
    {
      "start_date": "1946-12-31",
      "source": "Annuaire Desfossés 1948",
      "page": "1882"
    },
    {
      "start_date": "1947-12-31",
      "source": "Annuaire Desfossés 1948",
      "page": "1882"
    },
    {
      "start_date": "1948-12-31",
      "source": "Annuaire Desfossés 1953",
      "page": "1475"
    },
    {
      "start_date": "1949-12-31",
      "source": "Annuaire Desfossés 1953",
      "page": "1475"
    },
    {
      "start_date": "1950-12-31",
      "source": "Annuaire Desfossés 1953",
      "page": "1475"
    },
    {
      "start_date": "1951-12-31",
      "source": "Annuaire Desfossés 1953",
      "page": "1475"
    }
  ],
  "balance_sheets_stats": {
    "start_date": "1942-12-31",
    "end_date": "1951-12-31"
  },
  "locations_stats": {
    "start_date": "1945-01-01",
    "end_date": "1953-12-31"
  },
  "locations": {
    "Siège social": [
      {
        "location_types_id": 1,
        "location_type": "Siège social",
        "address": "Rue cambacérès, 4",
        "city": "Paris",
        "district": "Paris",
        "country": "France",
        "in_yearbook_from": 1945,
        "in_yearbook_to": 1953
      }
    ],
    "Usines": [
      {
        "location_types_id": 3,
        "location_type": "Usines",
        "address": null,
        "city": "Angers",
        "district": "Maine-et-Loire",
        "country": "France",
        "in_yearbook_from": 1948,
        "in_yearbook_to": 1948
      },
      {
        "location_types_id": 3,
        "location_type": "Usines",
        "address": null,
        "city": "Le Pont-Saint-Esprit",
        "district": "Gard",
        "country": "France",
        "in_yearbook_from": 1948,
        "in_yearbook_to": 1948
      },
      {
        "location_types_id": 3,
        "location_type": "Usines",
        "address": null,
        "city": "Romain le Puy",
        "district": "Loire",
        "country": "France",
        "in_yearbook_from": 1948,
        "in_yearbook_to": 1948
      },
      {
        "location_types_id": 3,
        "location_type": "Usines",
        "address": null,
        "city": "Saint Yorre",
        "district": "Allier",
        "country": "France",
        "in_yearbook_from": 1948,
        "in_yearbook_to": 1948
      }
    ]
  },
  "persons": [
    {
      "persons_count": 2,
      "yearbook": "Annuaire Desfossés 1945",
      "source": "annuaire_df_1945",
      "page": "1614"
    },
    {
      "persons_count": 5,
      "yearbook": "Annuaire Desfossés 1948",
      "source": "annuaire_df_1948",
      "page": "1882"
    },
    {
      "persons_count": 14,
      "yearbook": "Annuaire Desfossés 1953",
      "source": "annuaire_df_1953",
      "page": "1475"
    }
  ],
  "persons_stats": {
    "persons_count": 20,
    "start_date": "1945-01-01",
    "end_date": "1953-12-31"
  },
  "yearbooks_ocrs": [
    {
      "source": "annuaire_df_1945",
      "yearbook": "Annuaire Desfossés 1945",
      "page": "1614"
    },
    {
      "source": "annuaire_df_1948",
      "yearbook": "Annuaire Desfossés 1948",
      "page": "1882"
    },
    {
      "source": "annuaire_df_1953",
      "yearbook": "Annuaire Desfossés 1953",
      "page": "1475"
    }
  ],
  "juridical_status": [
    {
      "juridical_status": "Société Anonyme (Libre)",
      "start_date": "1924-05-16",
      "end_date": "2023-05-16",
      "comments": "Société anonyme française constituée le 16 mai 1924, pour une durée de 99 ans. Dénommée primitivement Verreries du Saumurois, elle a pris en 1937 Je nom de Verreries Mécaniques de l’Anjou et du Saumurois, après avoir absorbé les Verreries Mécaniques de l’Anjou, et, en 1943, son titre actuel, à la suite de sa fusion avec la Société des Verreries Paul Laurent et Cie.",
      "source": "annuaire_df_1945"
    }
  ],
  "equity_capital": [
    {
      "amount": "10.000.000",
      "currency": "Franc",
      "infodate": "1924-05-16",
      "source": "annuaire_df_1948",
      "comments": " 80 millions, en 400.000 actions de 200 fr. Porté en 1943 de 10 à 40 millions par la création de 300.000 actions d'apport de 100 fr., dont 50.000 remises à Saint-Gobain contre 2.400 actions de 500 fr. Verreries Paul Laurent (novembre 1943) et 250.000 à cette dernière Société en vue de son absorption à compter du 1er juillet 1943 (décembre 1943). Porté en 1946 à 80 millions par incorporation «de réserves et élévation du nominal des actions de 100 à 200 francs."
    },
    {
      "amount": "40.000.000",
      "currency": "Franc",
      "infodate": "1943-07-01",
      "source": "annuaire_df_1945",
      "comments": "Capital : 40 millions, en 400.000 actions de 100 fr. Porté en 1943 de 10 à 40 millions par la création de 300.000 actions d’apport de 100 fr., dont 50.000 remises à Saint-Gobain contre 2.400 actions de 500 fr. Verreries Paul Laurent (novembre 1943) et 250.000 à cette dernière Société en vue de son absorption à compter du 1er juillet 1943 (décembre 1943)."
    },
    {
      "amount": "80.000.000",
      "currency": "Franc",
      "infodate": "1946-01-01",
      "source": "annuaire_df_1948",
      "comments": "Capital : 80 millions, en 400.000 actions de 200 fr. Porté en 1943 de 10 à 40 millions par la création de 300.000 actions d'apport de 100 fr., dont 50.000 remises à Saint-Gobain contre 2.400 actions de 500 fr. Verreries Paul Laurent (novembre 1943) et 250.000 à cette dernière Société en vue de son absorption à compter du 1er juillet 1943 (décembre 1943). Porté en 1946 à 80 millions par incorporation «de réserves et élévation du nominal des actions de 100 à 200 francs."
    },
    {
      "amount": "240.000.000",
      "currency": "Franc",
      "infodate": "1949-01-01",
      "source": "annuaire_df_1953",
      "comments": "240 millions, divisé en 400.000 actions de 850 fr. Porté en 1943 de 10 à 40 millions ' par la création de 300.000 actions d'apport de 100 fr. dont 50.000 remises à Saint-Gobain contre 2.400 actions de 500 fr. Verreries Paul Laurent (novembre 1943) et 250.000 à cette dernière Société en vue de son absorption à compter du 1er juillet 1943 (décembre 1943). Porté en 1946 à 80 millions par incorporation de réserves et élévation du nominal des actions de 100 à 200 fr. Porté en 1949 à 240 millions par élévation du nominal de 200 à 600 fr. Porté en 1950 à 260 millions et par incorporation de réserves et' bénéfices et par élévation du nominal à 650 fr. Porté en 1951 à 340 millions par élévation du nominal de 650 à 850 fr."
    },
    {
      "amount": "260.000.000",
      "currency": "Franc",
      "infodate": "1950-01-01",
      "source": "annuaire_df_1953",
      "comments": "240 millions, divisé en 400.000 actions de 850 fr. Porté en 1943 de 10 à 40 millions ' par la création de 300.000 actions d'apport de 100 fr. dont 50.000 remises à Saint-Gobain contre 2.400 actions de 500 fr. Verreries Paul Laurent (novembre 1943) et 250.000 à cette dernière Société en vue de son absorption à compter du 1er juillet 1943 (décembre 1943). Porté en 1946 à 80 millions par incorporation de réserves et élévation du nominal des actions de 100 à 200 fr. Porté en 1949 à 240 millions par élévation du nominal de 200 à 600 fr. Porté en 1950 à 260 millions et par incorporation de réserves et' bénéfices et par élévation du nominal à 650 fr. Porté en 1951 à 340 millions par élévation du nominal de 650 à 850 fr."
    },
    {
      "amount": "340.000.000",
      "currency": "Franc",
      "infodate": "1951-01-01",
      "source": "annuaire_df_1953",
      "comments": "240 millions, divisé en 400.000 actions de 850 fr. Porté en 1943 de 10 à 40 millions ' par la création de 300.000 actions d'apport de 100 fr. dont 50.000 remises à Saint-Gobain contre 2.400 actions de 500 fr. Verreries Paul Laurent (novembre 1943) et 250.000 à cette dernière Société en vue de son absorption à compter du 1er juillet 1943 (décembre 1943). Porté en 1946 à 80 millions par incorporation de réserves et élévation du nominal des actions de 100 à 200 fr. Porté en 1949 à 240 millions par élévation du nominal de 200 à 600 fr. Porté en 1950 à 260 millions et par incorporation de réserves et' bénéfices et par élévation du nominal à 650 fr. Porté en 1951 à 340 millions par élévation du nominal de 650 à 850 fr."
    }
  ],
  "profit_dividends": [
    {
      "first_date": "1945-12-31",
      "last_date": "1951-12-31",
      "obs_count": 36
    }
  ],
  "public_status": false,
  "stock_exchanges": {
    "1": {
      "id": 1,
      "name": "Paris (Official List)",
      "listings_stats": {
        "start_date": "1962-01-02"
      },
      "spot_prices_stats": {
        "start_date": "1962-01-02",
        "end_date": "1973-08-31"
      }
    }
  },
  "securities": {
    "17286": {
      "id": 17286,
      "name": "Verreries P. Laurent et de l'Anjou 4,25 % 1944 1945-74",
      "share_type": {
        "id": 2,
        "name": "Bond (Obligation)"
      },
      "types": [
        {
          "start_date": "1962-01-02",
          "end_date": "3999-12-31",
          "id": 1001,
          "name": "Obligation ordinaire ou classique",
          "stock_group": "B"
        }
      ],
      "start_date": "1962-01-02",
      "end_date": "3999-12-31",
      "prices_from": "1962-01-02",
      "prices_to": "1962-12-17",
      "is_mainstock": 0,
      "prices_count": 24
    },
    "17287": {
      "id": 17287,
      "name": "Verreries P. Laurent et de l'Anjou 4,5 % 1947 1948-77",
      "share_type": {
        "id": 2,
        "name": "Bond (Obligation)"
      },
      "types": [
        {
          "start_date": "1962-01-02",
          "end_date": "3999-12-31",
          "id": 1001,
          "name": "Obligation ordinaire ou classique",
          "stock_group": "B"
        }
      ],
      "start_date": "1962-01-02",
      "end_date": "3999-12-31",
      "prices_from": "1962-01-02",
      "prices_to": "1973-08-31",
      "is_mainstock": 0,
      "prices_count": 280
    }
  }
}