{
  "id": 4575,
  "names": [
    "RAFFINERIES FRANÇAISES DE PETROLE DE L'ATLANTIQUE",
    "Raffineries Françaises de Pétrole de l'Atlantique"
  ],
  "name": "RAFFINERIES FRANÇAISES DE PETROLE DE L'ATLANTIQUE",
  "balance_sheets": [
    {
      "start_date": "1948-12-31",
      "source": "Annuaire Desfossés 1953",
      "page": "749"
    },
    {
      "start_date": "1949-12-31",
      "source": "Annuaire Desfossés 1953",
      "page": "749"
    },
    {
      "start_date": "1950-12-31",
      "source": "Annuaire Desfossés 1953",
      "page": "749"
    },
    {
      "start_date": "1951-12-31",
      "source": "Annuaire Desfossés 1953",
      "page": "749"
    }
  ],
  "balance_sheets_stats": {
    "start_date": "1948-12-31",
    "end_date": "1951-12-31"
  },
  "locations_stats": {
    "start_date": "1953-01-01",
    "end_date": "1953-12-31"
  },
  "locations": {
    "Siège social": [
      {
        "location_types_id": 1,
        "location_type": "Siège social",
        "address": null,
        "city": "Donges",
        "district": "Loire-Atlantique",
        "country": "France",
        "in_yearbook_from": 1953,
        "in_yearbook_to": 1953
      }
    ],
    "Comité de Direction / Délégation / Obligataires": [
      {
        "location_types_id": 13,
        "location_type": "Comité de Direction / Délégation / Obligataires",
        "address": "Avenue gourgaud, 15",
        "city": "Paris",
        "district": "Paris",
        "country": "France",
        "in_yearbook_from": 1953,
        "in_yearbook_to": 1953
      }
    ]
  },
  "persons": [
    {
      "persons_count": 14,
      "yearbook": "Annuaire Desfossés 1953",
      "source": "annuaire_df_1953",
      "page": "749"
    }
  ],
  "persons_stats": {
    "persons_count": 14,
    "start_date": "1953-01-01",
    "end_date": "1953-12-31"
  },
  "yearbooks_ocrs": [
    {
      "source": "annuaire_df_1953",
      "yearbook": "Annuaire Desfossés 1953",
      "page": "749"
    }
  ],
  "juridical_status": [
    {
      "juridical_status": "Société Anonyme (Libre)",
      "start_date": "1933-01-01",
      "end_date": "3999-12-31",
      "comments": "CONSTITUTION : Société anonyme, constituée en 1933, sous la dénomination « Pechelbronn Ouest ». Elle a pris sa raison sociale actuelle en' mars 1948, après concentration de sa raffinerie avec celle de la Société « Les Consommateurs de Pétrole », (aujourd'hui devenue « Société Française des Pétroles Serco »).",
      "source": "annuaire_df_1953"
    }
  ],
  "equity_capital": [
    {
      "amount": "20.000.000",
      "currency": "Franc",
      "infodate": "1933-01-01",
      "source": "annuaire_df_1953",
      "comments": "CAPITAL SOCIAL : 2.628 millions, divisé en 525.600 actions de 5.000 fr. À l'origine, 20 millions. Porté par étapes successives à 700 millions. Porté en 1949 à 875 millions par élévation du nominal à 2.500 fr., puis titres regroupés. Porté en 1950 à 1.460 millions par l'émission au pair de ' 117.000 actions de 5.000 fr., jouissance 1er janvier 1950 (2 nouv. pour 3 anc. de 5.000 fr.).\n Porté en 1952 à 2.628 millions par émission à 5.200 fr. de 233.600 actions de 5.000 fr. (4' pour 5)."
    },
    {
      "amount": "700.000.000",
      "currency": "Franc",
      "infodate": "1948-12-31",
      "source": "annuaire_df_1953",
      "comments": "2.628 millions, divisé en 525.600 actions de 5.000 fr. À l'origine, 20 millions. Porté par étapes successives à 700 millions. Porté en 1949 à 875 millions par élévation du nominal à 2.500 fr., puis titres regroupés. Porté en 1950 à 1.460 millions par l'émission au pair de ' 117.000 actions de 5.000 fr., jouissance 1er janvier 1950 (2 nouv. pour 3 anc. de 5.000 fr.)."
    },
    {
      "amount": "875.000.000",
      "currency": "Franc",
      "infodate": "1949-01-01",
      "source": "annuaire_df_1953",
      "comments": "2.628 millions, divisé en 525.600 actions de 5.000 fr. À l'origine, 20 millions. Porté par étapes successives à 700 millions. Porté en 1949 à 875 millions par élévation du nominal à 2.500 fr., puis titres regroupés. Porté en 1950 à 1.460 millions par l'émission au pair de ' 117.000 actions de 5.000 fr., jouissance 1er janvier 1950 (2 nouv. pour 3 anc. de 5.000 fr.)."
    },
    {
      "amount": "2.628.000.000",
      "currency": "Franc",
      "infodate": "1952-01-01",
      "source": "annuaire_df_1953",
      "comments": " CAPITAL SOCIAL : 2.628 millions, divisé en 525.600 actions de 5.000 fr. À l'origine, 20 millions. Porté par étapes successives à 700 millions. Porté en 1949 à 875 millions par élévation du nominal à 2.500 fr., puis titres regroupés. Porté en 1950 à 1.460 millions par l'émission au pair de ' 117.000 actions de 5.000 fr., jouissance 1er janvier 1950 (2 nouv. pour 3 anc. de 5.000 fr.).\n Porté en 1952 à 2.628 millions par émission à 5.200 fr. de 233.600 actions de 5.000 fr. (4' pour 5)."
    }
  ],
  "profit_dividends": [
    {
      "first_date": "1948-12-31",
      "last_date": "1951-12-31",
      "obs_count": 30
    }
  ],
  "public_status": false,
  "stock_exchanges": {
    "1": {
      "id": 1,
      "name": "Paris (Official List)",
      "listings_stats": {
        "start_date": "1949-09-22"
      },
      "spot_prices_stats": {
        "start_date": "1949-09-22",
        "end_date": "1955-07-15"
      }
    }
  },
  "securities": {
    "13359": {
      "id": 13359,
      "name": "Raffineries Françaises de Pétrole de l'Atlantique, act. 2500 fr., t.p. (n°s 1 à 27500 et 40958 à 350000)",
      "share_type": {
        "id": 1,
        "name": "Stock (Action)"
      },
      "types": [
        {
          "start_date": "1949-09-22",
          "end_date": "3999-12-31",
          "id": 18,
          "name": "Action",
          "stock_group": "S"
        }
      ],
      "start_date": "1949-09-22",
      "end_date": "3999-12-31",
      "prices_from": "1949-09-22",
      "prices_to": "1951-06-15",
      "is_mainstock": 0,
      "prices_count": 41
    },
    "13553": {
      "id": 13553,
      "name": "Raffineries Françaises de Pétrole de l'Atlantique, act. 5000 fr., t. p. (c. 2 att.)",
      "share_type": {
        "id": 1,
        "name": "Stock (Action)"
      },
      "types": [
        {
          "start_date": "1950-03-01",
          "end_date": "3999-12-31",
          "id": 18,
          "name": "Action",
          "stock_group": "S"
        }
      ],
      "start_date": "1950-03-01",
      "end_date": "3999-12-31",
      "prices_from": "1950-03-02",
      "prices_to": "1955-07-15",
      "is_mainstock": 0,
      "prices_count": 137
    },
    "14566": {
      "id": 14566,
      "name": "Raffineries Françaises de Pétrole de l'Atlantique, act. 5000 f., 2500 f. p. (n° 292001 à 525600) (nom.)",
      "share_type": {
        "id": 1,
        "name": "Stock (Action)"
      },
      "types": [
        {
          "start_date": "1952-11-24",
          "end_date": "3999-12-31",
          "id": 11,
          "name": "Action ordinaire",
          "stock_group": "S"
        }
      ],
      "start_date": "1952-11-24",
      "end_date": "3999-12-31",
      "prices_from": "1952-11-24",
      "prices_to": "1953-06-30",
      "is_mainstock": 0,
      "prices_count": 16
    },
    "14798": {
      "id": 14798,
      "name": "Raffineries Françaises de Pétrole de l'Atlantique, A. 5000 f., t. p. (n° 292001 à 525600) (c. 8 barré att.)",
      "share_type": {
        "id": 1,
        "name": "Stock (Action)"
      },
      "types": [
        {
          "start_date": "1953-07-01",
          "end_date": "3999-12-31",
          "id": 11,
          "name": "Action ordinaire",
          "stock_group": "S"
        }
      ],
      "start_date": "1953-07-01",
      "end_date": "3999-12-31",
      "prices_from": "1953-07-02",
      "prices_to": "1954-06-30",
      "is_mainstock": 0,
      "prices_count": 27
    },
    "101221": {
      "id": 101221,
      "name": "Act. 2500 fr. Raffineries Pétrole Atlantique (droit et coupon 3) (2 actions nouv. Émises à 5000 fr., jce 1/1/50, pour 6 actions anciennes)",
      "share_type": {
        "id": 4,
        "name": "Rights (Droits)"
      },
      "types": [
        {
          "start_date": "1950-09-18",
          "end_date": "3999-12-31",
          "id": 501,
          "name": "Droit de souscription",
          "stock_group": "R"
        }
      ],
      "start_date": "1950-09-18",
      "end_date": "3999-12-31",
      "prices_from": null,
      "prices_to": null,
      "is_mainstock": 0,
      "prices_count": 0
    },
    "101243": {
      "id": 101243,
      "name": "Act. 5000 fr. Raffineries Pétrole Atlantique (droit et coupon 3) (2 actions nouv. Émises à 5000 fr., jce 1/1/50, pour 3 actions anciennes)",
      "share_type": {
        "id": 4,
        "name": "Rights (Droits)"
      },
      "types": [
        {
          "start_date": "1950-09-18",
          "end_date": "3999-12-31",
          "id": 501,
          "name": "Droit de souscription",
          "stock_group": "R"
        }
      ],
      "start_date": "1950-09-18",
      "end_date": "3999-12-31",
      "prices_from": "1950-09-18",
      "prices_to": "1950-09-18",
      "is_mainstock": 0,
      "prices_count": 1
    }
  }
}