{
  "id": 4525,
  "names": [
    "COMPAGNIE MINIERE DE L'OUBANGHI ORIENTAL (C. M. O. O.)",
    "COMPAGNIE MINIERE DE L'OUBANGHI ORIENTAL (C.M.O.O.)",
    "Cie MINIERE DE L'OUBANGHI ORIENTAL (C. M. O. O.)",
    "Cie MINIÈRE DE L'OUBANGHI ORIENTAL (C. M. O. O.)",
    "Compagnie Minière de l'Oubanghi Oriental"
  ],
  "name": "Cie MINIERE DE L'OUBANGHI ORIENTAL (C. M. O. O.)",
  "balance_sheets": [
    {
      "start_date": "1934-12-31",
      "source": "Annuaire Desfossés 1937",
      "page": "1192"
    },
    {
      "start_date": "1935-12-31",
      "source": "Annuaire Desfossés 1940",
      "page": null
    },
    {
      "start_date": "1936-12-31",
      "source": "Annuaire Desfossés 1940",
      "page": null
    },
    {
      "start_date": "1937-12-31",
      "source": "Annuaire Desfossés 1940",
      "page": null
    },
    {
      "start_date": "1938-12-31",
      "source": "Annuaire Desfossés 1945",
      "page": "905"
    },
    {
      "start_date": "1938-12-31",
      "source": "Annuaire Desfossés 1945",
      "page": "2294"
    },
    {
      "start_date": "1939-12-31",
      "source": "Annuaire Desfossés 1945",
      "page": "905"
    },
    {
      "start_date": "1939-12-31",
      "source": "Annuaire Desfossés 1945",
      "page": "2294"
    },
    {
      "start_date": "1944-12-31",
      "source": "Annuaire Desfossés 1948",
      "page": "967"
    },
    {
      "start_date": "1945-12-31",
      "source": "Annuaire Desfossés 1948",
      "page": "967"
    },
    {
      "start_date": "1946-12-31",
      "source": "Annuaire Desfossés 1948",
      "page": "967"
    },
    {
      "start_date": "1947-12-31",
      "source": "Annuaire Desfossés 1953",
      "page": "767"
    },
    {
      "start_date": "1948-12-31",
      "source": "Annuaire Desfossés 1953",
      "page": "767"
    },
    {
      "start_date": "1949-12-31",
      "source": "Annuaire Desfossés 1953",
      "page": "767"
    },
    {
      "start_date": "1950-12-31",
      "source": "Annuaire Desfossés 1953",
      "page": "767"
    },
    {
      "start_date": "1951-12-31",
      "source": "Annuaire Desfossés 1953",
      "page": "767"
    }
  ],
  "balance_sheets_stats": {
    "start_date": "1934-12-31",
    "end_date": "1951-12-31"
  },
  "locations_stats": {
    "start_date": "1937-01-01",
    "end_date": "1953-12-31"
  },
  "locations": {
    "Siège social": [
      {
        "location_types_id": 1,
        "location_type": "Siège social",
        "address": "Avenue des champs-elysées, 39",
        "city": "Paris",
        "district": "Paris",
        "country": "France",
        "in_yearbook_from": 1937,
        "in_yearbook_to": 1940
      },
      {
        "location_types_id": 1,
        "location_type": "Siège social",
        "address": "Avenue george-v, 21",
        "city": "Paris",
        "district": "Paris",
        "country": "France",
        "in_yearbook_from": 1945,
        "in_yearbook_to": 1953
      }
    ],
    "Siège d'exploitation": [
      {
        "location_types_id": 15,
        "location_type": "Siège d'exploitation",
        "address": null,
        "city": null,
        "district": null,
        "country": "Afrique équatoriale française",
        "in_yearbook_from": 1945,
        "in_yearbook_to": 1945
      },
      {
        "location_types_id": 15,
        "location_type": "Siège d'exploitation",
        "address": null,
        "city": null,
        "district": null,
        "country": "Cameroun",
        "in_yearbook_from": 1945,
        "in_yearbook_to": 1945
      }
    ]
  },
  "persons": [
    {
      "persons_count": 2,
      "yearbook": "Annuaire Desfossés 1940",
      "source": "annuaire_df_1940",
      "page": null
    },
    {
      "persons_count": 9,
      "yearbook": "Annuaire Desfossés 1945",
      "source": "annuaire_df_1945",
      "page": "2294"
    },
    {
      "persons_count": 9,
      "yearbook": "Annuaire Desfossés 1945",
      "source": "annuaire_df_1945",
      "page": "905"
    },
    {
      "persons_count": 6,
      "yearbook": "Annuaire Desfossés 1948",
      "source": "annuaire_df_1948",
      "page": "967"
    },
    {
      "persons_count": 14,
      "yearbook": "Annuaire Desfossés 1953",
      "source": "annuaire_df_1953",
      "page": "767"
    },
    {
      "persons_count": 5,
      "yearbook": null,
      "source": null,
      "page": null
    }
  ],
  "persons_stats": {
    "persons_count": 32,
    "start_date": "1928-01-01",
    "end_date": "1953-12-31"
  },
  "yearbooks_ocrs": [
    {
      "source": "annuaire_df_1937",
      "yearbook": "Annuaire Desfossés 1937",
      "page": "1192"
    },
    {
      "source": "annuaire_df_1940",
      "yearbook": "Annuaire Desfossés 1940",
      "page": null
    },
    {
      "source": "annuaire_df_1945",
      "yearbook": "Annuaire Desfossés 1945",
      "page": "2294"
    },
    {
      "source": "annuaire_df_1945",
      "yearbook": "Annuaire Desfossés 1945",
      "page": "905"
    },
    {
      "source": "annuaire_df_1948",
      "yearbook": "Annuaire Desfossés 1948",
      "page": "967"
    },
    {
      "source": "annuaire_df_1953",
      "yearbook": "Annuaire Desfossés 1953",
      "page": "767"
    }
  ],
  "juridical_status": [
    {
      "juridical_status": "Société Anonyme (Libre)",
      "start_date": "1928-01-01",
      "end_date": "2027-01-01",
      "comments": "Société anonyme française constituée en 1928 pour 99 ans.",
      "source": "annuaire_df_1940"
    }
  ],
  "equity_capital": [
    {
      "amount": "5.000.000",
      "currency": "Franc",
      "infodate": "1928-01-01",
      "source": "annuaire_df_1940",
      "comments": "Capital : 10 millions en 100.000 actions de 100 francs. A l’origine 2 millions, porté en 1928 à 5 millions, en 1932 à 8.450.000 francs par la création de 34.500 actions remises pour absorption de la Compagnie Indochinoise de Mines, et en décembre 1933 à 10 millions par l’émission de 15.500 actions nouvelles. Autorisation d’augmentation à 20 millions."
    },
    {
      "amount": "2.000.000",
      "currency": "Franc",
      "infodate": "1928-01-01",
      "source": "annuaire_df_1940",
      "comments": " A l’origine 2 millions francs"
    },
    {
      "amount": "8.450.000",
      "currency": "Franc",
      "infodate": "1932-01-01",
      "source": "annuaire_df_1940",
      "comments": "Capital : 10 millions en 100.000 actions de 100 francs. A l’origine 2 millions, porté en 1928 à 5 millions, en 1932 à 8.450.000 francs par la création de 34.500 actions remises pour absorption de la Compagnie Indochinoise de Mines, et en décembre 1933 à 10 millions par l’émission de 15.500 actions nouvelles. Autorisation d’augmentation à 20 millions."
    },
    {
      "amount": "10.000.000",
      "currency": "Franc",
      "infodate": "1933-12-01",
      "source": "annuaire_df_1940",
      "comments": "Capital : 10 millions en 100.000 actions de 100 francs. A l’origine 2 millions, porté en 1928 à 5 millions, en 1932 à 8.450.000 francs par la création de 34.500 actions remises pour absorption de la Compagnie Indochinoise de Mines, et en décembre 1933 à 10 millions par l’émission de 15.500 actions nouvelles. Autorisation d’augmentation à 20 millions."
    },
    {
      "amount": "20.000.000",
      "currency": "Franc",
      "infodate": "1942-07-01",
      "source": "annuaire_df_1945",
      "comments": "Capital 20 millions de francs, divisé en 20.000 actions de 100 francs. A ,l’origine 2 millions; porté en 1928 à 5 millions, en 1932. à 8.450.000 francs par. la création de 34.500 actions remises pour absorption de la 'Compagnie Indochinoise de Mines, en décembre 1933 à 10 millions .par l’émission de 15.500 actions nouvelles et en août 1942 à 20 millions par l’émission à 105 francs de 100.000 actions nouvelles jouissance 1er juillet 1942.- Le Conseil1 est autorisé à porter lè capital jusqu’à 50 millions."
    },
    {
      "amount": "40.000.000",
      "currency": "Franc",
      "infodate": "1945-01-01",
      "source": "annuaire_df_1948",
      "comments": "Capital : 100 millions de fraftes divisé en 1.000,000 actions de 100 francs. A l'origine 2 millions, porté en 1928 à 5 millions, en 1932 à 8.450.000 francs, par la création de 34.500 actions l'emises pour absorption de la Compagnie Indochinoise de Mines, en décembre 1933 à 10 millions par l'émission de 15.500 actions nouvelles et en août 1942 à 20 millions par l'émission à 105 francs de 100.000 actions nouvelles jouissance l,er juillet 1942. Porté en 1945 à 40 millions par l'émission à 160 fr. de 200.000 actions nouvelles de . 100 francs (1 nouv. pour 1 anc.), et en 1946 à 100 millions par l'émission à 110 fr. de 600.000 actions nouvelles de 100 fr. (3 nouv. nour 2 ann.L"
    },
    {
      "amount": "100.000.000",
      "currency": "Franc",
      "infodate": "1946-01-01",
      "source": "annuaire_df_1948",
      "comments": "Capital : 100 millions de fraftes divisé en 1.000,000 actions de 100 francs. A l'origine 2 millions, porté en 1928 à 5 millions, en 1932 à 8.450.000 francs, par la création de 34.500 actions l'emises pour absorption de la Compagnie Indochinoise de Mines, en décembre 1933 à 10 millions par l'émission de 15.500 actions nouvelles et en août 1942 à 20 millions par l'émission à 105 francs de 100.000 actions nouvelles jouissance l,er juillet 1942. Porté en 1945 à 40 millions par l'émission à 160 fr. de 200.000 actions nouvelles de . 100 francs (1 nouv. pour 1 anc.), et en 1946 à 100 millions par l'émission à 110 fr. de 600.000 actions nouvelles de 100 fr. (3 nouv. nour 2 ann.L"
    },
    {
      "amount": "145.000.000",
      "currency": "Franc",
      "infodate": "1949-01-01",
      "source": "annuaire_df_1953",
      "comments": "CAPITAL : 305 millions de fr., divisé en 190.625 actions de 1.600 fr. A l'origine 2 millions, porté en 1928 à 5 millions, en 1932 à 8.450.000 fr. par la création de 34.500 actions remises pour absorption de la Compagnie Indochinoise de Mines, en décembre 1933 à 10 millions par l'émission de 15.500 actions nouvelles et en août 1942 à 20 millions par l'émission à 105 fr. de 100.000 actions nouvelles jouissance 1er juillet 1942. Porté en 1945 à 40\tmillions par\tl'émission à\t160\tfr. de 200.000 actions nouvelles de 100 fr. (1 nouv. pour 1 anc.),\tet en 1946 à\t100 millions\tpar\tl'émission à 110 fr. de 600.000 actions nouvelles de 100 fr. (3\tnouv. pour 2\tanc.). Porté\ten\t1949 à 145 millions par émission au pair de 450.000 actions nouvelles dont la souscription a été réservée aux porteurs des 200.000 dixièmes de parts (9 actions pour 4 dixièmes) en annulation de leurs titres. Porté en 1950 à 152.500.000 fr. par la création de 75.000 actions de 100 fr. dont la souscription a été réservée à la Diamond Distributors, puis à 305 millions par l'émission à 175 fr. de 1.525.000 actions de 100 fr. (1 nouv. pour 1 anc.), jouissance 1er janvier 1950. Titres regroupés à partir du 2 avril 1951."
    },
    {
      "amount": "152.500.000",
      "currency": "Franc",
      "infodate": "1950-01-01",
      "source": "annuaire_df_1953",
      "comments": "CAPITAL : 305 millions de fr., divisé en 190.625 actions de 1.600 fr. A l'origine 2 millions, porté en 1928 à 5 millions, en 1932 à 8.450.000 fr. par la création de 34.500 actions remises pour absorption de la Compagnie Indochinoise de Mines, en décembre 1933 à 10 millions par l'émission de 15.500 actions nouvelles et en août 1942 à 20 millions par l'émission à 105 fr. de 100.000 actions nouvelles jouissance 1er juillet 1942. Porté en 1945 à 40\tmillions par\tl'émission à\t160\tfr. de 200.000 actions nouvelles de 100 fr. (1 nouv. pour 1 anc.),\tet en 1946 à\t100 millions\tpar\tl'émission à 110 fr. de 600.000 actions nouvelles de 100 fr. (3\tnouv. pour 2\tanc.). Porté\ten\t1949 à 145 millions par émission au pair de 450.000 actions nouvelles dont la souscription a été réservée aux porteurs des 200.000 dixièmes de parts (9 actions pour 4 dixièmes) en annulation de leurs titres. Porté en 1950 à 152.500.000 fr. par la création de 75.000 actions de 100 fr. dont la souscription a été réservée à la Diamond Distributors, puis à 305 millions par l'émission à 175 fr. de 1.525.000 actions de 100 fr. (1 nouv. pour 1 anc.), jouissance 1er janvier 1950. Titres regroupés à partir du 2 avril 1951."
    },
    {
      "amount": "305.000.000",
      "currency": "Franc",
      "infodate": "1951-04-02",
      "source": "annuaire_df_1953",
      "comments": "CAPITAL : 305 millions de fr., divisé en 190.625 actions de 1.600 fr. A l'origine 2 millions, porté en 1928 à 5 millions, en 1932 à 8.450.000 fr. par la création de 34.500 actions remises pour absorption de la Compagnie Indochinoise de Mines, en décembre 1933 à 10 millions par l'émission de 15.500 actions nouvelles et en août 1942 à 20 millions par l'émission à 105 fr. de 100.000 actions nouvelles jouissance 1er juillet 1942. Porté en 1945 à 40\tmillions par\tl'émission à\t160\tfr. de 200.000 actions nouvelles de 100 fr. (1 nouv. pour 1 anc.),\tet en 1946 à\t100 millions\tpar\tl'émission à 110 fr. de 600.000 actions nouvelles de 100 fr. (3\tnouv. pour 2\tanc.). Porté\ten\t1949 à 145 millions par émission au pair de 450.000 actions nouvelles dont la souscription a été réservée aux porteurs des 200.000 dixièmes de parts (9 actions pour 4 dixièmes) en annulation de leurs titres. Porté en 1950 à 152.500.000 fr. par la création de 75.000 actions de 100 fr. dont la souscription a été réservée à la Diamond Distributors, puis à 305 millions par l'émission à 175 fr. de 1.525.000 actions de 100 fr. (1 nouv. pour 1 anc.), jouissance 1er janvier 1950. Titres regroupés à partir du 2 avril 1951."
    }
  ],
  "profit_dividends": [
    {
      "first_date": "1933-12-31",
      "last_date": "1951-12-31",
      "obs_count": 105
    }
  ],
  "public_status": false,
  "stock_exchanges": {
    "1": {
      "id": 1,
      "name": "Paris (Official List)",
      "listings_stats": {
        "start_date": "1962-01-02"
      },
      "spot_prices_stats": {
        "start_date": "1962-01-02",
        "end_date": "1965-07-16"
      }
    }
  },
  "securities": {
    "16804": {
      "id": 16804,
      "name": "Oubanghi Oriental (Cie Minière de l') (C.M.O.O.), act.",
      "share_type": {
        "id": 1,
        "name": "Stock (Action)"
      },
      "types": [
        {
          "start_date": "1962-01-02",
          "end_date": "3999-12-31",
          "id": 18,
          "name": "Action",
          "stock_group": "S"
        }
      ],
      "start_date": "1962-01-02",
      "end_date": "3999-12-31",
      "prices_from": "1962-01-02",
      "prices_to": "1965-07-16",
      "is_mainstock": 0,
      "prices_count": 85
    }
  }
}