{
  "id": 3254,
  "names": [
    "COMPAGNIE GENERALE DES TRAMWAYS ELECTRIQUES DE ROSARIO (en liquidation)",
    "COMPAGNIE GÉNÉRALE DES TRAMWAYS ÉLECTRIQUES DE ROSARIO",
    "COMPAGNIE GÉNÉRALE DES TRAMWAYS ÉLECTRIQUES DE ROSARIO (En dissolution anticipée)",
    "COMPAGNIE GÉNÉRALE DÉS TRAMWAYS ÉLECTRIQUES DE ROSARIO",
    "Compagnie générale des Tramways électriques de Rosario"
  ],
  "name": "COMPAGNIE GÉNÉRALE DES TRAMWAYS ÉLECTRIQUES DE ROSARIO",
  "balance_sheets": [
    {
      "start_date": "1924-02-29",
      "source": "Annuaire Desfossés 1925",
      "page": "529"
    },
    {
      "start_date": "1927-02-28",
      "source": "Annuaire Desfossés 1929",
      "page": "437"
    },
    {
      "start_date": "1930-02-28",
      "source": "Annuaire Desfossés 1931",
      "page": "441"
    },
    {
      "start_date": "1932-02-28",
      "source": "Annuaire Desfossés 1933",
      "page": "466"
    },
    {
      "start_date": "1934-02-28",
      "source": "Annuaire Desfossés 1937",
      "page": "499"
    },
    {
      "start_date": "1935-02-28",
      "source": "Annuaire Desfossés 1937",
      "page": "499"
    },
    {
      "start_date": "1936-02-28",
      "source": "Annuaire Desfossés 1945",
      "page": "586"
    },
    {
      "start_date": "1937-02-28",
      "source": "Annuaire Desfossés 1948",
      "page": "620"
    },
    {
      "start_date": "1938-02-28",
      "source": "Annuaire Desfossés 1948",
      "page": "620"
    },
    {
      "start_date": "1939-02-28",
      "source": "Annuaire Desfossés 1948",
      "page": "620"
    },
    {
      "start_date": "1945-02-28",
      "source": "Annuaire Desfossés 1948",
      "page": "620"
    }
  ],
  "balance_sheets_stats": {
    "start_date": "1924-02-29",
    "end_date": "1945-02-28"
  },
  "locations_stats": {
    "start_date": "1927-01-01",
    "end_date": "1953-12-31"
  },
  "locations": {
    "Siège social": [
      {
        "location_types_id": 1,
        "location_type": "Siège social",
        "address": "Place de meir, 48",
        "city": "Anvers",
        "district": null,
        "country": "Belgique",
        "in_yearbook_from": 1927,
        "in_yearbook_to": 1940
      },
      {
        "location_types_id": 1,
        "location_type": "Siège social",
        "address": "Rue du commerce, 111",
        "city": "Bruxelles",
        "district": null,
        "country": "Belgique",
        "in_yearbook_from": 1945,
        "in_yearbook_to": 1948
      },
      {
        "location_types_id": 1,
        "location_type": "Siège social",
        "address": "Longue-rue de l'hôpital, 39",
        "city": "Anvers",
        "district": null,
        "country": "Belgique",
        "in_yearbook_from": 1953,
        "in_yearbook_to": 1953
      }
    ]
  },
  "persons": [
    {
      "persons_count": 7,
      "yearbook": "Annuaire Desfossés 1927",
      "source": "annuaire_df_1927",
      "page": "420"
    },
    {
      "persons_count": 14,
      "yearbook": "Annuaire Desfossés 1933",
      "source": "annuaire_df_1933",
      "page": "466"
    },
    {
      "persons_count": 2,
      "yearbook": "Annuaire Desfossés 1940",
      "source": "annuaire_df_1940",
      "page": null
    },
    {
      "persons_count": 4,
      "yearbook": "Annuaire Desfossés 1945",
      "source": "annuaire_df_1945",
      "page": "586"
    },
    {
      "persons_count": 4,
      "yearbook": "Annuaire Desfossés 1948",
      "source": "annuaire_df_1948",
      "page": "620"
    },
    {
      "persons_count": 7,
      "yearbook": "Annuaire Desfossés 1953",
      "source": "annuaire_df_1953",
      "page": "444"
    }
  ],
  "persons_stats": {
    "persons_count": 30,
    "start_date": "1927-01-01",
    "end_date": "1953-12-31"
  },
  "yearbooks_ocrs": [
    {
      "source": "annuaire_df_1925",
      "yearbook": "Annuaire Desfossés 1925",
      "page": "529"
    },
    {
      "source": "annuaire_df_1927",
      "yearbook": "Annuaire Desfossés 1927",
      "page": "420"
    },
    {
      "source": "annuaire_df_1929",
      "yearbook": "Annuaire Desfossés 1929",
      "page": "437"
    },
    {
      "source": "annuaire_df_1931",
      "yearbook": "Annuaire Desfossés 1931",
      "page": "441"
    },
    {
      "source": "annuaire_df_1933",
      "yearbook": "Annuaire Desfossés 1933",
      "page": "466"
    },
    {
      "source": "annuaire_df_1937",
      "yearbook": "Annuaire Desfossés 1937",
      "page": "499"
    },
    {
      "source": "annuaire_df_1940",
      "yearbook": "Annuaire Desfossés 1940",
      "page": null
    },
    {
      "source": "annuaire_df_1945",
      "yearbook": "Annuaire Desfossés 1945",
      "page": "586"
    },
    {
      "source": "annuaire_df_1948",
      "yearbook": "Annuaire Desfossés 1948",
      "page": "620"
    },
    {
      "source": "annuaire_df_1953",
      "yearbook": "Annuaire Desfossés 1953",
      "page": "444"
    }
  ],
  "juridical_status": [
    {
      "juridical_status": "Société anonyme belge",
      "start_date": "1905-09-14",
      "end_date": "1937-12-02",
      "comments": "Société anonyme belge, constituée le 14 septembre 1905 pour une durée de 30 ans prorogée de 30 ans.",
      "source": "annuaire_df_1940"
    },
    {
      "juridical_status": "Mise en liquidation",
      "start_date": "1937-12-03",
      "end_date": "3999-12-31",
      "comments": "Une assemblée extraordinaire tenue le 3 décembre 1937 a voté la dissolution anticipée",
      "source": "annuaire_df_1940"
    }
  ],
  "equity_capital": [
    {
      "amount": "20.000.000",
      "currency": "Franc",
      "infodate": "1905-09-14",
      "source": "annuaire_df_1927",
      "comments": "20 millions de francs, divisé en 200.000 actions de capital ae 100 francs, et 125.000 actions de dividende.\t•"
    },
    {
      "amount": "40.000.000",
      "currency": "Franc",
      "infodate": "1927-05-01",
      "source": "annuaire_df_1933",
      "comments": "40 millions de francs, divisé en 400.000 actions de capital de 100 francs, et 125.000 actions de dividende : le capital antérieurement de 20 millions de francs belges a été élevé en mai 1927 à 40 millions de francs belges par la création de 200.000 actions nouvelles !1 nouvelle pour i ancienne de capital ou de jouissance). A fin février 1932, 75.375 actions de capital étaient amorties, représentant une valeur nominale de 7.537.500 francs, ce qui ramenait à 32.462.500 francs l’évaluation du fonds social au bilan."
    },
    {
      "amount": "412.921",
      "currency": "Franc",
      "infodate": "1929-01-01",
      "source": "annuaire_df_1953",
      "comments": " CAPITAL : 412.921 actions de capital et de jouissance, 131.250 actions de dividende."
    }
  ],
  "profit_dividends": [
    {
      "first_date": "1924-02-28",
      "last_date": "1932-02-28",
      "obs_count": 64
    }
  ],
  "public_status": false
}