{
  "id": 1511,
  "names": [
    "Banque Nationale du Grand-Duché de Luxembourg (National-Bank des Grossherzogthums Luxemburg)",
    "Banque Nationale du grand-duché de Luxembourg",
    "Banque nationale du Grand-Duché de Luxembourg"
  ],
  "name": "Banque nationale du Grand-Duché de Luxembourg",
  "balance_sheets": [],
  "balance_sheets_stats": {
    "start_date": null,
    "end_date": null
  },
  "locations_stats": {
    "start_date": "1880-01-01",
    "end_date": "1884-12-31"
  },
  "locations": {
    "Siège social": [
      {
        "location_types_id": 1,
        "location_type": "Siège social",
        "address": null,
        "city": "Luxembourg",
        "district": null,
        "country": "Luxembourg",
        "in_yearbook_from": 1880,
        "in_yearbook_to": 1880
      }
    ],
    "Siège de la faillite": [
      {
        "location_types_id": 18,
        "location_type": "Siège de la faillite",
        "address": null,
        "city": "Luxembourg",
        "district": null,
        "country": "Luxembourg",
        "in_yearbook_from": 1884,
        "in_yearbook_to": 1884
      }
    ]
  },
  "persons": [
    {
      "persons_count": 9,
      "yearbook": "Annuaire de la Compagnie des Agents de Change 1880",
      "source": "annuaire_cac_1880",
      "page": "498"
    },
    {
      "persons_count": 3,
      "yearbook": "Annuaire de la Compagnie des Agents de Change 1883",
      "source": "annuaire_cac_1883",
      "page": "1519"
    }
  ],
  "persons_stats": {
    "persons_count": 12,
    "start_date": "1880-01-01",
    "end_date": "1883-12-31"
  },
  "yearbooks_ocrs": [
    {
      "source": "annuaire_cac_1880",
      "yearbook": "Annuaire de la Compagnie des Agents de Change 1880",
      "page": "498"
    },
    {
      "source": "annuaire_cac_1883",
      "yearbook": "Annuaire de la Compagnie des Agents de Change 1883",
      "page": "1519"
    }
  ],
  "juridical_status": [
    {
      "juridical_status": "Société anonyme luxembourgeoise",
      "start_date": "1873-05-16",
      "end_date": "1880-12-31",
      "comments": "Banque Nationale du grand-duché de Luxèmbourg instituée par une loi et un arrêté du roi de Hollande, grand-duc de Luxembourg, en date du 16 mai 1873, dont les statuts ont été modifiés par arrêté grand-ducal du 3 septembre 1879, rendu en vertu de la loi du 21 mai précédent.",
      "source": "annuaire_cac_1880"
    },
    {
      "juridical_status": "Mise en faillite",
      "start_date": "1881-09-27",
      "end_date": "3999-12-31",
      "comments": "Mise en faillite par jugement du tribunal de commerce de Luxembourg du 27 septembre 1881.",
      "source": "annuaire_cac_1883"
    }
  ],
  "equity_capital": [
    {
      "amount": "15.000.000",
      "currency": "Franc",
      "infodate": "1879-05-21",
      "source": "annuaire_cac_1880",
      "comments": "Fixé primitivement à 15 millions, divisé en 30,000 actions de 500 fr., libérées de 250 fr., le capital social a été, en vertu de la loi du 21 mai 1879, réduit à 7,500,000 fr. divisé en 15,000 actions de 500 fr. libérées de 250 fr. et au porteur. Les 15,000 autres actions ont été remboursées en espèces."
    }
  ],
  "profit_dividends": [],
  "public_status": false,
  "stock_exchanges": {
    "1": {
      "id": 1,
      "name": "Paris (Official List)",
      "listings_stats": {
        "start_date": "1880-05-11"
      },
      "spot_prices_stats": {
        "start_date": "1880-05-19",
        "end_date": "1881-09-30"
      }
    }
  },
  "securities": {
    "3397": {
      "id": 3397,
      "name": "Banque Nationale du grand duché de Luxembourg, act. 500fr, 250f.p.",
      "share_type": {
        "id": 1,
        "name": "Stock (Action)"
      },
      "types": [
        {
          "start_date": "1880-05-11",
          "end_date": "3999-12-31",
          "id": 18,
          "name": "Action",
          "stock_group": "S"
        }
      ],
      "start_date": "1880-05-11",
      "end_date": "3999-12-31",
      "prices_from": "1880-05-19",
      "prices_to": "1881-09-30",
      "is_mainstock": 1,
      "prices_count": 21
    }
  }
}