{
  "id": 3726,
  "names": [
    "Fromageries F. Paul-Renard (Société Nouvelle)"
  ],
  "name": "Fromageries F. Paul-Renard (Société Nouvelle)",
  "balance_sheets": [],
  "balance_sheets_stats": {
    "start_date": null,
    "end_date": null
  },
  "locations_stats": {
    "start_date": null,
    "end_date": null
  },
  "locations": {},
  "persons": [],
  "persons_stats": {
    "persons_count": 0,
    "start_date": null,
    "end_date": null
  },
  "yearbooks_ocrs": [],
  "juridical_status": [],
  "equity_capital": [],
  "profit_dividends": [],
  "public_status": false,
  "stock_exchanges": {
    "1": {
      "id": 1,
      "name": "Paris (Official List)",
      "listings_stats": {
        "start_date": "1956-01-09"
      },
      "spot_prices_stats": {
        "start_date": "1956-01-09",
        "end_date": "1976-12-31"
      }
    }
  },
  "securities": {
    "15165": {
      "id": 15165,
      "name": "Fromageries F. Paul-Renard, act.",
      "share_type": {
        "id": 1,
        "name": "Stock (Action)"
      },
      "types": [
        {
          "start_date": "1956-01-09",
          "end_date": "3999-12-31",
          "id": 11,
          "name": "Action ordinaire",
          "stock_group": "S"
        }
      ],
      "start_date": "1956-01-09",
      "end_date": "3999-12-31",
      "prices_from": "1956-01-09",
      "prices_to": "1976-12-31",
      "is_mainstock": 0,
      "prices_count": 547
    }
  }
}