{
  "id": 11466,
  "names": [
    "FORCES MOTRICES D'ARRENS",
    "Forces Motrices d'Arrens"
  ],
  "name": "FORCES MOTRICES D'ARRENS",
  "balance_sheets": [
    {
      "start_date": "1934-12-31",
      "source": "Annuaire Desfossés 1937",
      "page": "1918"
    },
    {
      "start_date": "1935-12-31",
      "source": "Annuaire Desfossés 1940",
      "page": null
    },
    {
      "start_date": "1936-12-31",
      "source": "Annuaire Desfossés 1940",
      "page": null
    },
    {
      "start_date": "1937-12-31",
      "source": "Annuaire Desfossés 1940",
      "page": null
    },
    {
      "start_date": "1938-12-31",
      "source": "Annuaire Desfossés 1945",
      "page": "1351"
    },
    {
      "start_date": "1941-12-31",
      "source": "Annuaire Desfossés 1945",
      "page": "1351"
    },
    {
      "start_date": "1942-12-31",
      "source": "Annuaire Desfossés 1948",
      "page": "1464"
    },
    {
      "start_date": "1943-12-31",
      "source": "Annuaire Desfossés 1948",
      "page": "1464"
    },
    {
      "start_date": "1944-12-31",
      "source": "Annuaire Desfossés 1948",
      "page": "1464"
    },
    {
      "start_date": "1945-12-31",
      "source": "Annuaire Desfossés 1948",
      "page": "1464"
    }
  ],
  "balance_sheets_stats": {
    "start_date": "1934-12-31",
    "end_date": "1945-12-31"
  },
  "locations_stats": {
    "start_date": "1937-01-01",
    "end_date": "1953-12-31"
  },
  "locations": {
    "Siège social": [
      {
        "location_types_id": 1,
        "location_type": "Siège social",
        "address": "Faubourg saint-honoré, 68",
        "city": "Paris",
        "district": "Paris",
        "country": "France",
        "in_yearbook_from": 1937,
        "in_yearbook_to": 1953
      }
    ],
    "Siège administratif / Bureaux": [
      {
        "location_types_id": 2,
        "location_type": "Siège administratif / Bureaux",
        "address": "Rue louis-murat, 9",
        "city": "Paris",
        "district": "Paris",
        "country": "France",
        "in_yearbook_from": 1940,
        "in_yearbook_to": 1940
      }
    ]
  },
  "persons": [
    {
      "persons_count": 10,
      "yearbook": "Annuaire Desfossés 1940",
      "source": "annuaire_df_1940",
      "page": null
    },
    {
      "persons_count": 7,
      "yearbook": "Annuaire Desfossés 1945",
      "source": "annuaire_df_1945",
      "page": "1351"
    }
  ],
  "persons_stats": {
    "persons_count": 17,
    "start_date": "1940-01-01",
    "end_date": "1945-12-31"
  },
  "yearbooks_ocrs": [
    {
      "source": "annuaire_df_1937",
      "yearbook": "Annuaire Desfossés 1937",
      "page": "1918"
    },
    {
      "source": "annuaire_df_1940",
      "yearbook": "Annuaire Desfossés 1940",
      "page": null
    },
    {
      "source": "annuaire_df_1945",
      "yearbook": "Annuaire Desfossés 1945",
      "page": "1351"
    },
    {
      "source": "annuaire_df_1948",
      "yearbook": "Annuaire Desfossés 1948",
      "page": "1464"
    },
    {
      "source": "annuaire_df_1953",
      "yearbook": "Annuaire Desfossés 1953",
      "page": "1208"
    }
  ],
  "juridical_status": [
    {
      "juridical_status": "Société Anonyme (Libre)",
      "start_date": "1928-07-01",
      "end_date": "1946-05-21",
      "comments": "Société anonyme française constituée en juillet 1928 pour une durée de 99 ans.",
      "source": "annuaire_df_1948"
    },
    {
      "juridical_status": "Etablissement public",
      "start_date": "1946-05-22",
      "end_date": "3999-12-31",
      "comments": ": Nationalisée (loi du 8 avril 1946. J. O. des 9 avril et 22 mai 1946). Société anonyme française constituée en juillet 1928 pour une durée de 99 ans.",
      "source": "annuaire_df_1948"
    }
  ],
  "equity_capital": [
    {
      "amount": "20.000.000",
      "currency": "Franc",
      "infodate": "1928-07-01",
      "source": "annuaire_df_1945",
      "comments": " A l'origine, 20, millions ; porte en 1929 à 25 puis 50 millions\n"
    },
    {
      "amount": "25.000.000",
      "currency": "Franc",
      "infodate": "1929-01-01",
      "source": "annuaire_df_1945",
      "comments": " A l'origine, 20, millions ; porte en 1929 à 25 puis 50 millions"
    },
    {
      "amount": "50.000.000",
      "currency": "Franc",
      "infodate": "1929-01-01",
      "source": "annuaire_df_1945",
      "comments": " A l'origine, 20, millions ; porte en 1929 à 25 puis 50 millions\n"
    }
  ],
  "profit_dividends": [
    {
      "first_date": "1934-12-31",
      "last_date": "1945-12-31",
      "obs_count": 77
    }
  ],
  "public_status": false
}