{
  "id": 5538,
  "names": [
    "Sofidel (Sté Financière des Etabl. Ch. Delecroix)",
    "Sofimeb"
  ],
  "name": "Sofimeb",
  "balance_sheets": [],
  "balance_sheets_stats": {
    "start_date": null,
    "end_date": null
  },
  "locations_stats": {
    "start_date": null,
    "end_date": null
  },
  "locations": {},
  "persons": [],
  "persons_stats": {
    "persons_count": 0,
    "start_date": null,
    "end_date": null
  },
  "yearbooks_ocrs": [],
  "juridical_status": [],
  "equity_capital": [],
  "profit_dividends": [],
  "public_status": false,
  "stock_exchanges": {
    "1": {
      "id": 1,
      "name": "Paris (Official List)",
      "listings_stats": {
        "start_date": "1961-11-06"
      },
      "spot_prices_stats": {
        "start_date": "1961-11-06",
        "end_date": "1971-12-31"
      }
    }
  },
  "securities": {
    "16151": {
      "id": 16151,
      "name": "Sofidel (Sté Financière des Etabl. Ch. Delecroix), act. (c. 1 att.)",
      "share_type": {
        "id": 1,
        "name": "Stock (Action)"
      },
      "types": [
        {
          "start_date": "1961-11-06",
          "end_date": "3999-12-31",
          "id": 18,
          "name": "Action",
          "stock_group": "S"
        }
      ],
      "start_date": "1961-11-06",
      "end_date": "3999-12-31",
      "prices_from": "1961-11-06",
      "prices_to": "1971-12-31",
      "is_mainstock": 0,
      "prices_count": 292
    },
    "17898": {
      "id": 17898,
      "name": "Sofidel (Sté Financière des Etabl. Ch. Delecroix), Act. (nos 60001 à 140000) (c. 1 att.)",
      "share_type": {
        "id": 1,
        "name": "Stock (Action)"
      },
      "types": [
        {
          "start_date": "1963-01-11",
          "end_date": "3999-12-31",
          "id": 18,
          "name": "Action",
          "stock_group": "S"
        }
      ],
      "start_date": "1963-01-11",
      "end_date": "3999-12-31",
      "prices_from": "1963-01-14",
      "prices_to": "1963-07-01",
      "is_mainstock": 0,
      "prices_count": 14
    },
    "18187": {
      "id": 18187,
      "name": "Sofidel (Sté Financière des Etabl. Ch. Delecroix), Act. (nos 327001 à 341000) (c. 2 att.)",
      "share_type": {
        "id": 1,
        "name": "Stock (Action)"
      },
      "types": [
        {
          "start_date": "1964-04-27",
          "end_date": "3999-12-31",
          "id": 18,
          "name": "Action",
          "stock_group": "S"
        }
      ],
      "start_date": "1964-04-27",
      "end_date": "3999-12-31",
      "prices_from": "1964-05-15",
      "prices_to": "1964-06-30",
      "is_mainstock": 0,
      "prices_count": 4
    }
  }
}