{
  "id": 4167,
  "names": [
    "ETABLISSEMENTS DUC-LAMOTHE-LEDRU ET Cie",
    "Etablissements Duc, Lamothe, Ledru et Cie"
  ],
  "name": "ETABLISSEMENTS DUC-LAMOTHE-LEDRU ET Cie",
  "balance_sheets": [
    {
      "start_date": "1947-06-30",
      "source": "Annuaire Desfossés 1948",
      "page": "1205"
    },
    {
      "start_date": "1948-06-30",
      "source": "Annuaire Desfossés 1953",
      "page": "1026"
    },
    {
      "start_date": "1949-06-30",
      "source": "Annuaire Desfossés 1953",
      "page": "1026"
    },
    {
      "start_date": "1950-06-30",
      "source": "Annuaire Desfossés 1953",
      "page": "1026"
    },
    {
      "start_date": "1951-06-30",
      "source": "Annuaire Desfossés 1953",
      "page": "1026"
    }
  ],
  "balance_sheets_stats": {
    "start_date": "1947-06-30",
    "end_date": "1951-06-30"
  },
  "locations_stats": {
    "start_date": "1948-01-01",
    "end_date": "1953-12-31"
  },
  "locations": {
    "Siège social": [
      {
        "location_types_id": 1,
        "location_type": "Siège social",
        "address": "Rue saint-fargeau, 91",
        "city": "Paris",
        "district": "Paris",
        "country": "France",
        "in_yearbook_from": 1948,
        "in_yearbook_to": 1953
      }
    ]
  },
  "persons": [
    {
      "persons_count": 2,
      "yearbook": "Annuaire Desfossés 1948",
      "source": "annuaire_df_1948",
      "page": "1205"
    },
    {
      "persons_count": 12,
      "yearbook": "Annuaire Desfossés 1953",
      "source": "annuaire_df_1953",
      "page": "1026"
    }
  ],
  "persons_stats": {
    "persons_count": 13,
    "start_date": "1948-01-01",
    "end_date": "1953-12-31"
  },
  "yearbooks_ocrs": [
    {
      "source": "annuaire_df_1948",
      "yearbook": "Annuaire Desfossés 1948",
      "page": "1205"
    },
    {
      "source": "annuaire_df_1953",
      "yearbook": "Annuaire Desfossés 1953",
      "page": "1026"
    }
  ],
  "juridical_status": [
    {
      "juridical_status": "Société Anonyme (Libre)",
      "start_date": "1931-02-01",
      "end_date": "2030-02-01",
      "comments": "Société anonyme constituée en février 1931 (pour une durée de 99 ans.",
      "source": "annuaire_df_1948"
    }
  ],
  "equity_capital": [
    {
      "amount": "4.500.000",
      "currency": "Franc",
      "infodate": "1931-02-01",
      "source": "annuaire_df_1948",
      "comments": "48 millions, divisé en 96.000 actions de 500 francs. A l'origine, 4 millions 500.000 francs, porté en 1947 à, 28.500.000 fr. par incorporation de réserves; en avril 1948 à 36 millions par suite de la conversion des parts en actions ; et en mai 1948 à 48 millions par souscription,en espèces."
    },
    {
      "amount": "28.500.000",
      "currency": "Franc",
      "infodate": "1947-01-01",
      "source": "annuaire_df_1948",
      "comments": "48 millions, divisé en 96.000 actions de 500 francs. A l'origine, 4 millions 500.000 francs, porté en 1947 à, 28.500.000 fr. par incorporation de réserves; en avril 1948 à 36 millions par suite de la conversion des parts en actions ; et en mai 1948 à 48 millions par souscription,en espèces."
    },
    {
      "amount": "48.000.000",
      "currency": "Franc",
      "infodate": "1948-05-01",
      "source": "annuaire_df_1953",
      "comments": "Porté en 1947 à, 28.500.000 fr. par incorporation de réserves; en avril 1948 à 36 millions, par suite de la conversion des parts en actions, et en mai 1948 à 48 millions par souscription en espèces. Porté en 1949 à 72 millions par élévation du nominal de 500 à 750 fr., puis à 96 millions par élévation du nominal de 750 à 1.000 fr."
    },
    {
      "amount": "72.000.000",
      "currency": "Franc",
      "infodate": "1949-01-01",
      "source": "annuaire_df_1953",
      "comments": "Porté en 1947 à, 28.500.000 fr. par incorporation de réserves; en avril 1948 à 36 millions, par suite de la conversion des parts en actions, et en mai 1948 à 48 millions par souscription en espèces. Porté en 1949 à 72 millions par élévation du nominal de 500 à 750 fr., puis à 96 millions par élévation du nominal de 750 à 1.000 fr."
    },
    {
      "amount": "96.000.000",
      "currency": "Franc",
      "infodate": "1949-01-02",
      "source": "annuaire_df_1953",
      "comments": "96 millions de fr., divisé en 96.000 actions de 1.000 fr. A l'origine, 4,500.000 fr,"
    },
    {
      "amount": "36.000.000",
      "currency": "Franc",
      "infodate": "2048-04-01",
      "source": "annuaire_df_1948",
      "comments": "48 millions, divisé en 96.000 actions de 500 francs. A l'origine, 4 millions 500.000 francs, porté en 1947 à, 28.500.000 fr. par incorporation de réserves; en avril 1948 à 36 millions par suite de la conversion des parts en actions ; et en mai 1948 à 48 millions par souscription,en espèces."
    }
  ],
  "profit_dividends": [
    {
      "first_date": "1946-06-30",
      "last_date": "1951-06-30",
      "obs_count": 38
    }
  ],
  "public_status": false,
  "stock_exchanges": {
    "1": {
      "id": 1,
      "name": "Paris (Official List)",
      "listings_stats": {
        "start_date": "1962-01-02"
      },
      "spot_prices_stats": {
        "start_date": "1962-01-02",
        "end_date": "1976-12-31"
      }
    }
  },
  "securities": {
    "16657": {
      "id": 16657,
      "name": "Duc, Lemothe, Ledru et Cie (Etabl.), actions",
      "share_type": {
        "id": 1,
        "name": "Stock (Action)"
      },
      "types": [
        {
          "start_date": "1962-01-02",
          "end_date": "3999-12-31",
          "id": 18,
          "name": "Action",
          "stock_group": "S"
        }
      ],
      "start_date": "1962-01-02",
      "end_date": "3999-12-31",
      "prices_from": "1962-01-02",
      "prices_to": "1976-12-31",
      "is_mainstock": 0,
      "prices_count": 363
    }
  }
}