{
  "id": 11788,
  "names": [
    "Vis à Bois et à Métaux"
  ],
  "name": "Vis à Bois et à Métaux",
  "balance_sheets": [],
  "balance_sheets_stats": {
    "start_date": null,
    "end_date": null
  },
  "locations_stats": {
    "start_date": null,
    "end_date": null
  },
  "locations": {},
  "persons": [],
  "persons_stats": {
    "persons_count": 0,
    "start_date": null,
    "end_date": null
  },
  "yearbooks_ocrs": [],
  "juridical_status": [],
  "equity_capital": [],
  "profit_dividends": [],
  "public_status": false,
  "stock_exchanges": {
    "2": {
      "id": 2,
      "name": "Paris OTC (Coulisse)",
      "listings_stats": {
        "start_date": "1875-09-30"
      },
      "spot_prices_stats": {
        "start_date": "1875-11-30",
        "end_date": "1876-02-15"
      }
    }
  },
  "securities": {
    "104269": {
      "id": 104269,
      "name": "Obl. Vis à bois et à metaux",
      "share_type": {
        "id": 2,
        "name": "Bond (Obligation)"
      },
      "types": [
        {
          "start_date": "1875-09-30",
          "end_date": "1877-12-31",
          "id": 1001,
          "name": "Obligation ordinaire ou classique",
          "stock_group": "B"
        }
      ],
      "start_date": "1875-09-30",
      "end_date": "1877-12-31",
      "prices_from": "1875-11-30",
      "prices_to": "1876-02-15",
      "is_mainstock": 0,
      "prices_count": 5
    }
  }
}