{
  "id": 2670,
  "names": [
    "Compagnie Générale des Eaux de Gand et de sa banlieue",
    "Compagnie générale des Eaux de Gand et de sa Banlieue",
    "Eaux de Gand"
  ],
  "name": "Compagnie Générale des Eaux de Gand et de sa banlieue",
  "balance_sheets": [],
  "balance_sheets_stats": {
    "start_date": null,
    "end_date": null
  },
  "locations_stats": {
    "start_date": "1880-01-01",
    "end_date": "1884-12-31"
  },
  "locations": {
    "Siège social": [
      {
        "location_types_id": 1,
        "location_type": "Siège social",
        "address": "Rue saint-lazare, 62",
        "city": "Paris",
        "district": "Paris",
        "country": "France",
        "in_yearbook_from": 1880,
        "in_yearbook_to": 1880
      }
    ],
    "Siège d'exploitation": [
      {
        "location_types_id": 15,
        "location_type": "Siège d'exploitation",
        "address": null,
        "city": "Gand",
        "district": null,
        "country": "Belgique",
        "in_yearbook_from": 1880,
        "in_yearbook_to": 1880
      }
    ],
    "Siège de liquidation": [
      {
        "location_types_id": 17,
        "location_type": "Siège de liquidation",
        "address": "Avenue victoria, 24",
        "city": "Paris",
        "district": "Paris",
        "country": "France",
        "in_yearbook_from": 1884,
        "in_yearbook_to": 1884
      }
    ],
    "Siège de la faillite": [
      {
        "location_types_id": 18,
        "location_type": "Siège de la faillite",
        "address": "Avenue victoria, 21",
        "city": "Paris",
        "district": "Paris",
        "country": "France",
        "in_yearbook_from": 1884,
        "in_yearbook_to": 1884
      }
    ]
  },
  "persons": [
    {
      "persons_count": 6,
      "yearbook": "Annuaire de la Compagnie des Agents de Change 1880",
      "source": "annuaire_cac_1880",
      "page": "887"
    },
    {
      "persons_count": 7,
      "yearbook": "Annuaire de la Compagnie des Agents de Change 1883",
      "source": "annuaire_cac_1883",
      "page": "1523"
    }
  ],
  "persons_stats": {
    "persons_count": 12,
    "start_date": "1880-01-01",
    "end_date": "1883-12-31"
  },
  "yearbooks_ocrs": [
    {
      "source": "annuaire_cac_1880",
      "yearbook": "Annuaire de la Compagnie des Agents de Change 1880",
      "page": "887"
    },
    {
      "source": "annuaire_cac_1883",
      "yearbook": "Annuaire de la Compagnie des Agents de Change 1883",
      "page": "1523"
    }
  ],
  "juridical_status": [
    {
      "juridical_status": "Société Anonyme (Libre)",
      "start_date": "1879-09-05",
      "end_date": "1883-12-19",
      "comments": "Société anonyme constituée le 5 septembre 1879.",
      "source": "annuaire_cac_1883"
    },
    {
      "juridical_status": "Mise en faillite",
      "start_date": "1883-12-20",
      "end_date": "3999-12-31",
      "comments": "Société déclarée en faillite par jugement du tribunal de commerce de la Seine du 20 décembre 1883.",
      "source": "annuaire_cac_1883"
    }
  ],
  "equity_capital": [
    {
      "amount": "3.000.000",
      "currency": "Franc",
      "infodate": "1879-08-02",
      "source": "annuaire_cac_1880",
      "comments": "3 millions de francs, divisé en 6,000 actions de 500 fr. au porteur, entièrement libérées, dont 2,500 ont été attribuées aux fondateurs de la Société susnommés concessionnaires des Eaux, et 3,400 ont été souscrites au pair."
    }
  ],
  "profit_dividends": [],
  "public_status": false,
  "stock_exchanges": {
    "1": {
      "id": 1,
      "name": "Paris (Official List)",
      "listings_stats": {
        "start_date": "1880-10-25"
      },
      "spot_prices_stats": {
        "start_date": "1880-10-26",
        "end_date": "1883-12-15"
      }
    },
    "2": {
      "id": 2,
      "name": "Paris OTC (Coulisse)",
      "listings_stats": {
        "start_date": "1887-02-28"
      },
      "spot_prices_stats": {
        "start_date": "1887-03-15",
        "end_date": "1889-05-15"
      }
    }
  },
  "securities": {
    "2919": {
      "id": 2919,
      "name": "Eaux de Gand, a.500f., t.p.",
      "share_type": {
        "id": 1,
        "name": "Stock (Action)"
      },
      "types": [
        {
          "start_date": "1880-10-25",
          "end_date": "3999-12-31",
          "id": 18,
          "name": "Action",
          "stock_group": "S"
        }
      ],
      "start_date": "1880-10-25",
      "end_date": "3999-12-31",
      "prices_from": "1880-10-26",
      "prices_to": "1883-12-15",
      "is_mainstock": 1,
      "prices_count": 53
    },
    "105050": {
      "id": 105050,
      "name": "Eaux de Gand, j. mai 1883",
      "share_type": {
        "id": 2,
        "name": "Bond (Obligation)"
      },
      "types": [
        {
          "start_date": "1887-02-28",
          "end_date": "1890-07-15",
          "id": 1001,
          "name": "Obligation ordinaire ou classique",
          "stock_group": "B"
        }
      ],
      "start_date": "1887-02-28",
      "end_date": "1890-07-15",
      "prices_from": "1887-03-15",
      "prices_to": "1889-05-15",
      "is_mainstock": 0,
      "prices_count": 19
    }
  }
}