{
  "id": 15612,
  "names": [
    "Michel (Georges)"
  ],
  "name": "Michel (Georges)",
  "balance_sheets": [],
  "balance_sheets_stats": {
    "start_date": null,
    "end_date": null
  },
  "locations_stats": {
    "start_date": null,
    "end_date": null
  },
  "locations": {},
  "persons": [],
  "persons_stats": {
    "persons_count": 0,
    "start_date": null,
    "end_date": null
  },
  "yearbooks_ocrs": [],
  "juridical_status": [],
  "equity_capital": [],
  "profit_dividends": [],
  "public_status": false
}