{
  "id": 10117,
  "names": [
    "COMPAGNIE DES CAOUTCHOUCS ET PRODUITS DE LA LOBAY",
    "Lobay (Cie des Caoutchoucs et Produits de la)"
  ],
  "name": "Lobay (Cie des Caoutchoucs et Produits de la)",
  "balance_sheets": [
    {
      "start_date": "1909-12-31",
      "source": "Annuaire Desfossés 1912",
      "page": "909"
    }
  ],
  "balance_sheets_stats": {
    "start_date": "1909-12-31",
    "end_date": "1909-12-31"
  },
  "locations_stats": {
    "start_date": "1912-01-01",
    "end_date": "1912-12-31"
  },
  "locations": {
    "Siège social": [
      {
        "location_types_id": 1,
        "location_type": "Siège social",
        "address": "Rue des longues-haies, 28",
        "city": "Roubaix",
        "district": "Nord",
        "country": "France",
        "in_yearbook_from": 1912,
        "in_yearbook_to": 1912
      }
    ],
    "Siège administratif / Bureaux": [
      {
        "location_types_id": 2,
        "location_type": "Siège administratif / Bureaux",
        "address": "Rue de la rochefoucauld, 5",
        "city": "Paris",
        "district": "Paris",
        "country": "France",
        "in_yearbook_from": 1912,
        "in_yearbook_to": 1912
      }
    ]
  },
  "persons": [
    {
      "persons_count": 4,
      "yearbook": "Annuaire Desfossés 1912",
      "source": "annuaire_df_1912",
      "page": "909"
    }
  ],
  "persons_stats": {
    "persons_count": 4,
    "start_date": "1912-01-01",
    "end_date": "1912-12-31"
  },
  "yearbooks_ocrs": [
    {
      "source": "annuaire_df_1912",
      "yearbook": "Annuaire Desfossés 1912",
      "page": "909"
    }
  ],
  "juridical_status": [
    {
      "juridical_status": "Société Anonyme (Libre)",
      "start_date": "1899-05-03",
      "end_date": "1929-05-03",
      "comments": "Société anonyme française, constituée .le 3 mai 1899, pour une durée de 30 .ans.",
      "source": "annuaire_df_1912"
    }
  ],
  "equity_capital": [
    {
      "amount": "2.000.000",
      "currency": "Franc",
      "infodate": "1899-05-03",
      "source": "annuaire_df_1912",
      "comments": "2 millions de francs, divisé en 20.000 actions de 100 francs."
    }
  ],
  "profit_dividends": [
    {
      "first_date": "1907-12-31",
      "last_date": "1910-12-31",
      "obs_count": 20
    }
  ],
  "public_status": false
}