{
  "id": 11067,
  "names": [
    "Banque auxiliaire coloniale"
  ],
  "name": "Banque auxiliaire coloniale",
  "balance_sheets": [],
  "balance_sheets_stats": {
    "start_date": "1921-12-31",
    "end_date": "1924-12-31"
  },
  "locations_stats": {
    "start_date": null,
    "end_date": null
  },
  "locations": {},
  "persons": [],
  "persons_stats": {
    "persons_count": 0,
    "start_date": null,
    "end_date": null
  },
  "yearbooks_ocrs": [],
  "juridical_status": [
    {
      "juridical_status": "Société Anonyme (Libre)",
      "start_date": "1920-04-01",
      "end_date": "3999-12-31",
      "comments": null,
      "source": "BdF"
    }
  ],
  "equity_capital": [],
  "profit_dividends": [
    {
      "first_date": "1921-12-31",
      "last_date": "1924-12-31",
      "obs_count": 23
    }
  ],
  "public_status": false
}