{
  "id": 4821,
  "names": [
    "COMPAGNIE DES CHEMINS DE FER DU MAROC",
    "Compagnie Franco-Marocaine (Anciennement Compagnie des Chemins de Fer du Maroc)",
    "Compagnie des Chemins de Fer du Maroc"
  ],
  "name": "Compagnie des Chemins de Fer du Maroc",
  "balance_sheets": [
    {
      "start_date": "1923-12-31",
      "source": "Annuaire Desfossés 1925",
      "page": "384"
    },
    {
      "start_date": "1925-12-31",
      "source": "Annuaire Desfossés 1927",
      "page": "311"
    },
    {
      "start_date": "1927-12-31",
      "source": "Annuaire Desfossés 1929",
      "page": "331"
    },
    {
      "start_date": "1929-12-31",
      "source": "Annuaire Desfossés 1931",
      "page": "348"
    },
    {
      "start_date": "1930-12-31",
      "source": "Annuaire Desfossés 1932",
      "page": null
    },
    {
      "start_date": "1931-12-31",
      "source": "Annuaire Desfossés 1933",
      "page": "364"
    },
    {
      "start_date": "1932-12-31",
      "source": "Annuaire Desfossés 1936",
      "page": null
    },
    {
      "start_date": "1933-12-31",
      "source": "Annuaire Desfossés 1937",
      "page": "395"
    },
    {
      "start_date": "1934-12-31",
      "source": "Annuaire Desfossés 1937",
      "page": "395"
    },
    {
      "start_date": "1935-12-31",
      "source": "Annuaire Desfossés 1940",
      "page": null
    },
    {
      "start_date": "1936-12-31",
      "source": "Annuaire Desfossés 1945",
      "page": "498"
    },
    {
      "start_date": "1937-12-31",
      "source": "Annuaire Desfossés 1945",
      "page": "498"
    },
    {
      "start_date": "1938-12-31",
      "source": "Annuaire Desfossés 1945",
      "page": "498"
    },
    {
      "start_date": "1941-12-31",
      "source": "Annuaire Desfossés 1945",
      "page": "498"
    },
    {
      "start_date": "1944-12-31",
      "source": "Annuaire Desfossés 1948",
      "page": "531"
    },
    {
      "start_date": "1945-12-31",
      "source": "Annuaire Desfossés 1948",
      "page": "531"
    },
    {
      "start_date": "1946-12-31",
      "source": "Annuaire Desfossés 1948",
      "page": "531"
    },
    {
      "start_date": "1947-12-31",
      "source": "Annuaire Desfossés 1953",
      "page": "365"
    },
    {
      "start_date": "1948-12-31",
      "source": "Annuaire Desfossés 1953",
      "page": "365"
    },
    {
      "start_date": "1949-12-31",
      "source": "Annuaire Desfossés 1953",
      "page": "365"
    },
    {
      "start_date": "1950-12-31",
      "source": "Annuaire Desfossés 1953",
      "page": "365"
    },
    {
      "start_date": "1951-12-31",
      "source": "Annuaire Desfossés 1953",
      "page": "365"
    }
  ],
  "balance_sheets_stats": {
    "start_date": "1923-12-31",
    "end_date": "1951-12-31"
  },
  "locations_stats": {
    "start_date": "1923-01-01",
    "end_date": "1953-12-31"
  },
  "locations": {
    "Siège social": [
      {
        "location_types_id": 1,
        "location_type": "Siège social",
        "address": "Boulevard saint-germain, 280",
        "city": "Paris",
        "district": "Paris",
        "country": "France",
        "in_yearbook_from": 1923,
        "in_yearbook_to": 1953
      }
    ]
  },
  "persons": [
    {
      "persons_count": 6,
      "yearbook": "Annuaire Desfossés 1923",
      "source": "annuaire_df_1923",
      "page": "349"
    },
    {
      "persons_count": 8,
      "yearbook": "Annuaire Desfossés 1927",
      "source": "annuaire_df_1927",
      "page": "311"
    },
    {
      "persons_count": 16,
      "yearbook": "Annuaire Desfossés 1933",
      "source": "annuaire_df_1933",
      "page": "364"
    },
    {
      "persons_count": 15,
      "yearbook": "Annuaire Desfossés 1940",
      "source": "annuaire_df_1940",
      "page": null
    },
    {
      "persons_count": 10,
      "yearbook": "Annuaire Desfossés 1945",
      "source": "annuaire_df_1945",
      "page": "498"
    },
    {
      "persons_count": 7,
      "yearbook": "Annuaire Desfossés 1948",
      "source": "annuaire_df_1948",
      "page": "531"
    },
    {
      "persons_count": 15,
      "yearbook": "Annuaire Desfossés 1953",
      "source": "annuaire_df_1953",
      "page": "365"
    }
  ],
  "persons_stats": {
    "persons_count": 61,
    "start_date": "1923-01-01",
    "end_date": "1953-12-31"
  },
  "yearbooks_ocrs": [
    {
      "source": "annuaire_df_1923",
      "yearbook": "Annuaire Desfossés 1923",
      "page": "349"
    },
    {
      "source": "annuaire_df_1925",
      "yearbook": "Annuaire Desfossés 1925",
      "page": "384"
    },
    {
      "source": "annuaire_df_1927",
      "yearbook": "Annuaire Desfossés 1927",
      "page": "311"
    },
    {
      "source": "annuaire_df_1929",
      "yearbook": "Annuaire Desfossés 1929",
      "page": "331"
    },
    {
      "source": "annuaire_df_1931",
      "yearbook": "Annuaire Desfossés 1931",
      "page": "348"
    },
    {
      "source": "annuaire_df_1933",
      "yearbook": "Annuaire Desfossés 1933",
      "page": "364"
    },
    {
      "source": "annuaire_df_1937",
      "yearbook": "Annuaire Desfossés 1937",
      "page": "395"
    },
    {
      "source": "annuaire_df_1940",
      "yearbook": "Annuaire Desfossés 1940",
      "page": null
    },
    {
      "source": "annuaire_df_1945",
      "yearbook": "Annuaire Desfossés 1945",
      "page": "498"
    },
    {
      "source": "annuaire_df_1948",
      "yearbook": "Annuaire Desfossés 1948",
      "page": "531"
    },
    {
      "source": "annuaire_df_1953",
      "yearbook": "Annuaire Desfossés 1953",
      "page": "365"
    }
  ],
  "juridical_status": [
    {
      "juridical_status": "Société Anonyme (Libre)",
      "start_date": "1922-02-10",
      "end_date": "1999-12-31",
      "comments": "Société anonyme française, constituée le 10 février 1922, pour une durée expirant e 31 décembre 1999.",
      "source": "annuaire_df_1923"
    }
  ],
  "equity_capital": [
    {
      "amount": "50.000.000",
      "currency": "Franc",
      "infodate": "1922-02-10",
      "source": "annuaire_df_1923",
      "comments": "50 millions de francs, divisé en 100.000 actions de 500 francs, dont 20.000 actions A et 80.000 actions B. (Les actions sont nominatives et ont droit à 10 voix chacune dans les assemblées.)"
    },
    {
      "amount": "50.000.000",
      "currency": "Franc",
      "infodate": "1925-12-31",
      "source": "annuaire_df_1927",
      "comments": " 50 millions de francs, divisé en 100.000 actions de 500 francs, dont 20.000 actions A et 80.000 actions B. (Les actions A sont nominatives et ont droit à 10 voix chacune dans les assemblées.) Au 31 décembre 1925, 50 actions A et 220 actions B étaient amorties et remplacées par des actions de jouissance."
    },
    {
      "amount": "199.998.000",
      "currency": "Franc",
      "infodate": "1950-01-01",
      "source": "annuaire_df_1953",
      "comments": "300 millions de fr., divisé en 100.000 actions de 3.000 fr., dont 20.000 actions « A » et 80.000 actions « B ». Le capital qui était précédemment de 150 millions a été porté en 1950 à 199.998.000 fr. par l'émission aü pair de 16.666 actions de 3.000 fr. dont 3.333 A et 13.333 B, jouissance 1er janvier 1950. Porté en 1952 à 300 millions de fr. par émission de^S.SSl actions de 3.000 fr., dont 6.667 actions A et 26.667 actions B."
    },
    {
      "amount": "300.000.000",
      "currency": "Franc",
      "infodate": "1952-01-01",
      "source": "annuaire_df_1953",
      "comments": "300 millions de fr., divisé en 100.000 actions de 3.000 fr., dont 20.000 actions « A » et 80.000 actions « B ». Le capital qui était précédemment de 150 millions a été porté en 1950 à 199.998.000 fr. par l'émission aü pair de 16.666 actions de 3.000 fr. dont 3.333 A et 13.333 B, jouissance 1er janvier 1950. Porté en 1952 à 300 millions de fr. par émission de^S.SSl actions de 3.000 fr., dont 6.667 actions A et 26.667 actions B."
    }
  ],
  "profit_dividends": [
    {
      "first_date": "1925-12-31",
      "last_date": "1951-12-31",
      "obs_count": 203
    }
  ],
  "public_status": false,
  "stock_exchanges": {
    "1": {
      "id": 1,
      "name": "Paris (Official List)",
      "listings_stats": {
        "start_date": "1922-05-18"
      },
      "spot_prices_stats": {
        "start_date": "1922-05-18",
        "end_date": "1976-12-31"
      }
    }
  },
  "securities": {
    "7492": {
      "id": 7492,
      "name": "Maroc (Cie Chemins de fer du), act. B 500 fr., t.p. (n°s 1 à 80000)",
      "share_type": {
        "id": 1,
        "name": "Stock (Action)"
      },
      "types": [
        {
          "start_date": "1922-05-18",
          "end_date": "3999-12-31",
          "id": 34,
          "name": "Action B",
          "stock_group": "S"
        }
      ],
      "start_date": "1922-05-18",
      "end_date": "3999-12-31",
      "prices_from": "1922-05-18",
      "prices_to": "1951-08-31",
      "is_mainstock": 1,
      "prices_count": 653
    },
    "8012": {
      "id": 8012,
      "name": "Maroc (Cie Ch. Fer) 6%, r. à 500 fr. le 15 mai 1942",
      "share_type": {
        "id": 2,
        "name": "Bond (Obligation)"
      },
      "types": [
        {
          "start_date": "1923-01-05",
          "end_date": "3999-12-31",
          "id": 1001,
          "name": "Obligation ordinaire ou classique",
          "stock_group": "B"
        }
      ],
      "start_date": "1923-01-05",
      "end_date": "3999-12-31",
      "prices_from": "1923-01-05",
      "prices_to": "1942-05-01",
      "is_mainstock": 0,
      "prices_count": 506
    },
    "8055": {
      "id": 8055,
      "name": "Maroc (Cie ch.fer) 6,5% 1923, r.à 500 fr. Le 15 avril 1941",
      "share_type": {
        "id": 2,
        "name": "Bond (Obligation)"
      },
      "types": [
        {
          "start_date": "1924-04-25",
          "end_date": "3999-12-31",
          "id": 1001,
          "name": "Obligation ordinaire ou classique",
          "stock_group": "B"
        }
      ],
      "start_date": "1924-04-25",
      "end_date": "3999-12-31",
      "prices_from": "1924-04-25",
      "prices_to": "1941-03-31",
      "is_mainstock": 0,
      "prices_count": 442
    },
    "9804": {
      "id": 9804,
      "name": "Maroc (Cie de Chemin de fer) 4% 1930, remb. À 1000 fr. 1935-64",
      "share_type": {
        "id": 2,
        "name": "Bond (Obligation)"
      },
      "types": [
        {
          "start_date": "1931-01-09",
          "end_date": "3999-12-31",
          "id": 1001,
          "name": "Obligation ordinaire ou classique",
          "stock_group": "B"
        }
      ],
      "start_date": "1931-01-09",
      "end_date": "3999-12-31",
      "prices_from": "1931-01-09",
      "prices_to": "1951-07-31",
      "is_mainstock": 0,
      "prices_count": 451
    },
    "10379": {
      "id": 10379,
      "name": "Maroc (Cie de Chemin de fer) 5% 1933 (1er réseau), remboursables à 1000 fr. 1935-64",
      "share_type": {
        "id": 2,
        "name": "Bond (Obligation)"
      },
      "types": [
        {
          "start_date": "1933-05-19",
          "end_date": "3999-12-31",
          "id": 1001,
          "name": "Obligation ordinaire ou classique",
          "stock_group": "B"
        }
      ],
      "start_date": "1933-05-19",
      "end_date": "3999-12-31",
      "prices_from": "1933-05-19",
      "prices_to": "1952-01-31",
      "is_mainstock": 0,
      "prices_count": 444
    },
    "10393": {
      "id": 10393,
      "name": "Maroc (Cie de Chemin de fer) 5% 1933 (2e réseau), remboursables à 1000 fr. 1935-64",
      "share_type": {
        "id": 2,
        "name": "Bond (Obligation)"
      },
      "types": [
        {
          "start_date": "1934-02-23",
          "end_date": "3999-12-31",
          "id": 1001,
          "name": "Obligation ordinaire ou classique",
          "stock_group": "B"
        }
      ],
      "start_date": "1934-02-23",
      "end_date": "3999-12-31",
      "prices_from": "1934-02-23",
      "prices_to": "1952-07-31",
      "is_mainstock": 0,
      "prices_count": 456
    },
    "10394": {
      "id": 10394,
      "name": "Maroc (Cie de Chemin de fer) 5% 1933 (2e réseau), remb. À 5000 fr. (n°s 28701 à 29960)",
      "share_type": {
        "id": 2,
        "name": "Bond (Obligation)"
      },
      "types": [
        {
          "start_date": "1934-02-23",
          "end_date": "3999-12-31",
          "id": 1001,
          "name": "Obligation ordinaire ou classique",
          "stock_group": "B"
        }
      ],
      "start_date": "1934-02-23",
      "end_date": "3999-12-31",
      "prices_from": "1934-02-23",
      "prices_to": "1958-12-31",
      "is_mainstock": 0,
      "prices_count": 562
    },
    "11525": {
      "id": 11525,
      "name": "Maroc (Chemins de fer) 4,5% 41 (T. 22/1/62) 1942-99",
      "share_type": {
        "id": 2,
        "name": "Bond (Obligation)"
      },
      "types": [
        {
          "start_date": "1941-11-13",
          "end_date": "3999-12-31",
          "id": 1001,
          "name": "Obligation ordinaire ou classique",
          "stock_group": "B"
        }
      ],
      "start_date": "1941-11-13",
      "end_date": "3999-12-31",
      "prices_from": "1941-11-13",
      "prices_to": "1976-12-31",
      "is_mainstock": 0,
      "prices_count": 847
    },
    "11526": {
      "id": 11526,
      "name": "Maroc (Chemins de fer) 4,5% 1941-1955 (1941 nos 62266 à 79359 ) (Tir. 22/1/62) 1942-99",
      "share_type": {
        "id": 2,
        "name": "Bond (Obligation)"
      },
      "types": [
        {
          "start_date": "1941-11-13",
          "end_date": "3999-12-31",
          "id": 1001,
          "name": "Obligation ordinaire ou classique",
          "stock_group": "B"
        }
      ],
      "start_date": "1941-11-13",
      "end_date": "3999-12-31",
      "prices_from": "1941-11-13",
      "prices_to": "1976-12-31",
      "is_mainstock": 0,
      "prices_count": 845
    },
    "11714": {
      "id": 11714,
      "name": "Maroc (Cie Chemins de fer du), Act. B de jouiss.",
      "share_type": {
        "id": 1,
        "name": "Stock (Action)"
      },
      "types": [
        {
          "start_date": "1942-10-14",
          "end_date": "3999-12-31",
          "id": 22,
          "name": "Action de jouissance",
          "stock_group": "S"
        }
      ],
      "start_date": "1942-10-14",
      "end_date": "3999-12-31",
      "prices_from": "1943-01-04",
      "prices_to": "1948-11-30",
      "is_mainstock": 0,
      "prices_count": 128
    },
    "12544": {
      "id": 12544,
      "name": "Maroc (Chemins de fer) 4% 1946-53-54 (Tir. 22/10/62) 1947-76",
      "share_type": {
        "id": 2,
        "name": "Bond (Obligation)"
      },
      "types": [
        {
          "start_date": "1947-10-16",
          "end_date": "3999-12-31",
          "id": 1001,
          "name": "Obligation ordinaire ou classique",
          "stock_group": "B"
        }
      ],
      "start_date": "1947-10-16",
      "end_date": "3999-12-31",
      "prices_from": "1947-10-16",
      "prices_to": "1966-11-30",
      "is_mainstock": 0,
      "prices_count": 474
    },
    "12944": {
      "id": 12944,
      "name": "Maroc (Cie Chemin de fer du), Act. B anc. 1000 fr., 500 fr. amort.",
      "share_type": {
        "id": 1,
        "name": "Stock (Action)"
      },
      "types": [
        {
          "start_date": "1948-12-02",
          "end_date": "3999-12-31",
          "id": 34,
          "name": "Action B",
          "stock_group": "S"
        }
      ],
      "start_date": "1948-12-02",
      "end_date": "3999-12-31",
      "prices_from": "1948-12-14",
      "prices_to": "1951-08-31",
      "is_mainstock": 0,
      "prices_count": 50
    },
    "13380": {
      "id": 13380,
      "name": "Maroc (Chemins de fer) 6% 1949 (Tir. 26/2/62) 1950 -79",
      "share_type": {
        "id": 2,
        "name": "Bond (Obligation)"
      },
      "types": [
        {
          "start_date": "1949-09-09",
          "end_date": "3999-12-31",
          "id": 1001,
          "name": "Obligation ordinaire ou classique",
          "stock_group": "B"
        }
      ],
      "start_date": "1949-09-09",
      "end_date": "3999-12-31",
      "prices_from": "1949-09-14",
      "prices_to": "1976-12-31",
      "is_mainstock": 0,
      "prices_count": 674
    },
    "13458": {
      "id": 13458,
      "name": "Chemins de fer du Maroc (Cie des), act. B (n°s 687 à 80000)",
      "share_type": {
        "id": 1,
        "name": "Stock (Action)"
      },
      "types": [
        {
          "start_date": "1950-01-04",
          "end_date": "3999-12-31",
          "id": 34,
          "name": "Action B",
          "stock_group": "S"
        }
      ],
      "start_date": "1950-01-04",
      "end_date": "3999-12-31",
      "prices_from": "1950-01-04",
      "prices_to": "1974-01-31",
      "is_mainstock": 0,
      "prices_count": 599
    },
    "13994": {
      "id": 13994,
      "name": "Maroc (Chemins de fer) 4% (titres regroupés) (Tir. 24/5/62) 1951-64",
      "share_type": {
        "id": 1,
        "name": "Stock (Action)"
      },
      "types": [
        {
          "start_date": "1951-02-14",
          "end_date": "3999-12-31",
          "id": 11,
          "name": "Action ordinaire",
          "stock_group": "S"
        }
      ],
      "start_date": "1951-02-14",
      "end_date": "3999-12-31",
      "prices_from": "1951-02-15",
      "prices_to": "1963-07-01",
      "is_mainstock": 0,
      "prices_count": 312
    },
    "14266": {
      "id": 14266,
      "name": "Maroc (Ch. De fer) 5% (titres regroupés) (n°s 80001 à 89217) (Tir. 12/12/55) (13) 1951-64",
      "share_type": {
        "id": 2,
        "name": "Bond (Obligation)"
      },
      "types": [
        {
          "start_date": "1951-08-13",
          "end_date": "3999-12-31",
          "id": 1001,
          "name": "Obligation ordinaire ou classique",
          "stock_group": "B"
        }
      ],
      "start_date": "1951-08-13",
      "end_date": "3999-12-31",
      "prices_from": "1951-11-15",
      "prices_to": "1961-12-15",
      "is_mainstock": 0,
      "prices_count": 259
    },
    "15767": {
      "id": 15767,
      "name": "Maroc (Chemins de fer) 5,5% min. août 1958 à int. et prime de remb. variable (Avis 34287) 1964-78",
      "share_type": {
        "id": 2,
        "name": "Bond (Obligation)"
      },
      "types": [
        {
          "start_date": "1959-01-02",
          "end_date": "3999-12-31",
          "id": 1001,
          "name": "Obligation ordinaire ou classique",
          "stock_group": "B"
        }
      ],
      "start_date": "1959-01-02",
      "end_date": "3999-12-31",
      "prices_from": "1959-01-05",
      "prices_to": "1976-12-31",
      "is_mainstock": 0,
      "prices_count": 434
    },
    "15829": {
      "id": 15829,
      "name": "Maroc (Ch.de fer du) 5% 1933 (2 rés.)(tit.anc.recoup.n°28701 à 29960 et tit.nouv.regroup.n°29961 à 33049) (Tir.28/9/61) 1935-64",
      "share_type": {
        "id": 2,
        "name": "Bond (Obligation)"
      },
      "types": [
        {
          "start_date": "1959-01-02",
          "end_date": "3999-12-31",
          "id": 1001,
          "name": "Obligation ordinaire ou classique",
          "stock_group": "B"
        }
      ],
      "start_date": "1959-01-02",
      "end_date": "3999-12-31",
      "prices_from": "1959-01-15",
      "prices_to": "1962-10-31",
      "is_mainstock": 0,
      "prices_count": 23
    },
    "18632": {
      "id": 18632,
      "name": "Franco-Marocaine (Cie) 4% 1946-53-54 de 50 F (n° 480001 à 701479) (Tir.11/10/74).Remb.le 1/12/75",
      "share_type": {
        "id": 2,
        "name": "Bond (Obligation)"
      },
      "types": [
        {
          "start_date": "1966-12-05",
          "end_date": "3999-12-31",
          "id": 1001,
          "name": "Obligation ordinaire ou classique",
          "stock_group": "B"
        }
      ],
      "start_date": "1966-12-05",
      "end_date": "3999-12-31",
      "prices_from": "1966-12-05",
      "prices_to": "1975-11-17",
      "is_mainstock": 0,
      "prices_count": 216
    },
    "21285": {
      "id": 21285,
      "name": "Franco-Marocaine (Cie), act. \"B\" (n° 80001 à 93219) (c. 86 barré att.)",
      "share_type": {
        "id": 1,
        "name": "Stock (Action)"
      },
      "types": [
        {
          "start_date": "1973-12-17",
          "end_date": "3999-12-31",
          "id": 18,
          "name": "Action",
          "stock_group": "S"
        }
      ],
      "start_date": "1973-12-17",
      "end_date": "3999-12-31",
      "prices_from": null,
      "prices_to": null,
      "is_mainstock": 0,
      "prices_count": 0
    },
    "101008": {
      "id": 101008,
      "name": "Act. B 1000 fr., t. p. ou act. B 1000 fr., 500 fr. amortis. Maroc (Ch. de fer du) (dr. et c. 56 ou 19) (1 act. B nouv. émise à 1100 fr. pour 2 act. anc.)",
      "share_type": {
        "id": 4,
        "name": "Rights (Droits)"
      },
      "types": [
        {
          "start_date": "1948-12-13",
          "end_date": "3999-12-31",
          "id": 501,
          "name": "Droit de souscription",
          "stock_group": "R"
        }
      ],
      "start_date": "1948-12-13",
      "end_date": "3999-12-31",
      "prices_from": "1948-12-13",
      "prices_to": "1948-12-13",
      "is_mainstock": 0,
      "prices_count": 1
    },
    "101149": {
      "id": 101149,
      "name": "Act. B 1000 fr. ou B 1000 fr., 500 fr. amort. Chemins de fer du Maroc (dr. et coup. 58) ou 21 (1 act. B de 3000 fr. Émise à 3000 fr., jce 1/1/50, pour 9 actions anciennes)",
      "share_type": {
        "id": 4,
        "name": "Rights (Droits)"
      },
      "types": [
        {
          "start_date": "1950-02-20",
          "end_date": "3999-12-31",
          "id": 501,
          "name": "Droit de souscription",
          "stock_group": "R"
        }
      ],
      "start_date": "1950-02-20",
      "end_date": "3999-12-31",
      "prices_from": "1950-02-20",
      "prices_to": "1950-02-20",
      "is_mainstock": 0,
      "prices_count": 1
    },
    "101150": {
      "id": 101150,
      "name": "Act. B 3000 fr. Chemins de fer du Maroc (droit et coup. 58) (1 act. B nouv. émise à 3000 fr., jce 1/1/50, pour 3 actions anciennes)",
      "share_type": {
        "id": 4,
        "name": "Rights (Droits)"
      },
      "types": [
        {
          "start_date": "1950-02-20",
          "end_date": "3999-12-31",
          "id": 501,
          "name": "Droit de souscription",
          "stock_group": "R"
        }
      ],
      "start_date": "1950-02-20",
      "end_date": "3999-12-31",
      "prices_from": "1950-02-21",
      "prices_to": "1950-02-21",
      "is_mainstock": 0,
      "prices_count": 1
    }
  }
}