{
  "id": 5938,
  "names": [
    "Lyonnaise pour l'Exploitation de Véhicules (S.I.E.V.E.)"
  ],
  "name": "Lyonnaise pour l'Exploitation de Véhicules (S.I.E.V.E.)",
  "balance_sheets": [],
  "balance_sheets_stats": {
    "start_date": null,
    "end_date": null
  },
  "locations_stats": {
    "start_date": null,
    "end_date": null
  },
  "locations": {},
  "persons": [],
  "persons_stats": {
    "persons_count": 0,
    "start_date": null,
    "end_date": null
  },
  "yearbooks_ocrs": [],
  "juridical_status": [],
  "equity_capital": [],
  "profit_dividends": [],
  "public_status": false,
  "stock_exchanges": {
    "1": {
      "id": 1,
      "name": "Paris (Official List)",
      "listings_stats": {
        "start_date": "1967-05-02"
      },
      "spot_prices_stats": {
        "start_date": "1967-05-05",
        "end_date": "1976-12-31"
      }
    }
  },
  "securities": {
    "19240": {
      "id": 19240,
      "name": "Lyon_Bourse Lyonnaise pour l'Exploitation de Véhicules (S.I.E.V.E.), act.",
      "share_type": {
        "id": 1,
        "name": "Stock (Action)"
      },
      "types": [
        {
          "start_date": "1967-05-02",
          "end_date": "3999-12-31",
          "id": 18,
          "name": "Action",
          "stock_group": "S"
        }
      ],
      "start_date": "1967-05-02",
      "end_date": "3999-12-31",
      "prices_from": "1967-05-05",
      "prices_to": "1976-12-31",
      "is_mainstock": 0,
      "prices_count": 232
    },
    "20535": {
      "id": 20535,
      "name": "LYON_BOURSE_Lyonnaise pour l'Exploitation de Véhicules (S.L.E.V.E.), a. (ex-dr., ) - Promesses (Jce 1/1/70)",
      "share_type": {
        "id": 1,
        "name": "Stock (Action)"
      },
      "types": [
        {
          "start_date": "1970-04-20",
          "end_date": "3999-12-31",
          "id": 27,
          "name": "Promesse d'action",
          "stock_group": "S"
        }
      ],
      "start_date": "1970-04-20",
      "end_date": "3999-12-31",
      "prices_from": "1970-04-21",
      "prices_to": "1970-06-01",
      "is_mainstock": 0,
      "prices_count": 4
    },
    "20536": {
      "id": 20536,
      "name": "LYON_BOURSE_Lyonnaise pour l'Exploitation de Véhicules (S.L.E.V.E.), a. (ex-dr., ) - Act. Nouv (Jce 1/7/70)",
      "share_type": {
        "id": 1,
        "name": "Stock (Action)"
      },
      "types": [
        {
          "start_date": "1970-06-15",
          "end_date": "3999-12-31",
          "id": 11,
          "name": "Action ordinaire",
          "stock_group": "S"
        }
      ],
      "start_date": "1970-06-15",
      "end_date": "3999-12-31",
      "prices_from": "1970-06-15",
      "prices_to": "1970-11-03",
      "is_mainstock": 0,
      "prices_count": 10
    },
    "20537": {
      "id": 20537,
      "name": "LYON_BOURSE_Lyonnaise pour l'Exploitation de Véhicules (S.L.E.V.E.), act. - Act. (nos 108001 à 135000) (c. 8 barré att.)",
      "share_type": {
        "id": 1,
        "name": "Stock (Action)"
      },
      "types": [
        {
          "start_date": "1970-11-09",
          "end_date": "3999-12-31",
          "id": 11,
          "name": "Action ordinaire",
          "stock_group": "S"
        }
      ],
      "start_date": "1970-11-09",
      "end_date": "3999-12-31",
      "prices_from": "1970-11-16",
      "prices_to": "1971-08-31",
      "is_mainstock": 0,
      "prices_count": 20
    },
    "22200": {
      "id": 22200,
      "name": "Lyon_Bourse Lyonnaise pour l'Exploitation de Véhicules (S.I.E.V.E.), Act. Anc.",
      "share_type": {
        "id": 1,
        "name": "Stock (Action)"
      },
      "types": [
        {
          "start_date": "1967-05-02",
          "end_date": "3999-12-31",
          "id": 18,
          "name": "Action",
          "stock_group": "S"
        }
      ],
      "start_date": "1967-05-02",
      "end_date": "3999-12-31",
      "prices_from": "1967-05-16",
      "prices_to": "1967-06-30",
      "is_mainstock": 0,
      "prices_count": 4
    }
  }
}