{
  "id": 5245,
  "names": [
    "CHAMBRE DE COMMERCE DE BOULOGNE-SUR-MER",
    "Chambre de Commerce de Boulogne-sur-Mer"
  ],
  "name": "CHAMBRE DE COMMERCE DE BOULOGNE-SUR-MER",
  "balance_sheets": [],
  "balance_sheets_stats": {
    "start_date": null,
    "end_date": null
  },
  "locations_stats": {
    "start_date": null,
    "end_date": null
  },
  "locations": {},
  "persons": [],
  "persons_stats": {
    "persons_count": 0,
    "start_date": null,
    "end_date": null
  },
  "yearbooks_ocrs": [
    {
      "source": "annuaire_df_1929",
      "yearbook": "Annuaire Desfossés 1929",
      "page": "1430"
    }
  ],
  "juridical_status": [],
  "equity_capital": [],
  "profit_dividends": [],
  "public_status": false,
  "stock_exchanges": {
    "1": {
      "id": 1,
      "name": "Paris (Official List)",
      "listings_stats": {
        "start_date": "1928-02-23"
      },
      "spot_prices_stats": {
        "start_date": "1928-02-23",
        "end_date": "1970-03-02"
      }
    }
  },
  "securities": {
    "8502": {
      "id": 8502,
      "name": "Chambre de Commerce de Boulogne-sur-Mer, 6,5% 1927, remb. à 1000 fr.",
      "share_type": {
        "id": 2,
        "name": "Bond (Obligation)"
      },
      "types": [
        {
          "start_date": "1928-02-23",
          "end_date": "3999-12-31",
          "id": 1001,
          "name": "Obligation ordinaire ou classique",
          "stock_group": "B"
        }
      ],
      "start_date": "1928-02-23",
      "end_date": "3999-12-31",
      "prices_from": "1928-02-23",
      "prices_to": "1930-09-15",
      "is_mainstock": 0,
      "prices_count": 80
    },
    "14573": {
      "id": 14573,
      "name": "Chambre de Commerce de Boulogne-sur-Mer 6,25% 1952, r. à 11000 f. (Tir. 3/2/55) 1953-70",
      "share_type": {
        "id": 2,
        "name": "Bond (Obligation)"
      },
      "types": [
        {
          "start_date": "1952-12-01",
          "end_date": "3999-12-31",
          "id": 1001,
          "name": "Obligation ordinaire ou classique",
          "stock_group": "B"
        }
      ],
      "start_date": "1952-12-01",
      "end_date": "3999-12-31",
      "prices_from": "1952-12-03",
      "prices_to": "1962-07-02",
      "is_mainstock": 0,
      "prices_count": 249
    },
    "18684": {
      "id": 18684,
      "name": "Chambre de commerce de Boulogne-sur-Mer 6,25% 1952, remb. À 105 F (T.17/1/69) 1953-70",
      "share_type": {
        "id": 2,
        "name": "Bond (Obligation)"
      },
      "types": [
        {
          "start_date": "1967-05-02",
          "end_date": "3999-12-31",
          "id": 1001,
          "name": "Obligation ordinaire ou classique",
          "stock_group": "B"
        }
      ],
      "start_date": "1967-05-02",
      "end_date": "3999-12-31",
      "prices_from": "1967-05-05",
      "prices_to": "1970-03-02",
      "is_mainstock": 0,
      "prices_count": 68
    }
  }
}