{
  "id": 10224,
  "names": [
    "CHEMINS DE FER DU NORD DE SAO-PAULO (Résaau d'Araraquara et prolongements)",
    "CHEMINS DE FER DU NORD DE SAO-PAULO (Réseau d'Araraquara et prolongement)",
    "CHEMINS DE FER DU NORD DE SAO-PAULO (Réseau d'Araraquara et prolongements)",
    "COMPAGNIE DES CHEMINS DE FER DU NORD DE SAO-PAULO (Réseau d'Araraquara et prolongements)",
    "Compagnie du chemin de fer du Nord de Sao-Paulo (Réseau d'Araraquara et prolongements)"
  ],
  "name": "CHEMINS DE FER DU NORD DE SAO-PAULO (Réseau d'Araraquara et prolongements)",
  "balance_sheets": [
    {
      "start_date": "1909-12-31",
      "source": "Annuaire Desfossés 1925",
      "page": "485"
    }
  ],
  "balance_sheets_stats": {
    "start_date": "1909-12-31",
    "end_date": "1909-12-31"
  },
  "locations_stats": {
    "start_date": "1912-01-01",
    "end_date": "1953-12-31"
  },
  "locations": {
    "Siège social": [
      {
        "location_types_id": 1,
        "location_type": "Siège social",
        "address": null,
        "city": "Sâo-Paulo",
        "district": null,
        "country": "Brésil",
        "in_yearbook_from": 1912,
        "in_yearbook_to": 1953
      }
    ]
  },
  "persons": [],
  "persons_stats": {
    "persons_count": 0,
    "start_date": null,
    "end_date": null
  },
  "yearbooks_ocrs": [
    {
      "source": "annuaire_df_1912",
      "yearbook": "Annuaire Desfossés 1912",
      "page": "395"
    },
    {
      "source": "annuaire_df_1914",
      "yearbook": "Annuaire Desfossés 1914",
      "page": "450"
    },
    {
      "source": "annuaire_df_1917",
      "yearbook": "Annuaire Desfossés 1917",
      "page": "398"
    },
    {
      "source": "annuaire_df_1920",
      "yearbook": "Annuaire Desfossés 1920",
      "page": "405"
    },
    {
      "source": "annuaire_df_1923",
      "yearbook": "Annuaire Desfossés 1923",
      "page": "442"
    },
    {
      "source": "annuaire_df_1925",
      "yearbook": "Annuaire Desfossés 1925",
      "page": "485"
    },
    {
      "source": "annuaire_df_1927",
      "yearbook": "Annuaire Desfossés 1927",
      "page": "391"
    },
    {
      "source": "annuaire_df_1929",
      "yearbook": "Annuaire Desfossés 1929",
      "page": "408"
    },
    {
      "source": "annuaire_df_1931",
      "yearbook": "Annuaire Desfossés 1931",
      "page": "416"
    },
    {
      "source": "annuaire_df_1933",
      "yearbook": "Annuaire Desfossés 1933",
      "page": "436"
    },
    {
      "source": "annuaire_df_1937",
      "yearbook": "Annuaire Desfossés 1937",
      "page": "447"
    },
    {
      "source": "annuaire_df_1940",
      "yearbook": "Annuaire Desfossés 1940",
      "page": null
    },
    {
      "source": "annuaire_df_1945",
      "yearbook": "Annuaire Desfossés 1945",
      "page": "553"
    },
    {
      "source": "annuaire_df_1948",
      "yearbook": "Annuaire Desfossés 1948",
      "page": "587"
    },
    {
      "source": "annuaire_df_1953",
      "yearbook": "Annuaire Desfossés 1953",
      "page": "412"
    }
  ],
  "juridical_status": [
    {
      "juridical_status": "Société anonyme brésilienne",
      "start_date": "1896-01-01",
      "end_date": "1913-12-31",
      "comments": "Société anonyme brésilienne, constituée en 1896, pour une durée de 90 ans.",
      "source": "annuaire_df_1927"
    },
    {
      "juridical_status": "Mise en faillite",
      "start_date": "1914-01-01",
      "end_date": "3999-12-31",
      "comments": "Société anonyme brésilienne, constituée en 1896, pour une durée de 90 ans.  En 1914 cette Compagnie fut déclarée en état de faillite. Depuis tout l'actif de la Compagnie a été vendu et adjugé à la Sao Paulo Northern Railway Cy.  Un projet d'échange des obligations lre hypothèque contre des obligations à revenu variable cumulatif 5 % n'a pas été encore adopté piy: les porteurs français.",
      "source": "annuaire_df_1948"
    }
  ],
  "equity_capital": [
    {
      "amount": "3.000",
      "currency": "Réal",
      "infodate": "1896-01-01",
      "source": "annuaire_df_1917",
      "comments": "Capital social : 3.000 contos de reis, divisé en 15.000 actions de 200 milreis."
    }
  ],
  "profit_dividends": [
    {
      "first_date": "1904-12-31",
      "last_date": "1922-12-31",
      "obs_count": 42
    }
  ],
  "public_status": false
}