{
  "id": 4465,
  "names": [
    "FORGES ET CHANTIERS DE LA GIRONDE",
    "Forges et Chantiers de la Gironde"
  ],
  "name": "FORGES ET CHANTIERS DE LA GIRONDE",
  "balance_sheets": [
    {
      "start_date": "1931-12-31",
      "source": "Annuaire Desfossés 1933",
      "page": "894"
    },
    {
      "start_date": "1932-12-31",
      "source": "Annuaire Desfossés 1936",
      "page": null
    },
    {
      "start_date": "1933-12-31",
      "source": "Annuaire Desfossés 1937",
      "page": "886"
    },
    {
      "start_date": "1934-12-31",
      "source": "Annuaire Desfossés 1937",
      "page": "886"
    },
    {
      "start_date": "1935-12-31",
      "source": "Annuaire Desfossés 1940",
      "page": null
    },
    {
      "start_date": "1936-12-31",
      "source": "Annuaire Desfossés 1940",
      "page": null
    },
    {
      "start_date": "1937-12-31",
      "source": "Annuaire Desfossés 1940",
      "page": null
    },
    {
      "start_date": "1939-12-31",
      "source": "Annuaire Desfossés 1945",
      "page": "2297"
    },
    {
      "start_date": "1939-12-31",
      "source": "Annuaire Desfossés 1945",
      "page": "1077"
    },
    {
      "start_date": "1941-12-31",
      "source": "Annuaire Desfossés 1945",
      "page": "1077"
    },
    {
      "start_date": "1941-12-31",
      "source": "Annuaire Desfossés 1945",
      "page": "2297"
    },
    {
      "start_date": "1942-12-31",
      "source": "Annuaire Desfossés 1945",
      "page": "2297"
    },
    {
      "start_date": "1942-12-31",
      "source": "Annuaire Desfossés 1945",
      "page": "1077"
    },
    {
      "start_date": "1943-12-31",
      "source": "Annuaire Desfossés 1945",
      "page": "1077"
    },
    {
      "start_date": "1943-12-31",
      "source": "Annuaire Desfossés 1945",
      "page": "2297"
    },
    {
      "start_date": "1944-12-31",
      "source": "Annuaire Desfossés 1948",
      "page": "1153"
    },
    {
      "start_date": "1945-12-31",
      "source": "Annuaire Desfossés 1948",
      "page": "1153"
    },
    {
      "start_date": "1946-12-31",
      "source": "Annuaire Desfossés 1948",
      "page": "1153"
    },
    {
      "start_date": "1947-12-31",
      "source": "Annuaire Desfossés 1948",
      "page": "1153"
    },
    {
      "start_date": "1948-12-31",
      "source": "Annuaire Desfossés 1953",
      "page": "967"
    },
    {
      "start_date": "1949-12-31",
      "source": "Annuaire Desfossés 1953",
      "page": "967"
    },
    {
      "start_date": "1950-12-31",
      "source": "Annuaire Desfossés 1953",
      "page": "967"
    },
    {
      "start_date": "1951-12-31",
      "source": "Annuaire Desfossés 1953",
      "page": "967"
    }
  ],
  "balance_sheets_stats": {
    "start_date": "1931-12-31",
    "end_date": "1951-12-31"
  },
  "locations_stats": {
    "start_date": "1933-01-01",
    "end_date": "1953-12-31"
  },
  "locations": {
    "Siège social": [
      {
        "location_types_id": 1,
        "location_type": "Siège social",
        "address": "Boulevard malesherbes, 16",
        "city": "Paris",
        "district": "Paris",
        "country": "France",
        "in_yearbook_from": 1933,
        "in_yearbook_to": 1953
      }
    ],
    "Usines": [
      {
        "location_types_id": 3,
        "location_type": "Usines",
        "address": null,
        "city": "Bordeaux",
        "district": "Gironde",
        "country": "France",
        "in_yearbook_from": 1945,
        "in_yearbook_to": 1945
      }
    ]
  },
  "persons": [
    {
      "persons_count": 6,
      "yearbook": "Annuaire Desfossés 1933",
      "source": "annuaire_df_1933",
      "page": "894"
    },
    {
      "persons_count": 4,
      "yearbook": "Annuaire Desfossés 1940",
      "source": "annuaire_df_1940",
      "page": null
    },
    {
      "persons_count": 5,
      "yearbook": "Annuaire Desfossés 1945",
      "source": "annuaire_df_1945",
      "page": "2297"
    },
    {
      "persons_count": 5,
      "yearbook": "Annuaire Desfossés 1945",
      "source": "annuaire_df_1945",
      "page": "1077"
    },
    {
      "persons_count": 5,
      "yearbook": "Annuaire Desfossés 1948",
      "source": "annuaire_df_1948",
      "page": "1153"
    },
    {
      "persons_count": 8,
      "yearbook": "Annuaire Desfossés 1953",
      "source": "annuaire_df_1953",
      "page": "967"
    }
  ],
  "persons_stats": {
    "persons_count": 21,
    "start_date": "1933-01-01",
    "end_date": "1953-12-31"
  },
  "yearbooks_ocrs": [
    {
      "source": "annuaire_df_1933",
      "yearbook": "Annuaire Desfossés 1933",
      "page": "894"
    },
    {
      "source": "annuaire_df_1937",
      "yearbook": "Annuaire Desfossés 1937",
      "page": "886"
    },
    {
      "source": "annuaire_df_1940",
      "yearbook": "Annuaire Desfossés 1940",
      "page": null
    },
    {
      "source": "annuaire_df_1945",
      "yearbook": "Annuaire Desfossés 1945",
      "page": "2297"
    },
    {
      "source": "annuaire_df_1945",
      "yearbook": "Annuaire Desfossés 1945",
      "page": "1077"
    },
    {
      "source": "annuaire_df_1948",
      "yearbook": "Annuaire Desfossés 1948",
      "page": "1153"
    },
    {
      "source": "annuaire_df_1953",
      "yearbook": "Annuaire Desfossés 1953",
      "page": "967"
    }
  ],
  "juridical_status": [
    {
      "juridical_status": "Société Anonyme (Libre)",
      "start_date": "1927-01-01",
      "end_date": "2026-01-31",
      "comments": "Constitution : Société anonyme française, constituée en 1927, pour une durée de 99 ans.",
      "source": "annuaire_df_1937"
    }
  ],
  "equity_capital": [
    {
      "amount": "1.000.000",
      "currency": "Franc",
      "infodate": "1926-01-01",
      "source": "annuaire_df_1933",
      "comments": "A l'origine  1.000.000 de francs"
    },
    {
      "amount": "5.000.000",
      "currency": "Franc",
      "infodate": "1927-01-01",
      "source": "annuaire_df_1933",
      "comments": ", porté à 5.000.000 de francs en 1927\n"
    },
    {
      "amount": "30.000.000",
      "currency": "Franc",
      "infodate": "1930-07-01",
      "source": "annuaire_df_1940",
      "comments": " 30 millions de francs, divisé en 60.000 actions de 500 francs. A l'origine 1 million de francs, porté à 5 millions de francs en 1927 et au chiffre actuel en juillet 1930"
    },
    {
      "amount": "60.000.000",
      "currency": "Franc",
      "infodate": "1946-01-01",
      "source": "annuaire_df_1948",
      "comments": "60 millions de francs par incorporation de réserves et création de 60.000 actions de 500 francs attribuées gratuitement à raison d'une pour une. A l'origine 1 million de francs, porté à 5 millions de francs en 1927 et à 30 millions en juillet 1930. Porté en 1946 au chiffre actuel. "
    },
    {
      "amount": "90.000.000",
      "currency": "Franc",
      "infodate": "1947-01-01",
      "source": "annuaire_df_1948",
      "comments": "90 millions de francs, divisé en 180.000 actions de 500 francs. A l'origine 1 million de francs, porté à 5 millions de francs en 1927 et à 30 millions en juillet 1930. Porté en 1946 à 60 millions par incorporation de réserves et création de 60.000 actions de 500 fr. attribuées gratuitement à raison d'une pour une et en 1947 au chiffre actuel par l'émission au pair de 60.000 actions de 500 fr. (une nouv. pour 2 anc.)."
    },
    {
      "amount": "135.000.000",
      "currency": "Franc",
      "infodate": "1950-01-01",
      "source": "annuaire_df_1953",
      "comments": "Porté à 5 millions de fr. en 1927 et à 30 millions en juillet 1930. Porté en 1946 à 60 millions par incorporation de réserves et création de 60.000 actions de 500 fr. attribuées gratuitement à raison de 1 pour 1, en 1947 A 90 millions par l'émission au pair de 60.000 actions de 500 fr. (1 nouv. pour 2 anc. ), et à 135 millions en 1950, augmentation du nominal porté de 500 à 750 fr. par incorporation de réserves. Titres regroupés à partir du 2 avril 1951."
    }
  ],
  "profit_dividends": [
    {
      "first_date": "1930-12-31",
      "last_date": "1951-12-31",
      "obs_count": 150
    }
  ],
  "public_status": false
}