{
  "id": 12033,
  "names": [
    "Société des Tables-Annonces"
  ],
  "name": "Société des Tables-Annonces",
  "balance_sheets": [],
  "balance_sheets_stats": {
    "start_date": null,
    "end_date": null
  },
  "locations_stats": {
    "start_date": null,
    "end_date": null
  },
  "locations": {},
  "persons": [],
  "persons_stats": {
    "persons_count": 0,
    "start_date": null,
    "end_date": null
  },
  "yearbooks_ocrs": [],
  "juridical_status": [],
  "equity_capital": [],
  "profit_dividends": [],
  "public_status": false,
  "stock_exchanges": {
    "2": {
      "id": 2,
      "name": "Paris OTC (Coulisse)",
      "listings_stats": {
        "start_date": "1880-01-16"
      },
      "spot_prices_stats": {
        "start_date": "1880-07-15",
        "end_date": "1880-07-31"
      }
    }
  },
  "securities": {
    "104407": {
      "id": 104407,
      "name": "Tables annonces",
      "share_type": {
        "id": 1,
        "name": "Stock (Action)"
      },
      "types": [
        {
          "start_date": "1880-01-16",
          "end_date": "1882-12-31",
          "id": 18,
          "name": "Action",
          "stock_group": "S"
        }
      ],
      "start_date": "1880-01-16",
      "end_date": "1181-12-31",
      "prices_from": "1880-07-15",
      "prices_to": "1880-07-31",
      "is_mainstock": 1,
      "prices_count": 2
    }
  }
}