{
  "id": 16031,
  "names": [
    "BANQUE GRINDLAY OTTOMANE",
    "BANQUE OTTOMANE (FRANCE)",
    "GRINDLAYS BANK SA",
    "MONTE PASCHI BANQUE",
    "MONTE PASCHI BANQUE SA",
    "MONTE PASCHI BANQUE SA (ANCIENNEMENT GRINDLAYS BANK SA)"
  ],
  "name": "MONTE PASCHI BANQUE",
  "balance_sheets": [],
  "balance_sheets_stats": {
    "start_date": null,
    "end_date": null
  },
  "locations_stats": {
    "start_date": null,
    "end_date": null
  },
  "locations": {},
  "persons": [],
  "persons_stats": {
    "persons_count": 0,
    "start_date": null,
    "end_date": null
  },
  "yearbooks_ocrs": [],
  "juridical_status": [],
  "equity_capital": [],
  "profit_dividends": [],
  "public_status": false
}