{
  "id": 10537,
  "names": [
    "Etablissements Zibell",
    "RAFFINERIE D'OZOKÉRITE (ÉTABLISSEMENTS ZIBELL)",
    "ÉTABLISSEMENTS ZIBELL"
  ],
  "name": "ÉTABLISSEMENTS ZIBELL",
  "balance_sheets": [
    {
      "start_date": "1927-06-30",
      "source": "Annuaire Desfossés 1929",
      "page": "1083"
    }
  ],
  "balance_sheets_stats": {
    "start_date": "1927-06-30",
    "end_date": "1927-06-30"
  },
  "locations_stats": {
    "start_date": "1923-01-01",
    "end_date": "1928-12-31"
  },
  "locations": {
    "Siège social": [
      {
        "location_types_id": 1,
        "location_type": "Siège social",
        "address": "Avenue de la république, 38 bis",
        "city": "Paris",
        "district": "Paris",
        "country": "France",
        "in_yearbook_from": 1923,
        "in_yearbook_to": 1923
      },
      {
        "location_types_id": 1,
        "location_type": "Siège social",
        "address": "Rue drouot, 14",
        "city": "Paris",
        "district": "Paris",
        "country": "France",
        "in_yearbook_from": 1924,
        "in_yearbook_to": 1928
      }
    ]
  },
  "persons": [
    {
      "persons_count": 1,
      "yearbook": "Annuaire Desfossés 1923",
      "source": "annuaire_df_1923",
      "page": "1345"
    },
    {
      "persons_count": 4,
      "yearbook": "Annuaire Desfossés 1927",
      "source": "annuaire_df_1927",
      "page": "1023"
    }
  ],
  "persons_stats": {
    "persons_count": 5,
    "start_date": "1923-01-01",
    "end_date": "1927-12-31"
  },
  "yearbooks_ocrs": [
    {
      "source": "annuaire_df_1923",
      "yearbook": "Annuaire Desfossés 1923",
      "page": "1345"
    },
    {
      "source": "annuaire_df_1925",
      "yearbook": "Annuaire Desfossés 1925",
      "page": "1232"
    },
    {
      "source": "annuaire_df_1927",
      "yearbook": "Annuaire Desfossés 1927",
      "page": "1023"
    },
    {
      "source": "annuaire_df_1929",
      "yearbook": "Annuaire Desfossés 1929",
      "page": "1083"
    }
  ],
  "juridical_status": [
    {
      "juridical_status": "Société Anonyme (Libre)",
      "start_date": "1921-01-24",
      "end_date": "2020-01-24",
      "comments": "Société anonyme française, constituée le 24 janvier 1921, pour une durée de 99 ans.",
      "source": "annuaire_df_1923"
    }
  ],
  "equity_capital": [
    {
      "amount": "1.500.000",
      "currency": "Franc",
      "infodate": "1921-01-24",
      "source": "annuaire_df_1923",
      "comments": "1.500.000 francs, divisé en 3.000 actions de 500 francs, divisé en 900 actions A et 2.100 actions B dont 600 d’apport."
    },
    {
      "amount": "2.400.000",
      "currency": "Franc",
      "infodate": "1923-01-01",
      "source": "annuaire_df_1927",
      "comments": "2.400.000 francs divisé en 4.800 actions de 500 fr. A l’origine o ?nn 00. francs, divisé en 3.000 actions de 500 francs, divisé en 900 actions A et Al00 actions B dont 600 d’apport ; porté en 1923 au chiffre actuel."
    }
  ],
  "profit_dividends": [
    {
      "first_date": "1924-06-30",
      "last_date": "1926-06-30",
      "obs_count": 7
    }
  ],
  "public_status": false
}