{
  "id": 10353,
  "names": [
    "GENERAL ROUMANI AN PETROLEUM COMPANY, LIMITED",
    "General Roumanian Petroleum Company, Limited"
  ],
  "name": "General Roumanian Petroleum Company, Limited",
  "balance_sheets": [],
  "balance_sheets_stats": {
    "start_date": null,
    "end_date": null
  },
  "locations_stats": {
    "start_date": "1912-01-01",
    "end_date": "1912-12-31"
  },
  "locations": {
    "Siège social": [
      {
        "location_types_id": 1,
        "location_type": "Siège social",
        "address": "Saint-swithin's lane, 28-29",
        "city": "Londres",
        "district": "Angleterre",
        "country": "Grande Bretagne et Irlande du Nord",
        "in_yearbook_from": 1912,
        "in_yearbook_to": 1912
      }
    ]
  },
  "persons": [
    {
      "persons_count": 4,
      "yearbook": "Annuaire Desfossés 1912",
      "source": "annuaire_df_1912",
      "page": "930"
    }
  ],
  "persons_stats": {
    "persons_count": 4,
    "start_date": "1912-01-01",
    "end_date": "1912-12-31"
  },
  "yearbooks_ocrs": [
    {
      "source": "annuaire_df_1912",
      "yearbook": "Annuaire Desfossés 1912",
      "page": "930"
    }
  ],
  "juridical_status": [
    {
      "juridical_status": "Société anonyme anglaise",
      "start_date": "1910-04-06",
      "end_date": "3999-12-31",
      "comments": "Société anonyme anglaise, constituée le 6 avril 1910.",
      "source": "annuaire_df_1912"
    }
  ],
  "equity_capital": [
    {
      "amount": "52.000",
      "currency": "Livre Sterling (Pound)",
      "infodate": "1910-04-06",
      "source": "annuaire_df_1912",
      "comments": "£ 52.000, divisé en 32.000 actions ordinaires de £ 1 et 40.000 actions de première préférence 10 % de 10 shillings, sur lesquelles 20.000 ont été remises en représentation des apports. A l’origine £ 32.000, porté en 1910 au chiffre actuel."
    }
  ],
  "profit_dividends": [],
  "public_status": false
}