{
  "id": 12212,
  "names": [
    "Lion (Vie)"
  ],
  "name": "Lion (Vie)",
  "balance_sheets": [],
  "balance_sheets_stats": {
    "start_date": null,
    "end_date": null
  },
  "locations_stats": {
    "start_date": null,
    "end_date": null
  },
  "locations": {},
  "persons": [],
  "persons_stats": {
    "persons_count": 0,
    "start_date": null,
    "end_date": null
  },
  "yearbooks_ocrs": [],
  "juridical_status": [],
  "equity_capital": [],
  "profit_dividends": [],
  "public_status": false,
  "stock_exchanges": {
    "2": {
      "id": 2,
      "name": "Paris OTC (Coulisse)",
      "listings_stats": {
        "start_date": "1881-01-15"
      },
      "spot_prices_stats": {
        "start_date": "1881-01-17",
        "end_date": "1889-04-01"
      }
    }
  },
  "securities": {
    "104960": {
      "id": 104960,
      "name": "Lion (Vie)",
      "share_type": {
        "id": 1,
        "name": "Stock (Action)"
      },
      "types": [
        {
          "start_date": "1881-01-15",
          "end_date": "1890-12-31",
          "id": 1,
          "name": "UNKNOWN",
          "stock_group": "U"
        }
      ],
      "start_date": "1881-01-15",
      "end_date": "1890-12-31",
      "prices_from": "1881-01-17",
      "prices_to": "1889-04-01",
      "is_mainstock": 0,
      "prices_count": 312
    }
  }
}