{
  "id": 10602,
  "names": [
    "ENTREPRISES SIMON-CARVES",
    "ENTREPRISES SIMON-CARVÈS",
    "Entreprises Simon-Carvès",
    "SOCIÉTÉ INTERNATIONALE DU GÉNIE CIVIL (Anciennement ENTREPRISES SIMON-CARVÈS)"
  ],
  "name": "ENTREPRISES SIMON-CARVÈS",
  "balance_sheets": [
    {
      "start_date": "1919-12-31",
      "source": "Annuaire Desfossés 1920",
      "page": "739"
    },
    {
      "start_date": "1921-12-31",
      "source": "Annuaire Desfossés 1925",
      "page": "944"
    }
  ],
  "balance_sheets_stats": {
    "start_date": "1919-12-31",
    "end_date": "1921-12-31"
  },
  "locations_stats": {
    "start_date": "1920-01-01",
    "end_date": "1927-12-31"
  },
  "locations": {
    "Siège social": [
      {
        "location_types_id": 1,
        "location_type": "Siège social",
        "address": "Rue de la boétie, 39",
        "city": "Paris",
        "district": "Paris",
        "country": "France",
        "in_yearbook_from": 1920,
        "in_yearbook_to": 1927
      }
    ]
  },
  "persons": [
    {
      "persons_count": 1,
      "yearbook": "Annuaire Desfossés 1923",
      "source": "annuaire_df_1923",
      "page": "818"
    },
    {
      "persons_count": 8,
      "yearbook": "Annuaire Desfossés 1927",
      "source": "annuaire_df_1927",
      "page": "757"
    }
  ],
  "persons_stats": {
    "persons_count": 8,
    "start_date": "1923-01-01",
    "end_date": "1927-12-31"
  },
  "yearbooks_ocrs": [
    {
      "source": "annuaire_df_1920",
      "yearbook": "Annuaire Desfossés 1920",
      "page": "739"
    },
    {
      "source": "annuaire_df_1923",
      "yearbook": "Annuaire Desfossés 1923",
      "page": "818"
    },
    {
      "source": "annuaire_df_1925",
      "yearbook": "Annuaire Desfossés 1925",
      "page": "944"
    },
    {
      "source": "annuaire_df_1927",
      "yearbook": "Annuaire Desfossés 1927",
      "page": "757"
    }
  ],
  "juridical_status": [
    {
      "juridical_status": "Société Anonyme (Libre)",
      "start_date": "1916-06-22",
      "end_date": "1991-06-22",
      "comments": "Société anonyme française, constituée le 22 juin 1916, pour une durée de 75 ans.",
      "source": "annuaire_df_1923"
    }
  ],
  "equity_capital": [
    {
      "amount": "1.250.000",
      "currency": "Franc",
      "infodate": "1916-06-22",
      "source": "annuaire_df_1923",
      "comments": " 12 millions de francs, divisé en 48.000 actions de 250 francs. A l’origine, 1.250.000 francs, porté en 1919 à 4 millions et en 1920 au chiffre actuel."
    },
    {
      "amount": "4.000.000",
      "currency": "Franc",
      "infodate": "1919-01-01",
      "source": "annuaire_df_1923",
      "comments": "12 millions de francs, divisé en 48.000 actions de 250 francs. A l’origine, 1.250.000 francs, porté en 1919 à 4 millions et en 1920 au chiffre actuel."
    },
    {
      "amount": "12.000.000",
      "currency": "Franc",
      "infodate": "1920-01-01",
      "source": "annuaire_df_1923",
      "comments": "12 millions de francs, divisé en 48.000 actions de 250 francs. A l’origine, 1.250.000 francs, porté en 1919 à 4 millions et en 1920 au chiffre actuel."
    }
  ],
  "profit_dividends": [
    {
      "first_date": "1916-12-31",
      "last_date": "1926-12-31",
      "obs_count": 34
    }
  ],
  "public_status": false
}