{
  "id": 5907,
  "names": [
    "Gauthier (Peintures),"
  ],
  "name": "Gauthier (Peintures),",
  "balance_sheets": [],
  "balance_sheets_stats": {
    "start_date": null,
    "end_date": null
  },
  "locations_stats": {
    "start_date": null,
    "end_date": null
  },
  "locations": {},
  "persons": [],
  "persons_stats": {
    "persons_count": 0,
    "start_date": null,
    "end_date": null
  },
  "yearbooks_ocrs": [],
  "juridical_status": [],
  "equity_capital": [],
  "profit_dividends": [],
  "public_status": false,
  "stock_exchanges": {
    "1": {
      "id": 1,
      "name": "Paris (Official List)",
      "listings_stats": {
        "start_date": "1967-05-02"
      },
      "spot_prices_stats": {
        "start_date": "1967-05-02",
        "end_date": "1971-11-15"
      }
    }
  },
  "securities": {
    "19183": {
      "id": 19183,
      "name": "NANCY_BOURSE_Gauthier (Peintures), act. (nom)",
      "share_type": {
        "id": 1,
        "name": "Stock (Action)"
      },
      "types": [
        {
          "start_date": "1967-11-27",
          "end_date": "3999-12-31",
          "id": 18,
          "name": "Action",
          "stock_group": "S"
        }
      ],
      "start_date": "1967-11-27",
      "end_date": "3999-12-31",
      "prices_from": "1967-12-15",
      "prices_to": "1971-11-15",
      "is_mainstock": 0,
      "prices_count": 94
    },
    "19637": {
      "id": 19637,
      "name": "LILLE_BOURSE Gauthier 4,5% 1946 (Tir. 14/10/68) 1947-76",
      "share_type": {
        "id": 2,
        "name": "Bond (Obligation)"
      },
      "types": [
        {
          "start_date": "1967-05-02",
          "end_date": "3999-12-31",
          "id": 1001,
          "name": "Obligation ordinaire ou classique",
          "stock_group": "B"
        }
      ],
      "start_date": "1967-05-02",
      "end_date": "3999-12-31",
      "prices_from": "1967-05-16",
      "prices_to": "1969-03-17",
      "is_mainstock": 0,
      "prices_count": 45
    },
    "22199": {
      "id": 22199,
      "name": "Nancy_Bourse Gauthier (Peintures), act. Anc. (nom.)",
      "share_type": {
        "id": 1,
        "name": "Stock (Action)"
      },
      "types": [
        {
          "start_date": "1967-05-02",
          "end_date": "3999-12-31",
          "id": 18,
          "name": "Action",
          "stock_group": "S"
        }
      ],
      "start_date": "1967-05-02",
      "end_date": "3999-12-31",
      "prices_from": "1967-05-02",
      "prices_to": "1969-11-17",
      "is_mainstock": 0,
      "prices_count": 62
    }
  }
}