{
  "id": 5050,
  "names": [
    "MINES D'OR DE KILO MOTO",
    "Mines d'Or de Kilo Moto"
  ],
  "name": "MINES D'OR DE KILO MOTO",
  "balance_sheets": [
    {
      "start_date": "1932-12-31",
      "source": "Annuaire Desfossés 1936",
      "page": null
    },
    {
      "start_date": "1933-12-31",
      "source": "Annuaire Desfossés 1937",
      "page": "1884"
    },
    {
      "start_date": "1934-12-31",
      "source": "Annuaire Desfossés 1937",
      "page": "1884"
    },
    {
      "start_date": "1935-12-31",
      "source": "Annuaire Desfossés 1940",
      "page": null
    },
    {
      "start_date": "1936-12-31",
      "source": "Annuaire Desfossés 1945",
      "page": "967"
    },
    {
      "start_date": "1937-12-31",
      "source": "Annuaire Desfossés 1945",
      "page": "967"
    },
    {
      "start_date": "1938-12-31",
      "source": "Annuaire Desfossés 1945",
      "page": "967"
    },
    {
      "start_date": "1939-12-31",
      "source": "Annuaire Desfossés 1945",
      "page": "967"
    },
    {
      "start_date": "1941-12-31",
      "source": "Annuaire Desfossés 1948",
      "page": "1028"
    },
    {
      "start_date": "1945-12-31",
      "source": "Annuaire Desfossés 1948",
      "page": "1028"
    },
    {
      "start_date": "1946-12-31",
      "source": "Annuaire Desfossés 1948",
      "page": "1028"
    },
    {
      "start_date": "1947-12-31",
      "source": "Annuaire Desfossés 1953",
      "page": "834"
    },
    {
      "start_date": "1948-12-31",
      "source": "Annuaire Desfossés 1953",
      "page": "834"
    },
    {
      "start_date": "1949-12-31",
      "source": "Annuaire Desfossés 1953",
      "page": "834"
    },
    {
      "start_date": "1950-12-31",
      "source": "Annuaire Desfossés 1953",
      "page": "834"
    },
    {
      "start_date": "1951-12-31",
      "source": "Annuaire Desfossés 1953",
      "page": "834"
    }
  ],
  "balance_sheets_stats": {
    "start_date": "1932-12-31",
    "end_date": "1951-12-31"
  },
  "locations_stats": {
    "start_date": "1937-01-01",
    "end_date": "1953-12-31"
  },
  "locations": {
    "Siège social": [
      {
        "location_types_id": 1,
        "location_type": "Siège social",
        "address": null,
        "city": "Kilo",
        "district": null,
        "country": "Zaire",
        "in_yearbook_from": 1937,
        "in_yearbook_to": 1953
      }
    ],
    "Siège administratif / Bureaux": [
      {
        "location_types_id": 2,
        "location_type": "Siège administratif / Bureaux",
        "address": "Place du luxembour, 1",
        "city": "Bruxelles",
        "district": null,
        "country": "Belgique",
        "in_yearbook_from": 1937,
        "in_yearbook_to": 1937
      },
      {
        "location_types_id": 2,
        "location_type": "Siège administratif / Bureaux",
        "address": "Place du luxembourg, 1",
        "city": "Bruxelles",
        "district": null,
        "country": "Belgique",
        "in_yearbook_from": 1940,
        "in_yearbook_to": 1953
      }
    ]
  },
  "persons": [
    {
      "persons_count": 10,
      "yearbook": "Annuaire Desfossés 1940",
      "source": "annuaire_df_1940",
      "page": null
    },
    {
      "persons_count": 7,
      "yearbook": "Annuaire Desfossés 1945",
      "source": "annuaire_df_1945",
      "page": "967"
    },
    {
      "persons_count": 5,
      "yearbook": "Annuaire Desfossés 1948",
      "source": "annuaire_df_1948",
      "page": "1028"
    },
    {
      "persons_count": 14,
      "yearbook": "Annuaire Desfossés 1953",
      "source": "annuaire_df_1953",
      "page": "834"
    }
  ],
  "persons_stats": {
    "persons_count": 28,
    "start_date": "1940-01-01",
    "end_date": "1953-12-31"
  },
  "yearbooks_ocrs": [
    {
      "source": "annuaire_df_1937",
      "yearbook": "Annuaire Desfossés 1937",
      "page": "1884"
    },
    {
      "source": "annuaire_df_1940",
      "yearbook": "Annuaire Desfossés 1940",
      "page": null
    },
    {
      "source": "annuaire_df_1945",
      "yearbook": "Annuaire Desfossés 1945",
      "page": "967"
    },
    {
      "source": "annuaire_df_1948",
      "yearbook": "Annuaire Desfossés 1948",
      "page": "1028"
    },
    {
      "source": "annuaire_df_1953",
      "yearbook": "Annuaire Desfossés 1953",
      "page": "834"
    }
  ],
  "juridical_status": [
    {
      "juridical_status": "Société anonyme zairoise",
      "start_date": "1926-01-01",
      "end_date": "1976-01-01",
      "comments": "Constitution : Société Congolaise à respons. limitée, constit. en 1926 pour 50 ans.",
      "source": "annuaire_df_1940"
    }
  ],
  "equity_capital": [
    {
      "amount": "230.000.000",
      "currency": "Franc Belge",
      "infodate": "1926-01-01",
      "source": "annuaire_df_1940",
      "comments": "Capital social : 230 millions de francs belges représenté par 200.000 parts sociales de 1 000 francs, représentant l’apport de la concession et 60.000 actions privilégiées de 500 francs, amortissables sur bénéfices en 50 ans, par tirages au sort et remplacées par des actions de jouissance.\nAu 31 décembre 1936, 12.000 actions privilégiées étaient amorties et transformées en actions de jouissance."
    }
  ],
  "profit_dividends": [
    {
      "first_date": "1930-12-31",
      "last_date": "1951-12-31",
      "obs_count": 206
    }
  ],
  "public_status": false
}