{
  "id": 1180,
  "names": [
    "COMPAGNIE DES FORGES ET ACIERIES DE LA MARINE ET D'HOMÉCOURT",
    "COMPAGNIE DES FORGES ET ACIERIES DE LA MARINE ET DE SAINT-ETIENNE",
    "COMPAGNIE DES FORGES ET ACIÉRIES DE LA MARINE ET D'HOMÉCOURT",
    "Cie des Forges et Aciéries de la Marine et d'Homécourt",
    "Cie des Forges et Aciéries de la marine et d'Homécourt",
    "Compagnie des Forges et Aciéries de la Marine et de Saint-Etienne",
    "Compagnie des Forges et Aciéries de la Marine et des Chemins de fer",
    "Compagnie des Hauts Fourneaux, Forges et Aciéries de la Marine et des Chemins de Fer (Raison sociale : Petin, Gaudet et Cie)",
    "Compagnie des Hauts-Fourneaux, Forges et Aciéries de la marine et des chemins de fer",
    "Compagnie des forges et aciéries de la Marine, Firminy et Saint-Etienne",
    "Compagnie des hauts fourneaux, forges et aciéries de la marine et des chemins de fer",
    "Compagnie dès hauts fourneaux, forges et aciéries de la marine et des chemins de fer",
    "Hauts-Fourneaux, Forges et Aciéries de la Marine et des Chemins de Fer (Raison sociale: H. Petin, Gaudet et Cie)",
    "Marine-Firminy",
    "Marine-Wendel",
    "SOCIETE ANONYME DES FORGES ET ACIERIES DE LA MARINE ET D'HOMECOURT",
    "SOCIETE ANONYME DES FORGES ET ACIÉRIES DE LA MARINE ET D'HOMÉCOURT"
  ],
  "name": "Compagnie des Forges et Aciéries de la Marine et des Chemins de fer",
  "balance_sheets": [
    {
      "start_date": "1911-06-30",
      "source": "Annuaire Desfossés 1912",
      "page": "650"
    },
    {
      "start_date": "1913-06-30",
      "source": "Annuaire Desfossés 1914",
      "page": "712"
    },
    {
      "start_date": "1916-06-30",
      "source": "Annuaire Desfossés 1917",
      "page": "647"
    },
    {
      "start_date": "1920-06-30",
      "source": "Annuaire Desfossés 1920",
      "page": "702"
    },
    {
      "start_date": "1922-06-30",
      "source": "Annuaire Desfossés 1923",
      "page": "780"
    },
    {
      "start_date": "1924-06-30",
      "source": "Annuaire Desfossés 1925",
      "page": "896"
    },
    {
      "start_date": "1926-06-30",
      "source": "Annuaire Desfossés 1927",
      "page": "713"
    },
    {
      "start_date": "1926-06-30",
      "source": "Annuaire Desfossés 1927",
      "page": "1451"
    },
    {
      "start_date": "1928-06-30",
      "source": "Annuaire Desfossés 1929",
      "page": "761"
    },
    {
      "start_date": "1930-06-30",
      "source": "Annuaire Desfossés 1931",
      "page": "767"
    },
    {
      "start_date": "1931-06-30",
      "source": "Annuaire Desfossés 1932",
      "page": null
    },
    {
      "start_date": "1932-06-30",
      "source": "Annuaire Desfossés 1936",
      "page": null
    },
    {
      "start_date": "1933-06-30",
      "source": "Annuaire Desfossés 1937",
      "page": "948"
    },
    {
      "start_date": "1934-06-30",
      "source": "Annuaire Desfossés 1937",
      "page": "948"
    },
    {
      "start_date": "1935-06-30",
      "source": "Annuaire Desfossés 1937",
      "page": "948"
    },
    {
      "start_date": "1936-06-30",
      "source": "Annuaire Desfossés 1940",
      "page": null
    },
    {
      "start_date": "1937-06-30",
      "source": "Annuaire Desfossés 1940",
      "page": null
    },
    {
      "start_date": "1938-06-30",
      "source": "Annuaire Desfossés 1940",
      "page": null
    },
    {
      "start_date": "1939-08-31",
      "source": "Annuaire Desfossés 1945",
      "page": "1010"
    },
    {
      "start_date": "1942-06-30",
      "source": "Annuaire Desfossés 1945",
      "page": "1010"
    },
    {
      "start_date": "1943-06-30",
      "source": "Annuaire Desfossés 1945",
      "page": "1010"
    },
    {
      "start_date": "1944-06-30",
      "source": "Annuaire Desfossés 1948",
      "page": "1075"
    },
    {
      "start_date": "1945-06-30",
      "source": "Annuaire Desfossés 1948",
      "page": "1075"
    },
    {
      "start_date": "1946-06-30",
      "source": "Annuaire Desfossés 1948",
      "page": "1075"
    },
    {
      "start_date": "1947-06-30",
      "source": "Annuaire Desfossés 1948",
      "page": "1075"
    },
    {
      "start_date": "1948-06-30",
      "source": "Annuaire Desfossés 1953",
      "page": "881"
    },
    {
      "start_date": "1949-06-30",
      "source": "Annuaire Desfossés 1953",
      "page": "881"
    },
    {
      "start_date": "1950-06-30",
      "source": "Annuaire Desfossés 1953",
      "page": "881"
    },
    {
      "start_date": "1951-06-30",
      "source": "Annuaire Desfossés 1953",
      "page": "881"
    },
    {
      "start_date": "1952-06-30",
      "source": "Annuaire Desfossés 1953",
      "page": "881"
    }
  ],
  "balance_sheets_stats": {
    "start_date": "1911-06-30",
    "end_date": "1952-06-30"
  },
  "locations_stats": {
    "start_date": "1880-01-01",
    "end_date": "1953-12-31"
  },
  "locations": {
    "Siège social": [
      {
        "location_types_id": 1,
        "location_type": "Siège social",
        "address": null,
        "city": "Saint Chamond",
        "district": "Loire",
        "country": "France",
        "in_yearbook_from": 1880,
        "in_yearbook_to": 1953
      }
    ],
    "Siège administratif / Bureaux": [
      {
        "location_types_id": 2,
        "location_type": "Siège administratif / Bureaux",
        "address": "Rue des pyramides, 20",
        "city": "Paris",
        "district": "Paris",
        "country": "France",
        "in_yearbook_from": 1880,
        "in_yearbook_to": 1903
      },
      {
        "location_types_id": 2,
        "location_type": "Siège administratif / Bureaux",
        "address": "Rue de la victoire, 98",
        "city": "Paris",
        "district": "Paris",
        "country": "France",
        "in_yearbook_from": 1908,
        "in_yearbook_to": 1912
      },
      {
        "location_types_id": 2,
        "location_type": "Siège administratif / Bureaux",
        "address": "Rue de la rochefoucauld, 12",
        "city": "Paris",
        "district": "Paris",
        "country": "France",
        "in_yearbook_from": 1927,
        "in_yearbook_to": 1927
      }
    ],
    "Usines": [
      {
        "location_types_id": 3,
        "location_type": "Usines",
        "address": null,
        "city": "Haumecourt",
        "district": "Meurthe-et-Moselle",
        "country": "France",
        "in_yearbook_from": 1923,
        "in_yearbook_to": 1923
      },
      {
        "location_types_id": 3,
        "location_type": "Usines",
        "address": null,
        "city": "Haut-Mont",
        "district": "Nord",
        "country": "France",
        "in_yearbook_from": 1923,
        "in_yearbook_to": 1923
      },
      {
        "location_types_id": 3,
        "location_type": "Usines",
        "address": null,
        "city": "Lorette",
        "district": "Loire",
        "country": "France",
        "in_yearbook_from": 1945,
        "in_yearbook_to": 1945
      },
      {
        "location_types_id": 3,
        "location_type": "Usines",
        "address": null,
        "city": "Rive-de-Gier",
        "district": "Loire",
        "country": "France",
        "in_yearbook_from": 1945,
        "in_yearbook_to": 1945
      }
    ],
    "Direction Générale": [
      {
        "location_types_id": 6,
        "location_type": "Direction Générale",
        "address": "Rue de la rochefoucauld, 12",
        "city": "Paris",
        "district": "Paris",
        "country": "France",
        "in_yearbook_from": 1933,
        "in_yearbook_to": 1933
      }
    ],
    "Mines / Carrières / Pétrole / Gaz": [
      {
        "location_types_id": 7,
        "location_type": "Mines / Carrières / Pétrole / Gaz",
        "address": null,
        "city": "Boucau",
        "district": "Pyrénées-Atlantiques",
        "country": "France",
        "in_yearbook_from": 1923,
        "in_yearbook_to": 1923
      },
      {
        "location_types_id": 7,
        "location_type": "Mines / Carrières / Pétrole / Gaz",
        "address": null,
        "city": "Lorette",
        "district": "Loire",
        "country": "France",
        "in_yearbook_from": 1923,
        "in_yearbook_to": 1923
      },
      {
        "location_types_id": 7,
        "location_type": "Mines / Carrières / Pétrole / Gaz",
        "address": null,
        "city": "Saint Chamond",
        "district": "Loire",
        "country": "France",
        "in_yearbook_from": 1923,
        "in_yearbook_to": 1923
      },
      {
        "location_types_id": 7,
        "location_type": "Mines / Carrières / Pétrole / Gaz",
        "address": null,
        "city": "Leaucamp",
        "district": "Cantal",
        "country": "France",
        "in_yearbook_from": 1945,
        "in_yearbook_to": 1945
      }
    ],
    "Comité de Direction / Délégation / Obligataires": [
      {
        "location_types_id": 13,
        "location_type": "Comité de Direction / Délégation / Obligataires",
        "address": "Rue de la victoire, 98",
        "city": "Paris",
        "district": "Paris",
        "country": "France",
        "in_yearbook_from": 1923,
        "in_yearbook_to": 1923
      }
    ]
  },
  "persons": [
    {
      "persons_count": 11,
      "yearbook": "Annuaire de la Compagnie des Agents de Change 1880",
      "source": "annuaire_cac_1880",
      "page": "1048"
    },
    {
      "persons_count": 2,
      "yearbook": "Annuaire de la Compagnie des Agents de Change 1893",
      "source": "annuaire_cac_1893",
      "page": "1386"
    },
    {
      "persons_count": 4,
      "yearbook": "Annuaire de la Compagnie des Agents de Change 1898",
      "source": "annuaire_cac_1898",
      "page": "1616"
    },
    {
      "persons_count": 6,
      "yearbook": "Annuaire de la Compagnie des Agents de Change 1903",
      "source": "annuaire_cac_1903",
      "page": "1777"
    },
    {
      "persons_count": 10,
      "yearbook": "Annuaire de la Compagnie des Agents de Change 1908",
      "source": "annuaire_cac_1908",
      "page": "1506"
    },
    {
      "persons_count": 5,
      "yearbook": "Annuaire Desfossés 1912",
      "source": "annuaire_df_1912",
      "page": "650"
    },
    {
      "persons_count": 6,
      "yearbook": "Annuaire Desfossés 1917",
      "source": "annuaire_df_1917",
      "page": "647"
    },
    {
      "persons_count": 3,
      "yearbook": "Annuaire Desfossés 1923",
      "source": "annuaire_df_1923",
      "page": "780"
    },
    {
      "persons_count": 13,
      "yearbook": "Annuaire Desfossés 1927",
      "source": "annuaire_df_1927",
      "page": "713"
    },
    {
      "persons_count": 13,
      "yearbook": "Annuaire Desfossés 1927",
      "source": "annuaire_df_1927",
      "page": "1451"
    },
    {
      "persons_count": 14,
      "yearbook": "Annuaire Desfossés 1933",
      "source": "annuaire_df_1933",
      "page": "826"
    },
    {
      "persons_count": 9,
      "yearbook": "Annuaire Desfossés 1940",
      "source": "annuaire_df_1940",
      "page": null
    },
    {
      "persons_count": 3,
      "yearbook": "Annuaire Desfossés 1945",
      "source": "annuaire_df_1945",
      "page": "1010"
    },
    {
      "persons_count": 4,
      "yearbook": "Annuaire Desfossés 1948",
      "source": "annuaire_df_1948",
      "page": "1075"
    },
    {
      "persons_count": 17,
      "yearbook": "Annuaire Desfossés 1953",
      "source": "annuaire_df_1953",
      "page": "881"
    }
  ],
  "persons_stats": {
    "persons_count": 78,
    "start_date": "1880-01-01",
    "end_date": "1953-12-31"
  },
  "yearbooks_ocrs": [
    {
      "source": "annuaire_cac_1880",
      "yearbook": "Annuaire de la Compagnie des Agents de Change 1880",
      "page": "1048"
    },
    {
      "source": "annuaire_cac_1883",
      "yearbook": "Annuaire de la Compagnie des Agents de Change 1883",
      "page": "1168"
    },
    {
      "source": "annuaire_cac_1888",
      "yearbook": "Annuaire de la Compagnie des Agents de Change 1888",
      "page": "1263"
    },
    {
      "source": "annuaire_cac_1893",
      "yearbook": "Annuaire de la Compagnie des Agents de Change 1893",
      "page": "1386"
    },
    {
      "source": "annuaire_cac_1898",
      "yearbook": "Annuaire de la Compagnie des Agents de Change 1898",
      "page": "1616"
    },
    {
      "source": "annuaire_cac_1903",
      "yearbook": "Annuaire de la Compagnie des Agents de Change 1903",
      "page": "1777"
    },
    {
      "source": "annuaire_cac_1908",
      "yearbook": "Annuaire de la Compagnie des Agents de Change 1908",
      "page": "1506"
    },
    {
      "source": "annuaire_df_1912",
      "yearbook": "Annuaire Desfossés 1912",
      "page": "650"
    },
    {
      "source": "annuaire_df_1914",
      "yearbook": "Annuaire Desfossés 1914",
      "page": "712"
    },
    {
      "source": "annuaire_df_1917",
      "yearbook": "Annuaire Desfossés 1917",
      "page": "647"
    },
    {
      "source": "annuaire_df_1920",
      "yearbook": "Annuaire Desfossés 1920",
      "page": "702"
    },
    {
      "source": "annuaire_df_1923",
      "yearbook": "Annuaire Desfossés 1923",
      "page": "780"
    },
    {
      "source": "annuaire_df_1925",
      "yearbook": "Annuaire Desfossés 1925",
      "page": "896"
    },
    {
      "source": "annuaire_df_1927",
      "yearbook": "Annuaire Desfossés 1927",
      "page": "713"
    },
    {
      "source": "annuaire_df_1927",
      "yearbook": "Annuaire Desfossés 1927",
      "page": "1451"
    },
    {
      "source": "annuaire_df_1929",
      "yearbook": "Annuaire Desfossés 1929",
      "page": "761"
    },
    {
      "source": "annuaire_df_1931",
      "yearbook": "Annuaire Desfossés 1931",
      "page": "767"
    },
    {
      "source": "annuaire_df_1933",
      "yearbook": "Annuaire Desfossés 1933",
      "page": "826"
    },
    {
      "source": "annuaire_df_1937",
      "yearbook": "Annuaire Desfossés 1937",
      "page": "948"
    },
    {
      "source": "annuaire_df_1940",
      "yearbook": "Annuaire Desfossés 1940",
      "page": null
    },
    {
      "source": "annuaire_df_1945",
      "yearbook": "Annuaire Desfossés 1945",
      "page": "1010"
    },
    {
      "source": "annuaire_df_1948",
      "yearbook": "Annuaire Desfossés 1948",
      "page": "1075"
    },
    {
      "source": "annuaire_df_1953",
      "yearbook": "Annuaire Desfossés 1953",
      "page": "881"
    }
  ],
  "juridical_status": [
    {
      "juridical_status": "Société en Commandite par actions",
      "start_date": "1854-11-14",
      "end_date": "1871-11-08",
      "comments": "(Transformation de la Société en commandite par actions des hauts fourneaux, forges et aciéries de la marine et des chemins de fer, ayant existé sous la raison sociale : H. Petin, Gaudet et Gie, constituée par acte sous seings privés en date du 14 novembre 1854, déposé audit Me Dufour, notaire, par acte du même jour ; laquelle Société provenait elle-même de la fusion des quatre sociétés : 1\" Jackson frères et CIe, à Assailly; 2» H. Petin, Gaudet et Gle, à Rive-de-Gier ; 3° Neyrand-Thiollière, Ber- geron et Cie, à Lorette; 4° Parent-Schaken, Goldsmid et Cie, à Paris.)",
      "source": "annuaire_cac_1903"
    },
    {
      "juridical_status": "Société Anonyme (Libre)",
      "start_date": "1871-11-09",
      "end_date": "1904-07-01",
      "comments": "Société anonyme constituée par acte sous seings privés en date du 9 novembre 1871, approuvé le même jour par délibération de l’assemblée générale des actionnaires, déposé à M° Dufour, notaire à Paris, et à Me Rousset, notaire à Rive-de-Gier (Loire) ; modifiée par décisions des assemblées générales des 26 novembre 1877, 30 mai et 3 octobre 1881.",
      "source": "annuaire_cac_1883"
    },
    {
      "juridical_status": "Société Anonyme (Libre)",
      "start_date": "1904-07-02",
      "end_date": "1954-07-01",
      "comments": "Société anonyme constituée par acte sous seings privés en date du ii novembre 1871, approuvé le même jour par délibération de l’Assemblée générale des actionnaires, déposé à Me Dufour, notaire à Paris, et à y, R0usset, notaire à Rive-de-Gier (Loire) ; modifiée par décisions des Assemblées générales des 26 novembre 1877, 30 mai et 3 octobre 1881, 16 octobre et 20 novembre 1899.",
      "source": "annuaire_cac_1903"
    },
    {
      "juridical_status": "Société Anonyme (Libre)",
      "start_date": "1954-07-02",
      "end_date": "2016-07-01",
      "comments": "Société anonyme française, constituée le 14 novembre 1854, modifiée conformément à la loi du 24 juillet 1867 en novembre 1871. Durée prorogée jusqu'au 1er juillet 2016.",
      "source": "annuaire_df_1953"
    }
  ],
  "equity_capital": [
    {
      "amount": "13.000.000",
      "currency": "Franc",
      "infodate": "1871-11-09",
      "source": "annuaire_cac_1903",
      "comments": " L’avoir social était primitivement représenté par 54,000 actions, réduites par suite de l’annulation de 2,000, à 52,000, qui ont été remplacées, à raison de 2 actions anciennes pour 1 nouvelle, par 26,000 actions de 500 fr. an porteur, entièrement libérées, émises à 500 fr. Il s’élevait donc ainsi à 13 millions."
    },
    {
      "amount": "20.000.000",
      "currency": null,
      "infodate": "1881-10-03",
      "source": "annuaire_cac_1883",
      "comments": " Par décisions des assemblées générales des 30 mai et 3 octobre 1881, le capital a été porté à 20 milions par la création de 14,000 actions nouvelles de 500 fr., qui ont été émises au pair en juin 1881 par souscription réservée aux anciens actionnaires."
    },
    {
      "amount": "28.000.000",
      "currency": "Franc",
      "infodate": "1903-05-30",
      "source": "annuaire_cac_1908",
      "comments": " Enfin, par décisions des Assemblées générales des 14 et 30 mars et 30 mai 1903 le capital a été porté à 28 millions de francs au moyen de la création de 16 Otni actions nouvelles de 500 francs sur lesquelles : 5,875 ont été émises en espèces au prix de 1.115 francs, et 10,125 ont été attribuées à la Société belge Vézin-Aulnoye en représentation de ses apports consistant dans la partie de son actif située en France (notamment les mines et usine d’Homécourt), et évaluée à la somme de 32.285.000 francs, payable à raison de 19.795.000 francs en espèces et 12.490.000 fr. en titres."
    },
    {
      "amount": "70.000.000",
      "currency": "Franc",
      "infodate": "1918-01-01",
      "source": "annuaire_df_1923",
      "comments": "100 millions de francs, divisé en 200.000 actions de 500 francs. A l’origine 13 millions, porté à 20 millions en 1881, à 28 millions en 1903, a 70 millions en 1918 et ai1 chiffre actuel en 1 923."
    },
    {
      "amount": "100.000.000",
      "currency": "Franc",
      "infodate": "1923-01-01",
      "source": "annuaire_df_1923",
      "comments": "100 millions de francs, divisé en 200.000 actions de 500 francs. A l’origine 13 millions, porté à 20 millions en 1881, à 28 millions en 1903, a 70 millions en 1918 et ai1 chiffre actuel en 1 923."
    },
    {
      "amount": "135.000.000",
      "currency": "Franc",
      "infodate": "1926-01-01",
      "source": "annuaire_df_1927",
      "comments": "L’assemblée extraordinaire du 8 décembre 1924 a autorisé le Conseil d’administration à porter le fonds social à 135 millions en une ou plusieurs fois."
    },
    {
      "amount": "165.000.000",
      "currency": "Franc",
      "infodate": "1927-01-31",
      "source": "annuaire_df_1927",
      "comments": " Augmentation de capital de 30 millions du 24 février au 17 mars 1927 par émission de 60.000 actions de 500 francs au prix de 540 francs à raison de 3 nouvelles pour 10 anciennes."
    },
    {
      "amount": "180.000.000",
      "currency": "Franc",
      "infodate": "1929-01-01",
      "source": "annuaire_df_1933",
      "comments": "180 millions de francs, divisé en 333.000 actions de 500 francs dites actions A et 54.000 actions de 250 dites B à vote plural. A l’origine 13 millions, porte à 20 millions en 1881, à 28 millions en 1903, à 70 millions en 1918, à 100 millions eu 1923, à 130 millions en 1927, en 1927 à 135 millions et à 180 millions en 1929."
    },
    {
      "amount": "240.000.000",
      "currency": "Franc",
      "infodate": "1941-01-01",
      "source": "annuaire_df_1945",
      "comments": "368.675.500 francs, divisé en 737.351 actions de 500 francs. A l’origine, 13 millions, porté à 20 millions en 1881, à 28 millions en 1903, à 70 millions en 1918, à 100 millions en 1923, à 130 millions en 1927, en 1927 à 135 millions et à 180 millions en 1929, A cette date, le capital était divisé en 387.000 actions dont 333.000 de 500 francs dites A et 54.000 actions de 250 francs dites B,à vote plural. En novembre 1934 les actions B ont été échangées contre des actions A à raison de 2 act. 3 pour 1 act. A ,en même temps, leur droit de vote plural a été supprimé. Porté à 240 millions de francs en 1941 par l’émission à 550 francs de 120.000 . actions de 500 francs entièrement libérées à la souscription. Porté à 368.675.500 francs en 1945 par l’émission à 550 francs de 257.351 actions de 500 francs."
    },
    {
      "amount": "368.675.500",
      "currency": "Franc",
      "infodate": "1945-01-01",
      "source": "annuaire_df_1945",
      "comments": "368.675.500 francs, divisé en 737.351 actions de 500 francs. A l’origine, 13 millions, porté à 20 millions en 1881, à 28 millions en 1903, à 70 millions en 1918, à 100 millions en 1923, à 130 millions en 1927, en 1927 à 135 millions et à 180 millions en 1929, A cette date, le capital était divisé en 387.000 actions dont 333.000 de 500 francs dites A et 54.000 actions de 250 francs dites B,à vote plural. En novembre 1934 les actions B ont été échangées contre des actions A à raison de 2 act. 3 pour 1 act. A ,en même temps, leur droit de vote plural a été supprimé. Porté à 240 millions de francs en 1941 par l’émission à 550 francs de 120.000 . actions de 500 francs entièrement libérées à la souscription. Porté à 368.675.500 francs en 1945 par l’émission à 550 francs de 257.351 actions de 500 francs."
    },
    {
      "amount": "553.001.175",
      "currency": "Franc",
      "infodate": "1947-01-01",
      "source": "annuaire_df_1948",
      "comments": "737.334.900 francs, divisé en 1.552.284. actions de 475 francs. A l'origine, 13 millions, porté à 20 millions en 1881, à 28 millions en 1903, à 70 millions en 1918, à 100 millions en 1923, à 130 millions en 1927, en 1927 à 135 millions et à 180 millions en 1929, A cette date, le capital était divisé en 387.000 actions dont 333.000 de 500 francs dites A et 54.000. actions de 250 francs dites B à vote plural. En novembre 1934 les actions B ont été échangées contre des actions A à raison de 2 act. B pour 1 act. A ,en même temps, leur droit de vote plural a été supprimé. Porté à 240 millions de francs en 1941 par l'émission à 550 francs de 120.000 actions de 500 francs entièrement libérées à la souscription. Porté à 368.675.500 francs en 1945 par l'émission à 550 fràncs de 257.351 actions de 500 francs. Fixé en 1946 à 368.667.450 francs pour règlement de l'impôt de solidarité nationale. Porté en 1947 à 553.001.175 francs, par la création de 388.071 actions de 475 francs réparties gratuitement (1 nouv. pour 2 anc.), et ensuite à 737.334.900 francs par l'émission à 510 francs de, 388.071 de 475 francs (1 nouv. pour 2 anc. nos 1 à 776.142.)."
    },
    {
      "amount": "737.334.900",
      "currency": "Franc",
      "infodate": "1947-01-01",
      "source": "annuaire_df_1948",
      "comments": "737.334.900 francs, divisé en 1.552.284. actions de 475 francs. A l'origine, 13 millions, porté à 20 millions en 1881, à 28 millions en 1903, à 70 millions en 1918, à 100 millions en 1923, à 130 millions en 1927, en 1927 à 135 millions et à 180 millions en 1929, A cette date, le capital était divisé en 387.000 actions dont 333.000 de 500 francs dites A et 54.000. actions de 250 francs dites B à vote plural. En novembre 1934 les actions B ont été échangées contre des actions A à raison de 2 act. B pour 1 act. A ,en même temps, leur droit de vote plural a été supprimé. Porté à 240 millions de francs en 1941 par l'émission à 550 francs de 120.000 actions de 500 francs entièrement libérées à la souscription. Porté à 368.675.500 francs en 1945 par l'émission à 550 fràncs de 257.351 actions de 500 francs. Fixé en 1946 à 368.667.450 francs pour règlement de l'impôt de solidarité nationale. Porté en 1947 à 553.001.175 francs, par la création de 388.071 actions de 475 francs réparties gratuitement (1 nouv. pour 2 anc.), et ensuite à 737.334.900 francs par l'émission à 510 francs de, 388.071 de 475 francs (1 nouv. pour 2 anc. nos 1 à 776.142.)."
    },
    {
      "amount": "776.140.000",
      "currency": "Franc",
      "infodate": "1949-01-01",
      "source": "annuaire_df_1953",
      "comments": "A l'origine, 13millons. Porté à 20 millions en 1881, à 28 millions en 1903, à 70 millions en 1918, à 100 millions en 1923, à 130 millions en 1927, à 135 millions en 1927 et à 180 millions en 1929. A cette date, le capital était divisé en 387.000 actions, dont 333.000 de 500 fr. dites A et 54.000 actions de 250 fr. dites B à vote plural. En novembre 1934, les actions B ont été échangées contre des actions A à raison de 2 actions B pour 1 action A; en même temps, leur droit de vote plural a été supprimé. Porté à 240 millions de fr. en 1941par l'émission dà 550 fr. de 120.000 actions de 500 fr. entièrement libérées à la souscription. Porté à 368.675.500 fr. en 1945 par l'émission à 550 fr. de 257.351 actions de 500 fr. Fixé en 1946 à 368.667.450 fr. pour règlement de l'impôt de solidarité nationale. Porté en 1947 à 553.001.175 fr. par la création de 388.071 actions de 475 fr. réparties gratuitement ( 1 nouv. pour 2 anc.) et ensuite à 737.334.900 par l'émission à 510 fr. de 388.071 actions de 475 fr. (1 nouv. pour 2 anc., nos i à 776.142). Porté en 1949 à 776.142.000 fr. par élévation du nominal de 475 à 500 fr., puis ramené à 776.140.000 fr. par annulation de 4 actions. porté en 1950 à 1.293.565.000 fr. par émission à 2.750 fr. de 206.970 actions nouvelles de 2.500 fr. jouissance 1er juillet 1950 (2 nouv. pour 15 anc.à Le regroupement se fait depuis le 18 décembre 1950 à raison d'une action de 2.500 fr. pour 5 anciennes de 500 fr."
    },
    {
      "amount": "1.293.565.000",
      "currency": "Franc",
      "infodate": "1950-01-01",
      "source": "annuaire_df_1953",
      "comments": "A l'origine, 13 millions. Porté à 20 millions en 1881, â 28 millions en 1903, à 70 millions en 1918, à 100 millions en 1923. à 130 millions en 1927, à 135 millions en 1927 et à 180 millions en 1929. A cette date; le\tcapital était\tdivisé en 387.000\tactions,\tdont 333.000 de 500 fr. dites A et 54.000 actions de 250 fr. dites B\tà vote plural. En\tnovembre 1934, les actions B ont\tété échangées contre des actions\tA à raison de\t2 actions B pour\t1 action\tA; en même temps, leur\tdroit de vote plural a été supprimé. Porté à 240 milliqns de fr. en 1941 par l'émission à 550 fr. de 120.000 actions de 500 fr. entièrement libérées à la souscription. Porté à 368.675.500 fr. en 1945 par l'émission à 550 fr. de 257.351 actions de 500 fr. Fixé en 1946 à 368.667.450 fr. pour règlement de l'impôt de solidarité nationale. Porté en 1947 à 553.001.175 fr. par la création de 388.071 actions de 475 fr. réparties gratuitement (1 nouv. pour 2 ane.), et ensuite à 737.334.900 fr. -par l'émission à 510 fr. de 388.071 actions de 475 fr: (1 nouv. pour 2 anc., nos i à 776.142). Porté en 1949 à 776.142.000 fr. par élévation du nominal de 475 à 500 fr., puis ramené à 776.140.000 fr. par annulation de 4 actions. Porté en 1950 à\t1.293.565.000\tfr. par émission\tà 2.750\tfr. de 206.970 actions\tnouvelles de 2.500 fr., jouissance 1er juillet 1950 (2 nouv. pour' 15 anc.). Le regroupement se fait depuis le 18 décembre 1950 à raison d'une action de 2.500 fr. pour 5 anciennes de 500 fr."
    }
  ],
  "profit_dividends": [
    {
      "first_date": "1855-06-30",
      "last_date": "1952-06-30",
      "obs_count": 420
    }
  ],
  "public_status": false,
  "stock_exchanges": {
    "1": {
      "id": 1,
      "name": "Paris (Official List)",
      "listings_stats": {
        "start_date": "1857-10-08"
      },
      "spot_prices_stats": {
        "start_date": "1861-05-31",
        "end_date": "1976-12-31"
      }
    }
  },
  "securities": {
    "1773": {
      "id": 1773,
      "name": "Forges et Aciéries de la Marine et d'Homécourt, act. 500 fr., tout payé",
      "share_type": {
        "id": 1,
        "name": "Stock (Action)"
      },
      "types": [
        {
          "start_date": "1857-10-08",
          "end_date": "3999-12-31",
          "id": 18,
          "name": "Action",
          "stock_group": "S"
        }
      ],
      "start_date": "1857-10-08",
      "end_date": "3999-12-31",
      "prices_from": "1861-05-31",
      "prices_to": "1952-01-31",
      "is_mainstock": 1,
      "prices_count": 2175
    },
    "5233": {
      "id": 5233,
      "name": "Forges et Aciéries de la Marine et d'Homécourt, act. nouv. 500 fr., t.p. (nos 50126 à 56000) (ex.c. 1)",
      "share_type": {
        "id": 1,
        "name": "Stock (Action)"
      },
      "types": [
        {
          "start_date": "1903-11-09",
          "end_date": "3999-12-31",
          "id": 18,
          "name": "Action",
          "stock_group": "S"
        }
      ],
      "start_date": "1903-11-09",
      "end_date": "3999-12-31",
      "prices_from": "1903-11-21",
      "prices_to": "1904-05-16",
      "is_mainstock": 0,
      "prices_count": 10
    },
    "5240": {
      "id": 5240,
      "name": "Forges et Aciéries de la Marine et d'Homécourt 4%, remb. à 500 fr",
      "share_type": {
        "id": 2,
        "name": "Bond (Obligation)"
      },
      "types": [
        {
          "start_date": "1903-11-09",
          "end_date": "3999-12-31",
          "id": 1001,
          "name": "Obligation ordinaire ou classique",
          "stock_group": "B"
        }
      ],
      "start_date": "1903-11-09",
      "end_date": "3999-12-31",
      "prices_from": "1903-11-09",
      "prices_to": "1931-09-30",
      "is_mainstock": 0,
      "prices_count": 555
    },
    "6768": {
      "id": 6768,
      "name": "Forges et Aciéries de la Marine et d'Homécourt, act.nouv.n° 56001 et 140000, (coup.31 att.)",
      "share_type": {
        "id": 1,
        "name": "Stock (Action)"
      },
      "types": [
        {
          "start_date": "1918-07-01",
          "end_date": "3999-12-31",
          "id": 18,
          "name": "Action",
          "stock_group": "S"
        }
      ],
      "start_date": "1918-07-01",
      "end_date": "3999-12-31",
      "prices_from": "1918-07-01",
      "prices_to": "1919-05-15",
      "is_mainstock": 0,
      "prices_count": 28
    },
    "6834": {
      "id": 6834,
      "name": "Forges et Aciéries de la Marine et d'Homécourt 6%, r.à 500fr.",
      "share_type": {
        "id": 2,
        "name": "Bond (Obligation)"
      },
      "types": [
        {
          "start_date": "1919-01-10",
          "end_date": "3999-12-31",
          "id": 1001,
          "name": "Obligation ordinaire ou classique",
          "stock_group": "B"
        }
      ],
      "start_date": "1919-01-10",
      "end_date": "3999-12-31",
      "prices_from": "1919-01-10",
      "prices_to": "1931-08-17",
      "is_mainstock": 0,
      "prices_count": 278
    },
    "7746": {
      "id": 7746,
      "name": "Forges et Aciéries de la Marine et d'Homécourt, Act. 500 fr., t. p. (nos 140001 à 200000)",
      "share_type": {
        "id": 1,
        "name": "Stock (Action)"
      },
      "types": [
        {
          "start_date": "1923-06-28",
          "end_date": "3999-12-31",
          "id": 18,
          "name": "Action",
          "stock_group": "S"
        }
      ],
      "start_date": "1923-06-28",
      "end_date": "3999-12-31",
      "prices_from": "1923-07-03",
      "prices_to": "1924-05-15",
      "is_mainstock": 0,
      "prices_count": 21
    },
    "8210": {
      "id": 8210,
      "name": "Forges et Aciéries de la Marine et d'Homecourt 7%, remb. à 500 fr.",
      "share_type": {
        "id": 2,
        "name": "Bond (Obligation)"
      },
      "types": [
        {
          "start_date": "1925-06-24",
          "end_date": "3999-12-31",
          "id": 1001,
          "name": "Obligation ordinaire ou classique",
          "stock_group": "B"
        }
      ],
      "start_date": "1925-06-24",
      "end_date": "3999-12-31",
      "prices_from": "1925-06-24",
      "prices_to": "1931-07-31",
      "is_mainstock": 0,
      "prices_count": 133
    },
    "8498": {
      "id": 8498,
      "name": "Forges et Aciéries de la Marine et d'Homécourt 6,5%, remb. à 1000 fr. 1934-53",
      "share_type": {
        "id": 2,
        "name": "Bond (Obligation)"
      },
      "types": [
        {
          "start_date": "1928-02-03",
          "end_date": "3999-12-31",
          "id": 1001,
          "name": "Obligation ordinaire ou classique",
          "stock_group": "B"
        }
      ],
      "start_date": "1928-02-03",
      "end_date": "3999-12-31",
      "prices_from": "1928-02-03",
      "prices_to": "1942-08-17",
      "is_mainstock": 0,
      "prices_count": 335
    },
    "9484": {
      "id": 9484,
      "name": "Forges et Aciéries de la Marine et d'Homécourt, Act. A 500 fr., t. p. (nos 281846 à 333000)(c. 3 et 4 barrés att.).",
      "share_type": {
        "id": 1,
        "name": "Stock (Action)"
      },
      "types": [
        {
          "start_date": "1930-02-26",
          "end_date": "3999-12-31",
          "id": 11,
          "name": "Action ordinaire",
          "stock_group": "S"
        }
      ],
      "start_date": "1930-02-26",
      "end_date": "3999-12-31",
      "prices_from": "1930-02-26",
      "prices_to": "1931-05-15",
      "is_mainstock": 0,
      "prices_count": 43
    },
    "9870": {
      "id": 9870,
      "name": "Forges et Aciéries de la Marine et d'Homécourt 4,5% 1931, remb. à 1000 fr. 1932-66",
      "share_type": {
        "id": 2,
        "name": "Bond (Obligation)"
      },
      "types": [
        {
          "start_date": "1931-07-27",
          "end_date": "3999-12-31",
          "id": 1001,
          "name": "Obligation ordinaire ou classique",
          "stock_group": "B"
        }
      ],
      "start_date": "1931-07-27",
      "end_date": "3999-12-31",
      "prices_from": "1931-07-27",
      "prices_to": "1962-10-31",
      "is_mainstock": 0,
      "prices_count": 790
    },
    "10247": {
      "id": 10247,
      "name": "Forges et Aciéries de la Marine et d'Homécourt, bons 5,5% 1932, remb. à 1000 fr. 1933-42",
      "share_type": {
        "id": 2,
        "name": "Bond (Obligation)"
      },
      "types": [
        {
          "start_date": "1932-11-08",
          "end_date": "3999-12-31",
          "id": 1001,
          "name": "Obligation ordinaire ou classique",
          "stock_group": "B"
        }
      ],
      "start_date": "1932-11-08",
      "end_date": "3999-12-31",
      "prices_from": "1932-11-08",
      "prices_to": "1942-01-15",
      "is_mainstock": 0,
      "prices_count": 198
    },
    "11936": {
      "id": 11936,
      "name": "Marine et Saint-Etienne (Forges et Aciéries de) 4% 1942 (n°s 20001 à 35740) (Rachats ou Tirages) 1943-72",
      "share_type": {
        "id": 2,
        "name": "Bond (Obligation)"
      },
      "types": [
        {
          "start_date": "1942-12-10",
          "end_date": "3999-12-31",
          "id": 1001,
          "name": "Obligation ordinaire ou classique",
          "stock_group": "B"
        }
      ],
      "start_date": "1942-12-10",
      "end_date": "3999-12-31",
      "prices_from": "1942-12-10",
      "prices_to": "1972-06-30",
      "is_mainstock": 0,
      "prices_count": 709
    },
    "12119": {
      "id": 12119,
      "name": "Marine et Saint-Etienne (Forges et Aciéries de) 4% 1944 (n°s 30001 à 53580) (Rachats ou Tirages) 1945-74",
      "share_type": {
        "id": 2,
        "name": "Bond (Obligation)"
      },
      "types": [
        {
          "start_date": "1945-01-19",
          "end_date": "3999-12-31",
          "id": 1001,
          "name": "Obligation ordinaire ou classique",
          "stock_group": "B"
        }
      ],
      "start_date": "1945-01-19",
      "end_date": "3999-12-31",
      "prices_from": "1945-01-19",
      "prices_to": "1973-08-31",
      "is_mainstock": 0,
      "prices_count": 705
    },
    "12148": {
      "id": 12148,
      "name": "Forges et Aciéries de la Marine et d'Homécourt, Act. 500 f., t.p. (n°s 480001 à 737351) (c. 19 att.)",
      "share_type": {
        "id": 1,
        "name": "Stock (Action)"
      },
      "types": [
        {
          "start_date": "1945-10-31",
          "end_date": "3999-12-31",
          "id": 18,
          "name": "Action",
          "stock_group": "S"
        }
      ],
      "start_date": "1945-10-31",
      "end_date": "3999-12-31",
      "prices_from": "1945-10-31",
      "prices_to": "1947-01-15",
      "is_mainstock": 0,
      "prices_count": 40
    },
    "12615": {
      "id": 12615,
      "name": "Marine et Saint-Etienne (Forges et Aciéries de) 4,5% 1947 (Rach. ou Tir.) 1948-77",
      "share_type": {
        "id": 2,
        "name": "Bond (Obligation)"
      },
      "types": [
        {
          "start_date": "1947-10-03",
          "end_date": "3999-12-31",
          "id": 1001,
          "name": "Obligation ordinaire ou classique",
          "stock_group": "B"
        }
      ],
      "start_date": "1947-10-03",
      "end_date": "3999-12-31",
      "prices_from": "1947-10-03",
      "prices_to": "1973-08-31",
      "is_mainstock": 0,
      "prices_count": 638
    },
    "13913": {
      "id": 13913,
      "name": "Forges et Aciéres de la Marine et de St-Etienne, act. 2500 fr., t. p.",
      "share_type": {
        "id": 1,
        "name": "Stock (Action)"
      },
      "types": [
        {
          "start_date": "1950-12-18",
          "end_date": "3999-12-31",
          "id": 11,
          "name": "Action ordinaire",
          "stock_group": "S"
        }
      ],
      "start_date": "1950-12-18",
      "end_date": "3999-12-31",
      "prices_from": "1950-12-18",
      "prices_to": "1957-09-30",
      "is_mainstock": 0,
      "prices_count": 253
    },
    "14437": {
      "id": 14437,
      "name": "Marine et Saint-Etienne (Forges et Aciéries de) 6,5% sept. 1951 (Tir. 8/8/55) 1952-66",
      "share_type": {
        "id": 2,
        "name": "Bond (Obligation)"
      },
      "types": [
        {
          "start_date": "1952-02-26",
          "end_date": "3999-12-31",
          "id": 1001,
          "name": "Obligation ordinaire ou classique",
          "stock_group": "B"
        }
      ],
      "start_date": "1952-02-26",
      "end_date": "3999-12-31",
      "prices_from": "1952-02-29",
      "prices_to": "1962-08-31",
      "is_mainstock": 0,
      "prices_count": 271
    },
    "14853": {
      "id": 14853,
      "name": "Marine et de St-Etienne (Forges et Aciéries de la), act. 2500 fr. (par 25 actions)",
      "share_type": {
        "id": 1,
        "name": "Stock (Action)"
      },
      "types": [
        {
          "start_date": "1954-01-04",
          "end_date": "3999-12-31",
          "id": 11,
          "name": "Action ordinaire",
          "stock_group": "S"
        }
      ],
      "start_date": "1954-01-04",
      "end_date": "3999-12-31",
      "prices_from": null,
      "prices_to": null,
      "is_mainstock": 0,
      "prices_count": 0
    },
    "15488": {
      "id": 15488,
      "name": "Marine-Wendel, act.",
      "share_type": {
        "id": 1,
        "name": "Stock (Action)"
      },
      "types": [
        {
          "start_date": "1957-01-14",
          "end_date": "3999-12-31",
          "id": 18,
          "name": "Action",
          "stock_group": "S"
        }
      ],
      "start_date": "1957-01-14",
      "end_date": "3999-12-31",
      "prices_from": "1957-01-14",
      "prices_to": "1976-12-31",
      "is_mainstock": 0,
      "prices_count": 573
    },
    "15489": {
      "id": 15489,
      "name": "Marine et de Saint-Etienne (Forges et Aciéries de la), Promesses",
      "share_type": {
        "id": 1,
        "name": "Stock (Action)"
      },
      "types": [
        {
          "start_date": "1957-02-18",
          "end_date": "3999-12-31",
          "id": 27,
          "name": "Promesse d'action",
          "stock_group": "S"
        }
      ],
      "start_date": "1957-02-18",
      "end_date": "3999-12-31",
      "prices_from": "1957-02-18",
      "prices_to": "1957-05-31",
      "is_mainstock": 0,
      "prices_count": 10
    },
    "15524": {
      "id": 15524,
      "name": "Marine et de St-Etienne (forges et aciéries de la), act 50 NF (ex-dr, )(par 25 actions)",
      "share_type": {
        "id": 1,
        "name": "Stock (Action)"
      },
      "types": [
        {
          "start_date": "1957-03-21",
          "end_date": "3999-12-31",
          "id": 18,
          "name": "Action",
          "stock_group": "S"
        }
      ],
      "start_date": "1957-03-21",
      "end_date": "3999-12-31",
      "prices_from": null,
      "prices_to": null,
      "is_mainstock": 0,
      "prices_count": 0
    },
    "15782": {
      "id": 15782,
      "name": "Marine et de saint-etienne, promesses (jce 1/7/58)",
      "share_type": {
        "id": 1,
        "name": "Stock (Action)"
      },
      "types": [
        {
          "start_date": "1959-02-16",
          "end_date": "3999-12-31",
          "id": 27,
          "name": "Promesse d'action",
          "stock_group": "S"
        }
      ],
      "start_date": "1959-02-16",
      "end_date": "3999-12-31",
      "prices_from": "1959-02-17",
      "prices_to": "1959-05-15",
      "is_mainstock": 0,
      "prices_count": 11
    },
    "19644": {
      "id": 19644,
      "name": "NANCY_BOURSE Marine-Firminy (ex-Redande-Dilling) 4% 1945 (Tir. 6/2/69) 1946-75",
      "share_type": {
        "id": 2,
        "name": "Bond (Obligation)"
      },
      "types": [
        {
          "start_date": "1967-05-02",
          "end_date": "3999-12-31",
          "id": 1001,
          "name": "Obligation ordinaire ou classique",
          "stock_group": "B"
        }
      ],
      "start_date": "1967-05-02",
      "end_date": "3999-12-31",
      "prices_from": "1967-05-16",
      "prices_to": "1972-02-29",
      "is_mainstock": 0,
      "prices_count": 116
    },
    "19645": {
      "id": 19645,
      "name": "Nancy_Bourse Marine de Firminy et de Saint-Etienne (Forges et Aciéries de la) (ex-Redange-Dilling) 4,5% 1947. 1948-77",
      "share_type": {
        "id": 2,
        "name": "Bond (Obligation)"
      },
      "types": [
        {
          "start_date": "1967-05-02",
          "end_date": "3999-12-31",
          "id": 1001,
          "name": "Obligation ordinaire ou classique",
          "stock_group": "B"
        }
      ],
      "start_date": "1967-05-02",
      "end_date": "3999-12-31",
      "prices_from": "1967-05-12",
      "prices_to": "1968-01-02",
      "is_mainstock": 0,
      "prices_count": 17
    },
    "20866": {
      "id": 20866,
      "name": "Marine-Firminy",
      "share_type": {
        "id": 3,
        "name": "OPTIONS"
      },
      "types": [
        {
          "start_date": "1969-05-29",
          "end_date": "3999-12-31",
          "id": 2,
          "name": "Option",
          "stock_group": "M"
        }
      ],
      "start_date": "1969-05-29",
      "end_date": "3999-12-31",
      "prices_from": null,
      "prices_to": null,
      "is_mainstock": 0,
      "prices_count": 0
    },
    "20875": {
      "id": 20875,
      "name": "Marine-Firminy",
      "share_type": {
        "id": 3,
        "name": "OPTIONS"
      },
      "types": [
        {
          "start_date": "1969-12-30",
          "end_date": "3999-12-31",
          "id": 2,
          "name": "Option",
          "stock_group": "M"
        }
      ],
      "start_date": "1969-12-30",
      "end_date": "3999-12-31",
      "prices_from": null,
      "prices_to": null,
      "is_mainstock": 0,
      "prices_count": 0
    },
    "25205": {
      "id": 25205,
      "name": "Forges et Aciéries de la Marine et d'Homécourt, act non estampillées",
      "share_type": {
        "id": 1,
        "name": "Stock (Action)"
      },
      "types": [
        {
          "start_date": "1000-01-01",
          "end_date": "3999-12-31",
          "id": 18,
          "name": "Action",
          "stock_group": "S"
        }
      ],
      "start_date": "1917-01-02",
      "end_date": "3999-12-31",
      "prices_from": "1918-02-15",
      "prices_to": "1918-02-15",
      "is_mainstock": 0,
      "prices_count": 1
    },
    "25450": {
      "id": 25450,
      "name": "Forges et Aciéries de la Marine et d'Homécourt, act. 500 fr., t. p. non est.",
      "share_type": {
        "id": 1,
        "name": "Stock (Action)"
      },
      "types": [
        {
          "start_date": "1000-01-01",
          "end_date": "3999-12-31",
          "id": 18,
          "name": "Action",
          "stock_group": "S"
        }
      ],
      "start_date": "1600-01-01",
      "end_date": "3999-12-31",
      "prices_from": "1927-02-28",
      "prices_to": "1927-02-28",
      "is_mainstock": 0,
      "prices_count": 1
    },
    "40049": {
      "id": 40049,
      "name": "Forges et Aciéries de la Marine d'Homécourt, act. A 500 fr. tp.",
      "share_type": {
        "id": 1,
        "name": "Stock (Action)"
      },
      "types": [
        {
          "start_date": "1000-01-01",
          "end_date": "3999-12-31",
          "id": 18,
          "name": "Action",
          "stock_group": "S"
        }
      ],
      "start_date": "1930-01-15",
      "end_date": "1935-03-01",
      "prices_from": "1930-04-15",
      "prices_to": "1935-02-28",
      "is_mainstock": 0,
      "prices_count": 194
    },
    "100034": {
      "id": 100034,
      "name": "Act. Forges et Aciéries de la Marine et d'Homecourt (droit et répartition).",
      "share_type": {
        "id": 1,
        "name": "Stock (Action)"
      },
      "types": [
        {
          "start_date": "1892-05-05",
          "end_date": "1920-01-01",
          "id": 18,
          "name": "Action",
          "stock_group": "S"
        }
      ],
      "start_date": "1892-05-05",
      "end_date": "1920-01-01",
      "prices_from": null,
      "prices_to": null,
      "is_mainstock": 0,
      "prices_count": 0
    },
    "100444": {
      "id": 100444,
      "name": "Act. Forges et Aciéries de la Marine et d'Homécourt (droit et coupon 18 ou bon de droit)",
      "share_type": {
        "id": 4,
        "name": "Rights (Droits)"
      },
      "types": [
        {
          "start_date": "1945-01-16",
          "end_date": "1946-02-23",
          "id": 501,
          "name": "Droit de souscription",
          "stock_group": "R"
        }
      ],
      "start_date": "1945-01-16",
      "end_date": "1946-02-23",
      "prices_from": "1945-01-16",
      "prices_to": "1945-02-15",
      "is_mainstock": 0,
      "prices_count": 3
    },
    "100724": {
      "id": 100724,
      "name": "A. 1 à 776142 F. et Ac. de la Marine et Homécourt (d. et c. 19). 1 a. n. émise à 510 fr. pour 2 a. anc.",
      "share_type": {
        "id": 4,
        "name": "Rights (Droits)"
      },
      "types": [
        {
          "start_date": "1947-02-14",
          "end_date": "1948-03-30",
          "id": 501,
          "name": "Droit de souscription",
          "stock_group": "R"
        }
      ],
      "start_date": "1947-02-14",
      "end_date": "1948-03-30",
      "prices_from": null,
      "prices_to": null,
      "is_mainstock": 0,
      "prices_count": 0
    },
    "100726": {
      "id": 100726,
      "name": "Act. 1 à 776142. F. et Ac. de la Marine et de l'Homécourt (dr. et c. 20) (1 a. nouv., jce 1/7/46, pour 2 a. anc.)",
      "share_type": {
        "id": 4,
        "name": "Rights (Droits)"
      },
      "types": [
        {
          "start_date": "1947-02-14",
          "end_date": "1950-05-16",
          "id": 502,
          "name": "Droit d'attribution",
          "stock_group": "R"
        }
      ],
      "start_date": "1947-02-14",
      "end_date": "1950-05-16",
      "prices_from": null,
      "prices_to": null,
      "is_mainstock": 0,
      "prices_count": 0
    },
    "101207": {
      "id": 101207,
      "name": "Forges et Aciéries de la Marine et d'Homécourt (dr. et coup. 24) (2 act. 2500 fr. émises à 2750 fr., jce 1/7/50, pour 15 actions anc. 475 fr.)",
      "share_type": {
        "id": 4,
        "name": "Rights (Droits)"
      },
      "types": [
        {
          "start_date": "1950-06-26",
          "end_date": "3999-12-31",
          "id": 501,
          "name": "Droit de souscription",
          "stock_group": "R"
        }
      ],
      "start_date": "1950-06-26",
      "end_date": "3999-12-31",
      "prices_from": "1950-06-26",
      "prices_to": "1950-06-26",
      "is_mainstock": 0,
      "prices_count": 1
    },
    "102502": {
      "id": 102502,
      "name": "Act. Forges et Aciéries de la Marine et d'Homécourt (bon marron 1941). 1 act. nouv. janvier émise à 550 fr. pour 3 bons",
      "share_type": {
        "id": 4,
        "name": "Rights (Droits)"
      },
      "types": [
        {
          "start_date": "1945-10-31",
          "end_date": "1948-03-17",
          "id": 501,
          "name": "Droit de souscription",
          "stock_group": "R"
        }
      ],
      "start_date": "1945-10-31",
      "end_date": "1948-03-17",
      "prices_from": "1946-02-15",
      "prices_to": "1946-03-01",
      "is_mainstock": 0,
      "prices_count": 2
    },
    "102503": {
      "id": 102503,
      "name": "Act. Forges et Aciéries de la Marine et d'Homécourt (bon rouge 1945). 1 act. nouv. janvier 1945 émise à 550 fr. pour 2 bons",
      "share_type": {
        "id": 4,
        "name": "Rights (Droits)"
      },
      "types": [
        {
          "start_date": "1945-10-31",
          "end_date": "1948-03-17",
          "id": 501,
          "name": "Droit de souscription",
          "stock_group": "R"
        }
      ],
      "start_date": "1945-10-31",
      "end_date": "1948-03-17",
      "prices_from": "1946-03-01",
      "prices_to": "1946-03-01",
      "is_mainstock": 0,
      "prices_count": 0
    },
    "102504": {
      "id": 102504,
      "name": "Act. Forges et Aciéries de la Marine et d'Homécourt (droit et coupon 53). Pour 4 act. A anc., 1 action A nouvelle émise à 1500 francs.",
      "share_type": {
        "id": 4,
        "name": "Rights (Droits)"
      },
      "types": [
        {
          "start_date": "1929-03-05",
          "end_date": "1929-03-23",
          "id": 501,
          "name": "Droit de souscription",
          "stock_group": "R"
        }
      ],
      "start_date": "1929-03-05",
      "end_date": "1929-03-23",
      "prices_from": "1929-03-05",
      "prices_to": "1929-03-15",
      "is_mainstock": 0,
      "prices_count": 2
    },
    "102505": {
      "id": 102505,
      "name": "Act. Forges et Aciéries de la Marine et d'Homécourt.",
      "share_type": {
        "id": 4,
        "name": "Rights (Droits)"
      },
      "types": [
        {
          "start_date": "1923-02-21",
          "end_date": "1923-03-08",
          "id": 501,
          "name": "Droit de souscription",
          "stock_group": "R"
        }
      ],
      "start_date": "1923-02-21",
      "end_date": "1923-03-08",
      "prices_from": "1923-02-21",
      "prices_to": "1923-03-01",
      "is_mainstock": 0,
      "prices_count": 0
    },
    "102506": {
      "id": 102506,
      "name": "Act. Forges et Aciéries de la Marine et d'Homécourt. Pour 10 actions anciennes, 3 actions nouvelles émises à 540 francs.",
      "share_type": {
        "id": 4,
        "name": "Rights (Droits)"
      },
      "types": [
        {
          "start_date": "1927-02-24",
          "end_date": "1927-02-28",
          "id": 501,
          "name": "Droit de souscription",
          "stock_group": "R"
        }
      ],
      "start_date": "1927-02-24",
      "end_date": "1927-02-28",
      "prices_from": "1927-02-24",
      "prices_to": "1927-02-24",
      "is_mainstock": 0,
      "prices_count": 0
    },
    "103233": {
      "id": 103233,
      "name": "Act.FORGES ET ACIERIES DE LA MARINE ET D'HOMECOURT (droit et coupon 12).Pour 3 act.anciennes, 1 action nouvelle émise à 550 francs",
      "share_type": {
        "id": 4,
        "name": "Rights (Droits)"
      },
      "types": [
        {
          "start_date": "1941-07-31",
          "end_date": "1941-09-04",
          "id": 501,
          "name": "Droit de souscription",
          "stock_group": "R"
        }
      ],
      "start_date": "1941-07-31",
      "end_date": "1941-09-04",
      "prices_from": "1941-07-31",
      "prices_to": "1941-09-01",
      "is_mainstock": 0,
      "prices_count": 2
    },
    "103982": {
      "id": 103982,
      "name": "Forges et Aciéries de la Marine et d'Homécourt, act. 500 fr., tout payé (dr. et c. 12 att.)",
      "share_type": {
        "id": 1,
        "name": "Stock (Action)"
      },
      "types": [],
      "start_date": "1941-07-24",
      "end_date": "1941-08-19",
      "prices_from": "1941-07-31",
      "prices_to": "1941-08-18",
      "is_mainstock": 0,
      "prices_count": 2
    },
    "104138": {
      "id": 104138,
      "name": "Forges et Aciéries de la Marine et d'Homécourt, act. 475 fr., t. p. (nos 1164214 a 1552284) (c. 21 att)",
      "share_type": {
        "id": 2,
        "name": "Bond (Obligation)"
      },
      "types": [
        {
          "start_date": "1948-03-09",
          "end_date": "1948-04-01",
          "id": 18,
          "name": "Action",
          "stock_group": "S"
        }
      ],
      "start_date": "1948-03-09",
      "end_date": "1948-04-01",
      "prices_from": "1948-03-31",
      "prices_to": "1948-03-31",
      "is_mainstock": 0,
      "prices_count": 1
    },
    "104412": {
      "id": 104412,
      "name": "Forges et Acieries de la Marine et d'Homecourt, a. 2500 fr., t. p. (nos 310457 a 517426)",
      "share_type": {
        "id": 1,
        "name": "Stock (Action)"
      },
      "types": [
        {
          "start_date": "1951-02-28",
          "end_date": "1951-04-03",
          "id": 18,
          "name": "Action",
          "stock_group": "S"
        }
      ],
      "start_date": "1951-02-28",
      "end_date": "1951-04-03",
      "prices_from": "1951-02-28",
      "prices_to": "1951-04-02",
      "is_mainstock": 0,
      "prices_count": 4
    },
    "104536": {
      "id": 104536,
      "name": "Act. Forges et Aciériesde la marine et d'Homécourt pour 10 actions anciennes, 3 actions nouvelles emises à 540francs",
      "share_type": {
        "id": 5,
        "name": "Droits de souscription"
      },
      "types": [
        {
          "start_date": "1927-02-19",
          "end_date": "1927-03-11",
          "id": 501,
          "name": "Droit de souscription",
          "stock_group": "R"
        }
      ],
      "start_date": "1927-02-19",
      "end_date": "1927-03-11",
      "prices_from": null,
      "prices_to": null,
      "is_mainstock": 0,
      "prices_count": 0
    },
    "104537": {
      "id": 104537,
      "name": "F. et Aciéries Marine, c. 18",
      "share_type": {
        "id": 5,
        "name": "Droits de souscription"
      },
      "types": [
        {
          "start_date": "1945-02-19",
          "end_date": "1945-03-11",
          "id": 501,
          "name": "Droit de souscription",
          "stock_group": "R"
        }
      ],
      "start_date": "1945-02-19",
      "end_date": "1945-03-11",
      "prices_from": "1945-03-01",
      "prices_to": "1945-03-01",
      "is_mainstock": 0,
      "prices_count": 1
    },
    "104538": {
      "id": 104538,
      "name": "A. Aciéries Marine, c.18",
      "share_type": {
        "id": 8,
        "name": "Droit d'attribution"
      },
      "types": [
        {
          "start_date": "1946-03-05",
          "end_date": "1946-04-25",
          "id": 502,
          "name": "Droit d'attribution",
          "stock_group": "R"
        }
      ],
      "start_date": "1946-03-05",
      "end_date": "1946-04-25",
      "prices_from": null,
      "prices_to": null,
      "is_mainstock": 0,
      "prices_count": 0
    },
    "104539": {
      "id": 104539,
      "name": "A. 1 à 776142. Forges et Ac. De la Marine et d'Homécourt( dr. Et c. 19",
      "share_type": {
        "id": 5,
        "name": "Droits de souscription"
      },
      "types": [
        {
          "start_date": "1947-04-05",
          "end_date": "1947-04-25",
          "id": 501,
          "name": "Droit de souscription",
          "stock_group": "R"
        }
      ],
      "start_date": "1947-04-05",
      "end_date": "1947-04-25",
      "prices_from": "1947-04-15",
      "prices_to": "1947-04-15",
      "is_mainstock": 0,
      "prices_count": 1
    },
    "104540": {
      "id": 104540,
      "name": "Act. 1 à 776142. F. et Ac. De la Marine et d'Homécourt ( dr et c 20)",
      "share_type": {
        "id": 8,
        "name": "Droit d'attribution"
      },
      "types": [
        {
          "start_date": "1950-05-21",
          "end_date": "1950-10-12",
          "id": 502,
          "name": "Droit d'attribution",
          "stock_group": "R"
        }
      ],
      "start_date": "1950-05-21",
      "end_date": "1950-10-12",
      "prices_from": "1950-07-31",
      "prices_to": "1950-07-31",
      "is_mainstock": 0,
      "prices_count": 1
    },
    "106205": {
      "id": 106205,
      "name": "Marine et de Saint-Etienne (Forges et Aciéries de la), Promesses (Jce 1/7/61)",
      "share_type": {
        "id": 1,
        "name": "Stock (Action)"
      },
      "types": [
        {
          "start_date": "1962-04-02",
          "end_date": "1962-06-01",
          "id": 27,
          "name": "Promesse d'action",
          "stock_group": "S"
        }
      ],
      "start_date": "1962-04-02",
      "end_date": "1962-06-01",
      "prices_from": "1962-04-02",
      "prices_to": "1962-06-01",
      "is_mainstock": 0,
      "prices_count": 5
    },
    "106484": {
      "id": 106484,
      "name": "Marine-Firminy Promesses (Jce 1/7/70)",
      "share_type": {
        "id": 1,
        "name": "Stock (Action)"
      },
      "types": [
        {
          "start_date": "1971-03-15",
          "end_date": "1971-06-15",
          "id": 2,
          "name": "Option",
          "stock_group": "M"
        }
      ],
      "start_date": "1971-03-15",
      "end_date": "1971-06-15",
      "prices_from": "1971-03-15",
      "prices_to": "1971-06-15",
      "is_mainstock": 0,
      "prices_count": 8
    }
  }
}