{
  "id": 16463,
  "names": [
    "SOCIETE DE BANQUE OCCIDENTALE POUR L’INDUSTRIE ET LE COMMERCE",
    "SOCIETE DE BANQUE OCCIDENTALE SDBO"
  ],
  "name": "SOCIETE DE BANQUE OCCIDENTALE SDBO",
  "balance_sheets": [],
  "balance_sheets_stats": {
    "start_date": null,
    "end_date": null
  },
  "locations_stats": {
    "start_date": null,
    "end_date": null
  },
  "locations": {},
  "persons": [],
  "persons_stats": {
    "persons_count": 0,
    "start_date": null,
    "end_date": null
  },
  "yearbooks_ocrs": [],
  "juridical_status": [],
  "equity_capital": [],
  "profit_dividends": [],
  "public_status": false
}