{
  "id": 3894,
  "names": [
    "GRANDS MOULINS DE STRASBOURG",
    "Grands Moulins de Strasbourg"
  ],
  "name": "GRANDS MOULINS DE STRASBOURG",
  "balance_sheets": [
    {
      "start_date": "1936-12-31",
      "source": "Annuaire Desfossés 1945",
      "page": "2032"
    },
    {
      "start_date": "1937-12-31",
      "source": "Annuaire Desfossés 1945",
      "page": "2032"
    },
    {
      "start_date": "1938-12-31",
      "source": "Annuaire Desfossés 1948",
      "page": "2355"
    },
    {
      "start_date": "1945-12-31",
      "source": "Annuaire Desfossés 1948",
      "page": "2355"
    },
    {
      "start_date": "1946-12-31",
      "source": "Annuaire Desfossés 1948",
      "page": "2355"
    },
    {
      "start_date": "1947-12-31",
      "source": "Annuaire Desfossés 1948",
      "page": "2355"
    },
    {
      "start_date": "1948-12-31",
      "source": "Annuaire Desfossés 1953",
      "page": "1973"
    },
    {
      "start_date": "1949-12-31",
      "source": "Annuaire Desfossés 1953",
      "page": "1973"
    },
    {
      "start_date": "1950-12-31",
      "source": "Annuaire Desfossés 1953",
      "page": "1973"
    },
    {
      "start_date": "1951-12-31",
      "source": "Annuaire Desfossés 1953",
      "page": "1973"
    }
  ],
  "balance_sheets_stats": {
    "start_date": "1936-12-31",
    "end_date": "1951-12-31"
  },
  "locations_stats": {
    "start_date": "1940-01-01",
    "end_date": "1953-12-31"
  },
  "locations": {
    "Siège social": [
      {
        "location_types_id": 1,
        "location_type": "Siège social",
        "address": "Port du rhin",
        "city": "Strasbourg",
        "district": "Bas-Rhin",
        "country": "France",
        "in_yearbook_from": 1940,
        "in_yearbook_to": 1953
      },
      {
        "location_types_id": 1,
        "location_type": "Siège social",
        "address": "Rue du louvre, 62",
        "city": "Paris",
        "district": "Paris",
        "country": "France",
        "in_yearbook_from": 1945,
        "in_yearbook_to": 1953
      }
    ]
  },
  "persons": [
    {
      "persons_count": 7,
      "yearbook": "Annuaire Desfossés 1940",
      "source": "annuaire_df_1940",
      "page": null
    },
    {
      "persons_count": 4,
      "yearbook": "Annuaire Desfossés 1945",
      "source": "annuaire_df_1945",
      "page": "2032"
    },
    {
      "persons_count": 2,
      "yearbook": "Annuaire Desfossés 1948",
      "source": "annuaire_df_1948",
      "page": "2355"
    },
    {
      "persons_count": 10,
      "yearbook": "Annuaire Desfossés 1953",
      "source": "annuaire_df_1953",
      "page": "1973"
    }
  ],
  "persons_stats": {
    "persons_count": 22,
    "start_date": "1940-01-01",
    "end_date": "1953-12-31"
  },
  "yearbooks_ocrs": [
    {
      "source": "annuaire_df_1940",
      "yearbook": "Annuaire Desfossés 1940",
      "page": null
    },
    {
      "source": "annuaire_df_1945",
      "yearbook": "Annuaire Desfossés 1945",
      "page": "2032"
    },
    {
      "source": "annuaire_df_1948",
      "yearbook": "Annuaire Desfossés 1948",
      "page": "2355"
    },
    {
      "source": "annuaire_df_1953",
      "yearbook": "Annuaire Desfossés 1953",
      "page": "1973"
    }
  ],
  "juridical_status": [
    {
      "juridical_status": "Société anonyme de droit local",
      "start_date": "1898-01-01",
      "end_date": "1934-04-19",
      "comments": "Société anonyme de droit local constituée en 1898 pour une durée illimitée et trans- fermée en Société anonyme de droit français le 20 avril 1934.",
      "source": "annuaire_df_1940"
    },
    {
      "juridical_status": "Société Anonyme (Libre)",
      "start_date": "1934-04-20",
      "end_date": "3999-12-31",
      "comments": "Société anonyme de droit local constituée en 1898 pour une durée illimitée et trans- fermée en Société anonyme de droit français le 20 avril 1934.",
      "source": "annuaire_df_1940"
    }
  ],
  "equity_capital": [
    {
      "amount": "2.000.000",
      "currency": "Franc",
      "infodate": "1898-01-01",
      "source": "annuaire_df_1940",
      "comments": " A l’origine 2 mil lions"
    },
    {
      "amount": "7.500.000",
      "currency": "Franc",
      "infodate": "1910-01-01",
      "source": "annuaire_df_1940",
      "comments": "Capital : 32 millions de francs en 32.000 actions de 1.000 francs. A l’origine 2 mil-lions, porté en 1910 à 7.500.000, en 1923 à 10 millions, en 1925 à 15 millions, en 1926 à 25 millions, en 1929 à 30 millions, en 1930 à 40 millions. Réduit en 1936 à 32 millions par remboursement de 250 fr. par action, dont le nominal a été' réduit de 1.250 à ? OQ0 fr."
    },
    {
      "amount": "10.000.000",
      "currency": "Franc",
      "infodate": "1923-01-01",
      "source": "annuaire_df_1940",
      "comments": "Capital : 32 millions de francs en 32.000 actions de 1.000 francs. A l’origine 2 mil-lions, porté en 1910 à 7.500.000, en 1923 à 10 millions, en 1925 à 15 millions, en 1926 à 25 millions, en 1929 à 30 millions, en 1930 à 40 millions. Réduit en 1936 à 32 millions par remboursement de 250 fr. par action, dont le nominal a été' réduit de 1.250 à ? OQ0 fr."
    },
    {
      "amount": "15.000.000",
      "currency": "Franc",
      "infodate": "1925-01-01",
      "source": "annuaire_df_1940",
      "comments": "Capital : 32 millions de francs en 32.000 actions de 1.000 francs. A l’origine 2 mil-lions, porté en 1910 à 7.500.000, en 1923 à 10 millions, en 1925 à 15 millions, en 1926 à 25 millions, en 1929 à 30 millions, en 1930 à 40 millions. Réduit en 1936 à 32 millions par remboursement de 250 fr. par action, dont le nominal a été' réduit de 1.250 à ? OQ0 fr."
    },
    {
      "amount": "25.000.000",
      "currency": "Franc",
      "infodate": "1926-01-01",
      "source": "annuaire_df_1940",
      "comments": "Capital : 32 millions de francs en 32.000 actions de 1.000 francs. A l’origine 2 mil-lions, porté en 1910 à 7.500.000, en 1923 à 10 millions, en 1925 à 15 millions, en 1926 à 25 millions, en 1929 à 30 millions, en 1930 à 40 millions. Réduit en 1936 à 32 millions par remboursement de 250 fr. par action, dont le nominal a été' réduit de 1.250 à ? OQ0 fr."
    },
    {
      "amount": "30.000.000",
      "currency": "Franc",
      "infodate": "1929-01-01",
      "source": "annuaire_df_1940",
      "comments": "Capital : 32 millions de francs en 32.000 actions de 1.000 francs. A l’origine 2 mil-lions, porté en 1910 à 7.500.000, en 1923 à 10 millions, en 1925 à 15 millions, en 1926 à 25 millions, en 1929 à 30 millions, en 1930 à 40 millions. Réduit en 1936 à 32 millions par remboursement de 250 fr. par action, dont le nominal a été' réduit de 1.250 à ? OQ0 fr."
    },
    {
      "amount": "40.000.000",
      "currency": "Franc",
      "infodate": "1930-01-01",
      "source": "annuaire_df_1940",
      "comments": "Capital : 32 millions de francs en 32.000 actions de 1.000 francs. A l’origine 2 mil-lions, porté en 1910 à 7.500.000, en 1923 à 10 millions, en 1925 à 15 millions, en 1926 à 25 millions, en 1929 à 30 millions, en 1930 à 40 millions. Réduit en 1936 à 32 millions par remboursement de 250 fr. par action, dont le nominal a été' réduit de 1.250 à ? OQ0 fr."
    },
    {
      "amount": "32.000.000",
      "currency": "Franc",
      "infodate": "1936-01-01",
      "source": "annuaire_df_1940",
      "comments": "Capital : 32 millions de francs en 32.000 actions de 1.000 francs. A l’origine 2 mil-lions, porté en 1910 à 7.500.000, en 1923 à 10 millions, en 1925 à 15 millions, en 1926 à 25 millions, en 1929 à 30 millions, en 1930 à 40 millions. Réduit en 1936 à 32 millions par remboursement de 250 fr. par action, dont le nominal a été' réduit de 1.250 à ? OQ0 fr."
    },
    {
      "amount": "16.000.000",
      "currency": "Franc",
      "infodate": "1941-01-01",
      "source": "annuaire_df_1945",
      "comments": "Capital : 16 millions divisé en 32.000 actions de 500 francs. A. l’origine 2 millions, porté en 1910 à 7.500.000, en 1923 à 10 millions, en 1925 à 15 millions, en 1926 à 25 millions, en 1929 à 30 millions, en 1930 à 40 millions. Réduit en 1936 à 32 millions par remboursement de 250 fr. par action, dont, le nominal a été réduit de 1.250 à 1.000 fr. Ramené en 1941 à 16 millions par le remboursement de 500 fr. par action."
    },
    {
      "amount": "32.000.000",
      "currency": "Franc",
      "infodate": "1949-01-01",
      "source": "annuaire_df_1953",
      "comments": "32 millions de francs. A l'origine, 2 millions, porté en 1910 à 7.500.000, en 1923 à 10 millions, en 1925 à 15 millions, en 1926 à 25 millions, en 1929 à 30 millions, en 1930 à 40 millions. Réduit en 1936 à 32 millions par remboursement de 250 fr. par action, dont le nominal a été réduit de 1.250 à 1.000 fr. Ramené en 1941 à 16 millions par le remboursement de 500 fr. par action. Porté en 1949 au chiffre actuel par l'émission au pair de 32.000 actions de 500 (1 pour 1)."
    },
    {
      "amount": "64.000.000",
      "currency": "Franc",
      "infodate": "1949-11-01",
      "source": "annuaire_df_1953",
      "comments": "64 millions de francs. A l'origine, 2 millions, porté en 1910 à 7.500.000, en 1923 à 10 millions, en 1925 à 15 millions, en 1926 à 25 millions, en 1929 à 30 millions, en 1930 à 40 millions. Réduit en 1936 à 32 millions par remboursement de 250 fr. par action, dont le nominal a été réduit de 1.250 à 1.000 fr. Ramené en 1941 à 16 millions par le remboursement de 500 fr. par action. Porté en 1949 à 32 millions par l'émission au pair de 32.000 actions de 500 (1 pour 1). Porté en novembre 1949 au chiffre actuel par élévation du nominal à 1.000 fr. "
    },
    {
      "amount": "83.200.000",
      "currency": "Franc",
      "infodate": "1949-12-01",
      "source": "annuaire_df_1953",
      "comments": "83.200.000 francs. A l'origine, 2 millions, porté en 1910 à 7.500.000, en 1923 à 10 millions, en 1925 à 15 millions, en 1926 à 25 millions, en 1929 à 30 millions, en 1930 à 40 millions. Réduit en 1936 à 32 millions par remboursement de 250 fr. par action, dont le nominal a été réduit de 1.250 à 1.000 fr. Ramené en 1941 à 16 millions par le remboursement de 500 fr. par action. Porté en 1949 à 32 millions par l'émission au pair de 32.000 actions de 500 (1 pour 1). Porté en novembre 1949 à 64 millions par élévation du nominal à 1.000 fr. en décembre 1949 au chiffre actuel."
    },
    {
      "amount": "166.400.000",
      "currency": "Franc",
      "infodate": "1950-05-01",
      "source": "annuaire_df_1953",
      "comments": "166.400.000 francs. A l'origine, 2 millions, porté en 1910 à 7.500.000, en 1923 à 10 millions, en 1925 à 15 millions, en 1926 à 25 millions, en 1929 à 30 millions, en 1930 à 40 millions. Réduit en 1936 à 32 millions par remboursement de 250 fr. par action, dont le nominal a été réduit de 1.250 à 1.000 fr. Ramené en 1941 à 16 millions par le remboursement de 500 fr. par action. Porté en 1949 à 32 millions par l'émission au pair de 32.000 actions de 500 (1 pour 1). Porté en novembre 1949 à 64 millions par élévation du nominal à 1.000 fr. en décembre 1949 à 83.200.000 fr., en mai 1950 au chiffre actuel."
    },
    {
      "amount": "208.000.000",
      "currency": "Franc",
      "infodate": "1951-05-01",
      "source": "annuaire_df_1953",
      "comments": "208.000.000 fr., divisé en 33.280 actions de 6.250 fr. A l'origine, 2 millions, porté en 1910 à 7.500.000, en 1923 à 10 millions, en 1925 à 15 millions, en 1926 à 25 millions, en 1929 à 30 millions, en 1930 à 40 millions. Réduit en 1936 à 32 millions par remboursement de 250 fr. par action, dont le nominal a été réduit de 1.250 à 1.000 fr. Ramené en 1941 à 16 millions par le remboursement de 500 fr. par action. Porté en 1949 à 32 millions par l'émission au pair de 32.000 actions de 500 (1 pour 1) Porté en novembre 1949 à 64 millions par élévation du nominal à 1.000 fr. en décembre 1949 à 83.200.000 fr., en mai 1950 à 166.400.000 fr. et en mai 1951 au chiffre actuel par incorporation de réserves et titres regroupés."
    }
  ],
  "profit_dividends": [
    {
      "first_date": "1933-12-31",
      "last_date": "1951-12-31",
      "obs_count": 90
    }
  ],
  "public_status": false,
  "stock_exchanges": {
    "1": {
      "id": 1,
      "name": "Paris (Official List)",
      "listings_stats": {
        "start_date": "1967-05-02"
      },
      "spot_prices_stats": {
        "start_date": "1967-05-02",
        "end_date": "1976-12-31"
      }
    }
  },
  "securities": {
    "18850": {
      "id": 18850,
      "name": "Nancy_Bourse Moulins de Strasbourg (Grands), act.",
      "share_type": {
        "id": 1,
        "name": "Stock (Action)"
      },
      "types": [
        {
          "start_date": "1967-05-02",
          "end_date": "3999-12-31",
          "id": 18,
          "name": "Action",
          "stock_group": "S"
        }
      ],
      "start_date": "1967-05-02",
      "end_date": "3999-12-31",
      "prices_from": "1967-05-02",
      "prices_to": "1976-12-31",
      "is_mainstock": 0,
      "prices_count": 237
    }
  }
}