{
  "id": 2036,
  "names": [
    "Banque des Chemins de Fer d'intérêt local"
  ],
  "name": "Banque des Chemins de Fer d'intérêt local",
  "balance_sheets": [],
  "balance_sheets_stats": {
    "start_date": null,
    "end_date": null
  },
  "locations_stats": {
    "start_date": null,
    "end_date": null
  },
  "locations": {},
  "persons": [],
  "persons_stats": {
    "persons_count": 0,
    "start_date": null,
    "end_date": null
  },
  "yearbooks_ocrs": [],
  "juridical_status": [],
  "equity_capital": [],
  "profit_dividends": [],
  "public_status": false,
  "stock_exchanges": {
    "1": {
      "id": 1,
      "name": "Paris (Official List)",
      "listings_stats": {
        "start_date": "1870-01-14"
      },
      "spot_prices_stats": {
        "start_date": "1870-01-14",
        "end_date": "1874-09-30"
      }
    }
  },
  "securities": {
    "1747": {
      "id": 1747,
      "name": "Banque des chemins de fer d'intérêt local, 250f p.",
      "share_type": {
        "id": 1,
        "name": "Stock (Action)"
      },
      "types": [
        {
          "start_date": "1870-01-14",
          "end_date": "3999-12-31",
          "id": 18,
          "name": "Action",
          "stock_group": "S"
        }
      ],
      "start_date": "1870-01-14",
      "end_date": "3999-12-31",
      "prices_from": "1870-01-14",
      "prices_to": "1874-09-30",
      "is_mainstock": 1,
      "prices_count": 41
    }
  }
}