{
  "id": 4253,
  "names": [
    "LIBRAIRIE HACHETTE",
    "Librairie Hachette"
  ],
  "name": "LIBRAIRIE HACHETTE",
  "balance_sheets": [
    {
      "start_date": "1922-02-28",
      "source": "Annuaire Desfossés 1923",
      "page": "1126"
    },
    {
      "start_date": "1924-02-28",
      "source": "Annuaire Desfossés 1925",
      "page": "1341"
    },
    {
      "start_date": "1926-02-28",
      "source": "Annuaire Desfossés 1927",
      "page": "1132"
    },
    {
      "start_date": "1928-02-29",
      "source": "Annuaire Desfossés 1929",
      "page": "1214"
    },
    {
      "start_date": "1930-02-28",
      "source": "Annuaire Desfossés 1931",
      "page": "1246"
    },
    {
      "start_date": "1932-02-29",
      "source": "Annuaire Desfossés 1933",
      "page": "1280"
    },
    {
      "start_date": "1933-02-28",
      "source": "Annuaire Desfossés 1936",
      "page": null
    },
    {
      "start_date": "1934-02-28",
      "source": "Annuaire Desfossés 1937",
      "page": "1462"
    },
    {
      "start_date": "1935-02-28",
      "source": "Annuaire Desfossés 1937",
      "page": "1462"
    },
    {
      "start_date": "1936-02-28",
      "source": "Annuaire Desfossés 1937",
      "page": "1462"
    },
    {
      "start_date": "1937-02-28",
      "source": "Annuaire Desfossés 1940",
      "page": null
    },
    {
      "start_date": "1938-02-28",
      "source": "Annuaire Desfossés 1940",
      "page": null
    },
    {
      "start_date": "1939-02-28",
      "source": "Annuaire Desfossés 1940",
      "page": null
    },
    {
      "start_date": "1939-08-31",
      "source": "Annuaire Desfossés 1945",
      "page": "2234"
    },
    {
      "start_date": "1941-08-31",
      "source": "Annuaire Desfossés 1945",
      "page": "2234"
    },
    {
      "start_date": "1942-08-31",
      "source": "Annuaire Desfossés 1945",
      "page": "2234"
    },
    {
      "start_date": "1943-08-31",
      "source": "Annuaire Desfossés 1945",
      "page": "2234"
    },
    {
      "start_date": "1945-08-31",
      "source": "Annuaire Desfossés 1948",
      "page": "2583"
    },
    {
      "start_date": "1946-02-28",
      "source": "Annuaire Desfossés 1948",
      "page": "2583"
    },
    {
      "start_date": "1947-08-31",
      "source": "Annuaire Desfossés 1948",
      "page": "2583"
    },
    {
      "start_date": "1948-02-29",
      "source": "Annuaire Desfossés 1948",
      "page": "2583"
    },
    {
      "start_date": "1949-02-28",
      "source": "Annuaire Desfossés 1953",
      "page": "2197"
    },
    {
      "start_date": "1950-02-28",
      "source": "Annuaire Desfossés 1953",
      "page": "2197"
    },
    {
      "start_date": "1951-02-28",
      "source": "Annuaire Desfossés 1953",
      "page": "2197"
    },
    {
      "start_date": "1952-02-28",
      "source": "Annuaire Desfossés 1953",
      "page": "2197"
    }
  ],
  "balance_sheets_stats": {
    "start_date": "1922-02-28",
    "end_date": "1952-02-28"
  },
  "locations_stats": {
    "start_date": "1923-01-01",
    "end_date": "1953-12-31"
  },
  "locations": {
    "Siège social": [
      {
        "location_types_id": 1,
        "location_type": "Siège social",
        "address": "Boulevard saint-germain",
        "city": "Paris",
        "district": "Paris",
        "country": "France",
        "in_yearbook_from": 1923,
        "in_yearbook_to": 1924
      },
      {
        "location_types_id": 1,
        "location_type": "Siège social",
        "address": "Boulevard saint-germain, 79",
        "city": "Paris",
        "district": "Paris",
        "country": "France",
        "in_yearbook_from": 1927,
        "in_yearbook_to": 1933
      },
      {
        "location_types_id": 1,
        "location_type": "Siège social",
        "address": "Boulevard saint-germain, 79",
        "city": "Paris",
        "district": "Paris",
        "country": "France",
        "in_yearbook_from": 1945,
        "in_yearbook_to": 1953
      }
    ],
    "Siège administratif / Bureaux": [
      {
        "location_types_id": 2,
        "location_type": "Siège administratif / Bureaux",
        "address": "Rue réaumur, 115",
        "city": "Paris",
        "district": "Paris",
        "country": "France",
        "in_yearbook_from": 1953,
        "in_yearbook_to": 1953
      }
    ],
    "Représentant / Correspondant": [
      {
        "location_types_id": 16,
        "location_type": "Représentant / Correspondant",
        "address": "Quai de javel, 78",
        "city": "Paris",
        "district": "Paris",
        "country": "France",
        "in_yearbook_from": 1948,
        "in_yearbook_to": 1948
      },
      {
        "location_types_id": 16,
        "location_type": "Représentant / Correspondant",
        "address": "Rue réaumur, 111",
        "city": "Paris",
        "district": "Paris",
        "country": "France",
        "in_yearbook_from": 1948,
        "in_yearbook_to": 1948
      }
    ],
    "Siège Commercial": [
      {
        "location_types_id": 20,
        "location_type": "Siège Commercial",
        "address": "Rue des cévennes, 25",
        "city": "Paris",
        "district": "Paris",
        "country": "France",
        "in_yearbook_from": 1953,
        "in_yearbook_to": 1953
      }
    ]
  },
  "persons": [
    {
      "persons_count": 4,
      "yearbook": "Annuaire Desfossés 1923",
      "source": "annuaire_df_1923",
      "page": "1126"
    },
    {
      "persons_count": 1,
      "yearbook": "Annuaire Desfossés 1927",
      "source": "annuaire_df_1927",
      "page": "1132"
    },
    {
      "persons_count": 7,
      "yearbook": "Annuaire Desfossés 1933",
      "source": "annuaire_df_1933",
      "page": "1280"
    },
    {
      "persons_count": 4,
      "yearbook": "Annuaire Desfossés 1940",
      "source": "annuaire_df_1940",
      "page": null
    },
    {
      "persons_count": 2,
      "yearbook": "Annuaire Desfossés 1945",
      "source": "annuaire_df_1945",
      "page": "2234"
    },
    {
      "persons_count": 4,
      "yearbook": "Annuaire Desfossés 1948",
      "source": "annuaire_df_1948",
      "page": "2583"
    },
    {
      "persons_count": 7,
      "yearbook": "Annuaire Desfossés 1953",
      "source": "annuaire_df_1953",
      "page": "2197"
    }
  ],
  "persons_stats": {
    "persons_count": 19,
    "start_date": "1923-01-01",
    "end_date": "1953-12-31"
  },
  "yearbooks_ocrs": [
    {
      "source": "annuaire_df_1923",
      "yearbook": "Annuaire Desfossés 1923",
      "page": "1126"
    },
    {
      "source": "annuaire_df_1925",
      "yearbook": "Annuaire Desfossés 1925",
      "page": "1341"
    },
    {
      "source": "annuaire_df_1927",
      "yearbook": "Annuaire Desfossés 1927",
      "page": "1132"
    },
    {
      "source": "annuaire_df_1929",
      "yearbook": "Annuaire Desfossés 1929",
      "page": "1214"
    },
    {
      "source": "annuaire_df_1931",
      "yearbook": "Annuaire Desfossés 1931",
      "page": "1246"
    },
    {
      "source": "annuaire_df_1933",
      "yearbook": "Annuaire Desfossés 1933",
      "page": "1280"
    },
    {
      "source": "annuaire_df_1937",
      "yearbook": "Annuaire Desfossés 1937",
      "page": "1462"
    },
    {
      "source": "annuaire_df_1940",
      "yearbook": "Annuaire Desfossés 1940",
      "page": null
    },
    {
      "source": "annuaire_df_1945",
      "yearbook": "Annuaire Desfossés 1945",
      "page": "2234"
    },
    {
      "source": "annuaire_df_1948",
      "yearbook": "Annuaire Desfossés 1948",
      "page": "2583"
    },
    {
      "source": "annuaire_df_1953",
      "yearbook": "Annuaire Desfossés 1953",
      "page": "2197"
    }
  ],
  "juridical_status": [
    {
      "juridical_status": "Société Anonyme (Libre)",
      "start_date": "1919-07-18",
      "end_date": "1960-02-29",
      "comments": "Société anonyme française, constituée le 18 juillet 1919, pour une durée expirant fin février 1960.",
      "source": "annuaire_df_1923"
    }
  ],
  "equity_capital": [
    {
      "amount": "24.225.000",
      "currency": "Franc",
      "infodate": "1919-06-30",
      "source": "annuaire_df_1933",
      "comments": "55.000.000 de francs, divisé en 110.000 actions de 500 francs. A l’origine (30 juin 1919) 24.225.000 francs, porté en septembre 1919 à 33 millions, en novembre 1923 à 43 millions par la création de 20.000 actions de 500 francs et en mars 1930 à 55 millions par la création de 24.000 actions nouvelles de 500 francs, émises à 1.250 francs."
    },
    {
      "amount": "33.000.000",
      "currency": "Franc",
      "infodate": "1919-09-01",
      "source": "annuaire_df_1933",
      "comments": "55.000.000 de francs, divisé en 110.000 actions de 500 francs. A l’origine (30 juin 1919) 24.225.000 francs, porté en septembre 1919 à 33 millions, en novembre 1923 à 43 millions par la création de 20.000 actions de 500 francs et en mars 1930 à 55 millions par la création de 24.000 actions nouvelles de 500 francs, émises à 1.250 francs."
    },
    {
      "amount": "38.000.000",
      "currency": "Franc",
      "infodate": "1923-01-01",
      "source": "annuaire_df_1945",
      "comments": "Capital : 110 millions en 220.000 actions de 600 francs. A l'origine : 24.225.000 fr. Porté successivement à 33 millions (1919), 38 et 43 millions (1923) 50 millions (1929), 55 millions (1930). En 1939, porté à 110 millions par incorporation de réservés et distribution. d’actions gratuites (une nouvelle pour une ancienne). (En février 1940, les actions nouvelles qui avaient droit au dividende de l’exercice ller mars-31 août 1939 n’étaient pas encore créées matériellement. Leur dividende a été payé contre remise du coupon 44 des actions anciennes. Elles seront délivrées ex-coupon ller mars-31 août 1939)."
    },
    {
      "amount": "43.000.000",
      "currency": "Franc",
      "infodate": "1923-11-01",
      "source": "annuaire_df_1927",
      "comments": "43.000.000 de francs, divisé en88.000 actions de 500 francs. A l’origine 12 111.500 francs porté en 1919, à 33 millions et en novembre 1923 au chiffre actuel par la création de 20.000 actions de 500 francs ; l’Assemblée extraordinaire du 22 octobre 1923 a autorisé le Conseil a élever le capital jusqu’à 50 millions de francs."
    },
    {
      "amount": "50.000.000",
      "currency": "Franc",
      "infodate": "1929-01-01",
      "source": "annuaire_df_1953",
      "comments": "1.125 millions de 450.000 actions de 2.500 fr. A l'origine : 24.225.000 fr. Porté successivement à 33 millions (1919), 38 et 43 millions (1923) 50 millions (1929), 55 millions (1930). En 1939, porté à 110 millions par incorporation de réserves et distribution d'actions gratuites (une nouvelle pour une ancienne). Porté en 1947 à 220 millions par émission à 750 fr. de 220.000 actions nouvelles de 500 fr. (1 pour 1), puis en 1948 à 440 millions par incorporation de réserves et création de 440.000 actions de 500 francs attribuées gratuitement titre pour titre. Porté en 1949 à 880 millions par élévation du nominal de 500 à 1.000 fr., puis à 1.125 millions par élévation du nominal de 1.000 à 1.250 fr. et création de 20.000. actions gratuites de 1.250 fr. attribuées aux porteurs de parts (1 pour 1. En 1950 titres regroupés."
    },
    {
      "amount": "55.000.000",
      "currency": "Franc",
      "infodate": "1930-03-01",
      "source": "annuaire_df_1933",
      "comments": "55.000.000 de francs, divisé en 110.000 actions de 500 francs. A l’origine (30 juin 1919) 24.225.000 francs, porté en septembre 1919 à 33 millions, en novembre 1923 à 43 millions par la création de 20.000 actions de 500 francs et en mars 1930 à 55 millions par la création de 24.000 actions nouvelles de 500 francs, émises à 1.250 francs."
    },
    {
      "amount": "110.000.000",
      "currency": "Franc",
      "infodate": "1939-01-01",
      "source": "annuaire_df_1940",
      "comments": "110 millions en 220.000 actions de 500 francs. A l’origine : 24.225.000 fr. Porté successivement à 33 millions (1919), 38 et 43 millions (1923) 50 millions (1929), 55 millions (1930). En 1939, porté à 110 millions par incorporation de réserves et distribution d’actions gratuites (une nouvelle pour une ancienne). (En février 1940, les actions nouvelles qui avaient droit au dividende de l’exercice ller mars-31 août 1939 n’étaient pas encore créées matériellement. Leur dividende a été payé contre remise du coupon 44 des actions anciennes. Elles seront délivrées ex-coupon l,er mars-31 août 1939)."
    },
    {
      "amount": "220.000.000",
      "currency": "Franc",
      "infodate": "1947-01-01",
      "source": "annuaire_df_1948",
      "comments": "Capital : 440 millions en 880.000 actions de 500 francs. A l'origine : 24.225/000 fr. Porté successivement à 33 millions '(1919), 38 et 43 millions (1923) 50 millions (1929), 55 millions (1930). En 193Q, .porté à 110 millions par incorporation de réserves et distribution d'actions gratuites (une nouvelle pour une ancienne). Porté en 1947 à 220 millions par émission à 750 fr. de 220.000 actions nouv. de 500 fr. (1 pour 1), puis en 1948 à 440 millions par incorporation de réserves et' création de 440.000 actions de 500 fr. attribuées gratuitement .titre pour titre."
    },
    {
      "amount": "440.000.000",
      "currency": "Franc",
      "infodate": "1948-01-01",
      "source": "annuaire_df_1948",
      "comments": "Capital : 440 millions en 880.000 actions de 500 francs. A l'origine : 24.225/000 fr. Porté successivement à 33 millions '(1919), 38 et 43 millions (1923) 50 millions (1929), 55 millions (1930). En 193Q, .porté à 110 millions par incorporation de réserves et distribution d'actions gratuites (une nouvelle pour une ancienne). Porté en 1947 à 220 millions par émission à 750 fr. de 220.000 actions nouv. de 500 fr. (1 pour 1), puis en 1948 à 440 millions par incorporation de réserves et' création de 440.000 actions de 500 fr. attribuées gratuitement .titre pour titre."
    },
    {
      "amount": "880.000.000",
      "currency": "Franc",
      "infodate": "1949-01-01",
      "source": "annuaire_df_1953",
      "comments": "1.125 millions de 450.000 actions de 2.500 fr. A l'origine : 24.225.000 fr. Porté successivement à 33 millions (1919), 38 et 43 millions (1923) 50 millions (1929), 55 millions (1930). En 1939, porté à 110 millions par incorporation de réserves et distribution d'actions gratuites (une nouvelle pour une ancienne). Porté en 1947 à 220 millions par émission à 750 fr. de 220.000 actions nouvelles de 500 fr. (1 pour 1), puis en 1948 à 440 millions par incorporation de réserves et création de 440.000 actions de 500 francs attribuées gratuitement titre pour titre. Porté en 1949 à 880 millions par élévation du nominal de 500 à 1.000 fr., puis à 1.125 millions par élévation du nominal de 1.000 à 1.250 fr. et création de 20.000. actions gratuites de 1.250 fr. attribuées aux porteurs de parts (1 pour 1. En 1950 titres regroupés."
    },
    {
      "amount": "1.125.000.000",
      "currency": "Franc",
      "infodate": "1949-01-02",
      "source": "annuaire_df_1953",
      "comments": "1.125 millions de 450.000 actions de 2.500 fr. A l'origine : 24.225.000 fr. Porté successivement à 33 millions (1919), 38 et 43 millions (1923) 50 millions (1929), 55 millions (1930). En 1939, porté à 110 millions par incorporation de réserves et distribution d'actions gratuites (une nouvelle pour une ancienne). Porté en 1947 à 220 millions par émission à 750 fr. de 220.000 actions nouvelles de 500 fr. (1 pour 1), puis en 1948 à 440 millions par incorporation de réserves et création de 440.000 actions de 500 francs attribuées gratuitement titre pour titre. Porté en 1949 à 880 millions par élévation du nominal de 500 à 1.000 fr., puis à 1.125 millions par élévation du nominal de 1.000 à 1.250 fr. et création de 20.000. actions gratuites de 1.250 fr. attribuées aux porteurs de parts (1 pour 1. En 1950 titres regroupés."
    }
  ],
  "profit_dividends": [
    {
      "first_date": "1921-02-28",
      "last_date": "1952-02-29",
      "obs_count": 326
    }
  ],
  "public_status": false,
  "stock_exchanges": {
    "1": {
      "id": 1,
      "name": "Paris (Official List)",
      "listings_stats": {
        "start_date": "1922-06-29"
      },
      "spot_prices_stats": {
        "start_date": "1922-06-29",
        "end_date": "1976-12-31"
      }
    }
  },
  "securities": {
    "7530": {
      "id": 7530,
      "name": "Librairie Hachette, act. 1250 fr., t. p.",
      "share_type": {
        "id": 1,
        "name": "Stock (Action)"
      },
      "types": [
        {
          "start_date": "1922-06-29",
          "end_date": "3999-12-31",
          "id": 18,
          "name": "Action",
          "stock_group": "S"
        }
      ],
      "start_date": "1922-06-29",
      "end_date": "3999-12-31",
      "prices_from": "1922-06-29",
      "prices_to": "1951-10-01",
      "is_mainstock": 1,
      "prices_count": 766
    },
    "7573": {
      "id": 7573,
      "name": "Librairie Hachette 6%, remb. à 500 fr.",
      "share_type": {
        "id": 2,
        "name": "Bond (Obligation)"
      },
      "types": [
        {
          "start_date": "1922-06-29",
          "end_date": "3999-12-31",
          "id": 1001,
          "name": "Obligation ordinaire ou classique",
          "stock_group": "B"
        }
      ],
      "start_date": "1922-06-29",
      "end_date": "3999-12-31",
      "prices_from": "1922-06-29",
      "prices_to": "1930-03-15",
      "is_mainstock": 0,
      "prices_count": 170
    },
    "8600": {
      "id": 8600,
      "name": "Librairie Hachette 6,5% 1927, remb. à 500 fr. (nos 1 à 50000)",
      "share_type": {
        "id": 2,
        "name": "Bond (Obligation)"
      },
      "types": [
        {
          "start_date": "1928-03-21",
          "end_date": "3999-12-31",
          "id": 1001,
          "name": "Obligation ordinaire ou classique",
          "stock_group": "B"
        }
      ],
      "start_date": "1928-03-21",
      "end_date": "3999-12-31",
      "prices_from": "1928-03-21",
      "prices_to": "1932-12-15",
      "is_mainstock": 0,
      "prices_count": 91
    },
    "8601": {
      "id": 8601,
      "name": "Librairie Hachette 6,5% 1927, remb. à 500 fr. (nos 50001 à 80000)",
      "share_type": {
        "id": 2,
        "name": "Bond (Obligation)"
      },
      "types": [
        {
          "start_date": "1928-03-21",
          "end_date": "3999-12-31",
          "id": 1001,
          "name": "Obligation ordinaire ou classique",
          "stock_group": "B"
        }
      ],
      "start_date": "1928-03-21",
      "end_date": "3999-12-31",
      "prices_from": "1928-03-21",
      "prices_to": "1932-12-15",
      "is_mainstock": 0,
      "prices_count": 96
    },
    "9672": {
      "id": 9672,
      "name": "Librairie Hachette 5% 1930, remb. à 1000 fr.",
      "share_type": {
        "id": 2,
        "name": "Bond (Obligation)"
      },
      "types": [
        {
          "start_date": "1930-09-10",
          "end_date": "3999-12-31",
          "id": 1001,
          "name": "Obligation ordinaire ou classique",
          "stock_group": "B"
        }
      ],
      "start_date": "1930-09-10",
      "end_date": "3999-12-31",
      "prices_from": "1930-09-10",
      "prices_to": "1957-12-31",
      "is_mainstock": 0,
      "prices_count": 642
    },
    "10421": {
      "id": 10421,
      "name": "Librairie Hachette 5% 1932, remb. À 1000 fr. 1934-60",
      "share_type": {
        "id": 2,
        "name": "Bond (Obligation)"
      },
      "types": [
        {
          "start_date": "1933-01-26",
          "end_date": "3999-12-31",
          "id": 1001,
          "name": "Obligation ordinaire ou classique",
          "stock_group": "B"
        }
      ],
      "start_date": "1933-01-26",
      "end_date": "3999-12-31",
      "prices_from": "1933-01-26",
      "prices_to": "1957-12-31",
      "is_mainstock": 0,
      "prices_count": 590
    },
    "11375": {
      "id": 11375,
      "name": "Librairie Hachette, Parts bénéf.",
      "share_type": {
        "id": 1,
        "name": "Stock (Action)"
      },
      "types": [
        {
          "start_date": "1940-04-24",
          "end_date": "3999-12-31",
          "id": 20,
          "name": "Part de bénéfice (part bénéficiaire)",
          "stock_group": "S"
        }
      ],
      "start_date": "1940-04-24",
      "end_date": "3999-12-31",
      "prices_from": "1940-04-24",
      "prices_to": "1957-02-28",
      "is_mainstock": 0,
      "prices_count": 394
    },
    "12710": {
      "id": 12710,
      "name": "Hachette (Librairie) 4% 1945 (T. 15/10/61) 1946-75",
      "share_type": {
        "id": 2,
        "name": "Bond (Obligation)"
      },
      "types": [
        {
          "start_date": "1946-09-26",
          "end_date": "3999-12-31",
          "id": 1001,
          "name": "Obligation ordinaire ou classique",
          "stock_group": "B"
        }
      ],
      "start_date": "1946-09-26",
      "end_date": "3999-12-31",
      "prices_from": "1946-09-30",
      "prices_to": "1970-11-30",
      "is_mainstock": 0,
      "prices_count": 594
    },
    "12999": {
      "id": 12999,
      "name": "Hachette (Librairie) 5,25% 1948 (Rach. Ou Tir.) 1949-78",
      "share_type": {
        "id": 2,
        "name": "Bond (Obligation)"
      },
      "types": [
        {
          "start_date": "1948-09-07",
          "end_date": "3999-12-31",
          "id": 1001,
          "name": "Obligation ordinaire ou classique",
          "stock_group": "B"
        }
      ],
      "start_date": "1948-09-07",
      "end_date": "3999-12-31",
      "prices_from": "1948-09-08",
      "prices_to": "1973-08-31",
      "is_mainstock": 0,
      "prices_count": 615
    },
    "13782": {
      "id": 13782,
      "name": "Librairie Hachette, act. 5000 fr., t. p.",
      "share_type": {
        "id": 1,
        "name": "Stock (Action)"
      },
      "types": [
        {
          "start_date": "1950-10-04",
          "end_date": "3999-12-31",
          "id": 11,
          "name": "Action ordinaire",
          "stock_group": "S"
        }
      ],
      "start_date": "1950-10-04",
      "end_date": "3999-12-31",
      "prices_from": "1950-10-04",
      "prices_to": "1976-12-31",
      "is_mainstock": 0,
      "prices_count": 783
    },
    "15186": {
      "id": 15186,
      "name": "Hachette (Librairie) 6% août 1955 rembours. à 105 NF min. (T.ir 12/6/61) 1956-70",
      "share_type": {
        "id": 2,
        "name": "Bond (Obligation)"
      },
      "types": [
        {
          "start_date": "1956-01-18",
          "end_date": "3999-12-31",
          "id": 1001,
          "name": "Obligation ordinaire ou classique",
          "stock_group": "B"
        }
      ],
      "start_date": "1956-01-18",
      "end_date": "3999-12-31",
      "prices_from": "1956-01-18",
      "prices_to": "1970-07-31",
      "is_mainstock": 0,
      "prices_count": 366
    },
    "15790": {
      "id": 15790,
      "name": "Hachette (Librairie) 5,5 % 1958 (Avis 36444) 1962-78",
      "share_type": {
        "id": 1,
        "name": "Stock (Action)"
      },
      "types": [
        {
          "start_date": "1959-01-07",
          "end_date": "3999-12-31",
          "id": 18,
          "name": "Action",
          "stock_group": "S"
        }
      ],
      "start_date": "1959-01-07",
      "end_date": "3999-12-31",
      "prices_from": "1959-01-07",
      "prices_to": "1962-04-30",
      "is_mainstock": 0,
      "prices_count": 84
    },
    "15956": {
      "id": 15956,
      "name": "Hachette (librairie) act 5000 fr (ex-dr )(par 10 actions)",
      "share_type": {
        "id": 1,
        "name": "Stock (Action)"
      },
      "types": [
        {
          "start_date": "1959-03-02",
          "end_date": "3999-12-31",
          "id": 18,
          "name": "Action",
          "stock_group": "S"
        }
      ],
      "start_date": "1959-03-02",
      "end_date": "3999-12-31",
      "prices_from": null,
      "prices_to": null,
      "is_mainstock": 0,
      "prices_count": 0
    },
    "16842": {
      "id": 16842,
      "name": "Hachette (Libraire), Act. 50 NF (ex-dr.,",
      "share_type": {
        "id": 1,
        "name": "Stock (Action)"
      },
      "types": [
        {
          "start_date": "1962-10-24",
          "end_date": "3999-12-31",
          "id": 18,
          "name": "Action",
          "stock_group": "S"
        }
      ],
      "start_date": "1962-10-24",
      "end_date": "3999-12-31",
      "prices_from": null,
      "prices_to": null,
      "is_mainstock": 0,
      "prices_count": 0
    },
    "17131": {
      "id": 17131,
      "name": "Hachette (Librairie) 5% avril 1961, remboursables à NF 232,50 (c. 15/4/62 att.) 1962-81",
      "share_type": {
        "id": 2,
        "name": "Bond (Obligation)"
      },
      "types": [
        {
          "start_date": "1961-10-10",
          "end_date": "3999-12-31",
          "id": 1001,
          "name": "Obligation ordinaire ou classique",
          "stock_group": "B"
        }
      ],
      "start_date": "1948-09-23",
      "end_date": "3999-12-31",
      "prices_from": "1961-10-13",
      "prices_to": "1976-12-31",
      "is_mainstock": 0,
      "prices_count": 368
    },
    "17701": {
      "id": 17701,
      "name": "Hachette, act. (n°s 520649 à 585503) (c.76 spéc. att.)",
      "share_type": {
        "id": 1,
        "name": "Stock (Action)"
      },
      "types": [
        {
          "start_date": "1962-02-26",
          "end_date": "3999-12-31",
          "id": 18,
          "name": "Action",
          "stock_group": "S"
        }
      ],
      "start_date": "1962-02-26",
      "end_date": "3999-12-31",
      "prices_from": "1962-02-26",
      "prices_to": "1962-07-16",
      "is_mainstock": 0,
      "prices_count": 12
    },
    "20660": {
      "id": 20660,
      "name": "Hachette (Librairie) 7,25% mars 1969, rembours. 530 à 590 F (c 5/3/70 att) (Avis 69-598) 1970-87",
      "share_type": {
        "id": 2,
        "name": "Bond (Obligation)"
      },
      "types": [
        {
          "start_date": "1969-09-15",
          "end_date": "3999-12-31",
          "id": 1001,
          "name": "Obligation ordinaire ou classique",
          "stock_group": "B"
        }
      ],
      "start_date": "1969-09-15",
      "end_date": "3999-12-31",
      "prices_from": "1969-09-15",
      "prices_to": "1976-12-31",
      "is_mainstock": 0,
      "prices_count": 177
    },
    "22175": {
      "id": 22175,
      "name": "Hachette",
      "share_type": {
        "id": 3,
        "name": "OPTIONS"
      },
      "types": [
        {
          "start_date": "1966-03-24",
          "end_date": "3999-12-31",
          "id": 2,
          "name": "Option",
          "stock_group": "M"
        }
      ],
      "start_date": "1966-03-24",
      "end_date": "3999-12-31",
      "prices_from": null,
      "prices_to": null,
      "is_mainstock": 0,
      "prices_count": 0
    },
    "35286": {
      "id": 35286,
      "name": "Hachette (Libr.), 11% 1976 de 1000 F(c.23/10/77 att.)(Avis 76-972) 1977-89",
      "share_type": {
        "id": 2,
        "name": "Bond (Obligation)"
      },
      "types": [
        {
          "start_date": "1976-11-23",
          "end_date": "3999-12-31",
          "id": 1001,
          "name": "Obligation ordinaire ou classique",
          "stock_group": "B"
        }
      ],
      "start_date": "1976-11-23",
      "end_date": "3999-12-31",
      "prices_from": "1976-11-23",
      "prices_to": "1976-12-31",
      "is_mainstock": 0,
      "prices_count": 4
    },
    "100801": {
      "id": 100801,
      "name": "Librairie Hachette (droit et coupon 58). 1 act. nouv. émise à 750 fr. pour 1 act. Anc.",
      "share_type": {
        "id": 4,
        "name": "Rights (Droits)"
      },
      "types": [
        {
          "start_date": "1947-09-18",
          "end_date": "3999-12-31",
          "id": 501,
          "name": "Droit de souscription",
          "stock_group": "R"
        }
      ],
      "start_date": "1947-09-18",
      "end_date": "3999-12-31",
      "prices_from": "1947-09-18",
      "prices_to": "1947-09-18",
      "is_mainstock": 0,
      "prices_count": 1
    },
    "102648": {
      "id": 102648,
      "name": "Act. Librairie Hachette (dr. et coup. 22). Pour 4 actions anciennes, 1 action nouvelle émise à 1250 francs",
      "share_type": {
        "id": 4,
        "name": "Rights (Droits)"
      },
      "types": [
        {
          "start_date": "1930-01-20",
          "end_date": "1930-02-01",
          "id": 501,
          "name": "Droit de souscription",
          "stock_group": "R"
        }
      ],
      "start_date": "1930-01-20",
      "end_date": "1930-02-01",
      "prices_from": "1930-01-20",
      "prices_to": "1930-01-31",
      "is_mainstock": 0,
      "prices_count": 2
    },
    "103491": {
      "id": 103491,
      "name": "Actions Librairie Hachette (droit et coupon 9).",
      "share_type": {
        "id": 4,
        "name": "Rights (Droits)"
      },
      "types": [
        {
          "start_date": "1923-11-06",
          "end_date": "1923-11-23",
          "id": 501,
          "name": "Droit de souscription",
          "stock_group": "R"
        }
      ],
      "start_date": "1923-11-06",
      "end_date": "1923-11-23",
      "prices_from": "1923-11-06",
      "prices_to": "1923-11-15",
      "is_mainstock": 0,
      "prices_count": 0
    },
    "104145": {
      "id": 104145,
      "name": "Librairie hachette, Act. 500 fr., t. p. (nos 220001 a 440000) (ex-c. 59)",
      "share_type": {
        "id": 1,
        "name": "Stock (Action)"
      },
      "types": [
        {
          "start_date": "1948-03-16",
          "end_date": "1948-09-30",
          "id": 18,
          "name": "Action",
          "stock_group": "S"
        }
      ],
      "start_date": "1948-03-16",
      "end_date": "1948-09-30",
      "prices_from": "1948-03-31",
      "prices_to": "1948-09-15",
      "is_mainstock": 0,
      "prices_count": 13
    }
  }
}