{
  "id": 10604,
  "names": [
    "SOCIETE ANONYME DES ANCIENS ÉTABLISSEMENTS ALBARET",
    "SOCIÉTÉ ANONYME DES ANCIENS ÉTABLISSEMENTS ALBARET",
    "SOCIÉTÉ DES ANCIENS ÉTABLISSEMENTS ALBARET",
    "Société anonyme des anciens établissements Albaret"
  ],
  "name": "SOCIÉTÉ ANONYME DES ANCIENS ÉTABLISSEMENTS ALBARET",
  "balance_sheets": [
    {
      "start_date": "1925-12-31",
      "source": "Annuaire Desfossés 1927",
      "page": "635"
    },
    {
      "start_date": "1927-12-31",
      "source": "Annuaire Desfossés 1929",
      "page": "683"
    },
    {
      "start_date": "1929-12-31",
      "source": "Annuaire Desfossés 1931",
      "page": "692"
    },
    {
      "start_date": "1929-12-31",
      "source": "Annuaire Desfossés 1931",
      "page": "1616"
    },
    {
      "start_date": "1931-12-31",
      "source": "Annuaire Desfossés 1933",
      "page": "757"
    }
  ],
  "balance_sheets_stats": {
    "start_date": "1925-12-31",
    "end_date": "1931-12-31"
  },
  "locations_stats": {
    "start_date": "1923-01-01",
    "end_date": "1933-12-31"
  },
  "locations": {
    "Siège social": [
      {
        "location_types_id": 1,
        "location_type": "Siège social",
        "address": null,
        "city": "Rantigny",
        "district": "Oise",
        "country": "France",
        "in_yearbook_from": 1923,
        "in_yearbook_to": 1933
      }
    ]
  },
  "persons": [
    {
      "persons_count": 3,
      "yearbook": "Annuaire Desfossés 1923",
      "source": "annuaire_df_1923",
      "page": "835"
    },
    {
      "persons_count": 8,
      "yearbook": "Annuaire Desfossés 1927",
      "source": "annuaire_df_1927",
      "page": "635"
    },
    {
      "persons_count": 8,
      "yearbook": "Annuaire Desfossés 1933",
      "source": "annuaire_df_1933",
      "page": "757"
    }
  ],
  "persons_stats": {
    "persons_count": 14,
    "start_date": "1923-01-01",
    "end_date": "1933-12-31"
  },
  "yearbooks_ocrs": [
    {
      "source": "annuaire_df_1923",
      "yearbook": "Annuaire Desfossés 1923",
      "page": "835"
    },
    {
      "source": "annuaire_df_1925",
      "yearbook": "Annuaire Desfossés 1925",
      "page": "792"
    },
    {
      "source": "annuaire_df_1927",
      "yearbook": "Annuaire Desfossés 1927",
      "page": "635"
    },
    {
      "source": "annuaire_df_1929",
      "yearbook": "Annuaire Desfossés 1929",
      "page": "683"
    },
    {
      "source": "annuaire_df_1931",
      "yearbook": "Annuaire Desfossés 1931",
      "page": "692"
    },
    {
      "source": "annuaire_df_1931",
      "yearbook": "Annuaire Desfossés 1931",
      "page": "1616"
    },
    {
      "source": "annuaire_df_1933",
      "yearbook": "Annuaire Desfossés 1933",
      "page": "757"
    }
  ],
  "juridical_status": [
    {
      "juridical_status": "Société Anonyme (Libre)",
      "start_date": "1906-06-21",
      "end_date": "1950-12-31",
      "comments": "Société anonyme française, constituée le 21 juin 1906, pour une.durée expirant le 31 décembre 19 504.",
      "source": "annuaire_df_1923"
    }
  ],
  "equity_capital": [
    {
      "amount": "630.000",
      "currency": "Franc",
      "infodate": "1906-06-21",
      "source": "annuaire_df_1923",
      "comments": " 4.UOü‘.üüO francs, divisé en 8.000 actions de 500. francs.. A l’origme 630.000fr. porté en 1909 à 1.20Q.0001 francs représenté par 2.400 actions ordinaires et en. 1920, au chiffre actuel par la création de 5.600 actions privilégiées."
    },
    {
      "amount": "1.200.000",
      "currency": "Franc",
      "infodate": "1909-01-01",
      "source": "annuaire_df_1923",
      "comments": " 4.UOü‘.üüO francs, divisé en 8.000 actions de 500. francs.. A l’origme 630.000fr. porté en 1909 à 1.20Q.0001 francs représenté par 2.400 actions ordinaires et en. 1920, au chiffre actuel par la création de 5.600 actions privilégiées."
    },
    {
      "amount": "4.000.000",
      "currency": "Franc",
      "infodate": "1920-01-01",
      "source": "annuaire_df_1923",
      "comments": " 4.UOü‘.üüO francs, divisé en 8.000 actions de 500. francs.. A l’origme 630.000fr. porté en 1909 à 1.20Q.0001 francs représenté par 2.400 actions ordinaires et en. 1920, au chiffre actuel par la création de 5.600 actions privilégiées."
    }
  ],
  "profit_dividends": [
    {
      "first_date": "1923-12-31",
      "last_date": "1932-12-31",
      "obs_count": 45
    }
  ],
  "public_status": false
}