{
  "id": 2488,
  "names": [
    "Postes, Télégraphes et Téléphones"
  ],
  "name": "Postes, Télégraphes et Téléphones",
  "balance_sheets": [],
  "balance_sheets_stats": {
    "start_date": null,
    "end_date": null
  },
  "locations_stats": {
    "start_date": null,
    "end_date": null
  },
  "locations": {},
  "persons": [],
  "persons_stats": {
    "persons_count": 0,
    "start_date": null,
    "end_date": null
  },
  "yearbooks_ocrs": [],
  "juridical_status": [],
  "equity_capital": [],
  "profit_dividends": [],
  "public_status": false,
  "stock_exchanges": {
    "1": {
      "id": 1,
      "name": "Paris (Official List)",
      "listings_stats": {
        "start_date": "1936-12-15"
      },
      "spot_prices_stats": {
        "start_date": "1936-12-15",
        "end_date": "1976-12-31"
      }
    }
  },
  "securities": {
    "10882": {
      "id": 10882,
      "name": "Postes, Télégraphes et Téléphones 5% 1936, remb. à 1000 fr",
      "share_type": {
        "id": 2,
        "name": "Bond (Obligation)"
      },
      "types": [
        {
          "start_date": "1936-12-15",
          "end_date": "3999-12-31",
          "id": 1001,
          "name": "Obligation ordinaire ou classique",
          "stock_group": "B"
        }
      ],
      "start_date": "1936-12-15",
      "end_date": "3999-12-31",
      "prices_from": "1936-12-15",
      "prices_to": "1941-10-31",
      "is_mainstock": 0,
      "prices_count": 168
    },
    "10883": {
      "id": 10883,
      "name": "Postes, Télégraphes et Téléphones 5% 1936, remb. à 5000 fr",
      "share_type": {
        "id": 2,
        "name": "Bond (Obligation)"
      },
      "types": [
        {
          "start_date": "1936-12-15",
          "end_date": "3999-12-31",
          "id": 1001,
          "name": "Obligation ordinaire ou classique",
          "stock_group": "B"
        }
      ],
      "start_date": "1936-12-15",
      "end_date": "3999-12-31",
      "prices_from": "1936-12-15",
      "prices_to": "1941-10-31",
      "is_mainstock": 0,
      "prices_count": 173
    },
    "11231": {
      "id": 11231,
      "name": "Postes, Télégraphes et Téléphones 6% 1938, remb. à 1000 fr (Jce 25/8/38)",
      "share_type": {
        "id": 2,
        "name": "Bond (Obligation)"
      },
      "types": [
        {
          "start_date": "1939-02-10",
          "end_date": "3999-12-31",
          "id": 1001,
          "name": "Obligation ordinaire ou classique",
          "stock_group": "B"
        }
      ],
      "start_date": "1939-02-10",
      "end_date": "3999-12-31",
      "prices_from": "1939-02-10",
      "prices_to": "1941-10-31",
      "is_mainstock": 0,
      "prices_count": 74
    },
    "11232": {
      "id": 11232,
      "name": "Postes, Télégraphes et Téléphones 6% 1938, remb. à 5000 fr. (n°5000001 à 5181345). (Jce 25/8/38)",
      "share_type": {
        "id": 2,
        "name": "Bond (Obligation)"
      },
      "types": [
        {
          "start_date": "1939-02-10",
          "end_date": "3999-12-31",
          "id": 1001,
          "name": "Obligation ordinaire ou classique",
          "stock_group": "B"
        }
      ],
      "start_date": "1939-02-10",
      "end_date": "3999-12-31",
      "prices_from": "1939-02-10",
      "prices_to": "1941-10-31",
      "is_mainstock": 0,
      "prices_count": 72
    },
    "11623": {
      "id": 11623,
      "name": "Postes, Télégraphes et Téléphones 4% 1941, remb. À 2000 fr. (Jce 16/11/41)",
      "share_type": {
        "id": 2,
        "name": "Bond (Obligation)"
      },
      "types": [
        {
          "start_date": "1942-04-15",
          "end_date": "3999-12-31",
          "id": 1001,
          "name": "Obligation ordinaire ou classique",
          "stock_group": "B"
        }
      ],
      "start_date": "1942-04-15",
      "end_date": "3999-12-31",
      "prices_from": "1942-04-15",
      "prices_to": "1952-01-31",
      "is_mainstock": 0,
      "prices_count": 223
    },
    "11624": {
      "id": 11624,
      "name": "Postes, Télégraphes et Téléphones, 4% 1941, remb. À 500 fr.",
      "share_type": {
        "id": 2,
        "name": "Bond (Obligation)"
      },
      "types": [
        {
          "start_date": "1942-04-15",
          "end_date": "3999-12-31",
          "id": 1001,
          "name": "Obligation ordinaire ou classique",
          "stock_group": "B"
        }
      ],
      "start_date": "1942-04-15",
      "end_date": "3999-12-31",
      "prices_from": "1942-04-15",
      "prices_to": "1952-01-02",
      "is_mainstock": 0,
      "prices_count": 198
    },
    "11625": {
      "id": 11625,
      "name": "Postes, Télégraphes et Téléphones 4% 1941, remb. À 5000 fr",
      "share_type": {
        "id": 2,
        "name": "Bond (Obligation)"
      },
      "types": [
        {
          "start_date": "1942-04-15",
          "end_date": "3999-12-31",
          "id": 1001,
          "name": "Obligation ordinaire ou classique",
          "stock_group": "B"
        }
      ],
      "start_date": "1942-04-15",
      "end_date": "3999-12-31",
      "prices_from": "1942-04-15",
      "prices_to": "1952-01-31",
      "is_mainstock": 0,
      "prices_count": 226
    },
    "11626": {
      "id": 11626,
      "name": "Postes, Télégraphes et Téléphones, 4% 1941, remb. À 1000 fr.",
      "share_type": {
        "id": 2,
        "name": "Bond (Obligation)"
      },
      "types": [
        {
          "start_date": "1942-04-15",
          "end_date": "3999-12-31",
          "id": 1001,
          "name": "Obligation ordinaire ou classique",
          "stock_group": "B"
        }
      ],
      "start_date": "1942-04-15",
      "end_date": "3999-12-31",
      "prices_from": "1942-04-15",
      "prices_to": "1952-01-31",
      "is_mainstock": 0,
      "prices_count": 214
    },
    "11628": {
      "id": 11628,
      "name": "Postes, Télégraphes et Télephones 3,5% 1943, remb. À 5000 fr. (Jce 16/3/43)",
      "share_type": {
        "id": 2,
        "name": "Bond (Obligation)"
      },
      "types": [
        {
          "start_date": "1943-08-19",
          "end_date": "3999-12-31",
          "id": 1001,
          "name": "Obligation ordinaire ou classique",
          "stock_group": "B"
        }
      ],
      "start_date": "1943-08-19",
      "end_date": "3999-12-31",
      "prices_from": "1943-08-19",
      "prices_to": "1958-04-30",
      "is_mainstock": 0,
      "prices_count": 359
    },
    "11629": {
      "id": 11629,
      "name": "Postes, Télégraphes et Téléphones 3,5% 1943 (n° 1 à 260001 et 451001 à 460982) (Rach. Ou Tir.)",
      "share_type": {
        "id": 2,
        "name": "Bond (Obligation)"
      },
      "types": [
        {
          "start_date": "1943-08-19",
          "end_date": "3999-12-31",
          "id": 1001,
          "name": "Obligation ordinaire ou classique",
          "stock_group": "B"
        }
      ],
      "start_date": "1943-08-19",
      "end_date": "3999-12-31",
      "prices_from": "1943-08-19",
      "prices_to": "1958-04-30",
      "is_mainstock": 0,
      "prices_count": 356
    },
    "11630": {
      "id": 11630,
      "name": "Postes, Télégraphes et Téléphones 3,5% 1943 (n° 400001 à 403000 et 461001 à 461080) (Rach. Ou Tir.)",
      "share_type": {
        "id": 2,
        "name": "Bond (Obligation)"
      },
      "types": [
        {
          "start_date": "1943-08-19",
          "end_date": "3999-12-31",
          "id": 1001,
          "name": "Obligation ordinaire ou classique",
          "stock_group": "B"
        }
      ],
      "start_date": "1943-08-19",
      "end_date": "3999-12-31",
      "prices_from": "1943-08-19",
      "prices_to": "1958-04-30",
      "is_mainstock": 0,
      "prices_count": 309
    },
    "12930": {
      "id": 12930,
      "name": "Postes, Télégraphes et Téléphones 4,5% 1929-1948, remb. À 2000 fr.",
      "share_type": {
        "id": 2,
        "name": "Bond (Obligation)"
      },
      "types": [
        {
          "start_date": "1948-11-15",
          "end_date": "3999-12-31",
          "id": 1001,
          "name": "Obligation ordinaire ou classique",
          "stock_group": "B"
        }
      ],
      "start_date": "1948-11-15",
      "end_date": "3999-12-31",
      "prices_from": "1948-11-15",
      "prices_to": "1959-04-30",
      "is_mainstock": 0,
      "prices_count": 266
    },
    "12931": {
      "id": 12931,
      "name": "Postes, Télégraphes et Téléphones 4,5% 1929-1948 (Tir. 27/6/55) 1929-59 (remb. à 10000 fr)",
      "share_type": {
        "id": 2,
        "name": "Bond (Obligation)"
      },
      "types": [
        {
          "start_date": "1948-11-15",
          "end_date": "3999-12-31",
          "id": 1001,
          "name": "Obligation ordinaire ou classique",
          "stock_group": "B"
        }
      ],
      "start_date": "1948-11-15",
      "end_date": "3999-12-31",
      "prices_from": "1948-11-15",
      "prices_to": "1959-04-30",
      "is_mainstock": 0,
      "prices_count": 266
    },
    "13809": {
      "id": 13809,
      "name": "Postes, Télégraphes et Téléphones Bons 5,5% 1950 (Tir. 21/6/55) 1951-60",
      "share_type": {
        "id": 2,
        "name": "Bond (Obligation)"
      },
      "types": [
        {
          "start_date": "1951-01-04",
          "end_date": "3999-12-31",
          "id": 1001,
          "name": "Obligation ordinaire ou classique",
          "stock_group": "B"
        }
      ],
      "start_date": "1951-01-04",
      "end_date": "3999-12-31",
      "prices_from": "1951-01-04",
      "prices_to": "1960-07-15",
      "is_mainstock": 0,
      "prices_count": 243
    },
    "14355": {
      "id": 14355,
      "name": "Postes, Télégraphes et Téléphones, 4% 1941-1951, remb. À 2000 fr.",
      "share_type": {
        "id": 2,
        "name": "Bond (Obligation)"
      },
      "types": [
        {
          "start_date": "1952-02-05",
          "end_date": "3999-12-31",
          "id": 1001,
          "name": "Obligation ordinaire ou classique",
          "stock_group": "B"
        }
      ],
      "start_date": "1952-02-05",
      "end_date": "3999-12-31",
      "prices_from": "1952-02-05",
      "prices_to": "1971-04-30",
      "is_mainstock": 0,
      "prices_count": 478
    },
    "14356": {
      "id": 14356,
      "name": "Postes, Télégraphes et Téléphones, 4% 1941-1951, remb. À 5000 fr.",
      "share_type": {
        "id": 2,
        "name": "Bond (Obligation)"
      },
      "types": [
        {
          "start_date": "1952-02-05",
          "end_date": "3999-12-31",
          "id": 1001,
          "name": "Obligation ordinaire ou classique",
          "stock_group": "B"
        }
      ],
      "start_date": "1952-02-05",
      "end_date": "3999-12-31",
      "prices_from": "1952-02-05",
      "prices_to": "1960-05-16",
      "is_mainstock": 0,
      "prices_count": 215
    },
    "14357": {
      "id": 14357,
      "name": "Postes, Télégraphes et Téléphones, 4% 1941-1951, remb. À 10000 fr.",
      "share_type": {
        "id": 2,
        "name": "Bond (Obligation)"
      },
      "types": [
        {
          "start_date": "1952-02-05",
          "end_date": "3999-12-31",
          "id": 1001,
          "name": "Obligation ordinaire ou classique",
          "stock_group": "B"
        }
      ],
      "start_date": "1952-02-05",
      "end_date": "3999-12-31",
      "prices_from": "1952-02-05",
      "prices_to": "1971-04-30",
      "is_mainstock": 0,
      "prices_count": 477
    },
    "14358": {
      "id": 14358,
      "name": "Postes, Télégraphes et Téléphones, 4% 1941-1951, remb. À 100000 fr.",
      "share_type": {
        "id": 2,
        "name": "Bond (Obligation)"
      },
      "types": [
        {
          "start_date": "1952-02-05",
          "end_date": "3999-12-31",
          "id": 1001,
          "name": "Obligation ordinaire ou classique",
          "stock_group": "B"
        }
      ],
      "start_date": "1952-02-05",
      "end_date": "3999-12-31",
      "prices_from": "1952-02-06",
      "prices_to": "1971-04-30",
      "is_mainstock": 0,
      "prices_count": 458
    },
    "14670": {
      "id": 14670,
      "name": "Postes, Télégraphes et Téléphones Bons 6% 1953 (Verts) (Tir. 28/2/55) 1954-68",
      "share_type": {
        "id": 2,
        "name": "Bond (Obligation)"
      },
      "types": [
        {
          "start_date": "1953-07-30",
          "end_date": "3999-12-31",
          "id": 1001,
          "name": "Obligation ordinaire ou classique",
          "stock_group": "B"
        }
      ],
      "start_date": "1953-07-30",
      "end_date": "3999-12-31",
      "prices_from": "1953-07-30",
      "prices_to": "1968-04-01",
      "is_mainstock": 0,
      "prices_count": 371
    },
    "14671": {
      "id": 14671,
      "name": "Postes, Télégraphes et Téléphones Bons 6% 1953 (bleus) (Tir 21/3/67) 1954-68",
      "share_type": {
        "id": 2,
        "name": "Bond (Obligation)"
      },
      "types": [
        {
          "start_date": "1953-07-30",
          "end_date": "3999-12-31",
          "id": 1001,
          "name": "Obligation ordinaire ou classique",
          "stock_group": "B"
        }
      ],
      "start_date": "1953-07-30",
      "end_date": "3999-12-31",
      "prices_from": "1953-07-30",
      "prices_to": "1968-04-01",
      "is_mainstock": 0,
      "prices_count": 359
    },
    "14678": {
      "id": 14678,
      "name": "Postes, Télégraphes et Téléphones Bons 6% 1954 (Tir. 28/2/55) 1955-69 (remb à 10000 fr)",
      "share_type": {
        "id": 2,
        "name": "Bond (Obligation)"
      },
      "types": [
        {
          "start_date": "1954-08-23",
          "end_date": "3999-12-31",
          "id": 1001,
          "name": "Obligation ordinaire ou classique",
          "stock_group": "B"
        }
      ],
      "start_date": "1954-08-23",
      "end_date": "3999-12-31",
      "prices_from": "1954-08-23",
      "prices_to": "1969-03-31",
      "is_mainstock": 0,
      "prices_count": 369
    },
    "14679": {
      "id": 14679,
      "name": "Postes, Télégraphes et Téléphones Bons 6% 1954 (Tir. 28/2/55) 1955-69 (remb à 100000 fr)",
      "share_type": {
        "id": 2,
        "name": "Bond (Obligation)"
      },
      "types": [
        {
          "start_date": "1954-08-23",
          "end_date": "3999-12-31",
          "id": 1001,
          "name": "Obligation ordinaire ou classique",
          "stock_group": "B"
        }
      ],
      "start_date": "1954-08-23",
      "end_date": "3999-12-31",
      "prices_from": "1954-08-23",
      "prices_to": "1969-03-31",
      "is_mainstock": 0,
      "prices_count": 368
    },
    "15036": {
      "id": 15036,
      "name": "Postes, Télégraphes et Téléphones Bons à 6% 1955 (Tir. 19/3/69) 1956-70",
      "share_type": {
        "id": 2,
        "name": "Bond (Obligation)"
      },
      "types": [
        {
          "start_date": "1955-08-16",
          "end_date": "3999-12-31",
          "id": 1001,
          "name": "Obligation ordinaire ou classique",
          "stock_group": "B"
        }
      ],
      "start_date": "1955-08-16",
      "end_date": "3999-12-31",
      "prices_from": "1955-08-16",
      "prices_to": "1970-04-30",
      "is_mainstock": 0,
      "prices_count": 372
    },
    "15037": {
      "id": 15037,
      "name": "Postes, Télégraphes et Téléphones Bons à 6% 1955 (Tir. 19/3/69) 1956-70",
      "share_type": {
        "id": 2,
        "name": "Bond (Obligation)"
      },
      "types": [
        {
          "start_date": "1955-08-16",
          "end_date": "3999-12-31",
          "id": 1001,
          "name": "Obligation ordinaire ou classique",
          "stock_group": "B"
        }
      ],
      "start_date": "1955-08-16",
      "end_date": "3999-12-31",
      "prices_from": "1955-08-16",
      "prices_to": "1970-04-30",
      "is_mainstock": 0,
      "prices_count": 372
    },
    "15296": {
      "id": 15296,
      "name": "Postes, Télégraphes et Téléphones, Bons 5,5%, 1956, rembours. À 10500 fr. (c. 1/5/57 att.) 1957-71",
      "share_type": {
        "id": 2,
        "name": "Bond (Obligation)"
      },
      "types": [
        {
          "start_date": "1956-06-26",
          "end_date": "3999-12-31",
          "id": 1001,
          "name": "Obligation ordinaire ou classique",
          "stock_group": "B"
        }
      ],
      "start_date": "1956-06-26",
      "end_date": "3999-12-31",
      "prices_from": "1956-06-26",
      "prices_to": "1971-04-30",
      "is_mainstock": 0,
      "prices_count": 364
    },
    "15297": {
      "id": 15297,
      "name": "Postes, Télégraphes et Téléphones, Bons 5,5%, 1956, remb. À 105000 f. (c. 1/5/57 att.) 1957-71",
      "share_type": {
        "id": 2,
        "name": "Bond (Obligation)"
      },
      "types": [
        {
          "start_date": "1956-06-26",
          "end_date": "3999-12-31",
          "id": 1001,
          "name": "Obligation ordinaire ou classique",
          "stock_group": "B"
        }
      ],
      "start_date": "1956-06-26",
      "end_date": "3999-12-31",
      "prices_from": "1956-06-26",
      "prices_to": "1971-04-30",
      "is_mainstock": 0,
      "prices_count": 364
    },
    "15421": {
      "id": 15421,
      "name": "Postes, Télégraphes et Téléphones, Bons 6% 1957 r à 105 F (T. 18/3/71)...1958-72",
      "share_type": {
        "id": 2,
        "name": "Bond (Obligation)"
      },
      "types": [
        {
          "start_date": "1957-09-12",
          "end_date": "3999-12-31",
          "id": 1001,
          "name": "Obligation ordinaire ou classique",
          "stock_group": "B"
        }
      ],
      "start_date": "1957-09-12",
      "end_date": "3999-12-31",
      "prices_from": "1957-09-12",
      "prices_to": "1972-04-17",
      "is_mainstock": 0,
      "prices_count": 352
    },
    "15422": {
      "id": 15422,
      "name": "Postes, Télégraphes et Téléphones, Bons 6% 1957 remb à 1050 F",
      "share_type": {
        "id": 2,
        "name": "Bond (Obligation)"
      },
      "types": [
        {
          "start_date": "1957-09-12",
          "end_date": "3999-12-31",
          "id": 1001,
          "name": "Obligation ordinaire ou classique",
          "stock_group": "B"
        }
      ],
      "start_date": "1957-09-12",
      "end_date": "3999-12-31",
      "prices_from": "1957-09-12",
      "prices_to": "1972-04-17",
      "is_mainstock": 0,
      "prices_count": 352
    },
    "15570": {
      "id": 15570,
      "name": "Postes, Télégraphes et Téléphones 3,5% 1943-1958, par 5000 fr de cap.nom. (c. 16/12/58 att.) (cf Avis n°33823). 1958-73",
      "share_type": {
        "id": 2,
        "name": "Bond (Obligation)"
      },
      "types": [
        {
          "start_date": "1958-05-13",
          "end_date": "3999-12-31",
          "id": 1001,
          "name": "Obligation ordinaire ou classique",
          "stock_group": "B"
        }
      ],
      "start_date": "1958-05-13",
      "end_date": "3999-12-31",
      "prices_from": "1958-05-13",
      "prices_to": "1958-09-01",
      "is_mainstock": 0,
      "prices_count": 9
    },
    "15697": {
      "id": 15697,
      "name": "Postes, Télégraphes et Téléphones 3,5% 1943-1958, par 5000 fr. de cap. Nom. (c.16/12/58 att.) (Rachats ou Tirages) (cf Avis n°33823) 1958-73",
      "share_type": {
        "id": 2,
        "name": "Bond (Obligation)"
      },
      "types": [
        {
          "start_date": "1958-11-03",
          "end_date": "3999-12-31",
          "id": 1001,
          "name": "Obligation ordinaire ou classique",
          "stock_group": "B"
        }
      ],
      "start_date": "1958-11-03",
      "end_date": "3999-12-31",
      "prices_from": "1958-11-03",
      "prices_to": "1972-12-15",
      "is_mainstock": 0,
      "prices_count": 343
    },
    "15762": {
      "id": 15762,
      "name": "Postes, télégraphes et telephones bons 6% 1958, remb à 11500f, min, 1964-78",
      "share_type": {
        "id": 2,
        "name": "Bond (Obligation)"
      },
      "types": [
        {
          "start_date": "1959-01-27",
          "end_date": "3999-12-31",
          "id": 1001,
          "name": "Obligation ordinaire ou classique",
          "stock_group": "B"
        }
      ],
      "start_date": "1959-01-27",
      "end_date": "3999-12-31",
      "prices_from": "1959-01-27",
      "prices_to": "1976-12-31",
      "is_mainstock": 0,
      "prices_count": 433
    },
    "15763": {
      "id": 15763,
      "name": "Postes, télégraphes et telephones bons 6% 1958, remb à 115000 fr minimum",
      "share_type": {
        "id": 2,
        "name": "Bond (Obligation)"
      },
      "types": [
        {
          "start_date": "1959-01-27",
          "end_date": "3999-12-31",
          "id": 1001,
          "name": "Obligation ordinaire ou classique",
          "stock_group": "B"
        }
      ],
      "start_date": "1959-01-27",
      "end_date": "3999-12-31",
      "prices_from": "1959-01-27",
      "prices_to": "1976-12-31",
      "is_mainstock": 0,
      "prices_count": 432
    },
    "18315": {
      "id": 18315,
      "name": "Bons 5% 1964 remboursables 210 à 240 F (Avis 39496) 1970-84",
      "share_type": {
        "id": 2,
        "name": "Bond (Obligation)"
      },
      "types": [
        {
          "start_date": "1965-01-04",
          "end_date": "3999-12-31",
          "id": 1009,
          "name": "Bons",
          "stock_group": "B"
        }
      ],
      "start_date": "1965-01-04",
      "end_date": "3999-12-31",
      "prices_from": "1965-01-04",
      "prices_to": "1976-12-31",
      "is_mainstock": 0,
      "prices_count": 290
    },
    "18316": {
      "id": 18316,
      "name": "Bons 5% 1964 remb. 2100 à 2400 F",
      "share_type": {
        "id": 2,
        "name": "Bond (Obligation)"
      },
      "types": [
        {
          "start_date": "1965-01-04",
          "end_date": "3999-12-31",
          "id": 1009,
          "name": "Bons",
          "stock_group": "B"
        }
      ],
      "start_date": "1965-01-04",
      "end_date": "3999-12-31",
      "prices_from": "1965-01-04",
      "prices_to": "1976-12-31",
      "is_mainstock": 0,
      "prices_count": 288
    },
    "18329": {
      "id": 18329,
      "name": "Postes, Télégraphes et Téléphones, Bons 5,75% 1965 remboursables 210 à 230 F (Avis 39954) 1971-1985",
      "share_type": {
        "id": 2,
        "name": "Bond (Obligation)"
      },
      "types": [
        {
          "start_date": "1965-08-11",
          "end_date": "3999-12-31",
          "id": 1009,
          "name": "Bons",
          "stock_group": "B"
        }
      ],
      "start_date": "1965-08-11",
      "end_date": "3999-12-31",
      "prices_from": "1965-08-11",
      "prices_to": "1976-12-31",
      "is_mainstock": 0,
      "prices_count": 275
    },
    "18330": {
      "id": 18330,
      "name": "Postes, Télégraphes et Téléphones, Bons 5,75% 1965 remboursables 2100 à 2300 F (Avis 39954) 1971-1985",
      "share_type": {
        "id": 2,
        "name": "Bond (Obligation)"
      },
      "types": [
        {
          "start_date": "1965-08-11",
          "end_date": "3999-12-31",
          "id": 1009,
          "name": "Bons",
          "stock_group": "B"
        }
      ],
      "start_date": "1965-08-11",
      "end_date": "3999-12-31",
      "prices_from": "1965-08-11",
      "prices_to": "1976-12-31",
      "is_mainstock": 0,
      "prices_count": 275
    },
    "18588": {
      "id": 18588,
      "name": "Postes, Télégraphes et Téléphones, Bons 5,75% 1966, r. 206 à 230 F (c. 15/5/67 att.) (Avis 66-686) 1967-86",
      "share_type": {
        "id": 2,
        "name": "Bond (Obligation)"
      },
      "types": [
        {
          "start_date": "1966-12-05",
          "end_date": "3999-12-31",
          "id": 1009,
          "name": "Bons",
          "stock_group": "B"
        }
      ],
      "start_date": "1966-12-05",
      "end_date": "3999-12-31",
      "prices_from": "1966-12-05",
      "prices_to": "1976-12-31",
      "is_mainstock": 0,
      "prices_count": 243
    },
    "18589": {
      "id": 18589,
      "name": "Postes, Télégraphes et Téléphones, Bons 5,75% 1966, r. 2060 à 2300 F)",
      "share_type": {
        "id": 2,
        "name": "Bond (Obligation)"
      },
      "types": [
        {
          "start_date": "1966-12-05",
          "end_date": "3999-12-31",
          "id": 1009,
          "name": "Bons",
          "stock_group": "B"
        }
      ],
      "start_date": "1966-12-05",
      "end_date": "3999-12-31",
      "prices_from": "1966-12-05",
      "prices_to": "1976-12-31",
      "is_mainstock": 0,
      "prices_count": 243
    },
    "18649": {
      "id": 18649,
      "name": "Bons 6,25% 1967, r. 260 à 290 F (c. 10/5/68 att.)(Avis 67-533) 1968-87",
      "share_type": {
        "id": 2,
        "name": "Bond (Obligation)"
      },
      "types": [
        {
          "start_date": "1967-10-20",
          "end_date": "3999-12-31",
          "id": 1009,
          "name": "Bons",
          "stock_group": "B"
        }
      ],
      "start_date": "1967-10-20",
      "end_date": "3999-12-31",
      "prices_from": "1967-10-20",
      "prices_to": "1976-12-31",
      "is_mainstock": 0,
      "prices_count": 222
    },
    "18650": {
      "id": 18650,
      "name": "Bons 6,25% 1967, remb 2600 à 2900 F (c. 10/5/68 att.)",
      "share_type": {
        "id": 2,
        "name": "Bond (Obligation)"
      },
      "types": [
        {
          "start_date": "1967-10-20",
          "end_date": "3999-12-31",
          "id": 1001,
          "name": "Obligation ordinaire ou classique",
          "stock_group": "B"
        }
      ],
      "start_date": "1967-10-20",
      "end_date": "3999-12-31",
      "prices_from": "1967-10-20",
      "prices_to": "1976-12-31",
      "is_mainstock": 0,
      "prices_count": 222
    },
    "20053": {
      "id": 20053,
      "name": "Bons 7% 1969, remboursables 410 à 550 F (c.5/5/70 att.) (Avis 69-558) 1970-89",
      "share_type": {
        "id": 2,
        "name": "Bond (Obligation)"
      },
      "types": [
        {
          "start_date": "1969-08-29",
          "end_date": "3999-12-31",
          "id": 1009,
          "name": "Bons",
          "stock_group": "B"
        }
      ],
      "start_date": "1969-08-29",
      "end_date": "3999-12-31",
      "prices_from": "1969-08-29",
      "prices_to": "1976-12-31",
      "is_mainstock": 0,
      "prices_count": 179
    },
    "20054": {
      "id": 20054,
      "name": "Bons 7% 1969, Remb. 4100 à 5500 F",
      "share_type": {
        "id": 2,
        "name": "Bond (Obligation)"
      },
      "types": [
        {
          "start_date": "1969-08-29",
          "end_date": "3999-12-31",
          "id": 1001,
          "name": "Obligation ordinaire ou classique",
          "stock_group": "B"
        }
      ],
      "start_date": "1969-08-29",
      "end_date": "3999-12-31",
      "prices_from": "1969-08-29",
      "prices_to": "1976-12-31",
      "is_mainstock": 0,
      "prices_count": 177
    },
    "20055": {
      "id": 20055,
      "name": "Bons 8,5% 1970, (c. 25/5/71 att.) (Avis 70-768) 1971-85",
      "share_type": {
        "id": 2,
        "name": "Bond (Obligation)"
      },
      "types": [
        {
          "start_date": "1970-10-16",
          "end_date": "3999-12-31",
          "id": 1009,
          "name": "Bons",
          "stock_group": "B"
        }
      ],
      "start_date": "1970-10-16",
      "end_date": "3999-12-31",
      "prices_from": "1970-10-19",
      "prices_to": "1976-12-31",
      "is_mainstock": 0,
      "prices_count": 150
    },
    "20056": {
      "id": 20056,
      "name": "Bons 8,5% 1970, (c. 25/5/71 att.) (Avis 70-768) 1971-85",
      "share_type": {
        "id": 2,
        "name": "Bond (Obligation)"
      },
      "types": [
        {
          "start_date": "1970-10-16",
          "end_date": "3999-12-31",
          "id": 1009,
          "name": "Bons",
          "stock_group": "B"
        }
      ],
      "start_date": "1970-10-16",
      "end_date": "3999-12-31",
      "prices_from": "1970-10-19",
      "prices_to": "1976-12-31",
      "is_mainstock": 0,
      "prices_count": 150
    },
    "20057": {
      "id": 20057,
      "name": "Bons 8,50% 1971 (c. 17/5/72 att.) (Avis 71-644) 1972-86",
      "share_type": {
        "id": 2,
        "name": "Bond (Obligation)"
      },
      "types": [
        {
          "start_date": "1971-09-06",
          "end_date": "3999-12-31",
          "id": 1009,
          "name": "Bons",
          "stock_group": "B"
        }
      ],
      "start_date": "1971-09-06",
      "end_date": "3999-12-31",
      "prices_from": "1971-09-06",
      "prices_to": "1976-12-31",
      "is_mainstock": 0,
      "prices_count": 129
    },
    "20058": {
      "id": 20058,
      "name": "Bons 8,50% 1971 (c. 17/5/72 att.) (Avis 71-644) 1972-86",
      "share_type": {
        "id": 2,
        "name": "Bond (Obligation)"
      },
      "types": [
        {
          "start_date": "1971-09-06",
          "end_date": "3999-12-31",
          "id": 1009,
          "name": "Bons",
          "stock_group": "B"
        }
      ],
      "start_date": "1971-09-06",
      "end_date": "3999-12-31",
      "prices_from": "1971-09-06",
      "prices_to": "1976-12-31",
      "is_mainstock": 0,
      "prices_count": 129
    },
    "21213": {
      "id": 21213,
      "name": "Postes, Télégraphes et Téléphones, Bons 8,70% 1973 de 1000 F (Avis 73-714). remb. à 1000 F le 7/5/1988",
      "share_type": {
        "id": 2,
        "name": "Bond (Obligation)"
      },
      "types": [
        {
          "start_date": "1973-08-17",
          "end_date": "3999-12-31",
          "id": 1001,
          "name": "Obligation ordinaire ou classique",
          "stock_group": "B"
        }
      ],
      "start_date": "1973-08-17",
      "end_date": "3999-12-31",
      "prices_from": "1973-08-17",
      "prices_to": "1976-12-31",
      "is_mainstock": 0,
      "prices_count": 85
    },
    "21376": {
      "id": 21376,
      "name": "Postes, télégraphes et téléphones, bons 10,70% 1974 de 1000F (c. 11/5/75 att.) (avis 74-729) Remb à 1000F le 11/5/1989",
      "share_type": {
        "id": 2,
        "name": "Bond (Obligation)"
      },
      "types": [
        {
          "start_date": "1974-09-16",
          "end_date": "3999-12-31",
          "id": 1001,
          "name": "Obligation ordinaire ou classique",
          "stock_group": "B"
        }
      ],
      "start_date": "1974-09-16",
      "end_date": "3999-12-31",
      "prices_from": "1974-09-16",
      "prices_to": "1976-12-31",
      "is_mainstock": 0,
      "prices_count": 58
    },
    "21660": {
      "id": 21660,
      "name": "Postes, élégraphes et Téléphones, Bons 10,50% 1975 de 1000 F (c.5/5/76 att.) (Avis 75-902).Remb.à 1000 F le 5/5/1990",
      "share_type": {
        "id": 2,
        "name": "Bond (Obligation)"
      },
      "types": [
        {
          "start_date": "1975-11-24",
          "end_date": "3999-12-31",
          "id": 1009,
          "name": "Bons",
          "stock_group": "B"
        }
      ],
      "start_date": "1975-11-24",
      "end_date": "3999-12-31",
      "prices_from": "1975-11-24",
      "prices_to": "1976-12-31",
      "is_mainstock": 0,
      "prices_count": 29
    },
    "21661": {
      "id": 21661,
      "name": "Postes, élégraphes et Téléphones, Bons 10,20% 1975 de 1000 F (c.20/11/76 att.) (Avis 76-183).Remb.à 1000 F le 20/11/90",
      "share_type": {
        "id": 2,
        "name": "Bond (Obligation)"
      },
      "types": [
        {
          "start_date": "1976-03-15",
          "end_date": "3999-12-31",
          "id": 1009,
          "name": "Bons",
          "stock_group": "B"
        }
      ],
      "start_date": "1976-03-15",
      "end_date": "3999-12-31",
      "prices_from": "1976-03-17",
      "prices_to": "1976-12-31",
      "is_mainstock": 0,
      "prices_count": 20
    },
    "35357": {
      "id": 35357,
      "name": "Postes, Télégraphes et Téléphones, Bons 5% 1963, rembours. à 210 F minimum (c. 1/6/64 att. 1969-83",
      "share_type": {
        "id": 2,
        "name": "Bond (Obligation)"
      },
      "types": [
        {
          "start_date": "1963-12-23",
          "end_date": "3999-12-31",
          "id": 1009,
          "name": "Bons",
          "stock_group": "B"
        }
      ],
      "start_date": "1963-12-23",
      "end_date": "3999-12-31",
      "prices_from": "1963-12-23",
      "prices_to": "1976-12-31",
      "is_mainstock": 0,
      "prices_count": 321
    },
    "35358": {
      "id": 35358,
      "name": "Postes, Télégraphes et Téléphones, Bons 5% 1963 remb. à 2100 F min. (c. 1/6/64 att. 1969-83",
      "share_type": {
        "id": 2,
        "name": "Bond (Obligation)"
      },
      "types": [
        {
          "start_date": "1963-12-23",
          "end_date": "3999-12-31",
          "id": 1009,
          "name": "Bons",
          "stock_group": "B"
        }
      ],
      "start_date": "1963-12-23",
      "end_date": "3999-12-31",
      "prices_from": "1963-12-23",
      "prices_to": "1976-12-31",
      "is_mainstock": 0,
      "prices_count": 307
    },
    "35359": {
      "id": 35359,
      "name": "Postes, élégraphes et Téléphones, Bons 6,50% 1968, r. 410 F à 480 F (c. 15/5/69 att.) (Avis 68-579) 1969-88",
      "share_type": {
        "id": 2,
        "name": "Bond (Obligation)"
      },
      "types": [
        {
          "start_date": "1968-10-03",
          "end_date": "3999-12-31",
          "id": 1009,
          "name": "Bons",
          "stock_group": "B"
        }
      ],
      "start_date": "1968-10-03",
      "end_date": "3999-12-31",
      "prices_from": "1968-10-04",
      "prices_to": "1976-12-31",
      "is_mainstock": 0,
      "prices_count": 199
    },
    "35360": {
      "id": 35360,
      "name": "Postes, élégraphes et Téléphones, Bons 6,50% 1968, r. 4100 F à 4800 F. (c. 15/5/69 att.) (Avis 68-579) 1969-88",
      "share_type": {
        "id": 2,
        "name": "Bond (Obligation)"
      },
      "types": [
        {
          "start_date": "1968-10-03",
          "end_date": "3999-12-31",
          "id": 1009,
          "name": "Bons",
          "stock_group": "B"
        }
      ],
      "start_date": "1968-10-03",
      "end_date": "3999-12-31",
      "prices_from": "1968-10-04",
      "prices_to": "1976-12-31",
      "is_mainstock": 0,
      "prices_count": 199
    },
    "35361": {
      "id": 35361,
      "name": "Postes, élégraphes et Téléphones, Bons 8.25% 1972, emb. à 500 F le 20/4/86 (c. 20/4/73 att.) (Avis 72-585)",
      "share_type": {
        "id": 2,
        "name": "Bond (Obligation)"
      },
      "types": [
        {
          "start_date": "1972-08-08",
          "end_date": "3999-12-31",
          "id": 1009,
          "name": "Bons",
          "stock_group": "B"
        }
      ],
      "start_date": "1972-08-08",
      "end_date": "3999-12-31",
      "prices_from": "1972-08-08",
      "prices_to": "1976-12-31",
      "is_mainstock": 0,
      "prices_count": 111
    },
    "35362": {
      "id": 35362,
      "name": "Postes, élégraphes et Téléphones, Bons 8.25% 1972, emb. à 5000 F le 20/4/86 (c. 20/4/73 att.) (Avis 72-585)",
      "share_type": {
        "id": 2,
        "name": "Bond (Obligation)"
      },
      "types": [
        {
          "start_date": "1972-08-08",
          "end_date": "3999-12-31",
          "id": 1009,
          "name": "Bons",
          "stock_group": "B"
        }
      ],
      "start_date": "1972-08-08",
      "end_date": "3999-12-31",
      "prices_from": "1972-08-08",
      "prices_to": "1972-08-16",
      "is_mainstock": 0,
      "prices_count": 4
    },
    "35363": {
      "id": 35363,
      "name": "Postes, élégraphes et Téléphones, Bons 11,40% 1974 de 1000 F (séries A et B) (c. 16/11/75 att.) (Avis 75-194) 1983-90",
      "share_type": {
        "id": 2,
        "name": "Bond (Obligation)"
      },
      "types": [
        {
          "start_date": "1975-04-01",
          "end_date": "3999-12-31",
          "id": 1009,
          "name": "Bons",
          "stock_group": "B"
        }
      ],
      "start_date": "1975-04-01",
      "end_date": "3999-12-31",
      "prices_from": "1975-04-01",
      "prices_to": "1976-12-31",
      "is_mainstock": 0,
      "prices_count": 44
    },
    "35364": {
      "id": 35364,
      "name": "Postes, élégraphes et Téléphones, Bons 10,20% 1976 de 1000 F. (série A à E) (c. 12/4/77 att.) (Avis 76-685 et 76-695) 1979-91",
      "share_type": {
        "id": 2,
        "name": "Bond (Obligation)"
      },
      "types": [
        {
          "start_date": "1976-08-23",
          "end_date": "3999-12-31",
          "id": 1009,
          "name": "Bons",
          "stock_group": "B"
        }
      ],
      "start_date": "1976-08-23",
      "end_date": "3999-12-31",
      "prices_from": "1976-08-23",
      "prices_to": "1976-12-31",
      "is_mainstock": 0,
      "prices_count": 10
    },
    "35365": {
      "id": 35365,
      "name": "Postes, élégraphes et Téléphones, Bons 11% nov 1976 de 1000 F. (série A à E) (c. 18/11/77 att.) (Avis 76-1079) 1979-91",
      "share_type": {
        "id": 2,
        "name": "Bond (Obligation)"
      },
      "types": [
        {
          "start_date": "1976-12-29",
          "end_date": "3999-12-31",
          "id": 1009,
          "name": "Bons",
          "stock_group": "B"
        }
      ],
      "start_date": "1976-12-29",
      "end_date": "3999-12-31",
      "prices_from": null,
      "prices_to": null,
      "is_mainstock": 0,
      "prices_count": 0
    },
    "106108": {
      "id": 106108,
      "name": "Postes, Télégraphes et Téléphones 3,5% 1943-1958, par 5000 fr de cap.nom. (c. 16/12/58 att.) (cf Avis n°33823). 1958-73",
      "share_type": {
        "id": 1,
        "name": "Stock (Action)"
      },
      "types": [
        {
          "start_date": "1958-09-15",
          "end_date": "1958-10-31",
          "id": 18,
          "name": "Action",
          "stock_group": "S"
        }
      ],
      "start_date": "1958-09-15",
      "end_date": "1958-10-31",
      "prices_from": "1958-09-15",
      "prices_to": "1958-10-31",
      "is_mainstock": 0,
      "prices_count": 4
    }
  }
}