{
  "id": 750,
  "names": [
    "Chemin de Fer de Lille a Bethune et a Bully-Grenay",
    "Compagnie du chemin de fer de Lille à Béthune et à Bully-Grenay"
  ],
  "name": "Chemin de Fer de Lille a Bethune et a Bully-Grenay",
  "balance_sheets": [],
  "balance_sheets_stats": {
    "start_date": null,
    "end_date": null
  },
  "locations_stats": {
    "start_date": "1865-05-22",
    "end_date": "1865-12-31"
  },
  "locations": {
    "Siège social": [
      {
        "location_types_id": 1,
        "location_type": "Siège social",
        "address": null,
        "city": "Paris",
        "district": "Paris",
        "country": "France",
        "in_yearbook_from": 1865,
        "in_yearbook_to": 1865
      }
    ]
  },
  "persons": [],
  "persons_stats": {
    "persons_count": 0,
    "start_date": null,
    "end_date": null
  },
  "yearbooks_ocrs": [
    {
      "source": "annuaire_cac_1880",
      "yearbook": "Annuaire de la Compagnie des Agents de Change 1880",
      "page": "751"
    }
  ],
  "juridical_status": [],
  "equity_capital": [],
  "profit_dividends": [],
  "public_status": false,
  "stock_exchanges": {
    "1": {
      "id": 1,
      "name": "Paris (Official List)",
      "listings_stats": {
        "start_date": "1867-03-26"
      },
      "spot_prices_stats": {
        "start_date": "1867-11-15",
        "end_date": "1949-07-15"
      }
    }
  },
  "securities": {
    "1579": {
      "id": 1579,
      "name": "Lille à Bethune, act. 500f. T.p.",
      "share_type": {
        "id": 1,
        "name": "Stock (Action)"
      },
      "types": [
        {
          "start_date": "1867-03-26",
          "end_date": "3999-12-31",
          "id": 18,
          "name": "Action",
          "stock_group": "S"
        }
      ],
      "start_date": "1867-03-26",
      "end_date": "1883-06-05",
      "prices_from": "1868-03-16",
      "prices_to": "1879-06-16",
      "is_mainstock": 1,
      "prices_count": 25
    },
    "1616": {
      "id": 1616,
      "name": "Lille à Béthune, 3%, r. 500f",
      "share_type": {
        "id": 2,
        "name": "Bond (Obligation)"
      },
      "types": [
        {
          "start_date": "1867-03-26",
          "end_date": "3999-12-31",
          "id": 1001,
          "name": "Obligation ordinaire ou classique",
          "stock_group": "B"
        }
      ],
      "start_date": "1867-03-26",
      "end_date": "1883-06-05",
      "prices_from": "1867-11-15",
      "prices_to": "1949-07-15",
      "is_mainstock": 0,
      "prices_count": 1368
    }
  }
}