{
  "id": 381,
  "names": [
    "FORGES ET FONDERIES DE MONTATAIRE",
    "Forges et Fonderies de Montataire",
    "HAUTS FOURNEAUX ET LAMINOIRS DE MONT AT AIRE ET DE LA SAMBRE Anciennement Forges et Fonderies de Montataire.",
    "HAUTS FOURNEAUX ET LAMINOIRS DE MONTATAIRE ET DE LA SAMBRE (En Liquidation)",
    "HAUTS FOURNEAUX ET LAMINOIRS DE MONTATAIRE ET DE LA SAMBRE (en liquidation)",
    "HAUTS FOURNEAUX ET LAMINOIRS DE MONTATAIRE ET DE LA SAMBRE)",
    "HAUTS FOURNEAUX ET LAMINOIRS DE MONTATAIRE ÈT DE LA SAMBRE (En Liquidation)",
    "HAUTS-FOURNEAUX ET LAMINOIRS DE MONTATAIRE ET DE LA SAMBRE (En liquidation)",
    "HAUTS-FOURNEAUX ET LAMINOIRS DE MONTATAIRE ET DE LA SAMBRE Anciennement Forges et Fonderies de Montataire",
    "SOCIÉTÉ ANONYME DES FORGES ET FONDERIES DE MONTATAIRE",
    "Société anonyme des Forges et Fonderies de Montataire",
    "Société anonyme des forges et fonderies de Montataire"
  ],
  "name": "HAUTS FOURNEAUX ET LAMINOIRS DE MONTATAIRE ET DE LA SAMBRE)",
  "balance_sheets": [
    {
      "start_date": "1911-04-30",
      "source": "Annuaire Desfossés 1912",
      "page": "655"
    },
    {
      "start_date": "1913-04-30",
      "source": "Annuaire Desfossés 1914",
      "page": "717"
    },
    {
      "start_date": "1916-04-30",
      "source": "Annuaire Desfossés 1917",
      "page": "652"
    },
    {
      "start_date": "1920-04-30",
      "source": "Annuaire Desfossés 1920",
      "page": "711"
    },
    {
      "start_date": "1922-04-30",
      "source": "Annuaire Desfossés 1923",
      "page": "787"
    },
    {
      "start_date": "1924-04-30",
      "source": "Annuaire Desfossés 1925",
      "page": "905"
    },
    {
      "start_date": "1926-04-30",
      "source": "Annuaire Desfossés 1927",
      "page": "723"
    },
    {
      "start_date": "1928-04-30",
      "source": "Annuaire Desfossés 1929",
      "page": "770"
    },
    {
      "start_date": "1929-04-30",
      "source": "Annuaire Desfossés 1931",
      "page": "775"
    },
    {
      "start_date": "1932-04-30",
      "source": "Annuaire Desfossés 1933",
      "page": null
    }
  ],
  "balance_sheets_stats": {
    "start_date": "1911-04-30",
    "end_date": "1932-04-30"
  },
  "locations_stats": {
    "start_date": "1898-01-01",
    "end_date": "1953-12-31"
  },
  "locations": {
    "Siège social": [
      {
        "location_types_id": 1,
        "location_type": "Siège social",
        "address": "Rue le peletier, 16",
        "city": "Paris",
        "district": "Paris",
        "country": "France",
        "in_yearbook_from": 1898,
        "in_yearbook_to": 1914
      },
      {
        "location_types_id": 1,
        "location_type": "Siège social",
        "address": "Rue saint-georges, 5",
        "city": "Paris",
        "district": "Paris",
        "country": "France",
        "in_yearbook_from": 1917,
        "in_yearbook_to": 1933
      },
      {
        "location_types_id": 1,
        "location_type": "Siège social",
        "address": "Rue de uucny",
        "city": "Paris",
        "district": "Paris",
        "country": "France",
        "in_yearbook_from": 1940,
        "in_yearbook_to": 1940
      },
      {
        "location_types_id": 1,
        "location_type": "Siège social",
        "address": "Rue de clichy, 25",
        "city": "Paris",
        "district": "Paris",
        "country": "France",
        "in_yearbook_from": 1945,
        "in_yearbook_to": 1953
      }
    ],
    "Usines": [
      {
        "location_types_id": 3,
        "location_type": "Usines",
        "address": null,
        "city": "Frouard",
        "district": "Meurthe-et-Moselle",
        "country": "France",
        "in_yearbook_from": 1923,
        "in_yearbook_to": 1923
      },
      {
        "location_types_id": 3,
        "location_type": "Usines",
        "address": null,
        "city": "Montataire",
        "district": "Oise",
        "country": "France",
        "in_yearbook_from": 1923,
        "in_yearbook_to": 1923
      },
      {
        "location_types_id": 3,
        "location_type": "Usines",
        "address": null,
        "city": "Nantes",
        "district": "Loire-Atlantique",
        "country": "France",
        "in_yearbook_from": 1923,
        "in_yearbook_to": 1923
      }
    ],
    "Mines / Carrières / Pétrole / Gaz": [
      {
        "location_types_id": 7,
        "location_type": "Mines / Carrières / Pétrole / Gaz",
        "address": "Chavenois",
        "city": "Lay Saint Cristophe",
        "district": "Meurthe-et-Moselle",
        "country": "France",
        "in_yearbook_from": 1923,
        "in_yearbook_to": 1923
      },
      {
        "location_types_id": 7,
        "location_type": "Mines / Carrières / Pétrole / Gaz",
        "address": "Province de nassau",
        "city": null,
        "district": null,
        "country": "République fédérale d'Allemagne",
        "in_yearbook_from": 1923,
        "in_yearbook_to": 1923
      },
      {
        "location_types_id": 7,
        "location_type": "Mines / Carrières / Pétrole / Gaz",
        "address": null,
        "city": "Bouxieres aux Dames",
        "district": "Meurthe-et-Moselle",
        "country": "France",
        "in_yearbook_from": 1923,
        "in_yearbook_to": 1923
      },
      {
        "location_types_id": 7,
        "location_type": "Mines / Carrières / Pétrole / Gaz",
        "address": null,
        "city": "Frouard",
        "district": "Meurthe-et-Moselle",
        "country": "France",
        "in_yearbook_from": 1923,
        "in_yearbook_to": 1923
      },
      {
        "location_types_id": 7,
        "location_type": "Mines / Carrières / Pétrole / Gaz",
        "address": null,
        "city": "Pompey",
        "district": "Meurthe-et-Moselle",
        "country": "France",
        "in_yearbook_from": 1923,
        "in_yearbook_to": 1923
      }
    ]
  },
  "persons": [
    {
      "persons_count": 4,
      "yearbook": "Annuaire de la Compagnie des Agents de Change 1898",
      "source": "annuaire_cac_1898",
      "page": "1609"
    },
    {
      "persons_count": 6,
      "yearbook": "Annuaire de la Compagnie des Agents de Change 1903",
      "source": "annuaire_cac_1903",
      "page": "1788"
    },
    {
      "persons_count": 8,
      "yearbook": "Annuaire de la Compagnie des Agents de Change 1908",
      "source": "annuaire_cac_1908",
      "page": "1514"
    },
    {
      "persons_count": 6,
      "yearbook": "Annuaire Desfossés 1912",
      "source": "annuaire_df_1912",
      "page": "655"
    },
    {
      "persons_count": 2,
      "yearbook": "Annuaire Desfossés 1917",
      "source": "annuaire_df_1917",
      "page": "652"
    },
    {
      "persons_count": 4,
      "yearbook": "Annuaire Desfossés 1923",
      "source": "annuaire_df_1923",
      "page": "787"
    },
    {
      "persons_count": 9,
      "yearbook": "Annuaire Desfossés 1927",
      "source": "annuaire_df_1927",
      "page": "723"
    },
    {
      "persons_count": 18,
      "yearbook": "Annuaire Desfossés 1933",
      "source": "annuaire_df_1933",
      "page": null
    },
    {
      "persons_count": 1,
      "yearbook": "Annuaire Desfossés 1945",
      "source": "annuaire_df_1945",
      "page": null
    },
    {
      "persons_count": 2,
      "yearbook": "Annuaire Desfossés 1948",
      "source": "annuaire_df_1948",
      "page": null
    },
    {
      "persons_count": 1,
      "yearbook": "Annuaire Desfossés 1953",
      "source": "annuaire_df_1953",
      "page": null
    }
  ],
  "persons_stats": {
    "persons_count": 38,
    "start_date": "1898-01-01",
    "end_date": "1953-12-31"
  },
  "yearbooks_ocrs": [
    {
      "source": "annuaire_cac_1898",
      "yearbook": "Annuaire de la Compagnie des Agents de Change 1898",
      "page": "1609"
    },
    {
      "source": "annuaire_cac_1903",
      "yearbook": "Annuaire de la Compagnie des Agents de Change 1903",
      "page": "1788"
    },
    {
      "source": "annuaire_cac_1908",
      "yearbook": "Annuaire de la Compagnie des Agents de Change 1908",
      "page": "1514"
    },
    {
      "source": "annuaire_df_1912",
      "yearbook": "Annuaire Desfossés 1912",
      "page": "655"
    },
    {
      "source": "annuaire_df_1914",
      "yearbook": "Annuaire Desfossés 1914",
      "page": "717"
    },
    {
      "source": "annuaire_df_1917",
      "yearbook": "Annuaire Desfossés 1917",
      "page": "652"
    },
    {
      "source": "annuaire_df_1920",
      "yearbook": "Annuaire Desfossés 1920",
      "page": "711"
    },
    {
      "source": "annuaire_df_1923",
      "yearbook": "Annuaire Desfossés 1923",
      "page": "787"
    },
    {
      "source": "annuaire_df_1925",
      "yearbook": "Annuaire Desfossés 1925",
      "page": "905"
    },
    {
      "source": "annuaire_df_1927",
      "yearbook": "Annuaire Desfossés 1927",
      "page": "723"
    },
    {
      "source": "annuaire_df_1929",
      "yearbook": "Annuaire Desfossés 1929",
      "page": "770"
    },
    {
      "source": "annuaire_df_1931",
      "yearbook": "Annuaire Desfossés 1931",
      "page": "775"
    },
    {
      "source": "annuaire_df_1933",
      "yearbook": "Annuaire Desfossés 1933",
      "page": null
    },
    {
      "source": "annuaire_df_1937",
      "yearbook": "Annuaire Desfossés 1937",
      "page": "911"
    },
    {
      "source": "annuaire_df_1940",
      "yearbook": "Annuaire Desfossés 1940",
      "page": null
    },
    {
      "source": "annuaire_df_1945",
      "yearbook": "Annuaire Desfossés 1945",
      "page": null
    },
    {
      "source": "annuaire_df_1948",
      "yearbook": "Annuaire Desfossés 1948",
      "page": null
    },
    {
      "source": "annuaire_df_1953",
      "yearbook": "Annuaire Desfossés 1953",
      "page": null
    }
  ],
  "juridical_status": [
    {
      "juridical_status": "Société Anonyme Réglementée",
      "start_date": "1840-06-23",
      "end_date": "1890-02-28",
      "comments": "Société anonyme française, constituée le 23 juin 1840 pour une durée de 50 m, modifiée conformément à la loi du 24 Juillet 1867 en mars 1890",
      "source": "annuaire_df_1933"
    },
    {
      "juridical_status": "Société Anonyme (Libre)",
      "start_date": "1890-03-01",
      "end_date": "1933-01-31",
      "comments": "Transformée en Société anonyme libre par décisions des assemblées générales des 30 août 1889 et 1er mars 1890 et par décret du 22 janvier 1890. Régie par statuts dressés par M° Pinguet, notaire à Paris, le 21 février modifiés par décisions des assemblées générales des 12 avril, 25 juin et 25 octobre 1890.",
      "source": "annuaire_df_1945"
    },
    {
      "juridical_status": "Mise en liquidation",
      "start_date": "1933-02-01",
      "end_date": "3999-12-31",
      "comments": "Société anonyme française, constituée le 23 juin 1840 pour une durée de 50 ans et absorbée en février 1933 par la Société des Forges et Aciéries du Nord et de l’Est. Les actions ont été échangées contre des actions Nord -et Est à raison de 5 actions de 500 fr. Montataire (coup. 1 att.) pour 2 act. A de 250 fr. Nord et Est (coup.. 69 att.).",
      "source": "annuaire_df_1945"
    }
  ],
  "equity_capital": [
    {
      "amount": "1.000.000",
      "currency": "Franc",
      "infodate": "1840-06-23",
      "source": "annuaire_df_1933",
      "comments": " 50.000.000 francs, divisé en 100.000 actions de 500 francs dont 15.000\tdites B à vote plural et 85.000 dites A. A l’origine le capital était représenté par 6.000 parts sans désignation de valeur. Lors de la transformation de la société en 1890, ces parts furent échangées contre 2.000 actions de 500 francs. Le capital de 1 million fut porté la même année à 3.865.000 francs, en 1920 à 8 millions par la création de 8.270 actions sur lesquelles 7.730 ont été émises au pair et réservées aux actionnaires, titre pour titre. En même temps, il a été prélevé sur la provision spéciale une somme de 3.865.000\tfrancs qui a été répartie entre toutes les actions anciennes à raison de 500 francs pour chacune d’elles. En 1923, il a été porté à 12 millions, en juillet 1928, à 32 millions divisé en 54.000 actions A et 10.000 actions B à vote plural, toutes de 500 francs ; en novembre 1929 à 43.250.000 francs par la création de 22.500 actionsA remises à la Société des Hauts-Fourneaux de la Sambre, absorbée par Montataire et en décembre suivant à 50 millions par la création de 8.500 actions A et de5.000 actions B, toutes émises à 900 francs."
    },
    {
      "amount": "3.865.000",
      "currency": "Franc",
      "infodate": "1840-06-24",
      "source": "annuaire_df_1933",
      "comments": "50.000.000 francs, divisé en 100.000 actions de 500 francs dont 15.000 dites B à vote plural et 85.000 dites A. A l’origine le capital était représenté par 6.000 parts sans désignation de valeur. Lors de la transformation de la société en 1890, ces parts furent échangées contre 2.000 actions de 500 francs. Le capital de 1 million fut porté la même année à 3.865.000 francs, en 1920 à 8 millions par la création de 8.270 actions sur lesquelles 7.730 ont été émises au pair et réservées aux actionnaires, titre pour titre. En même temps, il a été prélevé sur la provision spéciale une somme de 3.865.000 francs qui a été répartie entre toutes les actions anciennes à raison de 500 francs pour chacune d’elles. En 1923, il a été porté à 12 millions, en juillet 1928, à 32 millions divisé en 54.000 actions A et 10.000 actions B à vote plural, toutes de 500 francs ; en novembre 1929 à 43.250.000 francs par la création de 22.500 actionsA remises à la Société des Hauts-Fourneaux de la Sambre, absorbée par Montataire et en décembre suivant à 50 millions par la création de 8.500 actions A et de5.000 actions B, toutes émises à 900 francs."
    },
    {
      "amount": "1.000.000",
      "currency": "Franc",
      "infodate": "1889-08-30",
      "source": "annuaire_cac_1898",
      "comments": "Au moment de la transformation en Société an -nyme libre, en 1890, le fonds social a été évalué et fixé à un million et divisé en 2,000 actions de 500 fr., entièrement libérées, qui ont été éch® gées contre les 6,000 parts de l’ancienne société anonyme, à raison trois parts contre une action nouvelle."
    },
    {
      "amount": "3.865.000",
      "currency": "Franc",
      "infodate": "1890-06-25",
      "source": "annuaire_cac_1898",
      "comments": " Au moment de la transformation en Société an -nyme libre, en 1890, le fonds social a été évalué et fixé à un million et divisé en 2,000 actions de 500 fr., entièrement libérées, qui ont été éch® gées contre les 6,000 parts de l’ancienne société anonyme, à raison trois parts contre une action nouvelle.\n Par décisions des assemblées générales des 12 avril et 25 juin ! capital social a été porté de un million à 3,865,000 fr. par la création 5,730 actions nouvelles de 500 fr. émises au pair."
    },
    {
      "amount": "8.000.000",
      "currency": "Franc",
      "infodate": "1920-01-01",
      "source": "annuaire_df_1933",
      "comments": "50.000.000 francs, divisé en 100.000 actions de 500 francs dont 15.000 dites B à vote plural et 85.000 dites A. A l’origine le capital était représenté par 6.000 parts sans désignation de valeur. Lors de la transformation de la société en 1890, ces parts furent échangées contre 2.000 actions de 500 francs. Le capital de 1 million fut porté la même année à 3.865.000 francs, en 1920 à 8 millions par la création de 8.270 actions sur lesquelles 7.730 ont été émises au pair et réservées aux actionnaires, titre pour titre. En même temps, il a été prélevé sur la provision spéciale une somme de 3.865.000 francs qui a été répartie entre toutes les actions anciennes à raison de 500 francs pour chacune d’elles. En 1923, il a été porté à 12 millions, en juillet 1928, à 32 millions divisé en 54.000 actions A et 10.000 actions B à vote plural, toutes de 500 francs ; en novembre 1929 à 43.250.000 francs par la création de 22.500 actionsA remises à la Société des Hauts-Fourneaux de la Sambre, absorbée par Montataire et en décembre suivant à 50 millions par la création de 8.500 actions A et de5.000 actions B, toutes émises à 900 francs."
    },
    {
      "amount": "12.000.000",
      "currency": "Franc",
      "infodate": "1923-01-01",
      "source": "annuaire_df_1933",
      "comments": "50.000.000 francs, divisé en 100.000 actions de 500 francs dont 15.000 dites B à vote plural et 85.000 dites A. A l’origine le capital était représenté par 6.000 parts sans désignation de valeur. Lors de la transformation de la société en 1890, ces parts furent échangées contre 2.000 actions de 500 francs. Le capital de 1 million fut porté la même année à 3.865.000 francs, en 1920 à 8 millions par la création de 8.270 actions sur lesquelles 7.730 ont été émises au pair et réservées aux actionnaires, titre pour titre. En même temps, il a été prélevé sur la provision spéciale une somme de 3.865.000 francs qui a été répartie entre toutes les actions anciennes à raison de 500 francs pour chacune d’elles. En 1923, il a été porté à 12 millions, en juillet 1928, à 32 millions divisé en 54.000 actions A et 10.000 actions B à vote plural, toutes de 500 francs ; en novembre 1929 à 43.250.000 francs par la création de 22.500 actionsA remises à la Société des Hauts-Fourneaux de la Sambre, absorbée par Montataire et en décembre suivant à 50 millions par la création de 8.500 actions A et de5.000 actions B, toutes émises à 900 francs."
    },
    {
      "amount": "32.000.000",
      "currency": "Franc",
      "infodate": "1928-07-01",
      "source": "annuaire_df_1933",
      "comments": "50.000.000 francs, divisé en 100.000 actions de 500 francs dont 15.000 dites B à vote plural et 85.000 dites A. A l’origine le capital était représenté par 6.000 parts sans désignation de valeur. Lors de la transformation de la société en 1890, ces parts furent échangées contre 2.000 actions de 500 francs. Le capital de 1 million fut porté la même année à 3.865.000 francs, en 1920 à 8 millions par la création de 8.270 actions sur lesquelles 7.730 ont été émises au pair et réservées aux actionnaires, titre pour titre. En même temps, il a été prélevé sur la provision spéciale une somme de 3.865.000 francs qui a été répartie entre toutes les actions anciennes à raison de 500 francs pour chacune d’elles. En 1923, il a été porté à 12 millions, en juillet 1928, à 32 millions divisé en 54.000 actions A et 10.000 actions B à vote plural, toutes de 500 francs ; en novembre 1929 à 43.250.000 francs par la création de 22.500 actionsA remises à la Société des Hauts-Fourneaux de la Sambre, absorbée par Montataire et en décembre suivant à 50 millions par la création de 8.500 actions A et de5.000 actions B, toutes émises à 900 francs."
    },
    {
      "amount": "43.250.000",
      "currency": "Franc",
      "infodate": "1929-11-01",
      "source": "annuaire_df_1933",
      "comments": "50.000.000 francs, divisé en 100.000 actions de 500 francs dont 15.000 dites B à vote plural et 85.000 dites A. A l’origine le capital était représenté par 6.000 parts sans désignation de valeur. Lors de la transformation de la société en 1890, ces parts furent échangées contre 2.000 actions de 500 francs. Le capital de 1 million fut porté la même année à 3.865.000 francs, en 1920 à 8 millions par la création de 8.270 actions sur lesquelles 7.730 ont été émises au pair et réservées aux actionnaires, titre pour titre. En même temps, il a été prélevé sur la provision spéciale une somme de 3.865.000 francs qui a été répartie entre toutes les actions anciennes à raison de 500 francs pour chacune d’elles. En 1923, il a été porté à 12 millions, en juillet 1928, à 32 millions divisé en 54.000 actions A et 10.000 actions B à vote plural, toutes de 500 francs ; en novembre 1929 à 43.250.000 francs par la création de 22.500 actionsA remises à la Société des Hauts-Fourneaux de la Sambre, absorbée par Montataire et en décembre suivant à 50 millions par la création de 8.500 actions A et de5.000 actions B, toutes émises à 900 francs."
    },
    {
      "amount": "50.000.000",
      "currency": "Franc",
      "infodate": "1930-12-01",
      "source": "annuaire_df_1933",
      "comments": "50.000.000 francs, divisé en 100.000 actions de 500 francs dont 15.000 dites B à vote plural et 85.000 dites A. A l’origine le capital était représenté par 6.000 parts sans désignation de valeur. Lors de la transformation de la société en 1890, ces parts furent échangées contre 2.000 actions de 500 francs. Le capital de 1 million fut porté la même année à 3.865.000 francs, en 1920 à 8 millions par la création de 8.270 actions sur lesquelles 7.730 ont été émises au pair et réservées aux actionnaires, titre pour titre. En même temps, il a été prélevé sur la provision spéciale une somme de 3.865.000 francs qui a été répartie entre toutes les actions anciennes à raison de 500 francs pour chacune d’elles. En 1923, il a été porté à 12 millions, en juillet 1928, à 32 millions divisé en 54.000 actions A et 10.000 actions B à vote plural, toutes de 500 francs ; en novembre 1929 à 43.250.000 francs par la création de 22.500 actionsA remises à la Société des Hauts-Fourneaux de la Sambre, absorbée par Montataire et en décembre suivant à 50 millions par la création de 8.500 actions A et de5.000 actions B, toutes émises à 900 francs."
    }
  ],
  "profit_dividends": [
    {
      "first_date": "1865-04-30",
      "last_date": "1932-04-30",
      "obs_count": 239
    }
  ],
  "public_status": false,
  "stock_exchanges": {
    "1": {
      "id": 1,
      "name": "Paris (Official List)",
      "listings_stats": {
        "start_date": "1896-01-24"
      },
      "spot_prices_stats": {
        "start_date": "1897-01-15",
        "end_date": "1951-12-17"
      }
    }
  },
  "securities": {
    "6299": {
      "id": 6299,
      "name": "Forges et Fonderies de Montataire, a. 500 f., tout payé",
      "share_type": {
        "id": 1,
        "name": "Stock (Action)"
      },
      "types": [
        {
          "start_date": "1913-10-14",
          "end_date": "3999-12-31",
          "id": 18,
          "name": "Action",
          "stock_group": "S"
        }
      ],
      "start_date": "1913-10-14",
      "end_date": "3999-12-31",
      "prices_from": "1913-10-14",
      "prices_to": "1930-04-15",
      "is_mainstock": 1,
      "prices_count": 362
    },
    "6815": {
      "id": 6815,
      "name": "Forges et Fonderies de Montataire, obligations 4,5%",
      "share_type": {
        "id": 2,
        "name": "Bond (Obligation)"
      },
      "types": [
        {
          "start_date": "1897-01-15",
          "end_date": "3999-12-31",
          "id": 1001,
          "name": "Obligation ordinaire ou classique",
          "stock_group": "B"
        }
      ],
      "start_date": "1895-03-11",
      "end_date": "3999-12-31",
      "prices_from": "1897-01-15",
      "prices_to": "1921-05-17",
      "is_mainstock": 0,
      "prices_count": 37
    },
    "6817": {
      "id": 6817,
      "name": "Forges et Fonderies de Montataire, Obligations 4,5% [avril 1899]",
      "share_type": {
        "id": 2,
        "name": "Bond (Obligation)"
      },
      "types": [
        {
          "start_date": "1902-06-16",
          "end_date": "3999-12-31",
          "id": 1001,
          "name": "Obligation ordinaire ou classique",
          "stock_group": "B"
        }
      ],
      "start_date": "1899-05-29",
      "end_date": "3999-12-31",
      "prices_from": "1902-06-16",
      "prices_to": "1921-04-15",
      "is_mainstock": 0,
      "prices_count": 15
    },
    "8077": {
      "id": 8077,
      "name": "Forges et Fonderies de Montataire 7%, remb. à 500 fr.",
      "share_type": {
        "id": 2,
        "name": "Bond (Obligation)"
      },
      "types": [
        {
          "start_date": "1924-06-06",
          "end_date": "3999-12-31",
          "id": 1001,
          "name": "Obligation ordinaire ou classique",
          "stock_group": "B"
        }
      ],
      "start_date": "1924-06-06",
      "end_date": "3999-12-31",
      "prices_from": "1924-06-06",
      "prices_to": "1929-10-31",
      "is_mainstock": 0,
      "prices_count": 117
    },
    "9488": {
      "id": 9488,
      "name": "Hauts-Fourneaux et Laminoirs de Montataire et de la Sambre, a. A 500 f., t. p.",
      "share_type": {
        "id": 1,
        "name": "Stock (Action)"
      },
      "types": [
        {
          "start_date": "1930-04-17",
          "end_date": "3999-12-31",
          "id": 11,
          "name": "Action ordinaire",
          "stock_group": "S"
        }
      ],
      "start_date": "1930-04-17",
      "end_date": "3999-12-31",
      "prices_from": "1930-04-17",
      "prices_to": "1936-02-15",
      "is_mainstock": 1,
      "prices_count": 136
    },
    "9489": {
      "id": 9489,
      "name": "Hauts-Fourneaux et Laminoirs de Montataire et de la Sambre, Act. A 500 fr., t. p. (nos 24001 à 46500)",
      "share_type": {
        "id": 1,
        "name": "Stock (Action)"
      },
      "types": [
        {
          "start_date": "1930-04-17",
          "end_date": "3999-12-31",
          "id": 11,
          "name": "Action ordinaire",
          "stock_group": "S"
        }
      ],
      "start_date": "1930-04-17",
      "end_date": "3999-12-31",
      "prices_from": "1930-04-17",
      "prices_to": "1934-03-15",
      "is_mainstock": 0,
      "prices_count": 80
    },
    "9490": {
      "id": 9490,
      "name": "Hauts-Fourneaux et Laminoirs de Montataire et de la Sambre, Act. A 500 fr., t. p. (nos 46501 à 76500)",
      "share_type": {
        "id": 1,
        "name": "Stock (Action)"
      },
      "types": [
        {
          "start_date": "1930-04-17",
          "end_date": "3999-12-31",
          "id": 11,
          "name": "Action ordinaire",
          "stock_group": "S"
        }
      ],
      "start_date": "1930-04-17",
      "end_date": "3999-12-31",
      "prices_from": "1930-05-01",
      "prices_to": "1934-03-15",
      "is_mainstock": 0,
      "prices_count": 60
    },
    "9616": {
      "id": 9616,
      "name": "Hauts-Fourneaux et laminoirs de Montataire et de la Sambre (Forges et Aciéries du Nord et de l'Est) 4,5% 1930, remb. À 1000 fr. 1935-59",
      "share_type": {
        "id": 2,
        "name": "Bond (Obligation)"
      },
      "types": [
        {
          "start_date": "1930-10-23",
          "end_date": "3999-12-31",
          "id": 1001,
          "name": "Obligation ordinaire ou classique",
          "stock_group": "B"
        }
      ],
      "start_date": "1930-10-23",
      "end_date": "3999-12-31",
      "prices_from": "1930-10-23",
      "prices_to": "1951-12-17",
      "is_mainstock": 0,
      "prices_count": 446
    },
    "40232": {
      "id": 40232,
      "name": "Forges et Fonderies de Montataire",
      "share_type": {
        "id": 1,
        "name": "Stock (Action)"
      },
      "types": [
        {
          "start_date": "1000-01-01",
          "end_date": "3999-12-31",
          "id": 1,
          "name": "UNKNOWN",
          "stock_group": "U"
        }
      ],
      "start_date": "1000-01-01",
      "end_date": "3999-12-31",
      "prices_from": "1900-03-15",
      "prices_to": "1913-09-30",
      "is_mainstock": 0,
      "prices_count": 75
    },
    "102511": {
      "id": 102511,
      "name": "Act. Forges et Fonderies de Montataire (droit et coupon 63). Pour 9 actions anc., 1 action A nouvelle émise à 900 francs.",
      "share_type": {
        "id": 4,
        "name": "Rights (Droits)"
      },
      "types": [
        {
          "start_date": "1929-11-18",
          "end_date": "1929-12-05",
          "id": 501,
          "name": "Droit de souscription",
          "stock_group": "R"
        }
      ],
      "start_date": "1929-11-18",
      "end_date": "1929-12-05",
      "prices_from": "1929-11-21",
      "prices_to": "1929-11-30",
      "is_mainstock": 0,
      "prices_count": 2
    },
    "102512": {
      "id": 102512,
      "name": "Act. Forges et fonderies de Montataire (droit et coupon 64). Pour 2 actions anciennes, 1 action nouvelle A émise à 600 francs.",
      "share_type": {
        "id": 4,
        "name": "Rights (Droits)"
      },
      "types": [
        {
          "start_date": "1928-07-03",
          "end_date": "1928-07-23",
          "id": 501,
          "name": "Droit de souscription",
          "stock_group": "R"
        }
      ],
      "start_date": "1928-07-03",
      "end_date": "1928-07-23",
      "prices_from": "1928-07-04",
      "prices_to": "1928-07-04",
      "is_mainstock": 0,
      "prices_count": 0
    },
    "103461": {
      "id": 103461,
      "name": "Actions Forges et Fonderies de Montataire (droit à la 1 ere souscription et coupon n°51)",
      "share_type": {
        "id": 4,
        "name": "Rights (Droits)"
      },
      "types": [
        {
          "start_date": "1920-12-02",
          "end_date": "1920-12-20",
          "id": 501,
          "name": "Droit de souscription",
          "stock_group": "R"
        }
      ],
      "start_date": "1920-12-02",
      "end_date": "1920-12-20",
      "prices_from": "1920-12-02",
      "prices_to": "1920-12-15",
      "is_mainstock": 0,
      "prices_count": 0
    },
    "103462": {
      "id": 103462,
      "name": "Actions Forges et Fonderies de Montataire (droit à la 2° souscription et coupon n°52), attributions",
      "share_type": {
        "id": 4,
        "name": "Rights (Droits)"
      },
      "types": [
        {
          "start_date": "1920-12-02",
          "end_date": "1920-12-20",
          "id": 502,
          "name": "Droit d'attribution",
          "stock_group": "R"
        }
      ],
      "start_date": "1920-12-02",
      "end_date": "1920-12-20",
      "prices_from": "1920-12-03",
      "prices_to": "1920-12-03",
      "is_mainstock": 0,
      "prices_count": 0
    },
    "103463": {
      "id": 103463,
      "name": "Actions Forges et Fonderies de Montataire (droit à la 2° souscription et coupon n°52), rompus",
      "share_type": {
        "id": 4,
        "name": "Rights (Droits)"
      },
      "types": [
        {
          "start_date": "1920-12-02",
          "end_date": "1920-12-20",
          "id": 501,
          "name": "Droit de souscription",
          "stock_group": "R"
        }
      ],
      "start_date": "1920-12-02",
      "end_date": "1920-12-20",
      "prices_from": "1920-12-02",
      "prices_to": "1920-12-15",
      "is_mainstock": 0,
      "prices_count": 0
    },
    "103464": {
      "id": 103464,
      "name": "Actions Forges et Fonderies de Montataire (droit et coupon 57).",
      "share_type": {
        "id": 4,
        "name": "Rights (Droits)"
      },
      "types": [
        {
          "start_date": "1923-11-26",
          "end_date": "1923-12-14",
          "id": 501,
          "name": "Droit de souscription",
          "stock_group": "R"
        }
      ],
      "start_date": "1923-11-26",
      "end_date": "1923-12-14",
      "prices_from": "1923-11-27",
      "prices_to": "1923-11-30",
      "is_mainstock": 0,
      "prices_count": 0
    }
  }
}