{
  "id": 3045,
  "names": [
    "BANQUE FRANÇAISE POUR LE COMMERCE ET L'INDUSTRIE",
    "Banque Francaise pour le Commerce et l'Industrie",
    "Banque Française pour le Commerce et l'Industrie"
  ],
  "name": "Banque Francaise pour le Commerce et l'Industrie",
  "balance_sheets": [
    {
      "start_date": "1902-07-31",
      "source": "Annuaire de la Compagnie des Agents de Change 1903",
      "page": "541"
    },
    {
      "start_date": "1907-07-31",
      "source": "Annuaire de la Compagnie des Agents de Change 1908",
      "page": "461"
    },
    {
      "start_date": "1910-07-31",
      "source": "Annuaire Desfossés 1912",
      "page": "1116"
    },
    {
      "start_date": "1910-07-31",
      "source": "Annuaire Desfossés 1912",
      "page": "188"
    },
    {
      "start_date": "1911-07-31",
      "source": "Annuaire Desfossés 1912",
      "page": "188"
    },
    {
      "start_date": "1911-07-31",
      "source": "Annuaire Desfossés 1912",
      "page": "1116"
    },
    {
      "start_date": "1912-07-31",
      "source": "Annuaire Desfossés 1914",
      "page": "205"
    },
    {
      "start_date": "1916-07-31",
      "source": "Annuaire Desfossés 1917",
      "page": "170"
    },
    {
      "start_date": "1919-06-30",
      "source": "Annuaire Desfossés 1920",
      "page": "174"
    },
    {
      "start_date": "1919-06-30",
      "source": "Annuaire Desfossés 1920",
      "page": "1177"
    },
    {
      "start_date": "1919-07-31",
      "source": "Annuaire Desfossés 1920",
      "page": "1177"
    },
    {
      "start_date": "1919-07-31",
      "source": "Annuaire Desfossés 1920",
      "page": "174"
    },
    {
      "start_date": "1920-07-31",
      "source": "Annuaire de la Compagnie des Agents de Change 1918",
      "page": null
    },
    {
      "start_date": "1921-07-31",
      "source": "Annuaire Desfossés 1923",
      "page": "201"
    }
  ],
  "balance_sheets_stats": {
    "start_date": "1902-07-31",
    "end_date": "1921-07-31"
  },
  "locations_stats": {
    "start_date": "1903-01-01",
    "end_date": "1923-12-31"
  },
  "locations": {
    "Siège social": [
      {
        "location_types_id": 1,
        "location_type": "Siège social",
        "address": "Rue boudreau, 9",
        "city": "Paris",
        "district": "Paris",
        "country": "France",
        "in_yearbook_from": 1903,
        "in_yearbook_to": 1914
      },
      {
        "location_types_id": 1,
        "location_type": "Siège social",
        "address": "Rue scribe, 17",
        "city": "Paris",
        "district": "Paris",
        "country": "France",
        "in_yearbook_from": 1917,
        "in_yearbook_to": 1923
      }
    ]
  },
  "persons": [
    {
      "persons_count": 13,
      "yearbook": "Annuaire de la Compagnie des Agents de Change 1903",
      "source": "annuaire_cac_1903",
      "page": "541"
    },
    {
      "persons_count": 18,
      "yearbook": "Annuaire de la Compagnie des Agents de Change 1908",
      "source": "annuaire_cac_1908",
      "page": "461"
    },
    {
      "persons_count": 3,
      "yearbook": "Annuaire Desfossés 1912",
      "source": "annuaire_df_1912",
      "page": "1116"
    },
    {
      "persons_count": 3,
      "yearbook": "Annuaire Desfossés 1912",
      "source": "annuaire_df_1912",
      "page": "188"
    },
    {
      "persons_count": 5,
      "yearbook": "Annuaire Desfossés 1917",
      "source": "annuaire_df_1917",
      "page": "170"
    },
    {
      "persons_count": 17,
      "yearbook": "Annuaire Desfossés 1923",
      "source": "annuaire_df_1923",
      "page": "201"
    }
  ],
  "persons_stats": {
    "persons_count": 48,
    "start_date": "1903-01-01",
    "end_date": "1923-12-31"
  },
  "yearbooks_ocrs": [
    {
      "source": "annuaire_cac_1903",
      "yearbook": "Annuaire de la Compagnie des Agents de Change 1903",
      "page": "541"
    },
    {
      "source": "annuaire_cac_1908",
      "yearbook": "Annuaire de la Compagnie des Agents de Change 1908",
      "page": "461"
    },
    {
      "source": "annuaire_df_1912",
      "yearbook": "Annuaire Desfossés 1912",
      "page": "188"
    },
    {
      "source": "annuaire_df_1912",
      "yearbook": "Annuaire Desfossés 1912",
      "page": "1116"
    },
    {
      "source": "annuaire_df_1914",
      "yearbook": "Annuaire Desfossés 1914",
      "page": "205"
    },
    {
      "source": "annuaire_df_1917",
      "yearbook": "Annuaire Desfossés 1917",
      "page": "170"
    },
    {
      "source": "annuaire_df_1920",
      "yearbook": "Annuaire Desfossés 1920",
      "page": "1177"
    },
    {
      "source": "annuaire_df_1920",
      "yearbook": "Annuaire Desfossés 1920",
      "page": "174"
    },
    {
      "source": "annuaire_df_1923",
      "yearbook": "Annuaire Desfossés 1923",
      "page": "201"
    }
  ],
  "juridical_status": [
    {
      "juridical_status": "Société Anonyme (Libre)",
      "start_date": "1901-07-26",
      "end_date": "1976-07-25",
      "comments": "Société anonyme formée par acte reçu par Me Dufour, notaire à Paris, le 25 juin 1901, et définitivement constituée le 26 juillet suivant.",
      "source": "annuaire_cac_1903"
    }
  ],
  "equity_capital": [
    {
      "amount": "60.000.000",
      "currency": "Franc",
      "infodate": "1901-07-26",
      "source": "annuaire_cac_1903",
      "comments": " 60 millions de francs, divisé en 240.000 actions Je 250 francs, émises en espèces et au pair. ur lesdites 240.000 actions, 80.000 ont été souscrites par la Banque Française de l’Afrique du Sud (en liquidation) et 80.000 par la Banque Internationale de Paris (en liquidation).\n Il a été stipulé que les versements appelés ne deviendront exigibles,sur les 160.000 actions ainsi souscrites par la Banque Française de l’Afrique du Sud et par la Banque Internationale, si ces sociétés en sont encore titulaires, qu’au far et à mesure de l’avancement de leur liquidation respective. et au plus tard le 30 juin 1903, et ce, sans intérêt de retard.\n Le dividende se pa'e aux époques fixées par le Conseil d’administration qui peut, s’il y a lieu, procéder à la répartition d’un acompte sur le dividende."
    },
    {
      "amount": "100.000.000",
      "currency": "Franc",
      "infodate": "1920-01-01",
      "source": "annuaire_df_1923",
      "comments": "100 millions de francs, divisé en 200.000 actions de 500 francs. A l’origine, 60 millions, porté en 1920.au chiffre actuel, divisé' en 400.000 actions •le 250 francs qui ont été échangées en titres de 5.00 francs en 1921."
    }
  ],
  "profit_dividends": [
    {
      "first_date": "1902-07-31",
      "last_date": "1922-07-31",
      "obs_count": 230
    }
  ],
  "public_status": false,
  "stock_exchanges": {
    "1": {
      "id": 1,
      "name": "Paris (Official List)",
      "forward_prices_stats": {
        "start_date": "1902-06-09",
        "end_date": "1914-06-30"
      },
      "listings_stats": {
        "start_date": "1902-06-09"
      },
      "spot_prices_stats": {
        "start_date": "1902-06-09",
        "end_date": "1923-08-31"
      },
      "options_prices_stats": {
        "start_date": "1905-01-16",
        "end_date": "1912-03-15"
      }
    }
  },
  "securities": {
    "5051": {
      "id": 5051,
      "name": "Banque Française pour le commerce et l'Industrie, Actions (nos 160001 à 240000) (c. 1 attaché)",
      "share_type": {
        "id": 1,
        "name": "Stock (Action)"
      },
      "types": [
        {
          "start_date": "1902-06-09",
          "end_date": "3999-12-31",
          "id": 18,
          "name": "Action",
          "stock_group": "S"
        }
      ],
      "start_date": "1902-06-09",
      "end_date": "3999-12-31",
      "prices_from": "1902-06-09",
      "prices_to": "1904-02-01",
      "is_mainstock": 1,
      "prices_count": 114
    },
    "5186": {
      "id": 5186,
      "name": "Banque Française, act. Anc. 250 fr., t.p. (c. 25)",
      "share_type": {
        "id": 1,
        "name": "Stock (Action)"
      },
      "types": [
        {
          "start_date": "1903-06-30",
          "end_date": "3999-12-31",
          "id": 18,
          "name": "Action",
          "stock_group": "S"
        }
      ],
      "start_date": "1903-06-30",
      "end_date": "3999-12-31",
      "prices_from": "1903-07-01",
      "prices_to": "1923-08-31",
      "is_mainstock": 1,
      "prices_count": 1785
    }
  }
}