{
  "id": 2246,
  "names": [
    "LA PREVOYANCE-INCENDIE COMPAGNIE D'ASSURANCES ET DE REASSURANCES CONTRE L'INCENDIE ET AUTRES RISQUES",
    "LA PREVOYANCE-INCENDIE COMPAGNIE D'ASSURANCES ET DE RÉASSURANCES CONTRE L'INCENDIE ET AUTRES RISQUES",
    "LA PREVOYANCE-INCENDIE Cie D'ASSURANCES ET DE RÉASSURANCES CONTRE L'INCENDIE",
    "LA PRÉVOYANCE INCENDIE COMPAGNIE D'ASSURANCES ET DE REASSURANCES",
    "LA PRÉVOYANCE-INCENDIE CIE D'ASSURANCES ET DE RÉASSURANCES CONTRE L'INCENDIE",
    "LA PRÉVOYANCE-INCENDIE CIE D'ASSURANCES ET DE RÉASSURANTES CONTRE L'INCENDIE",
    "LA PRÉVOYANCE-INCENDIE COMPAGNIE D'ASSURANCES ET DE RÉASSURANCES CONTRE L'INCENDIE",
    "LA PRÉVOYANCE-INCENDIE CiE D'ASSURANCES ET DE RÉASSURANCES CONTRE L'INCENDIE",
    "LA PRÉVOYANCE-INCENDIE D'ASSURANCES ET DE RÉASSURANCES CONTRE L'INCENDIE",
    "La Prévoyance (INCENDIE)"
  ],
  "name": "LA PRÉVOYANCE-INCENDIE CIE D'ASSURANCES ET DE RÉASSURANCES CONTRE L'INCENDIE",
  "balance_sheets": [
    {
      "start_date": "1921-12-31",
      "source": "Annuaire Desfossés 1923",
      "page": "172"
    },
    {
      "start_date": "1923-12-31",
      "source": "Annuaire Desfossés 1925",
      "page": "187"
    },
    {
      "start_date": "1925-12-31",
      "source": "Annuaire Desfossés 1927",
      "page": "148"
    },
    {
      "start_date": "1927-12-31",
      "source": "Annuaire Desfossés 1929",
      "page": "149"
    },
    {
      "start_date": "1929-12-31",
      "source": "Annuaire Desfossés 1931",
      "page": "149"
    },
    {
      "start_date": "1931-12-31",
      "source": "Annuaire Desfossés 1933",
      "page": "159"
    },
    {
      "start_date": "1932-12-31",
      "source": "Annuaire Desfossés 1936",
      "page": null
    },
    {
      "start_date": "1933-12-31",
      "source": "Annuaire Desfossés 1937",
      "page": "190"
    },
    {
      "start_date": "1934-12-31",
      "source": "Annuaire Desfossés 1937",
      "page": "190"
    },
    {
      "start_date": "1935-12-31",
      "source": "Annuaire Desfossés 1940",
      "page": null
    },
    {
      "start_date": "1936-12-31",
      "source": "Annuaire Desfossés 1940",
      "page": null
    },
    {
      "start_date": "1937-12-31",
      "source": "Annuaire Desfossés 1940",
      "page": null
    },
    {
      "start_date": "1938-12-31",
      "source": "Annuaire Desfossés 1945",
      "page": "219"
    },
    {
      "start_date": "1941-12-31",
      "source": "Annuaire Desfossés 1945",
      "page": "219"
    },
    {
      "start_date": "1942-12-31",
      "source": "Annuaire Desfossés 1948",
      "page": "233"
    },
    {
      "start_date": "1943-12-31",
      "source": "Annuaire Desfossés 1948",
      "page": "233"
    },
    {
      "start_date": "1944-12-31",
      "source": "Annuaire Desfossés 1948",
      "page": "233"
    },
    {
      "start_date": "1945-12-31",
      "source": "Annuaire Desfossés 1948",
      "page": "233"
    }
  ],
  "balance_sheets_stats": {
    "start_date": "1921-12-31",
    "end_date": "1945-12-31"
  },
  "locations_stats": {
    "start_date": "1923-01-01",
    "end_date": "1948-12-31"
  },
  "locations": {
    "Siège social": [
      {
        "location_types_id": 1,
        "location_type": "Siège social",
        "address": "Rue de londres, 23",
        "city": "Paris",
        "district": "Paris",
        "country": "France",
        "in_yearbook_from": 1923,
        "in_yearbook_to": 1940
      },
      {
        "location_types_id": 1,
        "location_type": "Siège social",
        "address": "Boulevard haussmann, 26",
        "city": "Paris",
        "district": "Paris",
        "country": "France",
        "in_yearbook_from": 1945,
        "in_yearbook_to": 1948
      }
    ]
  },
  "persons": [
    {
      "persons_count": 2,
      "yearbook": "Annuaire Desfossés 1923",
      "source": "annuaire_df_1923",
      "page": "172"
    },
    {
      "persons_count": 7,
      "yearbook": "Annuaire Desfossés 1927",
      "source": "annuaire_df_1927",
      "page": "148"
    },
    {
      "persons_count": 9,
      "yearbook": "Annuaire Desfossés 1933",
      "source": "annuaire_df_1933",
      "page": "159"
    },
    {
      "persons_count": 5,
      "yearbook": "Annuaire Desfossés 1940",
      "source": "annuaire_df_1940",
      "page": null
    },
    {
      "persons_count": 3,
      "yearbook": "Annuaire Desfossés 1945",
      "source": "annuaire_df_1945",
      "page": "219"
    },
    {
      "persons_count": 14,
      "yearbook": "Annuaire Desfossés 1948",
      "source": "annuaire_df_1948",
      "page": "233"
    }
  ],
  "persons_stats": {
    "persons_count": 30,
    "start_date": "1923-01-01",
    "end_date": "1948-12-31"
  },
  "yearbooks_ocrs": [
    {
      "source": "annuaire_df_1923",
      "yearbook": "Annuaire Desfossés 1923",
      "page": "172"
    },
    {
      "source": "annuaire_df_1925",
      "yearbook": "Annuaire Desfossés 1925",
      "page": "187"
    },
    {
      "source": "annuaire_df_1927",
      "yearbook": "Annuaire Desfossés 1927",
      "page": "148"
    },
    {
      "source": "annuaire_df_1929",
      "yearbook": "Annuaire Desfossés 1929",
      "page": "149"
    },
    {
      "source": "annuaire_df_1931",
      "yearbook": "Annuaire Desfossés 1931",
      "page": "149"
    },
    {
      "source": "annuaire_df_1933",
      "yearbook": "Annuaire Desfossés 1933",
      "page": "159"
    },
    {
      "source": "annuaire_df_1937",
      "yearbook": "Annuaire Desfossés 1937",
      "page": "190"
    },
    {
      "source": "annuaire_df_1940",
      "yearbook": "Annuaire Desfossés 1940",
      "page": null
    },
    {
      "source": "annuaire_df_1945",
      "yearbook": "Annuaire Desfossés 1945",
      "page": "219"
    },
    {
      "source": "annuaire_df_1948",
      "yearbook": "Annuaire Desfossés 1948",
      "page": "233"
    }
  ],
  "juridical_status": [
    {
      "juridical_status": "Société Anonyme (Libre)",
      "start_date": "1920-09-24",
      "end_date": "2019-09-24",
      "comments": "Société anonyme française, constituée le 24 septembre 1920, pour une durée de 99 ans.",
      "source": "annuaire_df_1923"
    }
  ],
  "equity_capital": [
    {
      "amount": "6.000.000",
      "currency": "Franc",
      "infodate": "1920-09-24",
      "source": "annuaire_df_1923",
      "comments": "6.000.000 francs, divisé en 60.000 actions de 100 francs, libérées le quart et nominatives."
    },
    {
      "amount": "12.000.000",
      "currency": "Franc",
      "infodate": "1943-01-01",
      "source": "annuaire_df_1945",
      "comments": "12.000.000 de francs, divisé en .120.000 actions de 100 francs, libérées de 85 • francs et nominatives. A .l’origine de 6 millions, divisé. en 60.000 actions de 100 francs. Porté en 1943 à 12 millions par l’émission, à 200 francs, de 60 000 actions de 100 francs libérées de 85 francs + la prime à la souscription et réservées aux actionnaires titre pour titre."
    }
  ],
  "profit_dividends": [
    {
      "first_date": "1920-12-31",
      "last_date": "1947-12-31",
      "obs_count": 175
    }
  ],
  "public_status": false,
  "stock_exchanges": {
    "1": {
      "id": 1,
      "name": "Paris (Official List)",
      "listings_stats": {
        "start_date": "1920-11-20"
      },
      "spot_prices_stats": {
        "start_date": "1920-11-25",
        "end_date": "1947-08-29"
      }
    }
  },
  "securities": {
    "7217": {
      "id": 7217,
      "name": "Prévoyance (La) (incendie), act. 100 fr., 85 f. p. (nom.)",
      "share_type": {
        "id": 1,
        "name": "Stock (Action)"
      },
      "types": [
        {
          "start_date": "1920-11-20",
          "end_date": "3999-12-31",
          "id": 18,
          "name": "Action",
          "stock_group": "S"
        }
      ],
      "start_date": "1920-11-20",
      "end_date": "3999-12-31",
      "prices_from": "1920-11-25",
      "prices_to": "1947-08-29",
      "is_mainstock": 1,
      "prices_count": 471
    },
    "101619": {
      "id": 101619,
      "name": "Act. La PREVOYANCE (CIE D'ASSURANCES ET DE REASSURANCES A FIXES CONTRE L'INCEND.ET AUTRES RISQUES) (bon de droit). Pour 1 act. ancienne, 1 action nouvelle émise à 200 francs",
      "share_type": {
        "id": 4,
        "name": "Rights (Droits)"
      },
      "types": [
        {
          "start_date": "1942-09-25",
          "end_date": "1943-10-26",
          "id": 501,
          "name": "Droit de souscription",
          "stock_group": "R"
        }
      ],
      "start_date": "1942-09-25",
      "end_date": "1943-10-26",
      "prices_from": "1942-09-30",
      "prices_to": "1942-11-03",
      "is_mainstock": 0,
      "prices_count": 4
    },
    "103843": {
      "id": 103843,
      "name": "Prévoyance (Incendie) (bon de droit). 1 act. Prévoyance (Risques de toute nature) cédée à 221 fr. pour 1 a. cap. ou 1 a. jouiss. Prévoyance-Acc. (Voir Avis n° 24552)",
      "share_type": {
        "id": 4,
        "name": "Rights (Droits)"
      },
      "types": [
        {
          "start_date": "1948-04-22",
          "end_date": "3999-12-31",
          "id": 501,
          "name": "Droit de souscription",
          "stock_group": "R"
        }
      ],
      "start_date": "1948-04-22",
      "end_date": "3999-12-31",
      "prices_from": null,
      "prices_to": null,
      "is_mainstock": 0,
      "prices_count": 0
    }
  }
}