{
  "id": 12258,
  "names": [
    "Aurifère Argentine"
  ],
  "name": "Aurifère Argentine",
  "balance_sheets": [],
  "balance_sheets_stats": {
    "start_date": null,
    "end_date": null
  },
  "locations_stats": {
    "start_date": null,
    "end_date": null
  },
  "locations": {},
  "persons": [],
  "persons_stats": {
    "persons_count": 0,
    "start_date": null,
    "end_date": null
  },
  "yearbooks_ocrs": [],
  "juridical_status": [],
  "equity_capital": [],
  "profit_dividends": [],
  "public_status": false,
  "stock_exchanges": {
    "2": {
      "id": 2,
      "name": "Paris OTC (Coulisse)",
      "listings_stats": {
        "start_date": "1888-12-31"
      },
      "spot_prices_stats": {
        "start_date": "1889-01-31",
        "end_date": "1892-02-29"
      }
    }
  },
  "securities": {
    "105079": {
      "id": 105079,
      "name": "Aurifere Argentine (act. de 25 f)",
      "share_type": {
        "id": 1,
        "name": "Stock (Action)"
      },
      "types": [
        {
          "start_date": "1888-12-31",
          "end_date": "1892-03-16",
          "id": 18,
          "name": "Action",
          "stock_group": "S"
        }
      ],
      "start_date": "1888-12-31",
      "end_date": "1892-03-16",
      "prices_from": "1889-01-31",
      "prices_to": "1892-02-29",
      "is_mainstock": 1,
      "prices_count": 79
    }
  }
}