{
  "id": 5577,
  "names": [
    "Eternit"
  ],
  "name": "Eternit",
  "balance_sheets": [],
  "balance_sheets_stats": {
    "start_date": null,
    "end_date": null
  },
  "locations_stats": {
    "start_date": null,
    "end_date": null
  },
  "locations": {},
  "persons": [],
  "persons_stats": {
    "persons_count": 0,
    "start_date": null,
    "end_date": null
  },
  "yearbooks_ocrs": [],
  "juridical_status": [],
  "equity_capital": [],
  "profit_dividends": [],
  "public_status": false,
  "stock_exchanges": {
    "1": {
      "id": 1,
      "name": "Paris (Official List)",
      "listings_stats": {
        "start_date": "1963-10-24"
      },
      "spot_prices_stats": {
        "start_date": "1963-10-24",
        "end_date": "1976-12-31"
      }
    }
  },
  "securities": {
    "18092": {
      "id": 18092,
      "name": "Eternit, act. (c. 9 att.)",
      "share_type": {
        "id": 1,
        "name": "Stock (Action)"
      },
      "types": [
        {
          "start_date": "1963-10-24",
          "end_date": "3999-12-31",
          "id": 18,
          "name": "Action",
          "stock_group": "S"
        }
      ],
      "start_date": "1963-10-24",
      "end_date": "3999-12-31",
      "prices_from": "1963-10-24",
      "prices_to": "1976-12-31",
      "is_mainstock": 0,
      "prices_count": 324
    },
    "19503": {
      "id": 19503,
      "name": "Lille_Bourse Eternit 6% (ex-4%) 1944 (Tir. 26/9/68) 1945-74",
      "share_type": {
        "id": 2,
        "name": "Bond (Obligation)"
      },
      "types": [
        {
          "start_date": "1967-05-02",
          "end_date": "3999-12-31",
          "id": 1001,
          "name": "Obligation ordinaire ou classique",
          "stock_group": "B"
        }
      ],
      "start_date": "1967-05-02",
      "end_date": "3999-12-31",
      "prices_from": "1967-05-16",
      "prices_to": "1969-03-17",
      "is_mainstock": 0,
      "prices_count": 45
    },
    "19504": {
      "id": 19504,
      "name": "Lille_Bourse Eternit 6% 1948 (Tir. 8/8/66). 1949-68",
      "share_type": {
        "id": 2,
        "name": "Bond (Obligation)"
      },
      "types": [
        {
          "start_date": "1967-05-02",
          "end_date": "3999-12-31",
          "id": 1001,
          "name": "Obligation ordinaire ou classique",
          "stock_group": "B"
        }
      ],
      "start_date": "1967-05-02",
      "end_date": "3999-12-31",
      "prices_from": "1967-05-02",
      "prices_to": "1967-08-31",
      "is_mainstock": 0,
      "prices_count": 8
    },
    "19505": {
      "id": 19505,
      "name": "Lille_Bourse Eternit 5% 1960, remb. À 235 F. (T. 23/1/67). 1961-78",
      "share_type": {
        "id": 2,
        "name": "Bond (Obligation)"
      },
      "types": [
        {
          "start_date": "1967-05-02",
          "end_date": "3999-12-31",
          "id": 1001,
          "name": "Obligation ordinaire ou classique",
          "stock_group": "B"
        }
      ],
      "start_date": "1967-05-02",
      "end_date": "3999-12-31",
      "prices_from": "1967-05-02",
      "prices_to": "1976-12-31",
      "is_mainstock": 0,
      "prices_count": 234
    },
    "20640": {
      "id": 20640,
      "name": "Lille_Bourse Eternit 8,75% 1970 (c. 28/9/71 att.) (Avis 71-274) 1971-85",
      "share_type": {
        "id": 2,
        "name": "Bond (Obligation)"
      },
      "types": [
        {
          "start_date": "1971-04-22",
          "end_date": "3999-12-31",
          "id": 1001,
          "name": "Obligation ordinaire ou classique",
          "stock_group": "B"
        }
      ],
      "start_date": "1971-04-22",
      "end_date": "3999-12-31",
      "prices_from": "1971-04-30",
      "prices_to": "1976-12-31",
      "is_mainstock": 0,
      "prices_count": 138
    }
  }
}