{
  "id": 5219,
  "names": [
    "FORCES MOTRICES DE L'ARIEGE",
    "FORCES MOTRICES DE L'ARIÈGE",
    "FORCES MOTRICES DE L'ARIÈGE (En liquidation)",
    "Forces Motrices de l'Ariège"
  ],
  "name": "FORCES MOTRICES DE L'ARIÈGE",
  "balance_sheets": [
    {
      "start_date": "1923-09-30",
      "source": "Annuaire Desfossés 1925",
      "page": "742"
    },
    {
      "start_date": "1926-09-30",
      "source": "Annuaire Desfossés 1927",
      "page": "567"
    },
    {
      "start_date": "1927-09-30",
      "source": "Annuaire Desfossés 1929",
      "page": "600"
    },
    {
      "start_date": "1927-09-30",
      "source": "Annuaire Desfossés 1929",
      "page": "1581"
    },
    {
      "start_date": "1928-09-30",
      "source": "Annuaire Desfossés 1929",
      "page": "600"
    },
    {
      "start_date": "1928-09-30",
      "source": "Annuaire Desfossés 1929",
      "page": "1581"
    },
    {
      "start_date": "1929-09-30",
      "source": "Annuaire Desfossés 1931",
      "page": "608"
    }
  ],
  "balance_sheets_stats": {
    "start_date": "1923-09-30",
    "end_date": "1929-09-30"
  },
  "locations_stats": {
    "start_date": "1924-01-01",
    "end_date": "1933-12-31"
  },
  "locations": {
    "Siège social": [
      {
        "location_types_id": 1,
        "location_type": "Siège social",
        "address": "Rue blanche, 5",
        "city": "Paris",
        "district": "Paris",
        "country": "France",
        "in_yearbook_from": 1924,
        "in_yearbook_to": 1933
      }
    ]
  },
  "persons": [
    {
      "persons_count": 4,
      "yearbook": "Annuaire Desfossés 1927",
      "source": "annuaire_df_1927",
      "page": "567"
    },
    {
      "persons_count": 5,
      "yearbook": "Annuaire Desfossés 1933",
      "source": "annuaire_df_1933",
      "page": "653"
    }
  ],
  "persons_stats": {
    "persons_count": 9,
    "start_date": "1927-01-01",
    "end_date": "1933-12-31"
  },
  "yearbooks_ocrs": [
    {
      "source": "annuaire_df_1925",
      "yearbook": "Annuaire Desfossés 1925",
      "page": "742"
    },
    {
      "source": "annuaire_df_1927",
      "yearbook": "Annuaire Desfossés 1927",
      "page": "567"
    },
    {
      "source": "annuaire_df_1929",
      "yearbook": "Annuaire Desfossés 1929",
      "page": "600"
    },
    {
      "source": "annuaire_df_1929",
      "yearbook": "Annuaire Desfossés 1929",
      "page": "1581"
    },
    {
      "source": "annuaire_df_1931",
      "yearbook": "Annuaire Desfossés 1931",
      "page": "608"
    },
    {
      "source": "annuaire_df_1933",
      "yearbook": "Annuaire Desfossés 1933",
      "page": "653"
    }
  ],
  "juridical_status": [
    {
      "juridical_status": "Société Anonyme (Libre)",
      "start_date": "1920-11-09",
      "end_date": "1930-01-13",
      "comments": "Société anonyme française, constituée le 9 novembre 1920, pour une durée de 75 ans.",
      "source": "annuaire_df_1933"
    },
    {
      "juridical_status": "Mise en liquidation",
      "start_date": "1930-01-14",
      "end_date": "3999-12-31",
      "comments": "L’Assemblée extraordinaire du 14 janvier 1930 a voté la fusion des Forces motrices de l’Ariège avec la Société Commentry-Fourchambauit Bases l’échange : 1 Commentry pour 3 Ariège. La liquidation de la Société a été en conséquence décidée.",
      "source": "annuaire_df_1933"
    }
  ],
  "equity_capital": [
    {
      "amount": "12.000.000",
      "currency": "Franc",
      "infodate": "1920-11-09",
      "source": "annuaire_df_1927",
      "comments": "A l’origine, 12 millions, en 48.000 actions dont 17.800 attribuées à la Société métallurgique de l’Ariège et 2.200 à la Société Hydro-Electrique des Pyrénées (Castelet) en représentation d’apports."
    },
    {
      "amount": "8.000.000",
      "currency": "Franc",
      "infodate": "1924-01-01",
      "source": "annuaire_df_1927",
      "comments": "8 millions de francs, divisé en 32.000 actions de 250 francs. A l’origine, 12 millions, en 48.000 actions dont 17.800 attribuées à la Société métallurgique de l’Ariège et 2.200 à la Société Hydro-Electrique des Pyrénées (Castelet) en représentation d’apports; le capital a été ramené à 8 millions en 1924 par voie de rachat et d’annulation de 16.000 actions."
    },
    {
      "amount": "9.600.000",
      "currency": "Franc",
      "infodate": "1929-01-01",
      "source": "annuaire_df_1933",
      "comments": "Capital social 9.600.000 francs, divisé en 38.400 actions de 250 francs dont actions O et 6.400 P (à vote plural). A l’origine, 12 millions, en 48.000 actions dont 17.800 attribuées à la Société métallurgique de l’Ariège et 2.200 à la Société Hydro-Electrique des Pyrénées (Castelet) en représentation d’apports ; le capital a été ramené à 8 millions en 1924 par voie de rachat et d’annulation de 16.000 actions et porté en janvier 1929 à 9.600.000 francs par l’émission à 350 francs de 6.400 actions nouvelles de 250 francs (1 nouvelle pour 5 anciennes)."
    }
  ],
  "profit_dividends": [
    {
      "first_date": "1921-09-30",
      "last_date": "1926-09-30",
      "obs_count": 27
    }
  ],
  "public_status": false,
  "stock_exchanges": {
    "1": {
      "id": 1,
      "name": "Paris (Official List)",
      "listings_stats": {
        "start_date": "1926-03-11"
      },
      "spot_prices_stats": {
        "start_date": "1926-03-11",
        "end_date": "1933-07-31"
      }
    }
  },
  "securities": {
    "8349": {
      "id": 8349,
      "name": "Forces Motrices de l'Ariège, act. 250 fr., t. p. (nos 16001 à 48000)",
      "share_type": {
        "id": 1,
        "name": "Stock (Action)"
      },
      "types": [
        {
          "start_date": "1926-03-11",
          "end_date": "3999-12-31",
          "id": 18,
          "name": "Action",
          "stock_group": "S"
        }
      ],
      "start_date": "1926-03-11",
      "end_date": "3999-12-31",
      "prices_from": "1926-03-11",
      "prices_to": "1933-07-31",
      "is_mainstock": 1,
      "prices_count": 123
    },
    "102497": {
      "id": 102497,
      "name": "Act. Forces Motrices de l'Ariège (droit et coupon 6). Pour 5 actions anciennes, 1 action ancienne remise à 350 francs.",
      "share_type": {
        "id": 4,
        "name": "Rights (Droits)"
      },
      "types": [
        {
          "start_date": "1929-01-07",
          "end_date": "1929-01-23",
          "id": 501,
          "name": "Droit de souscription",
          "stock_group": "R"
        }
      ],
      "start_date": "1929-01-07",
      "end_date": "1929-01-23",
      "prices_from": "1929-01-09",
      "prices_to": "1929-01-09",
      "is_mainstock": 0,
      "prices_count": 0
    }
  }
}