{
  "id": 1238,
  "names": [
    "Société Immobilière des Boulevards du Temple"
  ],
  "name": "Société Immobilière des Boulevards du Temple",
  "balance_sheets": [],
  "balance_sheets_stats": {
    "start_date": null,
    "end_date": null
  },
  "locations_stats": {
    "start_date": null,
    "end_date": null
  },
  "locations": {},
  "persons": [],
  "persons_stats": {
    "persons_count": 0,
    "start_date": null,
    "end_date": null
  },
  "yearbooks_ocrs": [],
  "juridical_status": [],
  "equity_capital": [],
  "profit_dividends": [],
  "public_status": false,
  "stock_exchanges": {
    "1": {
      "id": 1,
      "name": "Paris (Official List)",
      "listings_stats": {
        "start_date": "1863-10-23"
      },
      "spot_prices_stats": {
        "start_date": "1863-10-27",
        "end_date": "1866-02-28"
      }
    }
  },
  "securities": {
    "1419": {
      "id": 1419,
      "name": "Société Immobilière des Boulevards du Temple, act. 500 f t.p.",
      "share_type": {
        "id": 1,
        "name": "Stock (Action)"
      },
      "types": [
        {
          "start_date": "1863-10-23",
          "end_date": "3999-12-31",
          "id": 18,
          "name": "Action",
          "stock_group": "S"
        }
      ],
      "start_date": "1863-10-23",
      "end_date": "3999-12-31",
      "prices_from": "1863-10-27",
      "prices_to": "1866-02-28",
      "is_mainstock": 1,
      "prices_count": 16
    }
  }
}