{
  "id": 10929,
  "names": [
    "SOCIETE ANDELYSIENNE D'ELECTRICITE",
    "SOCIÉTÉ ANDELYSIENNE D'ELECTRICITE",
    "SOCIÉTÉ ANDELYSIENNE D'ÉLECTRICITÉ",
    "Société Andelysienne d'Electricité"
  ],
  "name": "SOCIÉTÉ ANDELYSIENNE D'ELECTRICITE",
  "balance_sheets": [
    {
      "start_date": "1931-12-31",
      "source": "Annuaire Desfossés 1933",
      "page": "577"
    },
    {
      "start_date": "1932-12-31",
      "source": "Annuaire Desfossés 1936",
      "page": null
    },
    {
      "start_date": "1933-12-31",
      "source": "Annuaire Desfossés 1937",
      "page": "620"
    },
    {
      "start_date": "1934-12-31",
      "source": "Annuaire Desfossés 1937",
      "page": "620"
    },
    {
      "start_date": "1935-12-31",
      "source": "Annuaire Desfossés 1940",
      "page": null
    },
    {
      "start_date": "1936-12-31",
      "source": "Annuaire Desfossés 1940",
      "page": null
    },
    {
      "start_date": "1937-12-31",
      "source": "Annuaire Desfossés 1940",
      "page": null
    },
    {
      "start_date": "1938-12-31",
      "source": "Annuaire Desfossés 1945",
      "page": "1370"
    },
    {
      "start_date": "1941-12-31",
      "source": "Annuaire Desfossés 1945",
      "page": "1370"
    },
    {
      "start_date": "1942-12-31",
      "source": "Annuaire Desfossés 1948",
      "page": "1484"
    },
    {
      "start_date": "1943-12-31",
      "source": "Annuaire Desfossés 1948",
      "page": "1484"
    },
    {
      "start_date": "1944-12-31",
      "source": "Annuaire Desfossés 1948",
      "page": "1484"
    },
    {
      "start_date": "1945-12-31",
      "source": "Annuaire Desfossés 1948",
      "page": "1484"
    }
  ],
  "balance_sheets_stats": {
    "start_date": "1931-12-31",
    "end_date": "1945-12-31"
  },
  "locations_stats": {
    "start_date": "1933-01-01",
    "end_date": "1953-12-31"
  },
  "locations": {
    "Siège social": [
      {
        "location_types_id": 1,
        "location_type": "Siège social",
        "address": "Rue de messine, 3",
        "city": "Paris",
        "district": "Paris",
        "country": "France",
        "in_yearbook_from": 1933,
        "in_yearbook_to": 1933
      },
      {
        "location_types_id": 1,
        "location_type": "Siège social",
        "address": "Rue de messine, 3",
        "city": "Paris",
        "district": "Paris",
        "country": "France",
        "in_yearbook_from": 1945,
        "in_yearbook_to": 1945
      },
      {
        "location_types_id": 1,
        "location_type": "Siège social",
        "address": "Avenue de friedland, 5",
        "city": "Paris",
        "district": "Paris",
        "country": "France",
        "in_yearbook_from": 1948,
        "in_yearbook_to": 1953
      }
    ],
    "Siège administratif / Bureaux": [
      {
        "location_types_id": 2,
        "location_type": "Siège administratif / Bureaux",
        "address": "Avenue de friedland, 5",
        "city": "Paris",
        "district": "Paris",
        "country": "France",
        "in_yearbook_from": 1940,
        "in_yearbook_to": 1940
      }
    ]
  },
  "persons": [
    {
      "persons_count": 11,
      "yearbook": "Annuaire Desfossés 1933",
      "source": "annuaire_df_1933",
      "page": "577"
    },
    {
      "persons_count": 8,
      "yearbook": "Annuaire Desfossés 1940",
      "source": "annuaire_df_1940",
      "page": null
    },
    {
      "persons_count": 11,
      "yearbook": "Annuaire Desfossés 1945",
      "source": "annuaire_df_1945",
      "page": "1370"
    }
  ],
  "persons_stats": {
    "persons_count": 29,
    "start_date": "1933-01-01",
    "end_date": "1945-12-31"
  },
  "yearbooks_ocrs": [
    {
      "source": "annuaire_df_1933",
      "yearbook": "Annuaire Desfossés 1933",
      "page": "577"
    },
    {
      "source": "annuaire_df_1937",
      "yearbook": "Annuaire Desfossés 1937",
      "page": "620"
    },
    {
      "source": "annuaire_df_1940",
      "yearbook": "Annuaire Desfossés 1940",
      "page": null
    },
    {
      "source": "annuaire_df_1945",
      "yearbook": "Annuaire Desfossés 1945",
      "page": "1370"
    },
    {
      "source": "annuaire_df_1948",
      "yearbook": "Annuaire Desfossés 1948",
      "page": "1484"
    },
    {
      "source": "annuaire_df_1953",
      "yearbook": "Annuaire Desfossés 1953",
      "page": "1204"
    }
  ],
  "juridical_status": [
    {
      "juridical_status": "Société Anonyme (Libre)",
      "start_date": "1913-01-01",
      "end_date": "1946-05-21",
      "comments": "Société anonyme française, constituée en 1913, pour une durée de 99 ans.",
      "source": "annuaire_df_1953"
    },
    {
      "juridical_status": "Etablissement public",
      "start_date": "1946-05-22",
      "end_date": "3999-12-31",
      "comments": "Nationalisée (loi du 8 avril 1946. « J. O. s> des 9 avril et 22 mai 1946).",
      "source": "annuaire_df_1953"
    }
  ],
  "equity_capital": [
    {
      "amount": "1.500.000",
      "currency": "Franc",
      "infodate": "1913-01-01",
      "source": "annuaire_df_1933",
      "comments": "10 millions de francs, divisé en 40.000 actions de 250 francs. A l’origine, 1.500.000 francs, porté en 1923 à 5 millions, en 1926 au chiffre actuel.\n"
    },
    {
      "amount": "5.000.000",
      "currency": "Franc",
      "infodate": "1923-01-01",
      "source": "annuaire_df_1933",
      "comments": "10 millions de francs, divisé en 40.000 actions de 250 francs. A l’origine, 1.500.000 francs, porté en 1923 à 5 millions, en 1926 au chiffre actuel."
    },
    {
      "amount": "10.000.000",
      "currency": "Franc",
      "infodate": "1926-01-01",
      "source": "annuaire_df_1933",
      "comments": "10 millions de francs, divisé en 40.000 actions de 250 francs. A l’origine, 1.500.000 francs, porté en 1923 à 5 millions, en 1926 au chiffre actuel.\n"
    },
    {
      "amount": "20.000.000",
      "currency": "Franc",
      "infodate": "1941-01-01",
      "source": "annuaire_df_1945",
      "comments": "20 millions de francs, divisé en 80000 actions de 250 fr. A .1 origine, 1.500.000 francs, porté en 1923 à 5 millions ; en 1926 à 10 millions ; en 1941 à 20 millions (émission au pair). \nLe 'Conseil est autorisé à l’élever à 25 millions."
    }
  ],
  "profit_dividends": [
    {
      "first_date": "1930-12-31",
      "last_date": "1945-12-31",
      "obs_count": 97
    }
  ],
  "public_status": false
}