{
  "id": 7108,
  "names": [
    "Sté du Quartier neuf du Luxembourg"
  ],
  "name": "Sté du Quartier neuf du Luxembourg",
  "balance_sheets": [],
  "balance_sheets_stats": {
    "start_date": null,
    "end_date": null
  },
  "locations_stats": {
    "start_date": null,
    "end_date": null
  },
  "locations": {},
  "persons": [],
  "persons_stats": {
    "persons_count": 0,
    "start_date": null,
    "end_date": null
  },
  "yearbooks_ocrs": [],
  "juridical_status": [],
  "equity_capital": [],
  "profit_dividends": [],
  "public_status": false,
  "stock_exchanges": {
    "1": {
      "id": 1,
      "name": "Paris (Official List)",
      "listings_stats": {
        "start_date": "1865-02-03"
      },
      "spot_prices_stats": {
        "start_date": "1865-03-15",
        "end_date": "1865-03-15"
      }
    }
  },
  "securities": {
    "25005": {
      "id": 25005,
      "name": "S du Quartiér neuf du Luxembourg, act. 500f.p., 31 dec. 1864.",
      "share_type": {
        "id": 1,
        "name": "Stock (Action)"
      },
      "types": [
        {
          "start_date": "1000-01-01",
          "end_date": "3999-12-31",
          "id": 18,
          "name": "Action",
          "stock_group": "S"
        }
      ],
      "start_date": "1600-01-01",
      "end_date": "3999-12-31",
      "prices_from": "1865-03-15",
      "prices_to": "1865-03-15",
      "is_mainstock": 0,
      "prices_count": 1
    }
  }
}