{
  "id": 3238,
  "names": [
    "SOCIÉTÉ MINIERE ET INDUSTRIELLE DE ROUTCHENKO",
    "SOCIÉTÉ MINIÈRE ET INDUSTRIELLE DE ROUTCHENKO",
    "Société minière et industrielle de Routchenko"
  ],
  "name": "SOCIÉTÉ MINIERE ET INDUSTRIELLE DE ROUTCHENKO",
  "balance_sheets": [
    {
      "start_date": "1911-12-31",
      "source": "Annuaire Desfossés 1912",
      "page": "718"
    },
    {
      "start_date": "1912-12-31",
      "source": "Annuaire Desfossés 1914",
      "page": "784"
    }
  ],
  "balance_sheets_stats": {
    "start_date": "1911-12-31",
    "end_date": "1912-12-31"
  },
  "locations_stats": {
    "start_date": "1903-01-01",
    "end_date": "1923-12-31"
  },
  "locations": {
    "Siège social": [
      {
        "location_types_id": 1,
        "location_type": "Siège social",
        "address": "Avenue de la toison-d'or, 110",
        "city": "Bruxelles",
        "district": "District fictif",
        "country": "Belgique",
        "in_yearbook_from": 1903,
        "in_yearbook_to": 1923
      }
    ],
    "Mines / Carrières / Pétrole / Gaz": [
      {
        "location_types_id": 7,
        "location_type": "Mines / Carrières / Pétrole / Gaz",
        "address": null,
        "city": null,
        "district": null,
        "country": "Union des républiques socialistes soviétiques",
        "in_yearbook_from": 1917,
        "in_yearbook_to": 1917
      }
    ]
  },
  "persons": [
    {
      "persons_count": 4,
      "yearbook": "Annuaire de la Compagnie des Agents de Change 1903",
      "source": "annuaire_cac_1903",
      "page": "1939"
    },
    {
      "persons_count": 6,
      "yearbook": "Annuaire de la Compagnie des Agents de Change 1908",
      "source": "annuaire_cac_1908",
      "page": "1633"
    },
    {
      "persons_count": 10,
      "yearbook": "Annuaire Desfossés 1912",
      "source": "annuaire_df_1912",
      "page": "718"
    },
    {
      "persons_count": 2,
      "yearbook": "Annuaire Desfossés 1923",
      "source": "annuaire_df_1923",
      "page": "875"
    },
    {
      "persons_count": 1,
      "yearbook": null,
      "source": null,
      "page": null
    }
  ],
  "persons_stats": {
    "persons_count": 17,
    "start_date": "1903-01-01",
    "end_date": "1923-12-31"
  },
  "yearbooks_ocrs": [
    {
      "source": "annuaire_cac_1903",
      "yearbook": "Annuaire de la Compagnie des Agents de Change 1903",
      "page": "1939"
    },
    {
      "source": "annuaire_cac_1908",
      "yearbook": "Annuaire de la Compagnie des Agents de Change 1908",
      "page": "1633"
    },
    {
      "source": "annuaire_df_1912",
      "yearbook": "Annuaire Desfossés 1912",
      "page": "718"
    },
    {
      "source": "annuaire_df_1914",
      "yearbook": "Annuaire Desfossés 1914",
      "page": "784"
    },
    {
      "source": "annuaire_df_1917",
      "yearbook": "Annuaire Desfossés 1917",
      "page": "715"
    },
    {
      "source": "annuaire_df_1920",
      "yearbook": "Annuaire Desfossés 1920",
      "page": "784"
    },
    {
      "source": "annuaire_df_1923",
      "yearbook": "Annuaire Desfossés 1923",
      "page": "875"
    }
  ],
  "juridical_status": [
    {
      "juridical_status": "Société anonyme belge",
      "start_date": "1897-02-01",
      "end_date": "1912-08-11",
      "comments": "Société anonyme belge formée suivant acte passé devant M8 Van Halteren, notaire à Bruxelles, le 1er février 1897. [souce annuaire 1903]",
      "source": "annuaire_df_1923"
    },
    {
      "juridical_status": "Mise en liquidation",
      "start_date": "1912-08-12",
      "end_date": "3999-12-31",
      "comments": "NOTA. — Par une résolution de l’assemblée extraordinaire en date.du 12 août 1912, les actionnaires ont voté l’apport de l’actif social à la Société des Usines de Briansk ainsi que ia dissolution anticipée de la Société.",
      "source": "annuaire_df_1923"
    }
  ],
  "equity_capital": [
    {
      "amount": "16.000.000",
      "currency": "Franc",
      "infodate": "1897-02-01",
      "source": "annuaire_cac_1903",
      "comments": "16 millions de francs, divisé en 32,000 actions de 500 ,raacs! libérées et au porteur sur lesquelles 30,000 ont été attribuées à la ^ciété Minière et Industrielle, en représentation de ses apports, et 2,000 0Bl souscrites en espèces et au pair, hes intérêts et dividendes se pavent ordinairement en juin."
    },
    {
      "amount": "18.500.000",
      "currency": "Franc",
      "infodate": "1903-06-24",
      "source": "annuaire_cac_1908",
      "comments": "Fixé à l’origine à 16 millions de francs, et divisé en 32,000 actions de 500 francs, sur lesquelles 30,000 ont été attribuées à la Société Minière et Industrielle, en représentation de ses apports, et2,000 ont été souscrites sn espèces et au pair ; le capital social a été porté à 18.500.000francs par 1 émission au pair de 5,000 actions nouvelles de 500 francs (assemblée générale du '•* juin 1903)."
    }
  ],
  "profit_dividends": [
    {
      "first_date": "1897-12-31",
      "last_date": "1910-12-31",
      "obs_count": 31
    }
  ],
  "public_status": false,
  "stock_exchanges": {
    "1": {
      "id": 1,
      "name": "Paris (Official List)",
      "listings_stats": {
        "start_date": "1900-07-24"
      },
      "spot_prices_stats": {
        "start_date": "1900-07-24",
        "end_date": "1914-07-15"
      }
    }
  },
  "securities": {
    "5022": {
      "id": 5022,
      "name": "Routchenko (Soc. Minière et industrielle de), act. 500 fr., tout payé",
      "share_type": {
        "id": 1,
        "name": "Stock (Action)"
      },
      "types": [
        {
          "start_date": "1900-07-24",
          "end_date": "3999-12-31",
          "id": 18,
          "name": "Action",
          "stock_group": "S"
        }
      ],
      "start_date": "1900-07-24",
      "end_date": "3999-12-31",
      "prices_from": "1900-07-24",
      "prices_to": "1913-12-31",
      "is_mainstock": 1,
      "prices_count": 115
    },
    "5447": {
      "id": 5447,
      "name": "Routchenko 4%, remb. à 500 fr",
      "share_type": {
        "id": 2,
        "name": "Bond (Obligation)"
      },
      "types": [
        {
          "start_date": "1904-12-05",
          "end_date": "3999-12-31",
          "id": 1001,
          "name": "Obligation ordinaire ou classique",
          "stock_group": "B"
        }
      ],
      "start_date": "1904-12-05",
      "end_date": "3999-12-31",
      "prices_from": "1904-12-15",
      "prices_to": "1913-12-15",
      "is_mainstock": 0,
      "prices_count": 155
    },
    "6663": {
      "id": 6663,
      "name": "Routchenko (Sté Minière et Industrielle de) (en liquidation)",
      "share_type": {
        "id": 1,
        "name": "Stock (Action)"
      },
      "types": [
        {
          "start_date": "1914-06-30",
          "end_date": "3999-12-31",
          "id": 18,
          "name": "Action",
          "stock_group": "S"
        }
      ],
      "start_date": "1914-02-20",
      "end_date": "3999-12-31",
      "prices_from": "1914-06-30",
      "prices_to": "1914-07-15",
      "is_mainstock": 0,
      "prices_count": 2
    }
  }
}