{
  "id": 4252,
  "names": [
    "L'IMPRESSION DES DOCUMENTS MULTIPLES",
    "L'Impression des Documents Multiples"
  ],
  "name": "L'IMPRESSION DES DOCUMENTS MULTIPLES",
  "balance_sheets": [
    {
      "start_date": "1934-12-31",
      "source": "Annuaire Desfossés 1937",
      "page": "1955"
    },
    {
      "start_date": "1935-12-31",
      "source": "Annuaire Desfossés 1940",
      "page": null
    },
    {
      "start_date": "1936-12-31",
      "source": "Annuaire Desfossés 1940",
      "page": null
    },
    {
      "start_date": "1937-12-31",
      "source": "Annuaire Desfossés 1940",
      "page": null
    },
    {
      "start_date": "1939-12-31",
      "source": "Annuaire Desfossés 1945",
      "page": "2227"
    },
    {
      "start_date": "1942-12-31",
      "source": "Annuaire Desfossés 1945",
      "page": "2227"
    },
    {
      "start_date": "1943-12-31",
      "source": "Annuaire Desfossés 1948",
      "page": "2575"
    },
    {
      "start_date": "1944-12-31",
      "source": "Annuaire Desfossés 1948",
      "page": "2575"
    },
    {
      "start_date": "1945-12-31",
      "source": "Annuaire Desfossés 1948",
      "page": "2575"
    },
    {
      "start_date": "1947-12-31",
      "source": "Annuaire Desfossés 1948",
      "page": "2575"
    },
    {
      "start_date": "1948-12-31",
      "source": "Annuaire Desfossés 1953",
      "page": "2187"
    },
    {
      "start_date": "1949-12-31",
      "source": "Annuaire Desfossés 1953",
      "page": "2187"
    },
    {
      "start_date": "1950-12-31",
      "source": "Annuaire Desfossés 1953",
      "page": "2187"
    },
    {
      "start_date": "1951-12-31",
      "source": "Annuaire Desfossés 1953",
      "page": "2187"
    }
  ],
  "balance_sheets_stats": {
    "start_date": "1934-12-31",
    "end_date": "1951-12-31"
  },
  "locations_stats": {
    "start_date": "1937-01-01",
    "end_date": "1953-12-31"
  },
  "locations": {
    "Siège social": [
      {
        "location_types_id": 1,
        "location_type": "Siège social",
        "address": "Rue de l'ourcq, 33 et 35",
        "city": "Paris",
        "district": "Paris",
        "country": "France",
        "in_yearbook_from": 1937,
        "in_yearbook_to": 1945
      },
      {
        "location_types_id": 1,
        "location_type": "Siège social",
        "address": "Rue de l'ourcq, 29 à 35",
        "city": "Paris",
        "district": "Paris",
        "country": "France",
        "in_yearbook_from": 1948,
        "in_yearbook_to": 1953
      }
    ]
  },
  "persons": [
    {
      "persons_count": 1,
      "yearbook": "Annuaire Desfossés 1940",
      "source": "annuaire_df_1940",
      "page": null
    },
    {
      "persons_count": 5,
      "yearbook": "Annuaire Desfossés 1945",
      "source": "annuaire_df_1945",
      "page": "2227"
    },
    {
      "persons_count": 2,
      "yearbook": "Annuaire Desfossés 1948",
      "source": "annuaire_df_1948",
      "page": "2575"
    },
    {
      "persons_count": 7,
      "yearbook": "Annuaire Desfossés 1953",
      "source": "annuaire_df_1953",
      "page": "2187"
    }
  ],
  "persons_stats": {
    "persons_count": 12,
    "start_date": "1940-01-01",
    "end_date": "1953-12-31"
  },
  "yearbooks_ocrs": [
    {
      "source": "annuaire_df_1937",
      "yearbook": "Annuaire Desfossés 1937",
      "page": "1955"
    },
    {
      "source": "annuaire_df_1940",
      "yearbook": "Annuaire Desfossés 1940",
      "page": null
    },
    {
      "source": "annuaire_df_1945",
      "yearbook": "Annuaire Desfossés 1945",
      "page": "2227"
    },
    {
      "source": "annuaire_df_1948",
      "yearbook": "Annuaire Desfossés 1948",
      "page": "2575"
    },
    {
      "source": "annuaire_df_1953",
      "yearbook": "Annuaire Desfossés 1953",
      "page": "2187"
    }
  ],
  "juridical_status": [
    {
      "juridical_status": "Société Anonyme (Libre)",
      "start_date": "1927-01-01",
      "end_date": "2026-01-01",
      "comments": "Constitution: 'Société anonyme française constituée en 1927 pour 99 ans",
      "source": "annuaire_df_1940"
    }
  ],
  "equity_capital": [
    {
      "amount": "6.000.000",
      "currency": "Franc",
      "infodate": "1927-01-01",
      "source": "annuaire_df_1940",
      "comments": " A l’origine, 6 millions"
    },
    {
      "amount": "9.000.000",
      "currency": "Franc",
      "infodate": "1930-01-01",
      "source": "annuaire_df_1940",
      "comments": "Capital : 7 millions en 28.000 actions de 250 francs. A l’origine, 6 millions, porté en 1930 à 9 millions. Réduit à 7 millions en juillet 1936 par le rachat et l’annulation de 8.000 actions. Le Conseil est autorisé à porter le capital à 10 millions."
    },
    {
      "amount": "7.000.000",
      "currency": "Franc",
      "infodate": "1936-07-01",
      "source": "annuaire_df_1940",
      "comments": "Capital : 7 millions en 28.000 actions de 250 francs. A l’origine, 6 millions, porté en 1930 à 9 millions. Réduit à 7 millions en juillet 1936 par le rachat et l’annulation de 8.000 actions. Le Conseil est autorisé à porter le capital à 10 millions."
    },
    {
      "amount": "8.500.000",
      "currency": "Franc",
      "infodate": "1945-01-01",
      "source": "annuaire_df_1945",
      "comments": "Capital : 8.500.000 fr., divisé en 34.000 actions de 250 fr. A -l'origine, 6 millions, porté en 1930 à 9 millions. Réduit à 7 millions en juillet 1936 par le rachat et l’annulation de 8.000 actions. Porté en 1945, à 8.500.000 fr. par incorporation de réserves, et création de 6.000 actions nouvelles de 250 fr. attribuées exclusivement aux porteurs de parts en remplacement de leurs titres (3 actions nouvelles pour 5 parts). Le Conseil est autorisé à porter le capital à 10 millions."
    },
    {
      "amount": "42.500.000",
      "currency": "Franc",
      "infodate": "1947-01-01",
      "source": "annuaire_df_1948",
      "comments": "Capital : 42.500.000 , fr., divise en 170.000 act. de 250 fr. A 1 origine, 6 millions, porte en 1930 à 9 millions. Réduit à 7 millions en juillet 1936 par le rachat et l'annulation de 8.000 actions. Porté en 1945, à 8.599.000 fr. par incorporation de réserves, et création de 6.000 actions nouvelles de 250 fr. attribuées exclusivement aux porteurs de parts en remplacement de leurs titres (3 actions nouvelles pour 5 parts). Le Conseil est autorisé remplacement de leurs titres (3 actions nouvelles pour 5 parts). Porté en 1947 ' à 42.500.000 fr. par création de 102.000 actions réparties gratuitement (3 nouv. pour 1 anc.) et par l'émission au pair de 34.000 actions de 250 fr. (1 nouv. pour 1 ane.)."
    },
    {
      "amount": "51.000.000",
      "currency": "Franc",
      "infodate": "1950-01-01",
      "source": "annuaire_df_1953",
      "comments": "CAPITAL : 51 millions de fr., divisé en 42.500 actions de 1.200 fr., obligatoirement nominatives. A rorigine, 6 millions, porté en 1930 à 9 millions. Réduit à 7 millions en juillet 1936 par le rachat et l'annulation de 8.000 actions. Porté en 1945 à 8.500.000 fr. par incorporation de réserves, et création de 6.000 actions nouvelles de 250 fr. attribuées exclusivement aux porteurs de parts en remplacement de leurs titres (3 actions nouvelles pour 5 parts). Porté en 1947 à 42.500.000 fr. par création de 102.000 actions réparties gratuitement (3 nouv. pour 1 anc.) et par l'émission au pair de 34.000 actions de 250 fr. (1 nouv. pour 1 anc.). Porté en 1950 à 51 millions par l'élévation dû nominal à 300 fr., puis titres regroupés à partir du 6 novembre 1950."
    }
  ],
  "profit_dividends": [
    {
      "first_date": "1932-12-31",
      "last_date": "1951-12-31",
      "obs_count": 118
    }
  ],
  "public_status": false,
  "stock_exchanges": {
    "1": {
      "id": 1,
      "name": "Paris (Official List)",
      "listings_stats": {
        "start_date": "1948-09-15"
      },
      "spot_prices_stats": {
        "start_date": "1948-09-15",
        "end_date": "1971-12-15"
      }
    }
  },
  "securities": {
    "12968": {
      "id": 12968,
      "name": "Impression de Documents Multiples (L'), act. 300 fr., t.p. (n°s 1 à 178000) (nom.)",
      "share_type": {
        "id": 1,
        "name": "Stock (Action)"
      },
      "types": [
        {
          "start_date": "1948-09-15",
          "end_date": "3999-12-31",
          "id": 18,
          "name": "Action",
          "stock_group": "S"
        }
      ],
      "start_date": "1948-09-15",
      "end_date": "3999-12-31",
      "prices_from": "1948-09-15",
      "prices_to": "1951-10-01",
      "is_mainstock": 0,
      "prices_count": 74
    },
    "13899": {
      "id": 13899,
      "name": "Documents Multiples (Impression des), act. (nom.)",
      "share_type": {
        "id": 1,
        "name": "Stock (Action)"
      },
      "types": [
        {
          "start_date": "1950-11-06",
          "end_date": "3999-12-31",
          "id": 11,
          "name": "Action ordinaire",
          "stock_group": "S"
        }
      ],
      "start_date": "1950-11-06",
      "end_date": "3999-12-31",
      "prices_from": "1951-04-16",
      "prices_to": "1962-05-15",
      "is_mainstock": 0,
      "prices_count": 284
    },
    "16161": {
      "id": 16161,
      "name": "Documents Multiples (L'Impression des), actions (nom.)",
      "share_type": {
        "id": 1,
        "name": "Stock (Action)"
      },
      "types": [
        {
          "start_date": "1960-05-23",
          "end_date": "3999-12-31",
          "id": 18,
          "name": "Action",
          "stock_group": "S"
        }
      ],
      "start_date": "1960-05-23",
      "end_date": "3999-12-31",
      "prices_from": "1960-05-23",
      "prices_to": "1971-12-15",
      "is_mainstock": 0,
      "prices_count": 279
    }
  }
}