{
  "id": 5092,
  "names": [
    "Forges et Ateliers de la Chaléassière (Leflaive et Cie)",
    "SOCIÉTÉ DES FORGES ET ATELIERS DE LA CHALÉASSIÈRE (LEFLAIVE ET CIE)"
  ],
  "name": "Forges et Ateliers de la Chaléassière (Leflaive et Cie)",
  "balance_sheets": [
    {
      "start_date": "1922-06-30",
      "source": "Annuaire Desfossés 1923",
      "page": "723"
    },
    {
      "start_date": "1924-06-30",
      "source": "Annuaire Desfossés 1925",
      "page": "826"
    }
  ],
  "balance_sheets_stats": {
    "start_date": "1922-06-30",
    "end_date": "1924-06-30"
  },
  "locations_stats": {
    "start_date": "1923-01-01",
    "end_date": "1924-12-31"
  },
  "locations": {
    "Siège social": [
      {
        "location_types_id": 1,
        "location_type": "Siège social",
        "address": "La chaléassière",
        "city": "Saint-Étienne",
        "district": "Loire",
        "country": "France",
        "in_yearbook_from": 1923,
        "in_yearbook_to": 1924
      }
    ]
  },
  "persons": [
    {
      "persons_count": 5,
      "yearbook": "Annuaire Desfossés 1923",
      "source": "annuaire_df_1923",
      "page": "723"
    }
  ],
  "persons_stats": {
    "persons_count": 5,
    "start_date": "1923-01-01",
    "end_date": "1923-12-31"
  },
  "yearbooks_ocrs": [
    {
      "source": "annuaire_df_1923",
      "yearbook": "Annuaire Desfossés 1923",
      "page": "723"
    },
    {
      "source": "annuaire_df_1925",
      "yearbook": "Annuaire Desfossés 1925",
      "page": "826"
    }
  ],
  "juridical_status": [
    {
      "juridical_status": "Société en Commandite par actions",
      "start_date": "1867-04-11",
      "end_date": "1977-04-11",
      "comments": "Société en commandite par actions, constituée le 11 avril 1867; pour une durée expirant le 11 avril 1977.",
      "source": "annuaire_df_1923"
    }
  ],
  "equity_capital": [
    {
      "amount": "2.500.000",
      "currency": "Franc",
      "infodate": "1867-04-11",
      "source": "annuaire_df_1923",
      "comments": "20.000.000 francs,, divisé en 40.000 actions de 500 francs.  Al’origine 2.500.000 francs porté à  4 millions en 1908, à 5 millions en 1912, à 10 millions en 1918 et au chiffre actuel en 1920.\n"
    },
    {
      "amount": "4.000.000",
      "currency": "Franc",
      "infodate": "1908-01-01",
      "source": "annuaire_df_1923",
      "comments": "20.000.000 francs,, divisé en 40.000 actions de 500 francs.  Al’origine 2.500.000 francs porté à  4 millions en 1908, à 5 millions en 1912, à 10 millions en 1918 et au chiffre actuel en 1920.\n"
    },
    {
      "amount": "5.000.000",
      "currency": "Franc",
      "infodate": "1912-01-01",
      "source": "annuaire_df_1923",
      "comments": "20.000.000 francs,, divisé en 40.000 actions de 500 francs.  Al’origine 2.500.000 francs porté à  4 millions en 1908, à 5 millions en 1912, à 10 millions en 1918 et au chiffre actuel en 1920."
    },
    {
      "amount": "10.000.000",
      "currency": "Franc",
      "infodate": "1918-01-01",
      "source": "annuaire_df_1923",
      "comments": "20.000.000 francs,, divisé en 40.000 actions de 500 francs.  Al’origine 2.500.000 francs porté à  4 millions en 1908, à 5 millions en 1912, à 10 millions en 1918 et au chiffre actuel en 1920.\n"
    },
    {
      "amount": "20.000.000",
      "currency": "Franc",
      "infodate": "1920-01-01",
      "source": "annuaire_df_1923",
      "comments": "20.000.000 francs,, divisé en 40.000 actions de 500 francs.  Al’origine 2.500.000 francs porté à  4 millions en 1908, à 5 millions en 1912, à 10 millions en 1918 et au chiffre actuel en 1920.\n"
    }
  ],
  "profit_dividends": [
    {
      "first_date": "1921-06-30",
      "last_date": "1922-06-30",
      "obs_count": 7
    }
  ],
  "public_status": false,
  "stock_exchanges": {
    "1": {
      "id": 1,
      "name": "Paris (Official List)",
      "listings_stats": {
        "start_date": "1921-12-06"
      },
      "spot_prices_stats": {
        "start_date": "1921-12-06",
        "end_date": "1925-10-15"
      }
    }
  },
  "securities": {
    "7511": {
      "id": 7511,
      "name": "Forges et Ateliers de la Chaléassière (Leflaive et Cie), act. de 500 fr., t. p.",
      "share_type": {
        "id": 1,
        "name": "Stock (Action)"
      },
      "types": [
        {
          "start_date": "1921-12-06",
          "end_date": "3999-12-31",
          "id": 18,
          "name": "Action",
          "stock_group": "S"
        }
      ],
      "start_date": "1921-12-06",
      "end_date": "3999-12-31",
      "prices_from": "1921-12-06",
      "prices_to": "1925-05-15",
      "is_mainstock": 1,
      "prices_count": 39
    },
    "7553": {
      "id": 7553,
      "name": "Forges et Ateliers de la Chaléassière (Leflaive et Cie), 6% 1918 (fév-août), remb à 500 fr (n°9001 à 29000)",
      "share_type": {
        "id": 2,
        "name": "Bond (Obligation)"
      },
      "types": [
        {
          "start_date": "1921-12-06",
          "end_date": "3999-12-31",
          "id": 1001,
          "name": "Obligation ordinaire ou classique",
          "stock_group": "B"
        }
      ],
      "start_date": "1921-12-06",
      "end_date": "3999-12-31",
      "prices_from": "1921-12-06",
      "prices_to": "1925-06-02",
      "is_mainstock": 0,
      "prices_count": 25
    },
    "7556": {
      "id": 7556,
      "name": "Forges et Ateliers de la Chaléassière (Leflaive et Cie), 6% 1920 (janv-juil), remb à 500 fr (n°29000 à 49000)",
      "share_type": {
        "id": 2,
        "name": "Bond (Obligation)"
      },
      "types": [
        {
          "start_date": "1921-12-06",
          "end_date": "3999-12-31",
          "id": 1001,
          "name": "Obligation ordinaire ou classique",
          "stock_group": "B"
        }
      ],
      "start_date": "1921-12-06",
      "end_date": "3999-12-31",
      "prices_from": "1921-12-06",
      "prices_to": "1925-10-15",
      "is_mainstock": 0,
      "prices_count": 22
    }
  }
}