{
  "id": 10114,
  "names": [
    "LENA GOLDFIELDS LTD",
    "LENA GOLDFIELDS, LIMITED",
    "Lena Goldfields Ltd"
  ],
  "name": "LENA GOLDFIELDS LTD",
  "balance_sheets": [
    {
      "start_date": "1911-09-30",
      "source": "Annuaire Desfossés 1912",
      "page": "833"
    },
    {
      "start_date": "1912-09-30",
      "source": "Annuaire Desfossés 1914",
      "page": "896"
    },
    {
      "start_date": "1915-09-30",
      "source": "Annuaire Desfossés 1917",
      "page": "1087"
    },
    {
      "start_date": "1915-09-30",
      "source": "Annuaire Desfossés 1917",
      "page": "816"
    },
    {
      "start_date": "1916-09-30",
      "source": "Annuaire Desfossés 1917",
      "page": "1087"
    },
    {
      "start_date": "1916-09-30",
      "source": "Annuaire Desfossés 1917",
      "page": "816"
    },
    {
      "start_date": "1919-09-30",
      "source": "Annuaire Desfossés 1923",
      "page": "990"
    },
    {
      "start_date": "1923-09-30",
      "source": "Annuaire Desfossés 1925",
      "page": "1125"
    },
    {
      "start_date": "1925-11-30",
      "source": "Annuaire Desfossés 1927",
      "page": "909"
    },
    {
      "start_date": "1927-12-31",
      "source": "Annuaire Desfossés 1929",
      "page": "963"
    },
    {
      "start_date": "1928-12-31",
      "source": "Annuaire Desfossés 1933",
      "page": "1037"
    },
    {
      "start_date": "1929-12-31",
      "source": "Annuaire Desfossés 1931",
      "page": "981"
    }
  ],
  "balance_sheets_stats": {
    "start_date": "1911-09-30",
    "end_date": "1929-12-31"
  },
  "locations_stats": {
    "start_date": "1912-01-01",
    "end_date": "1933-12-31"
  },
  "locations": {
    "Siège social": [
      {
        "location_types_id": 1,
        "location_type": "Siège social",
        "address": "Salisbury house, 441",
        "city": "Londres",
        "district": "Angleterre",
        "country": "Grande Bretagne et Irlande du Nord",
        "in_yearbook_from": 1912,
        "in_yearbook_to": 1923
      },
      {
        "location_types_id": 1,
        "location_type": "Siège social",
        "address": "Salisbury house, 341",
        "city": "Londres",
        "district": "Angleterre",
        "country": "Grande Bretagne et Irlande du Nord",
        "in_yearbook_from": 1927,
        "in_yearbook_to": 1927
      },
      {
        "location_types_id": 1,
        "location_type": "Siège social",
        "address": "London wall buildings",
        "city": "Londres",
        "district": "Angleterre",
        "country": "Grande Bretagne et Irlande du Nord",
        "in_yearbook_from": 1928,
        "in_yearbook_to": 1928
      },
      {
        "location_types_id": 1,
        "location_type": "Siège social",
        "address": "Broad street place, 2",
        "city": "Londres",
        "district": "Angleterre",
        "country": "Grande Bretagne et Irlande du Nord",
        "in_yearbook_from": 1933,
        "in_yearbook_to": 1933
      }
    ],
    "Siège administratif / Bureaux": [
      {
        "location_types_id": 2,
        "location_type": "Siège administratif / Bureaux",
        "address": "Rue des pyramides, 12",
        "city": "Paris",
        "district": "Paris",
        "country": "France",
        "in_yearbook_from": 1917,
        "in_yearbook_to": 1917
      }
    ],
    "Agences / Succursales": [
      {
        "location_types_id": 4,
        "location_type": "Agences / Succursales",
        "address": "Rue des pyramides, 12",
        "city": "Paris",
        "district": "Paris",
        "country": "France",
        "in_yearbook_from": 1912,
        "in_yearbook_to": 1912
      },
      {
        "location_types_id": 4,
        "location_type": "Agences / Succursales",
        "address": null,
        "city": "Petrograd",
        "district": null,
        "country": "Union des républiques socialistes soviétiques",
        "in_yearbook_from": 1912,
        "in_yearbook_to": 1917
      }
    ]
  },
  "persons": [
    {
      "persons_count": 3,
      "yearbook": "Annuaire Desfossés 1912",
      "source": "annuaire_df_1912",
      "page": "833"
    },
    {
      "persons_count": 5,
      "yearbook": "Annuaire Desfossés 1917",
      "source": "annuaire_df_1917",
      "page": "816"
    },
    {
      "persons_count": 5,
      "yearbook": "Annuaire Desfossés 1917",
      "source": "annuaire_df_1917",
      "page": "1087"
    },
    {
      "persons_count": 3,
      "yearbook": "Annuaire Desfossés 1923",
      "source": "annuaire_df_1923",
      "page": "990"
    },
    {
      "persons_count": 4,
      "yearbook": "Annuaire Desfossés 1927",
      "source": "annuaire_df_1927",
      "page": "909"
    },
    {
      "persons_count": 6,
      "yearbook": "Annuaire Desfossés 1933",
      "source": "annuaire_df_1933",
      "page": "1037"
    }
  ],
  "persons_stats": {
    "persons_count": 20,
    "start_date": "1912-01-01",
    "end_date": "1933-12-31"
  },
  "yearbooks_ocrs": [
    {
      "source": "annuaire_df_1912",
      "yearbook": "Annuaire Desfossés 1912",
      "page": "833"
    },
    {
      "source": "annuaire_df_1914",
      "yearbook": "Annuaire Desfossés 1914",
      "page": "896"
    },
    {
      "source": "annuaire_df_1917",
      "yearbook": "Annuaire Desfossés 1917",
      "page": "1087"
    },
    {
      "source": "annuaire_df_1917",
      "yearbook": "Annuaire Desfossés 1917",
      "page": "816"
    },
    {
      "source": "annuaire_df_1920",
      "yearbook": "Annuaire Desfossés 1920",
      "page": "893"
    },
    {
      "source": "annuaire_df_1923",
      "yearbook": "Annuaire Desfossés 1923",
      "page": "990"
    },
    {
      "source": "annuaire_df_1925",
      "yearbook": "Annuaire Desfossés 1925",
      "page": "1125"
    },
    {
      "source": "annuaire_df_1927",
      "yearbook": "Annuaire Desfossés 1927",
      "page": "909"
    },
    {
      "source": "annuaire_df_1929",
      "yearbook": "Annuaire Desfossés 1929",
      "page": "963"
    },
    {
      "source": "annuaire_df_1931",
      "yearbook": "Annuaire Desfossés 1931",
      "page": "981"
    },
    {
      "source": "annuaire_df_1933",
      "yearbook": "Annuaire Desfossés 1933",
      "page": "1037"
    }
  ],
  "juridical_status": [
    {
      "juridical_status": "Société anonyme anglaise",
      "start_date": "1908-07-10",
      "end_date": "3999-12-31",
      "comments": "Société anonyme anglaise, constituée le 10 juillet 1908.",
      "source": "annuaire_df_1917"
    }
  ],
  "equity_capital": [
    {
      "amount": "1.405.000",
      "currency": "Livre Sterling (Pound)",
      "infodate": "1908-07-10",
      "source": "annuaire_df_1917",
      "comments": "£ 1.405.000, divisé en 1.405.000 actions de £ 1. sur lesquelles 1.158.297 sont émises et entièrement libérées."
    },
    {
      "amount": "4.105.000",
      "currency": "Livre Sterling (Pound)",
      "infodate": "1924-01-01",
      "source": "annuaire_df_1927",
      "comments": " £ 4.105.000, divisé en 4.105.000 actions de £1 sur lesquelles 3 millions 634.288 ont été émises. A l’origine, £ 1.405.000, divisé en 1.405.000 actions de £ 1 ; porté en 1924 et 1925 au chiffre actuel. Une assemblée, tenue en octobre 1922, a autorisé le Conseil à augmenter le capital dans la proportion qu’il déterminera."
    },
    {
      "amount": "4.552.500",
      "currency": "Livre Sterling (Pound)",
      "infodate": "1925-01-01",
      "source": "annuaire_df_1933",
      "comments": " £ 4.552.500, divisé en 4.500.00.0 actions de £ 1 et 1.0 5 0.000 actions A de 1 shilling chacune, sur lesquelles 4.184.084 de £ 1 et 1.050.000 A ont été émises. A l’origine, £ 1.405.000, divisé en 1.405.000 actions de £ 1 ; porté en 1924 et 1925 au chiffre actuel, line assemblée, tenue en octobre 1922, a autorisé le Conseil 4 augmenter le capital dans la proportion qu’il déterminera."
    }
  ],
  "profit_dividends": [
    {
      "first_date": "1910-09-30",
      "last_date": "1932-12-31",
      "obs_count": 86
    }
  ],
  "public_status": false
}