{
  "id": 4006,
  "names": [
    "ATELIERS MOISANT-LAURENT-SAVEY",
    "Ateliers Moisant-Laurent-Savey"
  ],
  "name": "ATELIERS MOISANT-LAURENT-SAVEY",
  "balance_sheets": [
    {
      "start_date": "1946-12-31",
      "source": "Annuaire Desfossés 1948",
      "page": "2016"
    },
    {
      "start_date": "1948-12-31",
      "source": "Annuaire Desfossés 1953",
      "page": "1627"
    },
    {
      "start_date": "1949-12-31",
      "source": "Annuaire Desfossés 1953",
      "page": "1627"
    },
    {
      "start_date": "1950-12-31",
      "source": "Annuaire Desfossés 1953",
      "page": "1627"
    },
    {
      "start_date": "1951-12-31",
      "source": "Annuaire Desfossés 1953",
      "page": "1627"
    }
  ],
  "balance_sheets_stats": {
    "start_date": "1946-12-31",
    "end_date": "1951-12-31"
  },
  "locations_stats": {
    "start_date": "1948-01-01",
    "end_date": "1953-12-31"
  },
  "locations": {
    "Siège social": [
      {
        "location_types_id": 1,
        "location_type": "Siège social",
        "address": "Boulevard de vaugirard, 20",
        "city": "Paris",
        "district": "Paris",
        "country": "France",
        "in_yearbook_from": 1948,
        "in_yearbook_to": 1953
      }
    ]
  },
  "persons": [
    {
      "persons_count": 4,
      "yearbook": "Annuaire Desfossés 1948",
      "source": "annuaire_df_1948",
      "page": "2016"
    },
    {
      "persons_count": 12,
      "yearbook": "Annuaire Desfossés 1953",
      "source": "annuaire_df_1953",
      "page": "1627"
    }
  ],
  "persons_stats": {
    "persons_count": 15,
    "start_date": "1948-01-01",
    "end_date": "1953-12-31"
  },
  "yearbooks_ocrs": [
    {
      "source": "annuaire_df_1948",
      "yearbook": "Annuaire Desfossés 1948",
      "page": "2016"
    },
    {
      "source": "annuaire_df_1953",
      "yearbook": "Annuaire Desfossés 1953",
      "page": "1627"
    }
  ],
  "juridical_status": [
    {
      "juridical_status": "Société Anonyme (Libre)",
      "start_date": "1902-01-01",
      "end_date": "1980-12-31",
      "comments": "CONSTITUTION : Société anonyme, constituée en 1902, pour une durée expirant le 31 décembre 1980.",
      "source": "annuaire_df_1953"
    }
  ],
  "equity_capital": [
    {
      "amount": "2.300.000",
      "currency": "Franc",
      "infodate": "1884-01-01",
      "source": "annuaire_df_1948",
      "comments": "100 millions, divisé en 200.000 actions de '500 francs. A l'origine, 2.300.000 francs, porté par 'étapes, successives à 100 millions."
    },
    {
      "amount": "100.000.000",
      "currency": "Franc",
      "infodate": "1948-01-01",
      "source": "annuaire_df_1948",
      "comments": "100 millions, divisé en 200.000 actions de '500 francs. A l'origine, 2.300.000 francs, porté par 'étapes, successives à 100 millions."
    },
    {
      "amount": "150.000.000",
      "currency": "Franc",
      "infodate": "1951-01-01",
      "source": "annuaire_df_1953",
      "comments": "Porté par étapes successives à 100 millions en 1947 ; porté en 1951 à 150 millions par émission de 100.000 act. de 500 fr. (1 pour 2). Regroupement en actions de 2.500 fr. à partir du 11 février 1952."
    },
    {
      "amount": "150.000.000",
      "currency": "Franc",
      "infodate": "1952-02-11",
      "source": "annuaire_df_1953",
      "comments": "Split :   150 millions de fr., divisé en 60.000 actions de 2.500 fr. A l'origine, 2.300.000 fr. Porté par étapes successives à 100 millions en 1947 ; porté en 1951 à 150 millions par émission de 100.000 act. de 500 fr. (1 pour 2). Regroupement en actions de 2.500 fr. à partir du 11 février 1952."
    }
  ],
  "profit_dividends": [
    {
      "first_date": "1945-12-31",
      "last_date": "1951-12-31",
      "obs_count": 40
    }
  ],
  "public_status": false,
  "stock_exchanges": {
    "1": {
      "id": 1,
      "name": "Paris (Official List)",
      "listings_stats": {
        "start_date": "1947-10-16"
      },
      "spot_prices_stats": {
        "start_date": "1947-10-16",
        "end_date": "1976-12-31"
      }
    }
  },
  "securities": {
    "12524": {
      "id": 12524,
      "name": "Moisant-Laurent-Savey, act. 500 fr., t.p.",
      "share_type": {
        "id": 1,
        "name": "Stock (Action)"
      },
      "types": [
        {
          "start_date": "1947-10-16",
          "end_date": "3999-12-31",
          "id": 18,
          "name": "Action",
          "stock_group": "S"
        }
      ],
      "start_date": "1947-10-16",
      "end_date": "3999-12-31",
      "prices_from": "1947-10-16",
      "prices_to": "1953-02-02",
      "is_mainstock": 0,
      "prices_count": 126
    },
    "14411": {
      "id": 14411,
      "name": "Moisant-Laurent-Savey (Ateliers), act.",
      "share_type": {
        "id": 1,
        "name": "Stock (Action)"
      },
      "types": [
        {
          "start_date": "1952-02-11",
          "end_date": "3999-12-31",
          "id": 11,
          "name": "Action ordinaire",
          "stock_group": "S"
        }
      ],
      "start_date": "1952-02-11",
      "end_date": "3999-12-31",
      "prices_from": "1952-02-12",
      "prices_to": "1957-12-31",
      "is_mainstock": 0,
      "prices_count": 158
    },
    "15463": {
      "id": 15463,
      "name": "Moisant-Laurent-Savey (ateliers), act.(c.43 att).",
      "share_type": {
        "id": 1,
        "name": "Stock (Action)"
      },
      "types": [
        {
          "start_date": "1957-06-03",
          "end_date": "3999-12-31",
          "id": 18,
          "name": "Action",
          "stock_group": "S"
        }
      ],
      "start_date": "1957-06-03",
      "end_date": "3999-12-31",
      "prices_from": "1957-07-01",
      "prices_to": "1957-12-31",
      "is_mainstock": 0,
      "prices_count": 13
    },
    "15648": {
      "id": 15648,
      "name": "Moisant-Laurent-Savey (Ateliers), ct.(c.45 att.)",
      "share_type": {
        "id": 1,
        "name": "Stock (Action)"
      },
      "types": [
        {
          "start_date": "1958-01-02",
          "end_date": "3999-12-31",
          "id": 18,
          "name": "Action",
          "stock_group": "S"
        }
      ],
      "start_date": "1958-01-02",
      "end_date": "3999-12-31",
      "prices_from": null,
      "prices_to": null,
      "is_mainstock": 0,
      "prices_count": 0
    },
    "16601": {
      "id": 16601,
      "name": "Moisant-Laurent-Savey, act.",
      "share_type": {
        "id": 1,
        "name": "Stock (Action)"
      },
      "types": [
        {
          "start_date": "1962-01-02",
          "end_date": "3999-12-31",
          "id": 18,
          "name": "Action",
          "stock_group": "S"
        }
      ],
      "start_date": "1962-01-02",
      "end_date": "3999-12-31",
      "prices_from": "1962-01-02",
      "prices_to": "1970-09-30",
      "is_mainstock": 0,
      "prices_count": 212
    },
    "20226": {
      "id": 20226,
      "name": "Moisant-Laurent-Savey, act.",
      "share_type": {
        "id": 1,
        "name": "Stock (Action)"
      },
      "types": [
        {
          "start_date": "1970-11-03",
          "end_date": "3999-12-31",
          "id": 11,
          "name": "Action ordinaire",
          "stock_group": "S"
        }
      ],
      "start_date": "1970-11-03",
      "end_date": "3999-12-31",
      "prices_from": "1970-10-15",
      "prices_to": "1976-12-31",
      "is_mainstock": 0,
      "prices_count": 151
    },
    "105714": {
      "id": 105714,
      "name": "Moisant-Laurent-Savey (droit et coup. 42) (1 act. nouvelle de 500 fr. émise à 500 fr., jce 1/1/51, pour 2 actions anciennes)",
      "share_type": {
        "id": 5,
        "name": "Droits de souscription"
      },
      "types": [
        {
          "start_date": "1951-07-30",
          "end_date": "1951-11-30",
          "id": 501,
          "name": "Droit de souscription",
          "stock_group": "R"
        }
      ],
      "start_date": "1951-07-30",
      "end_date": "1951-11-30",
      "prices_from": null,
      "prices_to": null,
      "is_mainstock": 0,
      "prices_count": 0
    }
  }
}