{
  "id": 1223,
  "names": [
    "Chemin de Fer de Grao de Valencia"
  ],
  "name": "Chemin de Fer de Grao de Valencia",
  "balance_sheets": [],
  "balance_sheets_stats": {
    "start_date": null,
    "end_date": null
  },
  "locations_stats": {
    "start_date": null,
    "end_date": null
  },
  "locations": {},
  "persons": [],
  "persons_stats": {
    "persons_count": 0,
    "start_date": null,
    "end_date": null
  },
  "yearbooks_ocrs": [],
  "juridical_status": [],
  "equity_capital": [],
  "profit_dividends": [],
  "public_status": false,
  "stock_exchanges": {
    "1": {
      "id": 1,
      "name": "Paris (Official List)",
      "forward_prices_stats": {
        "start_date": "1860-11-06",
        "end_date": "1861-11-30"
      },
      "listings_stats": {
        "start_date": "1860-09-24"
      },
      "options_prices_stats": {
        "start_date": "1860-11-06",
        "end_date": "1860-11-06"
      },
      "spot_prices_stats": {
        "start_date": "1860-09-26",
        "end_date": "1860-11-06"
      }
    }
  },
  "securities": {
    "1163": {
      "id": 1163,
      "name": "Grao de Valencia, j. juin, t.p.",
      "share_type": {
        "id": 1,
        "name": "Stock (Action)"
      },
      "types": [
        {
          "start_date": "1860-09-26",
          "end_date": "3999-12-31",
          "id": 18,
          "name": "Action",
          "stock_group": "S"
        }
      ],
      "start_date": "1860-09-24",
      "end_date": "3999-12-31",
      "prices_from": "1860-09-26",
      "prices_to": "1861-11-30",
      "is_mainstock": 1,
      "prices_count": 32
    }
  }
}