{
  "id": 6137,
  "names": [
    "Socim (Immobilière d'Investissement),"
  ],
  "name": "Socim (Immobilière d'Investissement),",
  "balance_sheets": [],
  "balance_sheets_stats": {
    "start_date": null,
    "end_date": null
  },
  "locations_stats": {
    "start_date": null,
    "end_date": null
  },
  "locations": {},
  "persons": [],
  "persons_stats": {
    "persons_count": 0,
    "start_date": null,
    "end_date": null
  },
  "yearbooks_ocrs": [],
  "juridical_status": [],
  "equity_capital": [],
  "profit_dividends": [],
  "public_status": false,
  "stock_exchanges": {
    "1": {
      "id": 1,
      "name": "Paris (Official List)",
      "listings_stats": {
        "start_date": "1969-01-21"
      },
      "spot_prices_stats": {
        "start_date": "1969-01-21",
        "end_date": "1976-12-31"
      }
    }
  },
  "securities": {
    "19957": {
      "id": 19957,
      "name": "Socim (Immobilière d'Investissement), actions (A et B)",
      "share_type": {
        "id": 1,
        "name": "Stock (Action)"
      },
      "types": [
        {
          "start_date": "1969-01-21",
          "end_date": "3999-12-31",
          "id": 18,
          "name": "Action",
          "stock_group": "S"
        }
      ],
      "start_date": "1969-01-21",
      "end_date": "3999-12-31",
      "prices_from": "1969-01-21",
      "prices_to": "1976-12-31",
      "is_mainstock": 0,
      "prices_count": 195
    },
    "20199": {
      "id": 20199,
      "name": "Socim (Immobilière d'Investissement), act (nos 550001 à 687500) (c. 6 jumelé A et B Barrés att)",
      "share_type": {
        "id": 1,
        "name": "Stock (Action)"
      },
      "types": [
        {
          "start_date": "1969-08-01",
          "end_date": "3999-12-31",
          "id": 27,
          "name": "Promesse d'action",
          "stock_group": "S"
        }
      ],
      "start_date": "1969-08-01",
      "end_date": "3999-12-31",
      "prices_from": "1969-09-01",
      "prices_to": "1970-12-15",
      "is_mainstock": 0,
      "prices_count": 32
    }
  }
}