{
  "id": 3900,
  "names": [
    "ETABLISSEMENTS PHILIPPE ET CANAUD",
    "Etablissements Philippe et Canaud"
  ],
  "name": "ETABLISSEMENTS PHILIPPE ET CANAUD",
  "balance_sheets": [
    {
      "start_date": "1949-03-31",
      "source": "Annuaire Desfossés 1953",
      "page": "2040"
    },
    {
      "start_date": "1950-03-31",
      "source": "Annuaire Desfossés 1953",
      "page": "2040"
    },
    {
      "start_date": "1951-03-31",
      "source": "Annuaire Desfossés 1953",
      "page": "2040"
    }
  ],
  "balance_sheets_stats": {
    "start_date": "1949-03-31",
    "end_date": "1951-03-31"
  },
  "locations_stats": {
    "start_date": "1953-01-01",
    "end_date": "1953-12-31"
  },
  "locations": {
    "Siège social": [
      {
        "location_types_id": 1,
        "location_type": "Siège social",
        "address": "Rue appert, 3 et 5",
        "city": "Nantes",
        "district": "Loire-Atlantique",
        "country": "France",
        "in_yearbook_from": 1953,
        "in_yearbook_to": 1953
      }
    ]
  },
  "persons": [
    {
      "persons_count": 9,
      "yearbook": "Annuaire Desfossés 1953",
      "source": "annuaire_df_1953",
      "page": "2040"
    }
  ],
  "persons_stats": {
    "persons_count": 9,
    "start_date": "1953-01-01",
    "end_date": "1953-12-31"
  },
  "yearbooks_ocrs": [
    {
      "source": "annuaire_df_1953",
      "yearbook": "Annuaire Desfossés 1953",
      "page": "2040"
    }
  ],
  "juridical_status": [
    {
      "juridical_status": "Société Anonyme (Libre)",
      "start_date": "1824-01-01",
      "end_date": "2019-01-01",
      "comments": "CONSTITUTION : Société française constituée en Ï824, transformée en Société anonyme en 1935, pour une durée expirant en 2019.",
      "source": "annuaire_df_1953"
    }
  ],
  "equity_capital": [
    {
      "amount": "4.200.000",
      "currency": "Franc",
      "infodate": "1935-01-01",
      "source": "annuaire_df_1953",
      "comments": " 75 millions de fr., divisé en 25.000 actions de 3.000 fr. A la création de la S.A. (en 1935), 4.200.000 fr. Elevé à 12 millions en 1946, puis en 1949 à 24 millions par création de 12.000 act'o^s de: 1.000 fr. attribuées aux actionnaires (5 pmr 6) et porteurs ** nàrts d act. pour 2 parts}. Porté en janvier 1950 à 36 millions par émission à 1.100 fr. de 12.000 actions de 1.U00 fr. (6 pour 11), puis, en septembre 1950, à 57 millions par a) élévation du Kuin. UI à 1.500 fr. ; b) création de 2.000 actions de 1.500 fr. attribuées aux porteurs de parts (1 act. pour 2 parts). Porté en février 1951 à 75 millions par émission à 1.650 fr. de 12.000 actions de 1.500 fr. (6 pour 19). Regroupement en actions de 3.000 fr. à partir du 10 juin 1952."
    },
    {
      "amount": "12.000.000",
      "currency": "Franc",
      "infodate": "1946-01-01",
      "source": "annuaire_df_1953",
      "comments": "75 millions de fr., divisé en 25.000 actions de 3.000 fr. A la création de la S.A. (en 1935), 4.200.000 fr. Elevé à 12 millions en 1946, puis en 1949 à 24 millions par création de 12.000 act'o^s de: 1.000 fr. attribuées aux actionnaires (5 pmr 6) et porteurs ** nàrts d act. pour 2 parts}. Porté en janvier 1950 à 36 millions par émission à 1.100 fr. de 12.000 actions de 1.U00 fr. (6 pour 11), puis, en septembre 1950, à 57 millions par a) élévation du Kuin. UI à 1.500 fr. ; b) création de 2.000 actions de 1.500 fr. attribuées aux porteurs de parts (1 act. pour 2 parts). Porté en février 1951 à 75 millions par émission à 1.650 fr. de 12.000 actions de 1.500 fr. (6 pour 19). Regroupement en actions de 3.000 fr. à partir du 10 juin 1952."
    },
    {
      "amount": "24.000.000",
      "currency": "Franc",
      "infodate": "1949-01-01",
      "source": "annuaire_df_1953",
      "comments": "75 millions de fr., divisé en 25.000 actions de 3.000 fr. A la création de la S.A. (en 1935), 4.200.000 fr. Elevé à 12 millions en 1946, puis en 1949 à 24 millions par création de 12.000 act'o^s de: 1.000 fr. attribuées aux actionnaires (5 pmr 6) et porteurs ** nàrts d act. pour 2 parts}. Porté en janvier 1950 à 36 millions par émission à 1.100 fr. de 12.000 actions de 1.U00 fr. (6 pour 11), puis, en septembre 1950, à 57 millions par a) élévation du Kuin. UI à 1.500 fr. ; b) création de 2.000 actions de 1.500 fr. attribuées aux porteurs de parts (1 act. pour 2 parts). Porté en février 1951 à 75 millions par émission à 1.650 fr. de 12.000 actions de 1.500 fr. (6 pour 19). Regroupement en actions de 3.000 fr. à partir du 10 juin 1952."
    },
    {
      "amount": "36.000.000",
      "currency": "Franc",
      "infodate": "1950-01-01",
      "source": "annuaire_df_1953",
      "comments": "75 millions de fr., divisé en 25.000 actions de 3.000 fr. A la création de la S.A. (en 1935), 4.200.000 fr. Elevé à 12 millions en 1946, puis en 1949 à 24 millions par création de 12.000 act'o^s de: 1.000 fr. attribuées aux actionnaires (5 pmr 6) et porteurs ** nàrts d act. pour 2 parts}. Porté en janvier 1950 à 36 millions par émission à 1.100 fr. de 12.000 actions de 1.U00 fr. (6 pour 11), puis, en septembre 1950, à 57 millions par a) élévation du Kuin. UI à 1.500 fr. ; b) création de 2.000 actions de 1.500 fr. attribuées aux porteurs de parts (1 act. pour 2 parts). Porté en février 1951 à 75 millions par émission à 1.650 fr. de 12.000 actions de 1.500 fr. (6 pour 19). Regroupement en actions de 3.000 fr. à partir du 10 juin 1952."
    },
    {
      "amount": "57.000.000",
      "currency": "Franc",
      "infodate": "1950-09-01",
      "source": "annuaire_df_1953",
      "comments": "75 millions de fr., divisé en 25.000 actions de 3.000 fr. A la création de la S.A. (en 1935), 4.200.000 fr. Elevé à 12 millions en 1946, puis en 1949 à 24 millions par création de 12.000 act'o^s de: 1.000 fr. attribuées aux actionnaires (5 pmr 6) et porteurs ** nàrts d act. pour 2 parts}. Porté en janvier 1950 à 36 millions par émission à 1.100 fr. de 12.000 actions de 1.U00 fr. (6 pour 11), puis, en septembre 1950, à 57 millions par a) élévation du Kuin. UI à 1.500 fr. ; b) création de 2.000 actions de 1.500 fr. attribuées aux porteurs de parts (1 act. pour 2 parts). Porté en février 1951 à 75 millions par émission à 1.650 fr. de 12.000 actions de 1.500 fr. (6 pour 19). Regroupement en actions de 3.000 fr. à partir du 10 juin 1952."
    },
    {
      "amount": "75.000.000",
      "currency": "Franc",
      "infodate": "1951-02-01",
      "source": "annuaire_df_1953",
      "comments": "75 millions de fr., divisé en 25.000 actions de 3.000 fr. A la création de la S.A. (en 1935), 4.200.000 fr. Elevé à 12 millions en 1946, puis en 1949 à 24 millions par création de 12.000 act'o^s de: 1.000 fr. attribuées aux actionnaires (5 pmr 6) et porteurs ** nàrts d act. pour 2 parts}. Porté en janvier 1950 à 36 millions par émission à 1.100 fr. de 12.000 actions de 1.U00 fr. (6 pour 11), puis, en septembre 1950, à 57 millions par a) élévation du Kuin. UI à 1.500 fr. ; b) création de 2.000 actions de 1.500 fr. attribuées aux porteurs de parts (1 act. pour 2 parts). Porté en février 1951 à 75 millions par émission à 1.650 fr. de 12.000 actions de 1.500 fr. (6 pour 19). Regroupement en actions de 3.000 fr. à partir du 10 juin 1952."
    }
  ],
  "profit_dividends": [
    {
      "first_date": "1948-03-31",
      "last_date": "1951-03-31",
      "obs_count": 30
    }
  ],
  "public_status": false
}