{
  "id": 3292,
  "names": [
    "BULGARIE",
    "ETATS : BULGARIE",
    "PRINCIPAUTE DE BULGARIE",
    "PRINCIPAUTÉ DE BULGARIE",
    "ROYAUME DE BULGARIE"
  ],
  "name": "ROYAUME DE BULGARIE",
  "balance_sheets": [],
  "balance_sheets_stats": {
    "start_date": null,
    "end_date": null
  },
  "locations_stats": {
    "start_date": null,
    "end_date": null
  },
  "locations": {},
  "persons": [],
  "persons_stats": {
    "persons_count": 0,
    "start_date": null,
    "end_date": null
  },
  "yearbooks_ocrs": [
    {
      "source": "annuaire_cac_1898",
      "yearbook": "Annuaire de la Compagnie des Agents de Change 1898",
      "page": "152"
    },
    {
      "source": "annuaire_cac_1903",
      "yearbook": "Annuaire de la Compagnie des Agents de Change 1903",
      "page": "161"
    },
    {
      "source": "annuaire_cac_1908",
      "yearbook": "Annuaire de la Compagnie des Agents de Change 1908",
      "page": "136"
    },
    {
      "source": "annuaire_df_1912",
      "yearbook": "Annuaire Desfossés 1912",
      "page": "32"
    },
    {
      "source": "annuaire_df_1917",
      "yearbook": "Annuaire Desfossés 1917",
      "page": "32"
    },
    {
      "source": "annuaire_df_1923",
      "yearbook": "Annuaire Desfossés 1923",
      "page": "46"
    },
    {
      "source": "annuaire_df_1927",
      "yearbook": "Annuaire Desfossés 1927",
      "page": "41"
    },
    {
      "source": "annuaire_df_1933",
      "yearbook": "Annuaire Desfossés 1933",
      "page": "56"
    },
    {
      "source": "annuaire_df_1940",
      "yearbook": "Annuaire Desfossés 1940",
      "page": null
    },
    {
      "source": "annuaire_df_1945",
      "yearbook": "Annuaire Desfossés 1945",
      "page": "109"
    },
    {
      "source": "annuaire_df_1948",
      "yearbook": "Annuaire Desfossés 1948",
      "page": "117"
    }
  ],
  "juridical_status": [],
  "equity_capital": [],
  "profit_dividends": [],
  "public_status": true,
  "stock_exchanges": {
    "1": {
      "id": 1,
      "name": "Paris (Official List)",
      "forward_prices_stats": {
        "start_date": "1897-11-06",
        "end_date": "1914-02-28"
      },
      "listings_stats": {
        "start_date": "1897-11-06"
      },
      "options_prices_stats": {
        "start_date": "1897-11-06",
        "end_date": "1897-11-06"
      },
      "spot_prices_stats": {
        "start_date": "1897-11-06",
        "end_date": "1964-11-30"
      }
    },
    "2": {
      "id": 2,
      "name": "Paris OTC (Coulisse)",
      "listings_stats": {
        "start_date": "1897-06-30"
      },
      "spot_prices_stats": {
        "start_date": "1897-06-30",
        "end_date": "1897-11-15"
      }
    }
  },
  "securities": {
    "4407": {
      "id": 4407,
      "name": "Bulgarie (Principauté de) 5% 1896, r.au pair",
      "share_type": {
        "id": 2,
        "name": "Bond (Obligation)"
      },
      "types": [
        {
          "start_date": "1897-06-30",
          "end_date": "3999-12-31",
          "id": 1001,
          "name": "Obligation ordinaire ou classique",
          "stock_group": "B"
        }
      ],
      "start_date": "1897-06-30",
      "end_date": "3999-12-31",
      "prices_from": "1897-06-30",
      "prices_to": "1922-06-30",
      "is_mainstock": 0,
      "prices_count": 802
    },
    "4734": {
      "id": 4734,
      "name": "Bulgarie 5% or 1902 (gagé Tabacs). Oblig. 500 fr.",
      "share_type": {
        "id": 2,
        "name": "Bond (Obligation)"
      },
      "types": [
        {
          "start_date": "1902-09-29",
          "end_date": "3999-12-31",
          "id": 1001,
          "name": "Obligation ordinaire ou classique",
          "stock_group": "B"
        }
      ],
      "start_date": "1902-09-29",
      "end_date": "3999-12-31",
      "prices_from": "1902-09-29",
      "prices_to": "1959-10-15",
      "is_mainstock": 0,
      "prices_count": 1507
    },
    "4735": {
      "id": 4735,
      "name": "Bulgarie (Principauté de) 5% or 1902 (gagé sur les droits des tabacs), obl. 300 fr. payés (au comptant seulement).",
      "share_type": {
        "id": 2,
        "name": "Bond (Obligation)"
      },
      "types": [
        {
          "start_date": "1902-09-29",
          "end_date": "3999-12-31",
          "id": 1001,
          "name": "Obligation ordinaire ou classique",
          "stock_group": "B"
        }
      ],
      "start_date": "1902-09-29",
      "end_date": "3999-12-31",
      "prices_from": "1902-09-29",
      "prices_to": "1902-11-15",
      "is_mainstock": 0,
      "prices_count": 21
    },
    "4878": {
      "id": 4878,
      "name": "Bulgarie (Principauté de) 5% or 1904, r au pair,",
      "share_type": {
        "id": 2,
        "name": "Bond (Obligation)"
      },
      "types": [
        {
          "start_date": "1904-12-27",
          "end_date": "3999-12-31",
          "id": 1001,
          "name": "Obligation ordinaire ou classique",
          "stock_group": "B"
        }
      ],
      "start_date": "1904-12-27",
      "end_date": "3999-12-31",
      "prices_from": "1904-12-27",
      "prices_to": "1922-06-30",
      "is_mainstock": 0,
      "prices_count": 636
    },
    "4880": {
      "id": 4880,
      "name": "Bulgarie (Principauté de) 5% or 1904, 150 fr payés (au comptant seulement).",
      "share_type": {
        "id": 2,
        "name": "Bond (Obligation)"
      },
      "types": [
        {
          "start_date": "1904-12-27",
          "end_date": "3999-12-31",
          "id": 1001,
          "name": "Obligation ordinaire ou classique",
          "stock_group": "B"
        }
      ],
      "start_date": "1904-12-27",
      "end_date": "3999-12-31",
      "prices_from": "1904-12-27",
      "prices_to": "1905-01-31",
      "is_mainstock": 0,
      "prices_count": 6
    },
    "5015": {
      "id": 5015,
      "name": "Bulgarie 4,5% or 1907, remb. au pair",
      "share_type": {
        "id": 2,
        "name": "Bond (Obligation)"
      },
      "types": [
        {
          "start_date": "1907-05-08",
          "end_date": "3999-12-31",
          "id": 1001,
          "name": "Obligation ordinaire ou classique",
          "stock_group": "B"
        }
      ],
      "start_date": "1907-05-08",
      "end_date": "3999-12-31",
      "prices_from": "1907-05-08",
      "prices_to": "1959-10-15",
      "is_mainstock": 0,
      "prices_count": 1285
    },
    "5016": {
      "id": 5016,
      "name": "Bulgarie (Principauté de) 4.5% or 1907 libéré, remb. à 500 fr. 200 fr. payés (au comptant seult)",
      "share_type": {
        "id": 2,
        "name": "Bond (Obligation)"
      },
      "types": [
        {
          "start_date": "1907-05-08",
          "end_date": "3999-12-31",
          "id": 1001,
          "name": "Obligation ordinaire ou classique",
          "stock_group": "B"
        }
      ],
      "start_date": "1907-05-08",
      "end_date": "3999-12-31",
      "prices_from": "1907-05-08",
      "prices_to": "1907-06-15",
      "is_mainstock": 0,
      "prices_count": 9
    },
    "5129": {
      "id": 5129,
      "name": "Bulgarie 5% or 1902 (gagé sur les droits des tabacs), remb. à 500 fr. Grosses Coup.",
      "share_type": {
        "id": 2,
        "name": "Bond (Obligation)"
      },
      "types": [
        {
          "start_date": "1913-01-18",
          "end_date": "3999-12-31",
          "id": 1001,
          "name": "Obligation ordinaire ou classique",
          "stock_group": "B"
        }
      ],
      "start_date": "1913-01-18",
      "end_date": "3999-12-31",
      "prices_from": "1913-01-18",
      "prices_to": "1914-05-15",
      "is_mainstock": 0,
      "prices_count": 6
    },
    "5196": {
      "id": 5196,
      "name": "Bulgarie 5% or 1902 (gagé Tabacs). C. de 5",
      "share_type": {
        "id": 2,
        "name": "Bond (Obligation)"
      },
      "types": [
        {
          "start_date": "1913-01-21",
          "end_date": "3999-12-31",
          "id": 1001,
          "name": "Obligation ordinaire ou classique",
          "stock_group": "B"
        }
      ],
      "start_date": "1913-01-21",
      "end_date": "3999-12-31",
      "prices_from": "1913-12-31",
      "prices_to": "1959-10-15",
      "is_mainstock": 0,
      "prices_count": 685
    },
    "8118": {
      "id": 8118,
      "name": "Bulgarie 5% 1896, oblig. 500 fr. (Jce 14/1/43)",
      "share_type": {
        "id": 2,
        "name": "Bond (Obligation)"
      },
      "types": [
        {
          "start_date": "1925-12-01",
          "end_date": "3999-12-31",
          "id": 1001,
          "name": "Obligation ordinaire ou classique",
          "stock_group": "B"
        }
      ],
      "start_date": "1925-12-01",
      "end_date": "3999-12-31",
      "prices_from": "1925-12-09",
      "prices_to": "1959-10-15",
      "is_mainstock": 0,
      "prices_count": 668
    },
    "8119": {
      "id": 8119,
      "name": "Bulgarie 5% or 1904, oblig. 500 fr. (Jce 14/5/43)",
      "share_type": {
        "id": 2,
        "name": "Bond (Obligation)"
      },
      "types": [
        {
          "start_date": "1925-12-01",
          "end_date": "3999-12-31",
          "id": 1001,
          "name": "Obligation ordinaire ou classique",
          "stock_group": "B"
        }
      ],
      "start_date": "1925-12-01",
      "end_date": "3999-12-31",
      "prices_from": "1925-12-09",
      "prices_to": "1959-10-15",
      "is_mainstock": 0,
      "prices_count": 760
    },
    "8628": {
      "id": 8628,
      "name": "Bulgarie 6,5% 1923, oblig. 500 fr. (n°s 40001 à 90000) (Jce 15/5/43)",
      "share_type": {
        "id": 2,
        "name": "Bond (Obligation)"
      },
      "types": [
        {
          "start_date": "1929-01-23",
          "end_date": "3999-12-31",
          "id": 1001,
          "name": "Obligation ordinaire ou classique",
          "stock_group": "B"
        }
      ],
      "start_date": "1929-01-23",
      "end_date": "3999-12-31",
      "prices_from": "1929-01-24",
      "prices_to": "1959-10-15",
      "is_mainstock": 0,
      "prices_count": 576
    },
    "8645": {
      "id": 8645,
      "name": "Bulgarie 6,5% 1923, oblig. 10000 fr. (n°s 140001 à 226720) (Jce 15/5/43)",
      "share_type": {
        "id": 2,
        "name": "Bond (Obligation)"
      },
      "types": [
        {
          "start_date": "1929-01-23",
          "end_date": "3999-12-31",
          "id": 1001,
          "name": "Obligation ordinaire ou classique",
          "stock_group": "B"
        }
      ],
      "start_date": "1929-01-23",
      "end_date": "3999-12-31",
      "prices_from": "1929-06-17",
      "prices_to": "1959-10-15",
      "is_mainstock": 0,
      "prices_count": 520
    },
    "8898": {
      "id": 8898,
      "name": "Bulgarie 7,5% 1928, oblig. 2500 fr. (Jce 15/5/43)",
      "share_type": {
        "id": 2,
        "name": "Bond (Obligation)"
      },
      "types": [
        {
          "start_date": "1929-12-07",
          "end_date": "3999-12-31",
          "id": 1001,
          "name": "Obligation ordinaire ou classique",
          "stock_group": "B"
        }
      ],
      "start_date": "1929-12-07",
      "end_date": "3999-12-31",
      "prices_from": "1929-12-14",
      "prices_to": "1959-10-15",
      "is_mainstock": 0,
      "prices_count": 638
    },
    "13334": {
      "id": 13334,
      "name": "Bulgarie 5% or 1904, obl. 500 fr. Titres découponnés (Jce 14/11/45)",
      "share_type": {
        "id": 2,
        "name": "Bond (Obligation)"
      },
      "types": [
        {
          "start_date": "1949-04-19",
          "end_date": "3999-12-31",
          "id": 1001,
          "name": "Obligation ordinaire ou classique",
          "stock_group": "B"
        }
      ],
      "start_date": "1949-04-19",
      "end_date": "3999-12-31",
      "prices_from": "1949-04-29",
      "prices_to": "1950-05-15",
      "is_mainstock": 0,
      "prices_count": 26
    },
    "16021": {
      "id": 16021,
      "name": "Bulgarie certificats au porteur (cf avis n 34787)",
      "share_type": {
        "id": 2,
        "name": "Bond (Obligation)"
      },
      "types": [
        {
          "start_date": "1959-10-16",
          "end_date": "3999-12-31",
          "id": 1001,
          "name": "Obligation ordinaire ou classique",
          "stock_group": "B"
        }
      ],
      "start_date": "1959-10-16",
      "end_date": "3999-12-31",
      "prices_from": "1959-10-19",
      "prices_to": "1964-11-30",
      "is_mainstock": 0,
      "prices_count": 125
    }
  }
}