{
  "id": 10562,
  "names": [
    "ANCIENS ATELIERS VINOT ET DEGUINGAND",
    "Anciens Ateliers Vinot et Deguingand"
  ],
  "name": "ANCIENS ATELIERS VINOT ET DEGUINGAND",
  "balance_sheets": [
    {
      "start_date": "1919-12-31",
      "source": "Annuaire Desfossés 1920",
      "page": "625"
    },
    {
      "start_date": "1921-12-31",
      "source": "Annuaire Desfossés 1923",
      "page": "690"
    },
    {
      "start_date": "1923-12-31",
      "source": "Annuaire Desfossés 1925",
      "page": "777"
    }
  ],
  "balance_sheets_stats": {
    "start_date": "1919-12-31",
    "end_date": "1923-12-31"
  },
  "locations_stats": {
    "start_date": "1920-01-01",
    "end_date": "1925-12-31"
  },
  "locations": {
    "Siège social": [
      {
        "location_types_id": 1,
        "location_type": "Siège social",
        "address": "Avenue georges-clemenceau, 59",
        "city": "Nanterre",
        "district": "Paris",
        "country": "France",
        "in_yearbook_from": 1920,
        "in_yearbook_to": 1925
      }
    ]
  },
  "persons": [
    {
      "persons_count": 5,
      "yearbook": "Annuaire Desfossés 1923",
      "source": "annuaire_df_1923",
      "page": "690"
    }
  ],
  "persons_stats": {
    "persons_count": 5,
    "start_date": "1923-01-01",
    "end_date": "1923-12-31"
  },
  "yearbooks_ocrs": [
    {
      "source": "annuaire_df_1920",
      "yearbook": "Annuaire Desfossés 1920",
      "page": "625"
    },
    {
      "source": "annuaire_df_1923",
      "yearbook": "Annuaire Desfossés 1923",
      "page": "690"
    },
    {
      "source": "annuaire_df_1925",
      "yearbook": "Annuaire Desfossés 1925",
      "page": "777"
    }
  ],
  "juridical_status": [
    {
      "juridical_status": "Société Anonyme (Libre)",
      "start_date": "1901-11-29",
      "end_date": "1929-11-29",
      "comments": "Société anonyme française, constituée le 29 novembre 1901, pour une durée de •28 ans.",
      "source": "annuaire_df_1923"
    }
  ],
  "equity_capital": [
    {
      "amount": "3.750.000",
      "currency": "Franc",
      "infodate": "1922-02-14",
      "source": "annuaire_df_1923",
      "comments": "4.500.000 francs, divisé en 45.0,00 actions de 100 francs. L’assemblée extraordinaire du 14 février 1922 a voté le principe de là réduction du capital h 2.250.000 francs puis de son élévation subséquente à 3.750.000 francs par création'd’actior's privilégiées."
    },
    {
      "amount": "4.500.000",
      "currency": "Franc",
      "infodate": "1922-02-14",
      "source": "annuaire_df_1923",
      "comments": "4.500.000 francs, divisé en 45.0,00 actions de 100 francs. L’assemblée extraordinaire du 14 février 1922 a voté le principe de là réduction du capital h 2.250.000 francs puis de son élévation subséquente à 3.750.000 francs par création'd’actior's privilégiées."
    }
  ],
  "profit_dividends": [
    {
      "first_date": "1917-12-31",
      "last_date": "1922-12-31",
      "obs_count": 25
    }
  ],
  "public_status": false
}