{
  "id": 10238,
  "names": [
    "THE CENTRAL EL DORADO GOLD MINING COMPANY",
    "The Central El Dorado Gold Mining Company"
  ],
  "name": "THE CENTRAL EL DORADO GOLD MINING COMPANY",
  "balance_sheets": [],
  "balance_sheets_stats": {
    "start_date": null,
    "end_date": null
  },
  "locations_stats": {
    "start_date": "1912-01-01",
    "end_date": "1912-12-31"
  },
  "locations": {
    "Siège social": [
      {
        "location_types_id": 1,
        "location_type": "Siège social",
        "address": "Comté de maricopa",
        "city": "Phoenix",
        "district": "Arizona",
        "country": "Etats-Unis d'Amérique",
        "in_yearbook_from": 1912,
        "in_yearbook_to": 1912
      }
    ],
    "Siège administratif / Bureaux": [
      {
        "location_types_id": 2,
        "location_type": "Siège administratif / Bureaux",
        "address": "Rue godot-de-mauroy, 37",
        "city": "Paris",
        "district": "Paris",
        "country": "France",
        "in_yearbook_from": 1912,
        "in_yearbook_to": 1912
      }
    ]
  },
  "persons": [
    {
      "persons_count": 5,
      "yearbook": "Annuaire Desfossés 1912",
      "source": "annuaire_df_1912",
      "page": "810"
    }
  ],
  "persons_stats": {
    "persons_count": 5,
    "start_date": "1912-01-01",
    "end_date": "1912-12-31"
  },
  "yearbooks_ocrs": [
    {
      "source": "annuaire_df_1912",
      "yearbook": "Annuaire Desfossés 1912",
      "page": "810"
    }
  ],
  "juridical_status": [
    {
      "juridical_status": "Société anonyme américaine",
      "start_date": "1910-06-15",
      "end_date": "1935-06-15",
      "comments": "Société anonyme américaine, constituée le 15 juin 1910, pour une durée de 25 ans.",
      "source": "annuaire_df_1912"
    }
  ],
  "equity_capital": [
    {
      "amount": "250.000",
      "currency": "Livre Sterling (Pound)",
      "infodate": "1910-06-15",
      "source": "annuaire_df_1912",
      "comments": "250.000 dollars, divisé en 250.000 actions de 1 dollar, dont 100.000 ont été remises en paiement des cessions faites à la Société, 30.000 émises contre espèces et entièrement libérées, et 120.000 restent à la souche."
    }
  ],
  "profit_dividends": [],
  "public_status": false
}