{
  "id": 3174,
  "names": [
    "MONTECATINI",
    "MONTECATINI (Société Générale pour l'Industrie Minière et Agricole)",
    "MONTECATINI (Société Générale pour l'Industrie Minière et Chimique)",
    "MONTECATINI (Soolété Générale pour l'Industrie Minière et Agricole)",
    "MONTECATINi (Société Générale pour l'Industrle minière et Agricole)",
    "SOCIETE DES MINES DE MONTECATINI",
    "SOCIÉTÉ ANONYME DES MINES DE MONTECATINI",
    "Société des Mines de Montecatini"
  ],
  "name": "MONTECATINI (Société Générale pour l'Industrie Minière et Agricole)",
  "balance_sheets": [
    {
      "start_date": "1910-12-31",
      "source": "Annuaire Desfossés 1912",
      "page": "780"
    },
    {
      "start_date": "1912-12-31",
      "source": "Annuaire Desfossés 1914",
      "page": "843"
    },
    {
      "start_date": "1916-12-31",
      "source": "Annuaire Desfossés 1917",
      "page": "768"
    },
    {
      "start_date": "1919-12-31",
      "source": "Annuaire Desfossés 1920",
      "page": "837"
    },
    {
      "start_date": "1922-12-31",
      "source": "Annuaire Desfossés 1923",
      "page": "936"
    },
    {
      "start_date": "1923-12-31",
      "source": "Annuaire Desfossés 1925",
      "page": "1068"
    },
    {
      "start_date": "1925-12-31",
      "source": "Annuaire Desfossés 1927",
      "page": "859"
    },
    {
      "start_date": "1927-12-31",
      "source": "Annuaire Desfossés 1929",
      "page": "912"
    },
    {
      "start_date": "1929-12-31",
      "source": "Annuaire Desfossés 1931",
      "page": "931"
    },
    {
      "start_date": "1931-12-31",
      "source": "Annuaire Desfossés 1933",
      "page": "988"
    },
    {
      "start_date": "1932-12-31",
      "source": "Annuaire Desfossés 1936",
      "page": null
    },
    {
      "start_date": "1933-12-31",
      "source": "Annuaire Desfossés 1937",
      "page": "1082"
    },
    {
      "start_date": "1934-12-31",
      "source": "Annuaire Desfossés 1937",
      "page": "1082"
    },
    {
      "start_date": "1935-12-31",
      "source": "Annuaire Desfossés 1940",
      "page": null
    },
    {
      "start_date": "1936-12-31",
      "source": "Annuaire Desfossés 1940",
      "page": null
    },
    {
      "start_date": "1937-12-31",
      "source": "Annuaire Desfossés 1945",
      "page": "1669"
    },
    {
      "start_date": "1938-12-31",
      "source": "Annuaire Desfossés 1945",
      "page": "1669"
    },
    {
      "start_date": "1939-12-31",
      "source": "Annuaire Desfossés 1945",
      "page": "1669"
    },
    {
      "start_date": "1940-12-31",
      "source": "Annuaire Desfossés 1945",
      "page": "1669"
    },
    {
      "start_date": "1944-12-31",
      "source": "Annuaire Desfossés 1948",
      "page": "1948"
    },
    {
      "start_date": "1945-12-31",
      "source": "Annuaire Desfossés 1948",
      "page": "1948"
    },
    {
      "start_date": "1946-12-31",
      "source": "Annuaire Desfossés 1948",
      "page": "1948"
    },
    {
      "start_date": "1947-12-31",
      "source": "Annuaire Desfossés 1953",
      "page": "1545"
    },
    {
      "start_date": "1948-12-31",
      "source": "Annuaire Desfossés 1953",
      "page": "1545"
    },
    {
      "start_date": "1949-12-31",
      "source": "Annuaire Desfossés 1953",
      "page": "1545"
    },
    {
      "start_date": "1950-12-31",
      "source": "Annuaire Desfossés 1953",
      "page": "1545"
    },
    {
      "start_date": "1951-12-31",
      "source": "Annuaire Desfossés 1953",
      "page": "1545"
    }
  ],
  "balance_sheets_stats": {
    "start_date": "1910-12-31",
    "end_date": "1951-12-31"
  },
  "locations_stats": {
    "start_date": "1912-01-01",
    "end_date": "1953-12-31"
  },
  "locations": {
    "Siège social": [
      {
        "location_types_id": 1,
        "location_type": "Siège social",
        "address": null,
        "city": "Milan",
        "district": "District fictif",
        "country": "Italie",
        "in_yearbook_from": 1912,
        "in_yearbook_to": 1933
      },
      {
        "location_types_id": 1,
        "location_type": "Siège social",
        "address": null,
        "city": "Milan",
        "district": "District fictif",
        "country": "Italie",
        "in_yearbook_from": 1940,
        "in_yearbook_to": 1940
      },
      {
        "location_types_id": 1,
        "location_type": "Siège social",
        "address": "Via principe umberto, 18",
        "city": "Milan",
        "district": "District fictif",
        "country": "Italie",
        "in_yearbook_from": 1945,
        "in_yearbook_to": 1948
      },
      {
        "location_types_id": 1,
        "location_type": "Siège social",
        "address": "Via f turati, 18",
        "city": "Milan",
        "district": "District fictif",
        "country": "Italie",
        "in_yearbook_from": 1953,
        "in_yearbook_to": 1953
      }
    ],
    "Siège administratif / Bureaux": [
      {
        "location_types_id": 2,
        "location_type": "Siège administratif / Bureaux",
        "address": null,
        "city": "Paris",
        "district": "Paris",
        "country": "France",
        "in_yearbook_from": 1940,
        "in_yearbook_to": 1940
      },
      {
        "location_types_id": 2,
        "location_type": "Siège administratif / Bureaux",
        "address": "Rue auber, 13",
        "city": "Paris",
        "district": "Paris",
        "country": "France",
        "in_yearbook_from": 1945,
        "in_yearbook_to": 1945
      }
    ],
    "Mines / Carrières / Pétrole / Gaz": [
      {
        "location_types_id": 7,
        "location_type": "Mines / Carrières / Pétrole / Gaz",
        "address": null,
        "city": "Boccheggiano",
        "district": "District fictif",
        "country": "Italie",
        "in_yearbook_from": 1912,
        "in_yearbook_to": 1912
      },
      {
        "location_types_id": 7,
        "location_type": "Mines / Carrières / Pétrole / Gaz",
        "address": null,
        "city": null,
        "district": "District fictif",
        "country": "Italie",
        "in_yearbook_from": 1923,
        "in_yearbook_to": 1923
      },
      {
        "location_types_id": 7,
        "location_type": "Mines / Carrières / Pétrole / Gaz",
        "address": null,
        "city": "Accesa",
        "district": "District fictif",
        "country": "Italie",
        "in_yearbook_from": 1940,
        "in_yearbook_to": 1940
      },
      {
        "location_types_id": 7,
        "location_type": "Mines / Carrières / Pétrole / Gaz",
        "address": null,
        "city": "Agordo",
        "district": "District fictif",
        "country": "Italie",
        "in_yearbook_from": 1940,
        "in_yearbook_to": 1940
      },
      {
        "location_types_id": 7,
        "location_type": "Mines / Carrières / Pétrole / Gaz",
        "address": null,
        "city": "Boccheggiano",
        "district": "District fictif",
        "country": "Italie",
        "in_yearbook_from": 1940,
        "in_yearbook_to": 1940
      },
      {
        "location_types_id": 7,
        "location_type": "Mines / Carrières / Pétrole / Gaz",
        "address": null,
        "city": "Capanne Vecchie",
        "district": "District fictif",
        "country": "Italie",
        "in_yearbook_from": 1940,
        "in_yearbook_to": 1940
      },
      {
        "location_types_id": 7,
        "location_type": "Mines / Carrières / Pétrole / Gaz",
        "address": null,
        "city": "Fenice Massetana",
        "district": "District fictif",
        "country": "Italie",
        "in_yearbook_from": 1940,
        "in_yearbook_to": 1940
      },
      {
        "location_types_id": 7,
        "location_type": "Mines / Carrières / Pétrole / Gaz",
        "address": null,
        "city": "Gavorrano",
        "district": "District fictif",
        "country": "Italie",
        "in_yearbook_from": 1940,
        "in_yearbook_to": 1940
      },
      {
        "location_types_id": 7,
        "location_type": "Mines / Carrières / Pétrole / Gaz",
        "address": null,
        "city": "Montauro",
        "district": "District fictif",
        "country": "Italie",
        "in_yearbook_from": 1940,
        "in_yearbook_to": 1940
      },
      {
        "location_types_id": 7,
        "location_type": "Mines / Carrières / Pétrole / Gaz",
        "address": null,
        "city": "Montecatini",
        "district": "District fictif",
        "country": "Italie",
        "in_yearbook_from": 1940,
        "in_yearbook_to": 1940
      }
    ],
    "Comité de Direction / Délégation / Obligataires": [
      {
        "location_types_id": 13,
        "location_type": "Comité de Direction / Délégation / Obligataires",
        "address": "Rue de vaugirard, 131 bis",
        "city": "Paris",
        "district": "Paris",
        "country": "France",
        "in_yearbook_from": 1948,
        "in_yearbook_to": 1948
      },
      {
        "location_types_id": 13,
        "location_type": "Comité de Direction / Délégation / Obligataires",
        "address": "Rue viete, 7",
        "city": "Paris",
        "district": "Paris",
        "country": "France",
        "in_yearbook_from": 1953,
        "in_yearbook_to": 1953
      }
    ]
  },
  "persons": [
    {
      "persons_count": 10,
      "yearbook": "Annuaire Desfossés 1912",
      "source": "annuaire_df_1912",
      "page": "780"
    },
    {
      "persons_count": 7,
      "yearbook": "Annuaire Desfossés 1917",
      "source": "annuaire_df_1917",
      "page": "768"
    },
    {
      "persons_count": 5,
      "yearbook": "Annuaire Desfossés 1923",
      "source": "annuaire_df_1923",
      "page": "936"
    },
    {
      "persons_count": 14,
      "yearbook": "Annuaire Desfossés 1927",
      "source": "annuaire_df_1927",
      "page": "859"
    },
    {
      "persons_count": 16,
      "yearbook": "Annuaire Desfossés 1933",
      "source": "annuaire_df_1933",
      "page": "988"
    },
    {
      "persons_count": 3,
      "yearbook": "Annuaire Desfossés 1940",
      "source": "annuaire_df_1940",
      "page": null
    },
    {
      "persons_count": 20,
      "yearbook": "Annuaire Desfossés 1945",
      "source": "annuaire_df_1945",
      "page": "1669"
    },
    {
      "persons_count": 25,
      "yearbook": "Annuaire Desfossés 1948",
      "source": "annuaire_df_1948",
      "page": "1948"
    },
    {
      "persons_count": 28,
      "yearbook": "Annuaire Desfossés 1953",
      "source": "annuaire_df_1953",
      "page": "1545"
    }
  ],
  "persons_stats": {
    "persons_count": 95,
    "start_date": "1912-01-01",
    "end_date": "1953-12-31"
  },
  "yearbooks_ocrs": [
    {
      "source": "annuaire_df_1912",
      "yearbook": "Annuaire Desfossés 1912",
      "page": "780"
    },
    {
      "source": "annuaire_df_1914",
      "yearbook": "Annuaire Desfossés 1914",
      "page": "843"
    },
    {
      "source": "annuaire_df_1917",
      "yearbook": "Annuaire Desfossés 1917",
      "page": "768"
    },
    {
      "source": "annuaire_df_1920",
      "yearbook": "Annuaire Desfossés 1920",
      "page": "837"
    },
    {
      "source": "annuaire_df_1923",
      "yearbook": "Annuaire Desfossés 1923",
      "page": "936"
    },
    {
      "source": "annuaire_df_1925",
      "yearbook": "Annuaire Desfossés 1925",
      "page": "1068"
    },
    {
      "source": "annuaire_df_1927",
      "yearbook": "Annuaire Desfossés 1927",
      "page": "859"
    },
    {
      "source": "annuaire_df_1929",
      "yearbook": "Annuaire Desfossés 1929",
      "page": "912"
    },
    {
      "source": "annuaire_df_1931",
      "yearbook": "Annuaire Desfossés 1931",
      "page": "931"
    },
    {
      "source": "annuaire_df_1933",
      "yearbook": "Annuaire Desfossés 1933",
      "page": "988"
    },
    {
      "source": "annuaire_df_1937",
      "yearbook": "Annuaire Desfossés 1937",
      "page": "1082"
    },
    {
      "source": "annuaire_df_1940",
      "yearbook": "Annuaire Desfossés 1940",
      "page": null
    },
    {
      "source": "annuaire_df_1945",
      "yearbook": "Annuaire Desfossés 1945",
      "page": "1669"
    },
    {
      "source": "annuaire_df_1948",
      "yearbook": "Annuaire Desfossés 1948",
      "page": "1948"
    },
    {
      "source": "annuaire_df_1953",
      "yearbook": "Annuaire Desfossés 1953",
      "page": "1545"
    }
  ],
  "juridical_status": [
    {
      "juridical_status": "Société anonyme italienne",
      "start_date": "1888-03-26",
      "end_date": "1938-03-26",
      "comments": "Société anonyme italienne, constituée le 26 mars 1888, pour une durée de 50 ans.",
      "source": "annuaire_df_1912"
    },
    {
      "juridical_status": "Société anonyme italienne",
      "start_date": "1938-03-27",
      "end_date": "1988-03-26",
      "comments": "Société anonyme italienne, constituée le 26 mars 1888, pour une durée de 100 sous la dénomination de « Société des Mines de Montecatini ».",
      "source": "annuaire_df_1940"
    }
  ],
  "equity_capital": [
    {
      "amount": "2.000.000",
      "currency": "Lira",
      "infodate": "1888-03-26",
      "source": "annuaire_df_1912",
      "comments": " A l’origine 2 millions de lire, représenté par 20.000 actions de 100 lire"
    },
    {
      "amount": "3.000.000",
      "currency": "Lira",
      "infodate": "1889-01-01",
      "source": "annuaire_df_1912",
      "comments": " porté en 1889 à 3 millions de lire"
    },
    {
      "amount": "4.000.000",
      "currency": "Lira",
      "infodate": "1890-01-01",
      "source": "annuaire_df_1912",
      "comments": " en 1890 à 4 millions de lire et divisé en 80.000 actions de 50 lire"
    },
    {
      "amount": "6.000.000",
      "currency": "Lira",
      "infodate": "1892-01-01",
      "source": "annuaire_df_1912",
      "comments": " porté en 1892 à 6 millions de lire,"
    },
    {
      "amount": "1.500.000",
      "currency": "Lira",
      "infodate": "1896-01-01",
      "source": "annuaire_df_1912",
      "comments": " ramené en 1896- à 1.500.000 lire par la réduction de 50 lire à 12 lire 50 de la valeur nominale des actions,"
    },
    {
      "amount": "2.500.000",
      "currency": "Lira",
      "infodate": "1898-01-01",
      "source": "annuaire_df_1912",
      "comments": "porté en 1898 à 2.500.000 lire, divisé en actions de 100 lire,"
    },
    {
      "amount": "5.000.000",
      "currency": "Lira",
      "infodate": "1899-01-01",
      "source": "annuaire_df_1912",
      "comments": " en 1899 à 5 millions de lire"
    },
    {
      "amount": "6.500.000",
      "currency": "Lira",
      "infodate": "1905-01-01",
      "source": "annuaire_df_1912",
      "comments": " en 1905 à 6.500.000 lire"
    },
    {
      "amount": "12.500.000",
      "currency": "Lira",
      "infodate": "1910-01-01",
      "source": "annuaire_df_1912",
      "comments": " en 1910 au chiffre actuel. 12.500.000 lire, divisé en 125.000 actions de 100 lire"
    },
    {
      "amount": "15.000.000",
      "currency": "Lira",
      "infodate": "1913-01-01",
      "source": "annuaire_df_1927",
      "comments": " 500 millions de lire, divisé en 5.000.000 actions de 100 lire. A l’origine, 2 millions déliré, représenté par 20.000 actions de 100 lire, porté en 1889 à 3 millions de lire, en 1890 à 4 millions de lire et divisé en 80.000 actions de 50 lire, porté en 1892, à 6 millions de lire, ramené en 1896 à 1,500.000 lire par la réduction de 50 lire à 12 lire 50 de la valeur nominale des actions, porté en 1898 à 2.500.000 lire, divisé en actions de 100 lire, en 1899 à 5 millions de lire, en 1905 à 6.500.000 lire en 1910 à 12.500.000 lire, en 1913 à 15 millions déliré; en 1916, à 30 millions puis successivement jusqu’à 200 millions de lire tant par l'émission d’actions espèces que par suite de \"absorption des Sociétés (Colla e Concimi) et (Unione Italianâ fra Consumatori e Fabbrieanti di Concimi e Prodotti Chimie!) ; porté en 1924 à 300 millions et en novembre 1925 au chiffre actuel par la création de 2 millions d’actions nouvelles (2 nouvelles pour 3 anciennes)."
    },
    {
      "amount": "30.000.000",
      "currency": "Lira",
      "infodate": "1916-01-01",
      "source": "annuaire_df_1927",
      "comments": " 500 millions de lire, divisé en 5.000.000 actions de 100 lire. A l’origine, 2 millions déliré, représenté par 20.000 actions de 100 lire, porté en 1889 à 3 millions de lire, en 1890 à 4 millions de lire et divisé en 80.000 actions de 50 lire, porté en 1892, à 6 millions de lire, ramené en 1896 à 1,500.000 lire par la réduction de 50 lire à 12 lire 50 de la valeur nominale des actions, porté en 1898 à 2.500.000 lire, divisé en actions de 100 lire, en 1899 à 5 millions de lire, en 1905 à 6.500.000 lire en 1910 à 12.500.000 lire, en 1913 à 15 millions déliré; en 1916, à 30 millions puis successivement jusqu’à 200 millions de lire tant par l'émission d’actions espèces que par suite de \"absorption des Sociétés (Colla e Concimi) et (Unione Italianâ fra Consumatori e Fabbrieanti di Concimi e Prodotti Chimie!) ; porté en 1924 à 300 millions et en novembre 1925 au chiffre actuel par la création de 2 millions d’actions nouvelles (2 nouvelles pour 3 anciennes)."
    },
    {
      "amount": "200.000.000",
      "currency": "Lira",
      "infodate": "1919-01-01",
      "source": "annuaire_df_1923",
      "comments": " 200 millions de lire, divisé en 2.000.000 actions de 100 lire. A l' origine, 2 millions de lire, représenté par 20.000 actions de 100 lire, porté en 1889 à 3 millions de lire, en 1890 à 4 millions de lire et divisé en 80:000 actions de 50 lire, porté en 1892, à 6 millions de lire, ramené en 1896 à 1.500.000 lire par la réduction de 50 lire à 12 lire 50 de la valeur nominale des actions, porté en 1898 à 2.500.000 lire, divisé en actions de 100 lire, en 1899 à 5 millions de lire, en 1905 à 6.500000 lire, en 1910 à 12.500.000 lire, en 1913 à 15 millions de lire, en 1916, à 30 millions puis successivement  jusqu’au chiffre actuel, tant par l’émission d'actions espèces que par suite de l’absorption des Sociétés «Colla e Concini» et « UnioneItaliana fra Consumatori e Fabbricanti di Concimi e Prodotti Chimici\n[date fictive]"
    },
    {
      "amount": "300.000.000",
      "currency": "Lira",
      "infodate": "1924-01-01",
      "source": "annuaire_df_1927",
      "comments": "500 millions de lire, divisé en 5.000.000 actions de 100 lire. A l’origine, 2 millions déliré, représenté par 20.000 actions de 100 lire, porté en 1889 à 3 millions de lire, en 1890 à 4 millions de lire et divisé en 80.000 actions de 50 lire, porté en 1892, à 6 millions de lire, ramené en 1896 à 1,500.000 lire par la réduction de 50 lire à 12 lire 50 de la valeur nominale des actions, porté en 1898 à 2.500.000 lire, divisé en actions de 100 lire, en 1899 à 5 millions de lire, en 1905 à 6.500.000 lire en 1910 à 12.500.000 lire, en 1913 à 15 millions déliré; en 1916, à 30 millions puis successivement jusqu’à 200 millions de lire tant par l'émission d’actions espèces que par suite de \"absorption des Sociétés (Colla e Concimi) et (Unione Italianâ fra Consumatori e Fabbrieanti di Concimi e Prodotti Chimie!) ; porté en 1924 à 300 millions et en novembre 1925 au chiffre actuel par la création de 2 millions d’actions nouvelles (2 nouvelles pour 3 anciennes)."
    },
    {
      "amount": "500.000.000",
      "currency": "Lira",
      "infodate": "1925-11-01",
      "source": "annuaire_df_1927",
      "comments": "500 millions de lire, divisé en 5.000.000 actions de 100 lire. A l’origine, 2 millions déliré, représenté par 20.000 actions de 100 lire, porté en 1889 à 3 millions de lire, en 1890 à 4 millions de lire et divisé en 80.000 actions de 50 lire, porté en 1892, à 6 millions de lire, ramené en 1896 à 1,500.000 lire par la réduction de 50 lire à 12 lire 50 de la valeur nominale des actions, porté en 1898 à 2.500.000 lire, divisé en actions de 100 lire, en 1899 à 5 millions de lire, en 1905 à 6.500.000 lire en 1910 à 12.500.000 lire, en 1913 à 15 millions déliré; en 1916, à 30 millions puis successivement jusqu’à 200 millions de lire tant par l'émission d’actions espèces que par suite de \"absorption des Sociétés (Colla e Concimi) et (Unione Italianâ fra Consumatori e Fabbrieanti di Concimi e Prodotti Chimie!) ; porté en 1924 à 300 millions et en novembre 1925 au chiffre actuel par la création de 2 millions d’actions nouvelles (2 nouvelles pour 3 anciennes)."
    },
    {
      "amount": "600.000.000",
      "currency": "Lira",
      "infodate": "1934-08-01",
      "source": "annuaire_df_1940",
      "comments": "1\tmilliard\t300 millions de\tlire, en 13.000.000 d actions de 100 lire. A l’origine, 2 millions\tde lire,\treprésenté par 20.000 actions de 100\tlire, porté en 1889 à 3 millions de lire, en 1890 à 4 millions de lire et divisé en 80.000 actions de 50 lire, porté en 1892, à 6\tmillions\tde lire, ramené\ten 1896 à 1.500.000\tlire par la réduction de 50 lire à 12 lire\t50 de la valeur nominale\tdes actions, porté en 1898 à 2.500.000 lire, divisé en actions de 100 lire, en 1899 à 5 millions de lire, en 1905 à 6.500.000 lire, en 1910 à 12.500.000 lire, en 1913 à 15 millions de lire, en 1916 à 30 millions, puis successivement jusqu’à 200 millions de lire tant par l’émission d’actions espèces que par suite de l’absorption des Sociétés Colla e Concimi et Unione Italiana fra Consumatori e Fabbricanti di Concimi e Prodetti Chimici ; porté en 1924 à 300 millions et en novembre 1925 à 500 millions par la création de 2 millions d’actions nouvelles (2 nouvelles pour 3 anciennes). Porté à 600 millions en août 1934 par la distribution gratuite de 1.000.000 d’actions nouvelles (1 nouvelle pour 5 anciennes). En mars 1936, le capital a été porté de 600 à 700 millions de lire par l’émission à 103 lire de 1.000.000 d’actions nouvelles de 100 lire, jouissance janvier 1936, dont la souscription a été réservée aux anciens actionnaires à raison de 1 action nouvelle pour 6 actions anciennes, les souscripteurs devant obligatoirement souscrire, au pair, à autant d’action de 100 lire, jouissance juillet 1936, de la Société A.N.I.C. (Azienda Nazionale Idrogenazione Com-bustibili). Le fonds social a été ensuite porté de 700 à 800 millions de lire par la création de 1.000.000 actions nouvelles de 100 lire, entièrement libérées, jouissance janvier 1936, attribuées gratuitement aux anciens actionnaires à raison de 1 action nouvelle pour 7 actions anciennes. Porté à 1 milliard en août 1937 par l’émission de 2 millions d’actions nouvelles de 100 1. (au pair, 2 nouvelles pour 8 anciennes), avec l’obligation de souscrire pour chaque groupe de 2 actions nouvelles une action de ^ Lin 100 delà Sté A.N.I.C. Porté à 1 milliard 300 millions en mars 1938 par l’émission à 101,50 de 1.500.000 actions nouvelles de 100 lire (jouissance janvier 1938, _ 3 nouvelles pour 20 anciennes) et la création de 1.500.000 actions nouvelles de 100 lire attribuées gratuitement (jouissance janvier 1938, 3 nouvelles pour 20 anciennes)."
    },
    {
      "amount": "700.000.000",
      "currency": "Lira",
      "infodate": "1936-03-01",
      "source": "annuaire_df_1940",
      "comments": "1\tmilliard\t300 millions de\tlire, en 13.000.000 d actions de 100 lire. A l’origine, 2 millions\tde lire,\treprésenté par 20.000 actions de 100\tlire, porté en 1889 à 3 millions de lire, en 1890 à 4 millions de lire et divisé en 80.000 actions de 50 lire, porté en 1892, à 6\tmillions\tde lire, ramené\ten 1896 à 1.500.000\tlire par la réduction de 50 lire à 12 lire\t50 de la valeur nominale\tdes actions, porté en 1898 à 2.500.000 lire, divisé en actions de 100 lire, en 1899 à 5 millions de lire, en 1905 à 6.500.000 lire, en 1910 à 12.500.000 lire, en 1913 à 15 millions de lire, en 1916 à 30 millions, puis successivement jusqu’à 200 millions de lire tant par l’émission d’actions espèces que par suite de l’absorption des Sociétés Colla e Concimi et Unione Italiana fra Consumatori e Fabbricanti di Concimi e Prodetti Chimici ; porté en 1924 à 300 millions et en novembre 1925 à 500 millions par la création de 2 millions d’actions nouvelles (2 nouvelles pour 3 anciennes). Porté à 600 millions en août 1934 par la distribution gratuite de 1.000.000 d’actions nouvelles (1 nouvelle pour 5 anciennes). En mars 1936, le capital a été porté de 600 à 700 millions de lire par l’émission à 103 lire de 1.000.000 d’actions nouvelles de 100 lire, jouissance janvier 1936, dont la souscription a été réservée aux anciens actionnaires à raison de 1 action nouvelle pour 6 actions anciennes, les souscripteurs devant obligatoirement souscrire, au pair, à autant d’action de 100 lire, jouissance juillet 1936, de la Société A.N.I.C. (Azienda Nazionale Idrogenazione Com-bustibili). Le fonds social a été ensuite porté de 700 à 800 millions de lire par la création de 1.000.000 actions nouvelles de 100 lire, entièrement libérées, jouissance janvier 1936, attribuées gratuitement aux anciens actionnaires à raison de 1 action nouvelle pour 7 actions anciennes. Porté à 1 milliard en août 1937 par l’émission de 2 millions d’actions nouvelles de 100 1. (au pair, 2 nouvelles pour 8 anciennes), avec l’obligation de souscrire pour chaque groupe de 2 actions nouvelles une action de ^ Lin 100 delà Sté A.N.I.C. Porté à 1 milliard 300 millions en mars 1938 par l’émission à 101,50 de 1.500.000 actions nouvelles de 100 lire (jouissance janvier 1938, _ 3 nouvelles pour 20 anciennes) et la création de 1.500.000 actions nouvelles de 100 lire attribuées gratuitement (jouissance janvier 1938, 3 nouvelles pour 20 anciennes)."
    },
    {
      "amount": "1.000.000.000",
      "currency": "Lira",
      "infodate": "1937-08-01",
      "source": "annuaire_df_1940",
      "comments": "1\tmilliard\t300 millions de\tlire, en 13.000.000 d actions de 100 lire. A l’origine, 2 millions\tde lire,\treprésenté par 20.000 actions de 100\tlire, porté en 1889 à 3 millions de lire, en 1890 à 4 millions de lire et divisé en 80.000 actions de 50 lire, porté en 1892, à 6\tmillions\tde lire, ramené\ten 1896 à 1.500.000\tlire par la réduction de 50 lire à 12 lire\t50 de la valeur nominale\tdes actions, porté en 1898 à 2.500.000 lire, divisé en actions de 100 lire, en 1899 à 5 millions de lire, en 1905 à 6.500.000 lire, en 1910 à 12.500.000 lire, en 1913 à 15 millions de lire, en 1916 à 30 millions, puis successivement jusqu’à 200 millions de lire tant par l’émission d’actions espèces que par suite de l’absorption des Sociétés Colla e Concimi et Unione Italiana fra Consumatori e Fabbricanti di Concimi e Prodetti Chimici ; porté en 1924 à 300 millions et en novembre 1925 à 500 millions par la création de 2 millions d’actions nouvelles (2 nouvelles pour 3 anciennes). Porté à 600 millions en août 1934 par la distribution gratuite de 1.000.000 d’actions nouvelles (1 nouvelle pour 5 anciennes). En mars 1936, le capital a été porté de 600 à 700 millions de lire par l’émission à 103 lire de 1.000.000 d’actions nouvelles de 100 lire, jouissance janvier 1936, dont la souscription a été réservée aux anciens actionnaires à raison de 1 action nouvelle pour 6 actions anciennes, les souscripteurs devant obligatoirement souscrire, au pair, à autant d’action de 100 lire, jouissance juillet 1936, de la Société A.N.I.C. (Azienda Nazionale Idrogenazione Com-bustibili). Le fonds social a été ensuite porté de 700 à 800 millions de lire par la création de 1.000.000 actions nouvelles de 100 lire, entièrement libérées, jouissance janvier 1936, attribuées gratuitement aux anciens actionnaires à raison de 1 action nouvelle pour 7 actions anciennes. Porté à 1 milliard en août 1937 par l’émission de 2 millions d’actions nouvelles de 100 1. (au pair, 2 nouvelles pour 8 anciennes), avec l’obligation de souscrire pour chaque groupe de 2 actions nouvelles une action de ^ Lin 100 delà Sté A.N.I.C. Porté à 1 milliard 300 millions en mars 1938 par l’émission à 101,50 de 1.500.000 actions nouvelles de 100 lire (jouissance janvier 1938, _ 3 nouvelles pour 20 anciennes) et la création de 1.500.000 actions nouvelles de 100 lire attribuées gratuitement (jouissance janvier 1938, 3 nouvelles pour 20 anciennes)."
    },
    {
      "amount": "800.000.000",
      "currency": "Lira",
      "infodate": "1937-08-01",
      "source": "annuaire_df_1940",
      "comments": "1\tmilliard\t300 millions de\tlire, en 13.000.000 d actions de 100 lire. A l’origine, 2 millions\tde lire,\treprésenté par 20.000 actions de 100\tlire, porté en 1889 à 3 millions de lire, en 1890 à 4 millions de lire et divisé en 80.000 actions de 50 lire, porté en 1892, à 6\tmillions\tde lire, ramené\ten 1896 à 1.500.000\tlire par la réduction de 50 lire à 12 lire\t50 de la valeur nominale\tdes actions, porté en 1898 à 2.500.000 lire, divisé en actions de 100 lire, en 1899 à 5 millions de lire, en 1905 à 6.500.000 lire, en 1910 à 12.500.000 lire, en 1913 à 15 millions de lire, en 1916 à 30 millions, puis successivement jusqu’à 200 millions de lire tant par l’émission d’actions espèces que par suite de l’absorption des Sociétés Colla e Concimi et Unione Italiana fra Consumatori e Fabbricanti di Concimi e Prodetti Chimici ; porté en 1924 à 300 millions et en novembre 1925 à 500 millions par la création de 2 millions d’actions nouvelles (2 nouvelles pour 3 anciennes). Porté à 600 millions en août 1934 par la distribution gratuite de 1.000.000 d’actions nouvelles (1 nouvelle pour 5 anciennes). En mars 1936, le capital a été porté de 600 à 700 millions de lire par l’émission à 103 lire de 1.000.000 d’actions nouvelles de 100 lire, jouissance janvier 1936, dont la souscription a été réservée aux anciens actionnaires à raison de 1 action nouvelle pour 6 actions anciennes, les souscripteurs devant obligatoirement souscrire, au pair, à autant d’action de 100 lire, jouissance juillet 1936, de la Société A.N.I.C. (Azienda Nazionale Idrogenazione Com-bustibili). Le fonds social a été ensuite porté de 700 à 800 millions de lire par la création de 1.000.000 actions nouvelles de 100 lire, entièrement libérées, jouissance janvier 1936, attribuées gratuitement aux anciens actionnaires à raison de 1 action nouvelle pour 7 actions anciennes. Porté à 1 milliard en août 1937 par l’émission de 2 millions d’actions nouvelles de 100 1. (au pair, 2 nouvelles pour 8 anciennes), avec l’obligation de souscrire pour chaque groupe de 2 actions nouvelles une action de ^ Lin 100 delà Sté A.N.I.C. Porté à 1 milliard 300 millions en mars 1938 par l’émission à 101,50 de 1.500.000 actions nouvelles de 100 lire (jouissance janvier 1938, _ 3 nouvelles pour 20 anciennes) et la création de 1.500.000 actions nouvelles de 100 lire attribuées gratuitement (jouissance janvier 1938, 3 nouvelles pour 20 anciennes)."
    },
    {
      "amount": "1.300.000.000",
      "currency": "Lira",
      "infodate": "1938-03-01",
      "source": "annuaire_df_1940",
      "comments": "1\tmilliard\t300 millions de\tlire, en 13.000.000 d actions de 100 lire. A l’origine, 2 millions\tde lire,\treprésenté par 20.000 actions de 100\tlire, porté en 1889 à 3 millions de lire, en 1890 à 4 millions de lire et divisé en 80.000 actions de 50 lire, porté en 1892, à 6\tmillions\tde lire, ramené\ten 1896 à 1.500.000\tlire par la réduction de 50 lire à 12 lire\t50 de la valeur nominale\tdes actions, porté en 1898 à 2.500.000 lire, divisé en actions de 100 lire, en 1899 à 5 millions de lire, en 1905 à 6.500.000 lire, en 1910 à 12.500.000 lire, en 1913 à 15 millions de lire, en 1916 à 30 millions, puis successivement jusqu’à 200 millions de lire tant par l’émission d’actions espèces que par suite de l’absorption des Sociétés Colla e Concimi et Unione Italiana fra Consumatori e Fabbricanti di Concimi e Prodetti Chimici ; porté en 1924 à 300 millions et en novembre 1925 à 500 millions par la création de 2 millions d’actions nouvelles (2 nouvelles pour 3 anciennes). Porté à 600 millions en août 1934 par la distribution gratuite de 1.000.000 d’actions nouvelles (1 nouvelle pour 5 anciennes). En mars 1936, le capital a été porté de 600 à 700 millions de lire par l’émission à 103 lire de 1.000.000 d’actions nouvelles de 100 lire, jouissance janvier 1936, dont la souscription a été réservée aux anciens actionnaires à raison de 1 action nouvelle pour 6 actions anciennes, les souscripteurs devant obligatoirement souscrire, au pair, à autant d’action de 100 lire, jouissance juillet 1936, de la Société A.N.I.C. (Azienda Nazionale Idrogenazione Com-bustibili). Le fonds social a été ensuite porté de 700 à 800 millions de lire par la création de 1.000.000 actions nouvelles de 100 lire, entièrement libérées, jouissance janvier 1936, attribuées gratuitement aux anciens actionnaires à raison de 1 action nouvelle pour 7 actions anciennes. Porté à 1 milliard en août 1937 par l’émission de 2 millions d’actions nouvelles de 100 1. (au pair, 2 nouvelles pour 8 anciennes), avec l’obligation de souscrire pour chaque groupe de 2 actions nouvelles une action de ^ Lin 100 delà Sté A.N.I.C. Porté à 1 milliard 300 millions en mars 1938 par l’émission à 101,50 de 1.500.000 actions nouvelles de 100 lire (jouissance janvier 1938, _ 3 nouvelles pour 20 anciennes) et la création de 1.500.000 actions nouvelles de 100 lire attribuées gratuitement (jouissance janvier 1938, 3 nouvelles pour 20 anciennes)."
    },
    {
      "amount": "2.000.000.000",
      "currency": "Lira",
      "infodate": "1938-03-02",
      "source": "annuaire_df_1945",
      "comments": "Fabbricanti di Concimi e Prodetti Chimici ; porté en 1924 à 300 millions et en novembre 1925 à 500 millions par la création de 2 millions d’actions nouvelles (2 nc>u-velles pour 3 anciennes). Porté à 600 millions en août 1934 par la distribution gratuite de 1.000.000 d’actions nouvelles (1 nouvelle pour 5 anciennes). En mars 1936, le capital a été porté de 600 à 700 millions de lire par l’émission à 103 lire de 1.000.000 d’actions nouvelles de *00 lire, jouissance janvier 1936, dont la souscription a été. réservée aux anciens actionnaires à raison de 1 action nouvelle pour 6 actions anciennes, les souscripteurs devant obligatoirement souscrire, au pair, à autant d’action de 100 lire, jouissance juillet 1936, de la Société A.N.Ï.C. (Azienda Nazionale Idrogena,zione Com-bustibili). Le fonds social a été ensuite porté de 700 à 800 millions de lire par la création de 1.000.000 actions nouvelles de 100 lire, entièrement libérées, jouissance janvier 1936, attribuées gratuitement aux anciens actionnaires à raison de 1 action nouvelle pour 7 actions anciennes. Porté à 1 milliard en août 1937 par l’émission de £ millions d’actions nouvelles de 100 1. (au pair, 2 nouvelles pour 8 anciennes), avec l’obligation de souscrire pour chaque groupe de 2 actions nouvelles une action de Lir. 100 de la Sté A.N.I.C. Porté èC 1 milliard 300 millions en mars 1938 par l’émission à 101,50 de 1.500.000 actions nouvelles de 1Ô0 lire (jouissance janvier 1938, 3 nouvelles pour 20 anciennes) et la création de 1.500.000 actions nouvelles de 100 lire attribuées gratuitement (jouissance janvier 1938, 3 nouvelles pour 20 anciennes). Porté, par étapes successives, à son chiffre actuel de 2 milliards de lire."
    },
    {
      "amount": "4.000.000.000",
      "currency": "Lira",
      "infodate": "1946-01-01",
      "source": "annuaire_df_1948",
      "comments": " Porté à 4 milliards de lire en 1946 par émission à 110 lire de 20 millions d'actions nouvelles de 100 lire (une nouvelle pour une ancienne)."
    },
    {
      "amount": "8.000.000.000",
      "currency": "Lira",
      "infodate": "1947-01-01",
      "source": "annuaire_df_1948",
      "comments": " Porté en 1947 à 8 milliards de lire par incorporation de réserves et création de 40 millions d'actions de 100 lire attribuées titre pour titre, puis à 12 milliards de lire par émission à 112 lire 50 de 40 millions d'actions de 100 lire (1 nouvelle pour 1 ancienne)."
    },
    {
      "amount": "12.000.000.000",
      "currency": "Franc",
      "infodate": "1947-01-02",
      "source": "annuaire_df_1953",
      "comments": " 56 milliards de lire, divisé en S0 millions d'actions de 700 lire. A l'oi'igine, 2 millions de lire, représenté par\t40.000 actions de\t50 lire. Porté\ten\t1889 à 3 millions de lire; en 1890 à 4 millions de lire; en 1892\tà 6 millions de\tlire; ramené\ten\t1896 à 1.500.000 lire par la réduction de 50 lire à 12.50 lire de la valeur nominale des actions. Porté en 1897 à 2.500.000 lire, divisé en actions de 100 lire; en 1899 à 5 millions de lire; en 1905 à 6.500.000 lir*; en 1910 à 12.500.000 lire; en 1913 à 15 millions\tde lire; en 1916\tà 30 millions\tde\tlire; puis successivement jusqu'à 200 millions de lire, tant par\tl'émission d'actions espèces que par suite de l'absorption des Sociétés Unione ConcimI de Milan et Prodotti Chimici Colla e Concimi de Rome. Porté en 1924 à 300 millions de lire et en septembre 1925 à 500 millions de lire par la création d* 2 millions d'actions nouvelles (2 nouvelles pour 3 ane.). Porté à 600 millions de lire en août 1934 parla distribution gratuite de 1 million d'actions nouvelles (1 nouv. pour 5. anc.). En mars 1936, le capital à été porté de 600 à 700 millions de lire par l'émission à 103 lire de 1 million d'actions nouvelles de 100 lire, jouissance janvier 1936, dont la souscription a été réservée aux anciens actionnaires à raison de 1 action nouvelle pour 6 actions anciennes, les souscripteurs devant obligatoirement souscrire, au pair, à autant d'actions de 100 lire, jouissance juillet 1936, de la Société A.N.I.C (Àzienda Nazionale Idrogenazione Combustibili). Le fonds social a été ensuite porté de 700 à 800 millions de lire par la création de 1 million d'actions nouvelles de 100 lire, entièrement libérées, jouissance janvier 1936, attribuées gratuitement, aux anciens actionnaires à raison de i action nouvelle pour 7 actions anciennes. Porté à 1 milliard de lire en août 1937 par l'émission de 2 millions d'action3 nouvelles de 100 lire (au pair, 2 actions nouv. pour 8 anc.), avec l'obligation de souscrire pour chaque groupe de 2 actions nouvelles 1 action de 100 lire de la Société A.N.I.C. Porté à 1.300 millions de lire en mars 193S par l'émission à 101.50 lire de 1.500.000 actions nouvelles de 100 lire (jouissance janvier 1938, 3 nouv. pour 20 anc.) et la création de 1.500.000 actions nouvelles de 100 lire attribuées gratuitement (jouissance janvier 1938, 3-nouv. pour 20 anc.). Porté, par étapes successives, à 2 milliards de lire. Porté à 4 milliards de lire en 1946 par émission à 110 lire de 20 millions • d'actions nouvelles de 100 lire (1 nouv. pour 1 anc.). Porté en 1947 à 8 milliards de lire par incorporation de; réserves et création de 40 millions d'actions de 100 lire attribuées titre pour titre, puis à 12 milliards de lire pa.p émission à 112,50 lire de '40 millions d'actions de 100 lire (1 nouv. pour 1 anc.). Porté en 1948 à 18 milliards de lire par émission à 110 lire de 60 millions d'actions de 100 .ire (1 nouv. pour 2 anc.). Puis à 24 milliards de lire par émission à 110 lire de 60 millions d'actions nouvelles (i pour 3); en 1949 à. 30 milliards de lire par création de 60 millions d'actions nouvelles attribuées gratuitement (1 pour 4). Titres regroupés en 1950 en 500 lire. Porté en 1951 à 40 milliards de lire par émission à 512 lire de 20 millions d'actions de 500 lire, jouissance janvier 1951 (1 pour 3), puis à 48 milliards par élévation du nominal à 600 lire. Porté en 1952 à 56 milliards par élévation du nominal à 700 lire."
    },
    {
      "amount": "18.000.000.000",
      "currency": "Lira",
      "infodate": "1948-01-01",
      "source": "annuaire_df_1948",
      "comments": " Porté en 1948 à 18 ihilliards de lire par émission, à 110 lire, de'60 millions d'actions de 100 .lire (1 nouv. pour 2 anc.). 18 milliards de lire, divisé en 180 millions d actions de 100 .lire"
    },
    {
      "amount": "24.000.000.000",
      "currency": "Franc",
      "infodate": "1948-01-02",
      "source": "annuaire_df_1953",
      "comments": " 56 milliards de lire, divisé en S0 millions d'actions de 700 lire. A l'oi'igine, 2 millions de lire, représenté par\t40.000 actions de\t50 lire. Porté\ten\t1889 à 3 millions de lire; en 1890 à 4 millions de lire; en 1892\tà 6 millions de\tlire; ramené\ten\t1896 à 1.500.000 lire par la réduction de 50 lire à 12.50 lire de la valeur nominale des actions. Porté en 1897 à 2.500.000 lire, divisé en actions de 100 lire; en 1899 à 5 millions de lire; en 1905 à 6.500.000 lir*; en 1910 à 12.500.000 lire; en 1913 à 15 millions\tde lire; en 1916\tà 30 millions\tde\tlire; puis successivement jusqu'à 200 millions de lire, tant par\tl'émission d'actions espèces que par suite de l'absorption des Sociétés Unione ConcimI de Milan et Prodotti Chimici Colla e Concimi de Rome. Porté en 1924 à 300 millions de lire et en septembre 1925 à 500 millions de lire par la création d* 2 millions d'actions nouvelles (2 nouvelles pour 3 ane.). Porté à 600 millions de lire en août 1934 parla distribution gratuite de 1 million d'actions nouvelles (1 nouv. pour 5. anc.). En mars 1936, le capital à été porté de 600 à 700 millions de lire par l'émission à 103 lire de 1 million d'actions nouvelles de 100 lire, jouissance janvier 1936, dont la souscription a été réservée aux anciens actionnaires à raison de 1 action nouvelle pour 6 actions anciennes, les souscripteurs devant obligatoirement souscrire, au pair, à autant d'actions de 100 lire, jouissance juillet 1936, de la Société A.N.I.C (Àzienda Nazionale Idrogenazione Combustibili). Le fonds social a été ensuite porté de 700 à 800 millions de lire par la création de 1 million d'actions nouvelles de 100 lire, entièrement libérées, jouissance janvier 1936, attribuées gratuitement, aux anciens actionnaires à raison de i action nouvelle pour 7 actions anciennes. Porté à 1 milliard de lire en août 1937 par l'émission de 2 millions d'action3 nouvelles de 100 lire (au pair, 2 actions nouv. pour 8 anc.), avec l'obligation de souscrire pour chaque groupe de 2 actions nouvelles 1 action de 100 lire de la Société A.N.I.C. Porté à 1.300 millions de lire en mars 193S par l'émission à 101.50 lire de 1.500.000 actions nouvelles de 100 lire (jouissance janvier 1938, 3 nouv. pour 20 anc.) et la création de 1.500.000 actions nouvelles de 100 lire attribuées gratuitement (jouissance janvier 1938, 3-nouv. pour 20 anc.). Porté, par étapes successives, à 2 milliards de lire. Porté à 4 milliards de lire en 1946 par émission à 110 lire de 20 millions • d'actions nouvelles de 100 lire (1 nouv. pour 1 anc.). Porté en 1947 à 8 milliards de lire par incorporation de; réserves et création de 40 millions d'actions de 100 lire attribuées titre pour titre, puis à 12 milliards de lire pa.p émission à 112,50 lire de '40 millions d'actions de 100 lire (1 nouv. pour 1 anc.). Porté en 1948 à 18 milliards de lire par émission à 110 lire de 60 millions d'actions de 100 .ire (1 nouv. pour 2 anc.). Puis à 24 milliards de lire par émission à 110 lire de 60 millions d'actions nouvelles (i pour 3); en 1949 à. 30 milliards de lire par création de 60 millions d'actions nouvelles attribuées gratuitement (1 pour 4). Titres regroupés en 1950 en 500 lire. Porté en 1951 à 40 milliards de lire par émission à 512 lire de 20 millions d'actions de 500 lire, jouissance janvier 1951 (1 pour 3), puis à 48 milliards par élévation du nominal à 600 lire. Porté en 1952 à 56 milliards par élévation du nominal à 700 lire."
    },
    {
      "amount": "30.000.000.000",
      "currency": "Franc",
      "infodate": "1949-01-01",
      "source": "annuaire_df_1953",
      "comments": "56 milliards de lire, divisé en S0 millions d'actions de 700 lire. A l'oi'igine, 2 millions de lire, représenté par\t40.000 actions de\t50 lire. Porté\ten\t1889 à 3 millions de lire; en 1890 à 4 millions de lire; en 1892\tà 6 millions de\tlire; ramené\ten\t1896 à 1.500.000 lire par la réduction de 50 lire à 12.50 lire de la valeur nominale des actions. Porté en 1897 à 2.500.000 lire, divisé en actions de 100 lire; en 1899 à 5 millions de lire; en 1905 à 6.500.000 lir*; en 1910 à 12.500.000 lire; en 1913 à 15 millions\tde lire; en 1916\tà 30 millions\tde\tlire; puis successivement jusqu'à 200 millions de lire, tant par\tl'émission d'actions espèces que par suite de l'absorption des Sociétés Unione ConcimI de Milan et Prodotti Chimici Colla e Concimi de Rome. Porté en 1924 à 300 millions de lire et en septembre 1925 à 500 millions de lire par la création d* 2 millions d'actions nouvelles (2 nouvelles pour 3 ane.). Porté à 600 millions de lire en août 1934 parla distribution gratuite de 1 million d'actions nouvelles (1 nouv. pour 5. anc.). En mars 1936, le capital à été porté de 600 à 700 millions de lire par l'émission à 103 lire de 1 million d'actions nouvelles de 100 lire, jouissance janvier 1936, dont la souscription a été réservée aux anciens actionnaires à raison de 1 action nouvelle pour 6 actions anciennes, les souscripteurs devant obligatoirement souscrire, au pair, à autant d'actions de 100 lire, jouissance juillet 1936, de la Société A.N.I.C (Àzienda Nazionale Idrogenazione Combustibili). Le fonds social a été ensuite porté de 700 à 800 millions de lire par la création de 1 million d'actions nouvelles de 100 lire, entièrement libérées, jouissance janvier 1936, attribuées gratuitement, aux anciens actionnaires à raison de i action nouvelle pour 7 actions anciennes. Porté à 1 milliard de lire en août 1937 par l'émission de 2 millions d'action3 nouvelles de 100 lire (au pair, 2 actions nouv. pour 8 anc.), avec l'obligation de souscrire pour chaque groupe de 2 actions nouvelles 1 action de 100 lire de la Société A.N.I.C. Porté à 1.300 millions de lire en mars 193S par l'émission à 101.50 lire de 1.500.000 actions nouvelles de 100 lire (jouissance janvier 1938, 3 nouv. pour 20 anc.) et la création de 1.500.000 actions nouvelles de 100 lire attribuées gratuitement (jouissance janvier 1938, 3-nouv. pour 20 anc.). Porté, par étapes successives, à 2 milliards de lire. Porté à 4 milliards de lire en 1946 par émission à 110 lire de 20 millions • d'actions nouvelles de 100 lire (1 nouv. pour 1 anc.). Porté en 1947 à 8 milliards de lire par incorporation de; réserves et création de 40 millions d'actions de 100 lire attribuées titre pour titre, puis à 12 milliards de lire pa.p émission à 112,50 lire de '40 millions d'actions de 100 lire (1 nouv. pour 1 anc.). Porté en 1948 à 18 milliards de lire par émission à 110 lire de 60 millions d'actions de 100 .ire (1 nouv. pour 2 anc.). Puis à 24 milliards de lire par émission à 110 lire de 60 millions d'actions nouvelles (i pour 3); en 1949 à. 30 milliards de lire par création de 60 millions d'actions nouvelles attribuées gratuitement (1 pour 4). Titres regroupés en 1950 en 500 lire. Porté en 1951 à 40 milliards de lire par émission à 512 lire de 20 millions d'actions de 500 lire, jouissance janvier 1951 (1 pour 3), puis à 48 milliards par élévation du nominal à 600 lire. Porté en 1952 à 56 milliards par élévation du nominal à 700 lire."
    },
    {
      "amount": "40.000.000.000",
      "currency": "Franc",
      "infodate": "1951-01-01",
      "source": "annuaire_df_1953",
      "comments": " 56 milliards de lire, divisé en S0 millions d'actions de 700 lire. A l'oi'igine, 2 millions de lire, représenté par\t40.000 actions de\t50 lire. Porté\ten\t1889 à 3 millions de lire; en 1890 à 4 millions de lire; en 1892\tà 6 millions de\tlire; ramené\ten\t1896 à 1.500.000 lire par la réduction de 50 lire à 12.50 lire de la valeur nominale des actions. Porté en 1897 à 2.500.000 lire, divisé en actions de 100 lire; en 1899 à 5 millions de lire; en 1905 à 6.500.000 lir*; en 1910 à 12.500.000 lire; en 1913 à 15 millions\tde lire; en 1916\tà 30 millions\tde\tlire; puis successivement jusqu'à 200 millions de lire, tant par\tl'émission d'actions espèces que par suite de l'absorption des Sociétés Unione ConcimI de Milan et Prodotti Chimici Colla e Concimi de Rome. Porté en 1924 à 300 millions de lire et en septembre 1925 à 500 millions de lire par la création d* 2 millions d'actions nouvelles (2 nouvelles pour 3 ane.). Porté à 600 millions de lire en août 1934 parla distribution gratuite de 1 million d'actions nouvelles (1 nouv. pour 5. anc.). En mars 1936, le capital à été porté de 600 à 700 millions de lire par l'émission à 103 lire de 1 million d'actions nouvelles de 100 lire, jouissance janvier 1936, dont la souscription a été réservée aux anciens actionnaires à raison de 1 action nouvelle pour 6 actions anciennes, les souscripteurs devant obligatoirement souscrire, au pair, à autant d'actions de 100 lire, jouissance juillet 1936, de la Société A.N.I.C (Àzienda Nazionale Idrogenazione Combustibili). Le fonds social a été ensuite porté de 700 à 800 millions de lire par la création de 1 million d'actions nouvelles de 100 lire, entièrement libérées, jouissance janvier 1936, attribuées gratuitement, aux anciens actionnaires à raison de i action nouvelle pour 7 actions anciennes. Porté à 1 milliard de lire en août 1937 par l'émission de 2 millions d'action3 nouvelles de 100 lire (au pair, 2 actions nouv. pour 8 anc.), avec l'obligation de souscrire pour chaque groupe de 2 actions nouvelles 1 action de 100 lire de la Société A.N.I.C. Porté à 1.300 millions de lire en mars 193S par l'émission à 101.50 lire de 1.500.000 actions nouvelles de 100 lire (jouissance janvier 1938, 3 nouv. pour 20 anc.) et la création de 1.500.000 actions nouvelles de 100 lire attribuées gratuitement (jouissance janvier 1938, 3-nouv. pour 20 anc.). Porté, par étapes successives, à 2 milliards de lire. Porté à 4 milliards de lire en 1946 par émission à 110 lire de 20 millions • d'actions nouvelles de 100 lire (1 nouv. pour 1 anc.). Porté en 1947 à 8 milliards de lire par incorporation de; réserves et création de 40 millions d'actions de 100 lire attribuées titre pour titre, puis à 12 milliards de lire pa.p émission à 112,50 lire de '40 millions d'actions de 100 lire (1 nouv. pour 1 anc.). Porté en 1948 à 18 milliards de lire par émission à 110 lire de 60 millions d'actions de 100 .ire (1 nouv. pour 2 anc.). Puis à 24 milliards de lire par émission à 110 lire de 60 millions d'actions nouvelles (i pour 3); en 1949 à. 30 milliards de lire par création de 60 millions d'actions nouvelles attribuées gratuitement (1 pour 4). Titres regroupés en 1950 en 500 lire. Porté en 1951 à 40 milliards de lire par émission à 512 lire de 20 millions d'actions de 500 lire, jouissance janvier 1951 (1 pour 3), puis à 48 milliards par élévation du nominal à 600 lire. Porté en 1952 à 56 milliards par élévation du nominal à 700 lire."
    },
    {
      "amount": "48.000.000.000",
      "currency": "Franc",
      "infodate": "1951-12-31",
      "source": "annuaire_df_1953",
      "comments": "(bilan)  56 milliards de lire, divisé en S0 millions d'actions de 700 lire. A l'oi'igine, 2 millions de lire, représenté par\t40.000 actions de\t50 lire. Porté\ten\t1889 à 3 millions de lire; en 1890 à 4 millions de lire; en 1892\tà 6 millions de\tlire; ramené\ten\t1896 à 1.500.000 lire par la réduction de 50 lire à 12.50 lire de la valeur nominale des actions. Porté en 1897 à 2.500.000 lire, divisé en actions de 100 lire; en 1899 à 5 millions de lire; en 1905 à 6.500.000 lir*; en 1910 à 12.500.000 lire; en 1913 à 15 millions\tde lire; en 1916\tà 30 millions\tde\tlire; puis successivement jusqu'à 200 millions de lire, tant par\tl'émission d'actions espèces que par suite de l'absorption des Sociétés Unione ConcimI de Milan et Prodotti Chimici Colla e Concimi de Rome. Porté en 1924 à 300 millions de lire et en septembre 1925 à 500 millions de lire par la création d* 2 millions d'actions nouvelles (2 nouvelles pour 3 ane.). Porté à 600 millions de lire en août 1934 parla distribution gratuite de 1 million d'actions nouvelles (1 nouv. pour 5. anc.). En mars 1936, le capital à été porté de 600 à 700 millions de lire par l'émission à 103 lire de 1 million d'actions nouvelles de 100 lire, jouissance janvier 1936, dont la souscription a été réservée aux anciens actionnaires à raison de 1 action nouvelle pour 6 actions anciennes, les souscripteurs devant obligatoirement souscrire, au pair, à autant d'actions de 100 lire, jouissance juillet 1936, de la Société A.N.I.C (Àzienda Nazionale Idrogenazione Combustibili). Le fonds social a été ensuite porté de 700 à 800 millions de lire par la création de 1 million d'actions nouvelles de 100 lire, entièrement libérées, jouissance janvier 1936, attribuées gratuitement, aux anciens actionnaires à raison de i action nouvelle pour 7 actions anciennes. Porté à 1 milliard de lire en août 1937 par l'émission de 2 millions d'action3 nouvelles de 100 lire (au pair, 2 actions nouv. pour 8 anc.), avec l'obligation de souscrire pour chaque groupe de 2 actions nouvelles 1 action de 100 lire de la Société A.N.I.C. Porté à 1.300 millions de lire en mars 193S par l'émission à 101.50 lire de 1.500.000 actions nouvelles de 100 lire (jouissance janvier 1938, 3 nouv. pour 20 anc.) et la création de 1.500.000 actions nouvelles de 100 lire attribuées gratuitement (jouissance janvier 1938, 3-nouv. pour 20 anc.). Porté, par étapes successives, à 2 milliards de lire. Porté à 4 milliards de lire en 1946 par émission à 110 lire de 20 millions • d'actions nouvelles de 100 lire (1 nouv. pour 1 anc.). Porté en 1947 à 8 milliards de lire par incorporation de; réserves et création de 40 millions d'actions de 100 lire attribuées titre pour titre, puis à 12 milliards de lire pa.p émission à 112,50 lire de '40 millions d'actions de 100 lire (1 nouv. pour 1 anc.). Porté en 1948 à 18 milliards de lire par émission à 110 lire de 60 millions d'actions de 100 .ire (1 nouv. pour 2 anc.). Puis à 24 milliards de lire par émission à 110 lire de 60 millions d'actions nouvelles (i pour 3); en 1949 à. 30 milliards de lire par création de 60 millions d'actions nouvelles attribuées gratuitement (1 pour 4). Titres regroupés en 1950 en 500 lire. Porté en 1951 à 40 milliards de lire par émission à 512 lire de 20 millions d'actions de 500 lire, jouissance janvier 1951 (1 pour 3), puis à 48 milliards par élévation du nominal à 600 lire. Porté en 1952 à 56 milliards par élévation du nominal à 700 lire."
    },
    {
      "amount": "56.000.000.000",
      "currency": "Franc",
      "infodate": "1952-01-01",
      "source": "annuaire_df_1953",
      "comments": " 56 milliards de lire, divisé en S0 millions d'actions de 700 lire. A l'oi'igine, 2 millions de lire, représenté par\t40.000 actions de\t50 lire. Porté\ten\t1889 à 3 millions de lire; en 1890 à 4 millions de lire; en 1892\tà 6 millions de\tlire; ramené\ten\t1896 à 1.500.000 lire par la réduction de 50 lire à 12.50 lire de la valeur nominale des actions. Porté en 1897 à 2.500.000 lire, divisé en actions de 100 lire; en 1899 à 5 millions de lire; en 1905 à 6.500.000 lir*; en 1910 à 12.500.000 lire; en 1913 à 15 millions\tde lire; en 1916\tà 30 millions\tde\tlire; puis successivement jusqu'à 200 millions de lire, tant par\tl'émission d'actions espèces que par suite de l'absorption des Sociétés Unione ConcimI de Milan et Prodotti Chimici Colla e Concimi de Rome. Porté en 1924 à 300 millions de lire et en septembre 1925 à 500 millions de lire par la création d* 2 millions d'actions nouvelles (2 nouvelles pour 3 ane.). Porté à 600 millions de lire en août 1934 parla distribution gratuite de 1 million d'actions nouvelles (1 nouv. pour 5. anc.). En mars 1936, le capital à été porté de 600 à 700 millions de lire par l'émission à 103 lire de 1 million d'actions nouvelles de 100 lire, jouissance janvier 1936, dont la souscription a été réservée aux anciens actionnaires à raison de 1 action nouvelle pour 6 actions anciennes, les souscripteurs devant obligatoirement souscrire, au pair, à autant d'actions de 100 lire, jouissance juillet 1936, de la Société A.N.I.C (Àzienda Nazionale Idrogenazione Combustibili). Le fonds social a été ensuite porté de 700 à 800 millions de lire par la création de 1 million d'actions nouvelles de 100 lire, entièrement libérées, jouissance janvier 1936, attribuées gratuitement, aux anciens actionnaires à raison de i action nouvelle pour 7 actions anciennes. Porté à 1 milliard de lire en août 1937 par l'émission de 2 millions d'action3 nouvelles de 100 lire (au pair, 2 actions nouv. pour 8 anc.), avec l'obligation de souscrire pour chaque groupe de 2 actions nouvelles 1 action de 100 lire de la Société A.N.I.C. Porté à 1.300 millions de lire en mars 193S par l'émission à 101.50 lire de 1.500.000 actions nouvelles de 100 lire (jouissance janvier 1938, 3 nouv. pour 20 anc.) et la création de 1.500.000 actions nouvelles de 100 lire attribuées gratuitement (jouissance janvier 1938, 3-nouv. pour 20 anc.). Porté, par étapes successives, à 2 milliards de lire. Porté à 4 milliards de lire en 1946 par émission à 110 lire de 20 millions • d'actions nouvelles de 100 lire (1 nouv. pour 1 anc.). Porté en 1947 à 8 milliards de lire par incorporation de; réserves et création de 40 millions d'actions de 100 lire attribuées titre pour titre, puis à 12 milliards de lire pa.p émission à 112,50 lire de '40 millions d'actions de 100 lire (1 nouv. pour 1 anc.). Porté en 1948 à 18 milliards de lire par émission à 110 lire de 60 millions d'actions de 100 .ire (1 nouv. pour 2 anc.). Puis à 24 milliards de lire par émission à 110 lire de 60 millions d'actions nouvelles (i pour 3); en 1949 à. 30 milliards de lire par création de 60 millions d'actions nouvelles attribuées gratuitement (1 pour 4). Titres regroupés en 1950 en 500 lire. Porté en 1951 à 40 milliards de lire par émission à 512 lire de 20 millions d'actions de 500 lire, jouissance janvier 1951 (1 pour 3), puis à 48 milliards par élévation du nominal à 600 lire. Porté en 1952 à 56 milliards par élévation du nominal à 700 lire."
    }
  ],
  "profit_dividends": [
    {
      "first_date": "1906-12-31",
      "last_date": "1951-12-31",
      "obs_count": 390
    }
  ],
  "public_status": false,
  "stock_exchanges": {
    "1": {
      "id": 1,
      "name": "Paris (Official List)",
      "forward_prices_stats": {
        "start_date": "1929-07-31",
        "end_date": "1937-12-31"
      },
      "listings_stats": {
        "start_date": "1929-07-31"
      },
      "options_prices_stats": {
        "start_date": "1929-07-31",
        "end_date": "1936-12-15"
      },
      "spot_prices_stats": {
        "start_date": "1929-07-31",
        "end_date": "1969-06-02"
      }
    },
    "2": {
      "id": 2,
      "name": "Paris OTC (Coulisse)",
      "listings_stats": {
        "start_date": "1892-12-15"
      },
      "spot_prices_stats": {
        "start_date": "1892-12-15",
        "end_date": "1898-06-30"
      }
    }
  },
  "securities": {
    "8810": {
      "id": 8810,
      "name": "Montecatini (Sté Générale pour l'Industrie Minière et Agricole), act. 100 lit., t. p. (n°s 1 à 875000, 1000001 à 1125000, 2000001 à 2100000, 2200001 à 2450000, 4000001 à 4150000, 4300001 à 4450000 et 5452501 à 5802500)",
      "share_type": {
        "id": 1,
        "name": "Stock (Action)"
      },
      "types": [
        {
          "start_date": "1929-07-31",
          "end_date": "3999-12-31",
          "id": 11,
          "name": "Action ordinaire",
          "stock_group": "S"
        }
      ],
      "start_date": "1929-07-31",
      "end_date": "3999-12-31",
      "prices_from": "1929-07-31",
      "prices_to": "1951-01-15",
      "is_mainstock": 1,
      "prices_count": 914
    },
    "8813": {
      "id": 8813,
      "name": "Montecatini (Sté Générale pour l'Industrie Minière et Agricole), act. 100 lit., t. p. (n°s 1 à 875000, 1000001 à 1125000, 2000001 à 2100000, 2200001 à 2450000, 4000001 à 4150000, 4300001 à 4450000 et 5452501 à 5802500) Coup. de 5",
      "share_type": {
        "id": 1,
        "name": "Stock (Action)"
      },
      "types": [
        {
          "start_date": "1929-07-31",
          "end_date": "3999-12-31",
          "id": 11,
          "name": "Action ordinaire",
          "stock_group": "S"
        }
      ],
      "start_date": "1929-07-31",
      "end_date": "3999-12-31",
      "prices_from": "1929-07-31",
      "prices_to": "1951-01-15",
      "is_mainstock": 0,
      "prices_count": 367
    },
    "8814": {
      "id": 8814,
      "name": "Montecatini (Sté Générale pour l'Industrie Minière et Agricole), act. 100 lit., t. p. (n°s 1 à 875000, 1000001 à 1125000, 2000001 à 2100000, 2200001 à 2450000, 4000001 à 4150000, 4300001 à 4450000 et 5452501 à 5802500) Coup. de 10",
      "share_type": {
        "id": 1,
        "name": "Stock (Action)"
      },
      "types": [
        {
          "start_date": "1929-07-31",
          "end_date": "3999-12-31",
          "id": 11,
          "name": "Action ordinaire",
          "stock_group": "S"
        }
      ],
      "start_date": "1929-07-31",
      "end_date": "3999-12-31",
      "prices_from": "1929-07-31",
      "prices_to": "1951-01-15",
      "is_mainstock": 0,
      "prices_count": 355
    },
    "8816": {
      "id": 8816,
      "name": "Montecatini (Sté Générale pour l'Industrie Minière et Agricole), act. 100 lit., t. p. (n°s 1 à 875000, 1000001 à 1125000, 2000001 à 2100000, 2200001 à 2450000, 4000001 à 4150000, 4300001 à 4450000 et 5452501 à 5802500) Coup. de 25",
      "share_type": {
        "id": 1,
        "name": "Stock (Action)"
      },
      "types": [
        {
          "start_date": "1929-07-31",
          "end_date": "3999-12-31",
          "id": 11,
          "name": "Action ordinaire",
          "stock_group": "S"
        }
      ],
      "start_date": "1929-07-31",
      "end_date": "3999-12-31",
      "prices_from": "1929-07-31",
      "prices_to": "1951-01-15",
      "is_mainstock": 0,
      "prices_count": 323
    },
    "10850": {
      "id": 10850,
      "name": "Montecatini (Sté Générale pour l'Industrie Minière et Agricole). act. 100 lit. t.p. (nos 1 à 875000, 1000001 à 1125000, 2000001 à 2100000, 2200001 à 2450000, 4000001 à 4150000, 4300001 à 4450000 et 5452501 à 5802500) (Unités, coup. de 5, de 10 et de 25)",
      "share_type": {
        "id": 1,
        "name": "Stock (Action)"
      },
      "types": [
        {
          "start_date": "1936-05-11",
          "end_date": "3999-12-31",
          "id": 18,
          "name": "Action",
          "stock_group": "S"
        }
      ],
      "start_date": "1936-05-11",
      "end_date": "3999-12-31",
      "prices_from": "1936-05-15",
      "prices_to": "1937-12-31",
      "is_mainstock": 0,
      "prices_count": 143
    },
    "14051": {
      "id": 14051,
      "name": "Montecatini (Societa Generale per l'Industria Mineraria e Chimica), Act. anc. 700 lire, t. p. (ex-dr. du 16/6/53) (n.) (Livraison en crédit S.I.C.O.V.A.M.)",
      "share_type": {
        "id": 1,
        "name": "Stock (Action)"
      },
      "types": [
        {
          "start_date": "1951-04-16",
          "end_date": "3999-12-31",
          "id": 11,
          "name": "Action ordinaire",
          "stock_group": "S"
        }
      ],
      "start_date": "1951-04-16",
      "end_date": "3999-12-31",
      "prices_from": "1951-04-16",
      "prices_to": "1955-11-15",
      "is_mainstock": 0,
      "prices_count": 119
    },
    "14919": {
      "id": 14919,
      "name": "Montecatini (Societa Generale per l'Industria Mineraria e Chimica), act. 1000 lire, t. p. (n.) (Livraison en crédit S.I.C.O.V.A.M.)",
      "share_type": {
        "id": 1,
        "name": "Stock (Action)"
      },
      "types": [
        {
          "start_date": "1954-03-16",
          "end_date": "3999-12-31",
          "id": 11,
          "name": "Action ordinaire",
          "stock_group": "S"
        }
      ],
      "start_date": "1954-03-16",
      "end_date": "3999-12-31",
      "prices_from": "1954-03-16",
      "prices_to": "1969-06-02",
      "is_mainstock": 0,
      "prices_count": 492
    },
    "15979": {
      "id": 15979,
      "name": "Montecatini (societa generale per l'industria mineraria e chemica), act 1000 lit (nom)(liv en credit SICOVAM)(par 25 actions)",
      "share_type": {
        "id": 1,
        "name": "Stock (Action)"
      },
      "types": [
        {
          "start_date": "1959-03-02",
          "end_date": "3999-12-31",
          "id": 18,
          "name": "Action",
          "stock_group": "S"
        }
      ],
      "start_date": "1959-03-02",
      "end_date": "3999-12-31",
      "prices_from": null,
      "prices_to": null,
      "is_mainstock": 0,
      "prices_count": 0
    },
    "16335": {
      "id": 16335,
      "name": "Montecatini (Societa Gle per l'Industria Mineraria e Chemica), actions 1000LIT (nom.) (Livraison en crédit SICOVAM) (par 100 actions)",
      "share_type": {
        "id": 1,
        "name": "Stock (Action)"
      },
      "types": [
        {
          "start_date": "1960-12-22",
          "end_date": "3999-12-31",
          "id": 18,
          "name": "Action",
          "stock_group": "S"
        }
      ],
      "start_date": "1960-12-22",
      "end_date": "3999-12-31",
      "prices_from": null,
      "prices_to": null,
      "is_mainstock": 0,
      "prices_count": 0
    },
    "25482": {
      "id": 25482,
      "name": "Montecatini (Sté Générale pour l+Industrie Minière et Agricole), act. 100 lit, t.p. (nos 1 à 875000, 1000001 à 1125000, 2000001 à 2100000, 2200001 à 2450000, 4000001 à 4150000 et 4300001 à 4450000) (ex-dr.,ex-c. 37))",
      "share_type": {
        "id": 1,
        "name": "Stock (Action)"
      },
      "types": [
        {
          "start_date": "1000-01-01",
          "end_date": "3999-12-31",
          "id": 18,
          "name": "Action",
          "stock_group": "S"
        }
      ],
      "start_date": "1600-01-01",
      "end_date": "3999-12-31",
      "prices_from": "1934-10-15",
      "prices_to": "1936-04-30",
      "is_mainstock": 0,
      "prices_count": 210
    },
    "25483": {
      "id": 25483,
      "name": "Montecatini (Sté Générale pour l+Industrie Minière et Agricole), act. 100 lit, t.p. (nos 1 à 875000, 1000001 à 1125000, 2000001 à 2100000, 2200001 à 2450000, 4000001 à 4150000 et 4300001 à 4450000) (ex-dr.,ex-c. 37)) coup. de 5",
      "share_type": {
        "id": 1,
        "name": "Stock (Action)"
      },
      "types": [
        {
          "start_date": "1000-01-01",
          "end_date": "3999-12-31",
          "id": 18,
          "name": "Action",
          "stock_group": "S"
        }
      ],
      "start_date": "1600-01-01",
      "end_date": "3999-12-31",
      "prices_from": "1934-10-15",
      "prices_to": "1936-04-30",
      "is_mainstock": 0,
      "prices_count": 61
    },
    "25484": {
      "id": 25484,
      "name": "Montecatini (Sté Générale pour l+Industrie Minière et Agricole), act. 100 lit, t.p. (nos 1 à 875000, 1000001 à 1125000, 2000001 à 2100000, 2200001 à 2450000, 4000001 à 4150000 et 4300001 à 4450000) (ex-dr.,ex-c. 37)) coup. de 10",
      "share_type": {
        "id": 1,
        "name": "Stock (Action)"
      },
      "types": [
        {
          "start_date": "1000-01-01",
          "end_date": "3999-12-31",
          "id": 18,
          "name": "Action",
          "stock_group": "S"
        }
      ],
      "start_date": "1600-01-01",
      "end_date": "3999-12-31",
      "prices_from": "1934-10-01",
      "prices_to": "1936-04-30",
      "is_mainstock": 0,
      "prices_count": 61
    },
    "25485": {
      "id": 25485,
      "name": "Montecatini (Sté Générale pour l+Industrie Minière et Agricole), act. 100 lit, t.p. (nos 1 à 875000, 1000001 à 1125000, 2000001 à 2100000, 2200001 à 2450000, 4000001 à 4150000 et 4300001 à 4450000) (ex-dr.,ex-c. 37)) coup. de 25",
      "share_type": {
        "id": 1,
        "name": "Stock (Action)"
      },
      "types": [
        {
          "start_date": "1000-01-01",
          "end_date": "3999-12-31",
          "id": 18,
          "name": "Action",
          "stock_group": "S"
        }
      ],
      "start_date": "1600-01-01",
      "end_date": "3999-12-31",
      "prices_from": "1934-10-15",
      "prices_to": "1936-04-30",
      "is_mainstock": 0,
      "prices_count": 56
    },
    "101272": {
      "id": 101272,
      "name": "Act. 100 lire. Montecatini (bon de droit) (1 action nouv. 500 lire émise à 512 lire, jce janv. 1951, pour 15 actions anciennes de 100 lire) (Voir Avis n° 27446)",
      "share_type": {
        "id": 4,
        "name": "Rights (Droits)"
      },
      "types": [
        {
          "start_date": "1951-01-08",
          "end_date": "3999-12-31",
          "id": 501,
          "name": "Droit de souscription",
          "stock_group": "R"
        }
      ],
      "start_date": "1951-01-08",
      "end_date": "3999-12-31",
      "prices_from": "1951-01-08",
      "prices_to": "1951-01-08",
      "is_mainstock": 0,
      "prices_count": 1
    },
    "101439": {
      "id": 101439,
      "name": "Act. Montecatini (droit à répartition et coupon 40). Toutes coupures. Pour 7 act. anc., 1 act. nouv. Attribuée contre paiement de l'impôt (10 lire par act. nouv. attribuée) (Voir Avis n° 17168)",
      "share_type": {
        "id": 4,
        "name": "Rights (Droits)"
      },
      "types": [
        {
          "start_date": "1936-07-27",
          "end_date": "1936-09-04",
          "id": 502,
          "name": "Droit d'attribution",
          "stock_group": "R"
        }
      ],
      "start_date": "1936-07-27",
      "end_date": "1936-09-04",
      "prices_from": "1936-07-28",
      "prices_to": "1936-08-31",
      "is_mainstock": 0,
      "prices_count": 11
    },
    "101440": {
      "id": 101440,
      "name": "Act. Montecatini (droit à souscription et estampillage). Toutes coupures. Pour 6 act. anc., 1 act. nouv. émise à 103 lire + obligatoirement 1 act. A.N.I.C., émise à 100 lire (Voir Avis n° 17168)",
      "share_type": {
        "id": 4,
        "name": "Rights (Droits)"
      },
      "types": [
        {
          "start_date": "1936-07-27",
          "end_date": "1936-08-07",
          "id": 501,
          "name": "Droit de souscription",
          "stock_group": "R"
        }
      ],
      "start_date": "1936-07-27",
      "end_date": "1936-08-07",
      "prices_from": null,
      "prices_to": null,
      "is_mainstock": 0,
      "prices_count": 0
    },
    "101441": {
      "id": 101441,
      "name": "Act. MONTECATINI (droit et coupon 42). Pour 8 act. Anc. 2 act. Nouv. Émises à 104 lire + obligatoirement 1 action A.N.I.C. Émise à 100 lire. (voir avis n° 17715)",
      "share_type": {
        "id": 4,
        "name": "Rights (Droits)"
      },
      "types": [
        {
          "start_date": "1937-09-03",
          "end_date": "1937-09-17",
          "id": 501,
          "name": "Droit de souscription",
          "stock_group": "R"
        }
      ],
      "start_date": "1937-09-03",
      "end_date": "1937-09-17",
      "prices_from": "1937-09-03",
      "prices_to": "1937-09-15",
      "is_mainstock": 0,
      "prices_count": 5
    },
    "101492": {
      "id": 101492,
      "name": "Act. SOCIETE MONTECATINI (voir avis n° 17968). droit et coupon 44. Pour 20 actions anc., 3 actions nouv. Émises à 101 lire 50.",
      "share_type": {
        "id": 4,
        "name": "Rights (Droits)"
      },
      "types": [
        {
          "start_date": "1938-04-12",
          "end_date": "1938-04-20",
          "id": 501,
          "name": "Droit de souscription",
          "stock_group": "R"
        }
      ],
      "start_date": "1938-04-12",
      "end_date": "1938-04-20",
      "prices_from": "1938-04-12",
      "prices_to": "1938-04-19",
      "is_mainstock": 0,
      "prices_count": 4
    },
    "101493": {
      "id": 101493,
      "name": "Act. SOCIETE MONTECATINI (voir avis n° 17968). droit et coupon 45. Pour 20 actions anc., 3 actions nouv. Attribuées gratuitement.",
      "share_type": {
        "id": 4,
        "name": "Rights (Droits)"
      },
      "types": [
        {
          "start_date": "1938-04-12",
          "end_date": "1938-05-13",
          "id": 502,
          "name": "Droit d'attribution",
          "stock_group": "R"
        }
      ],
      "start_date": "1938-04-12",
      "end_date": "1938-05-13",
      "prices_from": "1938-04-13",
      "prices_to": "1938-05-02",
      "is_mainstock": 0,
      "prices_count": 8
    },
    "102726": {
      "id": 102726,
      "name": "Act. Montecatini (Sté Gle pour l'Industrie Minière et Agricole) (droit à l'attribution et coupon 37). Pour 5 act. anciennes, 1 action nouvelle attribuée gratuitement",
      "share_type": {
        "id": 4,
        "name": "Rights (Droits)"
      },
      "types": [
        {
          "start_date": "1934-10-01",
          "end_date": "1934-12-22",
          "id": 502,
          "name": "Droit d'attribution",
          "stock_group": "R"
        }
      ],
      "start_date": "1934-10-01",
      "end_date": "1934-12-22",
      "prices_from": "1934-10-01",
      "prices_to": "1934-12-15",
      "is_mainstock": 0,
      "prices_count": 13
    },
    "103727": {
      "id": 103727,
      "name": "Montecatini",
      "share_type": {
        "id": 4,
        "name": "Rights (Droits)"
      },
      "types": [
        {
          "start_date": "1946-10-01",
          "end_date": "1946-10-15",
          "id": 501,
          "name": "Droit de souscription",
          "stock_group": "R"
        }
      ],
      "start_date": "1946-10-01",
      "end_date": "1946-10-15",
      "prices_from": "1946-10-01",
      "prices_to": "1946-10-15",
      "is_mainstock": 0,
      "prices_count": 2
    },
    "103728": {
      "id": 103728,
      "name": "Montecatini (1 action nouvelle émise à 110 lire pour 3 actions anciennes)",
      "share_type": {
        "id": 4,
        "name": "Rights (Droits)"
      },
      "types": [
        {
          "start_date": "1948-10-25",
          "end_date": "3999-12-31",
          "id": 501,
          "name": "Droit de souscription",
          "stock_group": "R"
        }
      ],
      "start_date": "1948-10-25",
      "end_date": "3999-12-31",
      "prices_from": "1948-10-25",
      "prices_to": "1948-10-25",
      "is_mainstock": 0,
      "prices_count": 1
    },
    "103729": {
      "id": 103729,
      "name": "Montecatini (droit et coupon 8). 1 act. nouv. émise à 112,50 lire pour 1 act. Anc. (Voir Avis n° 23596)",
      "share_type": {
        "id": 4,
        "name": "Rights (Droits)"
      },
      "types": [
        {
          "start_date": "1947-06-26",
          "end_date": "3999-12-31",
          "id": 501,
          "name": "Droit de souscription",
          "stock_group": "R"
        }
      ],
      "start_date": "1947-06-26",
      "end_date": "3999-12-31",
      "prices_from": "1947-06-26",
      "prices_to": "1947-07-01",
      "is_mainstock": 0,
      "prices_count": 1
    },
    "103730": {
      "id": 103730,
      "name": "Montecatini (Sté Générale pour l'Industrie Minière) (droit estamp.). 1 act. nouv. émise à 110 lire pour 2 act. anc. (Voir Avis n°s 24368 et 24394)",
      "share_type": {
        "id": 4,
        "name": "Rights (Droits)"
      },
      "types": [
        {
          "start_date": "1948-03-01",
          "end_date": "3999-12-31",
          "id": 501,
          "name": "Droit de souscription",
          "stock_group": "R"
        }
      ],
      "start_date": "1948-03-01",
      "end_date": "3999-12-31",
      "prices_from": "1948-03-01",
      "prices_to": "1948-03-03",
      "is_mainstock": 0,
      "prices_count": 1
    },
    "105291": {
      "id": 105291,
      "name": "Montecatini j. nov. 1892",
      "share_type": {
        "id": 1,
        "name": "Stock (Action)"
      },
      "types": [
        {
          "start_date": "1892-12-15",
          "end_date": "1898-06-30",
          "id": 18,
          "name": "Action",
          "stock_group": "S"
        },
        {
          "start_date": "1899-02-13",
          "end_date": "1899-02-13",
          "id": 18,
          "name": "Action",
          "stock_group": "S"
        }
      ],
      "start_date": "1899-02-13",
      "end_date": "1899-02-13",
      "prices_from": "1892-12-15",
      "prices_to": "1898-06-30",
      "is_mainstock": 0,
      "prices_count": 148
    }
  }
}