{
  "id": 11777,
  "names": [
    "COMPAGNIE FRANÇAISE PÉTROLIFÈRE GALLIA",
    "Compagnie française pétrolifère Gallia"
  ],
  "name": "COMPAGNIE FRANÇAISE PÉTROLIFÈRE GALLIA",
  "balance_sheets": [],
  "balance_sheets_stats": {
    "start_date": null,
    "end_date": null
  },
  "locations_stats": {
    "start_date": "1928-01-01",
    "end_date": "1930-12-31"
  },
  "locations": {
    "Siège social": [
      {
        "location_types_id": 1,
        "location_type": "Siège social",
        "address": "Rue des mathurins, 58",
        "city": "Paris",
        "district": "Paris",
        "country": "France",
        "in_yearbook_from": 1928,
        "in_yearbook_to": 1930
      }
    ]
  },
  "persons": [],
  "persons_stats": {
    "persons_count": 0,
    "start_date": null,
    "end_date": null
  },
  "yearbooks_ocrs": [
    {
      "source": "annuaire_df_1929",
      "yearbook": "Annuaire Desfossés 1929",
      "page": "1182"
    },
    {
      "source": "annuaire_df_1931",
      "yearbook": "Annuaire Desfossés 1931",
      "page": "1215"
    }
  ],
  "juridical_status": [
    {
      "juridical_status": "Société Anonyme (Libre)",
      "start_date": "1926-07-22",
      "end_date": "2025-10-02",
      "comments": "Société anonyme française, constituée le 22 juillet 1926, pour une durée de 99 ans.",
      "source": "annuaire_df_1931"
    }
  ],
  "equity_capital": [],
  "profit_dividends": [],
  "public_status": false
}