{
  "id": 11280,
  "names": [
    "BANQUE BRIERE & CIE",
    "BANQUE DE PICARDIE",
    "BANQUE DE PICARDIE (BANQUE BRIERE)",
    "Brière et Cie (Banque)",
    "Brière et Cie (Caisse commerciale Brière et Cie)",
    "caisse commerciale de l'arrondissement de Compiègne (Brière et cie)"
  ],
  "name": "Brière et Cie (Banque)",
  "balance_sheets": [],
  "balance_sheets_stats": {
    "start_date": "1921-12-31",
    "end_date": "1932-12-31"
  },
  "locations_stats": {
    "start_date": null,
    "end_date": null
  },
  "locations": {},
  "persons": [],
  "persons_stats": {
    "persons_count": 0,
    "start_date": null,
    "end_date": null
  },
  "yearbooks_ocrs": [],
  "juridical_status": [],
  "equity_capital": [],
  "profit_dividends": [
    {
      "first_date": "1921-12-31",
      "last_date": "1932-12-31",
      "obs_count": 48
    }
  ],
  "public_status": false
}